ROC:     BPix_BmO_SEC4_LYR3_LDR10F_MOD2_ROC0
col00:   965C9B6CC39A897BC9AB88CD96949848AA9978BBB98C9B97A9DAADA946FE49ADABC7789B9B697685
col01:   B57CF9BD979CAEACADCA589789A97BDE999CEBB8DB9D9DD5BCDCBAAB88A98DA7C9B7D59BD756A971
col02:   BE8BABBCBA98CD9AD7AD5799D9CF69EBBEDEC6B9ABA9EAAADCC8988CD77ACF7DD816CAB389676666
col03:   BEAB5B9CFAB7BBFBACAAD9ADCCAEF6AF9D9DBABEBBDCBC9ED8D6769DAB6AC9AD7BB6B99688797796
col04:   7BECB8BA87E6EAABC898CDD9ABCBBFD9BBDADB9C98AFFDCBBA9BBAAA8A9EA996A8ABA6BC67A7B655
col05:   9D7998D767897A9888A57FBA9B977CA69CBB9CDBCAB9D9BA7F9EDA4CCBABA96BA8676CB3889D8668
col06:   CD6D8DE7CAAABCCDBA9C69C8CFC9AAADAEABCBAA8E94CA7BCE4B7ABBDA8B799D9EAAB7B69AB766A3
col07:   CBAB9BA87AB69CA8E79A38F87F9FAC6DFA58C96BC9A89779D88A8A7ADBCC499628B9376AAB678797
col08:   7B8D6A9BA8388B99C8C8889B659CE889D9E899E7CA9C9ECDF5CAE686EFB5C5A895D9787955957D36
col09:   A88BADCABEEABAABCDBB8D99C67FEDC98A9CCBEBCC9CEA969ECDFA7DDEE7DD8EB7DA87BB98C8AB54
col10:   5BC99CAA7BD5B88FA8E89CBA8AEBCBBAC79E8CFCB96CAEDCAAEA889EA6D97979BA9B4567C647AC89
col11:   8BEA8BC69B689C7885AAAB7DB9C68AA7B8BAA7DBACC99C7C88EA7CB497B8C98BB87A68B98896D947
col12:   7ABD5899959AD8EA989B96CCB73EAB78EAB8BDCB9CF6AB6CA9CB59A8CC8C99CD6AB4BB78999B8C76
col13:   898BAA968AB4B88869CAD6B9AA9A3BEA97B9A899D8A8BC979AA98EA899A9EC9887AB8B673C738589
col14:   BC99B79B896ACCA5987BD79DEB66AFBA9BAAA7CCCB8BC8C8A88CA47C6C5C9C557569AAB9C8687667
col15:   7DB99899999A98896948A8858DC9CA7AA7ABAFEB99DA8C79889A88B98EA47887AABA67A57A5969B4
col16:   8BD8B65989AC74BAAD6D8BA7AA7B5A987DB9BCF7D9BEBD9ABEDBBF8DDCCA4BC67554A4D8B658B975
col17:   59A99B8B98AA6CB9879959BBBC8B9CEA9BACD997DBD6AB789D7556C8967BCBAA996A374678C6A591
col18:   DBA55996BA98D96CDD99BB99A9ABCCF59B6C5AA9AEBBD988AB6A7A99B6B86A7B8DA74A5BB78979A4
col19:   8B78CC794A8E7788E96BB5D9ACA8BC8BCBA99CC97A679CC7DDB99DA899A68B9CDC3968BAB768A997
col20:   8689A96DECA77C88676ABC7C7AA5EAB6A96A799C994FDA7C85D5A9B7839C7EAB5D38EB7666665942
col21:   8968A45ABBDCA8AAB8C98AC9AFAAACAB68DABBD5869C9B8A9DB9DAD6499A97787E8878AA65369961
col22:   687B6CBA89D9C8AA88B746DD9C7AA9ABDAE98ACB6A7BB988D855CBBBAB84E8963DB6C5685857A7A3
col23:   8BA5777B789BC585A86B9A8A869B7AC96999B594ABC998687359B25B9A887598B478C695445689A4
col24:   C67AB6A8CAAA7BDD86A6789AA999887CB88CB9CB699BB74AAA5979CDB7B8847BB76A765499994478
col25:   D89777887ACCB9879FA947FBB8B65AB9A3A487876BB8ACBCAABB9BBF6CC7CA8B5BD8955967775855
col26:   B5AB88BBA669B9BE7DCBB67ADEDBBB8AECAF9AA9CEA9AEA89CACBBDA975A9CD457BFCBA9B888D8A9
col27:   8CC74BB8988AD9C9BB8BBB4A9BCC9DEBDBE6FCC69FAAC7F7DB9AA99B8CBB6B7CACA86C695C6ABA79
col28:   CDADC688ED8C9AB9FABD7C6B9EFCD7BBE7CCFCEB8CB99BBCCBCBDF6E9CEAF5EC79C7CC9A678B5BB9
col29:   B9DA6966A9A87A97B99C59AAA9AE9BABAE59FFD8D99E889ABBEA8AAEAAA9B7A76DCB9A9ADA98A9B9
col30:   A9A9BBCCA7DA5BABBC8BAB99BDFBC66E7C9B9FBEBA6A8CEDBABAACCBEDB7C855986BC96A9A9A6B7A
col31:   9A89A99AA979DBACA77EBABAC9AEAAFADDC999FD6A9BED6DAAFCE7BEEC7A879888AC98B89CAB9988
col32:   BC9AAA9BBACACBDFADD9A79BC978EF9CCDFCDE7ABDAFCCACB7AEFBB9DAC9CD59CF99BE866ADB7A4A
col33:   BF99EACAC8DBABDB846A7D9BBEADCAFABA9FBB9B99A9FC9FAC979CCCAE9CA86B9AACB9DE9D9996A5
col34:   BCDB9798B99CCDABBBAB8CAB7BCC7CECDDEACDE8CADCEDF7EACD9CCC8DBECCF9B8AA99CFBB6D66A9
col35:   F868A8B7A438DBBE8F9ABCCB97E88ACEDFFF8BEEAEEDBACB9CE9CCE8DDCBE9CADABBAAA7B77A7ABA
col36:   FA8BDB7C88BB8EADDCACBDF8AA9AAFABFDC98FFBAAAC7ECA8BADABBDDB7BAACCDCA7DB5CAC7AAD98
col37:   A665AABAD6F8CE8DBBCBABCF9DBDCBCF8C8C9ECAA9FBEC88BCE9DD8E8CCA97CBDA7BAD6B99C98BA7
col38:   E7798BAAE8AEFABDBC5FCBB9BCD8EBAEADBDD8ECEACADFBFBFADDCBDCDAFEECCDDFEDA88DBCD77B7
col39:   A999F7FBC99CC99CC9CAC9D8CCCBFECBBD9CBAEDB6B7E8DCC9FABFEDADAE9BEAF9BDCA84CB995BA6
col40:   9699BCADC86C9BCDEB99CC8A7ECCFFBFFDFFABBBEDBCFCCCBC9ACBCECBDCECCCDD8D9BC6CBE7DC6A
col41:   ABB879B9E587AA9AD9A78D9EEBFCABCB7E7AADDFCBCDDEF7AA8D9DCC6B9C9FFBCD9EBD9C8A8A58B7
col42:   BD76BA9DC98CDAB9F6DABA7FE97C589DF9CCCF6DBFBA9DAC9BB6DAFDAB99CAE9C79ABBDA8BEFD976
col43:   B9B79B99A7B877C7CFBB67EEABDDCBCD7BCCD8CCDB58FB989F9A8B9E6CCDAAAAACAA88DDAA597659
col44:   B3ABDACDC79ACCB99DBCCBB8BA9B6AAEFBE98CF5E68FCADBDE9BFAEB8EACA7C9EDA6799B99C979D3
col45:   A87BAC98BA799D9CDD6BBCAF8CE68AAABFF79FB9F6B69CB9AADCAC9DCCDADD9A6AD7DA5ABC7D5C99
col46:   FC8BACAA8EC8C9988E9767E8ABCBAFCA8BFBDBC9DE89EED99F9DBDCBAC9EEC98997C89A79A19DA6C
col47:   897B8AD5AA8AD8D8BBCA879AA89BB9CBAE8EABCFE9CAB98BADB9CCDDBDCBFBAABDA7B8788DF9D988
col48:   887B7AC77A78488BCB9BC87ABBFDEABEAB9B99DDBAEDA6DBAAACEACF6BCB95C6AA9D9C589AD8A858
col49:   ADA89C699DD69D8EDCE89ACEB8EAB959A96ACBBB9BEBDDAFD59BBD9B7AFD79AFA8CA7898B74C7796
col50:   9BBE8A78B8B777AAAA8ABAACEFA9BBAA9CCECE98F9CDC5BABAAC7CBACAAB8AABCBDCDC9C89697955
col51:   D963B56694575974B765B79B688C6C67A9A789A87E95BBA47A695B4687968298B767855968745876
ROC:     BPix_BmO_SEC4_LYR3_LDR10F_MOD2_ROC1
col00:   CB6141A427A5467987793979936889842B88836D35A8532969869B8B34BA58588788589986157716
col01:   99348B8445748755A97983867B4C6779D3858946478899B7CBA78386A67D759998775A9CA66B6AA4
col02:   6C7375898CB8B8556857361847A6CA267C7D8749CE9A65B897A9AA79A86D7957D56687D979549593
col03:   5683676AB381688B34488977AB9A69AA7BB78A5EB79AC97CA985A4AA67AA98FC7878657BC4878433
col04:   455A378935A39687898B4896769B66899A465C5A97AB69BBD679978A6CA6FACC4786886479B6B795
col05:   969652856938287BAB779698AC6D7A9A59C59D8FAC99CBC9E7A9999446B7C5B78BAA789C6A987787
col06:   483852394A53746477367776A9AA898776A787A88999AA897AD948BB317A668EBB396B766324CAA7
col07:   77893A778B36355578B7BB776669FAD648F8CA7CCA9DB8A98BD69AB7EAAAA9A7955978A9CA865997
col08:   D6827555A549A585656DA556BA87B67EBB9B9DA99DBA986AA86655AB6AA6F98A3775686773C33C41
col09:   35566966269A476886B6C8BDA37A79CA9AABADAC79AB659E7B8B7C51E679FA678597965B8769A675
col10:   8C576687A79544875596349CB7AA376CCB6ACAE9AA9A995A988998AC998F833E94977869A78C9A57
col11:   C78576347647C6989758EB846A6878C45CB97D996D6AC9AAAC55D9B589999A96698C8BA477654734
col12:   7668884A759B2669AA55873AC5578EC78515B5569A6C7786EB959A6785AEAA61C962485867BA94C5
col13:   57A569A67889675A56387BA97AB48779A799A7BB9A7A1AB6CAB4C8B7CB7895857619D967DF8C58A4
col14:   88467A664787777583B968829C7C98F66B9BC8AAC5B949AEAAAA8B7DCCA68AAAA97699B737675B66
col15:   966C5A4A66B4937C796C625C5B89E7B7789AB6699CA88F9988AE9A978BC9C78547ADA937BC767598
col16:   B447595967978B7A23467B681CA7B9C57B4E6DB89A8AB8A9DAA877B7777A7A24A86AA96A87558C76
col17:   878B77665968447791DA15888958B73973AB7A794A8C47758AA9A98A9AD7788B999976497AF59669
col18:   4674644C56894546197B299DB23787AA76B89C69D76875BCA73D979979C496A99AA93859C787796A
col19:   371373B776D84479B79C74515B9858C9C8BB9FA7CE73978D4889966F957B56D98EB9DA55AA3A6467
col20:   496576B645154998466999A86AC78AB8A869DCC866BA9A89DB88599677A96B7C5B2CC7F5B9BAB565
col21:   A478A8586687989458B956E586989886CAE68BA797458A68AB8A89B9ACA9BBA57674B74798597993
col22:   4397296456BCD66675288996B98AA9CA8E89AC9C9BC8C6B6B68D746AB879885B9C5AA6589A767898
col23:   95A9A6A5A4C88A745A87698588A87979A9A9BD63769C8836C575888A7ABCAB9785A413A796758775
col24:   6536769348488BB458BCAAB5B7C889AD98B7AB89D8B95895D9ABA7B6786D549DFC54677ACA687B88
col25:   4B9294367B66487A6B7896DA89BC88EE6ACBB979BB599B86BA68688E5AB5BC65A6BB8779A277C151
col26:   A75AA9C89A796A5995BA9786BBAA6D9CA8C999BCD5B776EAB7AB88CFD659AD6C9BD6B7DA97C6C979
col27:   55796C8BA677688B68BE7BAC8A97ABDAAD8989CACDAB7BCD9ACA896889F8A7AA997887879E6AD9C5
col28:   4CAA566877764B959D879DAAA7BBAFA9BCACD9BDAABBE9D9CCE8C99F7DABA6ABB8AB68AD8A4C8877
col29:   7538EA6E4A7A86A9A9CA679D5A9CCAC9CBADCFB9D89FF9AB8A6CBAADBABDB297E75AA9EB9697786C
col30:   B6A67A7844836AACEBA5EB7B98DD6B99AABA9DE9768EAB8BA7ABCDFCB9AA9ABFAA66DB66F9467978
col31:   B884A6B66AAC788BBC99F5CCC6CBAAFBEDDFE69E98ACB9D8AFAB8CB9A9BEA9B87FAD8D55B7CCF89A
col32:   5C9A79C7A8979B5BACC8CA8DEC5D89EA978DEEF9FA698A97DBFCF88FAE9A9C9A99B87ABAC9A6D9E1
col33:   8B69499AB998659DAA79849FCB9BD9CAC7A9CDB83DDD9FECCCADCC7DEBDCD9EFAA99878A699894A7
col34:   566A9AAC96BABAECB9BBCCD969C8BBADACBCCBCDFEA97F8AE9A9E96CBAA98C8D7D6B4ACEEA77ADBA
col35:   C787B8B99AC8A9C99AB88C9A998B7ACECBD8FBEFBB9D9978FBC9BAFC9DC889ABD6C559CAC7D8B699
col36:   AA96B68985BBCB8A8A8FCCF6B5A9CABD7CECDAAAA7C7EEEADADBC78CDCE97DACA8CB6AA9A8A99E79
col37:   BD4671B8B6BB9A7DD7ADC7BADC45AABDCBABFDDFDCAF8F9FFACD59AAEDFDCCEA8BAAFEAABABC997B
col38:   C89B7D87F8AAECBDAA9CBBDBD9DC9AD8CCE7CEDBAFFEFDCFDBEFC9ABE9DACCE7FDCCB8A97EA5387A
col39:   745788A7E883976B5DB9D8F7BBDCFAAB9EDF89CEBDFBC2FCDC7EBECD8DCA6BD5CC5996DBAB6E8AE4
col40:   8BDB979CAC9BD83A7FC9BBAF9DB9CBFBDFCBBEDEFBADFBAFABDBBACFFAAAA7CDFB89BC9E659BDFD9
col41:   C79D68CCA99C56C86ADD95FC8EDDDDADC8CCEEFFCAB7FEAEFC7EE9DDA7DBDEAA9FBA8AA7AF99A9AA
col42:   B88999998DD78D8779C8B8FFBAAAFA999FFBBA9EBE9D8BBFDE9BBDFEAFCC9989DDA8C9AAC8ACD748
col43:   73DA589BB98996DA9B9CC9D9CCA9FDDCC95ACFEBC9FFFDECCB7DB8E6FC7FBFE7E9E7ECABFCFDBBCA
col44:   9B899A9FE8EFDCB9DDB88C8CFB9CADEEAC9CBD9EFEEFBCFFCD9FBE8B9B4EABF9AECFCE59976F99CA
col45:   ABA69867789DCAB9B687E99CBC8F68CD797EDBDEEFD9DECFE96EBCABAC9A7ABE8CDCB97BC9A99746
col46:   3A9A794ADB9A59FBA9B9AC9C9CDAAA8C7CEBEDF8ACCA9FCFE9DCA9AFBBA9DACFDA9E996BCE6EA8BC
col47:   7A65BCBA78698DA8BA9ACFE99F6C9AF9DECDCA7FBF9DDAAEBDEBBFD9CD9BFDCABB7BA8FFFACCB8BA
col48:   875779584A7CAAEDCCEB9CCABF6BEE99AEFDAFDCBBBBBCE8CFEC9CDBBDA87FBCBCBCA6AADDCCCC94
col49:   9977B8BAC9CECCD87AB9FBE7A9F8D86CDA8AACAFDC7BFDEFBDDBBA8FAEDF8ACCACC7EAABD9F9BCA9
col50:   A5985AD87ABCADECCFA6AAFBBAE5FCC7DE7CFABDBBBDAEFC7F888CDF6D96EFFDBC97EDCABEB9A9D7
col51:   B4C8866853967999595A6677AC9B8E8BA88C95E9B6D8A9679A9699CA8D827AAA9C87D85798757797
ROC:     BPix_BmO_SEC4_LYR3_LDR10F_MOD2_ROC2
col00:   9645557A7755A5A588396AA527849658C75A83676BA96A9C6A96697B577686887977298845683244
col01:   89A9C7679866899A9B698B9B6857698C9946AA7BBB767B4979999E6AFCB59AA6889A66A94922A8E7
col02:   7B98798A67B2C988A69AB1CC3C9B65698A8897984BA699683BA7A7356686899876794BBAA5777677
col03:   45578BA4678696A7B7C99797CB7C97A9A6AAD8A926AA878B8938C7A75BAC5877489864A9693A9755
col04:   E797887967787769A7789A77CA66A6A77475B79C7B7BB5CA8B9F4C9B76D8F6656AAA477577654A96
col05:   4AA7A7B9888B7889B89586BA9589DCA9AB7BA36978BBCA8A9BA98DECB9AB9A89AA7A7879A46A7953
col06:   5899754ACC477655997997A779A598ACA2B2DBAB9B9C996A98B3B7799A9A65A8B9686756437BA4A4
col07:   9DACA678AB86ABA5969A884E757C9BBBC88CC96DB965C98AAB9AA4CB8AC99998ECB8668B897C34B5
col08:   BB57965D7B49997C8BB39689A877C8586CCA89778A79899AABCB5967BA86C937BB78677774679671
col09:   B87B9B87C9925A6CD99986DA68C9BB8958C97CB8CCBB7973B979B8B997777A6585969E8AA898D561
col10:   B99897689647644B3398C8599A98A48DB996DB997A789B9C86A47BDBBB8C36477B6A5A38A3624971
col11:   A9A98B6497C7693947DA79B9DACB8A67BD68A88A587F67C97AA6AD9C79AA876459689A7979B99866
col12:   69A5BBA6369CA67888A7986A48AAB7A8679B899A9ABC9DAB99C8B88688AB788A8648AC967A866517
col13:   467A5877B7AA8876995CB6978A7BF9EB787995ABCB74CA98A9584B9879AC896A89964137599A8838
col14:   89686A5D84CC3B897A6877D75BA98C8D8D7FAA8A9A9BAB6967798959A9AA689A4557BB8A449B7369
col15:   AA7776787699C76C8C79665B9C8B6DAE767A7787BBDE6A7CB78489ABCBCBC88CC34A6958CC765477
col16:   79B88A81975885BCB8797A77676BB5D9B96BBA9A788B956BB5ABB9B9B9C88828A889B898776B5715
col17:   BB88A649B8AAC57598AEB97C768E76B8AC5954CC6D88AA87AB8587A988BA5B79A797C69C367849A7
col18:   A587C72B788696B57885686A69B7C6E5A63F878999B798B789896A695999B9796756688C99847292
col19:   9888389DB997A939BA89B58EBAA8A7BBCCB8AA999D898D8DA7757898779DEAB84AA5CCA5BB77C467
col20:   59694A9E7DB99AB86CA95876C878978B686BAD699D9AA77B86A869698A7991BCA66AC9699A8B7858
col21:   DBB687B68B587A8C7C8CCA87C74D878B89CB989A89C7996CCBD8A9D9AFB79BBA66AE7CA798669636
col22:   7A65DC698879B969638597684797867657A96AAABB87A8799D7AA9A6B99787999879EB896B87A795
col23:   B498377678AA87DA7B8959C9A776A778A757AA6596685A8ACC9AA8876A957A76569747B8AC557725
col24:   8C66B7955996588888D47B77478BCB697988868B75B9B9A986889A989A6DCA4A4EB84976A6756755
col25:   7A7C876AB499698E56A99C9BD9A9AAAB8AB89BB9BBA69BAE99CCA838BCAC9B6B9894387787769889
col26:   CB9AA8977B7B587B9AA8E88EABECECDDB9CCCBCCDC6C9998BA7A968E6E9D8AC3ABC695CCA88688C5
col27:   9B6755898D7787AAA9C7A68899BBB8D8BADB6BA9CDA98BBABB9AAAA9DB997A6A8A94894879889976
col28:   95BCA8A8C8A7C98BADAABBD7ABBAA6BBCB9D9E77CDB8ACAEAA9DB798EBC8B8CCCA677C5B6658A969
col29:   9AA9B8CBBBA9AB9A9B47ABCD6AEBB9BBB9FB6DACAABDBCC8FBA98A4AB9FCBB9D8CA99A89D8C75C95
col30:   D9D9C67C798966BBB899BDDFCBD7BAC99BB6AC6C9B67E4FACBACD8A7E998B85A77A5BB7969A67434
col31:   9B76C9EC779D7ACDC8CE7C76B9CEC9DDCBAAC9B9AAADDD4C987CCA9FAF9A9ECBBD7787D6B846CD5B
col32:   ACD9EC79BB979ACBCC9B889C8ACBCAD89DABBFAADBDEECCB89AA8DDBAA8ECE897CAB998B559D9896
col33:   7AAAAA8CB9E8AA9EEABC6ABA9ABCCB99BABCEEBBECACACEBADD6AEC8DCBACC9B778C6B98B99AAB98
col34:   CBC7A97D787CCD77DAB78AAADABBBEAB9EEBE97BBA6CB8FBAA8BCCBBACEE9DD9CA9BC479E88A6884
col35:   9B887ACADCC88BBDFA87DECBBABCA9D8C9BDA9DF9C7BCAAECB6BAFE6DAF98C98B8BA8C8D796A8B64
col36:   788E7BA78AC78957C8A68AD76ACE95E9D7CABBA978ABAA97FEC9CCA77799CB89BCBA995D66BBB58A
col37:   BDFE9AA7BD7A7D798BAEAB6BABBADFEADDCFCDFCCBAF9DDFC9CF8DADBABD8D9FB87CCA99E87799B8
col38:   CCBB348BBDAFDD9CDCEACDD9DB6FAAEBC7BBC8BDE8DC89E9DA85CCA8AE9EDCABEA95CD787AB6AB7A
col39:   8BBCAB6CAA7EBA7BADBA9EBB9D9BDFB96F7BCCB8CAE888CBACFA9EAA89F8CAD9ADCBA6EBA785EB76
col40:   AD6A8EB9989999B9BC6C4DC9DB9EDA7AABACCDE8CAACC8C8CD799B79FCA9CAA86CD98A69B87A5D96
col41:   EE9BDA8BC9EBB9EBBDCABEEEA8BB78ACC8BFBAABCCE888BDA9AACBDA798AFE7C99AC9DA959C77C78
col42:   A89B98A8EABABA69DF769B8ADF8BCCCAC8DDC9DDEBF9BECCC8AA9CCCDAFAC99DAC8ABBA588ADA698
col43:   9A8EBC9DB8CDC9A8ACE98BDBB99FDFDB9DABBFAD9BDBEBABAB9E7C898DCCDD8DBA9CBBEA958ABA96
col44:   BAC6C9DB9ADD9BADB8DBBCADDBDFEB8CC9BBAB7DC9FFCABEAA9ECDD99CDFEABB9A8768DC59BB9E69
col45:   AE59ECA5BBF8ACAEAD9CED9DDCCBAABDABDD9E8E8ADA9A98F7AF99DCACBD9BA9DD8AAA99A386AA95
col46:   7DED5CD6DBBAABB6F79B9D9BB9CBDBBCEEEACBC89BCA9BAD9DCADCAAB6F8BEFBDAC9E75995C78BA7
col47:   BA8CBB89A9BABBA8A9DDCCCA79EC9D8CC89B9BBEDC4A8BCC6AD78CDDCDAAECCB88CA3B88EC8A8BC7
col48:   BBD8A9F88CC9ABEEBB2AA99AED9BCCDCDCBBB9C9BD9CA66A9DC58E8B9CC89CE87ABAE6A798BB977A
col49:   FCCACD7FB887BDACCAF8C7BDACB8CBAABBD9DADFC9C6FF8ACCEBDBDFECADBDBD98CD7ECB988CAEB6
col50:   EACB5AAD84BBAEC9AADBCBACA9FEACDF67EBCC4DAC8A8BBA7996EBC98DA9DA895797877969C97A57
col51:   B9BCBB88AC88B8769AB7987C69CC66CFCD9AEA8BAC496AA9C87CCD5B6F87A789C796BAC765784B9A
ROC:     BPix_BmO_SEC4_LYR3_LDR10F_MOD2_ROC3
col00:   437A4656468BA62568687BA454A97766A569696549896AAA977A8C77D86798AC8996A6226787574A
col01:   9A48714AA7A768A73866B8789A976C98B68BA86BB8ADCBBC19B89A4D89A785CC598AAA59A7B7CA79
col02:   432A589879C738488A4BA488E87BC6B7988583777AD69D978B77C8AC8DEBC3B97A8E9B76BA89A888
col03:   544A226877499A5B5A2B9899C876A68656CA8D8579BC989898677CAB9998598AAB8C9A8A5889ABBB
col04:   AAB4347B878CA54586A838B6CA689BAA5A877ADB76CC9AAA9CB9B8A77ABF7A6BA4A9BCA8846C7E68
col05:   76679928788586BA67885B9DB7C9BA79A8A7BCBC79558AAB87B9A989A8E67B8BBD89BC77E65A6795
col06:   A574A576A77656C5BC9F7BA7C9B9A8AA697C7799A987CCA847D8C967B99C85A98BA499BAB8687D79
col07:   B9898B95898859A7C749DA89CA98A88A99AA99897CAC66CAA89D9B9CB6B968C6B9D6ABAC679E96CD
col08:   5615755933B8B998697876BAAC78B6A7B99CA75CB97A88B78889AEC9AA8B6786AB92E57B4A9C77CA
col09:   A679A7669858A7A999B97846988AB9798BD899878C858AAB98DAAC9CAEABCA89B7A4C898686897B5
col10:   5669867757A896C8A978EC4BC79DCA8687ABA7ACBB8989ACABC59B8977586879B598B9A89BB2CD56
col11:   77897A78B7695897D79878E8AABA669968BAB7FB7B739AB96899B5CA8AABA9C9AD7A4A6E3CCEAC95
col12:   559A997766D5499B758AB6A8799A8BBBDAB99D9BA6DE8788989AB77AB86B98AB9691895A97956782
col13:   CB5BB87E8676B89ADACDA89CAAB4B79389AD87CDD7E8DC76B939E99B949A7AB9E879A3567A98B848
col14:   3A756949987A55A6898BA6AB8A588E9A4ACA97DA6CCA8BC97A897BB78A7867859A9B79BAD6CBBB64
col15:   99A5C54879896B878A58678DAD6BB76BD9A9B6CBBA7967BBABAA6CD796B3CA8AB8878B5C36678B67
col16:   498676878768696AA74B9A8BAB66A79AE67A89A97952DACCAC598AADAA2858AAA95B99758B699B99
col17:   5C7899B886B8969AE6AA9A78699B8B95B67959B9A9B56A468A8B89998B7A6B7757986FABA78482A9
col18:   196254156779B678778898B8BFA6B7977876AA8C8CA85CAB9CBD9BBDB98A8C89B56797AB98389697
col19:   8A6866DA6A9C8896988ACAC88698ABCDDBBBFBB8AC8CAB67F99CA89BC79C9BAC88CBB6865B98B8A7
col20:   7689677A68574899895DA7B8A5BB96BA6CAADA6AC893789876A978AA86CA75B9A5697749789694C8
col21:   8A97A999665B9BA55B898698A2BAA99FDA2D8CA8D9E5B6768BAA9B9A6CA76D975858865A687998A5
col22:   867A889C9245664387BAD986B988FA77A9AA98BDA4B9A69776BF9892BD88B7AA6688A74598967755
col23:   987775B53889A3C569C76B88A99F997AC7AAD9C7AA9B958C97A9797B9B6A65976BA9AB777998A733
col24:   9658768699B698EA27A8BA9879BBA878C787CB9BB8A98ABA8FAD997E9A7D6895C9869469972A5596
col25:   B19AAA6A8764BB9A7A8879A7A849B9A8DD879BB8AAAB8B89489A88B9BCB96C89899C7A659A54B6A6
col26:   C8A8B689ABA9DE9AACBFBBBACAABBE9DEDDBDAB9BABBB9BA99DA4BA7775ADCA779A8ABABAAAAFB57
col27:   DC59DA7AB6AC5CBC8977BA6CBC5CD988AE8ADBCBC7CCB89A99BCBC988C999B6C9DB7A5997889CFB6
col28:   BFA48D93A7AC8978BABAACBCCE99AAD9DBEEAD9BA89A99D98B9AE9CBDCD9AD96C99767A98D8ACB86
col29:   A69579AFB899DDB8BD99C9C89BEC69DBDBAA9BCAD7C99FFFDBD99CAB6AE8D97B9EA78B9BB7ABCB97
col30:   EF69FADCBC998B7AFDC967D9DC7BCDCAFEA9DFA9A9AA9EA9CA987ABBAAAB69D89D8A7BB899376477
col31:   99DBF896BCADAAB9BAA8AB9D9BCAAEDEAE9BAACA9C9BDBBB9FA98BCC8ECAC85BBA9AAA9BA7B98CC5
col32:   DCAAB7ECDB9C8C9C9E8BBCABDECCAD9DAB7CCC9BE9DFBC9ACCCACA6BAA89CAD8A89DF9B7C7849866
col33:   BD9A6ACA9DB9DC9BDFFBE7499ACD969CE9BDBEABD98DF86579ACDBC687E9BBA9B9B78C6CA75C878B
col34:   C8BA7DAA8BAACBB9CBBBCBCACBD9CFABDC99FBCB8AADDA68DB7A8BBADBEEBCADB76ACBBBC76A9756
col35:   E899BCBDCAABCBDAB8EACDCA7CBE9D9B9A88FBA9E9FCE74C9BC9BBBD8AD9FCDB6DDD9AB99BAA5CC9
col36:   E9DA756C97CCC8CABE8A7A9BABCC9EECDEC9AF9AFCECBB99AE5BE8AADC9C98A8DCAC9A79A67BB5A3
col37:   CC6AAA8FA976CECCFAAB9CBDBA8BBCCEAE7BCEB7CBE9B9FCDDBA9ACCFCBBACCBCFAAABCAC887EA98
col38:   B879AB999AD8989BE9EAFCBCA88CFFCEABDEBEB7DDFCADABDBAADFEFBC9CA88BA9B6B9C87C26A7C7
col39:   B93B7FBACB9DDBCCCCF79CDECACA9BEEB9BCCFBBABEEEEE8BBDFADCBC8DAFABC9A689C6C88CAC746
col40:   E7EAA9A9EEB7A7DCA9DBCBD9CFDACCD798FCACCD9EEBCFEBD8BF9BABAABB9CDA7E8ABDCD7B5A6C87
col41:   E9D8C6B8DBEDFCBCCFCDACBDBFDCCDEFCBDEFDBD8ED9FDDFFCADAC9A8BBBAB96CDC679B99A8DBB9B
col42:   B89B94EFEB9CBCEDDAF8CE9BFDD8CB6DECCCECDCBB8ACFCDEDEBACCF9AF9DA75CB979DB5C89CDCAD
col43:   CBBDBDCBB6CDEDCFDCDFEBDEE8EAADADCEFADADFDDCB9BCBBCBBA8BECECDFAAEADDEB9BDBB7B7996
col44:   DD9EEAAEC9BAA8B9CFAC9CCF9CDEFC9CCABAADABF8BDC8AECDCFDAADDDCDDFDDB8AA9CAAADC9B8F7
col45:   B98B79EF8ACCAF98BECFCEEABBEABFAC9DFBBF9AEF9FAF9BBECDCFDA9ADFCAEBA99BBC768DDB8BB9
col46:   BBBC8A9C7ECBE9BDFBCAECAFFACFBA6EAFBBCD4BBDB7C9DBC9E8BACD9BA7EDBCECADAB8C9CE9ABB9
col47:   ECAACBB9B8BDEAABDCAECEDEBEFACCFBE6FDBEFFDEEBCCDDFFEEFC95B899DCDCBAFADBB9F5DB86C9
col48:   FACCD9BDEBCAC9C8D8DAEFD7BE9B9F98BCEB8EB9DFEA9DBBEBEBA9C8DACD9C8BDECBCA78BAC88856
col49:   BA7FBC8A9CCBEEFA9BBCFBEFBFACABCCA99CFBBFCDADCC8DCEECCBCCCB9AC8BCE9EB99BCA8BB7A9B
col50:   BAFE8BA978DA7CADBBB9BCEA9EAAECECBBCD99CEABCCAA9B97AEACACABDB7BB9DADCC89B8BE98BBD
col51:   8A9BB7B7B7856BBA69BAD87C89C9AADBAAD9F9FC7A9E7ABBC9CDE8CCC9999BBC9997AA67AAC4A9C9
ROC:     BPix_BmO_SEC4_LYR3_LDR10F_MOD2_ROC4
col00:   7858956B99B6346564446673969687878577C96767B748458B65675A8CA67769C964676675569266
col01:   675A6A8B87894896797A58A9A7549AA98A9B8AAB9736D8CA7A8BA8958A786A7899677859AA486986
col02:   67A9886468559878759877B37B84ABA678878BD4B89969887ABA76788C8E879BB566A68659B88494
col03:   867796586825567888899B5349865A6668776A8CC66B577A98D9876BB9AB883A3BAB7C7889B64655
col04:   588A63A8858775858A96A95699AA5B5BA789ABA9BD7994B9C97CA88B698F88BAAC5998549AAA3974
col05:   89A8A79789348B99B68D64B6A58AB98A8856B84793A8A7896868ADD897D9B7AA885A879C9B656986
col06:   857A97885B5A3859867687A76A4558A59897A99AA979BA8A68A8B88AAD67AC5A6A99768A6977D758
col07:   85B469787999989939A755A9979AA9C6B6789ACA89DB7D7A9B9A8A79D67B49B9A8B95A95869B85A6
col08:   4675685675AA8875833ACB867E7865A77C85988BD9B8A97A89C778967A888A5B4B4D76766878BD73
col09:   B746935566997799894969887A9879BAB75998A6BA7DC8C67B7AB6BB958BAC97A95AC899C98836B5
col10:   B8A8648BB658E9B45B9C7D7A68769ADAA99C8868CAAB9AC7AB88AB97998AB69A9967685769979798
col11:   55865B8B76796A997AC89CAF978877989A689F9B965B7AC8C888A869CC99CAB99BAB6A73A999A859
col12:   5A99769885797A675468849897B85C9C8B6C46CAA86CC8BA868C68A8669BBAA77897A9B7A9788989
col13:   A81C6669777A57985BA99A9B96578D56896ABAA9AA878DD99A7AA8CBB9B8A97D9C6A8A679C3A8D66
col14:   A668A478AA96A66896998AAA99877B8C87A6C7996C7999E89BBB5A99AACA8BA588C98CCA7AA7B975
col15:   A67857AA9867656678595B889869BC9A9C8B9A88B795FDBB99998975AB6E9B69BC5ABD7C87969A98
col16:   38454B697977686664A885AABA978687CA7C88D78A98959A5C9AABA79AD89999BC9898C76A855556
col17:   7546997B758769B699CB3B89A7BB6ABB9BACB8B9A8CAB977A7C9496EBEC9BB97A78BB9C895A8486A
col18:   86357749A86599A8965A984D79B9B98C878CC7A6B78879A6977678ABCB599AAA7B6B979778995765
col19:   986887858989B6996C898895A887B8699ACD9A8CAC7CAEBDBCB9B89C96CC9CA87BA8A8D649889BB6
col20:   8888968956755A685C99C48BA89B7A9669A9EE8ABAB663BCBA9B785894BB7B878C6A975A9A95677A
col21:   8D946487985563B9AA76A88D97989B6AEDAA7AB8A977AE8ABA7E979AAAB899958696A979A88C97B4
col22:   8264455A66B8A3A4765584555D987899989D7CAE8CD9977AA9CAC9F9999BAAA997BA9855B7657B77
col23:   6AD75779796A999849BBA78BA78B7C6EE77AD86BB9DA69C6888594CBB8C6B757ABA779752C786A64
col24:   BA9B577477A84AAB7A99999967A97BC9D7986B7A4C8748B7D8757BBCA69C98AB56A7A8574A7B5997
col25:   7958796A7A9986A86988A97A7C89CA9B9BAAACCD8BBAAAA996AA9C8BCFB999499789C79A8C98A998
col26:   A7796B9B98A57BCAA978BA9879999DB7C89AADAAC68DABABCACACCBB8CAA9BAB9AAA5A59AAA9CCA7
col27:   87A87976C968AA78DAB6998888CCBC8BBA7DABAACC7ABAABC79AB6DBDBAD789C999C89AB6A7898B6
col28:   AB9E88AA5A78A9986C8AC9B9AA9A779BDFBDCBCABB9BE8BA9FCDEBAB9BAD9A8ACA9B8AC7C59B8C89
col29:   CAACA5C7AB86CDA8ABBDCBA6696C88D9898B8CBED97A7EBBABB9D9B9B9BDBB9BCA96C79AD97B4CC5
col30:   EA9BBA7D977D9BB9AA9A8B9AA8AA8ACBBA9AD7CCE8BAC8B9CBDB6C88C8AAC9CCCBB8BC79976ABDA7
col31:   9BA8AAA8ACEA9897A99C99BDA8ABD99ABACDDADDB9ABBDB9BDDAAAC9CBF7BAAADAC98AC979CBAD89
col32:   6BB9A7A7689EABA7B9998F99BBBC8D8897BAACEEAACA8DDBDACC8DCBBCBCDB7ABD7CCBDC8DCBFF87
col33:   B8AB88BBA97ACAB8BBCACC8A9AA988BBCDBBB9D89ADBDCDDFB96CCED9DCBBD899DEBA88E99A9E6A8
col34:   6AAADBB99C6B9CA97FADB8BDCBABBBACCEEC9C9FADCDCCDADDCBF9CD79CA6BBABB6CBADA8ACAADB9
col35:   BBCACBBDCA78BCBACABA8BBCB9BAEBAD96BDDACDCCF8ECDFC9DC9ACAADDCDFD9BABBCEACDA8CCDE7
col36:   6999CC67B7A74ABDCBC669C6EDDF999B9AAE9CBCEC8B9A999D8CCEBDBCAABEEA7EBB99898FD97788
col37:   9B9EF5BAA8D6CFB9CCBBCACDCDADBBABCCD8FCCCBBBACCEACEECCBCDA8CDC89CBD9B9A8D8AAAACA7
col38:   BABE96AA8989AFCBBDAFAA6FAAEDCC8DDDD8EBFFEDCBAECEDDDBDACFC9DDDCE89CCBDBB8BAC7B9A9
col39:   A76A8B9CF6BCBBBBFC8CE9CAFCBCDBCBF8BDA9EDCD9BA7ADD9BDCDCECA8CCFACAC6E6CAAA98EA8BB
col40:   CFB9AB98945A9CDCED8A9C9CDBCEDDFAA89BCCC8CEA9DEFBBBBDE5BFBAAAABFCF7D9AC697BAAC9C7
col41:   BDCDBBBEDCABBCDBB6CCAEAEDCCDDDCBDDABBCB6CCCCCDBAFFA9DFEBAEECDFAFBFEADCEB9C8D8EDB
col42:   BBBA7988BD8BAACCB97BBBCCBEBCAB8DCAB8BABD8BAEADBDC98FDCBBCDCEACDAC9DDCEDFC89ADBA9
col43:   5BBBAFDAECCCDABDDBABBFAEDBBCDBDABBEFDCABCADBACBFCBECDEFB99CAD9DD8C9BCCCA9BBDACB9
col44:   BA79ECC9B8CADCABBDDCBBBAEC9DCBDAACCFBFEEBADBBFCDBCDDDAF9CCEECB89C8BEC88EDA9A9B7A
col45:   EC9DCBC7E9CCBECB8A9BFBAEBCCCBBCDDFD9EBECCEDEF79ABCDFCAFBACBFDCB9DA68EAA9DDAA9B79
col46:   CC6A8ACDC9AD9BBCCC8CEDCBBBEEFAE9CABCCEDBDCDFBBDDEDDCE7CCABBBCAACACEB7DCBDAABC9ED
col47:   89CCCBBEA9BACCAABFAAE8BDDCDCCCAA8ADFCAAFEECCCCBFEFD9EAFFDD9CEEBCBDBFAB9F9D8DCBD9
col48:   CA9CBEBBAADBBCDDACA9ADFCDEBAAEFCDEAABDCECADDCAECABEB9CCEBFFED9BCBB8B8DCAFA7DAC99
col49:   E8ABCEA6C9BEDADCCB9ABBECEFCE7FBECEFFDDBDCECBDBCD9CDDFEDD8ECEBC8CB8CDFBFAB89A98C7
col50:   CA8CB9CDCADBCC889EBCFFDDEBDDBEA9BAA7FFC9CCEDBABFEEF9BAACBFBCEEBDBFC8CFBCBC9CCAB8
col51:   A59E9AB6BCBBA7999E7A98ABCDA7CCDBCCBC69AADA9A68BACD8ADBBB7798AC9EAACB9AA69B8A7475
ROC:     BPix_BmO_SEC4_LYR3_LDR10F_MOD2_ROC5
col00:   6356269A57986386385A657AA7979A8A985A8DAAA5535798AA9978A48CDAAB98CB8C674384387878
col01:   64CCA5B96579677E8634889B899887DC8AB7996B8FA8EBA8797A675CA96A9DD8978ADBA98AAB767B
col02:   58735944A38C997A5749BCC46A848987BBD889DB9A86BDCB7C3CB8BAC8CACA87A758BC6879697878
col03:   6869A86555879D5B986B87DAABADA58B9C86689B99A596EBCB89B9E59ABA6797B78AAB9878986AA7
col04:   678777576A58896BDC774B998C8A66C7887B9B9ABCCED79687B877B78EAC8CB9AA7B3A57E987C387
col05:   67839569879A867889BCB9AA9A88698D9DADAB7ABEEB9988DF68878AA9ABAC9ACAF9865B77699685
col06:   75758748781445A5C98961978C887CCB7A8B6C89CBF8B598CCBB88DAACCBB88E68C69CBA8999B698
col07:   7546A85957A688A9879B96D99ABABBAC8BA79A97DCC7A8AB89BD9AC869CBBACAB77DA9B9A7979A89
col08:   697A8967895A86898A998A57778BD69BCB67798D4DCB9C7DAA7ABBEDCDBDDA5CCE579C8AA8AB5A87
col09:   867178778C796C68D9A9BBB6775CBC78C9BBDA8DCB8DD9C6995B8A9CAD6B98A9AAAB85A9677B9AC6
col10:   748666688939B7AB7B46E6A75997AAAABCA8EBCC8EABB9AABACB997A97BCA86D478C777C6599C77B
col11:   A7D8A6596395A89A788ABB9BCA5AC96B99BF79AC78CAB6CEB8B5C8888BA9BB9A787CB699BBB65C88
col12:   87778778B68A5979AC5BA6999859A4AAC9BCB9B6AACABD59BD5CCACC5BDBE49ACB9CAB9BDC8AD679
col13:   66C9B525779A99997A8AB95B99CC8BE86BACD9A888CECDC6888ABAA7A8888BA598B898ABBC4A7A78
col14:   7B86A87B86785A986DAAA87BCA9DBDB9CCCCDA7DABC7AC99C95A8BD978C8B97BBDD9459C878BB746
col15:   746A92387D678667899597C3B78ECE9B9C6AA89CC986BBBB966E8ABDDCA999A8AF4C5BD88B94A8B8
col16:   B88C8A6969A77A9A7A6A9868A77698BCBEAD7CCABEB96CCC8DB89B8ACC9CC9CC5B9BD5868775A9A8
col17:   88997884859935268769879BBA95A99CD7C99E8CF86A989B6D99BFDB7897A94A97B7C579A5D676A6
col18:   68977A789798AA99368A697578868EB4DFADDCD88E9CBEB9897B9B999977C939DB9C957A97487C38
col19:   898C3D9969846AC6B6AA9C889BCBCAAA8DCDBABCD88A9AA8DC9EACD7BBCF99C99A9A9B9AE999A7A9
col20:   85A54B4A869A675978759B777B89AA9AAC7DDACA3DB97A9DACAACAB9CAAA6A4AAC899A99B769AC5A
col21:   698B947B7899871B778A898B84DABA9979DAACC97AE9CB3CDA8AB6AACAD9DA99C97357BD8577A955
col22:   98B866687767AA99A97D7CAAC5A88CA9AA9DB9ACACA99D989ABCA9E8BE7DBC85A9CD6A897A979A73
col23:   A8BB7977B7AA75767A55A7AB86CBF79D89D8C77A997C99A97BAABBDB4AFBAB56EA78ABAC99686A98
col24:   796666677BB88967A9BCBB8DA95BA8BABAE9BECEB88ABC8AA7B6BC9A9989CADC6597B78D5B66959A
col25:   785793778D6D557C9B6AABBBBC8C8A9BCCA8AEC86AC79BAED77DBBBAEA7C36B976BAE7D798897A9A
col26:   6797AAC868767868A9C8BB999DAB7DC869CC8A9DABD9AACACCCDCABABEEFFB8ABCAD7875C95D8A88
col27:   A89B5BABBBAAC9ABC8BAA99D85CC9BFCEBADAAB9987AB8BFCE7A7CA9AFE9A9B8BA9699ACA9A79899
col28:   62BB9568A89D999699ACBFAC9BDDBBCABF8BDABD7EACBABF7EEC78AAA98A9ACC797ABCCCDAD8A8A9
col29:   7998CB9AC88CC77BBAB5C88DDA9DEAE9FDBAEFBBCBACAB8CAABBFCCDA9BADC9FB69B8BC795B997DA
col30:   9AA8A7A9A887A8A99FAD78A99CBBB9C9CCBDAEDF99E9EBCDEE8DBCAAB9CEAC97BACB9CD6D698CCB6
col31:   C79A46A5BCB8DA7FCBACCAD9DCDADD9BDDCDCFC9CDD9CAECE4DAFE7BEFEECD9BDBCDB8995B9E7D85
col32:   C6AA789ACA69C6CCCECD6DDBABABF9BDE8ABAAECDFEAB99BD9DCDDBBFE9CDAAAFBA98AEA6D97868A
col33:   999A99BB4B6D6BB8A8C89C9CABCDB9C9BD5F9BEEBDACD797DC5D8CABCFAC9B9ECAD8CA6BC5ABB8C9
col34:   AAD9BBC778CAD9E9ABCB9CDA8ECB7EBD9ECFEBAACDADBB9A9976BECFCABAABBEC59A6ABBA887A9A7
col35:   EA78BC8A7F8BBBBD7EC79D9CACBEABCAD9BFF9ACDDFBD9AAFFFCBB8B9E9DB97ADA8BCBF7BCE9AA75
col36:   ABABC7BA5C9EBC79AABC9ABD978CCCB98AEDDCED8ED9BAA9CBBFFABA9DCBEC787A9F8DEBC57797DA
col37:   97AA699BBAB99FCA7EBBCBA9EADEFDCBBCCCBDFCFF7BBDDEFCFCDBFAEDAEDC9F8BD68EBBCFABEC9B
col38:   8CAAEDADEA9AA89AA7BBCA9CCD8CCCBAC9E9BDCDFACCEFCFCACDDFBACB7BABFCB9AAAA9E876BAAC8
col39:   D9A9A7877D99A7F9B6B98DACCDDADDDAEDDBB9CDEAD699EAFEBABDEEBEDCAECCBBEB9C9DBB9AC777
col40:   BB8B7B6AC97D7ACD95FFDACCBFAC99BCDDDDDCBFDECEA9EBCFACBCABDAADAF6BBDEA9CA8C8A6CABC
col41:   9957BB5AF8CCCDBBBC9A78AAECAEC6DCEBCE9C9CDEEFDFCADCEADCBCDE8CBEB6CAFBACBC8EEBB799
col42:   67ADA8AB9BB9BAB9BB9BCDDDCDDFDD7ABBAFABAAECBDCF8EFAFFBFBCCBFA7DCDCBAABCABCBAB7B98
col43:   DBA9ADEB89CACDAC8DDBFFEEDBD7CDDDBFCDEECEDDAEDFECBBEDAEFDC8BFFB87D8CAEC8A689AAAA9
col44:   85A9AACC7CC8AC8DCCABACDBA8CADCDD8EB9DCE9DCCFDDF9EDCACEA7FCBFCEABBFDCB9CCB9A9F9B9
col45:   A789CA88BD898B8B9E98ACBA7DBCAAAEDDA9EEFBBFC8FCDCCCCFCC9CDEBAAB8B9CACB88CCBEAAAA7
col46:   9CB9989AB9CBDFAB9CEB9FCCBDADD8BF9DCDEFCACCA9DFFFCEDACA9FDEDBFBEBBB6A9D99BACC7CB8
col47:   899BCC58AEB9DD9FE9ADCC9FCDABECAEFDDFEAFBBEDCBFCFBDCEBFDCCCCEFBEED7BB9FC89989AB96
col48:   86DAB998B998CB9DACDAAC9ADBBCBBDBFDEFCDFCDBDBAD8DCC8DAEFB8FFCAAEDE87D9BA9D7F798AA
col49:   AA889BACBABD8EB9D89DFDBCAEBCEADBFACC8EECDDABD9DCDDACBDFAA9FAABDCFF9CBEC98E9A79E9
col50:   BDBAED88BC8B89ABADAA8E99ABC9CDDEBEFAFFBBCEFBEFFCDEEEECDC8E9DEBBCDCFDAAACA88B9CC8
col51:   557A4675C88E8978B869AA8DE89EBBCB5BABACBC7B7BD77958EA9CA99B7BF99B88A9C797676687B8
ROC:     BPix_BmO_SEC4_LYR3_LDR10F_MOD2_ROC6
col00:   1134436B51498578A3357767477C78846B978B8D8C79837499995456AA965864746A96C8558986A5
col01:   5677B57E578987A6959449897A84BC98997C9A99CBC9BBACA8A9A7B899BAAACBB6AC5668A8A67775
col02:   665378788597B873B96A859DA775D7CBCD9289E899B9AC9A869A9C748867BC87A87CB8A96C797A64
col03:   B9267B5778BB728A37A9987D75A527F9BB88B1A6BA9ED58B8E9A8999AA9C88C58B896A88A87B7457
col04:   C87573998696497689AA898B788997D9A65B88B6A7BABB6999CA6B46AD89AB88978A77C8896BA8A8
col05:   47662965BC997695AB74B87BB9567B6A8789A5BC8AC777A5B7C8A6D998FA59AACD999589B7555BE7
col06:   98278958A978A977D56D8797A99C3B97A9A8F9D894EB6664ACB998C88C9CB994686988AA385B98B7
col07:   84594B97585C5ADB97A5998897569CADB6B79C9798AAC8BB788A8BBDB99E9CCA77A7AAC8DBAD8CC7
col08:   49295969753A5856B48CC7C5799848EA578BA5ADBCEBAAA9D99ABB68B9A98AA868895B86A7DC9568
col09:   767768A86A89898C9D7587498B656AB6CB8A787B6C889BC9B77DCD799996B87C55978867BC7B8683
col10:   753A9737B786B49B976A89758AAE9976889A9BA99CBD64A9A85BB9AD9899AA74A8EB8A5AD699F78A
col11:   796776992A89AE4D7A787AA8878ACD9AA868687CDCE9BA5AA8CACD9B978A9CC539BBCB8D7C766783
col12:   3A8268797276786A9B9A66897A9D97A78BB99DD9ACB879D8BAB978AA7B86B77AABBC8B99AB969A78
col13:   B877647B8AA7AB9597B8E69AABCBAC999CB9EBE6888AC78BA787CB5CA6D9787F6A76AA7A69998A65
col14:   6596594734A55A97BC8BBCCC997A686B6B9BC89FDD847E697BA88CDA8976A555C7C7497B98B79A76
col15:   76975529CAA7A868BA65A655BABBA78A677BD78C9786958BA768957689A85AB8BB8889866B7AD958
col16:   6789A97A496998667C995BAAAAFB8A998A89BB7B8A9E5897B9B7A7886BEC989AFBDADCAA79A7486A
col17:   57B684346A6649478A89997598B89BB5F5C9276899BB8887A97ABCE9BB9DDBA8C6878876AA37A8B8
col18:   973376A57B588559598AA69BA8A8B8A9C777F757C77B9A786B87473BDAACAB99AAA76BC757ABCC77
col19:   C785588CA5B8A87479BEB879DA8B8979ACAA9A9A9B88BE47B7CC8C79CABB4B8BB886993989B8D987
col20:   767978948795EA97BB8A2499C5AB79B85A867B7DA7287C8D9ACD79C99AC7AB99A7CA658B95B797AB
col21:   59B73A8388767C469BAAA97A7C687C9BC3A9A65AD966CB9764B6C8C75C6F9BC8C68A977B6A889985
col22:   B4A7954759BA76945AA9A977A86CB765CA9CADAC687A76ACEBDAC9C6CDA5A9DA7CAB9A97997C88BA
col23:   25556769A5AA78B678C78B99B8C8C7B7886B69ABAA49D9CBAA88A999A798995B8BA69635A86A699D
col24:   66A2C7B9BB8848D59469479869ACB9A9ACACCBBABACC99956398999B5CA6BB66577899A78A6698B3
col25:   6868A597B7D9CF9AB778A258AA99BBFA976986A979AA97DDCACA7B67B7A9BDB8AB85AB5959A6C673
col26:   799B87BB98A5DBCC997B7EDDAB69AA8BFACBE9D77A6B68AC8CA9CAEDAA6A8B7DCCDBCA99CEBB7EA9
col27:   4AAB66AA88978464A8B8887CA9D97BEBCCA799CC98B98BFD7CCD9C68B88AD5998A88B978BBBA55A7
col28:   65C88B79DBAA7B95CBBBA9AC799AA8BBD9CDFCC79B7DCBECEBA7CC7CA8BB9CCAA8ADBCDDA589DB8A
col29:   8EB69993AC8BB888DBAA9A8A9A99CBCCDECA9CCE8BADB6DBADB6DCB9CBBE9BAAAEE9C7DDC89EA7C4
col30:   CB78BC4A886B79ACA6B9CAC68BAB9EADBE9AC9DCBAAAAFABDC59A99BB8FDCB8BCCB9B59ABDA89B98
col31:   9AB758CCBCCA74A8CAC9B8ACA96F9CCABECBDC98BBEABCCA8CCCEDBAD7CCDACCCA7AD89CFCCACA97
col32:   A8998B98E8D65A889A9AFEC98DFDBFB89EDBABBFACDBACDC896AB8BB9A96FFE7AEBDC879BC9AAA79
col33:   8E5A8AD8C8A687DB8A689A8CCBBDECFDEBDCCACADCEAB9B8EA99999BD85DDC9FBCCBC889CCA8ACA5
col34:   BA85E8EBAA77BBCC8CAACCC77FD8BBDADDAECCAA9DCA98CED9A8ADEBA9C97ABBC7A9CAAABEA7DCB6
col35:   7CD6BAD6AA88B5B9BBCEDD88CECB9A9FCAFD7CEDDCC9DFCCEEBEADBECCF8F9CBBBAA9BC7CA4886A7
col36:   B6ADBABB9AAA7B77A87DA9B879ACCDBECCFAEFB9BFE9CCDDEBABFAD9BBBABCDAAAEED9A757BA9CF8
col37:   AAAB989CBA7BAE9A9CEFB7BCCB98ADDCCBDCBBCECCBDADDDCBEDEEA5ADA7EBBBDAB6C8B9AC7998E4
col38:   7AC8DCCAAA8989A6AAAD9EBEC9ADDBDFBACECBDE8CBECBDD9DCBCCCAEDDDCFC9BECCCCCCBADEC875
col39:   9A78879CAB9469F8CD7EFCACC98CDF9BCACFEBBEA9CC9E8ECBD77FBFD9DAD9EBECECEB997BB7C995
col40:   6BECCD8B999DC8BECB9A9ABDCBCEF997DCAEAFADE9DBDAE9AF8DBDCEDDFFB8BFBBADDD9EB98DCC85
col41:   6BBB5ABA9CADEAF89ADCCCBCEEAA9AFDCF9EEA7AFCBCC8DCBA9EACC7BBBAACDECDC8CFADFB9CB687
col42:   6859C7897BB9C7BBCBBA7BBBCBB9CBB9CAFCDE9CDBEAB7BCAFADFBBDD9DCBEAAD9FBACCCB9BDBAEA
col43:   4ECCBA9C98DBBBA8BAE9BCE9FCB6BECBDEEDB9F9DBFF99CBCCDCCFABEBCFBAACFDADBDCF9FB8ED8D
col44:   CDC8BCDACF6EAFAAC9BEC77D9FEDFEEACBBCBCAD9CCFFCBAABB9BFBEBCECCAF9BCAB8AA989EEBBCA
col45:   BCBCB68A9BFB9989C9E6DBCCDADD9ECACECF6CD88CBDDDB9B9BADBB8CEBAFCCCACFAACD7CB6EA97A
col46:   9897B99A8CBDBACC889FDEC7ACDDBF7BBBD9EBCED8CCACB8ABAEBBCCD9BEC7DCDBFBAACBBBAE7BAE
col47:   AE98BBD7AE87CBBC9CCD9DDBA9ADFDECD7FCBDD9A7DDDC8BFEBDBCCDBBADEEB9CAEB9BAFBCBEBB87
col48:   CCA8DBC8CDBC5A5BCBEDCDAACCCBEDCAC79CDCCCFBC7EEDFFDECC99FEEEDABDBA7ADF99ADA7CCCCA
col49:   CDCD78BCBF99C9DBABCAAE9A9F9CABBFB9ABBFABE98BCDFCFFD9DCEBAADBCFBBAFB89DBBCCBAAEBC
col50:   B7ACBB99D888CBDDACBAABECC9CE9FDBDE9E9DB8CF8AB8ADDA7BCBFFDDCCBBC8AACCBFBDD7CA9C99
col51:   A7A999AA884977A667259799CD87C98A9ABDB9879CFCB7DA9AAB8BBC9CD7CC989CBA779AB67A7694
ROC:     BPix_BmO_SEC4_LYR3_LDR10F_MOD2_ROC7
col00:   B9D8AB7799897B9AC765CF4AC8ABC9F9C8BBB7B89AAAABB79ABAC9BE7C7998BA89785279A7997663
col01:   C7A9A9CBFBA9FE8CB7956B9ACB9D9B77ADEE7D9CAC9B7AECBA8567DB89DCD7C8CBBCB739BBBA4874
col02:   AC7DF77AD85CBA899BBDA5D89CB8AA8CABEECF9BBBCBB98B89BDCC8DD98EB7956AA7B8DA88768858
col03:   CCBA6C968C8B989BEAA88C7CAAAE89DCB9B9A8FDCCFB7CBDDDCBCFCB9DA96B9399ABCA8898B99898
col04:   B8AAA99A7B8C48E9BCDBBBEAECBAB9D8CB9BCAC98D88DCA99DBCADFBA8E9FD9ABABCDD95699A99B4
col05:   EB9787C98AAA8B19C94C99BA99CC8B9AF8ABFADBCB78DCBCEBDDDB9B9B869C8A6959ACBAE9586522
col06:   FAC8BBB78BBAC98D89AE997BCCF9ACADCBDFC899CCC878BAD6BCBACBEC7CADC8C89978B9BA99A788
col07:   959798B8A9BCBED9B9CAAB98D8BBA8DABB7C9ACCEBBDCE8DA8AC5CBCB8DC996B75AE7A9698849A78
col08:   F65D98BBC67AA9BACDD9A89ACEB9BABCABB78989DBB88DB98B9BCB9CBCA9D8D558A7C7C59C15BB53
col09:   89BBC68798ADFCCAB88A8BE8BABBDEDDACBBBC9BBDEBBCDC8FADED69A69DD9898A9B886764B99387
col10:   CB7BABAD7C8BCB7C989ADBA8DEBCABC8BDCCA9A86AA7DFC98B79979ACCB8B967DE9A622985A977B8
col11:   A9BAAAABA98AABBF9AE88879CBCCDAA96BA97DAAFBCBA96CDEC9D9D5BDC8AA75BB89DA73A597948B
col12:   CFA86C768B7D8B979EBF69A86895BACACA89F99EDD989B7DBD9A7B9D8C8DAA9BC8A679BA678CCA88
col13:   B8A9A94A8A7CECF7A6FDBB788A86ABCEEACBAADBC79CCBBCCAEBA7A9CC7776AA99BA9CA94CB97789
col14:   C77BA7A759CB7B7DB88CB86F9BC5BC9ADB8E7BFB6AEA9BC9DB99898AB896E69A79BA9859A95A9978
col15:   BA39B9A7BB898BBABB973FCACC6CB8CC8AC8EABFC8C9C8BDEB9A9CA6DFCA9BB984C8B989BB77AB45
col16:   AA6E8A8997CA9A5AB9BBA8BB87D8B8BCAF8BAAD999BDEBBAABA567BBE8ACBBE697A8D89B9AD357B5
col17:   A659E9D98B6C7CA2AA69ACCB5748A8AAB9BA8D8A9A8ABABD9A7D86DE3EA8B7C619A88ADA9A61B952
col18:   B9B77A3A8957BDBA6A89BA5DBABDDCEA9A6C79C9BCA7DAA8DB7BDD99C6C6AAA7FC5895CBD6886A92
col19:   A9669BA969784CD8D8A9AB9B7ECBCAAD7BADBDBA9A9AC9E799EB97C8A79AB8B7AA569657A5779484
col20:   98A97898A88ACC9D7567AB9BA959B8CBAADBE99CB59CDD69C767AB7ACAD9B948795859BB59575A46
col21:   A9B7CA9A9A99AB7EAD86986AED6F4B8DEBDDC8CDECA89AFAEEDB9C8DBE8B7BD9B9AD59AB91CA9962
col22:   2B6C86BAE65E8996C6EBAA67AA99BDD9897C9CCAAA9DC85963CCE6A9AC79DCBAC568A697AA8B8872
col23:   651B79A9798697AC987F98A8AA8BCCABDCA9BAABCCBABB888CDFB77AB6F8898B968B479ABA9A9594
col24:   8D96A8839CA748A9AA6A99899ACB8886A7BBCA99DCB98AAEA59F7C9C7A665D9B9A8779A689A79582
col25:   49B76698757A8A98969BD88ABAB8BDABB4AA5CAA9689B8A58A68A7B9D98DB8BB7C898B672966B959
col26:   A998A975B9BADAB97BA9BC7CF8B9CAACCD8BBEFD9ECCB9DAEDB769799E8989DDAFAC69959C86BBB5
col27:   AA99A689ACC7879699FB78BCDABBDBBCAAD69BC98ABC9BF79FA9DDC9DBF9CEABACB8C9BBA75A74C8
col28:   9E7668B9999ADA99CAA67BACBC9FBBADD7CDDADFB9BFAAFFDE7BCB8B8CACA797ACC8BAE756988B39
col29:   A978CBD8875C9988AD9BDD8AA8D5DDB9BADAFCCFDFAD6BBB98A8CAE7A7B9DCACE9A98846BA5B77C5
col30:   998767AB89EDCCBEA98EBBDCEEDDAEEBBCDC8AB8E9D9FBABB9AAADBA9AD9EBABA9D7A7AB5B6757B4
col31:   B7AABAACDDDCAA7CBC8BDC8EFB9CDD8DCCA7ACBDBFAE4ED9BDECC7A9DBED7E7AC98C6B887C975A98
col32:   B5AAA988CB95EAB89AB8EE89EBFCDDFCEBEA99ABEB9FFAE9E989BD9FCD895A8ABB69EB8C8D9AA9A5
col33:   A8D8ABA9A6AAB68D8ACB9A8CADAE9BAB99BD8BEBC89FCAFABBAD95CB9A8AE799BAAE659898A7B947
col34:   89B876FBBDC9D89BACACDBAAB9AAAFBA9B8B8BB8ADCACDDACD96BDC9B898B8B6FD999CADA7A69787
col35:   ACA798B8DE8A58B9DA78B5D9BF6DBE6BAB9C8EADA8FE89FAAB99DC99BCBEE9C8B994F7ACA6964859
col36:   BAB9BB79E6ADB9ABA8A99AABACB87CDA9DC6BAFDDA9A9A89C9B9EBE8AB99AAC7B7B8F9CA67384598
col37:   A87B98AA65A9A979FC88EBE88ECAA9CEBAADAADADDCFCBE9D9BCAE7DFAA9F9FE99B7A28A9A7CA897
col38:   C6A8BBB96AA7A89BC9F8BBA9B9CCACB88EBACD9DDBFBDBEDAE7DBD5ADDD8C7A8CAC99B96B9A7D473
col39:   A68ACE98CBCBBBA7CB78B88ADB8BDCBEBDBFBABDD9AC9DAA9CAB9E8AEBADBABC8BB8BAB89B896863
col40:   49767BAB6ABCB4B8C898EDFACEC6AF98E8EA69EAB7B99FDBDC6BBBBFA9AFDCDCC998A9B558778B94
col41:   C89A9A89B99B7869DDCCAFCCAFBF8EDBDFCD8BCBCCCE9D9FEAECEFA89A9BC5AEABB689BA6A79AA85
col42:   CC86BE6AE9CA7A79E88BBA7BAC97BDA8DBCEBCDDBABBA9BDD7997BB9CF989AA9B8ABA9B8BDA97986
col43:   8BA68BAFA9EBC78DB3AA59A8AACCACEB96A9F6CBA7BC9ABC95CA9DA9BB78C7B99DC56BC7C5AD9776
col44:   58AB8AEA6A8ABDDC88CBEE9AAAABAAB9D7BAA5CA58CFCAAB9CBDAB7DDAFFEE97B7C5C47D22898A86
col45:   99688F8D8ACDDAAB89BDABC598CAD9AABC9FDBDD9EDAC6FA8BDC8ACC9969FBB7769CB77796C8D991
col46:   75A94B98A5BB5CB968A6EBBBEBBFD9C7B9BA8C8B96BB6B998C88B7AC98AA8B69C9BA7879AA566A95
col47:   CC99C69B5A7A8CA8CCC9D9DDDBBBFDCADA8BFBA69B6CEBCB8AFCC8ABED9BBFD4CCA9AA49CA77EC78
col48:   AA8679AB9596B9AAC9B9BA9A69BDEB89ABDBA78A897ABD9BACA9BBAC9BC898B9895DA6A5C5973AB3
col49:   6667948CCAC8C488969BA9EA8C9CDAAAEA7DADAABCA689D8CC9DE98599789BBB889C6882BACD6869
col50:   D68A99886C99AA989A499B87CDAE89BBC9CFA87BCA56CA7C89A995CA579AA966B9889765669A928B
col51:   88556859877A7657779B979793AB41866C4A8A887B77B8A85672695C8596692B7575347548434864
ROC:     BPix_BmO_SEC4_LYR3_LDR10F_MOD2_ROC8
col00:   A52759A836A75B715585439643793796493967B7B587BB7886954A7A559859879695785855775876
col01:   BB87BA556718AB9A999739E7998E8895796B69DD9D4A67968A7D95C9CC9689B7BA798B58A775AA5A
col02:   C57A974948A8658767CB5978757A598B7B69EB6898998CACA7A78C887A95A89A9968B642AA794565
col03:   B255648CB9798A576F5978757A8BACBBC8C9CAD8ACAABAAFBD8CA7CACB777D7A8C69697989799896
col04:   A8865298BA8869A788B7767A99A78AA89C7A79976F9C9B699A7ABE87BDA98B575878B588965A49BB
col05:   CB79666468B27587A4AB89A9DBB6BA989ABBA98B7ACB9AB77D895E97A56B988948CA898A2A5A57A5
col06:   67A9A66AA889768986AABAAB8784B88B9CA9AB4A9AAA9AB88CAC89EBDB7D9996C88B99863974C584
col07:   A898273CB699959898BB9A8BDC957EA69D4C76AACB9C9AC8C7B88C8B779AAABFA45A75D6858A6559
col08:   67466B65484898AC77A4B7999A88EA888AA5B8877BAAC6C9B69599CC9C979768D78AC6CBA66A9795
col09:   858A795B775B76689B9A868AAB5B9B8BB7479B98BC7BABB7959C878AADB7895C888A8C7989769766
col10:   1A688A6898A6B958978B6965765658894858567BB68CB8CC9A7B9B9A966989ABBC9999B9B2997545
col11:   7A8696B8768787B5B8CAA58875AAB96C98C99A78D4C88A59B7A99AD7CDAAA9898B96C5369C697787
col12:   37667699558576A547A7766AD9D64DABCA9BCC5A9B9769A6A87A855A8B6B89587AA687C975BBA145
col13:   BA8977978B56AAA76988BD8DC7977A5ABBC98B8D9E9CDAAE8DD9798D9CD55AB76DAA5799B98A8B87
col14:   4518744787C996675A79B7E9D9898A89A988A78CAC995D99A99AA897A9996A657D993C9A8A5379A2
col15:   67B94697B75B976965589B79AC84C7B998798ACCAC6699DB94D8AFC9EABC78CD989637B9AC9B6979
col16:   66647986896688B5887553889BAB8B7D9E6BD8CAD659ECC89AA99C8BA997894A759676B75A6AA797
col17:   4D848676899985867ABCB64AEA9CAACA95CDBB97F9A8AEA9BBDA99A9DA59D9A569A99B6A9BA77773
col18:   79458A69699685A97499A898C97976788ECA998BDB89969C9A98D7669784B7897A7BA6486465B954
col19:   89D9A989984CB9DAC8A67B39B9B4B9A8A9A9BD5B8D999999B8CA8E8F788C49CE8DB9996C5A7B7589
col20:   9777984887AB9777B57BA88478BC9ABAAB6BA7CBBD7798BCCBCA9CA86F97C8A873969A78D9A98B78
col21:   489977971A9896A7958AAA8DB4FBBA8A5CEF579B9D7DBB98C5B9DDCAC7B67B78A76397A986D8A794
col22:   8496993697878D857967889477A7AAADBA6AE99CC27ABA659997AAB99FA9BAB87A9CAC9988C96659
col23:   97C62A7A3867B767DA9CC97C89DBBABA69C98DDBB79BDB6696BC89687BC996978799CC38958A68C3
col24:   5A6AAB8667496C594A648879A989AAC5BBBCDA59CAA4B7B85969BA9BBA88AA37A65A37576784583A
col25:   6848697879A65A997D8A8BAB88BEF9DF9BB9CCDA878EAAAC86DB9B99BAA7D8C8A5869CC5986A6864
col26:   499C848686CBA9BAC88699ACBEBD5B8CCAC9DCADEB9BBCB7EBB99B9C65DACCE6AAA7A7798CB987A6
col27:   A879969697C8DE7C8A668BBCCACD6CBAB98C8A8DB8DAEBA9ABC8CCB8DB8DB69BA9D7F7AC7D6BAFDA
col28:   88BA77C98B98BB9CC999C8AB8CDCAACEBADBBFAD9DBFCC6AAE9ACDCC9AABAF9CFAAABAB5E7789AAC
col29:   7AB8CA896CB98EA6EC6ECCACE88D89ADBBCAADEAEBBDADCAB9CBB89CC9BADF8CABD68AAAB495A887
col30:   8C9E2BA56C4D7DB8BDAC75BEA7D8B8AACCCCF6CBB9AFFBC9BBACAFFA979BD999EDBA8DCC9B8AA9D6
col31:   B7CA89AAB9ADBB8B8C7BCAB89DD9DDBFBDAADFCFBE8AFDBD8AD99DCCDBEFBECE8ACBAC8A89C7CA99
col32:   9DB79987AB7B8968A6D8BBD9DB9B99CBEBFACCCA9D89CACFACCABEDBBEF999CC8DBB3B8C968A9885
col33:   A99A6AD5D5BF57CBBAABB98B9ACA9DABB8DCACAC9B8A8AF9C9DB979DCCBEE7DE59C89CAABAB8ACA6
col34:   FB7A67FD37BBCA8CD96DBCADBBDAC9AD9C9ACD6DFA77ADCBEFD9B999F8BCAEAFC89BA87B798BBB88
col35:   AA9BEB8A9BAE862DDAA9CDDED9BDDCB7ACF9BBAED9ABA9A8986DCAC9DCE88EEACBADA5C7CBAABBAB
col36:   89AAAB8ABACCCEDC9AF9AA9BCE9BDC9ACECDAB68CBCBAEC8A9BBAF89BACFBDCD8C998A96CB8988B5
col37:   79C4C57CB7B6AB797B9DAC9BC9DC8E9BBCCA9DDECE8FDCDBBB788CD9CBFD9DBFC9BCB7EBB9A8CCA9
col38:   9C8BD7B6B9B9AADACE7DCBAECB999BCEAACCBFACBD9DDCBFCCBECB8EEEB9CDEAB9B9CE8A8CC5C956
col39:   A8BB7979B8C9DB8ADABAE9DCBA9E8AAECAABDABFBAABFDBC9AEBBCA6FCAEACDDCACC68D79FA675B9
col40:   B9AC9B6B6B488DC6AAA8ABE7ABBAEB99C9BBCBD9ECDFCCABCDCFB9DFEB9DEC7AAD8ACB7C9B9AB9A9
col41:   DAB79BBDBBEA9AD9B79EEBBEBADC8CEDABE9BFC9DC889BCD9CFCACCBED9CD8CBDACAAA9AE6AAA7C8
col42:   588C9ABB8BB99BCD6E8C897BDFAAD7B8ACE9CEF6ABCFA96FADB8C88A9ED9AAA9FDDBCB9BAAD7AA88
col43:   8C6B88CBD6E8AFABECA9ABADDF9BFFD8FCBFDFCDFFB9EEEDDECEEBDCCADFAD9CCDD9D9ADC9DE9AAA
col44:   5A6F67AB8C8AD888BAABF7EFDDACDCFCCC7EBBDDBABFEDB76ECCEA9CECECACCEDECDDBBA5C8BA876
col45:   8A9BBC796CA8DD8A869CD688C68DADC9ABDEBADADCEB8BBB8DCEBB9AB97AC9F8EAAABB789B8DBDB8
col46:   ECB87BC98EAA98A8CAA7FDECCDDCBAADCADAA8AFCDEFBB8FAFCEDA6CDB9ECADBAAB9AD9AA9D9AAB5
col47:   EBAA6C9D8BB7BBBBABAADBBCAEDCAECFCFFFACBACDCBD8DABCEEF8DEA8DB9C8ECDDB7CBF99A7C7BD
col48:   6ABAABBBCA97ACB8DA989CDBBE7ACCBDBABFECBE9BE7C8CC8BB7AFCBDEDDCB9A7DCAA9E59B99CD7A
col49:   CBFA999DCAB9B99CADBDCCBDEBAADFFDDBBFBADBBAEDCEAADC7EACA6CEE9ACAEBCCEA9AAB99B9DC9
col50:   D79AB6CDA79CB8AACBAA9888FD9CBA7DFFCCAB7C9BDFCCD8BC96AECB8A8FDC98A8C99AEDABA99A79
col51:   A79ACC69A6B78A77AB69BBB99C9CAFAF8BACDBB8A89B8CBFEB8CDACCB7CBB7DBD79C7C79B79A2AC1
ROC:     BPix_BmO_SEC4_LYR3_LDR10F_MOD2_ROC9
col00:   518362B5623538595949584A2375A579349366AB75768786774A373275522872644B726792464A31
col01:   878468858328483879881C37865A4477549C9B8B8B7BA9B9CAA79C66895BA9CC6C98A86282572C86
col02:   285964266611518789528189877487684A54849A4A6484EBA46A59A65A2AC5C614468865433B9694
col03:   7567513BE839A4B919A7652588197854995A5DAD4A9B5A6C98AA5AE8BA99A676C96755879478A448
col04:   36668791997755B9843842A6539A4A8D5878ABA9BAA3D997899BC7CB9CC92822486A465AB5717434
col05:   73798B86A8784B61A39B976AA6B95ABB533C5B98968A5949292996DABB6A6BC577574B4BA45A7B28
col06:   24177817341657AD5349572636675EB8D56C87A77A596A9E7B51A5785AB49586AB98C97581944B94
col07:   149589B2B1D2776886895574AA2BCCBA3B8AAA9CAD6B7D7769BBC97976888DC4676CC1989CA99995
col08:   8457667683571796C73395A517676757A5AC7A77FD7855678D9B678FAC69BB4677A9949595475113
col09:   99768955B3672359A6C8557C98699C799A7189BBC4C64887AE4656C8BC97596A53A5C767B7697381
col10:   5873C18646337177A514B7993B6CCB89AA95AA2BA767ADA7A6A56A5EA786766D9365858763923525
col11:   756BA3469C46187A8649813B75797888998DCBA985A7B976D78597979A75CBDAFE842937A387C593
col12:   6577B323266582295A9C496698169B54A6BB5C871998A966AE9D599678766A8B9185646AB81AB533
col13:   274594F675236A7874CB8AC97BA8AAD869CA81B8978D7D7C7ADBA8A7F86179CC6ABA8473C89B9668
col14:   315114A215787A2736777A98B678A9C57B259C7B9AA95897BB8C8997B4A777CB56A6846849D6B392
col15:   662692863628474898447B93632B494A8697289C4C5B6698C98C9BB9494658735C48966A59776D58
col16:   57447846858566457687665895177999879986BBC7B9979691F8B8696C4696875A4386888A16B464
col17:   17699AB738465465766B43553488AA558B89BBE6597A9A458476A995B875AB9A5376798A98B85DC6
col18:   53618341144639517B55479AE6A869A685969773C9A689562B98DB9596568C2D524166279B264731
col19:   111473178292577454688A468B6B2C87A9DC778BA798AA9AA87BC3D7BC788E87AAB58664646346A7
col20:   8775576258572119A829B88C8466A99B7A37A6AB766E88589858888869867B2B96446417A676AC86
col21:   256B5444812833917A493798A76846C595B6B578946C8B8CCB9DD9AAA68C596C76B6396949959894
col22:   1471748157599665A63373C78639344D4D487671D7682353F856767A9B8D2D77486A5468A88B6494
col23:   2413638621187569465556567B58A4B6E889AC8A9887A49AB7F62C6466458C65854C969536A66314
col24:   115946184653526726545869A465776C7DD956B27F7B996586B23686B574C9AB4A93943368A7C846
col25:   473547556264979A69871679BE9B95597C768BC8A7BB889C3D492C6AD89993B2BA94A33B5A545425
col26:   2A478357A7B55797BC7B9759A8C78B798A9EA8A887B77888758956DAB9779C76787C645B9A488A76
col27:   678226661156B68799964595C6BA89BBAB864966C89772BDAB8C99DBA67CCC8655B958C7437C5419
col28:   55413A8889659A58AB586A76BA6482A3ACACAB88699CB9869A9CA7AAFC79CA6F28889A599784C876
col29:   4A782175579697868B6793BB876CBA797BBCB89A999A8FB95999F1978A8AA7CA394A98B88AD73644
col30:   454B2588493C7289983A47B55AB8C978D66ABD597A97A79FBA8AB6979CA9C79C65B8817767B11727
col31:   5768941C3678A47929D3989A8BDD694DAB979D79BCDDBBBB6DEA9A86F9A99ACA7C89997B4C9B9856
col32:   4D75555375687AB5385B598B7E694F89996C5999989BAC7A6A5F79679AACA89D37C6AC7D9CAAC687
col33:   7474969548969589B7A61489A79993FB899BB59A43BDBA89FCB5A7AA8EAFAAA82988698B1839AA78
col34:   796834778894B64686769C7C7A6CBB8E96867FBABD255EC8A8B867C9C7BE66A44BA5BD9C5438D6C6
col35:   576749A6359A866796AABCEA94A58894AC8BCD8CBAA798C7AA7C8D8BCB76B9A56A9A8ABE7887B759
col36:   45B79562A6623164A7877743C786867B99CB9D99CC79C76B8FA84E79CB95BB2AA97C7899A677D275
col37:   BAA436778A8678B979847677888ACD88D9DCD9CBA7C98A78B9778EAB9799BEA776C8B4A8E9CCD645
col38:   1171466987A75BB78959A8979A97DBC8EA6B7AC9B79CD9D9EBB5AC85678B9779A9754778857995A1
col39:   996157C6956244786A6BA78B8BAE87784B88AACA1AA9CA8A85B9D9C7EACA838CA74A64637299A794
col40:   665895257D8776779AA3689BD7B7566A6D888D52ECFDA67787A987BBDC9698AD79779E7775573632
col41:   5359687C7AB8857976B79889AA99FDF9A989C9DE8EEA9DEB9AA69BDBEBC9AA6E9A8D8BA8677A8794
col42:   113161C55A74358A963D9759766B8A7B8BA987BC768AC9E19995BB49796B7EC698D76E64A6965856
col43:   665368B779B8A8597C96CB8EDAE7B79958BA9AFBAFF87DC988DFBCBCAD9DE8CD996E9696AAAC98B1
col44:   3896CB95738962A868A8888B56ACA988A9EBA8AEF79CF58ABE367CC7BF9B9EA96885A38A564AA585
col45:   64568576985967671A5A466A9599DA58BFA66BF68D8F448776CAB7ACA88BA8646AB857A72625AB54
col46:   86466798AA3945BA6688AC764AABDAB887978AA7886856F89898798BBAAB6B8A989BC72858B6AC58
col47:   2AB8458C76732A99349AC6AA6A85BA984AB7AAAC69B9DA98858BD69BC9FEC6C59CD7B8577428A591
col48:   5548788A96946766929A799979D18767A9997BCBDDBB8DA8C991DA9B9ACB48A497A78566A25A8879
col49:   99837466A756EC7696B687C7B8B89A7CD97D4DB6DB89DDD7BA4A69AABDA7B8AA9ADF8757C9877AB7
col50:   78B6989564857773B3A66DD7AE77A699AAD656F56ABEAB876CABCBA6988BBACAC73A85795A896394
col51:   64452A396847932A75669638963457AB82656585B8B55B7B5C69876B4887773B9497868638466812
ROC:     BPix_BmO_SEC4_LYR3_LDR10F_MOD2_ROC10
col00:   5664886457376779356136245B2753A5697775758879A43787787565893523A887B1358695853798
col01:   75485248B5B597758BABC9968B8A589A8AE89DAB8BB8B65968BA6A9B598698A49BE6A6677BC62642
col02:   27A94458889A7A487465B77999CD7A899884A95A88768B6898597A956A7676887373AA6929956733
col03:   A88B837AA619AB79A98A3BA886689BCB9C8D57869A786BABCE59AA7B985CA8AC9984967ABA684655
col04:   63465698855CA6997C76B769D48785C6769BDA778AC9999698665988688A74967C979789378D8773
col05:   B666886679973AB9C7A879666A76958798AA57BC78888765AB8AA976A68A5AA2A9A8688A56969562
col06:   797945485C787AA9ADB8979B59799A89648E8EBB6A8949CAEB98A96C67AC987A8965677A97598565
col07:   9787798B5476899B579ABABB96A5798A669A8698787FAF4B8947696877A977A75856BA7557878757
col08:   8767988579678354B64295639AB8B8B77A77A538952669A989945B7C8665876AA656B76275437765
col09:   589978DA89CA465A4BC2BCA8ADA9976897A9AAD9797777A5BB58CA96BC8BC96858996679A6D59833
col10:   2ABBB667672779BA96564A58A96DAA97688B6979C999627C7C3798767AC99B6776A79658B88C78B5
col11:   65664696B388AA3457986A7A78898BCAA789A7A98A8DBA89AC75A747A76CA99577666C5398379462
col12:   5557575884B99878A68A6A65595666A6B5A98894B79A59A776B68B96BB9876777895573926646546
col13:   852868689688666877A774A99C7C9CBA996AB9DA7CDB6BB79ABA8ADA897771AA87BCB976B63BA9B7
col14:   2744877A49C7675A59677876CC4968EB769B9AE897A79A94AC4A97458AB8698796A7868B974765C1
col15:   751675886C6C89C6B97BD9B9B77A9AA997AADCBD788C9BBAA7C99888AAA68B6859AA6995586BCB83
col16:   83177487598A696B9895CB9B8A57AB8475B959B9687896B28A79AD7B68867976B89B98A877789786
col17:   7554688647934584ABA5677A6A87A5BB7CAA77AA89BBA888A7C99F5A8D5A68666A6C685A844598B4
col18:   2A31B7877B59A7D88A8876A69B95CAB96B8798CC378838BBB87A9BB8DA7C869897A778695A894737
col19:   78386786B9A95A786B7A89AFCD6AB9AE89BCFA588889B929678CD57AB757A494A42767986896586A
col20:   5943366986A969A7B799769B97769B5B97BCA8A69AB9B98C78BAB6889BAAA88B8845579763747661
col21:   85C379A99B7AB7AC8A3968BC87CA9B68BB79898A8999A99888994AA9D99656996C8477D433856674
col22:   899988A9629A92B6A9666778888989AA99BA789AD7AABA886C879C9A58864888A76B3277C8757A45
col23:   A2C5A6E89547B984776E99A99DA6A9BBEAACDD99A8BC9985B687C96AB9B877AA7A63B47546554694
col24:   974779A57397957B7B99987CB76B6699A77CA888A7A87B99B5B5989C8A788877979AA97366558363
col25:   736B98877B8AC7AB9AC8ACD9CCBAD8E79ACACB88CA88B9A9D8C9AA79DC6A9CAA5799A9588B488974
col26:   9768B7A9998BB99AA9DAAA9CDA9B8DB9D9AEB7AA8C88BD8BDB569B8CABA99B85B7784998DAC76B89
col27:   968ACB7C77C9BA67788A66ADABAE6BBC89BCC9CB9AAC9BD7C9BA9BBC9C99CCBAB89CCA7B798DA578
col28:   696A799A9776ACC86B89A458BBBDBCDDBBD9D6AAB9AA8A9CAA9BAAB9979B9BCA989BC9A99BD48A8A
col29:   968A789AD586889CACCB778BC4FBCACBABA9B7EA98B9AADC9ABC7BCAD9AEBC6999BA97BD5CD78961
col30:   89BC8B76766974ABA96DF5CDA89CC98CABDD5DBBE9BBCDC9C98EDD9BC8FC99DBCAA8DE775998B957
col31:   7BAA9A78CBAD9B9D9B8997BC9CBB689BCC9AA8BF7BCBABD9DEBFEE9A9C8CEC77CB888AAF99BAA9B5
col32:   878DAB77CCBA8A8BA7A8DBA8ECA9DA9BD9D99BEDBC7B68AC7B798BBA8CAAB9EDCB8B9AA59B6AC8B7
col33:   CB867A9BD8BDBDAA9DAA9AC6DD9D8DCEABCBBB9BBDCEBCFDDDAB7CBDCCBBDB4EAB8CA8A7A9CFEA97
col34:   88C8BB9D8BABACACAB9F98AADEA8CEDADBEEA996BBBD989BBDFD9B8DCFFCD9ABB88BD8D9C95B6897
col35:   9B79D6BC5EDBAA9BBCBBBBCDCE9B9CC8CABBD9E9ACCEB969ABCDBCFBADCCCA869CABCBABCBABE9BA
col36:   CD9B9A6B9A88CC9FDABCDDECCAABBDCBDAAACCA9EBBCFDAACBACAC7DCABB96EBA9A8AABACA43CC75
col37:   A99BAED8C98BB8BBCB68DB8899FBDCECAFBAFDBFBFC9D9EFBCBECE8BA9C9AB9DCC9EC87ADCC6BB69
col38:   98B9B89C8AAD8888CAABBACE8C8CB9DDBABCDEABBABBBFAFCBBDCDBD9CFAFBB9C9ABD9B89BAA7A7B
col39:   8BBDAD9AEABCBCA8BBBA8FEADCC6BB98CCBDABBBDCBFECCEDABACFDCBBCAB7AB9BDAABDBB8A7B677
col40:   BA96A989B6AA7CC676CBE9AB9CCAE9EBEFCA99EC7E9F9CBDACCDAABC9DCCCEDBACCBCCCBAA7C9AA7
col41:   C869B7BD97A9A9A7FDBF8BBBDB5BFADCCADEDACDCEAF8CEBDFCBDFABACDACBEBC8D9CFF99C9DBA66
col42:   688A579CA838ABCBEAABACBACDADEADADDCC9FCADDA9AABDBDF9BDCEFEDAEAB9D9CB9ABC9D997D78
col43:   9BBB9CA9BC8AED8FE9CAB9ABAACABBC9ECCCDA9DCDDAC9EBFDCBBABACBDAE8ACC9A98AA988BABA75
col44:   BBBAA7CAD9EA8DAA98DACBBEDDABAE9CECBC9AAABF8DACDBAFCDCDCC9BDBDEA99D98BF9DDA99AC76
col45:   CC6BADD69B6CB9CCF9B6BC9CCACFDDAA8AAADE9BBFDBCEFBBFFE9BACAA9ADD9BCBC7D9D9F7BEBBB7
col46:   B8B9AEA97AABABBCCCAAFEAB9ADEAC8BCA87ECFBDBAA67EACC8DECCB9BBDAC9CCA7989BAE9C6AC78
col47:   CACDABC9BAAACAE9CECFC9EA7EEEAEDEEB8ACBE9EDCECBEFAB87CBBE98DFBA78BF89B7C7996CD988
col48:   8B899C977989B67DA9BAFADBBACCFEEFACEF6A99AACEABADCDABCDC98BA9B8B98CABCDBCBF7ADC56
col49:   AEBA8C89AFBDC7A6CEACA7CBDCFCCDBAFBEAAD8B99EDBCB8D7DB9BEAD998AD4A9AADAA8A4AB9B5AD
col50:   659B9A95D4AA8CEC7CC9DB79CDBD99C7BABBC88E9AEEC8AC9ECCCBCACAF8EC9BBCAA98BA859CA988
col51:   985569BAB8887AA8AA4965BA47AFB99994EBABDB86BBAA7A9AADDABB9B68BA5696D9B6676A9A8397
ROC:     BPix_BmO_SEC4_LYR3_LDR10F_MOD2_ROC11
col00:   68874774599917455596448563B489776A67CA9266877966588B6A96635385167621565683162562
col01:   86CA596A789BA53A6EE87987A9B89948A8DAACB7AAA5CA87896A8879A568A8A875A7894669566587
col02:   56B6774B5A7477D7764C95A9AB6BB98986C69C8C98CA7A9989B87A676686AA364456682379765679
col03:   8686ABAD8369878B8576658A78989A69B9B99B8989A6969A5A898AA89CBA6B8885A537DA66786493
col04:   B9BA777B978996798C99B8CBAB94C6B86CAC58898A8A8C7B688B887788A8766A8994BA4764535642
col05:   B7576699765A5896878499A76A8676AA989A7988C89C8987BB7B559C6A7877A7898C769653587857
col06:   395746AA859A55856899C58CB777A99797899AB98788CBAAA8967685A89886A7EAA662A886666454
col07:   587957F787758A5A6A9D8647AA999BAE385BB9AA69C8587878B976869BB77895B97A749984C74694
col08:   87452B85786392586AA739878B89878A88B8A56A98988AAA656586AAB59C6695A999859459645663
col09:   79678AAA76DB897949689DA88B87ABCA9B98A8AAAE6CDBC98B69859979D9AA8B7AD68759A7583986
col10:   965877855A75988789989769AC994ACA887AC949A7589996796B68757A8C598559785438A4557584
col11:   9A598967689CA75586AD68AB66ABA847B97986BAA77A58A876A89A4766AC85A743654A7569B66581
col12:   9988A445C588A89918688877A679A8696C99DB688989656987BAC8AA699859859C564757A8496A12
col13:   6D9696797484849C88866A474B7A98BB8BA898A9597CA6745CAA48AD67A87657AA55B79677868963
col14:   4987A977779AB764467AA7A964DAA38979697965B9CA99898CAA777C785B79477583B586CA868597
col15:   7BA498DA8A9846899CC955C6878B8A579B75786A7876868AAC39998AD8758CB76798759988769B76
col16:   86969786944B6A6AA998AAB865C7769858EAAA9BC3987DAAAAAA7785997A8C977866A9A5C8769C46
col17:   A6CA56B89886B9A89B91B889E488C9A787A5AB7E6CA99B68B8CA677AB7894A8C7AC6876796686657
col18:   BB5859A859997898ABA7665A97A96785AD875C989C8DBAB958888898E788B9AE8968958968562652
col19:   6464A999AA9D5B987A998964BC999A9C7B9A8D8B7B8C6685A767B78AF6AAD985B67979947875B6B5
col20:   87A8567B66858765776979B9A9B79D9D959877A6B7BD9A89B98999A4786887E78956B828A7956854
col21:   968666758A7B9B8A78989A899796D966CBB888A8CB79988E95749A799A8B87C96787889AC7969891
col22:   8B9B5B67A57AB68A89C97BD8ABA9AAEC888BBBB7E7A8E67E979BBB65BBA73988896A7D876C787248
col23:   7A7A7969789A6C8789E66AB78A936A7C7B99A7C989B55A6A98998AB8ABA4A7B99D69B7588866A742
col24:   8AB56768C8AC288B86988BA66D47989687CAB89C9B68986AE7D967BCC99AA95A7383773599794735
col25:   A949997BAAA797A9A898996CBBDB7BAAAC7ABCCA8BBB7C9EB8BCAB8889C68A7878B995A84A616514
col26:   A6A9A98898ED8B8A6B9A89BB9DDADAEBAA8ABAB88D5C7C87A978DCBB8DAB9A984BBB79567B967896
col27:   D98BA8B9D97AAACB99B9ACAA968B7BBDB99B999BACCBB8AC9AFB87DA97CCC989BAB99A8A77BA7677
col28:   78BA9DBBBB8BBBAACAAAA86AD99CACDACCBDAC7D89CF69F9ED8FB69CEB9D887DAA8A797C68777896
col29:   CAB8778595B87AA7BA89A9EF8CB6ABADDD76BBBA98BACFB77979AA9BAC9BABD66ACABB7B986873A5
col30:   9A488869CCCBACB9D9BEDA97D989AABDCA65AAEADCFADA8CCCCB99A9AA78DAFA977A873986A68945
col31:   8CAC5EB6BB996B969DCADEDBC8CE9CACDCBB98D7F998AA9CAA99BAA8D896BE78A9979A889787A858
col32:   B99B8B9ECD9BA985CAAA7C988CAEBB7BEEC9CDA8A9A9E9CCBDAA9E8AEA69BB8979B78899589A9993
col33:   A8E7ABBCACDA9D89DABBBBAE8B7FDB9CB8DABECEACCCC8AE98BB8BECBBC8FD67CA77BA8BB99A68B7
col34:   B997CD877D79BCBC88AEB6ADCBAA89C99CDDBBDCBB7AEABB6BE59B6AA8BD79879B7899A9A9977466
col35:   9BDBAB88BDC78A96BADFACFFF8CCA8DAEBBCACFECFBEDCE9BD9AD9BEF8CBCB77D9B67AA8CB899797
col36:   9EE796B799CECBADBDC8ACA9CB9B8F8ECEADBECEFAB9EA9DBCBFA8CDEAB9A9BBE8DB9CBABA8BA295
col37:   FABC9ECB8CABBCA9D99BB9B7ACC9BAA9DEEDCCDAAA9EE79AEDDBFAAC9BE8DF98AB7AC997788D7A93
col38:   C79C959ACF8AADACCCABDD7BFEAEBB69ABDAE9A9C7CC8A8A9CC999ACBEDBDCCCDCCB89A6867A8C8C
col39:   9999BD7ABCBCCEDEFDA9BDBD8FBBECBFEAB9BBFEFEFEBDC98ECCDDEBCD99F9ABCE9CBEFCC89BB799
col40:   3EA8CACA88A6F9EE9C7ABBFCE78ABAEBCFACDCDDC7CDCCB6EE8DD8C8DDBEDCE7A9A88D9A7AA78AB8
col41:   89AB8C9BCC9C689EA7BDBAAEBEFFDA9BEBCDDB9BBBBFBDACCCCAFAFEC69ADCC7BCABC5A968899BA6
col42:   ABAEA9B8DEC7BBCBECAFBA6DCFC9DBB9BFCA89AFFBCEAAADCBEDCAAACE9D9BB9AD9AA9B8ACA8A9A6
col43:   A9CC8CBA99ACFD9D8CC9C9CFB9CAB9CCFBEDBBBBBBCCAF9E3C5DD6BADC8C9EA8DBDAECA97BE9AE67
col44:   9BDC98ED9DBDDAC9C9DDB7ADACA7EBEDFBCFEE9D9F8FBD99ECDBBCADEC7ACBBBB99AAA5A98B8BA86
col45:   9DAAAAEA5CBC89C8BCAC9EDE9CD9DFAFDCDE9B9AABDDBACE98FEBBCBEAA9DA99DEAAD897CBBA9B6A
col46:   57AAAAB8E9AEA9DE8B8BA9BDCDCB98CFCCBCCF9BDC99BD8AAC9AA89BEBB8AC9AC6ABA7A6A7698866
col47:   CCDAC8E9EF9D8CBD8CFDDBFECFCAB7B9DACDD9AB9ABCBBECDDCBAFBAFCA9C8ABFD8CBA5BC557A8AA
col48:   8CC767ABBCEECB8C9F97C7BADB89DC8AFA98DAFDDBA9ACBDE9FC6D9ACD98C9D79D7898BDAB89C6A7
col49:   BCAA9FCAABAB98BECBBC9B99EFB8CC6DD5DFFD9CBFAFDDBBBAEDDCBB9ECBCA9A8AA9FAC877CCCE78
col50:   EAA79BAB999AF9A9BDFAFB9DDCEDCBECE9DFBCBACCBCECD8EE8BECC9DBAC8CBEA956AB7A9DABB478
col51:   BA8B97B98D7BA7DDDAB98A7797A7BA8C968DC8BDC8A877D9898B798CC76AABBF7B59B87D873A9AA5
ROC:     BPix_BmO_SEC4_LYR3_LDR10F_MOD2_ROC12
col00:   15727C4565434819594613765DA87426695468B3B337755C575597936781442781944634A2654874
col01:   9464586E794888947A56569886667C58977795C96B73673CB97DC64DB98968656776A739B5742991
col02:   456979565569655788688D9766A9BA89A7B899885A5656A5891789A55B6765978585418742255A54
col03:   77784467366899648C7596778D888BA9C9523B896A899A87AAB93A676665B8758A98B76878483A86
col04:   3777947973871865B5478B488A6999647B7689B75B935D79296659B6B75946BAB5655684A8579821
col05:   769595754559B65C7666934B7566CA759AB89768B99C6A6989DA8486888B998C3A87597465695C75
col06:   55967866778536567668887ACA286875664A79BA876B9786189B99939A78776ABA88479953864578
col07:   2B9468A7A6C49537B6AB99AA85A88C2BCAB7663CA7B46C98B9BAA989AC9A5CE7A7957B6AC55A577A
col08:   72641368877727557D447A895483587B96AA6B468CA87C7A75BC6AA548776873386673BB83558569
col09:   94389883456876768B6A45BC78A9B9636C9A8AAACA68878C7C9CBBB967B5C4C9675A7563B7766774
col10:   384746864B8585865C7BA968C6869864766A5A8C6727478C68B4C97D79A8787979956C889E774735
col11:   B87D8662459556A869C6A77598A68B8888D888CAA87D3E8999AE6A658497BDC565BA97767997B884
col12:   7977596755C7998687C969864B98784CD77DABB2B9AA6788786B9B79BA8988C85BA84A5394983559
col13:   6A94565988BA7A899DA66986A79CBAAB6CAC999AF7B7CB8A45A9AA99789B99E7986976A9DA8A5927
col14:   6B847B599747982699AB6A5588BB47ACC495ADAD79CBCB7B78A76A8886C94669B376782A68968775
col15:   98B4998A44888B5B895B69578A867C765AB7796E3DE9CC9C99679A997CAA9BAC874B89BA9A8657B6
col16:   568B6AA779668698559B657998989BA7BB7F7B7F66AA55778C569975A8D8C795B98C7A867A898395
col17:   6A3A754879A98868CAB9869C668B9C9999A6ADBA6CC9B7875DC6DB9A59A64B87588677657679B473
col18:   78689B7758A895575AB365697576A8B6A7597B77C87B6596676CB98A9C697789A83575B987542277
col19:   78479A5199C4A4AB79997B8CB88A7A69687CB6B89996A9CA79AD7B8C9A6BCA8AB963DC6C96889577
col20:   879559376459B8795997496C9889966B77CB67879BC99C49AA8CD99D7CD9A99C7B7694998A596567
col21:   74796887E645455788796A8496A2AE6BAA988E79AA95DB89798789A795B9E8A888A9989B66439657
col22:   4687B4567775798A5ABD55A96A899A9A9C8BB77A9F7C585989AECA586A7667774A6A966A8A787A35
col23:   785569898CA618915B98AA645B75D77EB655AA6BDCC878872988BA77778AA8B6C9A5A9AA77876845
col24:   98759882D934786AC86999A686899C57AA6AA8CCAC9BAAB8A67A9AC95488B618859CA7A585864446
col25:   87796657979C9DA98AA6A7986B7B9CC7AAC89AABAF9AAB8977AE9A7ACB97B718ACA898B599A69879
col26:   8A65B9775AC8A88A899DA887AA8FBDBC9969EBE9B9B895BA89D8EA8CA8888C8B99B88789DABA7968
col27:   8AE9656A897B99BC88BBAD6ACABA87CBAF9EC8DDC8AAAC8BDBABBAC7DD6CDC93B7CBC8C7A979B859
col28:   687B7CAEF967BACBCBC87CABC87CA97BBFEDCBAC68998C8AA999ABDACFAD89B6AD9BCC88B76C77D4
col29:   C9EA979889655BAAABD899EEBB98C8DD6FCF8DBB699AEFA76EDB7CA9AFE86BBCABBD9ABA96AA7CAC
col30:   7A5693768A9B6A7D7E7BD8CBB68AA677B9C9CD7BAD599D9AA677D7BA69DCA8D88BBCC88B8C9BB699
col31:   8A9849BABC8B9DBC89FE9CCB9E7AC889CCCEFDDAAA9ADBF6DCB8FBACDFA5CC55B7C8AB97987CA971
col32:   9B8B9AA99B8BA94B9D7A9A7CA898EAB9DD88EEB8EF98BABC9BDE9FAC9A8D8A79B5B99CA8CA58BC91
col33:   8569A78BF9897688FB8BEE6DAA8EDCABAB9AEDB6BBB7BBDDDEBAB8F8BAADC77B99F9CA6E88858F46
col34:   683B99AE5948789B9BBC6B6CADB9AC569988DBDA5AAA9BA8BC98BB9CB7CCDACDAA68CA7ADA9A79E7
col35:   99A57788AB6C98CE9CBDCC9C9DE89DACABCBF95A9FCB599ECEEAAA687977FA9A98B96AF8D49B78B4
col36:   689BA9BB7C965C7B69BC9A9C9B8EBB7B9BCC899DDBBFFABCABEAACCBABC7BEC9B9EA8AAAB8A8AB85
col37:   BAAC4B9BA9DB9BDBD8BF9A7CADBEE6BC7C997DCBCFBFCBB8CCFEB8DCDCAB9ACDBDAD9A7E96DAAAB8
col38:   9B899DA8298A6D7DBAC98AACDE8ABBFABC8EBCFD9A9BFBBC9CC6AA88ECCC99A5CDDBADA9A9895A84
col39:   AA9B9DBA778AD8EBB7ADB9B6BE6EFBCBB897DBCCFBEBAFC88FBCBCCB6C7CCAC88BBBCB8A8984A8C9
col40:   AEDB8CDA8CAA99BAB9AC6EFDB8B89F99D9BCCBBFD9EA898DBBCBDC99B9ACA98ACD79CDDBFC79BCA8
col41:   6879BB879BAA7DD9ACCABBD999CCDBAFEBC7CDCCC8DCAECDFCECBA9EADDCAB89ABEBA9AB8AA85886
col42:   476AB67A7A7697A8B8AC77BCCB9BC8C9ADEBEFC79D9FBEBFECBBB9CD8DCED5AAFBE9C866AD6C6C6A
col43:   E878AC8BEFBACAAACA49ADCED8CDAECDDCA9CB8BCEBCACF8BCBFD9CCF8BB9CDDDAD7B9A797B9BBC8
col44:   5A9BBA979AC8A9BABC9BC99DB9C9CE9C8DDDCD7FCCCE9DE8FCDADCBBABE8EEABF999ACA998A7AB84
col45:   CA9EB99C38AFB7DD9BC9ECD9B9BBB8F8EE8EBBAAEAA8C8ACABBABEDBACCEDCD9BBA877BAAA898A76
col46:   9DAC8E8A998FBDC8CDFEAF7BBDC7FDA99CCEFAB9CCDDDEBCACD9E89CFCFA9CACA9CA8B998E9B4887
col47:   9A7B9999CBDECD7B9BCA999DFADCCAE98FB8ADBCEECEFDCCBDC99E5AAEB8A8CAB9FAAC9DB9ADFD9B
col48:   EC67A75997B875AB99A88CCD8596699CBCEA8AF99CCABEDCC9A5BFBCB85AF9CB98CC9AA9C7AB7A38
col49:   ABDBEB7AC7EBA79C6BBC99CECA9CCFEFE77BC7ACB9BAAFED9CEAC9DA9AABFBD65C74ACAABACA7B58
col50:   F7A86C8ED8BCB8C99CFBE8A98978BC699BBFDCA5DCCBEAA7C8AFC9DBAF9AABCCAB679969A9A79C88
col51:   668BB9AB9D6A83A77787CB696B78AD97A87A7EEA96BAE9B9A99A7AA8BC8A89A99A86875AA9664966
ROC:     BPix_BmO_SEC4_LYR3_LDR10F_MOD2_ROC13
col00:   68128924A66546687A7653749B68E73877657A868C87536987668FB6A6AB25956E72A8639C56B993
col01:   75795A6677987A674A66918A7AD699D745E65E9CCB6ABB49BD69785C9A78A8CC8A75C6A497879D57
col02:   ABA8C474458467687CBA8B398E7BEAAC69A9B66C17A9BB9B7D5CD7AA7AABF99826EB597363B55954
col03:   51289B8A839771AA863A56BAA699C787AF38A69D99788786A9A1BB97ABC4CDA78674289694993844
col04:   8A29A4259636889B89AC68CA87487A59966696C6C74F4CBA4B4B68B86AFA6BB49A79DB77BCC27B5B
col05:   86A64395811677887BAC8376ABC979CA7745BE6D756A9B9ACA7CAB5A99888838A9598692B658AEB1
col06:   996BB8388589688CCDB544897B88BA59BC9DA8885CAC78B7DA99C3CEA89C87B8FB89896698C83877
col07:   A395699E7C87A9996AB568BA94BD7B7BBDBCCADAABB88FBCABBADB9CAA79D8CB995AC6B8AE89E598
col08:   B2986543B72A58C76659888B9A9B8DD926FF987E88BE6C8AEA7CB9A6C6C61CB7EDAB969B76795B86
col09:   7E9E856BB84AAAB98894A69B7B766C8B9BA8A98B99CACB9C994DB9A6DB3A86AA89B4B4C893375A3A
col10:   BC7679958979866A879DAF59C87C7ACC63689FB6D7C288537BBAEBAD9B98CB989A88893562B61898
col11:   CD7396155CBAB359798998377E899A59A9AD7988F93998E7B98B74AEAB68C6B5A8A349EB573CA267
col12:   68982A77555985646A13968A6A7C7767949BB6B6F5796EB329BA7CC8D7CA868BECA65C83585A6671
col13:   4652C26998B99A756C848A7A59A8C586CC9EA877ACDBA5CCD8B749B8777A99F4C6998999A9566777
col14:   3649287587366E75547768A58D86DE75996DDEA69B5F88DBBCF7A85B89DBA7B9C7A5986877779492
col15:   6646B259697575638EAB7B7977CC9A78D96968A5ACA6D9DF9C6BA5ACB6D59C8BD58B3CA473B2B62B
col16:   88638754A6295486B8B588D46B8778B8958DDC8A99A99DE4EC6958ACD7A89D7A7569A8AB875A9AC3
col17:   A24A496A7698486697BC9C8DCCA89789A89CB3678C8BBBB99A388ABAA9357A9C6DB7594978599D84
col18:   7125335757176A9AB6487697C8B367C959969A4899CB898A9A5FDADC87399D8387643A3997416648
col19:   DA68A4C646995967699B74B98BE87AABDD8AACAB5987CA6ACC873F4ADBEAAAC5C91A9899A4999B66
col20:   A779A3597B89576BA5A9987EB7B6FDBC79E9B95B8789A879989A4796D7696B7E8E66539677765C66
col21:   585667A8288A4689A3AD76688A774A87E899AA6539A8BAABC6879F6B8BCCA669A5958DA795957865
col22:   B9A4E97999959979928B89869C888BC4679EB99B9D998AFABC6AAAC8B79ABB4998B8458662762596
col23:   516738BB757466357D869E763B1CB29898D97CC998A7B5685751A779BCCDA97478861D9857668454
col24:   215979963D21679528457787B966A6948A799B8634C3B979A874A7678D478C4386C7873983588A34
col25:   796497756867B75B8A9A97C6A9BB8CFA97AABCA7D8A9DAA9CCFCCD5DCC7A868668916AD46B688535
col26:   A7CB9459A91779A677AAAB79BD97DB69BCDBB7D6CCCC9EA88FACB9ACB899BAAD4A9BC38527E78681
col27:   77789D79A963A7926BA8AA9AAAA9BAE8CAFAABBBB7B7CEB9E8ACCCBCAA6BB8916CC4AA656A8BDA61
col28:   8797849E4CC7C597A8BB8CBA7D99ABCACECCAABBF8AC9D86DE999CB9CB8B9B89A6878A9DB7BBAA34
col29:   998DB986AA968A9AC8BFD9C79D76BDBBDC8ABBCA6DB76F76DABADB57FBB9586E985BB8CB6A988765
col30:   EEC787498D7AC9787977A4A999A78BEBE99AD7FEE9A8BAFDC3CEBCBBCA9BBF985B9C996C957A556A
col31:   8B98C849ABBA68AABAABA5BA88BBAACAD7CFAC6AFDBBAA879FDEA9ADB89FAA6EA48D8999A5D886B7
col32:   B989B6BC8B3A899E9DCB8BE6C9CCEA8B997AC9D7CEF9DBFFEC8CCBABBCF6BBD5B877A8B37957AB3A
col33:   59CA7B5A9CA7AB98596A58B487D9BCDCCC9DF96BB9AAD7BA9BDB999ADF7CB5A697985A364B388766
col34:   C6ADC9978BC9EA8C7C9C8CADCEBBA77B6DECA8BBEDE96AA9DC8B9D79AFA9F7EAACA9A8A34A666965
col35:   C969B4988CCDE6B75C979AA8CACAC9BA9D69CBA9C9739DB8A9EDF86DDADACF69AAA33B659BB56967
col36:   A9B7787997C87C6EAACCBB6DB87CCAABCCAAEDBEAEAA7498ABCDAC7BCDD87A9ADCA44B567AB8675A
col37:   6D8896BACA8E8C8CA79EC9C9F7EB9C8DD98BAEDEB7E8DCC9AB6888AFA9BC6AB88FC7898BB6998686
col38:   97799CB7ED9A9886DA78CDAA9BCBB8FCFB9BEAFB99BB8ACCFCABDBFB9BBBB989BDBACA798E563345
col39:   35E8B98B6AA826CC8B5BDBC9C9C7DC9CE9ABC7BA9CAA9EB9AC9E99ACAD9F989357A7887A69A396D6
col40:   868BAD6CAA989ACBE8CB8ED78ABCE9CECBADA99ECADAAC9C9BB9FE6ABCC7ECB79BA66ABBAA976A38
col41:   1A6DC86896E8BBEF88DBB6EDFCFFAC78DDFBFBE8DDFB8EDD6F9FB8ABD87A8AACBBAB9ACBCA839A9A
col42:   8BB998A57E669CFD3AFCC9A8A9B5BC8AEB8E87CEACDBACFCA6C5BC9B898669BACABC68A789575792
col43:   7DCA8F69BA4BC976A8557BCCC9CDBEDFAFABBACE8BCBBDADCF8B59BBBDBBDBC989BA66F8899A9AA2
col44:   677B686F5FD7AFC7CC496ABE7B88AEF7BAD89ECACB7BBAD7C9AAD97DB6C8B9AC9C8ADA879B76795A
col45:   98BA76BA98C8ABABDFBE9FB7A9A87CB77EAACC89EB8DBCD9CB7D9EBECCCB3C9A8B768C275C37A7F3
col46:   A69788AB79ADBC786AF79A98A9AA9AB7ADE99A6EDFFCEBA8BEA9EBDCDA7AAEBC8EC897E76EAEC8B4
col47:   578BB957BCEACDDBFC78C9AD66B8ECF5DB87BC94EB99FBACD9DCDBA9AFDADACBFD6D69CAAD16C994
col48:   86DD8995CA5B8CC7A9AC9AFAACAE7AA79CBCC89FBDA9EAD9ACDAE8BBD99DBCB9EEA38977A8B897A6
col49:   CB7896BA56DCDA4AABDADCAC5EC6BCECB8DFABCBFDA9BEB8B766E87EDCDA8A9A8F964AE98B5799A5
col50:   878946AAC98A67AF9A765A7AB9AB9A6CF8DFD6A9C8DECBCCCF6DEEBA6BA88CAA8A7A886A9F6741B5
col51:   685D46A6976B65A8B69857DC9687BA669968E6AB88BBBDA787599D77282B95C7886955574AA49956
ROC:     BPix_BmO_SEC4_LYR3_LDR10F_MOD2_ROC14
col00:   29383668743584A659775C43597589A99A5BB78784895869959328876987A4D8959866A352773524
col01:   38895666B786A79C975DE8CC4DB97ACDB698BADD698B659C87C98568E99A76A88C535984AB5C9979
col02:   385675865B9688997778BCAA75BCCD6BBF5BAB7BBAE59B89BDC7DADA9A8687268678A978B6665797
col03:   5969889765669E9BDB68648C9959965ABA5CC8A99A789DBA8C66B5B49996C99DA5874BE595765764
col04:   A64386B9668A856B9A8C9AB5CE8AB7C9B97F8BC9F8BB8B96ABC8AA76799A8825499DAA9B58876A75
col05:   35AD757684CA7A857755DE7B39CDA565B7CDB7968AB8A999979B98957697A7B7984A8968C975A995
col06:   563579A58467A37967B9C38B96BA9AB7BA6CBCBD5AB9ABBA69899A7E7C99B6B489AE868894555A86
col07:   8969A56AA7897499982E7BA69AA57AD88A898B96B79D9BA97ABBB89B69B9488859DA45B8C77868D3
col08:   884899C775D359CC8BD775B9BA9DAC78CC88A6BB889A89CB5A995EC68A58A9ACACC86A5397736664
col09:   5559A86958B78756AB96D88B99759EFAB87AB9C6798CB96879BAAB79595ADBB9885A9B38A7A65486
col10:   BA84AB6AAD988898887A72A66D8A8AA68ADDBAAA779A97677A7CDEAACB788988B2786779847A44D6
col11:   A9978793C7969D6B9BC4BA979B8BB58BAC7758A99BDC88B88D95A66A8BC796A6556399A88857BD97
col12:   783C76C77985A7BBB96A5B86A578E76D6C8B99899A9B9D666BB45FA8A8997C67B67955AC58781A49
col13:   77A7979A8228488BD7759D9CBB6A3A77ECF8B88A8CD9877C964B878A9776B99989B58697C965B862
col14:   AD7C7C856B575C9C9BAA8A88DA98AE8AAAC8BA87B9C5B99A8CC8DEA9AA9AC9A757858A76BC999859
col15:   37CA9AA378757696EA896AC9B76698A7A897C88D9BD9C55ABBA58E97978698D7B5A597787D79B866
col16:   6AAAA36A2A867A88BA3659D779F7A9B8CC676AD5BD8395B8BC9AC87BCAA76B9CACB79AA46698AB63
col17:   75569B988696DA77CAEB968B67B7C8D895AA8B8CA767B7ABD68CDB9C8A5B4CBC5A96CBAA4557A768
col18:   74168A64B2378C9BBAD789CCBDDBAC59B9ABC8BC9A8ABB9ABD7D69BA9AC3A68C64BD5AA3999C49A7
col19:   18A75A66A73E9B7B9C969CAEBA67998D7BABAA9CA5BD67F9BAA7C6B8CB99AA6A88B78A97576A8883
col20:   8D87957958B649C78A656B3F79A9BFAA6B97AA998B8BAFC58D8F99D79A94B679A868BB4A6647A8B2
col21:   887866A9C76A95936F9969D6995AFABDE8ADA6B4EAB696A7A77B9DC8CA7C9BA7A29A58788AA676B6
col22:   5A578B656955558A7593989B2C9B9C6CBBAA98FA9D8BBADCAAB4D9698A9CA89A7B93A5A89D9789A4
col23:   7569D85A99795C8E4CB79765C96AD676A8888DB8DA6A7A6A7C85BAADBE977A699995897836886373
col24:   651B99B79956A776FC8E99B75889755BACA799BCA677AB93BC9BB68B8C95AB49A688DA539C6D6645
col25:   A963498A69875A77A7B6B839EDC7DACBEA99BB9A9A98B9BBAE58278E67C8E8BA8A7697AB57466798
col26:   798567CAF7B866B9ADF67CABECAABDBDAFA9E7DC8D7FD6DBCBFAACD7ACBDAABBAA9C997CA8BB5897
col27:   AAC76996CA6699B6AA7DC7D8C3ACAD976CE9AEBD8A9DCBC9CA8AABD47AB7AB9C9BA76988AA9B7535
col28:   597C5ACDBC8AEBADB9999BEC9DB84FB89D894AAAFCCB8F8CE9DCAAA8BE7CEB888B8BCCA9B9566964
col29:   BB96888C88C6AC78679B59DBCA7CC9E8FED9AABBABA88DBBAC7B9DCA9B9AABBF9BB7BAB9C8A9AB61
col30:   A689E997D9C868A8FCAA968AB7ABCBA9C97ABCCEACEDB8E9BBBA6B6ABD99C889CA9E99A9BCAA8687
col31:   BFA877B99BBDBDEACAAEF69BD9CB9EFFB9DBFB9ADD7B8C9D89ABCA99C8BAB9CBC997C778BBEBB9A1
col32:   AB767A7A9B9AAE7BA9AFAE999EBEB9EDFDDEDBE97D8E9C7DBBCFABBC98DC9DCE8A759DAACAC5CB8C
col33:   AC6ADC7678797C9A7CA9FB9D6D8CBBB7BF6CCF9CEDFCFDBACBEA9BDADB9ACCA8B9D8B68777ACA7B9
col34:   9A8BAAF7B9C5D9BC9989CDEA97BA9CCAFDAEA86F7CACC9FBCBDB8BDADFCFCEADB4689B9A4BAAB9BA
col35:   AA96B5BAAB7F5DB9A9AE99A769DA9CCECEAABADCE9CC9D7CDFCADFECCCCFA498BBF9ABBA9784A789
col36:   99B87ABDD8CBA9D7987BF9ACDEF7BEEDAA8DCBCE98BCEC9B9DBCCBDB7B59B88CC89799D6D87AA957
col37:   7D9C8ABEA9B79DBB8CADBE9AEACAFADCEBAEA99EF8B7EBCBCB97DBCCA9BFA5B99BCBEB79FBA9A658
col38:   CA69A7ACAAF9DFAACBECA9FAAB48BAFCAEDBDCCDBDC8A8AE89FEB9CBC6CDACB6AEC679CAB9A879C6
col39:   EDC889A9AE898DBCECE7B96CEADEEA888FBB97ADFFDBAA8DA9AACB9CBD888D8784C2A479469B5655
col40:   DBB8AA9B8C69AADBBEE6C9C9C8AFBCECCD7F8EFEE9B8FBDBE86BFAAC9597C9C9596976977D9A7475
col41:   6968A67DCBA8898AC9B9A9FFD8CFF9FEAA6D9F8A9DFED9FDC8C96DC87998DDCEAC9C8DA66B584A88
col42:   53BD97B8A98AC7AD9BBBEDEAEB9A8EC9BDBABEBFE8ABB9DBC8FABAC9ECCDDAC79A98FB967A98A98C
col43:   AA9FBFAC89B6DECFBFA99FBDEBEBCF9DEAAA9CCCCEADCEDBFBAC89CFAA6F96BC9EB7887A9DAA8B94
col44:   986B7A75C8ABECCFC7FD8DCDBDBC8EFDD8CCB9DAA9DDDD9FADBDEB8ADAFBF7BDA7EA6C596ADBA897
col45:   C6DDBAB9AACAB9B9DCEBD9CDAACBDBCB6BBCBBBB9599A88C6BDC9B7989B7D8AB59ACBA58B9B9B66A
col46:   B8DBADDEA9C899EC9BCBFBDBAA779FBD7AD8CABBDABEADCA88AECABADBD88BBA7C9D9B8AC8B9CAAB
col47:   FBBFAEBDA7EA7CCDBA8ABEDACFEDFAAB7FADF9FC99FBBEFB898ADE8BDBCCB7A3758BACC78E5AC889
col48:   C97AABEECA9BE95CEAC9A9CCFFA8AC8DCA9FFACEB9BE7C9EA98BFFAACBB8C7AAADBC9A99C688B798
col49:   DCDCE8AB966BB9BCAC9CAAF8BDA998BBAAACED98ACBA5DEABD86DB46CDBB9BB87BBA869A96998796
col50:   8D9989ABBD99AEC9AABC5CDADDDFFAFFCDF7CECABBA8DB9DC9DC9AAAAEA8DF85ADCAC89999999879
col51:   96955CA79CB97A37A89984CCD6A6F7FB97C99B8A79B9B9A86779A681A6983966A8865A5987684866
ROC:     BPix_BmO_SEC4_LYR3_LDR10F_MOD2_ROC15
col00:   85381458BA364642373A6755877565A9685976BA375439536967687C47C9A67586466A8958442761
col01:   362968794C857AA48588C98AAA87AB6CD7979A8B737A65999B7DB7979949ADCA56A867ABA9798865
col02:   885496938995895A244B656DB5984779A67786A799BA368A9A9A4B87866799968899785775677795
col03:   6988719783B7A4B62569A6693857859A99B69C676BE69BCB5868689A8CA6BB7A8CA5BB76A5384847
col04:   97794778AA3B57A997957B788997CB9B8BB5797CB87CBA5C7B55AACAB7A97A677885696A7B579882
col05:   7574967A7658646C6B27486A716A6B988439568BA6CB878BC576C6948459676B76B8367971B99665
col06:   537295AA8768578B57AD5574876955896BA7A8A43C89957879A9AAB5AC7799B5A359C8644A92C953
col07:   6B69867769129B9764986B898899BAA8A4B89BBDFC67A89498BC758AA9C79BF87A7A97A779966769
col08:   96624678953459C684253BB8A58589799B75B8AD58898A98896CCE897C9B76AB788A578853676576
col09:   A66874665776A9AA57887867B889999985679A57A959B9BB5A79C7697AA9D8A6933999D996458998
col10:   979978A7895B553C96596884A8938889A898C98C89A9C9B9877DE77CA7BBA8ABB8799998B74B6866
col11:   A7883578533945788B87A8BB5A5D6AB96B6C5997B7B88F8996C998A979C7E9988C8B898B57567788
col12:   575A976A657A7CB7658978B984768B676B876B65D9A66DCABBA2C8888546A887BD8CA58298568976
col13:   65674689B8483B1A78376888B5A499AB96BA659997799AB85766A78A9AA99D9A89A94975777A7747
col14:   751C794755996C7BC5569AB7788598938EAB89879BE68BA4A99A8C7A7AB9899CA6B79865B6639978
col15:   6782986696975B76983865B947ADF9A786A7AA899B998CC7A8B87A6C7A8C63899797A78983C83BC6
col16:   B617156845758586768899B986A8A9E87A6B9CB78ABA9AB78C66CBACA99998B42798AAAA58876BBA
col17:   957B9B59757256A9986B3EA8898697B5BB8A6C98CCA8CA77E967E5AD77979968797ACBBBA87A9768
col18:   869864256893847B15A9AB8A8887868D698BBBB9C885887B975AA9997A9CB4A79989D9564888AC84
col19:   6B8748786A6988CCA68997D28863699B8AAC69AC7ABC7A84B9BA997E6A7B9D6C8C88987877A7CB97
col20:   6754639639777787959834ABA9676D69A7857897866CB6C488BD665B79B88BB299A5876B794AA578
col21:   628836979636878641B49777777656DB8BB997B89FAB97AF9A7C96989F878B6AA8689C6B88946994
col22:   C55B557835689397796A669BA84B59B6AA97797C886AB8CAAC4778897E967A93549A599A59749777
col23:   66388C66576ACBB4375E586AA788886A95C94D6EB69B98B9B999B99BC7888A7485886986C1AD7897
col24:   7997596A57585C6C9665BAAB5948BAACB577B95A7973AB8B6D5A9C9C87B7CB8977698B8A37597793
col25:   C4C48879766468836BC867BAA9DA9569AB6A6C9CB69BC8C787AAAF86B84DE77B8C9A847796758787
col26:   966B8A87B775ABA7C9A9AB8998ECC9C88C8C6BAABCA8888EBA8974BB8C9BDE9AC86DA9DA8A86BC85
col27:   A7768B9A5DA7998859988CCABB9CB887ED7C9B7BBB77B6A7DCCCC98E96A8D97C96ACDA7B982CAB66
col28:   6D697AD788A5BE98A8AAAA6CDBAB8C99A8A89A9A6A69ACCDCBBC8B79BC9B7ABE988A78B99ADAB86A
col29:   E3AA869BC749CA9A86BD78CB689A9B789797E8AA5979CEBBEB8988EDCBBEB6BAC9C79A898D7C7A87
col30:   A876988597B8C9ABC8B8B8BD8B998AB9AA7997BA5A7989DBAC389CD88B8CB78689AAC99CA786EC4C
col31:   FAABB8ABC8AAB9AAB99ABA7CA8ABAAA9DFAAEDC8B9FAAACDBBC9DCBBCDBBBCFCDFBFBCAFA99C9C9A
col32:   8BAB87A6A678C8C97D8DCBBBBAA6CD8CDCBFBBDC99FEAEDA9ECB8BCB99BAABCBCAF96B985A68EE89
col33:   8D6AAD979A6AA9ABAF9BDB6CBB9479C4ACB8ABAB9D9E9BCEBA8DCCCBB9B8FBBAA9DCE5A6EBA88C58
col34:   C6CB4A878C8CA8D99BBCBD999CCB8DDBFECBBAAD7B99D89C8B7DDACEAB99B99AABDA96AC7D79B7B9
col35:   96E9A89BA897CBECAF89E89CA97ECAC8BE9DABCEDBF9DAFCBABCA99EAAEBABF9DACC9AA88DA68C99
col36:   B7A9BB4AAA886E59E67DC9B7AAB8D7DDAE7FC6BCA6F86EA8BAAF9A9BBFBF8CA9BABC7A9A599BA776
col37:   CACF956A99CBAAD7AAA9BAD6CABBAAC49A9CBDC9CCAECAACFDBBADBDCADD9C8988B9689C689EB9A6
col38:   8A5CDB8A9D9ABDAC9CAAB9BDADA5BFBCAD9AEDA8CA9AEADACEACAFCDFEDB8CDEAB789CAA99BB7C87
col39:   782C799A8999F79E7998EB9BAABCBE9CDE99CBAB89BBEECCECEBCBBAA9E9B8BFCBAEA899899F7DA9
col40:   C5A4AA4CA79998DBCA99DA9B98BE6BBAACDEBDBEAAAACCBACDBEBBDC9EBE8CBCEDB98CACCBA99B5C
col41:   A96C5D99BBDBA79856F7FC7EBBABE9CAEBDC98CCBE9CD9BDA8CBCBDCDEEFD9AAEBC9C95B7CEC8A9A
col42:   9A9CB5BA9C6969B8ACCADB9E9A89AFDBDECBD9BBBBDCED9EF9B8D9DADA9ECBCADBB7CAB78E8C6B69
col43:   9B98D4DAA76CACD7DAAAACBBBBBCCEEACA79CAB9BD6CEDBDBCBDB8B9EEA9E89CA6DBDB9ADBAB8979
col44:   C98C797C9A99B87DCABCDCABCCDDBAC9E7FB9D9EEAAFBDCBCCCDDBB8DBC79DEACCA7989FC8A7793A
col45:   ABCAF4ABBAA98CBB899E9BBBA1BDAB9EFDEBCAB8FCFCAEBE8BAABAAABCEDBCADAFDACBDBB8C79777
col46:   C98CB85B6CC9BADB78BDDDEFDE9DE8BCDFFCC8BB99AC9CA8EADFCED9DFCBC99ABBDC8E3BB9A89CAA
col47:   9D8997ECB89A9ABAAFA9F9CDBCDBDBB8FD79ACFACD7C9DDDEEEBEAAABAA98C7BBAEBBE8BC8A9CAAA
col48:   B5CDA9A7BCBAABCCA89CA9BCA7AA777EDBCACCFC9CE7DDCBB8CCAAABADEA5C9CDCDA9C49A8F976B8
col49:   A9DBBBC8B9B88E9ABDBFADDDECD7ABDEBBAFEBDFCDADBFBBDCAE9CADFC7DCACCB8DAFA79FC99A8A8
col50:   C59AB8B878AABEB7CFDCCABCAFCA899ACADBCBEEBEED97BCDBC8AFCACEBCC79CE77BDBAEAC9BACDC
col51:   58ACA66BC9398A998999B99A9CF8C8AABE7A89C89599ABBDB8BCC889EA7C6DD9A8979AAB8A97AC86
