ROC:	 BPix_BpI_SEC2_LYR1_LDR1H_MOD1_ROC4
col00:   caeefcdccfbbddcfdedfecffcbbf9fdfffeffdffffffffcfeffebfafffefecffefacbffcfeddacfd
col01:   eba9ba88baaa8d3c5587e36a597779cb4cabc9abc9cc9ba9f9acddeddd99aae7b8a5b95c5a79c89e
col02:   bc27e6d9a7b8a8b85db9ca5998cdbdab8d989dacbd99eae99cea9a6bdcddcbcb9898dbabb69cc9be
col03:   9a74667c9bc8ab9b9ca8896ab9bbacad9a9cab9ab8ebbafc6b98ae6bd9aafbdafad9bbc899961ebf
col04:   e997b87a8c99c88b8bb8e89bba7d899ab8b998aabe988decf7ababafcb9cadfa8b38a7dd8abebadd
col05:   f6aca975a8ca7898589d8bcbfac77897a6cd8caac96fc7baefddbdd9ef87acbba7fcd6eaa95a8abf
col06:   c98bc998aabbabbaa4cba9cdca7aabbdbad8a9adfbe88bdb88ac97acdadcbbabd98ababb889aa73c
col07:   dc699b69a93978ac8aca9a9dc5ddd9dd7bab9997fbcccd8cbc9fc88dbfcfccb9bbacabc99bd99abf
col08:   db6b9b659a8a5699a8dbaaa8cbcee89b4aaa8bacc99999c57abd7ea8cbc6b3d9bbfa99a67beaaabf
col09:   ca7a779aaaa65aaa8c9aab9ec5caade7bd9a4cddcc7a89ca9addc98adea9c986bacc77a2ab99d8cd
col10:   ebab9b8abba8bbbdcdca6869addbbbdc9eb8fccccbcccd997d7afabcdebfc7a6b86b8aacaabbaaaf
col11:   f5b5bb9e875ab9ab9a8a9a6ca8eabdfcc75fb99aa98bbbfedacda9efb6cbaddbcdbc9c9896abbc8d
col12:   c3c9a9c98969acb87c48add477aba8b5b759c8bc86a79a9cd9e8f978b7bbbe8c79ac93d5bad869d9
col13:   ea98adca6978b7586e9abcda8b8aebdaca9badc789abc8c9d6f7bacbb9faaa6cbabaa727ca6b99be
col14:   f8aa6b69798767fdea5ca9ab79d98aa5dae9b8ae99da9bdacacdb9b8d9ba85b88a8b77cca8a7e99f
col15:   f5b99b9497978bb8adaaad88899657acbcc994cafba89ba78db89cd9fcb7cd6a68edc4c6b56888bf
col16:   b994cadc788a8bcc988dcc9876988b99cba9c8c697ccdebbda8bbbc88d9bc9cbdef7e996868db85f
col17:   f6a75a3b666b8a5a9d8a896c8977bca7d8896c6bcce8aabccbab79b9f7accbc88a9b6c7cf79df97d
col18:   97a758679b598aba98c89a9ab987abacabac9dc8c7aaebcbd9a99ccbbc9ab998c98aac6abda67bff
col19:   f9877bc8a5b78d6bbddb89a9e7aa97bc68ca5a5ccdacb7bca7bdbb9a989dc9daa866fcc8e9dbc76f
col20:   e75556aab898c569a79bb99aca4ca7b9b8bc7acab7d9a8ed5ca9caca9dcca69abb8db487bcda9d8f
col21:   e9688896cc8ab98a5aa9ba999adcb9c8baab6c9cc56ada9c7ba9be9fbbebdc6bcaa8a9ad89bfb7ac
col22:   fc86aa68c7d998ba7778885ad9e8e6bf9b8b9cab8b98adb9aabe9f8abdd9aebcab9b98c57b8dbabc
col23:   b989acc68b9c8db7b66c4dfbb96acbccac5a999b7baadca9b999bcbc9bcbccebebd8adcbbdb9dabf
col24:   ebac7b978ba9987867669a8d9b9cc5aa9a7a999c99caa3af7f9bb8dc8d57ca9eeab8a6dabbdbeedf
col25:   e7caaa9cee99a9872acd99bcaaccc9eb8aabbbb9eeac99efcca7cc9999ec9accbb7be9dd9dcab8ce
col26:   e95896aa989886564bcab6ec897eccfbb49eb9abb9b7babbcbcca7cc8deccdbcd99ac9cd9b7ba6df
col27:   dda7b8ccba58c8e7ac7bca9adcccd78ceda8caddccb99caaecdacadbecabcddcbde6bccbcc7ecc9a
col28:   ea998ab7aab8a966e9a989bcfbdcf9a6bbb988cbbb9b9cabcdb8dabcceccdbdb7c7e7898af94ce8d
col29:   daf8b99b8b875a888d8a688ccd9aadcb9f8dd8b58de8a8bbdbb9f9cffaecbaecebbccbd98d9bac8f
col30:   fb87688caa99a987f79dcc96cb9afcc79a99cdaa7aaeddd7ccfd8c98d8b89ed6cebdcfcddfaad77a
col31:   e99cacbcb7ba796aaaa8cba8fbbdadbdebaacf8eefddea77aabfdd8daecdbccfcfacc9cc9dcaa5b9
col32:   c99abaacbab699c9cf6d89aac9acbba8ff98d9a7bfddb89acbb9a9ada93c7acf9cdbeceba8aba97e
col33:   e8bbabe766dae99bdbeacbdc8ca8877aedaaddefb9ecafeca8aaceb9ddbba8fbc88bcadfa86dcabc
col34:   ebda8abd76bccbc97e98a89adbbb9ecafcee8fc7bacbdcdfca4d8aeeba89b9eb9eadd88aa989d9dd
col35:   da9a5dbb9b989bb698d9aaf9abde9adabcbc8bfbeafc7ececcbcd88c8da79faabc9bcbaa94abcb9f
col36:   f9db9b6bbbabd7cb9c7c9bb837ba99e6c8ae9bbff7cbcba7bcbc7abcef99abcfffcbaf9e9b7bcadf
col37:   ca8d79e75c9abcbad5d89bfaba7e98abbb9bbbb8bbcc8abbbb97bbccaecbdbeec97ddeaa78869d9e
col38:   e7aa8a9655a9bcacc9be89c9aead9ae85cfcdfcbca8ceffb99a7fbddaa6dc8c6b8cbcdcbcadcdccf
col39:   dac5bc9a8accbb88ab7aa7c88a8b89a9dfec7ffccb9eaeab9dcfb9babcfdcdbfaebbebdebad8ddaf
col40:   f8798bdca89cdad98a6a8c67ba6d97c85d8d9ca8bbc9a7bba6c9f8dddbdec9d9b78ae8cba8ed89cf
col41:   cf9c8a685acaa897ca9b69dfddfb9aaacb99bbc99dbca58b9bccddaba7a9ababdad6db9ab99bb9cf
col42:   fc88897aca97648aba79aceeb9eca9bbca8adccfbcbbcb9fcbdbc79b9c8cddcaafcdedecffccbfcc
col43:   fa335ca86b9bb7baeccbb8abcd9eaddd98aa8daec8bcbc8dd9fd9cceafa8c9fa9ebdcc7abdfccebf
col44:   f9ab899c99c3c79e89abb889ac9a8c8caae9f9cb9eda9adbefc9cecb9dcbbaebfcbbadaabbcdb7c9
col45:   c88a7aac9a97c988abbdbb5f8bbfaacd86badbfaa7cb6cbadbefaaab7dbeaddcaa8dcccfb9c9d8cf
col46:   f8a9b6a86aaeb92ab88bae4a98baa8c87bcde78acecbdabcbbdbeed7dddccbcd9daae5cbebda7bdb
col47:   e598cdb9367ba4bd9baabbbb688a7aaa6b78b8cddcbcfcfddbd7ebcfbcac8adabbb89bddabbc8a8d
col48:   b9cb5a697898b3da8b699b8abcbcdaddc6ac7b9cdbbfe9aa96ef9dbeadccadbbdecbaf9cabcb86ce
col49:   f687bab7abc6c6bc798b99daa89abb9b88987abcbacaafedcec88fbbece9ba9d9df7dddf798aae9f
col50:   e8979badc789ba877b65a8a999b697d8e84bccadbe9dbdddbb8bacbccce8ecb9ba89cb7cb9d8c86c
col51:   fd9dfedfffbfbdfcceffddffdfbfffdfdeffdfefdfffffdffffffffffffffeffffefffeefbffdfdf
ROC:	 BPix_BpI_SEC2_LYR1_LDR1H_MOD1_ROC5
col00:   ebdcffcdfdebdcafaa9fcdcefcfedffdffef9fbdeebaffdffbfffffdffafcfbffdfffdafffbfcdfc
col01:   fb9aa478956898b643bb5a868a9cf9b99ca8a78b6b75eccd8abcaabc9b5ccbccbc88cd5cb8accace
col02:   f89e77ca86738459585bc8b6b7877dadad5adddc98b6caec9a9e7dbdac68bb83aad89ab6c6b78abc
col03:   c58caaa8c9b6a8788b9a57b9c7d89aabba9ca99baab9baa8cdd69cb8beabdd89cef9cb9a9a7a6cab
col04:   8568db58664679579997cabdc759a6aeb9aae9b788e5ba9cd9c9addcb8bdbadae35cf9b9e767d98b
col05:   e9696b8a7bba965a74bdcbabbc697c5594badaca68c7985eacb97accb6bf8de98bb894b6db99869d
col06:   e7a5665bb79baba7753c8698d988d88cdc77b9ec9b568acababf97bfbcbbc8da83bc969e8977a89c
col07:   b76e8cc688a8692c77a87d6b3d83b9665bbac9ed86749399ba8ead9ddacaaaab987caea9788a688f
col08:   dadbc9c7caa85686458967ba7a5c8d8cdd786a9adb8abb5a74997a9c6b6dfb6ca9bc6ebbb8aab8ef
col09:   dab885677749a88da9779869a7999adca98cfca9cc97ba6aba9699cb9c6cb9efbbdac8cbadbda6cd
col10:   f8c8ba78687f94b6996859abaeccdbdc9a7c9979cadc7c8c7778b79bbfb8cddbffcd8e99fca99ace
col11:   b6b5b9876c59895a787e58bc8ac78ba98ce9dede869aaaabaaafb8d8ccafe6b8db9bc7bd8959aaaa
col12:   e4589998863b79c64c8a88aa9f89bb9c5aabc8b87a99bca7b9ab67becc7abcb7edce8bdb79a9b7bd
col13:   bbab9d98678795cc77da9cbcc9cabca8ce8999aa6c98cb998ade9e9aedbbabb89cbbbdac7cc9988b
col14:   f996599987977c994b99d969f7b7c89af8acdccb87bbac5e9898a9aaab9889eabbc9ca9afaaca9de
col15:   d776ac988e28a6a6baa6a9ae988db9db799c5ababcadc86c59f3e8aa6abbb79e98756aa7badaa6b9
col16:   d7697a978a8a9abab6ea879a9bf8dd98ac9cbb5b9a9cdb88bac9dc8dcfcdacabab9b5cea3aa7798a
col17:   9778975a679b6aab76cbb786b7c97abb8abd6cac4bba6bbaa9b9aaa9aef9a7ccd7d787557e4bd5ce
col18:   a4ba957ab6959857b8ac9c9aacbd8c599b977ca859bbcbc9bcabdfdbe9e9b86b8cbf7b99abc7978f
col19:   f8998898765965b895b98cb68daabbc9c7948bb9788cd9ebaabbfaabacd3ea5cc7ddcba8babd687f
col20:   fdaaa8bb5788bd8e9fba69a757ac9eab99aebaaaa7d799dcab9c8ee8bc6aa56ba6abbacae9e86b8f
col21:   db5aa9c7d76daa98abca663b8aca99ca798aa8d8699dcccad6cbfeac9addcbf6aaaad3669a79ef5f
col22:   fb7899aa5bb7b7ba5bb8ed8777eb9adcda9ebb96887daa79b8eadadaecadecdc8ba9d8aa899b998c
col23:   f78aa7569d7bbd8a8ac67ad89cab97d8868aa988b89c67d998fd879aae898ac76b8a88acfa668bcf
col24:   978749aba86c96898ac9b947879bbc8b96d998d8ea589ccbbbbbbdcba999abab9bade997a5a898cd
col25:   98dabcda7ada9cc9a987a9cc888c76d64cebabe8d9ba9aee8bb9ef78bacce9a879ab9cca79cc669f
col26:   e7bbca97789dacba8599c58cdac889be8dabbc9bbb879a8cccc9e8caaafdb877de96b8ab8daadc8f
col27:   f5a7c68bba98aaab38c6a87ade7fbb5bb6c8b9d899da5b969cd9fbab78cb89d7c9fa9bc7996ec4bf
col28:   8bab9cc898ca67aa69b48e9cd8c86addab69b6a79d7aab9bb9d7bb8b8ac89aaaaa86a989eadc6d68
col29:   898b89b8c9974bb745aa9b7ca3ffbdfb7e8facbb9ebc8bc86aaacadc8eecbcd39c9bceaabad58a8b
col30:   eb998a988c7bfacaa6a799ecbbb8fbdbbaedf9adcd5cbafa9de9adfbadb9eaecbbaaab97d9dc588f
col31:   b4699eb89c68e997d8d9cbbdcedfa8a9fafccdbabecdfb8e8e8dfbd79bd779a6a9fcc9dce8a67cbd
col32:   b6a9a8a76dd7678aa57b8aeeffbdabadafadfdbc9c7bbcebedbfccdbbddd8e8abae9d5b5a69ee8cd
col33:   a28ac79dab9b9aaac5a4a6987baadcb9ccaaabbca78c6d7e9898fdade8baac9dd798898aa9a59acd
col34:   fb9cbaabb5e7a98a9daa5579bb87ce8c77dabdc9fb8cccbbbaae6fedbcbaac9bcd4879a999c9fadc
col35:   a6ac799ca5bd67caba3aa6f9ac69f79faabc94ca88ad9af8eaecf9ec8b9bb97bc8cccdae8dcb57af
col36:   c87b68a5a9b85cadd89b9a885689a969b79a9ccdecaccdab8a89bcceae9b99abbccca79a998aa49f
col37:   e9a879888e969a979797685baab8b8a6dacf99d7ecbcac8ccfaadb9fff8b9dc89d8b8a98b9ebbc9f
col38:   a8b9ca9da9bbab7d67bb8a78d8a88bec8ecbb7d987afdcba8ad9ec5a8abbf8adb8caa966d9cc9d9d
col39:   e79b8ce9a8cfbc7885789888c6d88bc6dedaacda6bbbb7bcb9bddab9b96c9dbfbc999befc999bb9f
col40:   f9cd6a7bcc9b9ae98e79a9dca7baabdbbcb98daa79dabc9fcd7ccbcdaae9d9a8aacb9b5a7786bacf
col41:   db9a879cba6badd8b9c89a9b99b7aa8a9b5dc968a989dac7fcee9c8cddabdeceb9b9b9adac8acc9e
col42:   d9a7688988c977ba96afba9aea8c87cbcaaae7cdb8bb8cabbbdbbca8ceebdbacdbcaa8b7cbdcb8ef
col43:   aac7bab99adbc75a59aa8cbac989ba789dbdd8cdaccc99adb9b9d6ba9bc6adbb8b99acebd86da8cf
col44:   fa79aacc8beb669c2989b99b9b8afa8ba89aa9dccc7baadebccba9fdd9bcdadbc8ffa6778bbdcbdb
col45:   c6576978a89ba899554b5b6a8a5999ed8aa7abe6789fcaccbbbba6ebc6ca8aaa88abbbaa997cea9d
col46:   c86a9b89bc98bcc79788697cbb69d79a89ce9bbbbafaa6dcdcab8baba7bbbb8577ad7b5dc99fd8cf
col47:   b77b49877796878c9cbcbb8dadbe9d78ab9da8baa9bd8aff9d8988feacaa5eebac8b89a8aba965bf
col48:   d6378868a85edc6a75999cbdbab8dcbbb7a9dac9c8797cdcabd888ca9da7ae8b8999cb789ccdbbee
col49:   d6a7aca938a6ba7d9abcb98a6cb9bab96c9c9aab989a79dc7dabfa9fccaa69b9bbcab8cbc8da7ab8
col50:   b678858796a9c7d9b89cc8baba7bb8ebea9d9c9bcbeaddd995fdccec9be9b99cecb9abd7e899ccaf
col51:   cfae9dfbfdebfaddceefbffffffdceefefefffffffbefdffedfebfefffedadefffadf8cfeffffdff
ROC:	 BPix_BpI_SEC2_LYR1_LDR1H_MOD1_ROC6
col00:   9baabb8eccdbbadd9baebebf9dccedbfffefcebfcfabefedeeff9dfcedfedefdfdaffbc9eeebdfbb
col01:   a837277837b57a89a65a56c869769998de597a897dbcb9a99997c68b8b98a69b7b6dbc97a6568a66
col02:   d946779897685567867853b592aad59aa67ba9a978aa9acc6a8999b7994f79aab3d89a76386b866d
col03:   e466558546b7867da6689dbc897a88b85bc779a7a999ab6b4ab8bc176a8a6689967ac96aa989b89e
col04:   d676653625aa777a767a699896a698667da8dbb7789758b5877d8cbab6acaabbd75c9989c9935abe
col05:   7b8747786aa8799b9937798a984a983677ba74b8888984d98cb78adbab9c5cb9f999bb9d9a86a87d
col06:   a7676956b7ac8b467a6388c87664888a7cd8869ba86b9689a77ba9a57b937ab7bc9999469857777b
col07:   f57876667789997ab97979b9ad6b8aaa8b987ea9ac6777b5c9ccb888abbb9cabbe4bb9768a99797e
col08:   ea797397766856ca68c88884a77cb987996c989a797b96aa99a8a83698cc97668878665b944b8349
col09:   da7732494a47996a76aa69bc93b6ab679699a78a87b9969ca8d9997a8be88a7a8c8795376ad8693c
col10:   c6765574797c87c5898d856899adaba7c6b4b8d8b9758a7bacab9a6966bd76caa8598553a56b768b
col11:   c44587365547598667697857b6767667aea8a8a9acb88b6a77dd6bd987898a7a8754b9878998997f
col12:   a48721579ab72578a9ab5c8a89887556dabab69895ba8a98879899a9b7b78a88a8879aa99575757d
col13:   b55366537665c5a5ab978f9a6bc7b796b9badbbbbad99ab949b8dcca79aab7a69b985cabb9963a5d
col14:   c57364a8833966677a8b6975c74a7b75aa99798a577876cac8887b9aaadbaacb986678575b84547c
col15:   d5a844663898ab78689a786a894798bcb9cbbbb38ad9a74a66965a797a6867ad9689b6796667757d
col16:   b77a677778758bea79b5a8a787ac8a9c7bbb67997a6ba99888a8a984797aad79c699795a8359549b
col17:   c755198aa3657a79a885baa8ba979babafb958aa6ab8a8c877ba9caf54c77c9aba988a878664497d
col18:   c8a755688789b576957a7a5767cda88d988aa8b6afa6ca9e96a9ab89a7885999a999a79984838c38
col19:   f569b7b9c88b6849a57898478b8acba97dc64aa89966cbbb7d7c9a9a5989b5fbf6aa68798b9729ab
col20:   b756a3646c779897a887db69bbaaba478899b88bbd93bd9aaba766b767a898eb6887b598477b488c
col21:   a66665987c83a3789bb89c789bb9bbc8baf8adb9d6c998bce8bcaccc85b99798d89c99767c4b546b
col22:   a7888578a57878aab9d67878aa88788a9cba47aa6b78bc99cdb799b556d9c64997688a768884bdae
col23:   c798765947a789a8cb8b6c8cbbb99eb8bc9b6875b83cab8f9aa96b4a986b9c6b9b97969aa589b97e
col24:   d5a8aa9569696858d69d9a99bac88a4aa8ba6a9686ba89b99bd79858d698d9998f8676899c55a35c
col25:   998567b87697994ab9a8a69d94b9ac876d8a5acb8ae9647b9a7b8c6dca79a86d9bd9a796679599ac
col26:   99b8588a9789bb989aaba67aa8cb7b99a876b879c8ab696b6acc9a7cc9888789a8b88b49489af67e
col27:   c9a987a6379968dbb99cc7b9b8d987f9a79c587a79f95aaa8ad58dbb8ad769d8a59c87968997686b
col28:   dbaaa568bb67adcda9bab599b995c3ac7b9cdbdc99bca69e9a8acabb6a4dad5c7adbd98c6779c66d
col29:   e98ba9e986a9bba889cc9aaaa59a8a77777a8ba8be8798b9b67c8be8b6cc99a8dcdbab58bc8b589f
col30:   b849b9eb9988869a9b688a7886aea847b9acb96b7c5ac8776c7b9b987a7789cc679b55de749a995e
col31:   d894569a889e9b49bbe799aa888abdb97c8dc9babaada99ab8898abac4ebbc88d3aabab897e78b8d
col32:   fb9b7b9beba9abb99a8bcbdadcccad4ca8b5bca867bca69d759ba8b9dc7b97969a889ce94795a39e
col33:   b887a5a897c8caaaaaf95d9f997c9a8a88a986becc69cadb89dea8c6cb99c8d9f9abb8f69aad86ac
col34:   fa77796aa9c96a987ad9b97ca9dbc9999888b7ca9c9ca95e9bc7daaa7ea9ba99dda9a7ded7d7aacf
col35:   f8da7678a867968899aba9cbba8a7e77cc7ecc9ab9aaa758cdccb9a9b9c9686897c8a598d9aba6bc
col36:   fccb7968a9898d99989babb8bdcaa9aa699d586ab9f88b8daacc99fc79a95979fa7697689ddbd9aa
col37:   a77ca99767996b8b7bb88baac58c78b7dc8c7bbb9ad8879ca7ad94baba59987aa98967c9a89ddb9e
col38:   95a869a4a5ca9a7997da9c7acad79aa99a8aba8a99ac9989fdaad9cb89a7b788bcbb7acaaa968bb9
col39:   f86a89888bab8ccc6a89b68888ab69da898987ac5dbcdda8feeacbfdb9ba88798bbcaadc68da99ed
col40:   f9ab9ba7789e8764ba787e8bbc9b9d5ebcaaac9bceb7ccad9e8dbcc9a6ca9c7c794bbbb8c88978be
col41:   d9686cac889ba6ccb78c8ad99adb8897bd9ddeabaadbe899b9cb77dcb4afc8ba8cbadcabae6a947d
col42:   b9998a69b859a86d78ab85cdb9e88a9bcc7afb7d98c8ccb9d9cbacbee78caaab99ab9997f9daa69b
col43:   faa8a45acba7699d877988ca95b98ebaad58dc9cadcd89a97c8d7c8b998ab8c8b98c7caacc75b9cc
col44:   e859bbb6a9ccaaa99b99cccab8bb8da7ceaf7ada88dc9bada89aae9b87c9b9cdccbb9afcbdb7b7ae
col45:   ce9b88ab95b8b88d9cccac6d9ab9997bcabddb7fba9abccabaf5dbb8cac9759a66b85959cc8999af
col46:   d67b4abab7b9b9ba88bab9ab9a987878abaaadc7fc95abf9858da9cc8a8798a7bf9a688aca96b96e
col47:   d867888a99acb5fc7bc78b7b75bccca899f98aa6daacbbd9da8887dbd699cbbb63c94cc999a9dc99
col48:   b3994876cc6cbba88c9c8baaac8778868aa8b99979ccaacaaaadbdaac7fa9b7bb79aa85ac9ab977c
col49:   d585998abc9bea7bcdb87b8aaa59a9b6879c9b6b989fa8fd9b5addcbcabcb778ca788da889d9747e
col50:   f36698589bd6cc69b9abb67bb9a895aba79bd9a9eebc8ca8cb7dceac6ab588a99689697cbe7aa86d
col51:   d9cae8dc8fcfffebbfbfbdccdbc9ecedecfff8fcbdfeddefefdedffffefeabcbe9ad99facfecce98
ROC:	 BPix_BpI_SEC2_LYR1_LDR1H_MOD1_ROC7
col00:   b9a6c8ad6699daa89aceacf9dbf7edea69ddcdabaacdeacdeeffcfec8ceeaffdffefffcbedfcffcc
col01:   b6b2b6374665656767835e6536a7586967887878a6a8b9ccc6ba99dab9ac86658a7ab8a3c997ab9f
col02:   faa678456219a88847655a786ab4a28796aa6999b8b9c8c9888cbc8bbba977d8789688b8bca569df
col03:   956787759aba457c7696695ad76a8b9b5b7979b8d86bcb86cb57a99b9a785aa6a9b968aabd5688cf
col04:   c639869793736784386566a6a86a7a8bca9e774a953abb77adbccab979bbcaa978a6b7ac3c93b86f
col05:   e59588b95a22578688a4579cbaa997aa989c7cc44ad98879aa7bc9b958db7876bd97a8c8b6bb599f
col06:   8535897486865896b5569835bc4a8995db9ca8777ad6a889967797899ac9698cb8dc949da74478cf
col07:   e7879c84a78647586aa987558b976b597b9a869c98758a5b57c7ca79a7679a96a58bba8994979aae
col08:   d87aa6a9686a2a5735a75b6559ca98b99bc8a987b5b3668f7a55bb7b9d99acb99a6aacc6b5ca757c
col09:   b76567253138795c76697389a498c6c87866ba799c7ba75a9cae786bb79bddcb9ac999a4aa888caf
col10:   9657684a444a4495789ba5668c399d7ab7357ac8bcca8c8c8aa96999acaaa69da99699ab987ce95f
col11:   99676713337682b78958975c7aa99b599bb8ab859974a6bc6b4dbbb598cdaa9798868aa6a94d9b7d
col12:   93957667785999a78a67886bc969a67bb3b5778dc82aaa747a59c7ab9597db9b3ab7d8bea7a9cbcf
col13:   c78575367662679c9b8718d87759aaa9a8997c9b3b8b8577ba869799d9a76a98b9cb97c8ce96b87f
col14:   b74761483458477a856778756677b959b97a77c86675bca77989b9b8edde9bb69598ed99748c9baf
col15:   d7562767858646a6a54a7768697a855b8995766699cb976765678a78bac7ab77e977ca7cac6775fe
col16:   b863129768744b5a56c787d99ca7d784a8ba7b79a95bba689b284ac8b8da9cbbbaa9a6899b99ca8c
col17:   92423767979675865aa76bbaa77986778a5c9ac7595a7ea6cb8bafceabdcb9c99869955f76a9f989
col18:   81488758ba45854476ba55a7d73ab86c1b95bdbabea69bb7cb79b8aac9ab7b7e56ba8b896cc8b6af
col19:   b6a8859243899556a9694989659957a89959668789a7ac89a6a9cfcd8597aa7949c5c99689da86af
col20:   e6864555563667898598778888aaa598596685aa99a9ad99ba6a9cc99bd9c9eb797ba7b9cb76daaf
col21:   9752835467698aa95a986696a57c99ad98a768d999bab9a98ebe7a7facb7add88b6bd6aa3987aa9b
col22:   c89656785bbacb857877926b9167aaba97877b877a668b7a999abcd99bc7db5b3ca79788b9a5486a
col23:   d7586696567a736859a9959389a5a9b73474875aa9b87969c9bbbbcba9c7c3aa9b969699977a39bf
col24:   b358a68527937a6567697bc8586988b72aaa8c9ca78bc7aebacacc9d9b9cd5c78a8998b8ae65a4ab
col25:   96a857aa8374597889885658476bdbaa77bedd98698987e89b9b9a9adac97bd8aa9a8b8a68a89cde
col26:   b9968967a618849d887686899699b77697cb8c99bcb6889c9879bea6cc4bead9baa89a7da8be99cf
col27:   ab6988b64898469659965889aa6198bbbb97c4b9a8769a9b9d69698a7aabb889d8aca9adba8baabb
col28:   bba48887a8486586877695b997aa979b78796daa896764cadbbabd9c96ddaa68bcbbbbabab6b9a8f
col29:   8a587689a88a6777888769b738e9cab6888c9a86788da9a8ce79bebaa9b97978997ae9a8798b9b6f
col30:   a8a9693b77a8b83b475a77a8bca877abcabc8759be9c8ddcd6cabdabcdbb999acbcee777acabc89f
col31:   8685656774c98673a69a6d85a8d89bbaf8a97b97bbdb6ab87b7ae9fcddb9cccc9dab9aac88978eaf
col32:   a6b78d88d9288c8cba569ba67afaa86a9bae89bd99bcabaa9df69bdd9baaabb78fac8aa9ec8bcfcf
col33:   da5b9a3184b7b979648c95a7b7ac979bc8db9b8a587ac78d79ac9989999a5ab899dcdabbbae58ead
col34:   968b595b9679879ea897897a9bc576e99d9c9ca996b7baba97d9c88ab6cf8bbddbd9b8e8baedb88e
col35:   c675357665566b5a5c9886865969c9ab96cabe7b69a9bbbda9ea9db8b6ecb7d8bd5c89b9eb9bad9d
col36:   a89c689886a68c9b768856ba5969e88666637cb7aab9abd9ad99ba9cbd8eaaa9e9be89a7b9a8b7fa
col37:   9877767575496665924c6579867ba7c8d6aac9999b7fcf5a9bd8ccabddba9ab7998dcaacbad8c96f
col38:   b83a757a467996968569a465976b8a98b968ab9ceba6beca78c7dbcdad9dc7f88a8bb8b8c79caaaf
col39:   e6a597869996b546687a67798a9a99cd93a87b86f79a7868ac7e88bd9acea3fdcbaf57aaaa98967f
col40:   b9ab9b885965857a96777a6898698d9d4bb8c599c99f9f6b8b9e89aebdadc8abbefb8a8da9c79edf
col41:   d26858a9874c76c9b5678c97aa98928aab99baab9ce6b8968ecb97f99c9b8eaadb87c99dc98adfbe
col42:   c847a87678a6b569696b6a8b79bb65a78a9aabaf79c7ed8eda9cda7b8aa7bdab9ca9eda8acdcbcbf
col43:   d488884a7aa85685898c58999a95b6a8a698b9888da4dabf7de7aac77c96b956aaead6bdb7bd897f
col44:   a4bb266678296659689a5e95aa59a497c88c6aabaaaa99f98ecb89faba8ca9b57beabb5bbadc9adf
col45:   c55866a1a9928a86854b767b76bbda7677888cca994a8acbbe6d9b69ed7b78b6b988786b8c9bdced
col46:   c58925b66995946598888a779bba878caa9bcc889baebacea8a8b8ebb9c8a67dea6bcbcac968ad9a
col47:   86576827b25769844476a6596896caa888978799aa99a97997c9bbcb8bbc7d3968becb967bababef
col48:   9273787d448a9678789a988fa995a9d9887a8ab87e88bcadfaabc89b67c7bc998a89b8b8786bd7bf
col49:   ca457998578d985b9877b9987c7968bc97c6776799ba9998bab99999aafcfdb8997b4c9b9a859b9e
col50:   f4958a335e978495a778a8a679295a99bb788accb88b6c79da9ac7bbd5a876c97b779faacc97d99a
col51:   bbe79bbaba7caefddafaddeffe9dfef8eefcecfbffccdfdddffcfacb9ffdeffcffdedcfeafeeaf9f
ROC:	 BPix_BpI_SEC2_LYR1_LDR1H_MOD1_ROC8
col00:   d87b99dbcdadcefbe8cecddabaffcefffaaeefdcdefdfedffebbcffcfacffcffffffffffacedbfc8
col01:   c88468848bb455666797b83c77669ab8a7caab6a76bacfcecbcabb9dabab79e8e6d8d9ed6dab9bcf
col02:   a68598b63798b7785899c6a8b867b7989699a89956babb89a67bac96bb778d9b8e8aae87874bda9d
col03:   c7678878ca6368aaae895779a8bdab5aa66d96999b8ba998e8a5799ab4b8ccbfcfbaa98a6aa88baf
col04:   f6a764c56899a9a88998a5397b8b89887a798ca4bac88d98bad6ca9998999898bedcbb7a8889bb8f
col05:   f678b985967a67bb656a966987acb9aeccbdae6ca97b99bdc8f7b977ac97dab7b99b8799aecadcad
col06:   e4777779b667c578c68aa9adadceba9747dbaa78c5bb9a7c8f7dabc8bc67aaabb9a69c8ad79e68ce
col07:   b9c657baa6677884aaa8499c987ae9b8be8d9eaa9bc994dbcdad898cc97abcadbdc9adbc7d8ecccf
col08:   959775a6b9757775c9bb29688bab99acdcbbc9cdbab78a6caaaa9aadaa9dda9a8aed9867ba7bb99c
col09:   e6d79cb6763958966b875878c8aab8cc9aca55bc9b9c55b9987bca9868edacb9cf9bbbb8ccbd9dbf
col10:   d9389a5683472c786a774a86ab7d88a98d9baa9879b9a9babced7f8d9bbdddd9b99adca7bcf6baaf
col11:   c8147b98579ac68689b688cbdaccca9c67d89aaaabaabba9fd7c99adacbb7cccecfcbced8bd69bbd
col12:   d887a3896555aab88a7ab8759b8d7cc99bb7cba996b6a88a998b9fb9cfc87b9acbcbcc9bda7bb99f
col13:   ba4a3a6739748a7a6b9babaabbac99b9bcdbbb8cb9aaca8799a9badcdace9e9bbaacb87bbaccbabd
col14:   a69686b556985cb97b9889abb9d9cbca65d7acb98697cabcabbaadcba799ab49c9c88c8da79cda9c
col15:   a495a74799a6797b6a689897c89a86a9acdb9bfba88bbbbcb9bcaacb9cfeefccd98c9baa8bcc59dc
col16:   d558987a486aab876b8886ccc999b898a9b98bca9c797bc8bbbb88a9bdc9cad9a9b978ccbbbe5faf
col17:   c596559c87a7b68979ac7889d6899dc97db9959b6b4cd88abb9bbab7cccdecacc8bfdb9b99dddc8d
col18:   95465567ac88a78bac999c888dbe9bbc989caa5fa98cb98dca8ba87dafdeda7bcbecc83d59c9bbaf
col19:   f8bbb777b56b9d886c8c7d8b9a9db9ba8d8d9a989b79dbbcdbab9badfceaab9d7caab9c9e99dd7af
col20:   a789796a8da587c98679a848cb9cdac9a9b9b6ac9c9b8bc7adcbcad9bedbda99a7799b9c99eabdcf
col21:   a4a88a929a88787ca9a9768dabcac999cbdc9accbb59baea99897dedcb8badcbcb7bb68abcb9bceb
col22:   dd8ad8889aa49dd798aa9b4bd9add6a88a9eccae9c9eb9adbcdaec98becba8eedc99bdb89c9a8aaf
col23:   e85ca8c7aaabcd777ab76a8a89aa8c99d6898dbd8bb9c9adcfbdddcccc9bcabfebae99a878cbc9cf
col24:   d87aca97a8889a7b9766a948c999bda8d7789caaac78dae8baa9bbec9bcdab7c7a9afcdbeacaaacf
col25:   b87a6a9c87c938cba7a49bbba9ccbcb8dbc9bf8bea488baec9bd8b99b8cab8abbbaccbdcacafa89f
col26:   d7886b9887ababbca7c9bad9b6bbbb899accc9ebdc76bcbbcdeccdecdfccba9bbaabd88e8ccccbcf
col27:   97a6a9a98adc968b9a879addbebc7a88a299cbadb8aba6998dbbabaeac99c9bbdebfda9facbb87ce
col28:   e588b99b6abbb9bc8ca8db9ccc9a8bdc89eddeacdbdec9eec8dadbdbcafeeabcececfd98caceccae
col29:   ccaa9797b7bcdcb6976cd89a8ebccccdaacda87dad6adbacb9acccdbd9adbd8dbbc9fda9fffeaafe
col30:   b6ab8b4d9c8caa5a6a95aadbbacc9c9bcac9a9b9dabbecadefefbe8ddbac7dcace9fe9becfbcbbdf
col31:   e57aa6c7998996ab799ccc9dcdabeaaf6cbc9b97cac7cfdf9ccbcddefeed9bbf9cdbbcdcaaaac9bf
col32:   aa8c98b97c899a5ac9688b987dba987abccadb9a99b9cffdbeeebccbfcbeebdfbfcddd9fe9eae9cf
col33:   da9898859999cbbb996b9899c8befbdc8bcb9daa7c8bdbdfddfb78da8acfeaddccd9daceecdddfdf
col34:   d7bb98767aca8cc7788cc76a8cbdecccbfbecca76bef9acb9beefdc9bdbcfdefdbefbbeebbbbdabf
col35:   e7679a798777ac9bcebaa9ccbdbbbab9cefcddcdbbfa7faffbbddafbee9eadbbeaaecdadcada6aaf
col36:   c9aa45b7a8aca9dcb9cabdb8ada9bcabb6dd9ca9afadec79fbeec9aaccecaefeeecdcbeedb9adbdf
col37:   f9a99c89b8ba79b799c779c9a76bc9bdacd9caecfdaeffbffcdbbdcabeecabbc9bfeadebcddafbcf
col38:   faba6bbc8aba84c969ccac4ae8cafb9cde9f89cefbcccbefcbfaed9ebccdcafb6dfdfebbbdedccdf
col39:   f88c8aaa99cabcc78ccaabbd8dbbbbc9dec9bbbebf9aace9edffabbdcbefdbaef9aefce5fccbbcef
col40:   bb77a986b6a9c9a86c9c7aeebbbcaabda9bfbbacdbcac9dde8aecdbdcd9afdebddecbcd9fadedbaf
col41:   dbab79a98a79b9baa9accb9ac99be9bcadf9ab9eacbfbbdcf9cafdedfeecadcebbbeccceddaeb9bf
col42:   faa9c37cdd79e678cb9cba9ce7adabcb8b8eebbcccbccbdabc9ecdccfcfaae89cbdddefcbbade8be
col43:   dba9d8ace9ab48a5dabdccaabbcf9bd99ccbcddacfb9febcdcddfafdebc7ba9ededebcdeebbd9bcf
col44:   fb8b686999cb9baaecabcbeeccbdce9c895becd9ef8dd7bceecf9adecffafecddbfcbfeecfabddaf
col45:   e97789a798896daba889aacbaafeded6cde98fcaa9ebecccdccfdccabedcccacdeccfdddecea6daf
col46:   da588ab74ba7de6a989bb8c8bbbfeceefddb9dacbecdcdfccfdfbca9caeceed9bdfcfccdceeadbbf
col47:   99999aca989c95767b9eab8d7cca8fbc9f8cd9ddbdd9ea8fc9dbda7dddccdebbcaeeedce8cacdebf
col48:   c8aa958b8887d99cc7bb8bbf78d7a8bfbcd98bdd9fcbdedfb9ebaefebaaedbc98adcf9fffeaed6ff
col49:   989686a6b9a799a89d7bdb9acedaabcd878fccdbafcdfcaedcdcbcbaaebddefbefccaddcdabfecbe
col50:   d85899cb8da7a9adcd9f9bed8decafccfccbc8ddc987bdfecbfbedebddecf7eafaccaf9d99c9dcdf
col51:   acefdbdcccfdffbfeacccffefcffdfffffffeffffdffffffefffffeffeffdffffffffffffbfffffd
ROC:	 BPix_BpI_SEC2_LYR1_LDR1H_MOD1_ROC9
col00:   9a796b6cbdcecbebbfdc89ccfbcfdcfedbddcfccedf9f7bbfafcedfecfbe6feefbbcefffe9bddee9
col01:   c64a48696a52b8b8794886a69955bc89a676b978b6b8a788b7d7d7ad8759e959a74b89b8a8b56bae
col02:   7a338588d99897386542577b65799ad5b46989aa6b98696798769b989a87baa9a6a369c5a455975e
col03:   864799678956548796686d879878b599cba9879859a859a87cbd6a97b9aaa9bd99bbc9975c7a987d
col04:   68a8894979b68999588979bbb668875ab697aa6a89c69abad9899ba9b8c6abc67ba7a777ca8db9ab
col05:   c548557ac86d8c7eb95877a8ad48a9a887c7caeba8bc898aa7c9f679cbb895a8e9cdcbbab9ab498a
col06:   6337264357875693996a8896499aa574be88d698b6789689a689eb8549879a9a5667786a5c366bdb
col07:   f453847888ae7a78b7979878988789ba979ca9da99b89ae8bf5a7799d4b8ba77db79e9669b98685d
col08:   f6a799389886639ac718a51a97a74876a598a86878796759bb799b769aa79a64a96cb98697676918
col09:   d969455774489488759689b969d6889b9a99d65dda6879c99ddb8a9aabad998c9684757776ba597b
col10:   f687949a48545b74a79997887b96575ac7a77bac6886787778fde9c59ab5a78c8576a8896838aaac
col11:   68499676b585774dc977b9bc8967ba97ba875a9a3bba879775bdb9779a8ce86977b6abc8f9d7bcd9
col12:   86695888889aa68494b3a9798599844b868a78abccfb8a467999899898bc4d889b919867aaa7688f
col13:   d657494875598578699a9a798ba978aa97c669ac9b994a8888a9999ad788e6aae867c98b79a79aba
col14:   78237773664698898cbc587997999b95767999ac8acaa657db6768cb5a96a45c6d6c83a3c8b3857f
col15:   ba6698b99b91764b56ba6ad958987dcbcb9ac9b696ab6878b9c8abb77577887baba88564a9c8887c
col16:   61647647b28469a879964b7b679688dad5a88a7697868488678348a94765a27a86a78786a488b59c
col17:   a8147177988885aa79b8956b889e999b887c994d98bd5ca6b6a9b4c9789b989bea6cd67852b89caf
col18:   954574872655d4755ab7385278ac957995ab5957996a8c7a69a6695477665aafbb6656a65839755b
col19:   d76689661689a74273669bac6aa9896999bac9648ceac8dcab8b977cad9b8ea79a7b9977951aa77f
col20:   93837a48859687997468c849bb647aaba8cb79768869aa87a49b56aa579a467a88898aaaa567372c
col21:   a56826878467a59b87987877989b6a786d9ed69cd899aa9bb9b98ab97a7a89dbb6d64a7a88b8889b
col22:   7263653883686b6989968d76a58faa5617d6577aac6a8bb9e8a89c95eabd588bc86c26985979596e
col23:   e7a96577765559cb6d6656ab5a9b25b3958cb739885b889c98baa8caba8a7c8ab5a68997aa9a657f
col24:   d62969879797a9997b8b749a56c9c9169a999ba8787a999188d86aa75598a767a79cc47997c4a89c
col25:   b666887b8557767a689a8b9a9886598ba8dba49a9c9a98db7cad779aa9bb8c8a2aa9aba6889b6abf
col26:   878374957687a55a8eeca87a9aaccb69ab75aab97ac999abbc9488c89c8796a899ac8aa8891c9a7f
col27:   d88b6745a88a8cd97ecd96bf7b8bba9ca888bfaeaaaa88bc7759ceb6ad99faaf79cbbadb68779a5c
col28:   b7e7688b79979b499b7d89dc95c6788ba988c8b79ac99ad68bb9c66baab7cc689b2cb896178b998b
col29:   fdab8a9a788a9baa998ba8dca8bba9a5adb7bbc776ca9bcabaa9eca87a7ba667aae9babd869a976e
col30:   89959b9c287b9e9a78887ab588a8b986c779861966cacb6655a5db995876ab6a78bcbccab955a95c
col31:   ec996b887aa9b99aa5c5579a99da9c9a967aae7cb98aab964bb68885899b77bcddbdb789b5beccae
col32:   e9583a9bbba69899585ba6ca7aab85a4f8a8dbc7b79b6ad69bc8bda9ca9ac9976adc7b8949ba8bdd
col33:   d96958b9ba9497daad6db8ab9dba9cbcbdbda66a5a999b789bc998a8baac89aca8ca86b899d7aabd
col34:   a79876b9a87aa8cd84ab9b8c99999cbb879a879b888bab788c994b3b8e9a798db98a5efcb7cc979b
col35:   b888b777b978bac78b6b73bb9bb99b88a8b3cdc799c89ac6c8a9978b6a989886b979d8fdaace7e7f
col36:   da895696a86783b7889a94e67bc96b4a559985a88bc379798edaeaba999b979efc9988bac7bfaabf
col37:   e9899c7887b8c99a867ac989a97baaaaa87c56eb88c6a889ffcfecbd9dbe9c97fa4ea9cba6ea68df
col38:   d78658c6cc37d88e8bab869c489868a8a998bba9a89697adccb68bbf98cb75b97688c8c94bc9994f
col39:   b977c7774978a8baa7a685b796887abcb9a687d9aa79a6bac9babdfb9fbe5a88badcad8d5bbbd77f
col40:   c8eac68698d89bba97a7ab878a9899bcb699c8a98ae789aa7daa798cbadd775a9c6cb9bbc688859e
col41:   895b7c98b9d8b77559b9ab49784c8b9a6fdcc9dab99ea9e4a8ddcfea8bcc6bb8c7aba8cdfbcabd9f
col42:   b963aaa9ba9aa88ac4bbbb9b9b7ac889a69cb89a8a5a8b969de9aa9aebd879c9acceaad999c9d78b
col43:   d9869b58cb6adb9eb97c6689bd678baa9af7eaabba9e7fbb8dcbf9db9ed7cdefa9ba87aaebca6a9e
col44:   f6b5a6558aa996cbaa359c19b64a74bcaa98795991ac88a9b956eaab8abcada7bbea8bfab6678b8f
col45:   fbcdb8967a969a6e6ca7699ea8b7b7cd8aaa84a88bb8bb9c7964abddcae9a9a77a98ba5abe8bc5bd
col46:   b6997896a6abc947f7bd599b99b896b9ba9b98bcd5b959bb99cac7f8b9bacabe877ac96e9b79a7af
col47:   956284697dac978cbbbbdbac5cb6aa7da8adadc98b9bfbcd8c989888dbbd948c874799dac9b6cc9e
col48:   a75555989798da667bacc875db8b7aa9bab9c9a68bbdb9b893a88b667aa76a95298cb6a6dd9ba698
col49:   d97772acb9a7a5c9efc879ab9bb7c97dcae7bbb6e7edaecdcb9ecf9bccab99fd9aacabbdfd99bb8e
col50:   e8756474aa7a687bc88aca8899691c9bfc8c867999975aca9fa99abba79b677a9b7c9ac8aaaa914a
col51:   97e9ebdcbedfcdbfbafffdfdcfcfdccfebfffffeefedeeffedffeff9febdceffbcfedbeebfcabbcd
ROC:	 BPix_BpI_SEC2_LYR1_LDR1H_MOD1_ROC10
col00:   9da969da9fc9f99dddabbddfcc9feffcbceac8fdbbdefc8efebdfc9ceebae9aaaeeccbdcfbdd899b
col01:   a298982957854d9aa4bb739b56be8955a989a7b59e9a788dbb796e7b5b89d7a8b997a9683a93b67e
col02:   e79128697895a6b4a7cb86a9b755998796a6997d996a676aac776bbab98955b4bbb948449a578a8b
col03:   a58785897a27987b6686aa3a96eb7885899a577e95dcaa9ed6abd67caa68a689a6cc6958175a48aa
col04:   a498356a89866874aab8779666875c9b738579669e6de4bbfaabcde967c67b7b69abcc999657499e
col05:   a598887964ac879b7a775799b8596859dbb99abc9bd796aa9b9cbcc8867e57aa89e8b6ba8933894a
col06:   97868784ee78a6ac59697659cb7a9a987ba5d6a6949aab9a4a76ab968778a96bb7ca97acc295385d
col07:   f998676d8665a952ce979967889a9b779b8978b887cca7a3cba88c7a7d979985aaaca5c78a85446b
col08:   e978564787b66d889587b7ac75b8676bb77ab7bcaa89c9d9ad9dbbaccc99a6bc899937aaac95bc7c
col09:   ba66669587647c86ab88997c3aa89975897c588965aacaac7b9585aaa89899ca887b6879698aa76f
col10:   e964996998967b9a87c85778b9a959badbb86b6787ba987d7ba8d9a9987767948b8958836972a87f
col11:   744b3aa3757b979b67b99b858a546891a78bb7668ab97c9c779afaa89dac65b965997479a5b975a9
col12:   a1b747a689b84969a67994cb4bb99466869ab8b7b5b9b6795687a699da8a699c57e896599742b857
col13:   c5b5b5796b755469698845a477357a996cab8abeabcab7c884a8b7669ac95c5e73b2478a8786585d
col14:   d6798794876bc74cbba4c788cab793bb7cb8da99887bacca7769787d8667aa7c8da4977b788c569d
col15:   a896785659888778a8ba67a5667c5a69abaaaa99aa79979a97c6a6799a86468977a8ac57bb57979c
col16:   9b557b57a478695d48587b8fbcbaacbeca85a8acfc7c4c48babbdb975b4a69673887a7737669a46f
col17:   d77737268a989aaa9869969c84a9ce58a7aac9ae57bbbcdb6be979caa98b95ec88c9b99b2965559e
col18:   f1669886888a56797a9dd6b89bb4a7cbadcdb28b7a8a779ebd6ac9a96654a879a96c7318913495ae
col19:   e95c466486cb686799a88c7b9a85ba97589aba9ac7788996a99678ba6859cb9a76b8c69a53cb2999
col20:   966b6877976ac39987b66c7c99a3a9dadccaddbbbdb8fadba8cba68579b977aa78797b678444a75f
col21:   c566a74898a96784c79a95a39b9bc8abbed8b8859ca9addbbaca59c9b6b767a899bb7b2a78497578
col22:   a845577c967a6b6a7aa98779ccbae6d8bb98a9bdaaac89be5ccd87d96baaa94ad7968b5693ac936c
col23:   e24966b85968698859cb688a6b88b8a9a9a89899b8aa898b58c96c978779abd9a875c5856575a3aa
col24:   c796aab9b9848ceea9ab999a5cdbc6b6d8ca98977c6ac88a89ada9b7a7879a5ab9ba8b869484367f
col25:   d8848c89d9b7b96abac89859898cba7aaba9aadb88ced78dabeca9fbbb8b79ab7bbacc65d7667729
col26:   e96ac8c75d9b878aabb989bb6c997a79a99b78aa9aa697bbab8edfdaea5dc9c798b6aba6569c878b
col27:   c8d87bc676c9986a8c99c9b9bc889827a99b679858869c77a6cdfa7cbb9b8ad4c97caab29a5bd64b
col28:   ea9d9796a8a996fba9ab8e8a9b9b9599a88ac9ac7c8776bca98a9b8c6976b37c87a9ca5cc8b8d757
col29:   ebc9cac889cc8daab8b6bd7b9aa5dc98b7ccaba7b9c88b889cfa98fb9b95b7a94a8abbea696a79dd
col30:   f9a9cbb9b69aad8a69795968a9c895b8c9ad78afe7889b9cd96b8f9dbcc76d9eaccccb96ab5a5abe
col31:   c978c878bbccdb5c98ae8dad48e8dc68b8c9d9ab9a7acaa597a8eaa8f8cd97798cfa68bccbbe978c
col32:   fba7a59c97bdafca9a7acc99bdb84aa9b9bac9cea9da99d8d569ccdd7a6b99bdb6d95a9889ca584b
col33:   f6645995799c8ada6bc7a888ccabdb658d9989bbadbbb89ca8babfdecd89c8baeb88eb7bf9dbf99f
col34:   c797b96cd7856cbaacacabbdbaac9bb6f8fe9c9fe9d8cc99a9cdcafdeadeb9bccc6cbcd9ac668c5d
col35:   ca87a7a57b9997996ed89cdb9ddcaac9d9cd9dc8b8ece8c97cca8595baab8aa88efad99faa9e8b8f
col36:   f98e7b9994ab97bdbdbf9869aeebc8bcf7cd5d9cbd9779c86b69cb7bdb794cca88ffcc99e7b6dbcf
col37:   f8c6fca4ec8b9aba9c9ce8bbcb7d9bdaca9a95ab9dbbfdbcb9beb7abcaea8cb9b889bbe89cef9a8f
col38:   eb8dcdd66d7798d9aff99eacc98deebeeac78a9ba5b8c79bdba899bbde9c8db8ba76cc9db9b8ca6e
col39:   e99796ca8db8979da978ada678969a9b6aa79db9aab68dafa9f7ac9bbefbbf7b9acc99eab7db9ade
col40:   e77c7adb6aac98b8ea9bbd9b78bc9c976ea97afaaad8bd9acedfddab5fadadea7a8cc79adfeca9ef
col41:   e7aafca9bbda77e887d77fae9cbadbbc9997bcea6db79bc8acff98cdcebfb59fb8cfadde9ce7e98f
col42:   f6a9d7bc7da9e9abffdeba6cdcadcb8fa7cb7dcac9bca6cefddbddbdc98a9ceccccadda9bdbabc9e
col43:   fc979bc98cbabcda79ab8acc8bbcbcca99cedd9beaedbfb9adedfcccbddc7b8cffffbfe9fbddab9f
col44:   fdc7cddfaeb7daaacd6bbdbcaddcdbeeecededebcdbeedadd8d8fffcbef78ddbabbfceaefdeaeaef
col45:   e79d8cc8bbff75ab89be7ab9887c89dbd9cddccfccbd8d9b99dbbffcae9aba99fabee9b8decdaabe
col46:   fba5fdad9ccb8edabcceeb9bcdad8ca7cdabbacecc7cafbaaaaccacbabb7bcad8bccf7fa6bb9c7fd
col47:   c89868bba98dad9ccccc89be8adebe996889cde8deaeccefbdcdf8dccadaeddffcaa8a9ddcccda4c
col48:   c8b6499acbb84a4bbd9c8dacbfbc8ab8f8f9788b9deaddaa8abe9dcfaad8eebabbab989bdbee49ab
col49:   ab9ababe6c9a777fb98abb58cebabcccfc9fe8c5cee8adac9dcdcc95b9cecccacbcaabb8cdb9fc8f
col50:   acc987c88b97d7798dcced9db8b966caa6dedd5aefcda6ddaefceebdbb97ea8bcbb9b9fe7dd5aaac
col51:   cbeccefb6efefffefcffdfecbe7beefffdfeefcfdcfdfeffefedfffeffffdfcffaeffbffeaaffff9
ROC:	 BPix_BpI_SEC2_LYR1_LDR1H_MOD1_ROC11
col00:   fc8dc98b9c8ffdefd9ebaedafbbafccecfeca8fdbbcfeeeebdfbededeff8bfffdedfefffafffcd9e
col01:   d5a7876968696577a47bbd876877c48f7b9678b75755acf6a9b8d8cacddcad9aa9ee9fac96dcabbe
col02:   c2c87756385696a434553746aab796ba76756c998867abd96b479a8cb89a8ad47e8d69dfbc8a878b
col03:   e94a685978696a28896a379e98799898b85886b987859f5d866b47d73a9bbbbbaaaab789aa78b7bf
col04:   c63697778997cc695b88ca8884585bb8b65a897b5893688abac7bca7977a985975c9b8d87698bacc
col05:   c57b95aa8472468a7a8f7a8baaa99987f9a97957aae9a78ac97c6ab66bdaf7cbaad788c978ba9abf
col06:   79979698568998bb99779675877c996ba77b7a887976d9be98cab696ba6aebab8b9acd97b9e98888
col07:   e95cb8b5893387f66a7464ac8bdcbb739bac97a9839256e787c67d7bd8bcbc99bd9be9998b98ab8e
col08:   ca9aab9a6bb8925959689cda95d8cbb78aa79aa94aa88b56cabb899a98bc9ef49aa6788c99dbe5be
col09:   f367645819776945d9674ed98bcb8ab68589b9a7c6577ccc889ba8b966a8ad88d839dd8bc9baaaea
col10:   b396a158497b67799649a89dda897baf94bab99ab99b7eb8abdcb748ba9bcc7aabbbddbbcef898ff
col11:   c7b6756443786569956a798a6598a8aa97aa7c4a6b91c69794cfa9cbe9da7bcbfbf8d7abbc79cc4f
col12:   d3b5476644729646a6466666559999b669d9b9b69655a8bbb6bc9bbd8a9ada7687a9aa8bba9b8acf
col13:   965782a5721855987774a7bb99c673b9b98b8aaa79945ac8957ca78ca8ebcc75bfbb95886b88b8dc
col14:   c57768c54834a56895698bb58c77589bb98bd7756499abdfb97bdb9bbbaaba895c8588aa7a9c677d
col15:   b375a6838557378a9aca97aabce9aaa9c95f8ca67a8bb87929b9d6cdab9ec9c89caabb76cc8cc899
col16:   d8686956b75d99a589b6ace648fa9c38aac9abddbed9a86abcdba997b7d6cba98a98dbbe787ca89f
col17:   b868a5279548432b9737bb87988b7d6b846ca889d88a89cbc69aadb9899d6cb73bc8967a79ca596f
col18:   b426115298565b6969797cb789947a7c78889ae88ca8cbb779b99eacaaac9a6b7b5aab486d7cbaaa
col19:   9b69a665567ea744a66dcb88a8c7aaa8999aa6c84bca8abaa8c7ad7cc6bab864c998a5c979bb95bf
col20:   9a3834769647b5a8796d63dc9769d899b7989ad6bdb7a74aadd6b6aae7bcb7b9a99aa69abfcba9af
col21:   827baa6489a79b7b7846888386b7c8e989abc8ba9a76abab8c9dbaba9e99ba78dda7b78996b7898e
col22:   e7897b659988abbe979a7a7e8c8a58888c698b7c8d7c4867e77bbb95a8bbdb6ba5a6cacd69c6bdab
col23:   cb8883b5915a8b557888a989caa9adbc877bca5938887a7ab7b8fca4b5ced69c8cb846cca999a6bf
col24:   f9987988789748779b8ca769a669aaa5695cbcdac595b8599c9bb897d68ac8bc6db9cb6a7ac8b9be
col25:   a83d88a8579993cc8c7aa6836ac9a7c58ba9bdbaf7b6b76afcebbb9ffc97ba9366babd56fb88646f
col26:   b6b9aa86897de6f5767a8da8889bdac76e8aadad969d9726ae98cafcfababcdfb86ef95dba3c8fcf
col27:   b867cabba89668a76679756ac8abba88c987a9a6cba98adcdbebb89c79799da9c9af97bdc9dca89f
col28:   c76c7acdd78c596788ae7beeee7bcaa8c7bfb85cafcd97bac8cb9cfdccbab9ddc7efb76aff6ee9af
col29:   c3bb77b98a88bb9a98ac47a79dcfbc7fdab7caccad8db9ced9a9bcedd7bfc9fce9abbafebbdbdaff
col30:   d4caa8baabb578c77b7a887babfca9aad7a99b9a9bea778d8c7dadd9ac9d9f89bfcdd8cadcdcaaaa
col31:   f9c78a55aaa766a6696caabacbadaa5beddbbb9ced698bcc9feaec99a7a87adce8daee8ce7cbb9de
col32:   a58a4b78696b78b9bbbc77b9dcddabffd889bc799aa79c9a7eeccbfbf9b8bb59ede88b9baccdbfbf
col33:   7556aade8bbca78acaabb96b49ccce9cdd9aa9aca6a98b6a8fcbbfbcbd6ccbeee9b8ecad8c569bff
col34:   972ab89599bb97eb95dd588bdbcdac8f5db7caaaec6a5c99baadba9a7ba6d9df9bedbb9eccafcdac
col35:   f72ba6597a587cb976988a977d98d8ca688c8b77b8b9b5ca876aaac987cfdbecffccccb4bbf9b6af
col36:   9988c888c7aa98a63a49ebd1a668b7f98b8859c89b8d8c9ac8becdfad8c5ddbbef996bfc97daf7cd
col37:   f9cbba889899858c8c66b7cda987eb8bc79aeb9cb5cc7bdb8aabdedcc9f9abd9ba97ed875b7beedf
col38:   d9ab9a7779989cc476c69a9caa6b89b88abea7bdad8bdabb9adddd3cacb68aa8dcbbebaaebaadbaf
col39:   b795976999885b879c8978a78ab97c89a8bcbcdca6bf958fcddc9abbacbdaacaeac8cc99e8cc6ecf
col40:   b68b64c6a88879668abfcc86ba87b7acfdbf9bcbcbf9779cedbaccd89caccbbb9acb89e97fca8cff
col41:   f8ab7a44dd98ab6666ba6b78ab99cfed8da9e67b98bda7bb5cc8cecdb8dbd99bcec9da9b8aa98abe
col42:   db889b88277b8496bc8af9d8bacc76d9ca6eecdbde996ddfbedfa8fefffc8bccbccad8d9cbbbefdb
col43:   d986b8b8ba887949daabb9eac968ac8dc9ca9ce6c8ac5aeefcd7efcbbcca9d9c9a9ebac8daedc9bf
col44:   e7a6789467ac89a86c7b7d7bdb9f86d8ca8db9cbced7a9cfabcfa8bdeb89b8fdbbccfbcaadccfaff
col45:   9aaa56b3589d9b7774689b97699dbcfcbdd97c6aabebdfdacbecabb869cbddd9adca7aa98daabfaf
col46:   c7a9a67c59a98adaa789aa7bc5cfad7a7afcda6acd7bedcfacaa968fecd8bbcaff9dca9bbcfca9ff
col47:   c66dac889d9696b69c4899b27c8b999abaad999ba8ab9aebdccbccadc7fb9bdbfd9dcb9bcb5a9fff
col48:   d784b88b877866a587999cb8b88ff87b5c8bdcccdb7b9bdfcdfaa78c9886c9aadb88dc677babd8ef
col49:   666838758e76c8798aca89c7969b9cbfdc7dd6ba9d9ab8cadecbbcdbebfddcbffbbddddded8b79df
col50:   d57876a97483b98cbc9b77cb7b99ae8ba86faccee88bfbbcb7b8fdcf9bcd6bafceceeaaaaab9ecce
col51:   af77f8bbdafeaffdddff9cbaecffebfffbcbbeffebc99cdffff9febcbeffbfdfffccfffefffeffef
