ROC:     BPix_BmO_SEC4_LYR3_LDR9F_MOD3_ROC0
col00:   5ACABAA7756CAD4929A8BE78DBB9DB93A9997D9BE9B87ED8BA895ACCAC6C9AB9CEDCB8FCDACA9FBC
col01:   C9969DCD78AA8A9EA96CBCAC988D8CCBBACCB8A9ECD8BB8AEDDA8AD8CFCABAAFE9BADEFDBB988BB6
col02:   B7AB9ACBEA5AAA8DB9B56D6AC9AC9C9ADDADDEAA9DCECBABA8CBA9AFCDCECBFC7BB8FDDABBCDDBCC
col03:   A597BAA9937AB7AABEA79EBBB8866B9AA99AC9879CBCCCF7DA95ABA4F9B9D8BCE8CA78DD9ECCABCB
col04:   5678F7A6B7C8ACB98956BABC8D99799D9CBAACB8DAEBB7CC9CDBADAC9A9ABAAABCBDBCBCC9FDEEBA
col05:   8BD8BA8A9687866CA98B9A89AEBD8E99C8BBE9A7AA7CBDBBAEDD9AD9CAA9AFBFE9DCCD9CAADCADDC
col06:   548BEAC7B97CE95CD99ABB8868AFFCC89AA7BB9FDC8DDDBBACABACB9EDD867BD99E6BA8BBAA79BD6
col07:   757ADDA9AB288AB898974C9ACAA9CCBAAA7AA7ADDBC9BDD9EBB9FCBE9BBDB8787E7F7DBDD6C9CC9A
col08:   77AA7964A7CE9C6CB979B9DAEAAABCB8AC9A9CAD6A897BE9DDABCAB9DBEBBDACBAADE8CBDDAA8BDF
col09:   97A87A88989867887A55C78898C9FDA79DC999998DB99BEEC8ABA997DACFCCDCBECC979ABBB9ABB9
col10:   B88C69A9DBA87869AA5BDB7A99A66ADABA9ED6DFA8CCBCCBA9F98AACDBC94F8EB99DD88B6AEF9CED
col11:   39432AA44B8A89496B8A95E87BA5A8FAAEA9AA98ACBAAA989C9ACABC697BDBDBAB4D89B9958BDAC8
col12:   98B99B4A8978989A7848D79C9ABA98AB8E89B8885CB7FBA6FCABBB89A898BBBCB8C9FCCFFDCACDDA
col13:   9976A866A9A765B7BA887B9CAAB88BC794BD6AA9B7BBABABECBB5AC8DA7CEDC69BB9CEBADB8B9C8A
col14:   88388D756AE8C9CDA997BC788B97D8CEAAEAB788C95ABABFBC5A6CDCA8D48BBDAC8BC8AAEA5BB8C6
col15:   748B7A8756858883BCBA889A95A9CE8D7BAA88EE77DBADD8ED99A878A77CBFCE9B99C7AD88CB669B
col16:   48DAD959469AE5958ABA898A9AABA87EA5ADB98CBEA7998DBD7CBC858CADABA9A6FBCAC8CAACAB96
col17:   763A9866B75C7AA57BD4BC974B83BA6688B7DBB99AD8A6BABE9CCACBBC5A4BBC8B8BB45CDB6BBDB8
col18:   7A966777549987875489A9676778B6999767ADEB9B8AE9C989CC9A8C9BAD88AA9DCCCBEBD8DACCCD
col19:   67566579732895A54788AB9BB879B99766A69978DA77F9B98868F9BA789AADFA8DABA8797AD9A86A
col20:   7798B784C6AA978C3749668935A5A797D7996BAB8A8A869FA87CA97BCBD9697C879C8BC8DEDB796B
col21:   B8567797AAA5BA97C88787C67B4767784A86B99B8AB9CBBA99A9EBAC9C799AC97AACB6BC78A88F89
col22:   7684A85778495A9445746A88E8B67EB54998DC988CD8699C9DEAE9AB699DABCCC5A98AA79F99BBDD
col23:   789484387779948685579BA99758B8DA89B6A587C879BC8D7799B77CC9B7CDA997A8BD7CB9788989
col24:   5266A423848379868B88867789758596657867BA8BAA69A7AD98B8B7AA5F9AA9E998ABC8D896BA83
col25:   3726577A95A9A8B3A7C8A78A46899C7BC8AAB9A969B696CDCAD9ADCBA9BCDBAB8787AC897C7C7FD5
col26:   3567768AB9AA8AC777B5BC789D9D79B6D8B9CA789D5B9B9AD63AA6B8CABB996BDDB8ECDA5DADADDB
col27:   657547A8A695B8A6BA56AD486779AACAA76A9AFAAADCCAB7788897D8A8F77DBB9A89DBBBB8BAAA9B
col28:   99A9D76497A87D89B9AAAAA69BA9C7B69CA6A98AF8D6EB8ABB45AD88D999999B9C9C7A8A9CBA8D7B
col29:   487A665B97D9B865789C47D6889B84679899AD967E75DA7DB9A7AD979CA9E9BA9C69BBABB6B88CB9
col30:   81584573269898A769AA95D7AAD67DAC7DAADD68C8ADE89ACA6CD9CBBAC6C9ABA9AB6DE8CADABCDC
col31:   C778996AA5989C753967878A9A797997C6B9C5CBBBAAB8BC7B8A8B2798AC9C9F7A7CF997B8899D88
col32:   777DAA9667C8B7878BBAE67BB6BB8CADE7BB9A99697F6AFBCADD5AAFB6CFE9A999C95BCABBBAF9C5
col33:   5A73BB885BCB5C86AB8AB7C9667799CC8B99EFEBCB7BBDEAA9999CBCD8CEDC8A9BBD7BECEA989AB9
col34:   6878489AA59BB9AB65BCEA7A8B698ABDABB8CDEA98CE8C9C9B99DBE9CBDBEBDCBD68ADB8CF8CAAAA
col35:   7565958B8968AD489CCF7C397867B59A8AC98799A7A7A77EDBA4BA9C6CBCAB9969B8BC7CB8C78699
col36:   954A687B8CA998838796B76DC7B6C9BA6BBD9989798BDDFD9CBBABC7F7D8DBC95C8B8CDAAD99B35A
col37:   A488A8886968897577A7BC9AA56D76D998BA788AB6AB9BB9BC9CC9A9BD88AC97ECDB8AFEB779AAA9
col38:   59699DB98799A7876B87B8A99C99AB99BAD77F96B898CD5CD9CAD9AFEFDF6CACA9C8A6BAACBDA375
col39:   46C859B8729C767B556687AC98BA89AA45ABB9979989CCC9987A9D9A6A8DC98CCE99ACB89D989B9B
col40:   69877965749787B4B59B7E48A588CECE99CBCA88799ECA588ACB8B3B76D8A8A8ACDCC9AB8DA899E9
col41:   136868936C939B6A59A89A8899A5B7AAC677C8A78AAAA38DD899B8DB979CDC98E69A5A9999AAD5A8
col42:   9978A6766A87A677A9A469B79AA7BBDCAAAA39AA88BDBADB9F9CCD8B987FB6DA9B9AA89ABBCAA9B6
col43:   5684A979779659AA8768D7A6BAB9C9986B9A8CC7CD65BB586AAC7BB7A8AABB98D96AD8AA95988B87
col44:   565A998765D849939A747CDA6CAB99A378A77B6B89D5CA68DC7BACDDDB8B8BB8A78E98BB9CA99AC6
col45:   5418983A47576AA499D8A6A99BCBD9C8A958BE9C7899A486ABCA6DC9A89D477998F9AAAB65CBA998
col46:   63A7B5CB11B987A8D7879A7695688B99C878E4A88BBB9987BBA7CB9BF9BAD76799A6A7B79AA66BBA
col47:   9567C7B66667C9C767999B899995A78ABAB799C3A5DA95AAAA9A9C7C94AA79DBA8359997A89ADC97
col48:   77869566266768837797C88A988A869A48BA6BCC5B9A6B91ABECA6C856D89D897B98868595C8CAAB
col49:   956715567877B99A698AF768548ADB7688CAAD5997B7A8757BA9AC66979B9ACC8595B7CBACC7A699
col50:   7BA766A597E7A68586D56AE8B8BA8AA586A9BA6AC9997B5ABAC98A7B9664963C83B3C9797B6BB9AD
col51:   A547438646781737542371522338257566758614C1789D85968966B79455986896616679A6597594
ROC:     BPix_BmO_SEC4_LYR3_LDR9F_MOD3_ROC1
col00:   73594A776A6958674B93A5789997BB698AB79C7A99857BA58B875EA77A87B999696588786747356B
col01:   545AA7989E7956EB8398BA96ABD6CCC76ADACB998AE7DC79C996995AB5BA9AD6A9A8AD6AB9ABB997
col02:   C549C998D784C7D889986B7965AABB7687AD977899B98AA5CDAAB5BA596A78976D4989DD97694A77
col03:   975B9E98C989A578EA9A8CA9AACBBC996959E87D4A6AD49B6987AAAB9ED89B7C9DE879ABB864BC87
col04:   788B88D9A8785B96D4B86DC9CB9BCABACD9D9C8BB6B86C89CBABC669697C99A8CB8C7BF9ACB9B798
col05:   6979A48B98EBC797C47A9B6B8B9899A8AEAB68B78B7BB9B989B899AB8AF7BD89CE7A795985CAD578
col06:   699FAA968E78779DB77BA787AC8B66BC9B66A8A878CCD89ACACDD9B799C9A89B7878C7A688DD66BB
col07:   7567966C6B96A978AB77A198C7CBBF59C65A99B775A9AC9B9AA9ED7CB4BB5ABADB8A9952C87678AD
col08:   898A87A876DC97C5A6B98D7C78684B9887BA997A67F6C998899AC6CDA78CDA98DA9B99A7BC96B78A
col09:   658A58BC9986BFA8A978C687D6A9857ECECAA675AA9BADCB69DBBEB5D8EACCE8DDABACCC6F89CC66
col10:   A5778956475897B58986B8A7898ACC59EC8AA9BC6B7BD9CBCBBCC7CB9ACBB98B98C83AB845984957
col11:   17A899573584C456639B92FAAB7B44988677A99CB869B99685C95B86983A8FA469A9598C988CB686
col12:   58837999AA6A659989CCBD957FB96C5897B8888ABAC7A6D49B9C9F98A96998D956AB678899A72B8B
col13:   6C7B6B879888B3BB7DA8597DB5C9CBD897994986699BC8CAAB9A8A7BD7AA8A5AAAAA99FA89F96984
col14:   76A8955B765B8B698AA7B5A9C89797ACC45E8B8A77FCCA89ADD989B9AAA9798988985B9678AACBB7
col15:   1562C3866AD8666D4945686A969A955D574884777BDA7BB7ABCC7DD797B6AA9A85CDB99C989C988A
col16:   943989C797A7858CB7A8A98FB5AAACABDA8AB9EAD9968A7B9CC9AA886C6D999A8D6CACE849DCC7C5
col17:   5578D35569877A8A96B977877798995A9A9AAB89768988A9CAA78C656CB66A98BA598E36AC79B885
col18:   988889537546BA78987A78ABAAB574ABD6A7C856756CAA9AA789C9D999799977988AB4889CBA98A8
col19:   7897AA87A66735B99878B4988668876989A8B9669B5BA7CC97865ABC9AB9A999AB76387975BEA8FB
col20:   986B8878C7B6576AA77599888BC9ABD9B88CB8BA97CEBC9A7DB7C69CB7BB794A99428566BC7D7CB6
col21:   8638768566A48A9A98D7A826DC79719789E8CC7B3ECEC6A977C69C784599A6AA97887BC7A9AB9A8B
col22:   85268597ABABA98799B889B96C9B54BAD8778ACD9984C8C87BB8A79DACBAAA9ABBC95AE5AB787BA7
col23:   89882591A67ABAC6A7767B5B78E56B9C7BF8987A4D68C89A777699A8AB698ABA8A67BA9C9A747A75
col24:   258538D396688473563A8A995DAA75A1898A98BB799CB6BC2B8B775D88AA8C7B7A8AC9957C78AD98
col25:   73639C7A98589978988A788B77C86ABA9C9C85665EC9BB7C5A489878D7DBB8987699CCA8DAAC9ABB
col26:   855978976AD7B4DA4B9BAAC889A9AEABA9A9A6BB9E8EC9ADEEC6CAF9BABCCAA98B877B988E799983
col27:   CAA4888C76DA88A8CAB78DC96A88A9B9FAB4FAC7C7DA989EA9BB38CDCD68BD9AB7528CBD8CBB9695
col28:   697A8AA9E36B8AA9AEEA98B798D99EACDBA7A985BA68B98BABBDC8CBCF89CBC99FBCBA8CCE88E89B
col29:   4A485987A63A996C68A9B99ABBC88D69DB6ACBC788DBAA9BA99C9D88888A8BA83AA9C68DD5EB9C49
col30:   459987875A968ABA98C6CB9CA4BFA8769CCDD9DA5B87B7CDDECFDAC9DA6A85889D9A9BAEC6A7D7C8
col31:   55256AE39669BB6AADB8EA8A7BCEC9ABFACE89FBA7BBDACCDC8BBCDBBABDA87ADACF9EAD6AEEAC9A
col32:   998A3D9887898687A9CEBFE6A7C987CC8F9DBE7CBD7CA9ADAB9AACDD8FCCB8BCA87A9CD7FAE8CBA4
col33:   68A79CB56779BAB66DA7E999BAB6CCB9D868D4CCCCABDBB8ACDD9B9B99CBEA95B98BBACB8BBC49C9
col34:   8A89699966D6D9BBA7E7C898ACF88CACEA9ABACABDEB9A8C9DBAFEDACBAB9B8D76E8A99C9B86B769
col35:   6899C6B675BA8BCACB89B79CC9CBAAE7CA798786A96CEBFC96FDD8BA9DCFAB99D9BBCB6CBFBC7BC5
col36:   9A78C79AFFBDB9ECA9D769A7ABBAA9B7AACDC9BBD7BD8FACABDBDCB9BE6A8B9A8BC9DBED98ACBDB7
col37:   959A94AA9BD8CECA9CB3E599C9B9E5BBB8B9DAB95C8AE9BFEADFCEDCA8EABAD7BCB769DBD98B9BFC
col38:   9A989298A9D7996CBB7EB7A9DAAABCF89EBA89CCE88BCD8CB67D6EE8DAA9FD8C8ABCD7ACAACAC8FD
col39:   9897756E9A8A7CFB69AAAAA89E8ED7C7DDBCB855C98BCDACBAA4CCC9B9D5DCFAC8D8E9BBCB9A9A9A
col40:   5568B6E48DB8EC8AC949DBEAD7DD9DAA7C9CCFDBDAAB9DBDE9CE98CC8FBCA998BB99BDB8A8CCFA98
col41:   7C66A68967FAD79898D56AC876DCDBA969B7DCC9989ADBF98FD96EFABDBBFBCA97ABBCB84B5DBB74
col42:   7426A6799BB777AAA87C7BEFD4B998A9BCCFFB8CDABBAFDDABCDFD798BAABE7ACACC8959E6CB7AE8
col43:   A78BD6967A9EBBDA88B5D895AE9C9ABBFBA9EABD9A9CC9AAAD9BFC98B5BA86A786BABDB9A8C79679
col44:   4398B8AD255C9CD68DBCCBB8B8AADD9BBECC9B9BBA8DFAB88ABFDBFFC67BECADCCB9F78CC7AACC7A
col45:   2BA6A7885BA6786498D8CAB7AE8A6C789759D889BEDAB79AE8768989DD675BFB8B5EBAD8ACB9B687
col46:   3638468C9C9D9ABD8ADDBBAACC89BBDBB6CFCDCCACB98AF8B87B9BE88CBBC8C89FACAAA9AC76BCAB
col47:   5A38AA678C9C4A8697BCACB7A6B6967BAC8B8DCA7DBACCAE7DBEE8CB88EDE9A69A9A8ABACA89ABAC
col48:   66878B5585B77BD75BC7BAC76DCD967ABDBC99BCCA85DF9CAD8BACBAE8A7AC5AB9DBAF9B8BC9CB6C
col49:   B696587975B8959EA6D967C57AACD8D8BB977987C89FDCC49A5D9B9869CBE9896BD97BABB58C878D
col50:   67667B36AA989A7CC5BD6A98D958ACADC98CBDBBCDEAACA8C8B988AAE5BE57DD8AAAEB99AAC7A99A
col51:   41162471647597597637446ABA6756B7583767484997E5AA659994A89DB614B771AA5765A558B586
ROC:     BPix_BmO_SEC4_LYR3_LDR9F_MOD3_ROC2
col00:   12713115146258A65164474453668446766664655866462476756317637769667686645574668555
col01:   7387593686585A52688785648687877AA56576859556987888775B5AA879748A8765A7B959A92565
col02:   825657364678763449646666C6658A3577A97666956775598767661687978A7843866A5556B78663
col03:   56547976564372856A65534575559B998776588958694548A99888888565873B7686885558785633
col04:   7756855A468768A6966A5579675668597666968878986557787A965A865658595469684854856594
col05:   629886746467686989854578857788685786578867786596657A57169A6A77457677579A7A277556
col06:   37495168654738547986359A6947A39694756575984376C387896B77766649AA838A75A567356498
col07:   46597653698AA55767AA469785B89997879877595A849656B685386976AA818967659B7669364869
col08:   A58795762694855576655645878696799B97679789878A7C87977388A9895A6875A68636AA6A5777
col09:   6887823A367755AA546B58A57A9A667769988B8729878956775817957897656849968488A4B78567
col10:   64867692537974779459A79B75A6856688546B86898A594798A66685A85976957788658699675B78
col11:   67659577763765946596854C778AB575BA875774A7988995688767698A6987786B5A646884A78696
col12:   5AA56757665543978886A96776976996889779CA86577AD88569887C988B7AB664987C7979AAB975
col13:   7358676A6865887A9C8A8A7A9A637B878B7B99A9A6578A8799977858A8A868994788978997886B77
col14:   65467867552378688A67AB9A9856B7885A597D6A49A7969A57598B796988AC58568B449A887C9958
col15:   689789AB967987A7556678877576ACB979AB8A7B48B957C98B7889B77686BB69A9779897B9566795
col16:   4686587675766777786696669A98997C98665A876687679A99A76679A8698A89BC8A7996999A4A77
col17:   2BA5597A9892756989A7C68987B65998A8BB797AB46A9B86969A8A695C978A9B995A79A886975894
col18:   737665799A76689687898886BA7B795849A8BA9BB7999A57A889BA8C88999B7A9488A8BB99958787
col19:   58598362B87A8B8C967ABA58B986BA3797798AA8C9CCBAA976A67699869A8AAB9587877879898666
col20:   597AB6473188857775A86988985888887788789B7BBA95C9AA8A7AAAB7BB5788C78958BA5A7B9A99
col21:   79567AA649789668A44596B8788A9DAA6CEC8AA998A8C86A9A7BAB75B8A7999A887BC9B66557B986
col22:   5A6C5894487A876AC88A8999876C7A979B79A88979CBA98987A88C7A699887A94A8C9B8B67789789
col23:   4637686946988645979868A7D87A7CC99A89BA8A89A77AA96B9A9CC98CDA969B9969AB9878588659
col24:   899A867954966C5A668B8B88799A68AB6999A89D88987698B9B9887CB8B9A68B7ABA8C5687789776
col25:   868A695747798AAA888789878A999A899B78CCAAA7A8BAA799BA8A8AA698AC999A69BC8A9C977979
col26:   877585778CC88CA8B99BAC9AA9ACA97A9CDC98BA7BAC9BB89C8CCCB9CC7F7BEBAAAABB88C6C5CABA
col27:   74489C9687B88C9989999A88BE889B97A68AAB5DC9AA9AA6CCBAAB9D8BACBC9889AA88CC7CA899B8
col28:   75887AC77793978A899B98CC9BB8A8DAAC8A8CBB9987B8CEC88CC576CBADCCABBD9BAAC9A9BACEB8
col29:   B9788A9B799C8D97B3A79A896A9A7999CA9CABACBB8A8CB9BC9BAA99ABC8A9EB9B9AC9C8BCA8BBA9
col30:   7688A798AA87DBDA8CBA89BAC687D89CC9ABB9FCD99BCA9DA99ADB9BB9BBA9BD99787CA7788B9A79
col31:   CBD8A8A97C99988A9978B9AEB8AC9BABCAACBECABBDDECECADEAABC99C9CDB7A9BBACC98AD887CC8
col32:   C889ADB979D8ACAC6A889AAAEACA9AADEC89ABACCCD8BB8DCC998BCBEBA9CBBBC9ABB8CD8AABA9A7
col33:   B6AA678C97BEAA8A8AACCACDDBABBD8CACDAA9ABB98ACCD8BEA8BBCCB8BCDCCBCA8BCAB8AC99CBA8
col34:   B9CAAC8998EBB8DAABADBBBDBAAC8EEACBBBBBAB98BCDACB9EBAABBAFECADCEDCBD9CCCB9BF8C8CB
col35:   C49D7AA7C998BBB7AB9AA8AECAB97CC8ADDABABB8AEAFDBDAACCCFDFACCDDC9ABEB9CB9A8CBAFD8C
col36:   A8C9889BC8AAB9BB89CAD999AB9CDB8BDCBDCBAAB9BBAC88DFA9CBCDDD9BDCCE8BCBD9B99BCAB9B8
col37:   BCDB98BBA76997CAAB9BAAAB7CACADACCBEAECCEDBCC9A77BCCCCABCBE8ECFDEA8BAAAA8AF989B9B
col38:   B9BD99B7D8CCFB9BBA9BBC9CBB9FACD88E9C8EBBFCEA98ADCD99FCBCBEDBBCCD8A8EFBFCCBCBBBB8
col39:   CC999BAA9BDBCB9BBB9BCCEAFB9ADEABBA9DCD8BECBADCCEF99EADADDF8AACCBAAB7CCBABCA9DA9B
col40:   CCCACAABEBCBACAC9BCDEBCBBDDCDBBCDCD89EED8EBCAAAA9DCD8DDBBBBABD9DDC9CA89FACACBEE9
col41:   BBAB798CAAADDCDBADAABDAD9CCAE8CADCBBFBD9DACBDEEEBDDBCCEADCCFBCCCCBBEBACEDBDBBAEA
col42:   A8CAD8ACB9CD8AEBAABAACCACBFBCBA7DCBCBBBCBABCC9BACBFECDCE9CDE9FBC8BB7CBAACB9C9C9B
col43:   BAAFCCCB9CBFCEDCC9EBACFFDFDBAAA9DCCEDCCDCCBCCCAEFA9C9EBBDCDEDBDACDADED8BDF8CEBE9
col44:   C8ABBDEB6CB9BEBB9D9CCBDECDC9CCDDCEA9EEDCAFBBFBAE9B8CAADDCDCDFDCDCDEEBBBDCBE8FCDA
col45:   9BCDE94BAAD9CBDA7C8CDCBACDDDCABDBDDDAC689BBCEFBADBAACEBCBDCEDBC9CCEC9F9BCD8AA789
col46:   AAF9BA6ADC7BBEC7AAFBCCAA99ABBCABCBCCFCACEDE9BDBB9CAC8DBFBDBCEACC99CCACBBDCCCCDB8
col47:   8EBB8C8CDCC8B98ECBFBADCCAB9ACDBBDBEDCEDEDCDCDCADF9EDEBBEFCDEBA9DBBAACAABCABDBFCC
col48:   DCABAC6ADAEACACEBA9EBCBDADA9CDDEBB9ECBEBA9EBEDCBEA9B8DCCDDBBBBDD8DCAADACCBACBBBA
col49:   CADBAACBCCCCABBA7B99C6FAABAC8CDBCABB9ADCEADCCABBFB88FAEFABDDDBACBCCCCA9CDAAEBEA9
col50:   CBDCBAABAAFCACBC8BD9DAFFFCC8D8D9DBBCCCCCABCBBDDEBBCDFCBEEBCCEDBDBD6E9CECCBCABACC
col51:   B999BAA9AB9DC7A7AAB8BABBABB5CBBBBCBA9AAC98CABEBBBADBCCDABBDBC99B8CB7DCC9AABE9A8B
ROC:     BPix_BmO_SEC4_LYR3_LDR9F_MOD3_ROC3
col00:   3145519257154585478466242254B68B8757538676C9556B4B77796AB8B839AAC69A588BBBA5AB9A
col01:   3153585746666464258A76A75A75E77A968976B9637A66898AC7D4A896CD8A9B99C399775A9A89A4
col02:   447897663587463A3465877A688898A4A8696378978A64959668DADA98CA8796BD697EADDAA88ACC
col03:   3172A58575628A9872884565AA8CA7458577957B86CEB7BCA8558A8CD7A9999BA9AC8A5A7977997A
col04:   1654778A77845287B66D698B79A7876897BC89799BA588B96947A6898A888BB6FB9687BA9AC9B89A
col05:   57778659263578A46758995795795596A88CE8BDA698D476A88D9896DA7BA98A97BC9B88A9A3AC98
col06:   74674757B465576B8978756A648B79CA9776A7996AAB7668A8689ABA887CC7D9A8978B79CEBAC9A9
col07:   6566633974886557575868955595988647BAA97848979993B869865C78AD9BCB87C669BBBBAA965D
col08:   7996387727788758794C6B7A675695B7777A78C779ACE7AA7538875899DBCB8B86787A9A58898BDC
col09:   78697635A76594677D648566A9896AB3A6B7D9B25A6B769A98B9A99AA9AB7C9EB9CDA59BB9A8C8D7
col10:   63579A645659528766477996759AAC69BCAA798A774AAB697C8978BAA8B57897B797C9B89AB989E9
col11:   B26551674679985585969497955997A78996758AAAC7C9CCCBAAB547758AB9985CAA4A76C6BA8966
col12:   259837A2636974877A8666699A67AA9A86957888696B9DA978A79997B988B97CD8D9BA96BAB9FAD6
col13:   519674454476769A956A8B77838998869AA8A7BAC8989B8B6A8AA76B85878A8A899CA5ACC679AAD6
col14:   357913579A57478844BB96757A7C56A7899959AA98978C8B88699AA69BB8687AAC98A8B8D6CDB9C8
col15:   4AA76744765549697728C8844787A47976A6878A7E6B897AB878966D986B8BA8A97BACDD8898CB89
col16:   7544875987265C86657557798C89AB398BB9649948A78BB8964BC892B3EABBEA97BF8599BCB8CC9A
col17:   43615585595AA86755A31966A5838975979595A9797DA9ACAB8A96988979AA8CB858B6CA87ABA9A7
col18:   6686559778657869C946877B9B6568BB969C95CB97A97BC59BA66ADACD789AB976867C9AAA97DAAD
col19:   767737738964B7656293B7579774885478969B8A98AAD6788678BA986A566888A9C8469AC999C8A7
col20:   77537599773866547565B955BB2278988B68A699A997CB69A6988BAAA99B6CA99989DB89979A789B
col21:   34543664517566B44C76969387999887A4A698C85A988E87BA69997B89B9A7BA9C59EBADBACBD78A
col22:   66757745A8598877AC96A6525A968669879AC77998BA89B87BBB986A7BCA979AC998C66AA8B9B8B7
col23:   76946B5856886785694997A77999A8599786AA999A895477B87A7789AAB78C7A49A9566A8D8AA8C9
col24:   69465347A687988479999A998B699789A9B9AC8D97696D98A879BAC6BB8B8B999BAA7AACAB789997
col25:   585858A5A357945657C49959C664889889A97C7A75888867967B7867BCB96B997B798969BB8AA8AB
col26:   B85A9BAC4778B888687B8388C987677BAB88EF7BC8B9BC8CC4A9DABB8CAC8BBDBADAF8CD9BBEBA98
col27:   78665754A968DBB46878C466689AABC8899CA7B9DD7889ACB46AAB899BBCCE7C66DBCABDACDCBC9C
col28:   B66B6B8B8A79E7979BBBA986D5CCB9CAABC98EBCBDCCD79ADB9B8AC9E995CBE979DBF8AAADE9AFB9
col29:   564846855AD7A978669AA6B7A87B688798C8E9A98ABAA99E8B79A98DBB6C8B89997CABDD8CA9AADD
col30:   578978C87689779876899B9BA888BC4E9BA8FA848BEBA8AA99F9CC8DB9B8DAB7CABCAAB9ACACBBEB
col31:   A97978996A6AA899937CBB77A9CAABAABB9BDCB88CBB9A8CAAFAACD8BFA7EEBEBBCECAABCEBADA8D
col32:   B987C9AA59B997AEA7BB7669A98797EAEC98C995B8CDEABDA88D6BADBABBEBBABBCBB8BCBD9EBDCB
col33:   A7B66DA58A77B575A9898897AAC7C99A7CD9EC7C96CB6B7ABAADDCCC8B798DD8ACBD9D99DBC8DACB
col34:   7477C4A5938D8BA9A9A9BB4A99A8C8AC8DBABACCAEFA9ADB998CA9AAFBCCBDAFBB8F9C7C8BEBCDEC
col35:   7BB9687A8B989EA7A8B9859AAA98CEB9B9BCD7B9BC8BBBBEC9EBACDCBDCBC9ACA9CB9AEADD97BAC7
col36:   7CAAAAC9AC6978BC5EA9CA9AAC69CD7ABA99CBAA9E6ABCCEAACDCDF8F9B7FA8A9BE9BEDCFAED9D9B
col37:   897C968DE688A997B879FA98B69A7AB6CBAC5ACFCAAECE98A96AB9DDFADCE9B6BAABEDCC89EDCFDF
col38:   77B86D59AABBD9ABBEA87DBE9A9CBDAEA8BDB8B99BE8BBB8BEDCDDDAA9DBBBFDBEBF8DEC99BAFDED
col39:   876A98DBCD9B7CA8ABCD988895989AB9ABAA85CCAADEABCBBADCF8ABCBDBABBB8AC9DBA96CA9CDCC
col40:   B995D79AECAA9777BB9ACCBEEDD78CAED9BFBDFBBCCD9BDADDFBCBBB8BECDABEFEB9BDCDBACCCBDE
col41:   D7C88ABB96CA89AC57999ADD9B99DAA98C95ABDCCBBAEABD9BBFDDBADBBCBFFCAB9AA99CDDECBAD9
col42:   8897D8AB9A9F998888ACC89EBABADC8BEDACEDDB9AFCCDDDAAAD9BCEB9EEFDEADAA767BDEAADBDCB
col43:   9A977C998ABDAE96DAFC99E9BAF7D8DDCC9989A798CCBAADB9CBFD7DADEDCDDBC9BBC6EBADEAADDC
col44:   9B8ABA888CBBA68A9ACDED98D9CBCB7ED9D9BBAADAEFBCDBECCDEE9B7BACEBCBCCAD9DFCCEBBAFF9
col45:   93BBBA9CAB8C7979CA7BBB6ABBC9CE98BABD9AEF8DDCB8FCDDBCD8DBCCACCAAB9FFCA9E7DFFFFAEB
col46:   AAB4ACA98BBB99BB9A9ACDBAB9FCC7AA88CBEEABDABEEDB9D8D7DBDDA9EBECCECEFDCDBDDFEEDEA7
col47:   A98B7AB99988A9DACC9A99BAAFADBC8AFA9DAAAFA9ACACAEF7ABC8CBDDCB7BDFCDCBA898BA9DEEF9
col48:   7AA7B87C7ABC9AA75A8979DA788BABCBBB99CBDAACBBEE99DEEDCDDBACACBBBADB9FF8CBFDCFDBCB
col49:   C77A97B89D977A9B69E9BAB9BDDA9BACF8AACC8F8EA888D7FBBABACCDBC9ABBCCEF6CBABECCDDCDC
col50:   5B9CBC58979D9AC79C74CB89D9DEAEBBC7C99BEABFC8EACCCAECDDBCFCABCDBABDDBCDDDCFFDBDBB
col51:   A58896874B56679AD97AA88CB789A9A9ABA6CBA9BCA999CBA68ADABB98B9DAC8BADA9CDC9AECAC9D
ROC:     BPix_BmO_SEC4_LYR3_LDR9F_MOD3_ROC4
col00:   4423722681456313A36499542879563A8696B4765A45771665588797685441541184763674868651
col01:   674735675A848578A95589CA797C8649A9985999A8657688B9687B89A89878964639765669643456
col02:   9479886776666C8954594AAD49897D988C7775857A6A97ABA995BC8476587757779A315776549696
col03:   266657B48757469896B357C79257878997A77DA88A568784A44B9947672A98846869A44643496982
col04:   93256554946355628447A6675754674947B6859889B46A64A8534A95B5B738397768563349A33655
col05:   5794698962367796546566895B6B7BA66655758A4B4766387A4A8A77797675746796766744BA86A4
col06:   653646435B546538586778668797B87A69C67A98A6A4B94767B686BA67A9757A845664B488324225
col07:   6879576796577BC68899B698629886CC799A875CA888C877A68DD9C8AC5ABB7676768A89985AA951
col08:   66645B3A445789863A58B7868AB3741777867D757876957879978AB6B69675272988685698856331
col09:   3878A8699388858AA29AA99A696AA787AAA9986649A7679C969A869B9A7A8877B686975469695799
col10:   878429754167896489BA296ACABA8487A7ABC899959B7384B696784788657A64384A285696553556
col11:   2748267BB98799A5B866987578A79779A878887DC68591858B9B98BE5C79A5A5695985958947A678
col12:   63759779368A866954568798BA68649D59B4468B997AA99886AB866BB6577767C879362466A86731
col13:   6A5687424989777A8895557C88C87B96978A6BB9A7897C99BADC998B7C9779A946662B9DBC656654
col14:   666A3B49887484775C38887878867A698A8998E86DA7877926D9BA9EA98679A6768498446C1A4652
col15:   64C447585386A58A86B9AB5879698C66877A68EB8897A557B2787957A76878433786585976597896
col16:   765858944695997796565646C666E773668A69676689BBA9CB6A9996D8A67977C69A8778B6897996
col17:   65648C55767A977C557654777B888A7798787D6ABB59798BA7B76BB9AC58C8A9847B95774758B633
col18:   355368865659786C96A87B97A7656B8A9A7B74879BBB387797B68A69962A99577A875BA975877837
col19:   A578579528BAB665664A75B7987977B99ADA8BACAB98AA49FBC8967AEAAB78B7569A79986A879986
col20:   5545585B565698787C678A89678B27A8C998A9CA97ABB95AAA59955D57A69975DA889895785619B2
col21:   4876458993673A5B4669A7A677AA8BA89B9C9AB98889A7899DE557D89D6A5BA68B77C9B948687874
col22:   6757575777798896498788A6AC6A67573B7887A8698986896989B889A9C76AA7859885C98788A588
col23:   A768786938566BB5A2726C8A6A7658766AA7A6759C7BABB95A77974A795B99AE9879994D79939365
col24:   4576775883387894846BA7899CA8274596AA4B6875CB96A6AA9698897A6AA68566AA455AA7A4B398
col25:   596A7958598B75AB5A7DB878BD966AA8C9AA98C7CAA98BCE59A9998C88AA7C678BA589B5A8A77598
col26:   5896888775687878A7A79E6D899B7AB47E9E4A9677C99A97BA797ADC9BABCEA9C86B78B88EC8AA65
col27:   7A776844AA7B5B69888C6AA7AB88AA87AABA8E968A8C979689DADA9BAABB898AF897C68AA8B8969A
col28:   643884699B9A8AAA89A98A9C9AC78BBCBB97ABCDAABBBEBCA89DBA89A97CA799ABA89ACAB578B995
col29:   89869AA6999A99C9BB87FA9C9BC9AD9BC979B9DDDAAA89BACCBFBDB898D6BA9DA897ACCA8899C6C6
col30:   876988979B9A8AA6ABC68BBBEBB88889FCACC8AC699AB8BCD79B889A999BB99B7C98CA9A9788A979
col31:   6A7AA8CBB69A7DCC9ABB99799FDCBABEDFA9A999BDCCAEAA89BDDBEBCAB77AAECCCBEB9AFACB6BB6
col32:   752A97AA66BBBBC3A7AB99BBDBB7ACABB99B9AA689BA9FD887CA9A4ADDB8B8CACA68BBADCADAAA86
col33:   88785BC94B9B8C8AD8FB9A9BD9A9CACA9AADDBBCC97A8BBDCCA8CACB9BAA8DC99C8C5BAAC65EC86B
col34:   98AA78A85BB99EB99B6E88ADCBDCA75CCBAEEBCABDAF89B9B889CDFA9CC99AB79D98B899BA9E99B6
col35:   AAA56CAA5B79BAA7CCA98B7D8A8AC9FAACCDFBA8AABA8CFBC878AD97FCB8BDAFB799B888ECD899AA
col36:   7AB849D97A5A9D8988A4879DAB8BA78DAACCBCCDDDD9CBD9FC8E8CDCBCBB7ADEEA9B8C8786C68A98
col37:   5C86C7BCACA75C8AB98CBA7B8D6BDBCB9ACC9DBBE8989AABFCACACCDBB9BFDBA78A9AABAB7B9BB86
col38:   96C8A49A8A87A7A5A88CCDAFABBDB9AACB9BCBEA8DACAE9A998BACE8ACABFCA78BFCB85AD75999CB
col39:   789B759999669DC7ACBDD8EABB8ECEA9BDDA6BB9ABA8B8AEEC98CCBABAABBCBEA7AAA98AABB9C87B
col40:   8BCA76A9BA7BDAA7B9B9BCAD9AACC8CA9A7DEACDDCECBD99B8ACAB8A99DD9FFA9D7C6CA689C8AC7C
col41:   CBBABD588C8CD9CAAEBABBDA88AACACF97DFBEBEECAD9CED9DBFD9AC89ADC9CCC8BC9AABDCA89BAF
col42:   B6588C6A979B78E9CBC8978AA75C8FEAA9A6AC589BBDBB7BADACBAC8CDBBEBA9AC9C9D8989D48877
col43:   DB7C986A99ABDF97ABC99ABABD9CEBCB6B99C9AEEBADBCCC89EE99D9AFBCB8D9BDAAA48AABC8EDA9
col44:   8EB7CC88669AC8AAAA9DDD9BADBBDCB7BB6948BBD9D9ADBBABBC9ABD96BAEAAAADA88BE99B9F8BA6
col45:   8AA5A57B577AB987CC9C8E7D9DB8B9BFBCCAFFC9EAB8CCADCD8DBC9ADABCFBBBBAC8CBABFDDCCA97
col46:   EA9CAC7668AB87BB9A996BABABCAD9BABCDADABEEB9CCBD6EDCECCEECC67D89AB889A898CD7AEBA6
col47:   A9BABAA697CBBC78A8A7DDC8CC97EC8BCECC7CCFDAACDCAAEA999CEA887B9BABB99C899AB9AC5B89
col48:   A87D788BAB7488BAA76AB6ACCAA7ADACBAAA9ECB9A8A9BD79ECBCBBDEEBE9C98EEAAAEEAD98C97CA
col49:   A56AB685A99BB97BCAA9D89ACDBDA9E9DABCBFDBBBDC9CBBDCFCBBDAABADBFAD8DBDAACDAB9A8BB9
col50:   7B8987ACB978A8CABCBBBDBBCABC9AF7BED8A8C8ADDDBDBDDADEBBAB89B9BBAABC97D97C9AC9B6A9
col51:   766798A777697D87A7479B7C887B6A99A98D99BA8D7BBBB79BBDAA9BD9CCC6BB87AC7C99D6B8C767
ROC:     BPix_BmO_SEC4_LYR3_LDR9F_MOD3_ROC5
col00:   375532766614424541349358336818749A46A5562767981835946947544783626259566964633483
col01:   3744158951747949688583845846777578B678992989867B8A8865958BE85A61E8B488666A99A8A1
col02:   8446323738887856572867848B5487465C8767AB887797A97689769879C9994B3998888465528276
col03:   338669638987596876734B957D99B5877DBB79798A26948CA3659A79B9689573B64489A768853464
col04:   6835A447276677747633BA9AA9B779B8975C76757B83956729A8978B7677A5849629835D5A8A49A3
col05:   4746884456B343659576A7689655998877A78C665795959EB7796C69CC8A69659775566898979575
col06:   A7874B496438B96796599884E6A56186B47544C669699A79A6755A5587AA645BA95569A767975537
col07:   47B69A68A95683892ACD5437B5B7ABB9FA69679459CB895CB4ABA6A79DA6978A697A4556987AC874
col08:   9656433A4B725537777BA5B9B538998778676863B888989B9745A477499384B35B8A477A663A4537
col09:   75535476746689B4AA6486955777586A67A9BBD5AC8B95D856B686A98C7838556B869C686825A561
col10:   6478685A9557467646C87157CA58A366A58BBA6B84A7B68AC77A8A5A98A98C9876151BA676789751
col11:   5519A7564699A9CA586B89C8B74788C9587CBB8A99BADA9B9BAA666C67B86794A5A829779A969755
col12:   56367996563A36958C6A596BAC996B3669A91AB9BA4699775B384574737C9996BA65A29591968B78
col13:   AAA15577458BD6979769B8368A87A867A77787CABA9678B9677536BB7A6DEC866A36699788879685
col14:   65A864669589399C6B7636E2AA969A9A8569BA78946754F9769599E885A8C95965B69943486545B6
col15:   636768748678897A577978A99BA5564498A96A6B9498AA9ADA63876859DA5A6C58779BA858749C66
col16:   17632878547783AB866948BB96C6BAA7CD695BC989C6A9699ACB87A8788AA88D77994A9749BC7459
col17:   465479968596A7AA885B69C978B98B98E4DCD56388ABC8ABA76988687687588968775797A688A797
col18:   4766678658928B77A65565797A9D95585AB789684BD77A89557AC76D787C95878999685B49948554
col19:   9579545968797A67BC95978BBA8B8B985AADAEA679A9AD9B9C7667965ABA9AC96D6F875689A88AD5
col20:   486664A5A695698895A876B6665998AB8AB856966996A98A567B6E86ABA84862D457A833824AC967
col21:   546666347C78769C994A75985872BC67966AAB7D7A977A777D8B98A9B99975B957AB627998B65819
col22:   A7A67898687A6933889985A995668883CB54887B7CA86A97ABC657C9A8A76A75C9837777884AA853
col23:   61936975993838585A738692B578A9AB9859A9DB79768C77A467B9687993A67665A797A699A9B787
col24:   7A69465983887BA8BA876A75A597989BA7B858BA5A7C8BB444A667CE65778A989959748495645673
col25:   29856B7578999A5A574BB7E857799A9DABCC9CAAC8DA6ABB9967BD896BC948A2DB8B899AAA867646
col26:   9AB6768C46979CABB76AA9A9B9759CCBBCEA9B9A8FBBCF978CF6BACB6BCB9C66986BACE7ACBAAB85
col27:   B898672B857A6A6B8589B6E9698C7B999E76FB79D98ABCBACBDED98DB98BB7A6A849B8599A567A7B
col28:   776996744BB6A998A7ABD8A6ADC86ABC7BAAA9CA7EBC79C8FEBCB6DD9BD9887A9A47C89B863A85AC
col29:   97B757BAC8A76BC94BA89A6A978DEBBFB8ED8CB97B8C7BC9EDCD99CABABEC897DA7B8BA88A7CAB5B
col30:   8889B5467D9BA98D7898B9FCC6AC8ABBAA779AD99CF7ABD6ACBC7BBBAB9DBAAB7BBA878BA9A69D69
col31:   8C9FB962B6B86D7B5BF7A88DB8E97ABB9BAA6ABCBACC9F7AAEC6AD9CCD9BA5ABFDBBAD9ACA86C857
col32:   797C78757AA9A9C5999A6DAAA4AACD9FBC98DC7DBADAD9CB9BBEEDAC6AD585B6DC7CFAB89979AA47
col33:   8A83C399A7ACBACBDBBD98AEB7CDBAC7B5CDBD79878A99A9BAAA8CBA97BCCE9E98ABBC999CBC6889
col34:   87C879B4D8D9CCADEAB9CA9A798974BCADBAC7B9CD8BB9E9BCBDEB89FABCCACFD8979BABABDB6C8A
col35:   9D7A5BBE98CB9ABB97A7BAA7A9ABE7ABCCB9BEBA78FFFA6ADBEBAAD6898ACDC47C9D6AAA9B96AA9B
col36:   BCA7C7B8879ABE8A9ABEA9EC9AC9AFCBCB9D9DCCDC99DABABD8DFAD99ECDDCDDCC9D89A9B9AE8D78
col37:   AED58ABBBD86EF89BBCBDC99CCC9EA7DB98CEDBCDCACC9997BC9BBFD9BBCAAABADCC788AA7BBC97F
col38:   BBFD88CA48BB5EED9DCCBC79DAECFFCCC99E8FCDFEDBDD9EABD8DCACABAADAAB9C9DB99BCD9CDCCB
col39:   BBC9A98DBAADB9CDEA9BDABCCBDA9ACC99A8FDDEAAACEDADDBCAAB7ADBADA9EB778CDDD67AA9DFAC
col40:   A86EDBBA9C89B9B8CCAAEDDC8EB6FB9CA9F9ADBBFAACB9C8BFBCBBBCFEFCCFACA993F9CCAB8ACC4A
col41:   AAD7BC8E99ADCE8BCC8CCB9AFCD9BABCCFEABABA9BCB9FBDCCDACEADD879BDAFC8CAABAC87ADBB99
col42:   AB98AAC9DEDEC8ADDB9EBD9ABCAAADBDCADEF9D8FDFCA99EBED8CDFEDCA9BDAC9AFCCACAA8B89C8A
col43:   FDBBCBCBAB9B78ABDFAA9AEACAACECADEBBAD9DCFCFDDDA8FDCFCB9ABA8ADFA95EAABCABCE7BCADD
col44:   89BCABB996BA89F9C9BCAFBEABDACEB9CFFEBAD9EBBDAFFDDEAFAD9BABBACFBBDCBBEBCAAFDEECDB
col45:   A7AC8CADACEDE7ADCFADDC9CFBEA9D9FEFBDDAAFEEEFCDCCCCFECCDFB8CCAEB6BDCFABBDCCBDD68C
col46:   8BDCD59AE98CE8C6AF87DCCCBE9DDDBEEDCDBCA8FFDCCC8CABADCECACBCCE7B9CFEC8C9CDCEEFBB6
col47:   E5ABAADBBD6FBABCCADDCCAEEEBDFBDDDDCBDFFDEBBB9BBCEBBBF9CCEAEBEEECEDAFCBCCFAF789C7
col48:   7E8BD8ADE9A8CACD9EACEBECDCCCEFFEEBC9C7BCDBEFBBDAAFACCDBDBEBFCBAABD9CBDB99BECCCB4
col49:   88BCADDBAAE8EDBEEBBFBDEDFCE9BBFEBDBDBFDCDAFCCECFBEBDADDDCDDFCFFECBDD9A9DECDABBB9
col50:   7CFD8BDB9DB6CC9D9DCBA8EBCBCCDCCECCEFEACCBB97BECCEFFDFFBECCDDCEBBDCCDFCEACDBDA9B6
col51:   9A99A97AA5AD8B9A984CAFAB9A7BC9ABBAFDAAAC69BBDCB9A9C89E9ADCDDA7889BA8AB9BCB788D98
ROC:     BPix_BmO_SEC4_LYR3_LDR9F_MOD3_ROC6
col00:   B667BC78857A8677A65A99885A6971746979A7DAADBFB7D685C63978BA7B655B9B6B74738297648A
col01:   988A93978858778BC4797CA97BCBA68B977ED9D88F9AA8BBD9898688C7CD6B88B78697E786A3878B
col02:   47465B566BBD96ABC98B984699989BB8C688A6B78AB9A9A5DCB877CC947D7989BC9AB68C6EB87BB9
col03:   78AEA5BA7D769A5996986AAB8775ABABB9A983CAD97BBEB99CBB9B8C8CA98CCA9DB88D1DB9C7A677
col04:   889A7D869B9E8C89AB9DA95D9F9CABD67CC694A9AC8CECC99799A686A9ABCEC598A99C6CA5B6A7A8
col05:   8B86895666A98BC39D8869A6598976D89D8CC9A89CBB9AB568AB9C7797B88786BBAAA9AAC97A9C3B
col06:   7A8987A4AABC88779AD6AC9BBB89B87995596CC58E6B8C99AFBCCA99A9CBC6AAC78BA899C6889CB5
col07:   75754B679AA8BA8A6A7ACB58778EA86CCA67ACBCB98DA9CEA56ADB8C9B6BDC99B785CB8A9A718B73
col08:   957258B98955E3B8759EB9BCB59A97BB78BA8AACDA5EA988AB478BB79CAC9876D79C5C9C88869A97
col09:   98B835C7B98E77AA9C9A87C9AC8BCBADBBC9AAABACECBADF9AAEC7989CCC7EAAA47DA698AB7AA94B
col10:   B66ABAC6858BBB7B8A947AA8E86CB98B99E9C88888689ABAAA79CBB989C69DBFB67D9AE698C98CA7
col11:   D8785848B1A9E95656CB8A64EEDD75B7C8CBBAA89A8B577A9787BA8BCB96597BAA88BB86965B9AC4
col12:   D55A77B8A798C9668BADDABD99884AFD998DBBE9AC7AA5ABBBA95A68EB8AB9E7B6EB8BBAA475C889
col13:   A84797B5689AA7AD6DA9A6C7DA7B57BCB59AB7C957A789996A799A87BBB9CCBA87A8AC4BAA5A6971
col14:   A96794288883C48A98BB97A3ACB8AACAA6EFB7AACD9AA8BB59FF5C9B74C584CC9B6C896878A68C64
col15:   7A799B5D8A2ABB9BB6C79A9CC66BB678AACFDB9996ABA8B883AA789996EB999BC95A87DAB9A8A766
col16:   4AA75AA9985A84B5878BA98B99688CBCD898AD7AA7A9DBAC74A6DAB8C878C89C7979E7596B77A994
col17:   79785A683C9CA9747C75AA78AB48BD8A77CC79BFFA466E597AA9A6BB8D6A7955C7A964B3C79A9EC7
col18:   A6786955B893767768ABC7BACC888E7A98BAC86DBFB8C6DA89AAA998CFAEA88989A997867C599A88
col19:   4B74AA97687A65A9698CC9BD5B68A99C8AB7DCEA75A9B7A8A65ED889CC5D5978974AA5899858946C
col20:   619B6969566BA895B659A7B98F9CBB8891E8E978BA8AA87A989BDD767958CDDB9BABDD95776ACCD8
col21:   6686A678947B679A7368CE8698BC9CB9899DCC9EB8CCC38BAAABBC7DAACAC76D5979A85677A79D64
col22:   899D5A6B9789D879B9545EC99887A5AC7CD8BCA9CB9A9D99888B89D7A679B55B797BBB6AB8A89C87
col23:   7A38B8896B7A53AAB7759C7A5CB7CDA8C89CA698F9DEAA3C987877D88AB5BABAAB8979989C78B695
col24:   797A6AB5783A8F786BC69AA77BAC89AEAEA9C5ACA8D56C88B8579B98ADA92CB6A9ABEB677BBBA881
col25:   6C397A75689C3BC96B9679C87B8BC759956CA999A9D99BBD75B6DDC6BDC665E889B5AB7A8D686733
col26:   BB698EDA9AC8BAB8B49FAD8CB9BCEC99AD9CCDCECA87FAAA8C8FD9ACEAC8DBCAD99D78AAB9C8B9CC
col27:   B6B3BDAC87B9BAA9AE6AF97CD9B5FCDEAB8AA99D9CAAA9BE9E9AAFDBD88AFCCAC97F65BDB9DB7F99
col28:   8BA9979A68D8B9CABA847BADE889EAEC8AADB789DBACFDAAEF6AAFACA7FADDDF98CDACA88C9E3969
col29:   5D9AA888BBAAAB99A8C97B8FDE8DBBC9BACBC9FCC9EFCAAE6E9F9BD9E7AAE9AD8ABDCE899AFC8D57
col30:   9BABABAAA7A899ABE7A8ABDBDA78DDAFFEEAEFBCAFBFCCD8D9BEDCBDBAEBACBB8ACA9B6B9BAC97AA
col31:   ABB766C84D8B86B6BA99CC9DFAAAA8ABC9AC8CDADADBDA9CDFDCD9ECDCCCC988BBADCBCBEAB9775C
col32:   BDDBBAED999ACCCBC99D9A7CAA99ED9D8B7D8FBB9CEDFAB8DBDBDAFFCEBC8ACDA9D9ABAFDAB9FA98
col33:   98699BBBB8D5E9DB6A8ADECBAB97CA7EEEC8AF99CCA9BBAEF6A8BCAAABEAC79ACEBDDA9CA89DA88A
col34:   DCDA98969D89ABB7C9FC769ECCD8BECBCEEBFC9EE8CCEBCCEBBDB9DAFECCDAACC89FE76BB79ABBA9
col35:   A9CB6FBA768BB9CDCB6CAA8C8CAABB79FAEACDBDCDCFEFBFDDBDCADBDBEDD9F9EC6DBA8CE88997B6
col36:   B88CB6DCB5BADAB8BD8789CF9EA99CCBFA8DFFC8AEDACEADE7BDCB8EBBDDAADCC9BCD9AEBAABA991
col37:   ECBD8D8BBAAEAAC9789979BAE9BDBDCD99BEAFA9AB9CBDBC78A7ECABCCABBDCCCB9A8ABA9DBDC8A9
col38:   4B9DCC8FDCCBDDBDB7C7AED9CDFD9CCDEDD9D7AACDD7FE9E89DDFBCD8AFCBE9EBE9CBAB3CC8A8DD6
col39:   7C53CBAAF8B38CBDA79B79ABBFD8BB8CFBAFBEDDCCBFFEEB8DD9979E9EACC7ADFC8CCCAA8987ECA9
col40:   AACEADAACC9CCCB99BDACAA87CFFFB9CCBAFD6AEFDE9CBBDABDBAEE9FE9BBE9AB97ECBD6D6ABD994
col41:   ABDCC4B99CBFA8A5DE9AA899BD79AA878E9BED7ABB8DCA8CE9DAD78FCDCC9FA98A99D3ACC779EBB4
col42:   AAA379ECE7A9B9ACEFAAE7E9BACC59CDBDFBADF6EEBABAFB8CABFC9AA8BDF78E88AED8ACA6CB8E66
col43:   7AC978A989A7E7FDADBA979DBACDDCEDC8A788FFCBAEDABDCFCB7CFBBA8CDE9A769A7C8A7BBAABE8
col44:   BADD9C6CDBB9CBDEB9A6D9A76F9EBBBFBABACCCFFBC8CE9DFAD8ECAFCA89FECCB96CBCFABDDABA7B
col45:   BCC99C9AACAA9FAC8B8C98B99BAEBBBCD9AFFCB8E9AAF99AD959FB9FEBB88C9A7CB789AA9C99C884
col46:   C8AB8BABA8BCCAA8ADAC9EBCFFDAD6D9FE8AC9ACEBCBC9999A8DFFC5AAEC88DAA7DB97A86AB8B7DA
col47:   A78C69877DCABCE8CC7DACCBBBBC9BACBABAD8D7DBCF9AEFD8EB9DD9FB89BC7B5CBDDCA6B9AD98A6
col48:   CA9B77CB89D4B8D79ABC9EBDABC8FEA9B9EBED9CBFAD8BDFBBB898CC8CCD9DAE6D9CA655AAA6DB8B
col49:   B98E8F7BAC7D78C9C889897AAB8996ECC876CCBDDE9BBCFCABAEBCBECE9A8BABD8E67BBC9978B8D3
col50:   A8BADD7C8A7BCF878B98A9C7DDAA9AE9E8ECBCD9DB9DBB8C8DB8E99AAA87B76C779FA8C9CABB8AAB
col51:   2986697188967628A7B58ABB766A789AA6886A97A79B49B9A9C9A9A8AA668969A7988C69B6964766
ROC:     BPix_BmO_SEC4_LYR3_LDR9F_MOD3_ROC7
col00:   41568315412737515365A6165447775573777984782888729486987BA6453B647968B966A9485665
col01:   6457438341428715763C62737666A954897336984775556399B49897892BB494957A592965835395
col02:   68417557142485555578655A5A75A87439566795B98874A96C8796C78A5A769A67BBA7A69C667863
col03:   213865753272783265B54666547784A89771779879878877947BA888995986868876A769647C9187
col04:   18556852273854685657984567A7783AAB54A8759CA47846896A896B96988866A9B89AD9997A49C3
col05:   4132649916485588666664757686758A5B7857A77C8B79759B565BBA97998A5AAB6DC65985565A58
col06:   4615698A38573567566976588A63559568A77878A9C9998A8A8B9989CB7687758B7898A96AA87788
col07:   4474655426644497867696996A688696769966C7B596883A795977BA85896879797A9788A88AD797
col08:   64567566367344575673743956796A55B77859766595A9599945797887A7AA6777C76798777989B6
col09:   4965751415785567455766866878B886877897B7BB9897599CC576A8AA89B8A68B97AB97777C99E5
col10:   6643772553833345495878876368A6888CA896899988677A89984B697477496CAA986B5B79A866A8
col11:   52165755324B763774387A639A67A6797B87988657577CAC8899A68D87A79C795669896A58973A96
col12:   556589736839554975944669976667999A78896686A9A86A65A66A76598896E67C7BB97A779897A8
col13:   855645153384646A67775765A849656698BAAAD7AC796B97A9A78A897BB8A7B86ABB7AB9C5B88A9C
col14:   574323556A872A476445886353578B79678A79869A56A8886AC9B957BB889C748B69B696873798F8
col15:   67675839856558497A24A38889838584AA76779B9935BACC7BADACB9898A8569AA8889AA79869A86
col16:   75875487366473745A587988788A99988655B99AB8BB8A678C878A8B86983B96A98E8AA89B76BAB8
col17:   9335766767A61786854B3771786798982877968A69A8AA9D669997B8BC638A776AA657C986BB9B98
col18:   353368933768C7A7999659AA895A5598C678966AA78A4AC8996B6ABA797A979A7ABCB7E798A8E9CC
col19:   679566221947367669876549677875C77A98378AA5B758A9C8869B97AB99B9B7CB6AB79ACB877999
col20:   7484654366B89655B799A873A8A878A79AAA86A5BAC6B8A9A956A8AA387A9A9A7C69899B8C659AB8
col21:   7547168674C565776B793AA67B796C9A9BB8898BC97D89889AAB9999CC97BB99CBAAEAE8C7B87985
col22:   38698875577A565664576469C97AC78869659588CDA859C69B6789D78BA787B989ADD9798AA9CB56
col23:   565846686663675AB5A57599956B978B9877A76A2D979A99A87794A98BC7689A69CAABBDABB75597
col24:   49A764676687B36876A98B58859998889888B7CA76BC979A8BBACB9BC899999A99CAA998ABBA8655
col25:   74556877685668876A59874997933988A69BA8A9499DACCB9DB97AA9CABAAD9A99D9AA8799A6CAAB
col26:   A887678886AA76CBBA96B69CA9B89A979A9DCFACA8CCAA9BAC85B9BACABBDDDBDB99ABD7E8E7ABEC
col27:   87357876627DA8B87A7BAAB888AC5ACBCAB999B89AC9CCC6CCB988DCACBB9AB79ADDB88AFC8C8BAA
col28:   4575AA8975BA8C7C78B498C59889A8C9DCA9BADC9BAABADCBCDDADDFFCCBA9DCDDAACAADC9A8ABD9
col29:   9A9679D9555687BA67A87A9CD96A69ABB9AD9F6A8DC597DE99796CEBFBAB899EB8599ADBABDD699C
col30:   975A4747D688BAAAC7BB9A8879B5AACAAD9BABD8A9C8DCBABBDAACCEED898DDBCB9A96CC7A8C89DA
col31:   8BA985BB48BB775CBB7B8BD6866AA9DBBA8DAEDACCBA897CDCCE9BDABDD8CC9B89DDDCBB9BA98C7A
col32:   A8897898B8A6CACBAB8BBAD6BDA8B9C9B8B9DDBBBBACCCC9CAECACC9CFCBCBCFF9C8FACABCBC9ACB
col33:   999999CB4A6999998BA9CCA9988C9E9DACEDE9C8DBABBCAABCCAC9BDABC9D8DEDF8ACB9B9ABBADDA
col34:   98A77BA78AB99597CC69B5ADBBABBDCD8EECCEADCAACCFDDDACBCFCEBFECECEAABD9BBCDB8AAF9DA
col35:   6B9B78788998A9BDB69A698899DBAADA8CA99BCBDAC99ABAEBBD7DDBFD8ABAAD9DACDCABDBCBAADC
col36:   776D9CB98BB777B9ABB7B8A6DDDAABCBBCB7BAAABEF7ECAFBCECBDCDEBBD9FFACABBBBDBA8CACFBA
col37:   8C76988BA98A899ABAA9AABA9BCAA99B79BDCDADACEF9CCCDC9F8A8DCDADBC9CCACBC9CBAC9FBDBA
col38:   B9D7B7AAAAB9855ACBCC8ACFEAD9DAEEECAEBCCBBCBCCA9DEECCADDBDBB9FECBADCDCBE9DDBACDAA
col39:   CAA6759CB5A949AAACCAB9B9BCE8AA8EDD9CC8DDDDE99ACCADF9CEEFBDDAFDCCBCD8BCDDCCCBFA8A
col40:   9BACBBBBBB8CAC8CAACDB8EACBBCBCAFDCADCDCDCBFDFCBFCEAC8BDCFBCDACCDCE9C99ECEEDBCD9C
col41:   B99B9A67B6ABA5ABCBBCAB9979C8FAC9DFCCBDBDCACCAFDAEEFEDFACA9CB9DACBBDEB9DACA8C6EB9
col42:   BB67C77BDA8BAF98DCE9B8AFDCA7BBEBBFCECBCFEBACDDAFCCBCEE9DCDF8CFBCEE99DAAACBADADAC
col43:   CA9B99AB8CCFCADE8CBEDCBA9DFBCCDB9AFCDBADBDBFFBABDEBDDEBDEDDDBB9CEACDAE9ACBCDFBBD
col44:   DABADAC8CBB8BB8DDCAADAE9BCEBBBACBBBABDDDDDCADCECBA9CFEEDDFCDDFCDCEDDCEBBDBABDCDD
col45:   887BCA998ADA7BABDC6CAAEBDADCFCBB9D8F7DFBEDDEBDBDBDCBF8BBBFFDBDC9FA8FFDAE8BDBDFBA
col46:   7ABC8ACB78BB9CBFCABEBAD94B9ECDACEABDADCFECDBDDFDCD9CCFEBFFDCBAEE9DD8CBFADCCDBAEE
col47:   BCFBC88C7A8BC9B9D9DACEDBCABCDDCBBABEB9BDDC6CAAAEEFBEBDBBDCDFBDECEDCCBFCBCC9DFCCC
col48:   DA8CD8AD98E8C9BBDAAA7E8A7DAACDADECFAE8DBBDABDEDEEADDEDACBF8BFDDBFCDE9BDCDECCFFDA
col49:   ADBDA9B79C99BDFB9CABADDBA9DEBCCFD9DFCECCADBDFCCCBFFBCF8EEDBBDECCAECBFAACACECCDCC
col50:   B99D5AAA8BAA9CCAAAA8CDE4CDBDBDCDCBF9DFE9EBFB7ACAADCCFFACFDDFECDEEFBCFDDAEEDBBADC
col51:   6A969898A4B98BA8AA99B99C9EDACBAB5A9ACFCBC99EDCC9DBC7FD8ACA99BBCCBABA7DCBBCC8AA9A
ROC:     BPix_BmO_SEC4_LYR3_LDR9F_MOD3_ROC8
col00:   75C6AD86C6AAF95CD99BBCA8B699AAD87CBBB7DA8ADB6CC9C98CA87CA8AABA8BC8B88A94A795A675
col01:   593AF7D999BC6AA979CBAECAABCA8D9ABDDACBDBFADBA8ECB77E899FCB9BEDDC9AAAA9D89C9895B7
col02:   A9CCAC77DCACAAD79B98ABEACB8DAA97ACC86E8D8F86ABB9CD99A7B8BB9DE498BCCC66A96667A89C
col03:   C94B8668CC69BBEADA98B9BBBBD9897AEAEDCDD9FAA9CB9DBFA9ABE8AAAB7CCBB9D5A9DA81A6C867
col04:   B8988A9AD98A8AEBAAB7AABBAFDCEBAE7EBDCAC8BA9DEB9CB5B5BADBCC8BAB767556FCA89CDB7769
col05:   BA56AFA9AB7BDACADDCA7BA9ADCC8AA9C9A987FCC7AB8AEADCBBB9A996CD8AB8B8BA68BB595DCB98
col06:   B97BBB8BA9A9AABBCBAEDAACDA77BEACCBBADD988DAADEEDBA87CB9BE8D9ECE8BA976769A8A9B998
col07:   B4A5C9884A8998A9CA9C75B7BCC8F9BBAAAC7889CAC7DD887ADBAB9AD9A8989A8C6999788C7386B7
col08:   B969AEB7C7A85A9D7ABCBC87CB9AB9EAABBBBE9948AAB9DCBACA99B8AA48D7B8C6AA8B6979C68BB7
col09:   DA698A4BB8D8A9859E78BA9BCDDB98E9ACAA7ACCDABCEAF9B9A9CDDCDBCADBD59A3968D754989577
col10:   A775BADAC67C87AAAAABA89BC8EAB8CACBAF9E66B8BB9ABCB9C6B87BECD9B8B9EADBCB579A9BFABA
col11:   745A9989A49C9B69EABAAC79AB586AC9BA6AAE8A9B89BABCCDAACAB6ABD95C5AA59C6B47CD577A91
col12:   8ABA96AAA76ABA9BB8BC698CDC5AABB8ECAB8CCABBCCD88C9BE8B79C9CA9D8D597BC9677B5AA699A
col13:   E868AA8A8BABAACAFABB6C9AAB9995CDA97DAB9ABBEAAC78A89BCD9ABBBBA6ACB9BA9AD97A976987
col14:   9AA67898ABB8AD7C7997ACC9D96A9DC8DAA9A99C9EA9ACCAAC9CCA79EBCCAAA755467D98B457AAA5
col15:   9BCC98B8C88879CAE5A7CBADAC7EAA9CBB889EAEE7C9CBCCB9ACAC9BBBD9CACCCB4A878989589962
col16:   DB8A89DB59AB89C8ACBC7B899CDCAA99A9FCC7C8FBCCB9AA9EADD9658AAEAAEA9877C889788A9997
col17:   767517D577789A849798A97698AB7948B3ABEBC96B6A78DABC88ACD8A9CCDA99AA4CAC99A7357847
col18:   68B8AA8AA755C73CAC9789BDB89E99C9EBAA9B869CE6C9889FDB9869A86B9B96B87969929794ABA8
col19:   FA9A979A97A78A979A47AC96A7D9C8B6978BFBBEC68B9D8D98BCCCCCBBACA8C9AAAAA59837976AA9
col20:   B68CA86A94C86A77ACAD76BA9876CBACD98BCABDCCAC785DC77AB89D9DCC8CA47977985AC8A9B798
col21:   99CBB986C5AAABAACB5CAAABE7A976C9AB7BAAA8CA8A87C7BD9B7A8AB67BB88CBC69665965946A65
col22:   697A79A986C8BCB9CB7A98ADA9E7BCDAA7ACBAD8AA9F88B978978979BB98998AA9C75C957B9A6587
col23:   AA57B9E6577B699A665B679C739AAC48B4A99A8899B68CAA95A7CBA8997AB558CB8188B656175498
col24:   CDB869867BA756DA8B8BBAA8C9BAC997AA9969B8BA9DADC8A89CABA9AAA8AA577A7986896A87758A
col25:   9C59AC89977867AA99B9688BCBA5978688BA8694BA85C7B8BA58788A79C899A58A48A7B576A77746
col26:   79C57B99CAB9AA9887EABC9BCCA8A99D99BADA9CDDABD798D8CB8E96E898B96DB6B77C499883C8C8
col27:   8DB98C6AA97B95C9DAA89A77C998BBD9DBD9989698E9E6688E89CCECBADC58A883738B8A75479666
col28:   A8D8E9AAB87CB7CE8A9BAA9CBB9DFA999CABCFA89FD8BAAA8A9EC96CADC9AB8788A8A659695AB23A
col29:   6A6A78BA5D9EC9BEFBD799DBBA98A979AC8E8AAAF978B99AAACA9A9ABD9579ABB9889731658B8482
col30:   D589B98886BAD8BACBE8BDABCC8C9BF6BAA9B98BEC9977ADC98A9BB89BEAD79779B67A59667388C5
col31:   ABA99A69A8D8BAFCB8E9BEA797CDB8B59999CB99CB9A97B98B779BB998799AD95A8AAC96399A4A14
col32:   95B8B88BADBBBBB9C9ADA79ACCCCB9CCBAFBCEBEDABA9CD6A7AC7FACA7A699AC984B64497D667869
col33:   BBBAA78AD9A776BBCA9DBF97A9E9B9A97C9A996D85A998A7CACCC8BD489ABEA76D98C9B8BB44B563
col34:   A9ABD8BBC6E9D79CBC998BCAAC8CEBEBD5CCBCC9CCDCBBD8D96C89E85B96AAB6997896A8A66A8686
col35:   59BF9D5BEB9C3BBBB6A7BDBCFA98BAA9BB6CA9AACB89A8C8988999AB8AD977CB7BA9C68559685455
col36:   FC86A887A979B868BBDCA38CBA9EACBCAECCEB9D5BA7A9DAABC7AB499CA976CAA7A8689737378869
col37:   8CB7AA6B9794A98B9B7C89ACAA9A9DCDAB9AABB8C9C776DAB9C995955A8B86889978957D7B776554
col38:   AE5AEA7BAE7DC9BBCABA98997AA9BA9ACFFB7F3BA8A8A9ACFADBB6FEBB879898378A769935459888
col39:   A8989775F7C9B9ABE554B9CD85D9EB7CDB8A9B8AD9C9CC7B7A8CA59AB6AE98B9879844555553B915
col40:   D6BB79FF89A8B7BBA8BCB9EA8DBA9DBEB9B9AC87BF97BA8AAA988B88AACDC787C777477846669854
col41:   94BA6DAA8A7BAB7C84CB6895B9FBED99A6C6CCA95985A88BB893BEBA9A8C98868A1A6B45A2363375
col42:   ABDB7ABB69857A9CCB99B88B996896ABD9EE8E6AC778976DA8BA8C99798B79799B98A99998B65795
col43:   BBC7EAA6B465BA486776DBB8DA88A7A8C99973B7B978CBA96799AE897BC59789CEA7836763981471
col44:   89AC6877C89CCA78A66ACBC9B975AD95B4FBAEB99CD8DADD69BBAA94AA299687A9E884CDA4646C39
col45:   979663598BAB397978949A778B9CA9B999887B598EB99AB6565AA86C87A887A41875858485933675
col46:   87C8988778766A9898B9DA87ABDADB99D89CBA99B878793A7DBB9B8CA8A979947765746598676685
col47:   7B98997A977DCAAB5CAD998A6B7DC79943AA9979A79AA87CAAA68AABA97A98B9AB87A295465468A1
col48:   B85A78A868AA99ABDADADA77F99BCA7E6896DC7A6996978696676468A1AABC577475565386A81764
col49:   8B27896284587A6B7AD45A959CAAC8F78E43169AB23999967365753A68988DA86717255348C33631
col50:   787978C687AE96A378B9A996BB966A89AAA9AEA7D3C88784CB5A586B937976A5468878899E644324
col51:   59778884C4C6187677854892B8178756859558D54938477689868A47861795443492843455373221
ROC:     BPix_BmO_SEC4_LYR3_LDR9F_MOD3_ROC9
col00:   27248366145152578475712836724648383668576597574B945786656887A6772AB6666C31361421
col01:   233314368663925438946776744A77967376539684576479885B87AA7A674648759869944A2978A6
col02:   14126644172963A69122365269B52AB2984647A5787419657266775877A7A79B168434969645A615
col03:   94352135539644477623744777655767773679689AA554CA7889878A8B966D86C8675A9688952942
col04:   215211852519431794735723C68874C56B5588556A393588656888868598568B9799954886659781
col05:   352756463767731858242485434469A774485A854B47547886496B68448AA4A47A658777A6855595
col06:   414311116844273752625765882C7486996669768767667966989777A46C576A8788998689329778
col07:   64273816535385B5B8345936A796867A779A7657677AB79787675A2A972876B86194A58B5986A9B5
col08:   4516267143863569255444A5B75576A35A8AABB8CB67849A967564678A978736A6454797575AC763
col09:   33656634343424A8655689426A457267879A9775B879598686A6A6529A9667A8785656B349854327
col10:   1758576527133A8894195756771668A77689578B585C586377488637938778779697655757877867
col11:   74746973451851788567473AD8A7AAB7589786686736584AB747B87957AB6967674776668775AA58
col12:   7833336732431787846865885566548A568926887975945775698899784775399486852657887744
col13:   326276394144A594972619A587676987AA6868887577575A896A896899A467873567B99515977874
col14:   73365398448553856987969786349A68A6A78987A75687C8868B947676AE59AB378578571469A757
col15:   5463451346675584775118864A7A768595998887777879B886A595597697578AD7847A688694832A
col16:   5366562866612528481733489D8859A4A858595796975B67D696768A5A87899987416C8725466975
col17:   4247654546242879775629635968897676A687A97889583769767285897878668764889667274733
col18:   3739555314133574877659564B65BB873A9999A98A8837A89B96A7C9AD99B4673A585B4859A257A4
col19:   25441A289858765926433A7486558A87ABA984B888A79969A8783788BA8B74668A68B6A694597984
col20:   63153635A54364244658687881675674987896964A57A9664C9887AA7A6A4683959677665876A933
col21:   55362764A6A767765565778746654463998A97575A7AAC6979A559A87769B8796D48897967957414
col22:   86465348254872945866549486337B867779AA5497699388B9969B4877A7A9839691B57487B15754
col23:   465A2B44A766285698766788659858794917A876A9638AA73B6843547419643165474334A3887214
col24:   64846566A48458774586577A58B547AA84876968A89A758996BDC75695789967776A6769B3896899
col25:   3615549455858646A6449766AB9367498A5878AC88AAAB95899771568FA677B48BA9848A67567C59
col26:   2869736528876679795A7BAB6998B88799A8A6C8787A9A67B8ABAA8A77AAA8757A8EC78C7977A747
col27:   74648589625A685A9B16A3A69AB467E6B96D8A9BBA997898A9683A6486BA884AA588BC7589597848
col28:   59698864A7658A8FAB566A8AACAAA8D8C87ADAD99BB8BAB8AA967D9A96C8C99798BBCB69547B9857
col29:   A657878995597A9CA96C8588B8575D99AA4ABAAEC76AB8B698AAD5B84A8BC8989A798876879A77A9
col30:   84378653878858A887C976A847A7998899789A8D84BBBAA999A989BBA978B99CCAA8A9B698BA5AA5
col31:   595A98A9968848A896A658CB98888BABBB9C9BC789C9887AA8A9657BBC9AC5A6AABA553B88459773
col32:   9468657B658869999A9A5B669A7768A798D9A9CC7DD9BDBBC99DA68DBBDAD9BB7AB38A87795946DD
col33:   3557B6974638B8978C883B699786AE8ABCE7E9A5CACCBB6BDDB9DCB9BAB768D8B489998979679767
col34:   3735A8988AAABAA8B7988889AACC7ABD7C9C9B9ACBA8599A6B8CBC768598BFDEA997A695A9869779
col35:   5825A53AA8389BAAC878BA589679A7B99BB679CCB9D9B8DFD7A9AACF8AACB9A88A968B48A8A4B68A
col36:   8AA97886F48D9D9859798A89B8BC98A97CADCA68CAA9EB9B8987B8ACC9789956A87BCB476879C559
col37:   67658CA7C868DAC86597A6999C7C97B86CAEFF9A8868EDB7BA967E7A8D86B9A8AB7C9DB9E278ABC9
col38:   8996897877C8978D99A898BAC989AABA89679CC9CDC9AA9999BBCBACBAA9B689D99A88DAA58B7E79
col39:   7A87889A836C65D68A8569A8CEAA7B69CECA79C8D8CD77A8BA98DD8BA8A8AA8A6856788898257948
col40:   A9935A9979788BCB88A8EAA7C8DBBDA9AA9EBA79BCC6DAC8998859BEAA7A9A99A7B6C68687769947
col41:   9B497B47957769A8988CB999798BABA6AFCAFABCAA9CAC89CC989CBA8ACA9889AA6C997AEAC7A897
col42:   9AA6998C776A66C8A8785995BA97B69C8B78ED9ABD89DEC76BCBB8DB988BB4CAAB98A975A9B978B7
col43:   3AABC978A99A8BBBA9AC8ADD8DCBA8A8A89ACEA9DB98BAEA7A9A98AD9ABB8B76BBCBDC7DEAD79A77
col44:   8897967D949BD79AD8A96B98E999AA8DEDBBBEBEC7BAAA99ABA99ACDCACDBC8DABAB86868C486A8A
col45:   A86594989BA88ADFD8A798AB8CDBB9C98DD9DBA98AB76AEA97BB8ADDBB9EA899A8579A68ABA7B866
col46:   ABB8769869A9BCB9EAD89A7A7AE9BBBECBB5DAB97A998A98CA6AB59AA8ABC9AEBACA9987BC7A749B
col47:   AB947885775B985B8A9695B85B788BACAA8A9ED8CBB9A9DB9A8DB9DB9ABBEB5BDC7C9638C984397B
col48:   C86AAAE8AA6D8899AFCB7A9ACEDDDBD8BB8BEBCADD89DEBD9CBBCDA8ABA778A99BABA5859A6A8DBB
col49:   8985899A89A98A9CAABD979A7C7ABBB9AAA9BDAE7ADE7B8EA99BAC9DA9D7AD79CB96CA78869A5986
col50:   7469AB76C9C96BEBBB9C9B9DABBABAAABDF9BA9BAACBB77B8B99BC8BBCCBDA69B799CEBA9999BBAA
col51:   963786996976898B689A54A9AB789ABC987A8D9A8A5A49BAC49684899B89778A9B5B87B481A656AA
ROC:     BPix_BmO_SEC4_LYR3_LDR9F_MOD3_ROC10
col00:   151555624146572275145A87638A5746368784A8387737798669938878798758786495757C779886
col01:   438577773B51867C66556AA928AA7776E887BA66A9889B899A6594866648BCA778A6888A695A7656
col02:   77A244461A8A64468A5785A6683B958499A6B5999979989A99AB8888C79AC9879487C77A89878A86
col03:   A375884855775654897B27AA669947CA6788687888C996DB95799759788758965B43A98884887A77
col04:   77477785473377568875777939AA97968A89787AA579CB8699A89B6C9889A79ABAAA6D46B92A7478
col05:   84366A656C48694669149957B694759AAB754BA855AA46965C7A955877876976999A9A4A88685887
col06:   76888656A9475969776569788A78769B5CA99D65A3A1969988945A8566C73DAA87AB67775A48C485
col07:   9849A44978A85788686B59848888B99A7BA58987B8978A9A98A6999CBABA9B66A997868A9AAAB4D5
col08:   8758A58527678698C7A68666795795B999A768A9A99AA8D989AB7579799B98B7AB9497BA99999659
col09:   7964365964787A98D978A895AA97A954A877988A89B7778A7C59B97A7EB82B9877D8557667956A8A
col10:   26739689756538A68464A5589976495A67968B8889A8A67BABB67B7B79992CA889A8469576983699
col11:   7367736566A58B8B58A7799467A76B6D88B8BA788988967673BB6B57997BA9AA68A989AB665AAA78
col12:   64469657658665977437598888987AB88B9989997A767787877944C87B899B78886678A9A7959584
col13:   575776A948A586996565BA7CC768A8A7887CC5C69989977B89BAAB9AACCDA6785E77A36989B45C49
col14:   87993668846589622326878798A8B88B7B79879768C7CBA97AB8E6B9AB9B87B9B8968B6667685C77
col15:   994141368A958A76A69976CB8A96486D9ABD68ADA9AA5979A786A99B9575AA87D87BF789AA9DA8A5
col16:   86895735658A86A7657659682A967AB9699DB9B98ABB8C898D9B58979D988B8CE69A879976864862
col17:   576599A6A7616772AC998789A89BA89C758AC67C5A889AD6687789B8898C865D8549BB6779482B7A
col18:   856A4787757697776753AC79748878A88C98757B9779695AC7587B8B9BA8DB8778B7838768C87778
col19:   A767744918B4796C96556A768C98C88B78799697BBACBD9A8C7CD8989C8689C996A99738889A7678
col20:   752569B888467987A296791AAC56783A6A67BB699A98687987C3A99977A5999C9C67ACA8A86C776A
col21:   A679866676478779ABA896AACA9DA99BC88A9ACA98989B87B989C6967A8A9D98A44387B887AA8368
col22:   5565A77A7B784777798A6C6A876B4B868A86B68A9DABB88B779997979ABC7AC7B995A968D97AA873
col23:   46369878A4448675C676A73768B98B869A87A889C778A58855BCA4965AB797C489A5A98995935597
col24:   95589657259C4A59757A7958B774785BA586A46996588C88876A9AD967AB7AB97579786BA9769897
col25:   8B5669867C76A6679C88AA788A68A9997898C87BCBA9B98DC8968B6CCB666B6ACD9C857D896A985A
col26:   37A9498AA9C9B8A9A8CB98588C9C88A8B99BCAAD785CA9AA9DB9888B9796989BB6A8D97CD8A5C698
col27:   8847ADA8E73997978B87767B6A6897DACAB96CB96DBB7D6CA698AB6D979A897776CACB9BA599975A
col28:   548BA4697A9B7AA676B7A8889E4C99EDCBAAD8C6DDB88A898766668AF988CC9DCCACC59BABAB7958
col29:   B67A6B988A869CC957BDAA9B98AAC9EFA98CDAAB8ACCC8C9B7BCD879AA7C98A9D8997998BA848B99
col30:   8888687C9579A889B89B9BC58A8BA7A7AAA89B97ABBCB8CB7A7CCCADC8CCBA7A8A6A99677B666B73
col31:   B994957CBC788C9889ACB699BB6978DBCEA8CBCC8C9AAAF7CBBBD7ABB7C7CE48BAEBC888B6ACA798
col32:   B88779998996ABB9CAA99787A8CEADBB9BD9CCF8B9C7CAAEBAEAA9D8F9DA9B88CAAACAC98AA88C86
col33:   98735998AAA89899DCC97AAFABCB99C57D77ACA9DCA9BECAD9FAB99FD79BD7C6E97AAA6BC49A89D8
col34:   6AA739BA9A7757BEC9A89BD88A7A9CCBBBCB7DCA8ACFAAABFA9CBAABA9B9AC6A7B9A8AC78C9BAA99
col35:   AACAA8ACB8E98B9ABB8ACECB8AC8ED9957ABDAEDABAAAB87CA8B68C99A7A9C856AC67DDAB99B9CA4
col36:   86B5B7A9CA986BAB77CA79C8999CCBB9BABB8ABC9CDAACEC9995CA9C9BA6BDA988989974EAA77896
col37:   54754579A978C9BADBA8799D8AB99C8BAA8CBAC99C9B9B7BA8C9A96AF49AAA9DB6B9799EBB6AA49C
col38:   99A79BDBBB978EDEFA9A7BAB9C9ECCCAEADC89BBAFADDADBBACFA8979CED9CAB89C5FC9A9DAAACA7
col39:   8B97BFD889C9979A88ADA7C9A9C8DCDABEBD99E9D7787B8BAD9FB99BCABAB8D7979BC99AAAA86C79
col40:   97AC6ACC8A88A9DCCC9DCBADCCFC8BBEDECA9A9EBCCB8CDD8FDB7A58AC6DA9CB5B98ACA9AB89B7B9
col41:   88A7AAAA9DABBBAEBAA5ECFD8BA8BDBBABBB886BC88BBAA9ADB79DF98A4ACA8A9865DB8AB997E658
col42:   CA7ABAB898A77B9DCBEAAE7D9B98CCC9ACAAA9AADCBAAFAECF9AC9EAB99D9B6A99A995AA89894878
col43:   ABCDB9B88B8ACA7DC99CCB7AA998CDBCD9CADAD6BCBDFE7CDCC9B6ADB88CAE9DAC98AC9ADB7CB756
col44:   B8C8BBB96BCBBAD8E9CCCCCCCA89AAACCBBFBEA9CA97CACACE94A8AB8D9EACD8AB9AB978BBAA59B7
col45:   88998D9B8AAA8A9B99C998CB68CB9C9A9D9D9C8899BFEDA9B9BDBA9CB97A9ADCC885A4AC9CA778A8
col46:   3A4D77B86A499BC7CBC879CD7788BACBAACEBBF9C9CCA9BC94CCD8CAAA7C7898A9A8ABAA38997D88
col47:   B69A4D8BBDABA97A886DDCDB8EBCBDB9BACDCD8BD9ACA9ADBBF88C989C8BAC98A999AC6D8AB66CB7
col48:   7AA7A587B7AECA98979DB7AAA9ECBCBBDA9A9ABB8F9DA7AAABCE9BABAB3AABA7869C848ABABBE8A8
col49:   CCB5AAAA87C8CE8A98A8C74AA89CDAE8C7DDB8AA9BA88EC86BDBB8AEBBCA8F9A79D5A769A8BDA6A6
col50:   879BBCB8A7889ABBEBAC9997B8CACBAACB9897DBBBAABEEC9879CACB9AAE7D999DA9878D8CBAAA68
col51:   98678A98A598CAB89A86BB96B6B68BC888BAA9E9A967BBBB9A79B56AA9A9888AA74A9C997A5798B5
ROC:     BPix_BmO_SEC4_LYR3_LDR9F_MOD3_ROC11
col00:   43949741A82487255576683396B88543C87667759B649B767A688779B49B678A95A71826458CA368
col01:   46735888568B9899A877959697A93BC89B68C698BA7CA9457CA89A8D7CBBAAAB6B7A968C695CB895
col02:   953579594686CAA9648A997B9BBA8C8B9888BB8BB466A687AA8859569C999ABBA577A9AC6A9647C9
col03:   8768799A869FC498778AABA6C9896A65BA986BAB7BA889AC8A9BCA16A89B8CBB8B97579388788345
col04:   857958786596A46C969767B7868BB9379559B89BA64A8B8ACA4B88A9A865C99AFB77A76B565A89AA
col05:   A84986A7575A9C794A9788697B999AC5D69C1A66A8959ABAAC95D6B8B767D6979A798A78C9688B8C
col06:   5967366866767B776756585996986CA88788759C9AA8B9AB9A986DE6B9BA177969D9C6AA5C75A767
col07:   3AA8873AB5BAA78A559A8B7AB88989AAD8B7C9DA6A9AC8BAAA7A79A89BADE96DD6969836D9856887
col08:   7478576AC4A7CB94969ABAB7AA858A8AB898BA999ABA7CBE7A59C267B9999B8BC867989665996A48
col09:   95A86524B5A9898875A7A9968ABA5BC898D9AB9D9DC9BBA85986ADA97479687A88B56D46688675A4
col10:   887616649577766B9AAAA5B8769779BBA8CB69B867D888A9888CA883B99ADA8A9AA9A896B962C744
col11:   B4A797859AA7588775C56769AB69D99897A7A7B8B886979BEAAC88ABC6A7CDBBB79AB58947A98786
col12:   6577947775A48AC5756746A995A8BA8E9978CB7B787A9989B88A89888BB7A9C934B5954A8659B867
col13:   665957A87B4985CB4C77A9EDA59A5B6A6A787CECBE7BB29B87ACA96AD797887976BCC8AA68895877
col14:   5A84C45596697A856856A9ACD86B85A9686F97A789B8A8A79CC765CA9B8C9CA989FB1A647B683C5C
col15:   C975B8968878879998959958757AB99A888B98B96997CE5C8B5889778A888D888CB6A66B779B6BCA
col16:   A984AA59686356898B67AABBC685F5877A9A8BB9579B78A7C9B7DBB5B8B9396BBC96A796887A5675
col17:   6448888A64DAAA6CB5BA77A4AB876B7EB5996B697B8A9CA9A59CC5C7D7AAB97B79AD76838A779596
col18:   88625699986469995BA788889B89988999ABC7A9AA9A897D8A8A989A7CAC96695AA99466AC9B547A
col19:   A79A5B857A9A87C877A78C9CCA6AD999A8A9967B8B99878A99A6A5A5AB6AB79B7BA79C899C8AA456
col20:   6757BB9A95B65B795C3FBB8BA986ABAB5B6AA858A8787999C6897A69CA794AC76879895A69A94B98
col21:   97678A6C8C97A7C9999C89B9EAB8AAAB989BCCA88C95A7A96CC8949B6A95B859AC8C878C69B8D8C6
col22:   6865496A5A788558C98B785CAB7AC8ACCD8B6DBBBA8A979ABAF8888B7A498A37589A77A799A69376
col23:   59487466779AB9B846ABB8A86CD888A968A87ABB8986799958CB87A7AAA978A778A5749A7A895995
col24:   896846AA95A9A57C89A885CEA7785D3B47BAB88DB69879C9A68BAAC76AAC7B3684596AA877967495
col25:   7656A98B669BABAD9A7CAB65787AA4A88DA8CA8AABBBC99E67C98B599BAAB96AC588A9AD995857BB
col26:   867778899D87C999CA7C7C8CEC9599ADEB98CEC6B9ACACCA966CDA6ACBC9797C7A8D5BD9668AA868
col27:   C9AB8BC888ABACCB89BBA97C7BCDA7CBBBBABECABADB9ADBB8DBA7ACBCAAC6EB869DAA9A787A99B6
col28:   A9BB9C9B889788BB9AA9CAE9AAACAABF997CC78A9A2C9BCB9EA998F9E997BBA8A9876998F66999B8
col29:   BB99A88ABC9797C979CBCADDAD9CCAFABAB76EED8EAB8C6AA8DBB988B96BA867D999DBBCC369A999
col30:   89A76BA9BACAABAB97B8EAA9A7978DE9AC8EC9ABBBFCADA89C9E7DA8C1ACACC97A66EC57AB969DC9
col31:   BD89BADAAABD89CCC47CCA9FD9ECFBBACEC89CA8C5C8BCCD9BBCEFC9CBAEDAB8E9D8DD9D8AEEA8B9
col32:   D6DBD7798A9BB6C9C8BC7AAABAD9FFB7DD9FDACCB5CDDDBBD8EC9A9EC7BCCBBBDB99EB8A8BBBBC81
col33:   7A79CB89ACA9C9ADD7EBBC988DAB8BACCAEACDDEAF7CDDBA8F7EDBB878A8AD869CBDD667CB6A9E99
col34:   B98DE98CA8EBBE96ADAEA6DACC99DE9BF9ECDCAFCAECDC9899DD8EADFCDAFBCBCCCD5A76EBBEAB9C
col35:   69D979FB9B49EC78ECDFAFB9BAAAFCCD9EFACBBCCAAAADAC9AC9DC8B9DAFECDCAD6D8CBCBC9EA795
col36:   A6AC79BAABBEB9CC7B9AABF8CD99BAACECFEDC8AFA9A8B87AC8E8DADF9A7FBCFB9CAABABB88C9A7C
col37:   A68DBBC5ACC9A8DADABBCCADB98BDBDBFC8BCDDFC8BCEBD7FAFEADBBDB9EACACD9AA7AEADBACA8DA
col38:   DA7CCACDD8E8DEBEBB7ABCDD8DB9DCFEAACCBEDDAD9A8BEFCFEC9BBCCDB9C9BCCCCE8B6ABDABB699
col39:   A75AACA7DABCAECACDAD7CAC9FBEECD8ACCECDACAECFAADBDFDDEEDCFCCAFE8CA99B6B9BBB998BB8
col40:   DBACD9B9CCC9DFCBEBBBCCFCAB9ACCCDBBCBBCEEDEBFACEECACDDB9CBABFBAFDDB78CDEBAADF8C8B
col41:   7CCE9A99DE9AAEAEE9CCACEFDAA8CBABBBFDDFCBDAADFD9CC9DEBAC9BFCAB998E9DDAEBBACABDA83
col42:   58C88DCBDD888ADCBFDAEA8D9BCBBB9BDE8ACCCFEEEA7F84DDBEECAED9CBBBA7E9CDF9BABEC9DAAA
col43:   BBA9BCC9BACCBFF9BDFBABBFEACEAFCFAFDDCCCAFF9ACEFFCEDFDDBBCCFAFBE89CCF9BBEF9DF9BA9
col44:   8CCCBCFECBDECAECADFFACE8ACCF98BDF6B99EADAED8BDBDCBD99DACDCACC99DBBCBB8DD7B6DEDA7
col45:   DC9699AF99DCBFACCC9DEB98ACCFFBDDBBF9ADC9DFBCEEF9CCDECB7BBEFBAADD9AAB8AD9BBBCA6DA
col46:   CBAADA9EABCBDADA5D8C98AFDEEDEECA6ECFCACEFDCDBBFD8BDABEABBCFCBDDBEAEAFAE8DDABAA78
col47:   8DCBFDBBB9DBDB8AA8CC5EA8CBFFFAFF9FEBEEECDEEDCCCFDDDDEDDEBFDCE9EADCEDD8C9B9C5DBA8
col48:   DDBCA96BC7ECB7BAB9BDAEABEBE9BF9ACDE8EEEDD6FBAEDFCF9FFD9BCC9EEB9BFDCADBACED6CAAC4
col49:   E9CEBAB9CABDE9EE9EF9C9CBDCF9FDF9FBBC9EDFFABEFDBEFDBAABFBEEEFBEFECC9DCDBBFD7DF7A8
col50:   BD99F9BBED7B8BBEAAEADDDDC9ACFCBBCDDFECCBFEC8FDAFBADBBCB8CEEDEFFB89E7FDFBC99EDBBD
col51:   7C8BA5DBBA899ABB69CA8CABCAA89AABAAD9ABCACBB9EE7ECDAAEC886D79BE7D9ABAC9BAABA997CA
ROC:     BPix_BmO_SEC4_LYR3_LDR9F_MOD3_ROC12
col00:   9596466674884563896CA8B9787757C8785746977A74745249A78677795715756559672655617921
col01:   5956589978997C8754975898A9B7997AA8D69A868BB89E9DBA87777A9B9879999176A898537A6926
col02:   874A6876946587A6498A5CB7997ABA97A988A898B78A8B6A4AB866D4B89A75BA9816875434378452
col03:   53A7889577156B765496CC68A77C9777B7C5B87A9A898BC5C59A6B659779981785885B7653966676
col04:   1776768A1567878693778586887B88A8DA5799989CA74768CC9789BBB6867A8574A47547A1345445
col05:   389B7776877B5888A4A1988AAB87C896C79C79766B9894788722C9877996C8876471564488665529
col06:   57477949896796989E789B88EA68A669AB68B7CDB7AB9CBA8849B9A57E8598946866B85996A33442
col07:   9889889AB777B8B88898ACDCB7AB99B97BB998C78BB989A778BBBB6889689A767846B97B3A5A8467
col08:   495E779D2C859D8CA8788668C7CB398DCB7A9B8D8D6A7A988B9A8AA79886BC5B55C9867845A67671
col09:   6D3CB8B74A5ADAC99679AAC59A997A98957C65C9AC9A856777AA7C8BAA5AA5765276A955A65537A5
col10:   7C958985B786267869588B7A99929888878C9C8B4B5A7C96C9B9957896BB9A778B6A978596876A69
col11:   7879985AB6686A7DBB757CA5B6AAB7A988998CC9967686C7978898A9AA9BAA7A692A255594747978
col12:   8985C773997685889949A7BA787A9998E77D5A89B6A68D88AA8CA54B688C37746749A4B653A78642
col13:   B98AAB9A899679B768A5E55BAD6B9CCB9795F7AAC8BB978589AAAE75F8CCDB9A9994B87897977A93
col14:   9A66657768699B98B754897A77C8DB78869C9CB7AAC8AA9ACE799AA9AB689A73A865AA639A778186
col15:   886D89B786B7C89CB865A8A963E55C8BFC68B3BAAF9ADB69969BC8CB668A6BB56778A93BA7427776
col16:   9A5AB94885B6887797777A8469CB4EB79BAC7BACB99A997C7CA88A8AB8A8A9A5A8A67A9A9CBD7B7B
col17:   5687648ACA7A969AA99B57A779999B6BBA7A997C8A99877B87A7ABA987AB7776BC97788979646635
col18:   95968969858A76B7A878C99DB69BA899B94895768BB6B79867ABC7A889A99666867A6759A56765A8
col19:   A76A49768764A9E7A9788B29B6AA989679ABBBA7BAABB9E99B86A9A8BA7896A9553BAA8999547676
col20:   55B98A53B5798899A79A768A6BBCABC688A89D895B98A577AD989A9AB89C89B75947676737246676
col21:   6697ACC866B69A99ACA868AA5898886AA8DAA69BD8A76A7A8AB9A67C8D6D8CA75A69CB92968D7776
col22:   8879ACF57995CBABCBB8BB75ACA9BA7869A8AA69D9E778988AA9A99A7BA567ABB559A7A55688A859
col23:   C4799B5A778C7CBB5999C9ABCD499CA87B8D89CCB9AC9F9A988996989A86B78B75886A386BB35881
col24:   B99A59A86A87CAB8CCAAB9B8799976899C8B9FDB9948ACAB7B8CBE9AC9579B66A4785D67B56995B8
col25:   7A977A8A6BBB9BC8CA5DAD7B99CC94CFA8899BEA9C996B8D999A578DBBB89FB8DA798757D96857B3
col26:   A78BA79C6CEDB4BB8C9CBAD8BADBD9AC87ABD98BE899DA7C97E8AB9BBAEF77ABEB997B789967A876
col27:   B9A7894AB7BBA9969C7CAECC8C9CF9BEDC79CA7BCC976CBABF8ACC9CF79B6CB6A7C777A989D7898A
col28:   B8AA79EFA88ACEBB9A7A89AFAA8BBC8ADA7AADA9AE8B9D9DDC99858D9C9FAAD8A78BCAA9AC9BB678
col29:   AAA7AC89AD6CD8AAC99BB8CAC7CBDAA9DE9CA8CEABADCC8B7CBB9FAEB8B9EADB9BCB8C8BE999665B
col30:   A8BE8AB97D7C87BCDA997EABA9AB9CBBABDCC9868A6CBC899D4B7D7AADBEA59B9ABFA79B369AD986
col31:   ADD7BE6CBCBCB58D6EB9D9CBDCCEAED8DAFBDFEBDACCCB9CFBEAECACEACFBCB998AA99BDACBDBAA7
col32:   9C95BBCD8AFA9BBCCCCAB7DEEAE99B9DCAEEDFCB9CBEC5EDA9BABCBCEA5BCCE8BDDA9F9D9C2B978A
col33:   DAACCBCAEB79E8DB9BFCA6BBBBCDCF79DBDEEFBC5BACBFBBCDEEC7BC9ABCED5BDD9BCC6E89A9A2B9
col34:   ACCB69AA8C8889ACABECBBEDFBAA9ACDBDECDA89BA8ADDBBCBBAD8FA8FADA9CB7AC7EA97BCC9786B
col35:   CCD96F9A7B8A8CBEECD9BAABFBCA69BCCBEAF9CBBFBE9CCDBA9DCCDAFDDABEBCDB8E66BD9BD78AC6
col36:   BCCCBBDCEFACBCCBAC99E99B9DAAD97EA7EFE9CDFC9DABABBACBCCDBCBAD9AEBBE96ABCEAAABBA98
col37:   DDC9CF9F8C5BAEEDFA9A9CCFBB8CAD9BFBFCEBFFCCDCDDDCEADAED9ABC99C6B99C7CBDB989CBBCAC
col38:   EDB79DD8FBBDCDCDEEDABBFBD8BBABFCDCC9BDAB7EBAAA9CEDA6BABABDCCDCBECDAAB89CBB7AA8C9
col39:   7AABABBBB9999DEC9DAB7CCA7ADB9FBEABF9FBFBDBCAEACF9FECC9AABDBBDB689F9AD9C9A97889BB
col40:   ABDADBAA99BDA9ACBDE7DCC8BBFDCBDAD8ADBDADADBEBBAFCCFCAABBDBBBBD9CBE8B6AAFC867CC99
col41:   CAAEC98CCDC7D89FCBEAEBBCCFEDCACDDEBFFAB7FCCDF9FB8F9FBECDD7DECACDBF9DD9BA6BABCBC8
col42:   9AC8ABCEDABEACB9AC9ABD9AADEA9CDB9CABDADDFB9CDF9DF9DBBAFFEF9DCDD9CBDDBAC9897AB998
col43:   ECAA8BE9BBF9DAADECFDDBDEAFADEBBFDCBDDCDFCBDDF8DCDCFCDDFBDCFEBDAADAEBBCD79D9E76B9
col44:   D9AD9DAFEBACBA8F9D7BA9BDFABBCCACBBAFDFBFFDACBDEC8DCEDBD99BBFED9ADACBCCCDC675DAC7
col45:   CA79EDB9C8BECB9CE9ACABECABAEF7C9BCAEFCCCDDEBEFCEABDEDCCCCFDEFCACBACB8BAC96DD8A88
col46:   BA9A8EAC7BEBCCE899A86D9CFFDDBACBDABBCFEB89EADCCADFDDDCBED9C9B8ADC78AABF79ABDCAA7
col47:   DBEC8F9AAAAFEBECBEDE9ACEDBB89CE9EFECFEAD99EC7DEDDFBEACAEACFDB8BCCC7BFADCABCB7ACA
col48:   CB9DDCDE6A9FCCCD7ACBEEAEB9C9CCBFCD9EA9EFBC9BEFCCEFFECFDDDBBFA99B8CEBCA8AEA9C996A
col49:   BB9ACD8D9B8DACDEA9DCBEBCAFFAE9DEFCDACAEDB9DCEFDAF9DDFBFECCC9EFBAC8C9E9BFC69B9FFC
col50:   ADDCDBBEBAABCBBECEBF97DABD8FFEBAADBBFD9EF99FDDDCFDDAEAEBCFFDDD8ABABBFB8C6FAC7998
col51:   A9B7ABC7FADE98BBACB89C9ACAC79CAAE9BABCDB8CEABEDCAFAC6CB999CB8BA6CC6EB8A8C97B7C97
ROC:     BPix_BmO_SEC4_LYR3_LDR9F_MOD3_ROC13
col00:   94699A352645743648175678655456496384354A64644298451333227444376653652B1361216311
col01:   766579749A848677477736AA5897678466B8377AA397465985568236358747657372524396454471
col02:   68A26765B45993584954636524788B539857348649A8491547668859976574757485541672434393
col03:   65A879762558634886698839968778974747756588B7A799A369917985AA678A3967659836925626
col04:   6689B89579464589AB46959879968897977948596A543737888593197B7533699872449562445323
col05:   5767AA579868857858AB87983165448798738968697583865A668969B85896643815855741A25743
col06:   863759387756B95955A8276A69997637B8896968C8688973787478747557A4665756365385456154
col07:   95797859686A63699A9A758AB85596A5BA488884964A78B75873A676735896516537686377626664
col08:   685674644964598896475697C4A5388545778B87A567888A76291994794667662476935336576166
col09:   754B5C3864556899B79956AAB4953B56AAB898767AAA7654589956868599793B745745A987851852
col10:   966849989688A7374A67A3A576746A856A9557A686767AB2B779A658C9727B3477A5475533761533
col11:   8A7655868A8ACB67747CA474D6BAA665768788896955677753697868B3798479649157465A144246
col12:   986A95A8568BA665465559A6984567988689989578A67976993968796B987559AA7595652583A215
col13:   AB966A766A6989966457B95891693B4898685A7948796F48768786A497BA9975A475546673586566
col14:   9A37964A886769796AB458B8637996A8AA87577B796988977424576A8B97798777A5177747451584
col15:   81CC9A823298B5779B9B97BB679718B9978A8CC77759A5749B682735668558166745557681573236
col16:   5966944BB897575C8D55975B8C6889B98BA769A6B7C968888A98A449778848986A165AA316933612
col17:   8477583439977A898A7B3687796C867AA4B9B78878989C67988788697888957AA745974988869746
col18:   C4A3759357728684858383A86A9B8895A6848A38897559D38B74A458493A66796955564594353355
col19:   A7AA597A78AA8997A69B9A7ED77CAB56A9B999758ACA867956275876499B5973B864A98615723925
col20:   8676975487787B475789DAB8578364894679B7A7578794A87986648877B69786796356585A265C33
col21:   49C98997277674674799666765B896894A8995BA6955957A789A7A7899566697A296663776465654
col22:   7788A67877788769A9B6A69977C9767789A9BA87B8D78E976896A56699AA7988B855678561992284
col23:   7C7BC68A8A8A798B8D9AF98C4956798A9AA77DBAAA95A8A57686A8A39863599798662B4844675555
col24:   AD3A8A7997B69777CAA7A9A8887859B6B8AC77A77957ABAA99B6A776B77855876955765347C46173
col25:   75769868D8965A898C795BA98429A978B5A99DA67B65B4B8998576ABAAB65A489869969747747366
col26:   97B89978B8BDB6D89D87978D997ABA865A9B8AA8A769777E8AB98C5B99BB888A9848778386428632
col27:   768B88AB895CACDA9A8957BBB66CCB798CC69B9777CDDB7B89AABBA6EA69978A7A6756777589A533
col28:   799C7B9BC8B86DF96C96A99EA9B9D8A79D766CBC887BBDC99986BAAB8BBA6AB58B7989A97B896773
col29:   B8FB9CAB4AD88A98A858FDBC9A9DBA97EBD9ACAB79ABABA6D97AA97AC99B8CAA6873A81867665A22
col30:   589B796A7A9799AD9697CA8D76BD7C97ABC8DBB6DB7AA9B9B798C7989779CA68A9A7768B9C696857
col31:   B87D9B8B79A86CDBEBDCC79BB8C9B6CBAB9B998ECA7DABACE8A8DBAAC7BDD8486A759A9794366657
col32:   8C89A8CA8678B87C7A899D868DDA9FACAC8EC9FBB8DA98AB8968AC9AC6BE8A9AC95947B7485438A8
col33:   CACC5CD9A7AECD99987BBA9B76AB6BBBDAA9AB88F8B87A777D77BC89ABA77489A6B8A6497CAA9863
col34:   CA9A6CB88CABDDCBCAAFB8CD8BEA9FDABBECB7A8D8BCD96C99BABDAD98868BAA48987C8BA69A478B
col35:   9BB9F98CAB8EAC9BEBAD9AA98BCA3A7CDABBA7FAAC9B6A989AA5B7CD87DBAA99AE6894C5936A8946
col36:   AA9BFBDCABD9BEDCBABDBC7CDDBDA89AE7E9EAD9ACAABC98AAC9DB8CDAB655DA5777B956AB999797
col37:   87CA7B8AACBA9AC9869CBFAACDABBCA9ECABDAC8DCAF9BCCDEB9789A8FA9C9CAA899C988A8778767
col38:   AC7CD7D9ECBA8EAA9CCBCABEDBD898BCBB8B8A8EADCFCCBB97BCAA7CAF968B8B8B88AB54A63AC7B8
col39:   A868AADCA7B98DCBDBAD8CC9ACACCB9A9C769BC8E8995A6ABDCCADCACA9A999B899BC9ABC6788CAA
col40:   AAC9BECCB98ECAD8E8CBDBA9ED8D8CEDCBCA899BADBAAAC9AE9B7C8C6958A989AAAA8EAAA8A39C96
col41:   CA8DDBBACAABDEBBCD7AAB9CBD9BCAA8BAC7A9CDD9FFDAD8AADBA7D8EB9BDB8CAAD63987988A89A6
col42:   BB8ABEABFCC7DF9ACFEABCBEBB9CC9CDDD9BCABB9BAAD4CA89EBEA9CBDDCB9A9A7B8C8B7A36A6745
col43:   C9B8997FCECDCBFEBE8CBBCA9E5EDFBCCB9ADBBA6EAFFBAC9AE959CCBB9E999887AADCBDAE6E7957
col44:   6BBBA8DBDCBA9EADCEBEABCDACB9CCEB9DACDDEBA99A9AC979AD9CAC888CDCB69A5CCA97A9AB89A9
col45:   DC67D8BADDDBBADEADDEDECDFEEAEFCCCCBECAADCAD8CCBDBCDBAA89CBC8B88BDA968898A75CBAB6
col46:   BCCAEE8FBCACADC9AAAD99BF8ECA8E6DEDCFCCFBDC7CADEB889CCC8BC7AA898B968D8DB9A97A8DB8
col47:   BCC8EAABDCACBFBDDADDC9BFBFCCFAEAECDFBFBD8D8BCEDCCCE9C8AD9EB9A87B5995AEAD87868A98
col48:   ECFDF9FCFDACCBFD7D9CAACDE7BFACBCEDDEBCEEA9DECAADADA7ABAEAD9FAC9E86CC96CA789A8768
col49:   DBCFFE9DEDBAECBAACDDBCCFABBBECAFBDEDC9ECFACDCC89BF8D7D9CFB7FAEBFCACA98AA6988A77A
col50:   CCF8DECDEF9BBCADFFE8CCBEEEC8EBEACCAADEBBDEFDB9CBEBFBBBDBA9CBCDDCBD68A8C788A7B998
col51:   A5CBADBAB6A7E8AAC9AAA86EC9BCB89B589BDBA8AA8ACAB88A49A9ABA976BEC9A999A9AAA78B8C46
ROC:     BPix_BmO_SEC4_LYR3_LDR9F_MOD3_ROC14
col00:   78AB6A699677888A1568B769ABB96948BA8AA8948A787B8979C7797A993A78846857795259361647
col01:   1B936A885A397BB99BA66A8B7A99AB86B9E94B687B9B898B9B897A78799A7B89BBA6768387988779
col02:   698898889CB8CB7A4AA87A88BA6ACC5788EABB68578EB5DBB9BC67699D77A45B8D8748149A35A56A
col03:   74676B9D6AC76D877A9859769988A77A8CCAD69899BA8978C9A5D96658A697C689883285A3469A77
col04:   8C3679679BB75A6CCA6D8B9787877CA6A8B5AAAB9D9BDD789A98FA68DAB88796A987974998757B72
col05:   B9CA778E377BAC77CA63AB9997B8B79B4BAA6B7A9A8BA6C686795A695ABD89A589738456B79789A6
col06:   8678BA8A598667BCAABB78C7D9CA7BB85B8EE97A5936DC8659B92EA9C79C3A96B5A79866674CA853
col07:   AAA78C47556AB9879B966779C8634889796AC676AA86D697D2AAB87ACB5DBAA881459857AB8B1652
col08:   A8858B8B8C8A6D893A9B99C6CC87CBBAD7BB6BCA667D68B7ABA9794ACB9AA77DA89567E7C9591B72
col09:   84FAB65688898D6499AA88A88B797896AA879A6998B6A59AE58895B74BA588A85AB8AA8416A857D5
col10:   B49CE798672BC56B8B9AAC8987798D89D4BAC8976C758EC8CA79496B895D9799C79AA66856783665
col11:   A426864AA8865B78B7678A68697EBBFA99EAC84BDADA9C89ABC9C46A7C8CAB9A88853CA77577A754
col12:   A6A89A7DBB7A9AA6AD8A69B6CCDC69987B678A9AB78A68DB88BA889CBA98AA927739C6BAA5839796
col13:   974A8C7ACB68CA4C7C87D8B8988BB699D98C8C7B5B7A9BC99C657C9A5B478B6AA3886A869878546A
col14:   55BA8AA78BABAA9CAA878CDB48A789D99A868C8CB886C7B459B9B869968C7978BB68A7C9266B6758
col15:   8AA4793A7ABC9C9E9898F8758C9E489E89DC8CAADA799EB96B37CBC9CAB88BB5BA79A69684798765
col16:   95973A9C979844B877A8B9A9B988AB7767CCACD7BAB988BB8B98BA97689BBAB9A4BCA8787977A892
col17:   559B589698AA799978988D5B8B8A4C9A9F873A738948B499BFB67AA59B6C699CA8986987B37A5438
col18:   57A4692C77687B6AC877DAB9D8A84BA78C8A97C657B99AA77CB9BC98A9B669778878796B56758C65
col19:   779AA8A9B7ACEED8BB8A9FA76AB9C799B6689BDC5DA7998E6A697BD9ABDBAD969A57948897AC8966
col20:   4B5776987B2AB6C74B73745A4897CABABE879A677829AAAD6A79CABB7AAB7A5AAC7A77B4C9387A86
col21:   7AAA878876DB55749BAB78A6B8897B85E9976A9A8ABC8A2A9B6ACB29B9C88979B578199B8ACA2865
col22:   47868B97A8C698668B5469887BCCAB85AD58DBBBBBCA5B6BA9AC9AB6A4E8787A986579B6785AA452
col23:   7759898475979A6AA36DA7BFCB7AB9DB5E977887978C55BD996A6B9696A8A855B8BA59BB84535847
col24:   8967ABBA9298C4B781888B9ACD7AA837A997A8D9B8B6CA9BB8A57CC95667BB8C798C9771A7475895
col25:   69B95978B8898BA76989DACAA486AA774BC9D88BA879C9B7D89C588CD94D9A87971B9F91588956A8
col26:   BCEDC7B6B9FACF7878BBC9CDB7CDACC7BF8ABDAEB9CD8FADAB7CBCBD6BAACFBBCB9CB989C68D7E24
col27:   6B5F88B94A7A998987973989BE88BAD86CCBDEACADB8CC493589BA5DC9778B9BA9D8574975758865
col28:   8A797BB9C89BACCBCA78B97CEE79B7789E8CD8BA79D8A7CCC6ACB59EB9CC9ACBBB888A89BA586CA7
col29:   BAAA79CA768A7DBBAEBA96A7CF9C9BBD87D7CD44D7ABAC78CFF6EC8ADCC5A9D9BD998279478D6A4C
col30:   AE7997988CE49F87BCDA99D7F9A8EED69DC9AEB9CDCAECECD8A898AABB888EC9BBACCE9886C56A67
col31:   F88AA8CD7ADCF8A9FAC89C79DA99AECC999BBDC9CCEAB8BB8BA9A86D67AA9A87AAECCC928969D875
col32:   D6DA5B7B8B9BC7F7B98BBDD8DDADADAC9EEAEEEDDAECB7C7CFCC9CDBA8FBD97BFCAAC8AB8C876AB8
col33:   54D9DBB95E9D88A86ABBCA88ADA55B8C5CABAB9FCD79A68BA9C66BC8DDE799A6CABC6AC7AABB78B1
col34:   8B79AA9B99A7DAAEFBC7DFB7C8B9B6EADEA6DECD7BBFBCA99CEDACDC5A87FDA9EA6BFAD84CDA84D7
col35:   CADEBA8B8E9BEAB8BAA7BB888C9DDD99ACABF88BE7BECDEE7BA9CA9FEEC6A9CA8AABBC789A6CAABA
col36:   BCBFA9B78BBA9ABB7BB7DBBCC9CEB99EC58CADEDFECFDBAACCCC9AAD9B9EEA8BB99B9AB98BAA979B
col37:   9A8C997DB54ACEAD9EBC78C7CECBCBCCCD8CCACE9AA7D5DAAF9ABEFDABCA9EAABBD8E9CA999B9757
col38:   7C9CAC6B6CCD9B6ACBC48BACBD8DA7FFCFADCDEC9FAADB9FDEAAAB8DFABFEBAC6DFCBACEACCACAD6
col39:   B89C96D9A8CEBCD7ABABAA9BAADECADAABCEABCDFDBFBABCB9A9CADB6CABCC769598C56C894ACB67
col40:   CB9A8AFA89E99CB99BFB8A8CBA97ABE9FABECF6EA8DBE7FB9FA9ED9DCACAB8CECA77ABCBB89AB9B9
col41:   BA99BA9D7B9CCAD8A9ABABCFEB9BBFDA9D7ECDFE9DEBE78AF9EF899D8EEBBE7FC8BAF9D7A9A9B8B6
col42:   88A7CAEC9AACAB9EB8ACACC8BBEBBCBEB9DFAEEC9FDCEDB8DC7AF99CB8BEAAD9CDDA877DBEBDACA8
col43:   9999DBB9BAACA9CAADAA6CCDDDBCFCFAA9FF8F6CDBFA9FDEECACCBDEEDACABFBCFEDF7AD79CEABE9
col44:   DA8D8BAEAAAAD959EBAF7CBEB98C9FDB9ADFEEDACAFCFBEDFBDBCACDDB997AABE99D78F98AEADBB7
col45:   BBCBED96D8ADCDC989DD8AB88DBBBC8CADAC9B8D7F8DDB987BAC8ADACCDDCEBDAACEAB6AF9C9BA99
col46:   BA67D8ECABABAEC9DCACAE7FA9CABDC6EDB9DAABBAAFACBA8CDCBA9ACDFDEFEDDBB6DA9BBAADA9DA
col47:   DA88C9CAAECA9C9DAA68B9AC5E79DFDBCDCAF8DCCECBCEC8ABAAFBCEDD9BAADB9CDCDFB9FAA788AA
col48:   BD7CB8969AAA7ABBAC9F8CBABAABCBCEBEEB9DFCCCEC8CAE7FDECCDEFDCBACEBCEBDA66C9689FB8A
col49:   CBAACAE67A9BBEBBEB9CBAFFC9CCBEDCD7CEBFEC8DECFBCBD9ECACEFEBCA9CCDCDB9BEBCB95AA7A8
col50:   7D8B9BEB8CBCADB78BDC9AF998DBCFAAEF9EDAF8CCDBCFBF5FF99EBBEFECDEDCBFCDBC9989896FB8
col51:   628B79797B994C65A988ACAC7A7BBB8AA8A5A7ABAABBADAF76689B8EBA8AC9ABE9C679AA88948952
ROC:     BPix_BmO_SEC4_LYR3_LDR9F_MOD3_ROC15
col00:   BA5689BA9B877679998A69A89CA17D896AE77768B888BC8A7B8AB9ABC6974BA86A98A87F6B7889CB
col01:   ACB6C9A7A57B9AB8976CBBBCAADAAAA9CA6DBAA69AB9DAD9D9BCB897D9D9ABBAED89EC55DAA8CEA4
col02:   993ADC9BBADA679988DA899B9C88C7BACACCC799A99B7CA979ABD96ACD9D7BBC99A8E89AC6BC8988
col03:   A89BAD598626D9C7AB88CA9AAB7B7B89CFE5BCAED89B8BA9EB88CA788BBD98BCA9C68BD88AC88A8E
col04:   7BA7C969A97CD9A8B96C79CDAA9C9BAB95CAB9CDAA999BB9B77CD7BB9D8EBCBBC877A9788AB9ECF9
col05:   9A878A5D5B89B77783C8DD79D97AC87988B9EB9BFABD9B9BA9A8A994EE8B9CC85C98AA88C3978BA5
col06:   ABA9BA8BCB9A589DA87BDAA6BCDC89AB6997899BDBCECFAC8C969DDDDBBC7CB99D87A8EDB5B8BAB8
col07:   8A987DC8A9CA88C797A98DBCC8CBCDADB899E89A7F9AA58BDCADCA75AACD9BBCAB7BB76AC89AABFB
col08:   7675B479E699A9A8B8CCC897A9998D878EBBEDCBAE97ACAAB78AA7A8BACAA7DABAA9CBAA8497C998
col09:   BA866BE76678678886B97AADA8DCBABDAAACAB7B9C68DAB89D5EB7DBBCD6AAABA6B98AA9CBA98887
col10:   69698BABEA68ADA7A567E9C6A9E7788ACAD9ABA79AB957A87CDC79BC9C999AC9ABB7A98785ACB78C
col11:   5688795A888696AABD98EDA399BE8BECBADDAACBC6CCCBB6C9EBAEBAA9D9B599B8C97CC997798A8B
col12:   976779698888C7DC78B8BA8D3CBD9E7BAAC9ADC8AEC8AB77AA9989CA9BBA8BEC8BADC868C7989DC7
col13:   9AA7B6B857A7AB9BBA9DD898BA87B989B9EBDF8BBBC9AADCFBB9BDB8BAC98A9B9AD689998AFB8B9A
col14:   7BCA799A58A7BABBA6ADD9DC9B97E5DB8DD6B7CCBB89FBCCBCACC8CCA7CACCC8D87C7A9CA9BAA9BA
col15:   5A55C6B6A89879BBAB9AA9A999D9BBDE97ACB7CDB888C957CEC6B999D8DCA8A9AAC9AACCABBDA9A8
col16:   578D9992879348DCB59ACC7A7A7E97DADCC9B9BAA8BB6CBB7B6EAD9B8AA8BBB9BA788B979AA55AAC
col17:   756969767A66975CB49996EB8A7CCA986ADB97D8DAA9C79ABA9BACC87CCBBC9D8B7D987EC9BB786A
col18:   79B988A8C7AA9BBD9979A8AA94CDB87AF7CCBBB89E8ABAD899AEC9BA8879CADAAED5BB7ABA9999BB
col19:   868B477CA9C667AACA98BAB8A7BD8AC5B8BABDA88CAA99BCC88DAAB8CEDACDBAAA4DBADAE5DB9BD7
col20:   D8576779BB489857BBABCA98A9A996A769AB897A799BB9D8CAFB9BBD968C95BADB8EC9A777BBBC8C
col21:   6885A88A77ABB789A9E8A8C89C7A8BBDABBACB9BC9BCBFDEAAABB6ACAA98DBCA9ECADBBBBEBA9BBD
col22:   C8A5B9BA9D7597A86EB99BA7A5AB97ADECBBCA66CACC9AC69B87CB98B9B9BB797AC68CA88A8A78E7
col23:   A5685688398758968856BB88BD89A88B9BBC9AABF7A9D9AA88BBC7DDBB998AB9CBBB879CA9A77CE3
col24:   7627B84777C777668EA88BA989CBA9BC9CC6BB877D9B9D8CC79BAA7A9988999BAD77BCD99BAD896B
col25:   76897BA8779C8588B6BCA67989DEE8CC9CDACF9AB85C9B8CBBFFAA9FCB8DBABBBEB7A9B99C99DBA9
col26:   8A86998C6CDA9DAAEBA8AB979BEDC6ACB89AB99DBDABC6ADABBA9BE8DAD98E8EAEECCDACA9CAAADB
col27:   7B795B8A969B8BD86CA98ACA8CC8AAC7898ABD9CC9FDBB8F8CAE8CBFB6C8FDACCCFBEEFCE85AFEBD
col28:   765A96DBD88CABCC89B7CADB97A9D6FDB87CA999DC9ABDECDDDEEB9CCCCBB8ACAABFC9BCC9BCDCB9
col29:   67998886C465D49A9ACB8999D8B8EA89DBDAADBFABBDDACBCB9BACD8E5CDADAAA5AFAEDB9CAF78B5
col30:   867B979C9A78B8A9B8AEA88AABBB9DAADD8A9F9CB6E7ADCBECAADEDFD9C6F9CCAADD986A8BCABDAC
col31:   7A4B89898A89776A8CB9F9BBA9C9BBDADFFC9CD9ECFB9BAFCFFDE9AED9EEBACBD8BBB9DCFBE8CB9A
col32:   98879A7E799A84A4C7BECBA9AA9BBBA8DBDC9B5BACCEEDDBCFFDDF89DAD8BED97B9ACEBCBCBEEDDA
col33:   977B798AABA99CB8DC9BA9B9879BAD9EECAEBDA8FE7CCABAABEFF9ADDB9DADFC9BAEB8997CFACCAB
col34:   78A998A9678BA776ABF77A8BE97979C9CADDFBE9C99DDA9DCBCFA9BECCDBCDB9AFD9C8FFB9DBBC99
col35:   866A869B687878AAA6ADCA9BCCE76AACCB9AAAB9EC9DCE9DEDAEFBEAA79DFAFBDCEB6C9ACC89EDBA
col36:   3998895A2696B6A976A5DCBAA9CB9BB7AABBAEDAD9BACB9C88C9B8B9ACDCACACADD7C9BBCBFADF7B
col37:   B78B9BF988888DD9A798EFDBCBCBCE95D6BD8C9B7DABC8DCDBCAD7BCCD6DEDCCDCCCECCAEFC8EDDA
col38:   A799989CDB886C689899E9EBD9B69EFFCE9BBBCDEACBCDCFBDCDABDBDEDD8CD8CDBEAB8FCBD9DBEB
col39:   A7AC7A9A877B5BA88BC7E6DAAAA988C9CB89BFEBADECACDFEC9CADAABDA8DDEACCC8BEDDFBBCCDBD
col40:   B4ABBD77989AA7766B96B7ABD98CBBC7BACFC7ABBDB9BBBBFCA8FDA9BE9DDBF9EBEEEA8EDC7AD7EE
col41:   8BC89BBE8B6899ADBADBBCDBED8AAACFBDB9ACBBADFFADDE99EFB9AFACB99CEFCBDBCFBBDDDADADB
col42:   7738ABBB6A787C98B2A6B799BCCC89FDDDEADDBEB98DABDDB9DFECCDCEBADBABDDBCC9BC9FFAB8CC
col43:   8952BAB77A96A77AC979CEDCB9C8DEBEFCC7EBBAEDBEF8FE9ADDFEFDDDDAFCCBCCEDACFEFD8BEBD8
col44:   5599C89C65599878A9BCB5BC6D78BFE8EAAAB9AEA99CBBFBFBBC8BAADAC8ECEDCEEBFBECC9CEDCC5
col45:   499C78B993AA6CCBA6B6A97CA89AD7CD9FBCACBBBB6DABD9CE9BAFACC9D97DBCAAA79ABDBB9D9ED6
col46:   43864A5696B7CA969DAE99DADCB9BCACB989ECBDA8EBBDCBCCAECDEEEEBBBCAEDAFECEDDF8CCADFA
col47:   556469987A6C8BB94B99CDBD89ADBEEC98AFA8CCDB8AAAABDDACBDBBCD7BDEBFCEFAACC8BDDAB66A
col48:   769A89AA68B98AB9A784AB9C79AEAD6A9BE8C98ABCCABCBFAE6DCCDEB9ECAACED8F9BAEECCEFDDF9
col49:   66B6B8998D79A9BBCA68D5AABDB6ADC9BACB8CC8E78BFEBA9FAADC9DBABF8CE8EDBCC9CEACABF9EC
col50:   7569B98586C7CB9C87787CBC9A6ECAC8E9B9CBBAA99E8DC9EDFFA8ABCB8ACCB8CACEFAD7EFFAED8A
col51:   526794597759474B7767879B9A9CABB5C8AA3BDB9EBF98AA9AB9ABAB8CCDCAA9ACD9B489D7CAA9AA
