ROC:     BPix_BpI_SEC6_LYR4_LDR24F_MOD4_ROC0
col00:   463856855552425238656435266A797554563384614A497477526459765672427794454375236364
col01:   5237926A867662577757667998828885556586442878769638B87484117A3646958567938A836554
col02:   87444766847865719489A559A299A569554A745326775B7556985984B767648866467918734664B7
col03:   8653495A668986655A975388856978567A68668769675A957682857568727686775951554615A473
col04:   275852786857B697969A83D98A77986B7987884996452486979868778374A9B778A47481B9816473
col05:   27648A5627447455C8778375796789499778B6854698777469A86588774765883777668635633569
col06:   569765645C9766459377A9857269787667777885565A57B1A89A6A6A938569867668887771568318
col07:   7659688979A6A67966B9788AAC49929764856555B9965657BC9B899B645677676A88467775965759
col08:   8756C355A6A984C48886897683A67B7857A979787896665A757B999678AC4796665679AB78725954
col09:   558773486763568AA5676B5497B987C98A5846B6858786A7A7966B476686B9868394568678765B87
col10:   95667563858788695DAA987787A878C9A7D9BA49A96897A8B6869998B5895875697AA9A6683A9A66
col11:   315688728886B6776A76987688689A5768748B89D89AA586B595568857389979786755645B7637A6
col12:   59359644A575957864A763A96A7A9B5A4AB87B3B78C8BA99B994B87466389785898A456695B48468
col13:   E65684A5B6585A969867869377A6987668A8C9C87787BA8A6AB9BC6495973996A6B8958757773664
col14:   277867368B755B8A76876B6796CA8AB847578AB89797A794A8AA887789898594896887BC86775968
col15:   9678769A7693A9485AB86888886967A968A9A8B699D86857CA899B85879C68B77776799A579648D7
col16:   8855A467BBA95A79966B5698A8B7B9A17A9AA797A9BAB58996A9BA9977889AA87797186659662779
col17:   A58569C7478A6B66788869977789A86538A7A5986778AB8AA779478E8A5699A58853636697872227
col18:   679897779B686769839B87967E868895A9A983B56679698CA89CB9A88A4A6BB4B775CA7575488646
col19:   66A99676B8B7D959669CB44B65AAB4B9A96CCAAAB89AA69ADB878BE98891A868AAAAB986D98A678A
col20:   B9768857956B888758A4497997A6AB9A9886977C8A9687996B76A98D98A8CD66A7BA6CC865897556
col21:   9867984895958597A768A5C78979CBA46966B78A7986AA7DAB9BF768C8AAE7C4AAB7948886998669
col22:   C88A8577899685969978C8877B5D8C887A9B7E5B7B888C999A7F9A764975968A6D968998A4854625
col23:   67796758794798788765B799778689C68A8BB97CB999A987AB77D8C7499A97796AA777757A56A637
col24:   AA897A5AA79B9678A6A5BC687885A789A7B89B67A9D7A978857B7AB866885AA8C8945A5B875A8777
col25:   677A6B86B8679858578B9C988A8A8967A9BBA9BAD598BBCCA9A9BAAC95C98AC7778AAAC77BC77887
col26:   A7A26A868CAA9C9CC89AAD6B8A9B6CB9B9BA7B88B8CC88CBBA98D9BBB8BAACDBA8CAB9E9BB79D667
col27:   6D8899987AB7A9B568AA9BBBAB88BA9987A9B9A866CA9AB7A9AAB88BB8BA8997B98EC7A959BACD6A
col28:   5899AB96AC99B79878DEC8AC8BC7CA99DDC7F9CA5C87C8EE8ECDF7DAAABAACCD7AB8DA9978B7A79A
col29:   984A7C7BAA799ABB897B978BEDB99DCCB9C98AACAD9D89ACA69CA9A898DCC8B6B899C99AA997B868
col30:   B77AACB78BCCCCB9A8ADBC9CCA8A89B99CAA9CE8B9B9AACB8E9ADC88DAA6BAEBC4BAD99EA9EABBAB
col31:   9ACB97A9BBAAAACBAA8BB8B9ADDECADBDDB89E8ECACBAB79B8FBE8D9BBABAAC999A7CA4AABC8A8BB
col32:   C6CA7C9BA798BBA5ABBE99DEAB9BCDADDBDDCAB6EBA7CC8ADBAAEBBECBB98AC99BBBD7AAAAAA89A9
col33:   C7D788AAC8CBAAFC9BBB9BA9B8DC9BBBBCCD886BB9BFCADB79BCBBE86EAA9A6BCA9DC87DC9B8C896
col34:   A88CC9A7DC9A86D98BEDBAD96A8CADD9EB7CD9AAE7BCBCA77BDBCCEC8FC98BCCADDA89DECAAB8BAB
col35:   999B8BC98DBB97C8ABBDCB9BDFEDFDDB9B8DBE7AFCC7AEBC7CA8BCACDAF9FCD8A7AA8AA8DA5D7EAB
col36:   9789CBA8CAB998CACC9ABABCFBD8CCA99AEBBEAABEEADCB9A887BCCB8BBBBB9EDAFCA89CBCDCACC4
col37:   8AAAA7B9AB89CAA99CA9AAAACCDABDCDCADADCEECCADB9A9CDA9BCBACBFCBD9EFECA98CBBAA8A6CB
col38:   CAE69CA69C9B9A9EC9DBDAACABECDAEEECBBCDCCADABD7FCDBCDC999DCC87BAB9CBED9EA7BB8DC9A
col39:   5E8BAA8EDCD6AACACBBB9DCCC88AFBDBA9BC9AFBD7DB9E7EC8B8BAEBD9BBDA9B96BAFB7DB89BADA9
col40:   ACA7A6B899D7C88CCADBCBECCCDCCCACCFFDCEBAABDABADFCFACECE8C99BCBCDBCABBBCBD6BBDBDE
col41:   7BBD79CAA6CBCBACEAE4DCEEACBECBDCFECCFCBAD9CDEBDCCBCDCBFCDBBDF999CD9BCBDC9CACD8AB
col42:   B899DACCDC9A7BCD7BBBB9A8B8BDDAFBC79CDDDCCAE8DFDCBAEBCCB8CCAD7AADBD78BC9A9CBBBDE7
col43:   B89D9DAD96CBDBBDACC9DDDDACDBDEFC95F9AC7AFBEBFF9DCACACCBBBEB9D8CAAADDFCDDACBAABDE
col44:   A9898CDCCC89ADC7C9DDBA9CCB9BDF9CCDD98CDFD989EFBDABCEFC9AACAEEFCBECEBCBD99ADBDCC9
col45:   BBA8AABCCC9E6BC9ACB9CAE7B8BC7AB9BDB9BAFCDEDFBB9AEEADD8DFD9AD8FAB7EBBC9958AB87ACB
col46:   999A9A89CACA9BBAF89DA7DDDCFCEB98ACE8DB7CECFDFBFBACEDCCEEEBBFDEBCEBFAEBBBECDDFFC8
col47:   ABEAA988DB8CCCBCABDEDCD9D9DAEEEECAD9ECFE8D9BD8C9DB8FBAEDBADDEDDECDDABEAABDCC8CFB
col48:   DDCDA9CAB8AEAABB9EB6CDAFCC9BDC7BEBD7FC9EFBBCCABECCDDCBAFCCEDD8DAF9ADA79ACB7E8D7A
col49:   A9B8CADCD9E8EFBDAA99BBD9BDDEBD99CFFBAC9CDDBEEEEACDCBD9CCBBABBCBB8AE8AF9CACDD9FC9
col50:   BCABE97CBBACADBDEADAFDBBACFC8CCCBB9FD89DCEDCDBCCDAD8FCAFCDDDCECCCC9CC9B9EBDDDED8
col51:   7AAA687D896D99A88BBD9C79A8A9C9BDBCACDC999BA7CDBEAEC7CDCAACDA8ABACDB8DA78CBBAF7B8
ROC:     BPix_BpI_SEC6_LYR4_LDR24F_MOD4_ROC1
col00:   746582A99A4E88852BB9947AA98A4674B79D8CB9A395ACBBA9E5BA9E6BA9BBA9869BABAAACBFCA9B
col01:   985C494AAAB8D9BAA7BC994CCB88EAA799A87ABCFA9E9A9EBAC6A78B5DB888756DEBABDAABECD9BB
col02:   68A5774B98ACB855A9A8995B7BD8BB9D77BCA999A6B8BCAB9A7EEACDFC9978FC679CBCAACF7AB87A
col03:   6A6976BAC6598667A8769C7B9A8AAF78D5B9CBC8BC9A789CEEA8B99B8DCBDBDDAFFCCEB6C9B8BC9B
col04:   737BB7744B575B7B96B788B8D6B7B8FAABC5CBA7AA49B85DEDB9A89B9E9BFE9CBD8AB87DAC56DE88
col05:   8873B75987A9257989A8888BCA597BFE9D9A9B9CCD6A8ABE86AD6DABDDCAB7D8BA98AC9D9BA98CAC
col06:   5ACD97BA7B7786998A795E8F88ACAAB78F7D9BF7A47879CBCCCDA8A9F98BBCBBAB986C7D9CEB49B6
col07:   7AA788498BD86BA8869E9A7AA85BB9B5BABA8AAB697B898829BBA6D7B1BA7C8C957987CABA5BAA8A
col08:   7487697B9989A7A9DA4B98C69865EBDD59AAC97A7898F8CC9AFB6A76959D8E79B99787CE848DB7A5
col09:   73D8ECA8A7ACB7C58B89B4CE94D9A9CA9DDAB98CCEF9BAC9DBC7CCF8A9C998999CD9CE96A598896E
col10:   9DC37878999889D799D989B9AA77B8AC99BBCBBB89AAA6B997CCDCBAA97A998AA8DB88488CF7BCA8
col11:   56B8664796B9A255856B83996BBC765CAABFCC7AB96A7A7B69C6C6B9BA677999A688A999C9FA7D96
col12:   7C57989585A85AB68A6B5FCBED86E8EC897D96988C899A87A9BABA6ECAC9B66A8AA86B7CB598AEAC
col13:   88689A495A98BA84AC98AE8CDC7CB768A9BA9DAFDC95A5A7B7CF5BCEAAD7A779FB7CA6A998BDCA65
col14:   45D648E574C5A999C99CC6F8C78B9C78BBD98BA9A595BFD74E89E698BB79C5BBA84DAA77BDC83EAA
col15:   34A643A8BF3AA993A5EAB99BAD9BE9C9C8C99899ADAB9D55AA889EAB9A7D6C868CB97997C6AAC6CA
col16:   76B8B74A9888678C8B69799FB7CA79FC989A7AC858A8CBBB9B97A9A75AC8899A9A8E99DA77B968DA
col17:   66567353838644988857D877AAFABA58787D47689C7D96AAAAB89756847D47B59B789B7889C7CB63
col18:   275546773987677876A97B655F4BEADCA688E687BC8CA5C9EB6789A8B7BDAA998975A8C96CA8EB97
col19:   63498648157CAA535A796AC939B789B97BABA8CEABB5F76C89BCB9A399778C7B6B6AD69C89B8FA57
col20:   974571798889826A6686D8B7A8A988878D8BAAABDA7B68CAB55F7ACA98AA95999A5A87C8A87C8AB9
col21:   846957A97775B9A73B6788C76A8AD97AA9C677A9CBA665B79787CB7A9BA76BB693BAE98B8DCB8898
col22:   352A595C537B868478C7BAC67D7C377A7CBC78D9AAC8CC7BC788BB98854A66D96AD6BD467CABA7A4
col23:   754664184B67477868BE84879C966A6AACC8BBBDB78CA7B687BA93D9DC98999788B83ACDD8DCB649
col24:   429B65694928A747E657978967EB7979879CAA69A49899A999A6AE98A9ACAC6693998B8CB899B7A8
col25:   19498A9881D8A4969B9595989A7BA6BAACC9C9A7DCE8C9BC9A49BAAAC98BADBC7AC99A89EDACDA4A
col26:   6A699C949C6AA85ABF89A8DBBA8D7E89CDDDA879A8DDA6B9D9B56BBBABEBBD8DDB4CA8AEC79CC5E7
col27:   8297A5945BB8876ADCAB7CBCC88AAAAD8AA8F9A86AE99B8CAECADDA6C7B6CBCCAA98C9E64CD69DD5
col28:   8FC89D87BE6BA8B8AC79C79AA6C88E477889FCCD8DBB39FBAEABBDA62A97B8F7DAB7ACD999E79AE7
col29:   47698B975B7BC9B95A8584D9989BBCC69AADB8EAB69697E6F6BEFBCC796FD9C989B77DB7B6BAA599
col30:   26BB974CC7779779556AD8D8AC8BDC775BDFA9BC7B8B64DCF68A89DDCFDEEADAE8AD9D9CDF8D9785
col31:   9988A89D8B9C77D6BC97BBC89CFDB4E9EECBE9BFBBDFCABAE8D7D7E798DE8ACDBBD5B4BCEAB998FB
col32:   B7585BD8AB7A55B78F9AD9C7A93FACBDBC5EBC9FC9F5EAEBFBDBDC7CCD89D9C6779FCABBC979FDCF
col33:   9699B69BCBB89BD8A5DC898CA9F6DADECAD9ACBE99FCABBF6E9ACDD9CAE9FBBAAA9AB79CAB99B89B
col34:   845B7878999577CB79C88AC69DB88ADAEBC9BD9EBBDA9CAEBB9DDA9DBEA9D8A6A6AC7D9A9CBFAC5A
col35:   66B7975CDBED87DF7BADDAEE7DF8B5798E9FB9CC88ECABAAEEAEDACDBBFDD9F8C9C7BA6ADCDCCBA7
col36:   B7B7BA95BCABC9987A7B68CBCAAAA8DC6A9AC6BADBA8CCAEAE9A7DADCCADAD8DAF9D47768DEE76D6
col37:   5C77AD6CB8F9969ABDD9ACAADA9DFAAA7CE9BADCAC99A89BB9B9D8ECBE7A97ECBB7C998CB88CDAA7
col38:   869899A7C4EAFCBA8AA789A9FBADECCCB9D8DBBFACCBAF8F5D9BCED7BBC8BCFCC9CAB9C9FCEDDCBF
col39:   8798F697AA96B899B6BD8EADEFACDA8CFAC8CFCB98B9B79C9AAADEBDF7BBBADAFBB6DDD69FAA8D9B
col40:   6A899495B9A98A89786AF8DABAB8CFBCBCADF9CCBB99B7EA7CCD79F9CDB6D9EBEC97DCABEDCAEB7A
col41:   89458AB78AA86C6ABFC6B59CCCCACFBCBE59ADC9D9BBB8AADCCB989DB9F8BFECC9B855EADB9B77BD
col42:   999678BC5BE8B86A89A9BCADAAFC99FCBBBDDAFBB9CFBECA8CDABDAE9BFCDA597FFAA9C7DB6BBBFE
col43:   937C87DCAA6A88DDDAE78BD86D9EF6FDD68C9EEA6CFDDCCE9CFB6ADCEB7AB9CFADE9BF98AFF3A97C
col44:   76C6ADF788AE8A95D99D8B5E85BBDBBBCEE7BDABB7B7ECA97ACE88BD87DF79AE6ABE797EECCA8CF6
col45:   44ABB65ADEAB9AB689DD59CA6CEBAEBBFCBCD7EEAE66AB85C9EBBBBB9AB9EC9EBCB68B7BBBADF8C9
col46:   9BB6EA8C39ACB57B6BE8BB8CA88CAE78DC6EBFC8CAAF6AA6B89ABCE7ACDAFBB9A6CB9C9ECE8ACFAC
col47:   A379C9B9AD445BACB6A9AAAAB8DBD9C8DCBAEAABAA9ECABAF9BCAC9AEE99BA6BEC7FBDC9BB7FF69B
col48:   89A9758994A9CCA9B69DF8DBE8AA95CAC9C8BA9D9D9AA88BFB949DA8ABBB987CBBF69DE87FCAC9C9
col49:   86B494E6489689C955BA679BABDCABCBD98CB4B9BBBED7DE88E9BECEAF7BD98CD9EBBBAE7BEAA9BB
col50:   76BAA9C8A8C4774A6A97BA97EA788B8FAC99EB8BD99A99DCB6FBABB7E8CC7CA7BF876CCDC8AAD9D9
col51:   A878656947666788BC756896A36A8C9646BBEA8FAB9774ABB5B88BA98667A7A7CA76C8B7ABBDABBB
ROC:     BPix_BpI_SEC6_LYR4_LDR24F_MOD4_ROC2
col00:   376B862687A7A975999B89CCABBA8BADB78C898AB75D7A7A89786C7A97957BC68CB7C687B798FCAB
col01:   6697757AA8974C95FBBCAC89894999898AAA9A999B79AD6B978BD977B9ABFB688C98CBA7A9C9DDE8
col02:   8B77574999D96857CBA794BA98FCA6BABDE96DCBC97AA9B98ABBACE5ABB964C4ADEA69BBEFBA9D6C
col03:   959AA4899AA696BAB5BDBEB9D9B888C9D69ABA9A8A9D9AA8A8ABCDDB78C9D9AAE69EA8CA9EA58DA5
col04:   87447798AA6C7777B6AA8AB8BA8CB9B7ADBAAA9BBAE896EEBDEA9ACBAC6B77C9EC96FBBDCBEBABEE
col05:   59936A48894B669A7C6BADBC8889A9B7BCDA7B78CB3AB8896B8CB8EC99B9A7BABBD8EC7AD89DCBDA
col06:   867A5C6834798AAE7C878BBA96AC79BBAACAA797EB8A9BD8BADDB6AEFE7DB7A79B9DBA7AD98ACDA5
col07:   5694C48284A74588BAAB7886CB9879A7988697A8CAA8C96D79ADAE8CBBAD4A7B65CAC9CAABDADA8D
col08:   49778998C768D86A6B9D8C36BDBBB947A99BAB97B6B7DACBA8BCD9BACBFA7C7BE9879ACC7A7AA758
col09:   898B6975858A68AA77AB9887E99CFC8A99BB9C9A8CD99B9C8BBBBBCBE88D8A9B8ADAB6DDFEB787EC
col10:   7649C9AF969A87BA9A99C9BBB9AB97B977D7E879B997CC997CC8B9A87B77D6EBDEB7CAEAA9A4AAEA
col11:   679768A7587C8D7AB77B4479986BAA4CB99DAD8CBB656AAA9CBA89BB8D9CBBCB9FDDE9969B9C8B69
col12:   5679548897AA979799B79A9962E85486ABCB898CC9B6ACF7C898FC8DBEDAA9B8CBEB788CCB8EA9D8
col13:   768A99A5499A689B7ABCB997A8DB86999ACFCA98996ACDA79DB9C78889BB9BB9EB77BD5EABACABAB
col14:   2595948848484A77368975998B259799C9C88A885A8AF7CBCA5BD9969AACD9CCA897BCA97B9CCC9A
col15:   3736A879767768867AA479A97497B797B87A7BBBBA9C8AA8AAC9AB99F998DE9CBA889EA979B7AA56
col16:   4877768F859BC5996BC68B9B9A97E75B7DD7A6899DC9D798D7E99AC99BAC9DB898874EBAC7CF7869
col17:   5657866546578965A768C687688969AB97A9B6A47A64D6977C5BD9BA9BECA6B6AC9B9896CBAB9BAA
col18:   59568679C657A849AA7E458747A8BC8CBD66B7888B978CA89BA679F6DABA88BE85699CBCD7C7A598
col19:   797CA6675497569776B98A877CA9798DB79C7ABD8BBB69AAC99AE99B8EC98C9CAB899CAB97D7B6AD
col20:   8846A54845AAAB8AA7689C8A99B5879538B8A97967B898AAC8CA78D8ACA77C6AD7AA78B9BC89A958
col21:   66B8CA56589475946B62BABB77AAB879B6BAACB9BABAAAAA89C34C6BABD7C9CC5A5B88FB6C968D58
col22:   6886567C795B89E6BC8684DC5CBCDA79A6454A995C6A65E9856699AAB9A8B9A537A8B9DCFA98DC59
col23:   6176673A76787697689ADA964658AA58A89459A899676B69778963B6FABB87A8D966769A89AC5D77
col24:   88999598279487CA688A95EAAB8C947884ADA7B9698688ACAA7C96A95BCB7DA9AAABC8AA9BBC7FB6
col25:   32158A89AA9865B7789967998C388BA8B9BBCADBA89BA8968A788949D7CA684AB7B899A57ADA98D5
col26:   738B9D87A35898BCB98A8CE959BCDACBA9EBEA9A78DBDC8DDBBC99FDEDA598F6CA8CBC9AC799ADDA
col27:   B9A97995ABBEBCC6C7B5BC998C8A6DEB4B99F8ADABC9BEBA8987B85F4EA8FCFBAA9ACC9E7A99EAB4
col28:   86D6A97958B958B8ACAAADB9C9B9978ED88A6BCAE9BDABACADCAFBB9ADD669AA79E99AB7BBDECBB9
col29:   C969C8B89989C5A8965B8999BCA9AA9DACABEBAB8CA9ACA98DDBACC89BE7C88D9BABDFCABB99BEF9
col30:   97BA5DD7ADC9ADBCEA9D9AC56A8C5BE79FA8AD8CF89DC989BB9EDBC9F7AEFACECBBBEC9D9ACBAFBC
col31:   58994569DAC9B87A59BEE9CDDABD96CAABADDCBFC7AFA58A99ECDAAFF49B98A9CDCCC99FF7E9AFBB
col32:   BBC7B8AA38D6DAB78CAF8B97ACB98AEB9CC99AD9ACABFEAAEC9DBCBDBDCCCACCCCF9CCABC8BDCBEB
col33:   CAEAB89E289CF6D9F5E8A6CAF8ACA9999CDBBA9AA98FDB5ABDAFBDABCFBCCEBADFBBCCF8AEBAEADB
col34:   985A6DE699D8A97B8AEBBABCA8EB9C9BDBCAC7AACCC8FABA9FEAE9DCBEE9CD7DCCDDC9AB7DACAAD7
col35:   B886B99ADA7A88C47788997EDFD9BFDABCBA8DE8BF7ABC9CBBBFE9DA88F7CCDABFC9BCABEFAB99CA
col36:   96C9B6C5AB999A469AD9BDDAAA9ABA9D7D9B8A96B9F86B5DBD99EACBAD9988FBBFACDDBABBCEFDCD
col37:   EA57B6ACCFE6B96ABBEBD99CAB99CCBDA9ACFADD5CB6ABF38BFDCAD7D9DFAACFB9ABD8BCDDAED8AC
col38:   98B7A8869988C98EFBE6D9B7BDABAD6CCA98CBDDDE77E7C7B8CFE9BAF7FCCCA6DDBDBAFCBC9A8CF9
col39:   678ABADD9CE777CAE9BB9B97699BA8BB7BAA7ADDDBBBEE9DB7CFE8C9CFD9BDCBF8CDF8BCD8DAA9AA
col40:   8796ACBA9CC9B67E9ABABC9A5BAEBBCCCAAB8D69DDCAABF8C9A8CFBADD7BBF86AAFBB9D8CB9DFDDB
col41:   C847F78ACCAACF78C86759D9CAACC8B6D5A7BDDF8AA9CC9CABC97AEB98BCAA9DEB8BC9FDBC8F9BCC
col42:   9AAD8BBD9A9DB9CACC7CA7DF7BC9E9CCF99BEEDBCBFDCAACFC98EBDBB8EB8FA8AF78FCD7EAB8C9FB
col43:   DCADAB9CBEAADCBAA9B998BBACCEBC9A7EDDE689C8CD89D6FBAAB8A896BD976CBCDEFAAC99ADBED4
col44:   88D8FA986D88D7AACDD99ABCBCE9B8BBBD7ADAD89C9AECBBFABAFCCAFD88BDC7CBCDBEBBB8CEAAD7
col45:   AA759989BA99A56DBC9BABCA99BB99FCBDAACEAC88B9B78ACD99889899AB9A9DDB8DF77BBBB88EA8
col46:   87CAD9C78A8A8A98B3BC9AC7A7CB96B7CC899BFBC9DE99C78DDAACAD8AC9ABEABDFFB8F9A9AE7B9B
col47:   C86ADBCBBBDAECB8CEB6B9DE9EBA8D8FBEDB6DD8CBC9BDBBDC8988CBCAA9DCCA7EDBB799AAEB9B9B
col48:   C77B8EBDC6D8A9DCDB5B7ABABEBCBBBABAABAA967ABCDB7A7BBA9988C9D9AE5698BC876A8BAACAFC
col49:   A78398A678B6AC7BDBECBACDAFBEB9DCBA9EF8BDA6ADABDCBB89FEBDDDDABDBACBC88DFABFCABCD9
col50:   CAB89A5CB8898A9AA9DD8BD8CA9DFCECCCFEADCEDABDBB78A79BBC9D8AFBEFDB9ADBFBC789AAB9BD
col51:   7958A8A67E9BB797AA879884B738C4CEC899ABB77B799C8CA8D586775AC77CB9A9BBB9C97BD8B78A
ROC:     BPix_BpI_SEC6_LYR4_LDR24F_MOD4_ROC3
col00:   A8BAA898BA98B998C99AA8AAC9888BAA68B9BBAB99BC779ABABB9B98AA7A9A89BACBBBA98BBBB99A
col01:   9AAAA8CA99AB8BA6BAA9A9AB9A99CBCABB9AAB7BBAC9BCCBC9D9ABAACCC998DAABA9ECACBDBBABA8
col02:   8C969CA89CB8CC9A97ACC7ABAB99C8DBAD99BCBBCBB9ABBCAC9BBBAABAB9BD9B9A999A99589BBAC6
col03:   D97CA868B88789A8BBB8D9DAADBAACCBCC8CDBB99ABBEA9ABBACB9CAB8C78BA8BDAB89CBAAABCBBA
col04:   89BBC99BAABAB9DB97ADCAA9C9ABCEBDBABCAA8CD9A9CCCBA9BAB8CBBA9B9ABADBABBB89B9B98ABA
col05:   9C9A897BA9C8999ABBCDCDAA98A9DBABBABBD9A9CA9B99ACBABAB69ECEAADBBBACA9ACBCB899ECCB
col06:   CAC8AAAADCBAC99C9ABC9BDBACCBDBADA99AE8DBA9AB8BCBCABACAABBCBE9AC9A8CB9CDCBBA9D99C
col07:   A98A9B89B9BBA8C9BCBCB9CABBB9BBDABADBB9C8BC9CABCCA9C89D99BACB89BCBA9BBB7CACCABAAA
col08:   A9788A9BD8AACCA99BCACBBA9DA9AACCBCACAACBAA7AA9BC8ACBAA8ACC8CBCCB99DACAA7B9DCB9CB
col09:   BBABB9CA9ADAA8B998BAA8ABCADBCDBBBAB9ABCC9AB9DBDC98B9DAAD989BEBBCACBABABACAA9ACAA
col10:   B9ACAAB8BBBBD9DAC99A7A9BA9CAABABBA99AAABBAB99AC9DBB9AD7CCAAECAC78ECAACCCCCABB9AB
col11:   A9AC78ABC87ABAAB9BB8ABBCAABDAABCCBAD9CDC9CB89BAC9989D9A97B8CAA9B99B9C89CBEC9CB8B
col12:   AAA9ADAAAA9D9CBBAA99D9CABCAB9CACB9ABEABCC9BBCBBDAAC8AACCAC8AB7C9CADBBDACBBBADB89
col13:   9888B9AAC97B8ACBBB9ABAACAD9DCBDADBABBCBB9ACDAA9C9BDBDCAFAB8BACAB9BABBBBCA6AABCDB
col14:   ACBBABD9AB99AB9C9BBAA9BCCDCCB9AABDCDCBBBCBBACBA9BCAADBBBDEAABA998BE8CEBDAA9BACCA
col15:   A7D9AAADABC9B9A79A9BC8C9CABBA8CCBCAECA9ABCACACD8A8B7CACA9BBBC7BCC8BCCAACD9999CB8
col16:   CAAAA9AAAAC89BBBC9B9CAA99CBCACBBCA9DCAACAD8BCAD9BCCCCBAABAABA9B9BBBA9C9CA999DDDD
col17:   CDA88ABCABA7ABBCA99A99DCCBB9CACBBBCDBAB9ACAC9BC9DAAAA8AB9ABC8AABEAAAABCAA78988BA
col18:   BA8BA8B899B8A7CAEDBACBCB9ABCBACCB8AABABAACACCBA9AAABAAA8AABB9AC989BBBDCBABA8ABCA
col19:   BAA9CD8BC9AC9A9B9BAAAC9CC9ADBAAACDDABCCBCCDCADACDBCB9BCBCBA8BDBBBCBBCBACCCAA9CAB
col20:   AAB98B9BAA9AAA9CCAABAAACDA9CB9BDCCBB9BD9CDBCAAAB9AC9BBD9BAAAC8C7BABABAABABCBDCCB
col21:   8A989CABBBBBBBA8C8A9BB97CC9A999BDCBA9EDAABBBDAABABAACDD9CECAAC99B9B9BCA9CBBA8ABC
col22:   ABBCAAAAB9BD8AB9DAABCAC9CFC999BBBCB9DCDBADCBDAABABCDDBBBBBECBCAAB9BCCBAB9ABBCDBB
col23:   AA9ABADDA89AAC9AAADBBBC989ACEAADBC9ABBDBBDAC9BBB8CBCABBA7BB8DAAABCA9CBB99BB9DB8B
col24:   B9ABAC9B8CAACBBBACAB9BCCCA9BCDBBACBCB89ABBCB9CA9BACCB999DCC9ACB999BBB89B9AC999BD
col25:   AB89CDBAA9B8ACCABDCBDCBDCD9ACCBCC8ACBADACCCDCACBCBC9CBBBBBCABBCBBCBBC9ACDABDACAB
col26:   BACCBCD8BC9BBCBBBB99BCCDBCBCCECBDDDAAA9BCD9DB8C8BBCCBCCC9C8BCCCCC9BECDBDDBBBACAB
col27:   A9B9DABCCBAA9ACBBBDCCAC9CBCBACCECDCCABACABADCBEAA98EFDA9BA9DACD9ACA9BADCAAABACBA
col28:   DADCBA8ADBCCBECBCECA9ACCAACCDAC8CDCE59CBBBBEAADDACCDDCBBABDBCBBBABCD9DCBDBACDAC8
col29:   BACDBBBBDBCCDCABDCBBDDDBBDCCDCEBBCACCCBCBBACCBDDCCDCDCDBACDBCACACBBCBDDBAACDEDDB
col30:   B9ABCCDDBCB9AAACAAEADCBCBCDDCBEBCBCCBCCCDBACDCDCBBCBCBDACCCBBADCBCCBEDDABAABB8DB
col31:   CBCADCCCABBCCEBCEBEDCB9BCAF8CCCBDEADFCACD9ACDCDDDBCAECBDCABDDDCCDCEDCCDDDCBBBBC8
col32:   CCBBEBDECCBCAADDBCFECDDBCFBDFDDACEDCBAEFEABE6BDBCBCCA9DEBEDCADBEBB9CBCBA8CCCE9BC
col33:   BBAABBCBBCBBBBCA9BBECABBCBFDCFBCBBECCBBDBDECDCBBBDDCDCBCDCBCDDEDC9CCBBDBABABBCC8
col34:   BBCACBEAAABCDCBBCDCDCBBEDEBBDCCADEBCDC9DCADBDEBDDBCCEBBDCEBBBDDBBBABABCBCBDDABDB
col35:   99AAEABB8DBADBA9BABCDDBCBDDCBADBDDCED9DCDDBCDBDBAFDFCDEDBDD9DDDDACBBDBCBBAABDBDB
col36:   ABCC9CAABBEBCBBBCBDBCDCCC9DDDCDCDCCEDDCEF8C9EDFCADCCCBDCDDCCCBDDDDFAA9CDECBAB9BB
col37:   BABBAECADAFECBDBBACCABBCBDCECDDBEDECECDDEDDBCBCECDDBEDDBBFDEECBDDA9EBAEEBDAADDDA
col38:   9BBAEEA99ECBEDCECCBEDFECBEBDCDDDDCCCBCDECECDFDDCBEDDFB9CDEDDCCCCEBDCCDBEABDAABDD
col39:   DCABADBCCBBABCAADEBDECCDCACCDDCBCBDBDCECDCDCBCCECCDCFCDDBDADCDDEBCCBDCDC8ADCCD9C
col40:   8BDEDACCCCDCEDDACDBCDCBCDBCBADDBDDEBCCBDCDCDA9EBCBCCCEDADDCCBEAADCBEBBDECFBCCBCB
col41:   ECDD9ECBCBBECDCDEECCA9F9DEDCDBDDDAAEBCCCBFDDADBFCCCBFCDAADCBCCECBBD9BBDCAACEADFC
col42:   DBD9ECC9DDDABEBDCCFDDC9CCCCCBFCCCCEBDDCCDDCDCEFEDBCCDACBBECBDDCCBBABECCDCBCCDADD
col43:   CBABCDBBEBCEBBAACBBDACCDEECABC9EDDDBCECCCCBEDBDECCEDDEBCEADCCCCEDCDDDCECCDDAADBB
col44:   CCBBCDCCF6CDDBEDEBDDCEFCDABDBBCDDDBADDCEDCCDDDCECCEEDBBCFECCCBACADCABDADDBD9CCDC
col45:   CBBBC9CDBBBDBDCEDAABFCECCDDCDADCCBBFDDABACDCCCA9CCFCBEDBDCDCBCDEECBECABBCBADADCA
col46:   CDBDDEDCDEBDEBDECECCDDBDCACCDEDBDDDDD9CCDECCECBFDDCCEBBBBAEDEEEBDADDCDBBBDADBADE
col47:   CDA9DBEEDECBDBCDCADADDCDDCFBDCDBDEBDDDACAECFBCAECCBBBDEE9CCBBABCBBED9FCCADACEBEE
col48:   ABABB8CCDEBFAFDDECCDAADCABEBADDEEBCDDACBDCFBEF8DEDCBDCECDDCDCECCBCCCCCECBC9DDCCB
col49:   E8ACCDCCEDCDCDCDDCEEDBECB8CECEEECDCBECBEDCDCEECDCDCDCCDCFCDCACCECCABEBBBADECDBAC
col50:   EDC9CBBECBCCEBDFCCDDEFADBEEDEDEABFEFCDEEDDDCDFBCFCEFDCFBDBBBDFC8BEBCBBEBBDCBECCD
col51:   A9CAACACAB98CDA9ABDDBBABCBCBCAABCCCBCCCCCDBBACBDCACBCBBCBCABCBB9BABABCABCCACDBAA
ROC:     BPix_BpI_SEC6_LYR4_LDR24F_MOD4_ROC4
col00:   52A8A8248877AAD6AB64785667C78966EEB67969667599839BDE9A79B767A7779647989789F7B677
col01:   693DAA8A9BA8589B9A7EB788ABBA99B9AF8BA6BD6A7ADD85C78AA7DA99BC897684569BA8ADA7B882
col02:   967696A5CDA269B7A667B7C98995AAA977C9A6BC697CAB6C593BBCE58ECB6D6D7A87799A69896B73
col03:   8679866B8A7879A8AA779DC9E2E8A958B83AA7889BA5A19AF8A6ADBA7EBB8DE79ABA68D85E877846
col04:   5A8ACB69A9B5A6CB769B77D5899589CFADAAAB85768BB9DA7F8C8B9A6C89A84B769AADB7B9E8BB89
col05:   797687AABC99B897799B9ABAB9ABADE7A9CCD4C87C98B5B8ECABB8A9A9EB58948A9BA69AB75B6887
col06:   599A88CA99C6989E98AE69C8A7AE89AAC9BD879AB6DFAC8CAAC7B7C3C9D6ABABB8CCA897A886BEC8
col07:   8668A65886AA9B99C9C977ABBA9BBB9738CECABD5C7997BD679ABBA9A8B6A189767ACBA9FA6FD565
col08:   86949A688589A7CAAAC89BBCB57BE58BDAC98C6C9A8847AA85B7AA945B88BC479A6A8A5A89BA6B3C
col09:   67A86C96E9BAAB6EB9F68BBEDAAEAF7CBAE8ABC88975ACDA9ABED8D9B9879AC7CB5D9AA3AA647AA9
col10:   7778716845AAB67798D6946C9DB9ABBB596C8C8B9AC6B9A8BA598ABA99AA6988AA8899987886CA9B
col11:   864B74B98FD59B9B8C7B88988976AA7C7AA95D5798E7C79AAC57BA899997B7CA9A95F77AAB77A584
col12:   834575377997BAB8AC8AC8B9A5FA8AEA9CC6B8ABB696BB6BAEB88DCAEAD5974868A9AC75A867C687
col13:   85B798949CC98DB74C9CC88AEB9A69EB69BD89DAA79CDD9ABE76BA9988BDEDCAB97CA988EB986B8A
col14:   885586D4C8DBAA689977B8A9AA8D79B2B99BA9757BAAA7CB87C9AA749A9F978B59B74976756899A4
col15:   A8627AC8A749AC89BA85985CBCCA77898BADAA8D889A9A9A99967C989B57AEC887B6B99EBACCA468
col16:   456764A9B86A6889C73DBB9897F8B8AAA98AABAA97983A886C5BA8DA9479889C79A9A5CC6346AB95
col17:   A866965A8B9A9989689C88C686D978BB6CAB9E56997869AB7CAAB49A79598A579ABA978879889582
col18:   7659A4587889988D85C7B99AAA9B875CB887ABF6C96AA979B8ABAABA9DF76A9BD8798BAA67A7C6D6
col19:   7787B8A98688897B7DA899A89DAA789C9C7AA9FC975BB98CB269276499B877A8A97ACA55C6B9B4B3
col20:   98858A27C847CC8B747758A9A2DB579B988BBEA9EAC89B7B76AADD8D8996A64A9BB7678667968566
col21:   D9578C9AD76BC7D8B47C5A78CCDC8BB89AA97BBBA8AABBA99B8567B78ABAFA668868A5EA6A698956
col22:   7975CB577A6B4986DA4988899EABC8AD79668D77BC98782B7CFB56F6BAB8664C8AABB7A7A9AA8A93
col23:   798B79BB9CB7A4BA87699ABA7A775B8B898ACD6BB76A9E8CDBAA7D656AAA7CB789C96C97646A9535
col24:   6AD6AA8A89878B97498477487C97A88A476A8DAAA6B8D7B4788867889A9577468A8C948379777385
col25:   A8366AABAA3698ABAABA9E887BDAF7BA9CB4C8AE8C5BF59D7A98969C579986C9667B9C87C6768831
col26:   78A78767BC6CB8C88787BAED9EEDFBC7BB6BBCB7DDA9AC44ABDAAB86C7DCBC7BBB89B5698A78B8B6
col27:   8999887B696B77B98ABEDC8AABDBC985B6CB8D8899AB7DF7CA77D6AC48BAC7CCABBCCA8988B5A869
col28:   6B8898CACBFE7BD9ECEAD99EB99FADBDEDBCB8DBCBBB9A9CB8AFF8BA9BA9C9BB69BC7B799CA9A889
col29:   D7B9AFAEABA79C7CFDD99D9F9D586CBB6BBA9BABECACC8DFA99F8CA6C7FD99AA95D2CA8E9EBBB978
col30:   76B6EB8CB67F8CC8BB8BACBCC9DEB9CAABECCCBDFA6B88BAEEB6BC8A847969A8A999659858899975
col31:   DCBAB8C89CFBB6ABFBDBF98F7CB8BCFDAECBDD97AABFC58EC6AADD8B97CD7BAADC798FB9BADD9868
col32:   9CC7B4CCCC6A8978BACECDB99DCCD9BDABDCBFCCA9BABD986A9BB7AAB4EAFD998876BBC9A9A7C7A8
col33:   CBBCACADCBBEB97ACBCBDA8D9FB8C8BCB98BDDFDDE87ECCCFD7BF6CD6D77CBDA8AC6CA7789B8C697
col34:   4BCD8AC9BFD567C7D9BBABDFBDBAF9CDCBBABDCB9EACB6A7AAC8DEB89B8A8CDF9B7CCBF8AA587888
col35:   9969EAB8CBACBB7E9C9EACC8CD6CDA86EBBA6CADAEBC8B3E8A896CFF9DFEF894AA97F699B9F69BB4
col36:   A6DEA98B6DABC8DBDB7DCBADFBAD9A8D8FCEFE9ADD49A8BAA6DB8B79B7D7CBBC6C9D988DB6DE9A87
col37:   B99AC8BCDABAFAC7A9EFCA9DD7ACCCCBFAFAA9DDCAECCFAD8A9AACDABDCBBAD8ABAACBBCD9B8A9A9
col38:   8AEBE8DDCDA9AAAA8ED8C8DAE8CCA9AB9DBEDABDDCEDBEADDBBEBEF5DCB9B898AB69CAA8BCC994CB
col39:   C89ACC7C9CDBEA99AAEB8ACCACA9DBD8AC9ACCBBDB8D8DFEBDBD8BACCEE989578B9AA9ED9C8CF4BA
col40:   C99A9FB8B8DB75CBB8D9BCABCDDAEECBDABDABA9B9D9E9BFBBCBCBCFFBAA8CB696B99EE99AFA9E9B
col41:   798BBB9FCBBCBC7D8DAA7CDA89EBBB9BDCDCADA6FBCCBDCDC5D6CACAC8BB98DD7B879B99B53BB8AA
col42:   B86CBCB8BBDADE9BC8A9CCDB999AB6EAEBEADBCFFDFAC9FEACFCBEBC8999D9D788969ACBB9BBA9AA
col43:   CB9AB99CE8BB9CACAB8DADDBA997ACF8E9A9FCB9D9CDCECCFBCBAAFBF99D9A9DCD9ADDFACBA78EA9
col44:   7967E8B9D79EBFBCFAABADAFAFCABA9DDC8EDFDAFD7D9B9A9ABADDCF8A99DB7D6C7AAA7BB7CE7CB5
col45:   9B4974B8D57AA6BBAA88B98E8DFBEB8DA8FE9BEBCBCBADD8E9F9E7BD689DBA7E8E8CA9EECE99DCAB
col46:   869B95FBADAAA9BCAA88BE9BB89E7DDFDDAAFACDCBCBBDBB99A98ABCC7AAA979AB76AC9BC99C7DCD
col47:   A76BC68A998C8A7C77DA9BFADF97FB9B7AAD8B9AAFDB9CE998FABA4DE5C8AAA9AB6AA944B7F5EDC7
col48:   AA77A9C8ACE8C6AAD9EDB8C9DBDBC9CBBB7CCF8DBABA9A9DB8D9DDCEB99AA79B9A98BFDAABAA6C8C
col49:   8A86C767C8AB87668DE88AABBDBCC7ECC9997CBECEB9ACAAC9997489D5A9C8C96CE68C88CAA9B889
col50:   7A3BEB5ABAAFCBCADEF7DBDC8EB9ABDBCA9BB9E6D6CCBEF9EBBDBAFC99BBA9E7B5699ABBBAA7FBBD
col51:   754778587998A797DAA96B8AA8C8D886FBC65D9B6CADB583AC6B7CC4988A6746BC8BB76A87479664
ROC:     BPix_BpI_SEC6_LYR4_LDR24F_MOD4_ROC5
col00:   455141753767C62866847167995516742ABA9788968C5A4B87727966896264778865837963675636
col01:   845567AA66866A99885A8857994B884778BA998878BC56487545AB567D8A8899B587AC6A97A85658
col02:   7A546765A66AC396A8879AB77B9775778AB8E6A8B88988B78658A275589499A779A9356B6BB99884
col03:   37475677A84AAA766A87A884A58A6A769968B865B5786BE35AA587767799A853AA9498669A6B1699
col04:   4978489786B88A75A69995A5A86B67A77886B54589C7B488C47A739BBB9A9A77B9945C9475B8A783
col05:   5687A786A6958B89668789C666A998A89758699A8B7888998A445D6B847449467769AA8868CB5946
col06:   887889867A94B6879A88895B8B98BAA578EA898A4BA567A5C6B8C87AB86EA8766A6896AB86968A65
col07:   A478CA74989977A95ACB889799C478BBA82AA972D9A9A8D5DAA9A996A9B769C7BA7AB5A65CAA9966
col08:   49495A679B8598B51A888A9C8A97889994763C68689A3996A9C9A969A8996A9379B7A7A88BA97B77
col09:   B79595689BC99865657C769CA5BB475ACCA798BA678C9BEA76A878A6979A7867778D7C97769776BC
col10:   337764867B89CB58865869CD7AA88B76676A99788A9A6ADA77976669D896AC3C89799C7C8517BA86
col11:   89669986586384789686BA68796786838A7CB897AA9889AACA86A67E658895B97B8C46C77B78AAA8
col12:   69664571B2A784978A9A8855BC3DB999AAC1776AB5C7B5CC457CCBB7856B9764689376A56A3A9963
col13:   B97689718576A66797A697CC786A97B58AC9799CA689C58AACDD874B9C779AD7777B69A85B766798
col14:   B457A44B6A57B969877986A965799C959CDAB86A8C96B79967C7B87698C76BB8C866B48879654A4A
col15:   6A287A748A7C7B896A6899675E98ABD65578BB9B6578666B7CAB485A89895A6D4BB75666A7A29875
col16:   7A9775B465B736A9966A7B49D9887DBBA959D5A7268A6CC77C4C9A66C8A895BA7A86897A3688B713
col17:   4596485258A9B7975689D7859685F7794B78976B678CA69CCA7788966A8784A7476556A6879997A5
col18:   864779696464C4697868789AAAA73B567A768687BA7ACC8459676956D68997C9BA645B6B68976895
col19:   723877655AA977A87C4976498AC5975B8968C6988C7A8E9B7A9B9BAE9698D5676D78A7A668BB8526
col20:   85779819C495A676B77B5B8687A47955CBBA6796667CC89C898A8A8983FA384586C457794786A637
col21:   896C696B65676475A5BA787A785ABAB88A96894BA985CAB77638555AA6AA88667599994B78798696
col22:   6A7544B99939B5869A759C89939AE58BA8B969B69B49963A5669E8B45AA39699B5853AA483685B75
col23:   C954919B487655967845A868585974BACC8DB9A6BE88755889579CB4B9895AC297A89448B4977452
col24:   7A79827838BA458BB79DB769D889B5ABDC9777D9ED7966777A67D57667AA8BBA7647BC4A68586777
col25:   56A8776CAA9AAAAC865A977DCFB668A86CA79BB9AA6E9AAB8D98D988167819B6579A86A87778C448
col26:   76F6958684588B6BCAB9A6BA8A99BBCBA9BA669F8ACA7CA79ABAA9B9C8A998BAC98BA78B89AB54A3
col27:   5A72766996797B998ECA8657AA679A674A69B9C59FBAB76D56A8BBC8CA99D9A469D96C866857BA89
col28:   835A945D8B6799ABA89BB7B787B79EDCEBA8BD9A9AC8A5EACAB86C879CB98B899DD596B8B88B68B7
col29:   796787995ABB9C99ADBBADCBA7A8DB7AAB7779DC9B9BBAC98B885AB6A6D7A9887CB787977B688B79
col30:   B99598668E89868B968C78699BA89AABA89798A9ECBBBAACAAD89CAA9A9D96697C7562997A797786
col31:   578B77A8879AD5A8BCAE9BECC8498DABBA99ABCFAABADC4DBADAF9B9AAD9B9667DAC75777BA5BA79
col32:   9B7788989BCAD6BC8B998E9DB98ABA89F7CCA8BE8CA69AED7BBAEAABAAC87CB59B8A8BA9A7A8A5A6
col33:   A69C7B99D87C789CACA7BEAA97ABCDCAF8C88AB89BAB7889779EA5A579788799968689768A8A8979
col34:   77BABB7BBD88B76BC99B988ACAA997D8B78DE9BDAACDB9E8D8CBB7EBC8A8BB8C97A99B9979DAC7A8
col35:   58367A9A69CA9DB7AA969AA688D96A8BDCBCBC98B8BCC5B9ABBB8AB7AD68D8BCBB9B875987C87A6D
col36:   9977969BC6ABC7859D5C897CABABBA8BBDB8CEA8AAAF9B8ABAD9989A786DD1C9CC6ABB7A9A599A88
col37:   B8EA88D7A79C68C8798CDAEBC9CAADDD8CD7E658DC6CF9C9BDCCAD5C7A9E889BDBBA9C9AADAB5659
col38:   969BC565897BAC7BC9AF888CBDB8BEA9D7F6ADBADCA5C7BD987BC8B9C9A9CBBA85CD7987CBACBA6C
col39:   7A24CCB7B9A989BA6B9F9B87DBCCCDABACCBA9CBCA89DBBDBBB77CEAB7DDBC89966BC8CB6B79A9C5
col40:   696AB7C79EF8AEDAE8BD97CDD9BEADBAAAA6ABD97A89DCC99DBDAAB9CB99CCB9BACC5788BBBDABAA
col41:   AACA9C9C7AAA789DC89EDACB9DEABCBF87DD8A9CCAA6D78CFFBD8EB679C8BC8A6996B9B9CCCABBC8
col42:   6DAB7B9BDC8BD9ADBC39C4ACDCBCB8EDBBFDAABC9BB99A9BEDF6C9DAA999AC88BBF6BC786ADAC7D8
col43:   879F8AA8B7ADA68ADB9BDCABCDCA8BBFCCFEEAE9CEEDED8F9F9EB96D98D7ADAB8BBC9AECBB8BBBEA
col44:   A9AD985A9DACABC8D85BB59899DC9DADCAFEBBBDAA9BDDABA9F8CBACCCEA89ABAA7BA8B68C99DCCA
col45:   99BAC7889ACC87B79BADA9CDBDBCAACACEBBC88AB78D86AC9CEBCFA9B8EB9B89AA5AB5AABE9AA6B6
col46:   9BCBEADA75AA89EEBA9FEBAAB9C79D9ABAFCDA7ADDFB9F88D9DEDAB8D88A7CC9B8AFCABD9F8C8D9A
col47:   A58A999AAAC77ACD6BEADF89ACC7CAABBDB87AABDDCA9CAABCAD7D8B9F989AAC97CA6BBCBCA8CBA9
col48:   5968785A7EA879BCFAAABFABF9AAAACBABAACABC96EE99AA6BBB9BBA5ACA8CCB9A9DA89E59889BA5
col49:   9979A9889AAA4EBCBBB899CD9EABDAEABAFABB9A8DA99FB9F8AB8D9BBCAA9EACFDCB97BA7AA8AC7A
col50:   6C8A999D899EABAB989DBBA9ACE8ACBC9CFEFBBCF9CDDCABF8EC7CAA8BDACA8C9BACCACDBEC5BBEC
col51:   684B88887669A6498A97AAA298BD847BB9999BCA7A8B96968B98CAC86A469BC959475B877AB9A787
ROC:     BPix_BpI_SEC6_LYR4_LDR24F_MOD4_ROC6
col00:   6A7664A7AA547BC8B87BBC7978AA8CC9EA677798BCCD77B85C68D7E8D8CBA6E84B7B6C9BE48B478B
col01:   C777877AA9DDDF8ADBE9D5DAA979AAB8DABF9F99A7BD989C8AAC9CCB7CDA9A98BBA6FC946BA88965
col02:   68478295C876AD796AC7B4FB78B9697A977FA7C69C9A9AF76DA9F6DA98A8A9CBBCAA9EDE7AAACA6A
col03:   8D5769BA98A79DC9D8E88E8A8DE78D9AC88ABBCBBBAAFC48BCDA34989EAC889BA8884F5BBEA9ED68
col04:   B888BB6C77BBD9ADB568CA7CF7C9ACD7CC799B788A8FFFAA8FAD7BBDB9CAB8987BBA8B5BFAA9CAD7
col05:   6A568F58CF84A5EC739C9EFC98C99DB888C98D89CA77C87CCCCBF8CC9C48BBC9866CB567A8B9CCBB
col06:   489767DD97AA8AD9D7DADBCACAD9D6AC97F9ECCBBA8B6689E79CB9BCC8B5AA595CC6B86F969A66AF
col07:   BB6465C9C9AD987898BAE8AC8DAAFB9CAACADEACA96885B8A797ECA99CCFBA98BB997987FAC68695
col08:   7B59A82AB9A7B696BC9DB9E7C7BBCD8ADBCBCB9C77F59F88FDBC9AAAC8B5D6A4AA59E793E6E5F97C
col09:   8C8AB8997A989B99D68BB89EAC9A8A9F9C9CDB9B967D8B8EBCB98ABAE9A8DA9B6DAF7AB65ED6A589
col10:   977AA768ABC9D898BADBB88AB6BC9A8DC8CC6CABF89BEEAB59BACBAAACFA7788899CDA89CBDCB5BA
col11:   999B5B88938A399948A7ABA9A6D3ACE9F9B9ED9D6BC8A9C99ACA4987CBC9AC75A5D7B878CB69AA88
col12:   499898DAB5B7B97EBACAA96989D8DABCC7ACA7D6C9ABCD5C9ACB9999A9D8997B898997CA3A4C8CC6
col13:   89689E699B9A9B976588DFB98ACBAD8E977FFDA8AFBBDB788B98B9CEA9C7A7885B9AA9668C9759BD
col14:   8497977667954AA95D6CB698A797FBACCCB8BAB7C9A89A8BBC67C58CC9A876E9A88598CB85ACD669
col15:   87499A5899972A7D5AEA87AB5C98DFABB9EACABCEF99F8BB88E87E78ABC88A8CCB6BC99D9A6AB799
col16:   AB538C2BA77899AC7897AAB88C56C79C87BAB987CAB8BBFA8B7B876889A7B8686A6C685AA8C4EAA9
col17:   8886956776A4BA6559762AA957A7CCEAAACBC9BBCED988A7AC8AA89D28A468C89A68A859BC29ACA9
col18:   D6669979A6F9699CA77DB78CA7A3BCD6CB9A3C9BCB785A79758B5B88B979DCA88DB4E49929685B75
col19:   976A8726AAC5897B6CEADA7BCC7E896D98A8BCFB6C97A8CF687C888ED85DACB59978B4B44BC7A5C7
col20:   496BCA9AC9999CA7769AFB9A77A999AAACAE8BAD99CB6C8E88BB8C77DA7588E958B7797859DC9A38
col21:   258756AFC5598E97FCE98CD6A8A9A9BADB9EBECE97BEA889BC74939ADB97C5A9BDBB57D79B9C3DA6
col22:   75679497664C9A7A72A999A7AA4AABC99799F99A7FC8B5D8F796644CB59998D9A899A9686AB87CA8
col23:   6B7678B658678B94A78279A84C85AA6ECF788BAA6BAFACA9CE7A9877AA5AA87B7A8A97496AF7A6BB
col24:   A7427787667A96A6B88999D78BCA9A6A6A98FC93C8A8898A46B966D9877A868AAADA54588AD8C8C8
col25:   8A989A5678886795A8F4AB9E97D27EDA9AADBA987C75CAFBC9BAC78997DCBCA8A8A64769978C7A86
col26:   C5B4855CD8C8B8ADB8FB8B9ADCACBDCEAEAD8A6BC997F9EBCC7CCA3CFEDBF9B78CC5DD5BCF989EE6
col27:   6AABC89DAB7969B9A899A8AABAB7E7CB9ADBBBBFCEDDAC978EA8BD7D7B7D78DBBA9E6C69C6A7CB72
col28:   EABBA4DEAB8CA83ACABFB79ADCFB9F7B9ACFC8DF9D79B8B8CB9BBD9ADD9BD7AC9A7BAC7BCC9B77C4
col29:   7E668A8C9959C8CED569DEBDABA88C9DC59C68999A9C564BD98ADAFAD999CFF9679C986AB3CBCC72
col30:   6475DBB6AC9DC8FCE6CB866B9CFBCBCDEB7EBAC9D7FE9D789C7ACBBC94BDAAADCA7D89BAE579F898
col31:   657BBE78997CEAFB8B78CABCDBA7BBD8CCBBBFCBDBFA9ACD9BD9DC9FD9EAC9D77ACCF9ABABF9B98C
col32:   2793A599C97FAA8A7B9B8EBA6CF7CDABFFDDDAACABEEC7ACE75CE77E8C9878A6CAEEB88BBA98A789
col33:   B776FA98EBCFC789A8798D8CBBD7ADADABB7DEE75BCC6B8CDB6DBC7DB6D9A9DEA7CFE8DBBAE968A7
col34:   C9B9A77A6B7A9DDC7AEA97CBC99ADAAFBEBFCFC9EEF8AB6AB9B8FFBD9FEDB89CAEEABA6BB9BEDCA8
col35:   AA8CCFA8A8FB9A9EDCE9EB6B7DDEBFEAD998EF8BFBEEFB5E9BAE8BBDD99767AA7DACCB7B64BBA96C
col36:   7A6A97A4DAB7DA7AFB7CFCBBBEA7ACBBFDAD6EEEBBBABAADCC9DBCCB9BA5CBACB9A9B959AC98AAA9
col37:   BE89C8AFCD7CCE8ADCBE6BDAF9BDFFDEBBC7BCDCCAFAACCCDFFFA7FCFAADCC6ACCBA99E9A8CBAAC9
col38:   E987A9A7AB77DC9CBECCABAD9BFCCFEAAFD9EDEA7EBDAACDEBEC9EB8DBADBE6EABB9836FAADA9B9C
col39:   5B87D4DB9DACBF99BBA8CBAD7BDCACB9DF9AFBBFB98EDEDAEB8B799BAE79A99EB8FD6ADC79ACD798
col40:   6ADB9E88C8DC9B87D8AB788F8EC8CFBFEDC795CCACB7D9DAAC9AAE9AA896C9BCCB8A9DFAD79F9897
col41:   8B6BDABBDAA8EECAAADCCD99EB8CEBEBECEC6DBAFBBBDBECB94EDBDB8ADB98FCBE88B967D8AADE47
col42:   E7BA9ECAC6CC9E9AAAAD6FFC8AD6CBC98DFC88FAD5CCBCC9DDF9CACEC8BBBFDBBC6CA799DA8E98C9
col43:   C7B89DA869ABA79DC7CBD96C6AC9D9ACDCCFFFEBB7BCCAEA8AC8F8C9DA784B99FDF978996DCA6BD7
col44:   B88997C7BCEDADCBBAAB69BBA7CDB9B9677FADFB7ECFDA9A9979CED98EE9BA8BC88BB97AC99AADA8
col45:   899AA8FC68CDDBACC7FB9B8BDFCFB8B9F9B7FAABDADECCBEBBDED6AA7BAFDBD7D8C7AD7838BBA999
col46:   3A7AA859CDA297D8FAEEBE9EC8ECDCB9AE7BFDDDDBA97CB7F8BBC9BDDBD6CDEF9A8CFC64A8867AC4
col47:   ABACDCCDCBEC77C88C98C87CADBCC8DFEFFBB9D7CF9C9FA998CDCA5A9DC7BBBACA88D99989ACC496
col48:   7C59B95ADB798B8BCFB958D9FCB8DBFBF8A8BF99EEBE9E98C7A9EBD6B8789C8B97B96CA69D9B98EB
col49:   76A5859A9AA36B98A976BD9AEF9BABCDD9CACB989ADCE8EABACDD56BE5B88F78C7D5BB8DAD8A4E87
col50:   9B8AAC85CA8AEDBF8F6C99BABABB8DBBD8C7CBC98EBACFAB8D7AD5CBE7C8B6AA87DCABF9C9697BB9
col51:   736B97C86CB9FB77A775B6C7789ACDC9A79ADBA8ABC8457A94CC97677BBA982B7A694583A899A7BA
ROC:     BPix_BpI_SEC6_LYR4_LDR24F_MOD4_ROC7
col00:   55567427256677A638876469A969788989667977655B7857487987633A7985BC968B88A958A59278
col01:   2845A8B5BB73777579A86F57A6CB87699465B99AC869669A8846A77A8BAA4EAA67976ADA79BABA68
col02:   6429197996548688676A8CA9A77D9C7BC85B79A679DBB9C95A98986396D4B7B73778B8AA8A8748B3
col03:   61B486586568AB7AA569746A6979B499A86BA6AC48B6576B98B75869B663A94A9B5678A665A957A9
col04:   64678475A897B9B69735A6768887BAAB76878A98CB78B988B97A6A46A6887577B757948A6676AAA8
col05:   5758788448586ADA69A793A776497578C77838776699B7A95995C6B9471786A8597A576497B59873
col06:   7454787769976A69A9B87B992ADDD9684B37A8B769AB7645A89A76C755996AA2BA9A68498578ABE5
col07:   95A9D89B94756CA399AB9775BB889ACC8EB7FA6C96CAAAAF798A98AA8A699977BCB9867C858BDA4A
col08:   83A56A1A955966696B5AC8B88D88A9A9C988958BBB9BA9964D8868697CC9B78A465CB858ABC768A7
col09:   4619644382949377C4B78BA995B888CBAA89A8898646779894B66BC77A959B98B4896B4A9B969658
col10:   67158A895A4798B8796BC68BA74A9C97D974A8777AA967A977937B78879A99766CA9A67C595AB754
col11:   13698AA6595A968685AC476B7898BAB8CBA8C889BC9C4875A8697C86A469898978495A46BA976C88
col12:   6386589249C9A69B58B93798BB28B57999AA796389AB8C7B9B5996A8628D76A4872E4AA894356586
col13:   6194936A6C7A8C5C2868A9C598BCAC677A8A899885B8CBDA77CC5D79EA7889965EA7B4798B4C58A8
col14:   47946847658565A39A98B788779BCD887DB9CADBC7999995C869D5BAC99A97CB77489677BEA47642
col15:   664799585545A99D6B74D88A89B68C96ACA4764999979765ABA7A5CDA157B67369A836B553377891
col16:   69753A9449297AD5B979886979AA5D998D58D8769CA49AB5B776588AA84A3A778A779BBB99B78C98
col17:   2229845665C67855DC559A69B8A858ABA89699A8A4D886A96C59C8D786A7A868B6966A797A959568
col18:   534285764394576893B6A786B5AB8B6B677497977646CAC37689AA7A8659AA7B468AA1A74B6BA6C8
col19:   8555A849A7967757879C9A659C89B686ADE99B95A49977A69797B8BB7988DC88D99C78663C769B89
col20:   8873387B36ABC7B5A86798B76B789D6DB86BA5B8787F98BAA989F69A688538A86A8885A7666CA6D7
col21:   78366975A6B8565575AA88538D7577C886A6688D8E998D87CB9B97CAD9749664C7858BDA8897BB9A
col22:   567388559B46579889C7666865997977852C998589A9A3897C8A87D9CBD9A4968A69958658767584
col23:   77A67781A27655776879986447797969A78996889A94A65A989C97CB49A7197299548A1776BD452A
col24:   64947785A613877A4699874F38AA9675BDC9C78999A9C69A8889B86AA76675945B7B99B6C39AA879
col25:   2187CB4E83876756BB7B99939B9D9D4D8BCC97894AC6E868B5D6E96955A95F9C9A7B5B7A43744A89
col26:   AB85C84758BAA89B8A9ACCA79CA8BF57ACFB7AEBD7BABB89DCD4AADABCACD89A8E9D9DA8D6BBBBA7
col27:   969B6AA4A338AAB8689B838CB76BA7A7BC85CA96C5A656CACB6EBAAE9C7A797887BCAAD88A788AB8
col28:   64B658B5A7866D5B75B9D69D9ADCDCCBABBACCEBAB9C979A8ABDBB69AAA9C9CB97D999A7CBAA497A
col29:   C66B43CBBAA3BAA976D889D9D9C3D8CEDAEDD7A96DD8A6CDD8A9CC4E7875DA9A96CCCB96C4BBAC38
col30:   78C53C77528766B997BCB96C8AA9AFDC6BB9D7EF7889D96BCB7999D79BDEDBB6678BBBADB98C9AD8
col31:   B978CA5B74A5A9A889AAAA9BABBAABDA8CCD8CAAD8BCBCA9996BCAD9B7DFBA6D7FAAA998B3BB9586
col32:   A898879CACE87BC7ADBCCDBCCA85CBCCEDA9BB7EE8BB9AB6A9CCB799D986CB9BBEDAB58DCB9D7C9C
col33:   6874BBA888B975A68B789A68CB85AD99A99C99C79A4997D7CC979ABA8ACB5EDDB8A5D8BE8C8C99BC
col34:   8849895A6AD698D4687A78C78D999CBDDAA8B9B9DEBC87B8B6C8B7CBA99A757BBCCABABD8AD897CA
col35:   AA65AA6E78979ABA79989B8E8BE9B6BBBDABCBACCDDCA8CEBC7FB974A5DB74BEAC87795D7DACDA8B
col36:   AC659678768BAA69BDDAEAAE6AF778AC9AB8EACBDA9ADB7A978AAAD5BAC8A9B96D9C6AD8C8B7D5B9
col37:   CBA4A88699BE59784889B9F7B77A9BD9EA7CEB9B9C3CFAC9CC9ABADDC9AAFAA9FF8B9BBBC5CBA888
col38:   836AD868BB9A799C9DADA8ACAFFAD96DABCDA8AB97BBC7F9B89998AF99CBED5CBCA9AB8EBCFB9AAF
col39:   884A79BB8A47C96EC4ABCACAC667898AAEA78FE7CAB78767AB7BC7BA8BB699684ABB8BDCDADE9A9C
col40:   97B687B955B79CC6B58E89998F8B8B6C9BC89A7ADDABCCEB9DAA79D9BCFB6ABB8CB9EF9CB89CC778
col41:   6A765A5BA8AD9BA6B28C9A8A89BBAAAB58ABBAC4E6BCCC99BC8EBE9EADBCBA8BAADCB89B9C88C889
col42:   BABA77798AB9EA66ABB9BBAC9999CBBE88B8BE96FBCCACBB7798AABABAACB9DCDCCC9B9BAEDAA675
col43:   76A8377C8A98DBCCCEB9978A8D9CBCABCCD8AFD9ABBBC7CDDBACBFFCEEFD8CECBC8C9D889ECFAA9B
col44:   B8A798779AAC77CDAAEAA7AC667BF8FEC8CB99A9E9FCABA8E8AAADBEDAEBFEECCFF9A6BDAACEB89F
col45:   589C59A5BA9889AEA899DA99DAA89B87AAB8AEB8B7C9B8A88CAEDAFAA8BBCBACB8C8FD8C9EF9E97C
col46:   8C5657769A998BC9DC879899CA5CBBACC78C97AA7CB9A96FCDECAC78ACAAAB78DB8A7B5FAFAABACA
col47:   AC86CBC9C7CDA878AB9B8AA8B88C98ACADEAA98DCED9C9EADCDBEBCB9A8E6CBDED8ABCC9AFB8BD99
col48:   778A78C4EB4A6AB9DABABA7A9DBBACA79A6E988BAA9CBB8BBBCBDFC7EFDBCDA6AD697BCDEA8BADBB
col49:   D89696ABC967AA95DC6A97D67BC9AAA3A878EBB7BF8CAB9CB686F9DB99AAE9DCEDDADCE9A8F9E9D7
col50:   CA63BB6B9CA8AB699AACABB99B9BBCA8B9B9DCDCBC7CBBDFAAACACBFB98EEECD9E9C778B95F97B98
col51:   B281C8967867A67B8B87C86776BBA9CBBC58C8BBEAAA3886BAA7BDA7749CAEDA87A7777CDC6498B3
ROC:     BPix_BpI_SEC6_LYR4_LDR24F_MOD4_ROC8
col00:   8996BD864BAC88B6A99C8AD6C97BA7A87DABCBD9BB58DC9A69ACB9AB8A5CB878DCA74688B899882C
col01:   9A8DAA88BBA7AEAA8B8B8A6BAEAECC99BC6BCABCCCBBF8CBA998ABBEDA788EDC87DBC79C859B8A68
col02:   A796B8899ADC89A9A7B879B9A58BC8CBEC69AE9E8B8768AC79CAD8A9FBB88986B8AA799CCB3A7876
col03:   7A939BBA8DA6B6AA8C8C99AD79F978BDAB9BAECD8D9DBAB99777B9AD8CCAB9C8A7CAB6CCCA98DB62
col04:   8BDCFCA76ABC58789ACCBAD99BFFDADBDEE8CBBFD6D96CAA98C67AB7C9B9BFBBBABCA885697DBCAB
col05:   D95B984B99A8A6AC57AAD9774D9DC889CAEEA89A99EA9C6EBC7C989A8AD9C848CBEAAA8A699AAA78
col06:   7797C69B6C758ACFDB6A887DFC9AC6AAA78BA8799B5BAEA7BEA9AA8746AC768AAB9A977BA7AB7987
col07:   B397C7C6DB99B8BB9D7CC36A5CAB9F59BAEFC7BAA98BCC9A9C7DD9A9C69CCD7BE98BE8D677B8736A
col08:   9D8BA89A8A686B68C98BA8BBDABA9ACD9CAA99889C7AA7CB9C7699ABDCA968BC795A5C7BB9A66887
col09:   7CA8978B78DA7A8A9A98B7ABDAB58CBCED9B8FF8BCB9EBDBCBACC49CDCADC957AC89598BCABD7BC7
col10:   547797794A7B99C8BA4A9A59B7BB79AACDA9AB97A77CCABDA89BCBBBE6BBDA98987AAB86577C8857
col11:   B7B67B9877C959A8A8AADA879A9C99DCB789AAC9BF7885DA89EA68878DCB6A6D899BDBB79CE86578
col12:   8AA79554C99C6B89AA8C8A98B7B8AC9A8ABA987AEBC7CAC889ADBBC6ECBAC79977DD977ABD8BA8B8
col13:   AA688C689787E8A85AA9A98BDADAFB9DCAEB8D99AAA9CBB9EA9AAC6FAB96CC8AA99CAC5A7947A5D9
col14:   6CAA64A85898CB6B98CC87E4B9B89A8ABC8B989EB9CBA8DEA9A7BB77CAD8BB98AD8AF7C6AC77B67E
col15:   6A6767AC86AA7AB8898A7C98B9B86BC99BCACBBB998EBBABACCC8969BBBA8BCB94AB78BACADC5958
col16:   99983886AB588778CC6AA79689889D6BBCBCCA89BA9ACACEBBACA7A8DACABAABBB5CB9877B9989BA
col17:   88A46A979977E7966BC89C69A7A7CBA8AB97B9D89A9DCC89898ACA9BA9CB748DBC98993999BC6DA5
col18:   84867C718965A889989C9988B8BBCAB98CA75BB8AA9CA99ABBA977D4A7CA8BA3BA97A7BC99955A6B
col19:   957669B99AB858BC89B9BBD8AAA5E8DCBCACBAD9B6CD8C4AAA9B9A689946A75DAA9C686D7BCB8B66
col20:   D8AB8666A9746B8948947CDEB9CA897B5B789988A99B669ABA98A97BB9AAB8BA95986AA8BA66768C
col21:   ADB8C9AC88C79E8A8998C57E9B7BBEADB98CEEC99BD7ABDECBA8BECB7BABB98846DBB7B9A66885B6
col22:   5797A6B7AA88AA5DC8DCABADA995BB6EB979989DB77489AB88786B88C888DB7B8B7D7897B969565A
col23:   99A77CABAA678999B987C7DF9BAB9ABAABCA778DB8A896BCA9B88C76B8947C865A8B8598EB9A9C46
col24:   B99799A6A859AC97C97A9899A7979ABB89886ACBBCCBDBAAA89C7897AB8C9A968C99AB8A67ABAB77
col25:   9856DA8BBEA89BD77C7A8CBB88AA98A9ABDC7C7C88C9B8ACB7BC9ACD8AEB8BA9B6B9CD877C579A79
col26:   A99A68AB6879BBAAB79BA7A99EADEC9CCEAA9BECCBCDCFE8A97B6BA9AEEE8A9EADB99AB8A8CA8A87
col27:   7878D9ACB89B6AB88C97C96FAB96BD9DBDD8CCCCEDF8BD9FBC6DACDC7BEBC6A9B8BDDBF888B687B4
col28:   A2D689AB7B9A7CF7CB888CBDCBBEBD5E9DBB6ECDDDC9CBDD7D8CC98AAFFDADFBD9B7F9BBD68CB878
col29:   9B999BCBD995899AAB66A86ABCABC9ABEAC9BB9EC9CC7CABDA6AC6A8AABA79DAAACD6A69CA989BBA
col30:   6A8ABAECBAE7BADAFACAAA6C89AA98BAD8C9CBA8EBEC8CBAACB9CFADCB75DC9C8B85D9AA9A2CAC77
col31:   896D8988AAB88EAA8BABAA9BADAFAEFDACCBACACB9AB7C9BCCABFC99E7BEB9E89FB8AACABC7CCC99
col32:   CDACD9AAABDCDCBBD9998A9AEAB6ABBE999DAA9F9FACCCDACB779BCBEACBBBCA86BB7987AD8CCBB8
col33:   FAC9BB8AAA9AFCCB9D8A8CAECCDEAABFCBFD8BCBCCCDFAAC9DBB9AAAF8BA8ABBDFCBAAA98B9B6DCB
col34:   BD7BC778B9AD9BCB9FA978DAEDFDDA9E9DDDE9BDDBCADABFCFACB9BA97BFDB887C87C4C99AA79B7A
col35:   ACC9AABBACECB98EA9BFCBDC9DBCAAEBCCBAC9EACD9DDDBBC8DEE9DE99E8ECDCEFC96CB7CC8B95DA
col36:   838968969ABEAAACBCD6DDDABC8CDBCCBDFD9BDE9FD9B8BAC99BCBEAFBEAF9CC4579DB97AC9AA8B9
col37:   D7A9E8CBAFACDEAECCD9CCA99BCEACFD9CBDEFECBCABC979ACAF899BADAF98DADAE97ADD8DB6BC75
col38:   99BC7DAABBBFDADEBADCCCBBEAADECCCFBF9EABCBABCACFECEBE8BB99DBFBE7CBCCC96B8CAFBBD9B
col39:   9578D9A8A76DBDAACDA8BBBECFFBDBABE9CA4BEECCFFACCC8C96D9ECCBDC8D7ACDBBDB5AADA8DBCA
col40:   9994A8A9AC7DBDACCC99CAA7D9CBF98B8CDCCBED79ECCBCBBDCEBCFB9BBDAADEDDBDA5DDD99CCCAB
col41:   9A96C6BCBDDA59EBEBCAB99CED8B9A8CCD96BDCCACE7DBAE799BC9AABCE9ABFFBB9979AC99789876
col42:   6BE9DAADAAFBABB9D8A99D7DDBDB8BF8CACDDDBCBFDCABDCBC8EAABCBD6DDD8DB8EFE98CECDAA989
col43:   F69EACECDDAAC7CCECFAFBAAAA9EAD9CFCFAACBEA9FE88BA8CBCCFDEBDACBBB8DA8DBB9D7DA9C889
col44:   F969C8A97DA9D8CAEFFCFCE9C8EEFD8DF7AABCF99CCDEDDFBBDBDAFFABBCE9ECA9C7CAAACC7BCCB8
col45:   E9BB9699BBACAACECAE7CEAAFDCFDF9CFDBFCFCCBDCA9EBCCFBC9CBF5EBBBDCABCAADAC7FABA9867
col46:   ABBD8ABB9D9E9A9BDB7BD7C86BDCBFAD9BDCBDE9A79BFAFBAD79ABF8DDCEECCCEBABBB8C97F97CAC
col47:   ECDFBA8798C9A9DBBADBCE7CCC8BF9BFAFADACDA9C9D9E9CC9DE9DFBCFBACAC7CEADD8AAA9A9ADBA
col48:   99AA598C7CBCCDBA9DDEDB9B9DADCCF9FFADA9BBABDDCCCFBBF9BDEFC8FB6CFBBDCBABCFBCABAEA8
col49:   79CDCABACAAFAACA79BBE7B8F8AAAB8BDCCBD9FCBACFDBEFCFDDBDCEA7CEDBBFBFCFBD9BADECAFB7
col50:   DDC79AAEBA49ADCA77ABBEDCA8CAD967EDDFAAC7EA99EBFCC9FC7EFBCD9CC8CD7D799CBCA689CB9A
col51:   A89E99B8CB99ADBA686CBD9C9D999DF8AACABDA7958A878DAAA98BE9C9798BC46D98E7E99C75496A
ROC:     BPix_BpI_SEC6_LYR4_LDR24F_MOD4_ROC9
col00:   5416858655266257793378689A6475A5646A775894B65575A76AA9B749978776557897A471965232
col01:   259577957A468897547484A9868A84488A76978C9695668784958799574488B6565786B986418586
col02:   762374485753857546668848A55899B88A46D6A86646594B89956A59878BA9467687386862897595
col03:   57846473545588375769767B72B897BA8A64867776A9887565A758768979AA997A97757895166564
col04:   56674786568451567553657565597857668767768299A78858846667866765B7967A8985475A5995
col05:   6758998867976A65A998458C8B6684955A74466688696857988684977BA54966A67A9B668A366766
col06:   646684A65585548754668586985395A7CACC875C84956696698898A88DAC858985B6773976481966
col07:   56996795969988A859979A6639B5BBA95B6BC677AB27493F7998B68967CB7B8D7B26959258837995
col08:   6855761737A576835794887289A5964A9865786986647B97478856A9567977779A57874774576988
col09:   685A6796979587757979A789586498ABAAA899B789CB7985877A87A88879AB87869B7B7578788676
col10:   79A567828663679369597656786564467C9BA9A8699975A88A8AB7894486B6888317864677847544
col11:   77973855438598A5694878A699B4DAB9AB8A967C83886A6A77675EB9967775688769AA9ABA86846B
col12:   884773118673776953598A686B7A895859686789B979654976936B66899AA9B279A5686767779857
col13:   574447785A37B76684469C6A878A879A8C7C9C969898788885987C97684978675995489793769837
col14:   8966854656377778878683916697768A87B96A99779B58799779895B7948587AA9867876284765A7
col15:   58675366C7B597368676659A88C7BD6A967D698C894AB668758574AB9C86798C98784AB2545487B7
col16:   84663677786978998596557679A3599BB988AB86498A77A9987886777C8B798B9BA737827B766495
col17:   54861378797594986858776696859B4946A8C887BA78AC9BA9679BA96B677C896B7A859A39495B78
col18:   77635557554833868C3B78A857862A7C87788A8898757A7A459748B9985498566927797276562157
col19:   8768889667565766867C696A4C6AAA95983A7D5EAAA97B88AB97A6C75989D7AA9786A9783A788577
col20:   645734755875A768889A5B788989687A5688887877A9585B67B85984897866876997BA9878944695
col21:   563A8867477A487B8BCB8698B96B58B96DAA3878A986C9B8A996587A8A756958B237855AC8878457
col22:   535A8A65578B7855676B88795C9477C8AAAB798AA659787497E983B9A7A97855939984A48B68B796
col23:   FB73777863769663368A84A8698BB46898BB7889789899AA5BBA79999C6A767B9687696872697465
col24:   834742788713867467857696A47A75499977A689A9A379B589867588B9879D85765784A366775556
col25:   9A748C66B6836777766756969874A797BC76658A889B89CB987877496C8BDBAC999B539587757A5A
col26:   869A39559A769B8A8B8AA998A85AB99CCADEB7977A776B99977CABAA485979786A77A69A57857A57
col27:   4A598A888ADC5CA8B88988C87878CA8ABB686A67AC86CA985AEBCA9668799A97B5A9989BA78A8986
col28:   A65767A9A798977A96AB96A6CB99BB89C9B9B7AA888AB7ACA76BAD9DD8988AAA9A9BB858A5686777
col29:   5B989786C7A5BEA98998C95B9ABAA95BBCABC78DDEB9C76BCC6BB7A9B99EDB9A89986477B8ABB97B
col30:   856A987BC966C79A8EAAC999ACB9B987DB97DB78878C8BCACCCAA99C799A889A68AB8C94946C9BB6
col31:   9978C779B9A9A7E8ABB8AECEA69BBDB789A8C8CABCDDDDCA9BB7CDB8B95B88776CD6AE5BB977A9AA
col32:   8C9796A6789748BD6A85AA89DAA988A55CCBE9CB89BCEDCBAA96A79DCA99C88589CABCB6679A7788
col33:   956CB59A679BA77B997AAC96BA779DACBAB8BB8BD69B6899D58DCB9CB68EA8BBA3B788889786ABB9
col34:   7A79BBD5589999DAB78B7A98ACB8ACD89ABDA8C7A75CACD4A88AA8A9DB8DAAAB9ABBC8D5CA979969
col35:   8789AD9BAC87995ABDCAC6DCCB68C8AA7FBDCACBAAE9EBCDC57BCAFACCA9DAABB98EA9AA8ACABC8A
col36:   6A676899BA897A88C898A7A7A9679AACAA9C8DBBC9AD8A9A69EA8DBC8CABAA8DA9BDB6778A8986A7
col37:   669BA799A985C8A79CEFB9ACC8BD69EE5C8BBEBCC9CA7ACBFA7DABA7AAAC8BE97BB999ACBA8A7758
col38:   AB888BBB7AA7BBB8BEACACBECC9AC99BA7B8A9BBA7CDEFBABBE8BCBBCE8A7E9E99DAA8998C7D695A
col39:   B6A6BAA8847AB7AABBAAB9E9AA89AD8CC8F99AD88D98BA9BBA89AC89D8B9879B83CBA86AA995797B
col40:   AA8CC8CB99B968B99B98CB9CBCA7EA77FEACEACF9CC9ABAB9ECC78CB6898A8EF98A7CAB97CBAC8C9
col41:   45BA8A8BC9AB76C9BCDB88BAF79DCAB8BB9D7CCABA88DACEB9779CDBCAEABABA988BB8894DA8B89A
col42:   A9B8B998AA7B9C8CBBBBB9C87EAFD9B78BDADCCB8C8BC8D9CC9CFACEDB9A5ABA9A9488A79889788A
col43:   9C98AAB9BDA8BBCBCA9ABAEBADCCADBDBAEADDCDDCAC6BBB9CBBBCCABAC88CFBCADBABC86BB96C5A
col44:   976C9A9A779BC9F9B8CB9BC998BCEDCBDC8CCB9ACDEC9CA99DCF9F98BBFCBCABBAB8CB7A998BBC8D
col45:   AA698C8B8BA6BECDBAB9D9AD9A77C89CDBFBA9A9BEC8CBD989CDBCB9BBDC88BCADCBB8D8CC9598AB
col46:   8ACAA9A999AB9C9CCBCCAA7D98ADCBABAD9DAABDA8DF9A9BBEBBABAF978CBBBBBB6A9D9BAA7789AB
col47:   ABC8A6DADC79BAA79C9DBAAC9ECFBCC8BFCB9FCBFC8ECBD7B9CBDFBCDBAB9A99898ABA96CAABCAAA
col48:   9AB8B9B8976C7B79DE79CABE9EBAB9C9CDACAAE9CBDABB9ED9BBDDBBCBCBE6CCB9A7C88AB89B99C9
col49:   BA8C99F79AAD8B8CAC8DBCBBDDCB9F8FEBCADDCBBCA9A7FADCBBADA9DAA89CA9C9ABAC89D6D8999C
col50:   AA6BBBCA8AA94CB8AA9AB979C8B8DABB9B98CD9BDCAABC9C9ADCE899FDC97C9CA9C98CE8EDBCA9B8
col51:   69999967BA877978BBBCA9C57A87DACB79FCAE9BAB9CBC9ADC89BCA867C999E6DA688B868EA9E7A7
ROC:     BPix_BpI_SEC6_LYR4_LDR24F_MOD4_ROC10
col00:   72646636B6115751587798371A76AA837A7B8A1887597636A6475878474662677685A66693A975BF
col01:   76539655669968677858964889846899A76844B67659766B65986639677987846778B9496AA75894
col02:   656459574677666665647366A788C597B3A688A6B47A7C868678697578A24757B85887A874577366
col03:   5133437A936393588457696B74689565586899B86AA499A69775A5A6A9C79C8A41268879A86687A5
col04:   4A77758366657697978699868B7775669976B8975A5A67697478758338A949C5788896884565A995
col05:   799786758867794587358896959578886997A92A97769B5988699576BA9467889593686A84984A95
col06:   2A5478A5967287877773986754B9B9438877C764A18967B77477D8877984648897949B595994C77B
col07:   786755669767715825A5B6B9479B498D77A579E87BC7865A665969AA78869C587297B9858848A889
col08:   66A65477764987827398675876C3C77766689856668A877467AB4B5BA797699866974969A5B9778B
col09:   4884B61B89672766858A8696C87378A47DAC9A7549A8A68974E97678C7878856895B98AB57666C96
col10:   5575644898648586674989379799A7A88886887BBC867C89587AA674B6CE8C748B99A66A68397A99
col11:   36337499566275636C746766B8958A75A79986638997B8C98C495B888C4779975675C76536559696
col12:   794A384A677689835875A4C95DA686958985AA75A8797B787A4998A8A48A87A661B9AB8A97B765A9
col13:   9284695987877968454866A9A593A8A8B996749A88B766885BA97988B6C655948673C997C7978C99
col14:   545683845568A4666C89787A3846B959896896C79794A9758768EA8695C4766478765755936D3A54
col15:   B47477697977976827878876A857378699668959798787E8BBE4BC8A5CCBA95C967A657679468665
col16:   77668C758556A754A9549C6AB758A75574975578BC78B66AACC79889954589766899DA7A85A9964A
col17:   473A8853475758566948A6666877926A978689A976773E87D6A386897A9796776666775785C97795
col18:   A78538A56658A6A66334598677599967784686856474B673A7A5787996B67A96B887998949893AB5
col19:   56485746C757772689667597B8578696B8ABAA8999A96987998767C498A87B9BCB9878BC77798786
col20:   5876886534758748A864888C667769C7B877979774CC888ACA868A347A8B974968D7665679966688
col21:   77597654777389975569A7BC97879C7A798C8BAABA59888C6B9AC957A7D97B9A91A6A66878988ACA
col22:   62838897775A54A447A9767C69A89B6677A9A78A9ABBC8A89987579AA7A8CAA6786895BA66995899
col23:   244348329875577977A799A957A788557B78AB9A798BBD6A5A6585665A999BA49B689878885CBA94
col24:   8878416557346947A9686845B96C879E699B9668328A7386A59A88776586978899B68988A86B5594
col25:   5577A779A6B7AAC8859863865787996BCB77758BB997CBA86A79957AB67A6898BAA9A9935C56B6AA
col26:   256A73A58957979AB89B8699B9AA7AC7ABAA96A9B89969A9DB9877998DA877A79ABB8B5769959CB7
col27:   78769AA478869A9DA98A8896BC5BC9898B8BCABC7C896AB7EBEEB6896CBCBAB99F9AEA86BC7B96A6
col28:   989688B997BA849779AA589CB888CCA99B53ABBCAAABA9AA899AA6CB9D9D87AB994DB69AA99BA887
col29:   89997EAAB76585799ACA7BBB979A9EA9D99BBCEBB8ACE7978898CDAB9DAD97CCB8A4996BAA8A7BB9
col30:   47484588B58B8749769B8A9BB8BA5AAECA89CABFAA9C998C99998DAA8A8697C78AD85986C6A6CC86
col31:   73A44A78CBB9BA97D9A89989BA6D8ADEA8F9CB8A7BA7B8C99BADAB8BCD9AC9DB994BD96C87CA96AB
col32:   678BAC997659CABA99AABA9B788A787DC7B99D97A89B8D59A9DAB98AB798ABA6C9D8DAB78BE6A778
col33:   969676A77ADCB979C8995C8D68AB6A898EBABBA996C5CC7A9ACC98A9AAAAAA989B8DACABB9AAB9A6
col34:   97A6B9D5D8888B75DDCA999979AC99CABB7B7C9A9649AB978B7CCB9A94BD99C9BAAA88A9A4D97DBB
col35:   A769A587A7AAAABAA689B9BBCB7DAA79CBCBB8A9BABC8898BEAAE8AB99C9AB8DB7B467AADB7AA9A4
col36:   986495A97C95A6AAB7CA57A8BCB8998777B8B9CCBBCAB6994CA9AB7898D9DD7BC99AA98999BBB9AB
col37:   B8A499BA6C596A8C999F857AA9BA9BA89AF9B9B9C6CABD9E798ADACBACE8BB9ACBD7879C9866A9A8
col38:   89666AB786848BAD9DB8BD99CACA8CAAE99B97DDECABC7CAAECF8CA9BAAC97AACDBBABC899DBB798
col39:   776B87385A86C7AA88998AAA8CA7B9B8D8A97BBCBAC89CD9B6ACB9CCDAAC98CAB6A3FB99BABCD89C
col40:   776985A96B97BC885AAE8888AE7BA9BA8BC9CACCBCA979B9CC7BBCABBAAC9BA8CDCEC9CAD9ACB89A
col41:   768979BA97867BA78BAAAE9DAA7BCCA98A69D99ACBCAC99B8FAEC9CC7BB9B8D9586CCBD499899CF9
col42:   D78A967BCB88AA9ACB895E977998C8D8BCBBA6BBB6A9CBAFCBA99CBBAC78E9A9CD9BCC89BAAAA9AA
col43:   97879AA978F78878E8C9BDAA7BBBB8DBDBCACA9EDC99D4BDC89AFDA89ABBDBBEDBBDDAF8CAA7CB76
col44:   A55B95C79798CAA99BB5A89B8DCBAB7858DCCBDEFDA6BADBBEB6ADB7DD88EEBB98CC5BC7578989C8
col45:   9AB8A28A899C686CABEBA9B6AA9DADAEB79A98DD9DCB6B8BABCAC8BD98A88ABC78B8ACA6C9DC7BB6
col46:   6979B777B69A7789B99BA89BA8C9D7CBEABDBB98EDC9CCDCC9CB899BD9B9AACBDAAAA77A99BF6AB9
col47:   BC39B8CB97CAC89BB96AEAC6FABC69CCCADAE89BB8DDCACAECB98ABC9CCDD97ABB89DB888A989EA9
col48:   9AB76B8A98C7557A99BBACB9C9ACB9BDCB99BACDC7AE9DDACCCEA8C9AACCA587CBB7DAB99CB898AB
col49:   9C297D9B987A95C8BF79B9DAD6AB86B9ACCCBAA789ADCDB8BCDCBA9F9A999E89A8BBC97BDBC89CD8
col50:   BAABC9C789B9899C7AA8E9ABC8DEAB8ABBAAAB7998C9CACC89E8C9BEABBCCA888DCBA899F9D96B89
col51:   775835885A57A8A1B589686A797BAABC78B8A9966CA9BAB3B89A6DC798A996EABBAB47679FA389A9
ROC:     BPix_BpI_SEC6_LYR4_LDR24F_MOD4_ROC11
col00:   456486575765559477A87747689462659777765723A5296A688688977B586779891667745665A7F8
col01:   BB758784866873B4668883765965897A7B9C98677469ACA6646656396796AA86367983A499776657
col02:   4898781566A345775A5748A747B569BA978348559AA6976654736857787899A68556488695635488
col03:   777556452D64488986679568796D686AC9C57698B98487585685C6B8659C8AB8A598747473574AA9
col04:   36627555986898A577A64795996A99479646369BB94A798D766986997957A5963762687327C75755
col05:   A82467566A6466767895A376677A8A558799A1A7947AA7996789979985DBC5AC97976A6498877586
col06:   95436635A55976A6649768973752BA3A8877A568655B59B2476685856796B6778896A775696A9797
col07:   748D8A868756A38886AB9696A8986B77C65779AAA783A79AC8DB48747B849A5AA769B8848A8C5A75
col08:   A76A35B66A79988677DB89682799679987B89977997A7AA73AA68397AB93679675976AB7697A3797
col09:   26B6864A686A96696AA685AC9797B9A94697AA6688A77A8956879B68B188CE99E93966BA68876A7A
col10:   777B8337749845A9778465C785865974B7A5B876C97679A79396A9499797864B8A879596688A6892
col11:   345B79667775975757A757967A956A337BA759A67388479BAA6749BB89458A64C7C637A45B353997
col12:   636959367869745A8AAB757998498AA6AA896A897748489867AA7973A289966A6C899796795B7754
col13:   62696BA68A64B9788D89698878886B9B4886C7A9966E6A68B45A668588878778BA99869A97367833
col14:   878869758BA67BA7998CC9798874998C999A9779BB857A9A797A79A87BA8C67BD899996699653899
col15:   37958666B6785899676588769997ABACC5D5A7B777568B8A99C7A988A5A76595656A898558A46795
col16:   749478EAA85899CA979879BA8E968C6A96766D689A9D63958577DB769B67748A6788697B877797A8
col17:   9698838887896D5D56BAB9BB9597788888BB97BB6758A59D8B8785986C8A77AB6AAB857666969687
col18:   7583557AB87455A7685A8798798775887865687758989A6A697A99A49CA556794777867D7B98B475
col19:   947A66739789CAA7457B74A9BBA8A87A6557AB7999B9A979BBA8B49A6AF869766A6AAEB8ADABBAB5
col20:   67A499787968E99A9B67B7A98C35A7ACB7899396779ABBD899AA78896795A659C3899489A478C889
col21:   6584387B7AB6775DBA788897988C97979B5683A9A7B59826B9989966B7BBBA7AC879A95A99857796
col22:   7189A95CAB68B84587A95379C86BB8786A4CBBB97BBD7B997B89698888887DB8476B688686A49495
col23:   2467533A7589697695A979B8689889777A87A8A8999889998886A84A83B9778549588669A3AA5946
col24:   65879973ABB766B999998A77469AA89AC5A6A97C8898AA698A98688CB4BAA9848636A9678A748876
col25:   67A78B6978788989B8A99A95AA799AB7C998FAE7886A9A85B7C6988C788BB7B8A895785674898864
col26:   9A7B95C7A7AACB787B974998C7B8DCAEAD8C9979BACA9BB89687A8CBC957C68458BBA9DACA497AA4
col27:   9B8976C9969ADCA7958B8574CA79BDDBA9C8C6A9988CD8A7578DC98AB9887B9B889A9786585BBD69
col28:   B6897E98BBAE9C8688B8B9AC979AEB9A639B7C7ABBABAA6DAB9AAAABCBDBE889A9887A9B99B888B9
col29:   6B87A7778E9779566C4BCCABCBDCBDA99CC99ADF7799E8C8ECCADBD74ACBCCDA9CBDA6AC98EAAB9B
col30:   5CBBB7B979966B8AC7B68AD8BAB6968AF69CCAC98879BACAA89BC8BAACB79999CD759BCAC9BB8796
col31:   B869D897BDAD9B7ABEBBC9C8B79AA98DE7CDCB3C7CB9CBFADCBFC9AEDECBB9BDCB98AE87ABA68BBB
col32:   9DABA9A9AC9A89A8CDA77AAC9AC8AAACAB99CAAAFC68BCFCB8CAB9BAACDA8DAACDEBAFABCC8B6AAD
col33:   84C9E9A6785B89CCC9BBABA67CAABADB99BAB9B9BBCAB7B7BAB98BB9D96DB7A9EBBBA7B88A78CCCB
col34:   998D8B68ABADC55AADADA4DCABC9AEB989EBB6C97CA89BBB9A98ACABBBACCB9FAFCD89F6DDCD9BFB
col35:   8996A8CCA7C6BA8B7AAAC98ACAAFFADB9CBCBDABABAABD8AC9A6AA9ACA83BABBCDDBBB69CC7BCCB7
col36:   7ABA9766A6A7AC97CAB8BA8CB89C9BCBDABBD998DA99FCC9C99ADD8DBAA8BF7EDED98A7AC9FA788A
col37:   9B87C9B7A99BBC9BDB7A9BA89BEAFB97DCC8A9BC8BCDADBBAF86DABDBDACDB8AECCCC9CF88A89CAB
col38:   A9BC97BBDDEFBCBB79DDAABCDBCF98A8ACFEBACB6ACBC8AA9ABBCFADDBE9DAB9AAEC8AC68BCFBAAA
col39:   AC9ADAD8B8CA9CAAADB9AD5ADEAAD8ACADA9C8ADBBCADA8B8BDDEBDBBC99FCCB99DBBBDC7A9E99BB
col40:   928A77BBD5C8B7EABDECE8AFCDCD8EA8DCBA9BADA9A8BBCACB89CFABDFA9BDEECBA99EF5A8C7E9DB
col41:   7CEB96A89ADDBED79CFBDBEDBEFCDC99FDCBEEACDACBDC7BADA9F4C9ACFFBFACFBE6FB98CDACEBEB
col42:   BA79BA8BCB98C7BCF7CCDBEB9BB88B99B9BBB7ADBACAABAABBDE999BEACA8EA9ABBDA7ECCFC9DBFC
col43:   CAC7875BAF8D7AC7ADDADCDABDDBE8BB9EEEFDCCFBBCCECD7AABDACBCBBDCCBBC8BCDEEDDA8ACBCE
col44:   BABAEAE9BCBAABF8B88CD8DAABACBE9AEDAACBABBAEA8BDAA9BAADCEEACBDD7CEBDCDBCAFAC79F87
col45:   ABBAC988F89CE9EABB89BD6AA9CCB9FCC8DECADFEFBFF9C7D9E7A7FDBECFEA9EEBE7CDBFFBDAECCA
col46:   B98BBAD6BABCDA7A98AACC9BCBEDED9BD8DDCCCD9CCCECEEBAD7AB8ACBCCCCDDDABFBCBAB9CDAACB
col47:   B79ABCB6AD8DAAD9CDF8EBDDDDD9DABCC9EBBB9AEFEFFABCBACBCDCAD8DC9EE9E9CE8EC9EEDCEAED
col48:   ACB9B6BB79AD8DBA6A9AE9CACBEF9CCA9FABD9DDCAA99B8D98FBEBBDFBB9AC96D9CBADCBCD9DEFDC
col49:   AAA8BE9C9DDB9CBBC6DDEEADAACFC9DCCDDDFBFABBAC98EBFB8B8FFBCFECACEBAEABAC9ECA9DD98D
col50:   9A89AC9A9C7EBAFAADBCADDBB7ABCDDCCA8BCD7FAEDEBFCDFDEFBFFDAEDCECDEEF8EBBAAD9ADABFD
col51:   5AAC6BC6A7A867AAB7AACBB9DBACA99CCB89BDEAB9CBBAABEBBDA8CB8BA6ACC8C9C4A7C6ABBB8ADA
ROC:     BPix_BpI_SEC6_LYR4_LDR24F_MOD4_ROC12
col00:   32569567775576376695797B5955785539716578866267386A8454667A2544645277534951844661
col01:   76567688786468983486799B6967774996965A78557679788658886A5498686945676853A6866482
col02:   74967876774636A779A448C5887973742745976885A5859997685386B99255427526686925512452
col03:   5285463757B899963969487B656BB9669959C3875B876984669AA2697167493C3456959838474776
col04:   5847795568356A677D49898A9796776A5A77997AB7964AA587889658489766669B967469A6628782
col05:   19566472879363543C27848982AAB65AA874BB578863849956564677534865A764839D4855665635
col06:   62864179424886A2A6457C7BB75999884A876786AA8AAA699668768678566474652877437995B833
col07:   737A7943A98A39886A59987AAA6688BA987854796858498774742667A98C57228853546467585858
col08:   466658B897553957A5B3845D4774979897869A67AA779A8746666A7566AB56B564638B6679468678
col09:   6885675886899878577759999978B98686975A61A94A79756879976498A5B842564787A575C79745
col10:   9695575746787698B88987687948998886A98697699B8965787788A8A856974557675573AA89A666
col11:   7664777556692988997666A5569A7977A76BA97C8886AA75574A8A8AC7A9A67765568872664968A1
col12:   736662848886852176967898978A97A7974A8A77B8AB87A775B8A9787A7657B888C7A85466886483
col13:   725735A98879AB933299889C9698678C679AA879BA9C6BA7A697DA67875757497488158873797647
col14:   A169795646A6966A7879988C69C7B4A788BD89C9699688A85B773786787876476546644734A36C69
col15:   539646675745676A87B79649B36B93912A88B9D46879C7C7AAD8A65567B8995A3A55796863576584
col16:   5656756A8966C87649389C7A7588648B669895A98B7798A86B8A986988967688887B696787989577
col17:   6585698B8849A8976557968D4887699487959A987878558689699776498AB88798887A5788565657
col18:   875567B798A6577488B8A7B97749B6866867667855686AA88998776785B67C68C67A789753787654
col19:   977557656799799759598675968665899987C399AB68ACB69A9777A899897A4A9798888858A69965
col20:   5487436567949AA58BA4B99898948787B4569B888A69D8B8A5798647879A44A685975A7566896477
col21:   965575466946992A9758C6B973796989CB84A9A5775CC6B458D85A6A5A9B5D84688A678657785856
col22:   57782876A85985B5A889A88674A8989758886A9889A9B7A69B78AB85A796A874A4B68895867CBA67
col23:   83595797887747487A98689878588A8A7597647AB5679C46A7BE872DB848576B7887446667736584
col24:   747977578885627897B88B996776A88886BAC578988AC7988797B8AA8A9879A644868749A7748832
col25:   864618A68368567C9866C9BAA6688CA9AAA8BB79788D88AA77A9BA8BC66777B99CA99775475989A6
col26:   845628868D9B77967A75BA9C89AC8AB9ABA76AAA88ACC5C8999DCBBC968CA769987C7A9968678D37
col27:   5C768677946989A9D79C87ACC879868AD8CA8978AAA576AB8E9C5C7A9BAB7A9DB67B589666889778
col28:   A99A59B8857A8AB9A98CA8C99ACABB8AD9D8996BDA79B99A86BBAEB9CBAB8B9AA5A6897B6A578488
col29:   69878B66C7B9968B9B7AAADAA996C79BA8BAAA9D78AA79CAA68AABA98BE9DAA9C6A998A8ABA66795
col30:   B9B67A79A55AABCD9A8885CCAA999CA89A7BBA89BA4A68A898979A9E87BB8BBCB48A595B57477699
col31:   8A75997866679A8AAABCCCBCBB7ABDCA9B5A8ACCB8FBBD98B9C9BAB876B9B989C7D6AA879B7A86A5
col32:   8A5769864A99A999C8DA9CDCC8DBAA7CEFBA7EDBCC789ACBBBA9C8EB9B9AFCEA88BDA99AC8A99DC8
col33:   8AA88AABD7A6A97AB9B87C9BD9B8CCC8B98DAADE79DA97AA8DB99D98BA958B9AC95A8B88977B54A8
col34:   65C6CB9998B879BA9CBB99B6D9CAADAACDBAC9CACB9D9BBD9BBECCDACBCBB9939BC8A59CC89A7695
col35:   8AA7BBC79A5BDAA8E9EABCCA999BCD9FDCBC8EA9ACBFBBBBBBACDC7ECABC8B9CDABA8A96BC9A6A88
col36:   77A798889DBA9A97ABC89ACBC69FE86AFB8DAABBBACEA9AC6BB9CA7A5CB8CDB989695DB857CBA5A8
col37:   8877988AB99AB777BBBCB9CDDBBACFDE8AC99FBBEB9ACADCAEBADBEACB779CA6CA8BD799889898B6
col38:   9C88A987987B8ABAADDECB79CEA9CBADCDBCBCDCBDBAFAEBD8A9AACCDBAA9BC9BC846F9B98AAB9B8
col39:   8D8CBAC98876C9A9D9A998BDAAC87CAEB8C997C9BAFC9CE77CBCE75ABBED99D9BA7BAB9CAA87DC76
col40:   89BB698989DA78ABCA9CACB8CCDFBBCCBB9CDBAFB9EBEB9BFEBAEAE89BACBABFA89CB68A688B8E79
col41:   9ED9C8B999CB6B9BCAAD7EBDD99CBDC9BDDB7A998BBCABABACECECCACA9ADAAD8CDDBA8BC9988AC8
col42:   9879ABAB8CBAF379BE76A99C99BBEB9DC9D7C6FDBAC79B9AD9ED8A988CACA8797689A88A6C968767
col43:   9BBB9AB8EE9D7E9A9C9CCBDABDAEFBBE9DCDDDDDDCFAEFD9ECDEDDBACAABBADDBD7AB8CB9D8ADDBB
col44:   D97AEDD8BECBDEE5ABCAB98D9BCBEBBBEE9C9B8AFCCDBCD88CCABC9CABA88CA8D9DCC78BB6AAB7B6
col45:   9B8979B7C998CBC9D9DCCBCBAE8CBBBABDBCCB9CA9DB8A9BD8CDCAABABB8F7ADBBC957B998BAA685
col46:   9A9CFCDBDAAD8CC8DBBDCCC8BBEAC98DDFA8BB7CCDAECBF9BBB9BCC9AA7C9B9C9D9CCA99AABAA994
col47:   BFA9A7CEAECF6CC98CC9B9C9DEFDBEC8CFF9CE8DA7DDACCBDDFCAB8BDA9BBA8A99B7AB9A7DA78A97
col48:   BCBA66BA8DA9AA89CAAA97B88CCBABD9AD9B7B6BDCEDBACBBACADCAEBDBE7DB6BADACDBDACA5C97A
col49:   B97DACB969DBFCA89CD87A9C67ACD9BAACBFEEDBBBBCDDC7DCAFBBCDC49CAABCAE9989B8BBA55BA4
col50:   D88DAAD8BCBCABAEC8A779EC798DACBACB9BEACABA8CECDCD9ECB978BECBEBB985BADBDBCB88998A
col51:   A758B79BA89C688AA7B9C6BABBDCC8BCABCBBBCD9699A59CD9A958A5AA8D9A8BAB489977876A8861
ROC:     BPix_BpI_SEC6_LYR4_LDR24F_MOD4_ROC13
col00:   96799B86B44A89A6B35BA795B845A787998AAB897995B85DCFBDFF56A7F99AFCCCB89C89C9D9688D
col01:   6B86C8465799781787A5CBCD98AA8B99D96A9A79ACBDA769AABDB5BA8ADD9CB69C9D8CB97ABAB986
col02:   6936978CA87895A63ADD79ABF8A6BA97A88AABAE8B5AF8F8B8DD9989879A7B8A69E7B9ABEDB7A7B8
col03:   C6989BBB6D97898799D98BA8CB95D8AAAC89998ED87CE8F7A9A97D889D8AB5BBBABDABCC8AAC9AA8
col04:   9B6999758799497698C98CBAB788B8B998A9C89ADACC79BABC9D998BDC9C8A8C9FC8AECB8AA8A8A2
col05:   78558867565985B87DBBC58DBAABBCA9A9BBC8EB7AAA8ADBBE8B7E7B99AA7CDD6EFEBD9B97968BA9
col06:   B7967AA688B74A84597A297DBA99BDBA7C99AE9CBC798B87ABB7CC8D9BBE8BBC6AB6BCB7F698C9C3
col07:   4588754A78D9F3C8A6BA9C8899BAC8C8AAA7B66CABB489A7E79BA9589EDDBA98BCACAB96ACEBBB67
col08:   897694985A977A369D5AB9998877C9AE9BAB7C96A9DCAFC899757B7C8688A898BA97A9CBE796C38C
col09:   C69AC546BC96B688749D8A9598888F67CCFD8BEEA998D7ABFA7B7ABCB8DB78A3AD6BB89ADCA96BB7
col10:   552C74A73B97A66B897B9C95AACA57A94C9BAB9DBC587A9C99A5CAB81B7E7A8CA27A8DB9B48A9C98
col11:   DA8568A9787A79A57A79977A874AAAF8659C8CB9BF78985A6B9EB9A6F9A9D7EE9A9A9B5E6898ABAA
col12:   878777A4A78D6778DAB869B2AABA7BAC78C8A7FAEE79BBB77B9CB9689C9B77F8D9EB9679BCDB6986
col13:   A59882D56A9877889956BA7D7DCA8B77A9FDD99ADCEDCAFC98BCCB76978BC99AAD8B9A87997CC986
col14:   7A156649BBB657A873C9E9AB99C846DB9986A9DA999CAC6389AE77CDA98AADACA2A18C9A769CAC97
col15:   85557B5C85BBAA78D8C396A46C4FDDAD88D8C9BA6C99A9DAAAC99999BAACAEBB8CD8B8E8C7A87985
col16:   B648B7A82A6D8E47748AB77BE9A9A8DC8ACB9ADC8AADBD8AB8E7CAB9F69BC95998DF47AA839BCAB3
col17:   84297449755C76A978A8A5A79B75969B67AA9998CC9954A5AB6E8A99B97A6AA8978AB9B9A497B795
col18:   763579858689A9697A9CAB79668C6898C5A7C9B84A899388ACC59A66B88767C88ABBAA57CB974B6A
col19:   78587A6589A8B6897A5A99A88B9D68966867788A6BAA8B78AA6AAB7878B89A998BC88BB7B999C943
col20:   A66389A85767766B967894B6B767A9793973BAB6869867B79B6A8B8B8AAA9A8A67C1599A6C998734
col21:   768267247777A48587A79BC7CA9AAB97B7ADC876AC6ABC7BB8A9998AABA89A859C5A88A76A83E9A2
col22:   45975997C5A527599A7A768866996995697D998498889BBBEBD9899BAB468777C8A7A49A766C8BAA
col23:   558342B768859B4397A68BB98999A68954C9ACB8978C89999C8989A577A549C6BC2887B98798BA38
col24:   552A96BDA8A86856867684658AB9776BB6A79988887A87A977B49CC9A689E58C99A7888B877999CE
col25:   A83766588D7A97948BA97A95A9B699A7A9968877B7D7A88BBA7ABAD7597647A89AB8B5A9BCA9B887
col26:   57DD887C97A8CA7B9AE39998A9AF7AA9A9C89ABCCC9BEACDBA8B58BAAA969BAAC9A9A7966ABADDB7
col27:   94259BEBA979E9683BDBC7BEB865B8479BCE8CBBA98BA8B99678EB6DEB9CB7DC92ACC8979BBCBCE5
col28:   8867664BAA8C9B9AC8ABAC99ACCCC9E896AAF9779ACDDA987CA89DD5DEABC88BABDBD7E8AA9EB97A
col29:   75A9A2BBA894AAABA89B984CA8BA75ECBB99ABADCABA8AB7A98EAA9BBBE9BBB88B99BBB992BDCA75
col30:   8897999594A7C866A8799649A897CAEA9888BBCCB98E9BABCBC7CAEABBB6CE8FAC69CC88DA9CADF7
col31:   956CB66B9BDA9D6C98CD8CE886EA899B989E9AAAF9DEDEBDBAEDB8C7B9B9D79C78CBDEDEADD99C9A
col32:   7A85E79CB6678AC994B8ECA7A7DAB9DAA9ABCCACB699DACA7AB5EB9BDBA9CB4BEADCC88CA9AE99CB
col33:   86778AA38A8B8B8BAA8978A999A9BCAEC895B6ADDA657BB889ABCB78FA9DABB8A7F5977DBC5DAEF6
col34:   9AB9A3897BA8897869CC7AC9D8DAE98C9AB6D88C8C6AB9CB7BB878CBBABBD9C97DAB79ABCA79CDAA
col35:   898988778B899ABAC494996A7BBDEBDAA88CCDC7A9A99DC69798E89BA9BEB8BCCDBC9B8B9AB99996
col36:   798D59A8995867AA7BAA97BA99D7A98A9D9FAB99A56E985BCBACBEC56CACDBD8CCAC8CBBEAB689B2
col37:   5B7A67B784DAB79BBBADA8D8988A9BDC8B75AC7BA9AE3DABCC8DEDB8BDDD9A89A949DAAB7FCBECB5
col38:   6AA679689988549999A9AA8DC89C9F75ABAC9CDEB9CCCDCAFC9DBACCDAE8B9FACEBA9CAEF98E6EA9
col39:   A97A38A5A78BB87C87A7F8A9CB98DCD8BAA9C7B4C88A959CAD979C6AD6ABD8976CD8F9CBBAD5897D
col40:   86C76A39A9B7ABEA8BBBABA84AB9A886B9BCEBBBBDABAFAE98BC9BD8C8CCABCB7AA8CA979DA3BC9B
col41:   5443ABAA8378A66C69977AB5BC9CCA9799774C69CA8ABBDACBEADD8C96B7B6CBB79DCABDCA89B99D
col42:   87889D79A96BB889D879789F9C99DAAAC6C7AAAC68ABC7AD5BBD88C8F9B886BACD7378AD9B6BEBA7
col43:   A353618964A776A6B878B6BA9B96A9BD9B3BB899BBB9E7A885C7A58C88ADA999B79BBA7CDB68CD6B
col44:   4985ABCA86DAAF5988A88A98AC9DA4C9988999BBA9DADB6A3BC9C8F9D3AAD9DA98AEBBB9B5BFA6A9
col45:   57AAAB3587977AA889986998B5EAC4B856A588AAEB9DA9538675B5464989A9ABFDBAA9BB4B98A9EA
col46:   9783957A9796767E6A9868A789EBA7AA75679BB8689BC9D67AF5EBB66D7BBEB864D6998BC99CB9A9
col47:   8637DA897489A9B976BAA7A49D78958ABB97E485799894637C869AB77976989A9C8A98A9597D6CA3
col48:   7898B9BE6D796B98ACA9B579B6C96A9C8DAA869A9AA9C99899676BAA9788967896CC5DA76D977B8C
col49:   6575BA6596684877CABC759D998B8D4B6BB89A96784A886BAD5986A781E748B7A897A88A9899C8A8
col50:   6996C5A388D6DC8BBACAB99D797A747399CABCDAA9B968AC986AB7BB8DBF4BCA5D76676A7C88EECA
col51:   165995A6A6B748575699B8C9589874788378A899CA359869B7A5579A7856A658727A56BA6668A66F
ROC:     BPix_BpI_SEC6_LYR4_LDR24F_MOD4_ROC14
col00:   792976685278565679778325886876B6879474A4BA6858797D7A7A5979858B2767647A8655896896
col01:   96558597BA687688686975AA978BDA86CA56AC657A97A98686A98AB7997C8989CA4A89795CA9BA65
col02:   8B5637744996AA84957445A89956C95B559997A8B98AA7768C6B8B855648BB9887B68B9B979B5C89
col03:   8876584998A86696CC5577B77669A69776A9C97785BACBAA9A7ACBB77A9588ACB578AB87B78B8769
col04:   58778869675888857A755A8AA987A798677885A9AAB9A97B977A8C8A6B8AA9969A87AC69A67769AD
col05:   6657757679A8676A7636868A57A9B98CBB9697887978A9749989ACCAAA5899AB799CB894A8987A77
col06:   878198879565B66A966B8787D988899C96988889A8BA68A9798B9577AA5584996AB8888C8798A8AA
col07:   66975976875C73A7AB8A76BBAABAC4BD9BA69C68AED869B78BA8498B9BA97A6998999C5EAE7A56A9
col08:   7526A278795A78CA957786CE576996A8668678C99879A7A7C9BA78CBA7D99FC6A79B95898AA7B996
col09:   7546845755768786B47786656C7A694955967874A89AB96957ACC88C579979A68A9A9A987857AFA8
col10:   8795684CCB9B7687AA795785B6899897BA76CA688897AAA8A6CA97AA798899D79A1C8B78A595B876
col11:   9197694954667E976786BB7859AA5DD898B9A8C3676B7B99DBA8A5DA3997ABCA3C84D857A79988B8
col12:   94695762767667865B89C65B7B6999CA97977883996D9CD8B68A95688CB99AB9ABA8B8797859A589
col13:   714595A7975496797756597A568A685998A88586A6769A778994568C98974C69998DA65786467884
col14:   78664656956881A96869A659748BCB897E9875C8679CB8B577B68B8AA98A6AB7A8495999A7BA78BA
col15:   538789799796A53786869775786757B5B49B9D459A7687A9756A67A6A4B86BAA78C9A69788849746
col16:   34817675555755766A7587889A857A8998C7995B9AA8885BABB56A77B8BACA6CB875B7C9E7798A98
col17:   5558A56487614747877688A879BBB89888AAB6759B9BBC98A65A9A67857878B57889B69978869665
col18:   52431174546993396B866727694A9AA97A9AB6669768AB977C668798A9B795B69A55A9649EA7875A
col19:   75A69678995677B558974754776598B679B86A4989B9B978B8BCA96B8BCBD7C88C599746B6A99C47
col20:   A685657575666474AA98869775978799AB9B58669A78899AB5889C6866AAAA65A7777D676E347387
col21:   771668985A6695B658789459B799829979996C728AAC986879C9A79778AAC66C8A97764693786786
col22:   985A9948576756868668694AB8995578C67AA888884CA88B8797BA9A6899C8B86286A8979B88756A
col23:   67367779828B37697772859868C959693AA98A847569B8CA9588CDAAB9A796956785643665B77695
col24:   818445856549B57A75835857859A87A9989769794686B668BAB8879D68657A9A86C96767AB79A798
col25:   6785658588A8C746C69979AAB69368B7AD949687BBA898BA962A9ACA9B999687999AB89759AA8866
col26:   9959969B7AC748777BB9B8C89A89A8699AC8BB98A5A6DD97B88988F7ABF9AA9C85A9CB8AC98878D9
col27:   434859666688B789A6A6BA96488B794B68789A7889A888BABD894A8C8B95CC8894B8BA8A6A9CB989
col28:   296B97A6A7455899B9998BA9B99AA79897EA8A789A9AB98AA7CCB9A84A89B69C879ACAB7B5AB99AA
col29:   528664597D395AC36A697C73D95BA98BC6A87A978B6C9878798BB6B7BC8D878A6C999B897A6C9AF6
col30:   854826668B866A99A67B8B4A5A68BA77AC9AA9A99998C98BABA6CCAAABA9CA9A8787799E787AC8C6
col31:   976AB59BB5899996AABAA79CA9A948A8CDF89ABC8BBBACBA798BDABB97BCBC99DBBDCA999BA7A488
col32:   78698768579BD89697B87AA9A8A896ABA98BB89BBAA9BAD9BA9D8BC98BBDD49B8B76DABD9A9AAC8B
col33:   4A337589679A85A9B76958A9AB8AABD9DA77B9998A7AA999B78799AA86885FAED9BB89A9B9A77999
col34:   896979A8C589566896B7888788CA997BCBDA7B7BC9CA68A99C9AA97A96A7A89DD757B8B8ACBC99A9
col35:   378858AA8896768BA8C8B77B7ABB99698A9CB8B787B568AA79AAA9AD9AA9CC86AB7E856BB7AC9AC7
col36:   8991786A68A8AA786877BB379BBBC899EAAAABA88CC9CBCCC99BAA6ABAC889CA899A9A58979C7B8B
col37:   4756A799A89CDB8889898895C8AAC7CA997CA9B8B87C66BAA8A8A6B9DB7D989ABA88B9AB9AC9BA9D
col38:   447878659B989A9A87B7C9DAA85BBDBD6CC9AC79A9D7DC8AEBD8AA6BACD8B89B957BBABBAC97D86B
col39:   4846765A97B8899AA97679CB67FA896BA8AACC9BAAAC8AB8ECA8B9D89D9A899A976ADBB98BA89996
col40:   89697C96B97C7798A989A9979AACDCDCA9898BAABCAFAA9789C999CAABCC99D8BBBEDBA89AAC6989
col41:   9979877CC99E69A7A857D97D78A8A89A9A8ACDFBB8FDBB9B9A9D9C87D97C99EBBA99BD9BBDB9D8D7
col42:   A869989B76B968ABB888A6BB89C8BD97BBCCFABCDDCDC9DB99A6CA9A9CBCCCCBABCB8CCBBBCCBA7A
col43:   A5679657B9BA8968BC7C9AAC679A9BDCEADBAA7A8BAC8DAABADDCE7AAA7879DCF9E8BD8AAFE67BB9
col44:   67A4666A79B6B99897BA9AA8A8BBDD9AA97AE986DABABC7C9BDAECDACBCE9B9C4BBDBBE8DDD9BBA4
col45:   68748AB7983AA9687697A9A999BA8C86D9BABD9A9BDDB8CE6AA88B9BBDBAAB88A9BCBAB9CB6AB8CA
col46:   777768A99AB8699AEAC7BD589BACCDAFA9CBBABBEDD9DDA9C9B9BC9ACCFACB9BCBDCE7CB98DBCA78
col47:   7AAB8B5A87B9987BAC8ABAABDBA7A9A8699BAC8CCC8BC779AC6AABB8B9ACEAB8A7DA9CABB8AB9A99
col48:   478AB6754667BC68A9B7889DD8A969CAABC8DCAAAC48DBCB8ECCCABDA8989BC9DCCC9A889A6ADDEA
col49:   897A8B289987A76AA99B987BA89CCCB9BCA9BC7BABAFABBCBCB75BDBCCBBFBAAB77CDCB989896F99
col50:   499788756777B7D86D9ABBB698B939BBD66AFD9AAD8BC8C8BBB9DCBACCCD9BF799DBBDAE99ABDBA8
col51:   454888B973595957B58B6485D9569487A9997867CBAAB97AC7A8AA8A65AAA79C5B965A97B685A799
ROC:     BPix_BpI_SEC6_LYR4_LDR24F_MOD4_ROC15
col00:   34997A997A587865A867678D6CAC569977D949A9C695B658498789EC9A7A7C9AC998CB7865988A63
col01:   588968975AA9979B8B879A898CB9D99D8AAFA6B7CA8C9C697AB8D9998C8BDA7A86AAAAB79BD86794
col02:   76797B67B957858A98789B6AA7B9DA76A6CA77F8BA8ADEEB5D9FA79A988EA98C99E899DB57B8A454
col03:   7789AB8DB978A6E9C69BCC8D9999A8AA8BAA8989ABADBD8FAA7CAB5CBCBA77765B89BCEC99A8BBC7
col04:   3A597762AB9978DA96CC9AB97A9BB9A2DC88B897A9ABAA9AE27A8C7F99AFAA8769BA7E79A8BAF987
col05:   978962975DB745A89CB9B9D8BA9A7998FC88AB9AB8DEA8F7DC679A9AB8C89EE89AADBAB85947877A
col06:   795E68997AC367A6AADBABB8F9C5999BCDEAEA8FCAC8F676BD88DDAC6BAA7DACCCA68D9B866CC8D1
col07:   97ACA99A9A89A74A9BABF799B798DEBB9A9DCCFDA6ACC99E9ADBBC8989C86A9CC4BA98E87E7DAC88
col08:   58A85797EAAB677A8499C9C898686C968566465ABBCCEC9AAD9AA8799777757BA8957DDB8BA58BA7
col09:   8E69A7BBBCC87958BDAA5698AFB9C96BABFDD9C8ACD8DADDBB6CBACBCD7ACB669A58BA9AAC9897E9
col10:   87E79E86887C67D8C979B85CA48E8D77F979BC7879AC9AA9AA5869A9B7AAF6A9959A9739D9A66567
col11:   767475A65BA2A85D888879957B9BAAA3AA7ACB5D88BAEE975CBB9D6C7ABBB9BC698B87CB97D6A974
col12:   8A9C996968AA9BA788A8774C7ABA5D7EA8BB7D8BBCABDB7985CBBBAC78A8BCC67689A898AA7AB986
col13:   BA46BAAA35ABAA58B7BFB99A79898A8AACDC9BB88CACEBDFEE99A7B9AB7AAB8677CAF99A97DB98E9
col14:   9648A6885AB9CAB8B78AB89BDDD8B97AF49CCBBB8A95A7CA6AA66C38DBBC79A69B589C9885A87B88
col15:   6257976979D773497AB8C5AB9A7BCCDB79CAEBBCD79C68BC8CAAABBAB8B9CBBAA8AA9BA9749C8BF6
col16:   966878A847964999C4736AA85AD89AD996CBB9AADC9A968BBC6B798C8B8769B6AE49949A5996FE99
col17:   56898A78B98699D6988568C5B998AB7FC88ACD7A9D7B8879CB878958B9E96AC987DCC9B8E6964D99
col18:   B99C46B567968665BA9ECB8BA7B6D9AB9D7B78C894BA68B9B7A6A8E4CCCB9E37CE6AA964688DACA4
col19:   55A785C6456959A35D73C79F4AAB6DE99AAC7DA9FABCF53785F7BAB9799BA96688769775A76BA7A4
col20:   A59AA895A759697466A8B779BB8CA74A29787CE6AB8DAB5A6697D898B8CAA25CA77288AC64669A4A
col21:   7879BAA688A988B5876AEC99BB89ABDCA7CC7EACA9CBBBBBFBB7ABBEA87BA8ECDC9A8AE976BBAAB5
col22:   8AA4558878879C4895A69AAA8A9898958B98C6AE59AAE8C899D7FBC5D7CC8C9889BAC39D8AB7B9C8
col23:   4756712469A9C58759A9E8AC8AA9C8C7CE6B9B98BA7A57789A58A6C6C8C56AA6AD87ADA55E99B886
col24:   7797C97D89C36669B7A7CAA46B99CE7696897B8C9A7CA7B987787A9BF68C69BFCC66CA68CA896FB4
col25:   545377865CB67868B69AC8CA9887E999BDB9AEDC699899A7BA7858895AECBF6EAC6CAAA8B889D976
col26:   6A2786E959B7BADA7A7CBAADBB9BEBFBFAFBECBACFEBD9EDFDD9CAEC9BECD99CFDCFBC98CD6A95CA
col27:   BA6AD8A7CAD9ACAC78BBAED9BCCACBFD9AE9CAB7BC7EDBED8AAD9ABCCEB7E5BDD8ADCCD6F4FBA9D8
col28:   A69AA6759CB58C8DA87BBAAABBA7DADF8CDFBCEBDBDAA8BA9798BCBD8AB89C5BD98DBBEAABBADA96
col29:   99BA995B99B96BAAACBCBD8DDA9ADCDACCE87CED9CB98BAE6CAACDBB8A78A8C894AE99ABA6CFC8AD
col30:   8BAD6BAA9CA9B6A89DBFA87ABACBECBBCD9BBBDB9AB7A95B9FCA9FBA4CACDECACADACAEEDCEEACBC
col31:   9819C7D7A8A6B8896B68B79BBAA689FDDEADBD9AFAB99D8A9BBCCCBD9AD8BD9B9A8BDDB8D8BF99B5
col32:   A5A4A99A7AA8AB8987BE8E99FBC8EEBACAA9DCABBBEADBED97D59BEDBCFFBDB68BABCCA9BB9DB7BB
col33:   9AB9CA9BBFDB989DBFAAC899DBB89CDDBBD9BDC9BB78CD9E8B9CBC9CA8A9AE8EAB8CB8BB9CCCAAA6
col34:   B7B8A5D87ACCBBE99BBBFFBDAFACFFFCB89DACEFA7B7ACAA9CECEAECDECBA8DFA9D89BBA8CCA88CB
col35:   AA979CC9A9ECA9BBB9F7AFAEBBFBDF9A8B9EAFD6DDFACACBC9DADC9CD73F9B889CDDBFADABAC4BB8
col36:   CBC7B66AF7999C946CCA9ADEBB8EDCCBA6E99E9FB9CEAFA9FDD76DC9BDDCD9E78BBBD88BBCAA9C69
col37:   894AACBBE7BDE5A45AAAB9BB9FADED69BDEFBCD8FCFAACBCBFDACDCBDBCED7C79BBDBBDBBCA87CCD
col38:   7AB5D8C5A9D98FDBEC969ABC7AADBADB9AD8AD77CCFDB97C69D9D9B9CFBCC9AEAEFE9CBD9BBD9DCB
col39:   A73878EBFCB7B9DACD96EAE9D7BAABA9EBDAFCCDADBCBCACFFBFB69BDBBBC7EAEC79ADDAB59897DD
col40:   AA4AA999ABB8AA89897ADBB9ADECCBBACCECAC9CCCEDCFCD89FEDDCDDEB9ACEB6BAE76E78ACACECE
col41:   7C99CD9AA9BBAA5B7BDABCD8BA99A9CCAACEDDC6FCEBDE9CC9CADFDE9A9D799A8EAB99CDB6D6B9AC
col42:   7A7A7ABAC8A8F7D8B9ADBC8EDA9ACBBADDABEBECB8ADAABFA6B98EFCEC5CFAECE9ACC9A9E87ACD8A
col43:   77C797EB9F69CDB8A9F9FDEACC8EE9EDEEABCFBABEC9D8CDEA9FBAC8DAC8CBCCA9E8CBEAAAB9FFC9
col44:   879E9AE468CAABCC8BE79ADFDAC6C9DFEECBEBCBCD99ABFBDD8DFFEDF98CCFF9BDCE7CDDFBCBFDDC
col45:   8A9968CACAA95FB8A8A9CB9DD9FDCEB7FBEDEDBE9D9ADABFECE87CEFABCCCDD7FA8BACD8BBB8E5E9
col46:   E88A8A7CB76BCCD977CE989EBB99B9B6A8EBBCCD9BFFAD5BABCBFCCCCCAA9CCBCACB7ACEAADA8D89
col47:   9B87DB7AACB5CB59658DECB9DCB6EDD9BAEEBDBA7ABABCFFA9BABBEBF9BF7FA9BD6AA8BADDBED8A7
col48:   9AC9C5DA8EB5A68A99BDB7C8AA9EABEDBBBBADEDCB9DEB9BFCFDAFEFE8ACF8FCCFADFD6AD99B9CB7
col49:   9A8C99B8B7B879BCBBAADC8ACCAA769AEEDCDC7EFABB9DCDEEDCDCFFFCBCEABD8ABFB8787CCD7AFD
col50:   8A687CAA6977BA2AE9FA959DABBACDA9D9C8FAC9596B889C7DFBCDFBCF9E4EAE8FEADAFFEFD5BB98
col51:   87A92A9788775656896797CD989A68AB999669A797C78CC6CABAB89CBCDD8AA8AA89A8985DAD8C75
