ROC:	 BPix_BpO_SEC3_LYR4_LDR11F_MOD3_ROC0
col00:   a6649948b6777c9c578a79895c84adc9953a78988a29a796956c9a6b5cf947974945d6256c136662
col01:   c5bba9cc46996cad796d8ecc4768c8beab97e8d8caabbcb8d9e97cbd5a664cba9975796c869939ba
col02:   5977a4c6da7688a8cba77d9b897bada786ba56f9b98bdf8ed898cc9bdc99b76676e2565956897514
col03:   5bc75aa9b875bc98949ba78568b8bdfdf99cd9bdf8b8f8dbbfa4877c89d1b68ab187a479656a8a65
col04:   9b689566bd9babcee949abadd37988a8eaba9beb79a6baaeac8ea9b9ac78ac74877aa8cc69277348
col05:   9a756cb6e94a859b458e98e9ea59aaccba78899db9baac859b56a85ab78f7da6c4598964496895aa
col06:   dc958a85a99d869b9a97cad8dca6d988c879aaa67eb9ca8a949bbeaa58c9ba47d86e7884b8998597
col07:   8c989998baba622c89398aa88dfcaaba7babadc6ab9eabafdabda5688a7da97a876a88b557648a75
col08:   8887aabacc85a47e3c8ab6aa6a79abb99bc9ba8bc9b9ea7aea986e7cabf8b6ba9b7a7a99c58469b5
col09:   b986c9589ab889a9e6aebb6cea7aac8d6aa95fcb38ec96ccdbc76a9b889b9b9378967948c9553885
col10:   a65a981a17afa4657a7df79facc8edc788a9bcad7caaacda8e8cbcab89dbebb758b9bc9588979554
col11:   869da768aa9b94997a8ab8ab65879c9caaccad8a5cb5ddb48a9aa57a6999a9676884c69787a1ea26
col12:   c398aac6698c697acd95a799cc9bbc9cb6ffb9adeaeaaa8adf8f56bab86a979676897759687689a3
col13:   9c88a558b5887cb89b897c8a967674aaaab89a879ce78a69babe6cde88dc9b8889a9a658a468b6a9
col14:   9e6168baab95798bb9da5a8ba8caabbcacefaca789d87c8ecd766cbb869bb886999cc85c9187b876
col15:   4896947596ac899b87a78a89a8c7bbc9dc96a9bd8d88cf9b969779a789c5cca99a5b7947c2496765
col16:   8a597654a4795aa9c9b7697c8bca887b88c79b998ac6cda9fa8ae9cb9ca94ba3679ab789888a5972
col17:   8a738a569779a668cc7a38cba8b699b4bbdeba7679e8dba9ba85bd679a3aa8a86876b9465469a737
col18:   cb9479a55bac66a8655a8c688a9d7d86acc9b4db89b6a94adda88b9c78de76bbb96a657ab9b58c74
col19:   7a7adc6b78598649ba8b9bc7da8b5c9c9e9f9ddccebfcbacd9d87a5b8489a499cd628587384a6666
col20:   c87a8cc46bda86898b59aabcd98ecc9affb8f88b76acfd8bca666ba9669ab8866c89436765456645
col21:   5bb8c986bc6a48ac86b7aaa5cca9a7a99acbcb486aab5cbd6bcbbb59b758367c8578448585a88863
col22:   6494688688939799569765ce89b499bd88ad9cc79acbc98b9857c9ca8898aa5585b35776a67b6632
col23:   7a7869715775c489d869c6add8eaa7889a6bdf98ba9789b85e9a99a9899a9a78c8783b257962296a
col24:   b7596978676a86ba389a97cb6bd6a96999b7bb96dd9baaa8bccda98894ea558759788a89a1749658
col25:   98887b76998c68999979dcbccccbdcf99d8a9bf7b88cfc8a9bceb6caec6cb89a7a79873774ac9b85
col26:   8b35a7e86c777dcbc69cf88bc4eebebcaec9abaa9afdbcd77bcc9bab8dbc8683c8896a767cfb4292
col27:   877bac88cded2869bc67bfdcada6cbb9beee797ac99d8bddf87acad9cd7cf9b9d977ea6c85997469
col28:   957789993cc74b5acdec8dc9cd9acb8afa8fb9b9eaa97cdcbbed8bfcdabce8a788a77568cb8765a7
col29:   dabcdcb5a87c657cfa8bd98f99bd8acb97d9bbbfafaadaedfb9c8dbabda7cb8aeaab548aa7764242
col30:   b9c7ad7aa4ca9d5cc9aebe87c98abadd8dbf99c9f79ab8cbb5ea8e7dc9be7979aaaabb59ca766c62
col31:   c4b4a8bad785c9adade9f8c8b9dc89ede9bbbbcbedff8abebabbbdacba57ba78c9e8caa8a7796bb6
col32:   d88bc8eb8dd668bdbcecdedeb98bdafeaea89bdcbf9addcd7aa999afc97fe85a9bbf9795ab879987
col33:   a9acd6c789a7a66cacacccdd9a9a9bdfddc8c9cdbca9deadf8beaa89eca8dda6a75755a986579c64
col34:   79bb8efe6a9afbb89b9aac8d9bdaa7eefbf9b9fbb8eeaae88bdb3c9caca8cd7978a99988ab676974
col35:   5e87b554bb7aca899edd8a5f9c68fccddfaecbc8ae5be9b9afffa9aa92a7856ac89b3b68858ac996
col36:   58d79a75eb9a98b9ae78ccec58accdadabdf7cdb99bc8cfa98bcbc9ebc96d79d795a9b7579aa6546
col37:   a6ec9ea8bce8e898adfb9adbabd7d8abbdbb98dccaaba7bffbcbcbbeaeabb77a4b6b89a63a2964b7
col38:   8dc9c9d89bedaddaccbc99aafcd9afcc7dabcb9a8ddbaaadccbaec6b9b8b9de9c89a7c9a7ca5ab67
col39:   9b8e4bdb7bbeb7abbcdaceab9fce8ae8ba8fea88f8aafaa7ab7cee6dddc97de7cd997b58a49636a8
col40:   7d49a7abaabd87ad8e5c9aba8b5dcfaffdfbebcefc8feccb7cddf7cad78c9aa88996896aa9966aa7
col41:   aafdda6becbbbdb697abfa89aebc9d9eaefe9d8abccfbfec878bcddd9e8ddccb718d4865a29868c7
col42:   4bc998888facab967fddcda99b7efcddcbc9cafcccfb8aaebaeea8eb69a9985e898aaeadae827a58
col43:   caadca9bc8d89dd9ceadb8ceeabeae8decaafaacd6c6c8dd9abbacbc5afabdce996d767b79ab7b95
col44:   bbb8bb89eb9bfac878bcabddb99cbcb8b98cbbb5deddcdccad6bcfc8c99db8ce18d36aba37564d39
col45:   b6a786cd7b938bcf6b979bb6cdc8cfbabfb9cbc8fb9ba8a7d9bada68cc9ba939b5999a85d857aa71
col46:   fb59a8fc7ba9adbc99becaacaada9adcd6febffe5dafa8aedba9de9ac8cc6e688dabb788bcb974a6
col47:   96869ad4dbedbcc5edbedfcc9afcbb9defdcefab8ceefedb7ba6ddc79aa97accb5769b96586be653
col48:   a68b96ab68fdcb6adaa8bdcffdbdcbfebb79fcaaff5bbc8bdddebd8ce8aa6b837db7877557dcb698
col49:   7b7969cb9aba7fb9a9c8afbbcbcab79edaba9bc8bcecbccf6de9adfd88acdcd77e98ab96aa9b655c
col50:   ccda8cf8c8ceddaa8c9aacac4bd9b9ddfabfb8adeacf7bbadfb99cb858dc6bec7967a9ccb93a8888
col51:   4678b889699664cd8bbbc57aeabbb6858ab588ca79a89ed179899c97c69627b9e6c1a989a5978599
ROC:	 BPix_BpO_SEC3_LYR4_LDR11F_MOD3_ROC1
col00:   5499a486a6896b33aba85a69b4cba87ab988cbcba57accd79a585a6a686bd988663b76a768787575
col01:   b77aca957a9b979cbba88b7dcccc9cdaab98cfdcebc89dfa799ea8aa9cb9a9ee5cc889c7a98a5581
col02:   68b6ead9d9bf9dacb4884a4fba9adbf8a8759bb8b8b68cb877cdbef97c768a68cba8668b9787b8f6
col03:   89b698786aa6e9c8878baf9b7deda88bb7d8abacc4cfa9a77aadca98aac9cc867a8aa788a5b5b68c
col04:   a9cbaac47b99c59a69a9897abdf8bbfcfd6c8fc8f8bcadfcb959ebcbcb9ac97a8dc6b8875d8a79ba
col05:   79875bbb586b99499487d897978aafdcfbcdbf8fc8cec689798c9b7db9ba88ed76aa69669a595a88
col06:   8c5bbd99aa6c869bdb9bad8aaae9c4bb6e969bbdc8c9ceadbbbcb6c6ac96ab9baca8c5abc6b66744
col07:   78b6c7859a7977589ab8aabd79cd8aabcd8dcaca989bbbce6caff6c9aaba86beba88996b9b7879a7
col08:   459a54a3da888b5c9b79a9aafa97cbc59daffe8caf99ebcdebabce78ada9a6a8e9c796b8a7598785
col09:   acbb6d8a668c9c9d59aa6bbc8b3bcebdcc9f88ffaaabba7edaebcea7bc87b7e798a9b7d9a9b9d779
col10:   67b4495a5c7b968787a5699bbda9baa9a9bbdbae5abefa9eb5b6ccd4c78bc5a89a59ca5aa78a6884
col11:   8c899ae554a87c8aaac96c6c4c5cb9bbf8fba8bd69bd97accadcd589ebabaaa5da7986abb8737697
col12:   868c8878a9da8778865ab9b9adcaaaacac97cdbd19a7ede8ea9fc8abcdc67788557a5a99cba36885
col13:   78c6cab99c49b778ac9cd8abbdaabcadd88cfc8bfbbafc9499bcddbe6d9cbeb88a88ba4876356877
col14:   8b777b579c99ad43bdb979b99ac88acf8c9bde78e9fbaac988aaa77cbe8abb698746b8b6a67c7986
col15:   696ab377f8788bc5a9998f98da7a99c5d7ba8c77bacaa9adc9bbab9ccedab798e876eb895b69b6ea
col16:   8aaa488a99a7b7869a6d8b8dbc899cbb5bab6bdbaaa8dfbf98cdcaee58bd3cb759ad9857ccc77996
col17:   b985896c6b6c76a89a987b4a8ceba7cdabacbaf5fd9a8b8bb6e99b8bc989aa76ac5768a81b7aa976
col18:   88696565673654a79868ad8bb79c98ade98d689caa7d97cb5bbcfababb7aa9a9589d89aa2d297549
col19:   5954c73557b87b95baa967c699addc6ccb6b8ccaadecbaeebecbcb7ebcb98a287aa9d799a89a7a79
col20:   8a933943a75688a42949a666aca6bbb94da868a98d878abbfdadbcaa7e68aaca9879b979958159b2
col21:   e4985a64777d67b767aa8da68db899fb986bbce76e7adcf4c9a98abbd97e6768a8756bd7a947a373
col22:   5687587b569479a879879797b77a879979f8c8899dbfab7ab6fadea8b98aca8b377ab77737e88bb3
col23:   55ba39b44b89776697478ab9aa9aa9c8abe9a8898b9bfa9a96f48999aaa8aa89a99c5a7bb31a8b55
col24:   7745bcaa6ac77a9677ca878abcbbbdb5c957b9bc98b6aabbcaa88c799967cea9b9a69a575a666748
col25:   3a967a4898877c9c799a8597eeabcfa9bc69c8cda4af6adbba7dd9ba9dd9897967897699598635a8
col26:   7569cca6a57c6b697abdbe9a9abfebb9e8b7c8e79ccbfcccdf7aa78aad8c86c78f5a7cac95757b96
col27:   83aac9af9799a6978cb9a9c8bbb5dacbcc6a8aebceceabc9feadaeadcccd896a5ab69bba8198aa93
col28:   57688796cb98a7a8bab9a9eccc9ceb88aceecbdcebcbedfd8bcbfeabccc6cbc8c9a9aa5888b99886
col29:   7889d8ab999aa6acbd8ebb8ca89c9cbcbcc9d998a9c99e9cafeebcaaabfbcb987a7be8699d7c7c75
col30:   f8c72abccbc77889eaad8b6a9e99acad79abafbdecbbbe9aa7ab8dbb9c88ba86b9979aa86885b298
col31:   388b689aab8cf675eb975b7bc9eaaabcfcab96bcaaec8f2fb58bcd7bffbbbb9bbb8cc53eb9ab4797
col32:   a7988ba5a7a4ca9abe9edcadb957dbceabffd8cfcabab89abdcdccabcabab9e9b9c7ba879a89b4cc
col33:   86b998ddbb8bcbacb775bc9bcfc79abbbebccedaa8daadbbcfbbaf9bcdcbebb6cabce9bc954a9a87
col34:   c5caa687abcd39dabab9aaef7bbaa9cfce9ada8affcbc8bb7cbcec7eaa899bd9a77b8d498aaac943
col35:   877d6d8bc9deaacabbc9cd9baaabfcdb8cbcaefebafdbd9acbcbbafce8d9b9bbb9ccccb89ae6cd99
col36:   59be7869dbb8aadbaaac9fa7a98f9cdceabcad9cfd8acdcdbaddc98a3ceda7bbdb6a8879ae856996
col37:   899aac97b8ca9b7dbbcd9dd78f8fbc4a6faccd9969ae8c9c9feb8f9f9969ddb56fac887d98b95997
col38:   6bcb899cd989aa9baccc9cef9ffbabdce9ddfdedba9dfebdb9ebcebd7cccab88ca9cccc876bbb9c5
col39:   bb968b868caebb7af7b7af8fecdbac9f9bdbeccbdaedc8a7bd8cda7bddb7af97959bdd9c7d97d68b
col40:   9a3b668a8a889bdbaeca9bcc9e5d7d89bebecbfaedfb5afabcebfeabde9bbe96ac8a4fb95aeaa785
col41:   979b78997c7aaa69a8b8faabd6ea9bdfadccdccfdb8cbabbbcb9cb9a9dc98bc98e39247a7897547a
col42:   899c98bb8aaaab9acb7bb9bb8ae9f8dfbcacd7adfbdfdcbc6a9c8b9cbd9abeac99daac8bc49b8b53
col43:   eba589ccac6cbcb588accccdbdbbdbaacbcbebe9afdebefdcc9acfacbadd56a96949b96a838bb894
col44:   d5489abb8bcaf8976bdceb8bdc8abaeeaca99ba9db8caddcd69baa7eebdaaa83b7b7567c795c4ba7
col45:   c7ba68bc79cc9779f9cc7cb6bacb78dcbe9fefa9debfbdada9ccbabbcab799b7889a9c96995bb889
col46:   bc82cbb99a99facfcf78a6ddbc887fecfbaceaceadcdeda7ef7bb85bdd864aad8abb89bb7b793892
col47:   8b789d6b9c6dacaa96ac8679b7eab99c89ccba9bbdbcb8eb79afcabcf9778fa8c9bbb697b8698aa6
col48:   9b78da957a59b8689ccaccc8bf8b8d99cbacaecc9bccbb8be99ae9aaacc88b989b5cc6b74a9e68a7
col49:   5c6975c7aab99a6bac88cbcdcd99a9b7dabcbbb888fd7f9adefcbd6acee6dba9a789b8b4a9744969
col50:   785b7a787c69ae8aaaceabbadbaa7dc98c4c99b6a7fa9b9abbaba867ac9d6e2a78b8aabb78aa9876
col51:   971569afaa5998896769ab86588778a7a87985e5575c4ab76a76a4769799b9768a5943482468a558
ROC:	 BPix_BpO_SEC3_LYR4_LDR11F_MOD3_ROC2
col00:   5452267667216879544589a756884b6583666766782a597796345aa498663a96896a7198844721a4
col01:   b56954748bb88ab7786b87aa69a577a965a5a66c6a76ccc8699897ac75a78ea5a98a6ab486485885
col02:   38994987a67b57c58cabb8a676877686899a9756666a66a9999aaa68acbacc4b89c8bb789a5b4564
col03:   34a65a8744b7555d7795a528956b89abb7886c588a7da58b85355aeb887c858a87a863c493329516
col04:   66963864674b8147754a478a87668b79695c7f668a6778b88b57a9a7c4ca2ca9a559855a4776c6a7
col05:   381e584989a9478482b69b4ab98a79a798a86b86ba96b48bb7666c7564a96aaa7838ba5845697657
col06:   7675368585a6753b6a947346a93aa79778bb7f799d59a778495a9bb8c47b6a8ab937448593b86675
col07:   7748a96254ba3ba4788888b678797ce996cb88e49a7897a6e8c8eb8689bcab7bca85b7a5c5978473
col08:   7979593965777652269c797a47c66e8a4d8ba86bdad988589b555777ec8a47597a556647a6366666
col09:   95857195a387b769b76bc9788953888292cb9a79cd7888a975967b8c58495b498a886847537365a3
col10:   6567958db5869677b685bb8b37e859a6abb9b67b799b89dc73b57586587db886b5a476377856b831
col11:   35b62755978a6b76a639778abba686b95ba6bf7b6987c894a789ab4583776695846898ba36988469
col12:   67b3534888794f86556ab755d9a499a8cb8982db77e8b9c783b987a5c6b796429886cb86989b7573
col13:   768c548a5a4786a88aa7875b8b98aa77445bb7a9cb95879a6aab6979a9a967886989b8698855238a
col14:   34b9787853a5999a483979f7856757941a8b89ad599bbdc7867bbc8b979897b197bbb87c8a699459
col15:   76aa29b597aaacb5c46ac7a27a6ae67aab978cb9bcbf68e9ba9a3ca9568c867ac49376456756b753
col16:   4985297299b896912764849879bb8a948a989c989c9bc8ab6ac979757e8baaa88ac8479497458773
col17:   59975a7567a57a666585a9ab488856586a975889889bd55d7c9559b8968a9657598a955989548a51
col18:   6548697a9976c5ca48487b88ac6995dbb68e7baaba77abab47aa8883c7698b7866b5c93767364657
col19:   8676894a97b78678a84ba98696ac97b98775a74aa9a597a99d678d957985ac8a859b987865b7b654
col20:   1586b636956674536a756355358a8a559cbcf5b93c7a7aba888978abbec9c74688396774d8436766
col21:   b57d754875814a68bc99586a987b77bbc4e7ac67bb67abcbd7794a64ab8469ac9a8c9766c8a77554
col22:   5657b82d95d2a88bb9196937a9c4ca889aaa8b5a79c9aab97889b656b7a56655748e667677ab4534
col23:   3656a7b266a55c56667a39a99b47c77a794798a5b799d9765886689ebd9ec596ac399869635c2182
col24:   797b9354b757a83a8a698a49a957776aabb87a75d9e8ab9b8d4b8eb9a9978bb9a99c77a55c7a6663
col25:   59864b48659989a96c7a8c8998ab4a6c76c57baa995997d8e6a6ca74bbd7aac7a9c5c6758b35a976
col26:   a957988489fa89b9b78dcdd99d8cdabdabc6aadcb79fa39aaac7acbde9ddafcba8a89976b8888194
col27:   bb99a7a167d88ab9a697b9cdcabb7b9cab7a6adb9a9ca88ada9db69a7abcb58c86576c93d97b8a65
col28:   86b5aab796d7a5fcaad86daa8886cbbc9eb99dcabb874ab97d9b5b9fa5edb91adabbad99d4c48a6a
col29:   c881a878ac9aa8b9aabc5a9ccdd9788bd77b9baabb9a9dba8cc8b9baba98f9baa62ca777a7ab5627
col30:   9765678489a9a7d977deeef98dd88dd99ab79ae4ae8bbaadfb8cbeedb9acaab989b9b95788ab9657
col31:   aa5979869b5dfc8a9ca7ac8b8cf7b7b9deccc588ad8dbb8a8bfcc6bb7abfe7aaab58739889929c6b
col32:   596a9acba8bbc5bd99abdaabcaeaaa99cbdb9da7ca9baccf8d89bb9cc889b998ba6b883a77685c98
col33:   9c87aa9a56d7458a7bbabdf7d6d7be9abad9b57befcb6b9a8aa89c68fa9caa8b8a9a5b949a779682
col34:   fdab896dea7a9d8958a8bbabd6eb8a78cd8bd6acb7dbaaca987caacbeab98a88c9ccb98c9a98a9b7
col35:   ac798eba99c9d9bfdeb9c5ae8bdcc7b9fabdbd87afbbbcadcbbcc9afdbafcac9a9beb6b98ba998a8
col36:   8fae78ec85cabb7b96fcd9bbaabac579e99bac98a8a9db78aadafe9b9dbe7c8d98e679757a848d7b
col37:   9dd9b7a9b8868b9cf69afdb9acae8ec6e74cbbceaaa8fdba9ecddbbaeaccc8eaba88c97987988697
col38:   dc8befbaca9e9abac8caa97daceddab9afb9aadfcdabad9eedcace79da8f8abacdcbc9baf869bb75
col39:   6b7d759bd98e9b4ddbaca999fc9de8c9a8eccbacc8dacabfdb97f7edad7ba9bcb8e498a8693a8897
col40:   9bf88a8a6abfcc9bca97d7ba8bcd9aada867ba8acc7afbd99ea9adaa96babca9cdeaa89c98769b59
col41:   ab88cd999a8c9c9b7f8aba8afdddbd79cfbeaa6aecb9abbe7b89aace8cdacbeaefdaafbfccb95bb8
col42:   ba9da8ed3585ed8cb9bf9a89e7baa9bd94aaff8e89baaadee8ff2aeeeccbbb997dc988ca7866688a
col43:   8958cfd7bac899daaddbefadadc999cda7bbb7feedfcedcbaaac9eadcddcdacbdcf9bdb99d98b884
col44:   9bec9b9ad7cdecadccbbdb9e99afbcafccce9dbfecdeacfdeadacddeaffb99b759a88c9bc8c65885
col45:   7c7aa7eabd79d89ab5d9cdaacddc9cd99bc9cc7baaf89be69cdaacbd9babd8faabb988596a3aa855
col46:   9c94deab98b9bcc8b8bca98bb6c7cbdc8adb9fe9eb7becabccacaababeea9bbebaaaac9faa977766
col47:   699ea65788eccaea96b7ddfdbcbebbf8cf8cdbcd8f7ddcccabdafad99abacc8d879abafcb7c88bb6
col48:   dc9b79979db99babb79bdaacafd9d7caabcb99dfabacbce9fdec9cccbcbfbcb6d8a5197b867b7b98
col49:   b7bfdc9a8a9788db9fb8a7dabffdbba8cdbd8e9ed9bad9bfefe7aeebbf689cddd4c7aacac979aa85
col50:   897cdbedadbeab7c8c9ccbbb8ffb6ffcccdbafaaaefdfdddafbccfc9fddddca9b9abb7a8a7898cb9
col51:   a69a867aae5887d7869b9957ba8d8cad97ca67899eeaabacbb997b9b4c9695959978496528963c6a
ROC:	 BPix_BpO_SEC3_LYR4_LDR11F_MOD3_ROC3
col00:   8458a64996b7576248979486773a8d7c6889f969caaaf4698a87ab949a87375a298b874861759846
col01:   8776c569a98d79a18a2ca4888c679ba95d6a77ccbb7e597a6c95786a9b699a666a9768296a292856
col02:   a8b9683a9aaa879a869a666b88ca8b7b8bd68a2a5a5aba999bcc75bd5c999bb8c386cb35aa962a29
col03:   aa993335987765b4a7976a87a764f6ccaa7a8d8cba8a8e7989c6767cc59b875b7684665595387615
col04:   f73767ab8c85b82789cadbabc9ba5a88fac77d785acb7bad967868aab89ccd5c9aa559b999a13b96
col05:   8c286838865cf5a59779797e8aca88a5bb79cb99d2989b8d6886889bba97a8c4e9ab58a18c355863
col06:   c6d884d76b55a2b5cb3d9a29692aaaa85798aa8cba6a858bd766cb5b7c857798ad686a8c87a89875
col07:   7b9689b768468397465955999698c5b6df9979ecb9d7bb99dbbb9a6b88ad9936b71899a53eb82438
col08:   59c65b98b6685598655885d5d5b87b7e7dabc78db9a98bdbc69d8995bb87b7899578772695262582
col09:   d9ba648798ba6498db99c6baa869aa96f89cc98f99b9578cc89bdd89c4b957799a65a9ca7aa91898
col10:   868b759888ab8b6596889b784a8d999894b5a9989d7fbbbca7ba5b98aab8b8c7a346748776ac8657
col11:   a9787a8957679b75c81778bb7e17757486925d9878a985c4cb68cdb7ab9b8a76977ba9369283c785
col12:   6b8a85765988d8899c48688b98c88699c79aafdacda9a9d7cd99adb97aa4797ab9844969699b6977
col13:   6a856aeaa5698a6c66a8a7b88a6b9647973aa79b76a9b97796ab9699bacd4fd89a8985a87b8272b2
col14:   76574787c488886577b7c6b7dc9cbafbafc7b7ca88a89b977adb8d9758487a949c6898975688ba89
col15:   49b555b755596a999b7a488d76876998ba7b69bf98ccb8daab93557b9cba968c8757b36b46674629
col16:   85667aa686a975887cc9bc8a35ea7b88e96796c8acd7abfa99aa6798b97c5e8ad899853819775646
col17:   53965876655ba6c66799cee8879986586437a5bd2ab77797cb73b8ca895a696c79a6777759a94ab2
col18:   343787788b47788a5997a659b876a8959b8cba6a69a6b8886fe9ba6bc7738aab38a749496c56a675
col19:   387779687448468b8c7875f9666b6ceb868a57aec8b78a87bb7ba87ee9786cab39cca55568667a76
col20:   7719a7aa67787689956a9bb588a67958cca5975ad758abca7c46c58aabacd44898996ab89465c227
col21:   64d6ba578a6a978c6c9c7c5955abb4ad999aa97bac7aaaac8b8a9cdc7976d78bc88a569865767859
col22:   777676b98b797c8d636b66a77b8aaaa9b76a6ad7a6998a8a9b9aab98ab89aa76798a889977785243
col23:   775b77872c8788689744c853468667eb8a98a79757ad9989d8a975868aa88956a8458796b95dc295
col24:   b677ca374c8849871779c4a9a7db7aa99659997cd6cb8b86a8c97a66bb8ec549c78a7359ba655767
col25:   7565616da6e585697aa86e97a787da88578849ab86aac8ba5c5db5a8cb966d9589c969d1b5264494
col26:   e8bdd96c9877c96becb9cc8adba9afda8aaa8bac89dbc98bab9d758f9db9c9ab4c78a498b4787986
col27:   798da7987765c8aacb98c5ac979a768bb75cac88a69cd9979cbaba79cda9bbeab7669cb737992485
col28:   cab7c5aa6488a4b8aa9c75a8bde8ccb87bfdaef79decdeadbbab9cbadc79ec6d8dfd87893ab8c645
col29:   948968aa9d98bc25ae8ca56ac79dd9985accc6bde7db79faeb7c44baeaea7bd9b6b48ca7449b9675
col30:   9a5b8a99b8896b9b9da8edad6aaabc8cfaaaf7aede89caa6f9d6a4e8d99b8e7dbdba78a95763c993
col31:   8b99766b95aeaa9bdaa58ab8a88bee8ea79bf99a9bfcd89ccbc7c8cabebcd48689846abd88857a74
col32:   88aaac988987999ca98d6aa9cdcde7a9abbf9c7afddbade8ddeecaadf7f6dcc95baf9e77d5a89d88
col33:   b786cb9bac89999ac877ac9b67ac7bb9eadacdcbc9bc7bb9eddbaebd7dfcb8ca8a8da5bb85bc7799
col34:   347866887abdd6faa497a87bccadb8f98ab97fea7cdfc67eca8c7c77dbd4cace88f5eccacb46a639
col35:   79979a8b9b8ad7b8babb85f978daab7d8bb99aafbdcebcadca6cfccb99e99a8acb9886b9bc791d9b
col36:   685997ba7578b976b898eecab9abac9cbba77ad8c7edfabd8bdfcabf88dedcb2bbaae998456b78a6
col37:   a678d5576ca7c9ab9adbceea77a9cde8aaec9e9b98c9bdcfac56c98fd7bbbbeaa89bb968a9b45998
col38:   b997c9a99a7c979b7726dadfcdfbabfb9defac9aefdebfdaaabec7c9dddbbcbd9dca7c677867c7ba
col39:   9667aaacdc877756a9888badfbb9acdba9fbabe68cbad98cbe898ddc6bbc68c8f7cbeba7688c7896
col40:   8c7b7eaa96f8bda47aae77b8dfb76a7be99eefb5c8cdc9dad7caffdcbcc7bdaaea978ab948c6aaa8
col41:   aa75aa49a6b9767e969ad775aae59ebbeabb9d9ccf9aaccdcaf8aaaa9fcd8e9e69387cc7bc688896
col42:   799a7c7d9d49779d9abfecb8deda7d9ca99cfab8c9acbb7d5ab9cbfcfbd6a6c5ee6d5b899d899b85
col43:   ba5a6b8b8a5496a8d799aa7f9e75bbcc8bb79e5bc98a9efdfc8c9afcf9f6d6b8a9bbabbb84798991
col44:   798848c879cdba89985b9bbe99cadbdcccabfaaef9b89dbddabdbbb9b879c96ac977a88c9574d894
col45:   58585989a9897bac6b8abdba88bd8ba8ac7ccac5cbd8fc8cdbbaae9a9ed7acdfab86bb979c595a98
col46:   788b9257a7cbb6a897bc59aa9b897daccac9aafb8dcaadd8e9a8dcaea9b5adf49d7aaf94a9a74c53
col47:   b67aa9a3898d7acbb9ad97d9dbbdea7e95a9ac9aa8ba98dabcdbb9aa9fb5a9a7b878a8a765cc77aa
col48:   dcc5bc5b78ccc79baf979b799eb9ee87bca7bbfccacae9bbadad899a89acba786a8b6a9cd37b97b6
col49:   bc888199c537b9cba5ca79d4acaa9badb4cd89ecaaa6ebbcdcc86ecaae9a793dcab687777ba9c978
col50:   adaabbc996879beb69f6cc7b9acaccdbe97cdb89f9ddad9bed8659b9ced8b78ae9abac9da5799ca6
col51:   643768667484bb84981639746964d6877986a797db759c68ad73c85ba886987a985658598466545a
ROC:	 BPix_BpO_SEC3_LYR4_LDR11F_MOD3_ROC4
col00:   967517579466561a67c53994a6b57ea988da75b5b5cc229a8886c748899a2564c67b3e88577a6589
col01:   866576979a55a9658b69a5b7a9684a65d9b5bca66aea397899caa6b8bc9c859677a9b9a7a9838a66
col02:   5895664857558368743a94baca967b99b6b896c669c85885bd9cccbacda66a449b46a75583dc8565
col03:   75542464734bae9997956d9abaca639c69bb375a96aa9a3e7bc89f7a795d87a7fbd895756a86e864
col04:   d368559255c8c68aa8a7969b97cb8accd9678a9aad685cd76aa8ab7f99a9548a5ba74bc576664a58
col05:   7674281646a4a9a9639d5a539a5566c8c96dfb827a86baad89979d6a1abb6935675ca96b5b4589b1
col06:   699989a5b858689b79c8997c899ac946d9bab7cacb9abf746bbc5ac9d89a68ad59869a8ba978ca76
col07:   cd796969468d536658baaa867394bf98cc7f99857c999bbcabccc8c8ec8a98b67c785a5ab8cb45d1
col08:   8a58b97b7a978be596c79898e7c75aabb89aa5dfc4a8db69aabc9ab9c875a5a3a975cc7afac56948
col09:   789578577a69455676a6996a378ae9a96a3a6d9758fc89b7ca8da9a1b879888a8b74da8a95796a4c
col10:   8475737492b89799a5685ca89a5bcddcbf6b896b9c877ae6e9866aa879aa78d779a85f7a3ae4c998
col11:   96a4847761b35577596986889888eb99ac5d6af788dccb99c7a69b8ac6c9f6445bac97d5b69d1879
col12:   3a85779a74aba4e687894d888e798aba79cd75f4cab585bb9bfc69fec978d96bacb9a88b617a7432
col13:   59576744799a789fb78a797c8a8989aafdc4b579bf8bf896d2a59cc9cb9c98b78f7998a577a8a5b3
col14:   a42783f9a77cbaaaa9c9b85ee7abbc85aab888ad87c9c9bf98c899fa6d76a2b7a68d6a7dbbc79957
col15:   82189827967677b2c95a773b88b7d9879e9a878a2ba89d8d47f89a89687b84a49bff56a31a437483
col16:   49791c4c687c7b6c69ba9a8b857d49bcbb69749a75a79ea55a76aeda88859c99c7aa4859c7994bcc
col17:   87829a5b77b48a984aa65a7bdbb59a9bc7b999d69c9a6ab8669aae876b4a96bb94597ab8785665a9
col18:   9b55765674d684b89a874ca764a764acd9989caa797a8aac97989739fa96879bb7eac925848b56f6
col19:   5c356546d76b85f9b7dbc5ec87d7bb6cb9ae89969baabb78aa9b695d799958797e47a5847d586959
col20:   a857789dc72564698929ac7ca93bba6adba9ecdacba4b89d99e98b499baca6bc785a58e95b334c25
col21:   49595747396884f6aa48d5a86bc9599a886b77c7798a8aabba87db6db7a67b435d66a75857599755
col22:   462698a6af9797c677389a92c867da78de6a9a88bc5acd88ad9dbb55d68e77a876a88a89476b7597
col23:   58467495686656a56b8587ba6d9878bcbb59c769aaa76976bac79c5ba9b953847389b9552dc78751
col24:   53862ca8258b619556576b8be386be55cd76d7c9bfaf8cbe389d658d8ebb87a6a9687b52774b758a
col25:   7586cb817777ac33aaaa58baab779aab9b89aaa89926a6ac8bfaab697889f7af895666889577ab98
col26:   68777e87a89686c97abb89c7ba5b6eafac7e8cabaeddaefbbddce9dc78cbc89998aaa749a4798845
col27:   3b857695af5647734785aa88888a9ac8ae9ee8bc9ea9eda9ecabfccf5a8b7949d75c67965d869452
col28:   68aad7639b9c96b77abbd59ccbbdd96db8bdecbcd7dbcdfccabad7c8dbeccb8a9ca8fdc8b988896b
col29:   788dba66955b79a7acbc559799edeae98cabedabd9b89fb9ea99daa994956bbc9ae6b6fc87b95a6a
col30:   aca68b9886898886bbbb79be8d35ab7a59d9cbd8daddcbb7b9d66bbbac8aad8ba9b36e9bd77a8589
col31:   8a8d395b878d6b7b98e98ebb9b6aa9cbab8afbebdfc5ecaaffcba8ab9bbccec989c9d98598967938
col32:   65ada58c3859c9ddba99d497dbc8aafbceb9dbaf9b8a7bad989cbf9c9fadebabd6b75e2cae87a584
col33:   76b3855a58dcdbaa8c6a2889989cb8ad9fbdeaaab8c7bdb89d9cae9befe6ac56ecaab979e75874d4
col34:   967d8a8ccba88b8cb8bcc8dca9caa7fb9a9fdff8edfabcf9fb7cbdc999cb4aea7b6c8a57ad8b96e7
col35:   a8aa8ba93acbd9a7caeaccf9b88bbefcbadfeebdb5d9a7bdbda9dbadcfc9dd7b79fbde7468aa7798
col36:   7a6dbb28da9a8a787c97c8cb4d66aabfddcdfe8bcbabf9bd7d89dbcccbe6fac998d9987cd6598a7c
col37:   ad5bfb7b99aca8c8d76a9c7ade8bbaee99aea9bcafca7fbfcbcbc9bafdbe8b76caa9be8747698aa7
col38:   ba6e7a6cecd8c9de7a89deae8d68fdfcaedbd9dbfb98be99cbabbe8977dbccbbe57d9a57887c782c
col39:   98b7a6a9a8d6787a8959addac9cbde7cdc9d9abf97796cccdf7cb7bdcaa9c77ac8d9a89da9889ac9
col40:   6d79daa8969d37afdc7bac7aa7b6cbb8bdbddfaaaacaecdbfe8dd9adebb9e3a7c8ab974cd777cc79
col41:   997b8b6da98ac7e9fdb78cdda69beabfbabaccdbdcbcebcccbc7b9b77cbaddc5cdd685c9c8d49799
col42:   7b76cb99acdffadbda67bc68c7cfec89c7bcf9bbfbdcb9a9ac8abdca7cabbd9adbcadaeac778abb5
col43:   89f4cd9c9876bdbfbabf8ceaebedfc7bae9fadfbddabbdbffba9da7a9ebe8ceebccb9aa6f9865c29
col44:   993dab87a978b5caae98ce96cddaefcbdecdccfdee8cfccfe9cfedbcdfa8c9dfafb5a698f99b6ea2
col45:   867b78bbd9a969b39abfd99ac968abadddb8babbfdecbe98fcc9fcbeba7e9c7ac58baa8686866c53
col46:   b4993b9aaea7b788aba8fbbb68898a88988cbbdda8f94bbee8dbaadc7abd7c4d9cd6af96e88d8454
col47:   6fbc9ca98b8b88aab96ace8f8dcbbff9dfe9eeab9cabdcddccbbba9ecbbfac9ad9bfcf587dfcac83
col48:   7a5ac79c9da89787ce8e8bcdce7cbcd899eccbe98cf9dceef9dedfbcedccb77cba8999ac84bc4ea3
col49:   2aac587dcd87b88aab5fa9dacb99debcfeb9ee889caea8eb9cc78ba89fdacd89c6b57aba68c81d96
col50:   88bc8cd7fe68a6bdaec6ebd5a8e88cb88cfc7fbbfffd97afcedeaace6bbfbcca89c6bcce99768829
col51:   a656657628957bb7579a699297a75b98a5c86fbb89d9b8babb889ea97aa8b5374bc75ba583547674
ROC:	 BPix_BpO_SEC3_LYR4_LDR11F_MOD3_ROC5
col00:   639d8976979aa786a99958c99d9dba9d968b67c9abecb7b7bb379467b568d489256c873173228273
col01:   c4a884a2a566cda979ebaabcdaf9a8c9db89bdb788de98a44adb9c8db3f84e8b78c87ac7bb4a6797
col02:   565a9b9ad7b8998cb47bacf64dbccecbabd8abb85acecdb8ac9995467cec865979ab67ab8a887834
col03:   a75d298b8779889e7abad99c83fb9c9cfcb99a8abbccbb6aba77c9e78abd79aade969749ac286557
col04:   b98b7ab9986acb78ca6a7da6dab8cdc7bb6cbbc9ea6af9bb9dabd8a88cd87986dba6878667a76486
col05:   86784d7b3b689aaa7b97c6aaa9cbc757f8f8eba9c8a7ea6866c9caaebfbac8ae64a68886b7637ba7
col06:   a8687778aba888ab7869a837b8aafeb9fbbd9faddd7f79a88a998e6b49a8fc7bbcd7964a88987a84
col07:   679b999889a5bdab6898ba9b588baccedcfd7a9b69ab6a95ac987a797bd9b88d7868949ac3427561
col08:   b7b68ca6bc24789999bc8aaebabcbc8d8dc8c9daad9bb9bcac8da8a9c9ed4788897995aab7ab6777
col09:   8789967aa7bfcee8c8ec5c9bc8b8b89db89ac9abba8fbad9b979baccf6d7aaaba88a7ca75a8a7838
col10:   ac9b89a867ca9489a78b9bae9dd9d8b9cdbcac9d78aba7abf7a7db8bcb7b5d588c7994ad13a69792
col11:   9b74685f865cc9e8948a399da7bb9ccc6b877beb71abcbc978babe6b7947b78abb55b979b5597965
col12:   9a9a97a77a7ec83a9d797c8dab66a988799dc79bab5aadcb8a4dc7b99bdcbaa86b5a5b6cab76678b
col13:   897c674e96a9b7ddda688aa9ebabc7a96b9bad85daf7af98abb8cc9ebeac9a9a67a7ca89cbc87686
col14:   878b38b85d7668978866fa7ba7b8ac8bdb8767beaaa88fd8c9fd86d9ada49ad9ec796ab96a569864
col15:   765c6c989aad8cccbbca9bdbac3ba7ae8daaa7ab5cb76caccdaccca686a776a4ed99ca8a7b8d7437
col16:   9b9485a5aa8688d8587c9bb7b8b9e9c8cddedabac9989aedaea8cbbcad649d5a6b88b7abcb4d5488
col17:   8a7677b88a889895a688a56a9ea778a89cc9b9aa9897cf86a37fa83deca9999b9a29c86b645a5873
col18:   857b96a6b864a89d59886ba59999a9988b789bca9d99b6b8baac9eccbac87bebc4699b8435274535
col19:   b78682a93a86c7fa9689ca78c9ab8a7cabddbba6dbcb7a97ea77c69caa984a6c4868a576676b96b6
col20:   886a7682b9e59954883a5c7d7b5c75a678889b6b6baab8edbac9c9dddb799bf5a6a7ac87cc6ac853
col21:   56575496845898bc999bbbac9a85bf6cf7b8aea8aacc7cc7e98bfaccba8cac2dc7899549aca74d38
col22:   93d85477b6588bb7b6977b9a8a8589ab68c9bcaaceaa9cf4d574b7a9578a6967b8a8a864bba116b7
col23:   56499b743867d8398755877aa3fa9876bcc9baade9abbc96a7adc4bd99dad87379648459a5b79447
col24:   99845553c88888999877855799baeaa9abcbbfa79987e76f68aa987bb76c7a28a98659a652ba5a53
col25:   696c5e59b8578ccca5ad68e5a8a9bb9b79e59c8a65a79b7cdbf87a84aa77659897d77ab98835ba51
col26:   c8aa7ab85f776a6bf68796a9cccbabccccb9acb7b9efb9bd9eaccbcceb898f9aa866cb9dd5564786
col27:   3a77786b6a86b56a9aaba6ddd9599baac7bd9dcc27cccabccbecdbdbbdbaaeb47979285749b46a47
col28:   8c97bb97ba2787b7b8987dbbd7afc899a8feecfbca9acb98b9caacbcb99d9ad9aa79caa89b89cd89
col29:   97dca676e984aa9878a78dd98bb9cc58bbcdbadcce9886b9cf8dcbc9cc8d98b4a869e87c6b84eb69
col30:   5a959a97b798b9a5d3aa7bcad9dba8dbf9feedfbcab99ba9b9bcaf87a88d5aaa9bdac958aab5a895
col31:   c47979e54ba59b9ab8ddbb8a769cbde9c7eccfeedbff9ca9dda7bcb8b9ca6b8b997ab89fe6ba3b8a
col32:   b97b866acdaa7cecad9fbe8becf9eacafcdecdaac8bbab9c98dc9aa98dcbbbbbe89eeb5aebcc79a9
col33:   899b8aba7ea7eca86ad9ac5bcd6efa7aab8acaabfeecbdceddb99edcbdd7b8a49bacaa8776c7ac68
col34:   8ab67b7998bad7b7a9ac9f97bcec9c9a7abadee6bdcdf99bddaccaa9bb8bddcca77cabb7d4b6c77e
col35:   8878aaaa78a786a9a8c6bb8eecdc7bafcb9cbdbfb96dbccbbadcabfe89acdca6a7fcba9e87995999
col36:   7d9ac57898bbcb599c9bcacdb79f99baacd5dbc9afaebcc8cca9bacbd9a6f78bb8baacbad9a7ba9e
col37:   ac9877ada9a89fb7ccbbcfbfb8efccc8aadeddfcbc69ceeeec89a89cbcabbecacb88ac8b899aa9ba
col38:   6a9a99ec3afb9bd8bbfe99edd8b9ccfdceefaddc7efb9d78dcba8cddbab98dabdf59d86e9724b885
col39:   ca87699b89bbbdfcebe9ef9bd997cdeefffbe8fffacda9e9acf49acbeed7d9d9c8a88a8aacf69d84
col40:   66cbc5a488cbb9aa94c7a9eade9cfcace7bbaabeeac8dd9dce8cdbe9f5fab8d9badcabbbba668b89
col41:   9d6b8788a9ebac9a9c658aa89aeacab9aea9afbfac7dddbe9bc9ceecbc8ad8cbdc7aba55a928ba8c
col42:   2a98d5b6ba958d9c997bbcbded99baabcfaafebdbfdab9cb9beb8bdbbcdacbbac7a648b4ceddc6c8
col43:   c59bab6c78ddaadbcccb6962c9b79bded99ba6aeaffb8acceacbf6aecaabcdb4edbc7fbdb9db6ca7
col44:   7ddab686977daf9bc8a9cdc58bbbdadf9fdfbfac7afd9cfbaabda9cdcb5be6c9aedbcb5a478ab5c9
col45:   596c49d68aec7eb7e8cd9cbc9bab999d8becaacebcaacdc9bcf9db7ac99a8bc3c66abb8accd9da8c
col46:   aa7ba6d897bde8bd9b979889fbabaea4cbafcaca967ddf8a8af9ab7dbbecf89e7b5b9a89bb58d8bb
col47:   b8a9979bbb9cead9bfcbacfd5ad79cd8cfddd3d9f8bfddbad6c797a98cbcbb6a7d4b8596bbdc5887
col48:   7768b84baac999cc8bda7758cc9bccaabf8ddcaababbcedb9b9ecdbcacbbc9ac9aa69beaba8f979b
col49:   9d4957bac9b989ad9ba69ab9d6abbeaaedf9bdd99b7b99abf9bc999c8d9ecde98959c8b65c7a3682
col50:   bb9dbbaa4bbc78848ca7cb5ab9fcbf9cadeecb68bdcbbdcabccf99c87b6cf9ba7b79b97b7cca9cbb
col51:   967671879988a99486c8d698bba8acabcfc9499767ebbc49aabfd895c457d9cb65c4479368e63864
ROC:	 BPix_BpO_SEC3_LYR4_LDR11F_MOD3_ROC6
col00:   8196574658531a625633576a6659796d28947a68986863688147bb736568a97a8956686478558185
col01:   c948c666823748b47a994885569a758599496d9b87d94b8c8bc935575ac9d966537b7368a7426737
col02:   a4688868176467958963898b9b575966969f8db598ab897f5a999ab7da9b788d7948389884367953
col03:   36587a86835374eb782588b1a8c87a78ac97837669c85459b999b98746886798485da84847475793
col04:   449a77489cb698a4c68aa8686b96f85c6a977689635b5c7a88ab6aa7787956679679697896615873
col05:   a385b7496785235758a5a99785c79c7d9cea5bd93cc9b858b6a7a84ba57586a775867bc68b9aa5b6
col06:   a51b676c56a2693653888886376c887deb836b7979a8ab9869cba9bb6c7f874b5a19b686376a9869
col07:   89a68b756979c759786ad86af77bc9b7bac8a6868a8ada6abcb89c9997b876776aae7877882b57a3
col08:   496778486a8299955d98ac689dbb4a88ce8a698d7b9b68898faadd6b5b8ba7a59daad77a6a366846
col09:   95476a75786449783b9487699899b9a7a59db89969a7e48aaa796ca9988779b9bb697a877a9a4944
col10:   9559755799985b73898b84798d77779a867dab8c8c98b6994ab96b58d67979598c5b75995a45894a
col11:   6787773b488875578b9597759c4f68c88ccf799a88cb5ab9a9a99b7ca75f56a9679c657746797a38
col12:   7679a8b437aa7864c67b84a8acacaaa8c788bacaae887c8b7aa86aa6c8ab6a9367bc79599734a763
col13:   686ba37b879876837894678aa7689a8898cbb86bbda9bbb89a7bc69898929469c5b5594499b56765
col14:   7776868ca996ac89d986c6736c96ab8a6ea9aa99985cafad977ac9ab855a6998dbc9c746c556b569
col15:   4babb8778c66caa7b8c4868c57689a665c85aa87cf8b4ad8a5c589ae687c69c7bb36cb99ac6a3b46
col16:   9c2146468b75469885d931fbaa8a87a9bdb88999a989f7adab7bbc8b8a87a98ac67265b6549e5451
col17:   461798597978794aa9fa95c89c7689d9ca658ac9d9a6aa58aaa8bb865a7a99b9774874c7a766b656
col18:   87b4a9795877dc977657779ac9737a9686eac9dc7a999a894c79778a87a8cbaa66643a6c84361248
col19:   c8c482c8599c5a6959b767b6d96ea97aa97789abe6dbdeb599979a8d8ac9639bb7646a6846577364
col20:   c5678958a23889b9a7777c6d969ab768b89bb96ba6caa899899b79b5ab698a666d6b7966684a6875
col21:   b7937957b97bc6b85795dc685ba97cac696acb68b79c77458ee9bbb59b798878a996697e2793b645
col22:   4989769977aa7854778b666998ada8d8aa5ba97db6a9ba6bcb4887c97d8d9865725564b7856ab166
col23:   75a74579578798a9ba6998ba648c6b857c977ba87caaeedaad97a699a8a6b898dcc7856a54a98849
col24:   74495b879b69b3d878883c88a9adbcc87fda8cf7ab7ac78ab9865b686759996939585a97b87665d4
col25:   467b48d7a8bb858c479676779aba866b9c8a99ab9ecababc88a78fb8bb9a97678a86ce997a8d5947
col26:   999c88a677aa9ca885aac6cfd8accb8adaddadcb7bccbae9eaefa7d9caa9b5dc3a8978b8cac42da9
col27:   75668adbbec98d3787887edbabdaa6beddbdb78b889bdbd6989c98778ca57a7d68b8baab4a6d8c42
col28:   baaad5e9ebaba9abaace97c78dc8bf8deeceadaacfbeab9bbf88e6bdf576fadbcadba88ba4959a7a
col29:   65db7b9c7b89cfbca8acb998c8c6b97bab99a9dbf9b9ca6c9ace9de9fa9da8bbb8bcdafbadc89979
col30:   d8cb6aab547a7b9d77cc88b6adcdbaeb9b7c6eadcc8adbbddaba6599eadcaecfafab776a5b5e7995
col31:   bb9acabc775ab4797efacae9c9b9eedddd99fceccd9ccccc9dafe6dabbfb8899dc77e9a7945a6f86
col32:   a9b7a5a839ee8eacacc899acc8ccbbd6d9cd99c8ddfcd8abcaacaab9bd88eacc99f9cc67aa5a7867
col33:   c78bca3d9cab85acad8a8da789e7cb69abca8eafdeadcfaefbda978cadebcacdbd9dcf959baa86b5
col34:   685da9b8bc7c88a7bfbccdababcbfabbfec99e9cdccedfca9babba88aeeda8c6db598997e988a47f
col35:   ddb93b9ba6bb8c8798a9bc9dcbf7d9bbedeb9bbbbaeddcdf9dbff7cdfbdaedfbbad9a88495a8ac8d
col36:   44cbaa9ad99b7ddaac7bcca8e7dc888fcdf9bedbf5abcbb99affaec89dddc6eb8c978ac89847a3a8
col37:   c878999c8ba79d8afdccdcda9fbcd8ccfcdb7ddccbbfebdadceeacba9c9fbce8a888aa99cbca9992
col38:   a7baebcbcbdbaabccd88fdbd8cbfbd9be99bafadcce7ecababebbf9afbddbadcb9cf5ca88a466ca1
col39:   d8698c956c9a6ab8efbbae9d9bbbfbbfa6bcfbb9bc6ebae8ecfcbccd7eebd69adf7aa9973da91986
col40:   dbba9de8fa8adacbacedbf7add7bf6ddfafbadcdd9c8bc98bbcc9b9c9c9ebbeadab9a99d5893aa86
col41:   b7c9c8aacdbbbcb97bf9dccebbebddeff9efdeddacad8be9ed6cf8cdbebfcc87cc9aac9b7c69a979
col42:   8cd99dccbb96d6fbc78cad7bbecc9cdefccbc6e8d6e9ed99bcdeec99aabfcf7bcaadaaba97ccc7a8
col43:   e88d9eae9e99baf99c9ff9dbfbcddddbabfeacaf9cffdd8fcdbcc9aeecbeb8c969c9789a97ec8cab
col44:   888dbda9e9d9896c898cadd89b9c8cddbdcabbfdffbcfbacedeabac9ddcc8acbeba9ad974f6a377d
col45:   c9b9965cf9e6c85da8abeebba8c88acbcfbfa8b689988dbcd9bacb8dafae4a8aca98b9d8455e8667
col46:   6b9b59b8ad5acbcadfcddacbcebcfdccfbcfbcafe9ccbd7cebf78aabad8caccccdea8db6c9bcaa99
col47:   bde7ae6b977aadd5bcc99ba9acadee9bcfbbaa9aeaf6cceded7b89fdb9f7eaa989d7de6f987da867
col48:   bdc9d8eca6d9d89bc7ebafbaccba8bc99cfcdbbcbaadc7bb7fdaabddf7cebdeabfbda99da9b4aac4
col49:   76dc869b7ec9e67eea9aacebbcbb8eeabedaaa9cecdfbb6eb7cf7999aed95aae799a84a6bba6b497
col50:   9d9dacbbebcc96dc9bebb79abc6efaebecefe9adcbdfd8bddefcf9c8eacdcdadcd9b3b755e68bb86
col51:   89979777938786877a9997db9bbaec9aaadee9baa99888b3989bb9c6a8b986cb469b8774887766b3
ROC:	 BPix_BpO_SEC3_LYR4_LDR11F_MOD3_ROC7
col00:   c39a7aa7c8e6986858b6a99d5b8766aa9b76966785a79afab2aca5679aa7a795659397695b6537a7
col01:   d9e99ab77dc8eaccb8aa9867699bbbc98c9bbc7b88aac7a3db69bc8887d8939c78d88acac9984af8
col02:   afb5e47acb8856f8b78558a6997e6bb96bb7bb7e9c5cb97bc2c175b9d8ab96d5a8b35a8b9743a357
col03:   ad757a66629cbbbd99a7e9ac798c8d5d9b577bb9a9a9966a4b6dcdb7976786668a8797c8798ea5fa
col04:   94b69ba7a9a78cadc97799b8aa9ab7ea7aa5bad8a777d2aaca6aa9a798ca97b984c9852886a86869
col05:   579a8b443da9a6a8ab89c49aacbabc92895ba7845b98579ac76d7686a97cb7ac8a48787a1a6ac869
col06:   97bc887ac998e88bce8b68c9ababca9a7ca2dec898aaa8daccabc797cb9cb9f968a758bc97869cb7
col07:   ec89ccd7dfc9be89a8c9d58bca7bcb9dac7779abaa7e9e8acc4d89a7b5ccf8ca7a837967986a88ab
col08:   98a99cbb8bd9b575b985aa4958ecb987cda88848bccba79da9a8c8cb899b68774597a89bb9978ca8
col09:   a8baadcc99da79fcb86beabddab6cbfa9978cb8689787579be7a94ce9baa496688839988961753d3
col10:   c9caba58a59593ba4a59b86eb4fb788ad786a9aa9dd7d866cc9ac6cca68b8a7ac88caaa2559387b7
col11:   9757daa987b88b96976c8a8dc7da7cb986c89b598999e877c648459c77787a84967838597c96d667
col12:   899374ac8969b5abae9accce729aa9bac4da9db9b9e9cbd49cb8d4a8879ba79bb29d898b395b9588
col13:   3768886cdbacaaa9955b897abb9749898ae6ca89baaa46c96a789d8babb6669baa854688bb6ac885
col14:   ba9868b788a5abac78d887a9d8b7b928ac4cc7d882aaa79ac8aa9bbd7c886779dfa3c979595d86da
col15:   c788989769c7b7858ae72cf3c63b8d7886899b9cc8a6c73a86b9bea488ad96ab769cb87cabb675bb
col16:   5c9b589ad9e627ba9a59bd9a6dfac98b8b92c9caca9a3688a889988787d68779cb568af5a6767874
col17:   7b679a889dbb898a8b89bb6847b97988bbd8a8999766c6aa75a9be94ca9ab995a277b665c4d95716
col18:   96657d99a2cac689a9a692eb9d7cdb8a7b785a4dcbb57a99a9ca9a7ab941c86b7aadb994887d3755
col19:   cb4479594675abb79aa7ea78a9bde7997b99bacbac976c98ed595a786989a68a986b946c7d9bc69e
col20:   aa6758892b2ceba4927c7a3c4a7cc9cce9caba7893ba7ba789829a99b56e86a8da6cca9b898d88d4
col21:   99aa7479aa57878764bc6879898798b9a77c9877b7a8cc986ba8d9d7998ba686b98577ca85988387
col22:   8869992aa9a3a7948bc797bbd5b5addda99b9bdbb87b9ddacab976e9f7a46b98e8c957d948764372
col23:   78459985a962b8a598576a8378772b89ccda9599867686cc598cc6c7a7c6a95576379849956746a5
col24:   a7cac9ac39a937aaa866ce9a9b8a9889bb9b9ab9bb87987a8687bca7a689399d9b7988aa85ad86c7
col25:   93689965c67ab78d9ac597bb9b85d9cd7c96bdd89c548b98798cb4c6d7889c677e9aa86c96c5c778
col26:   8d89ea9c18bdd6589b5ae89be87eac88d9caade97cbcab77b8bbcca6b7a7ad6ed8a99b8cdd8e987c
col27:   57ce58b77cdca9aeac89ead9b69e8b8c97c9ada9b7b9bbfcabd89bc688a88c9acabab8db7ab5b769
col28:   a98b969cac9bcab8ccb97dba99a999bbdab66acbbabac998bcd9aacae8ab89cba6e8bbb9ead97ab8
col29:   6a6b876a7c977a89acebbc9baa8f8aa9ada9b7bcaaedcdc8d8478ddcb999ace7d7aa68ea8caae6b6
col30:   d56495aad79c789a7989bbcde888beb96c8bda9b9b9b7ca799a9cce99c8e8be9a8a989ac9abadaca
col31:   99a58a9bc9cab775c9bfaaad8f5beab88ddd7baffcadadaadccf69aeaaee9fa88bf9b9abcbd9aee8
col32:   aaca8df7cab4d6aee5bbdbbd998a96fde887ab54aaae98cdb9deeaecac99b8f89aba8b89e64ac7c7
col33:   76998a897ac9c866fcbcba4aec8ae998ec79779b998bcdd9bfcb9daff8fa58cacbdc6caaccacbd8a
col34:   ac6a9ec6999b778b8bcaaaeb9eeaedcbbeecb9aab9f6de79c8b9beaeffd9caac88dccd9ea8bccdc4
col35:   99c88978a999ae7db6dd5b67beaead9e9bdddb9b49eabf9ecba9ecaabab9aabfeabddedbb77f99f9
col36:   8bdf96e6edc599aa7f8e99e89dabaaea8cd6bdacd88fa989ab7a79adfadab995c89aedabfdaa78fd
col37:   c699998b8cdb99cbcccfedbb9becd8cdb9d989accadc9fbb8a86c599db9ea98a9cbadabca7bacdf9
col38:   6b978989bdbbbd88dbcbbdebeba8c59cdba89c967c6dde9bb398babbdbbbbf9b8e9bcc7fada8aa8e
col39:   74d7b9dac966abab7bb77badb7ed9869c9fbaceb8ba8fadeacfcdcac67bcfddcba87ebb9a79ba777
col40:   d7bcc8c98cbb989876ad9cd9b99bdcabef6ecbb8acf9bf9cfdcfb8dcb9abcfe4ab88d983ee8aecaa
col41:   fb9cfb9bbc6ceb98cbafadfeaefbcc69dcbba86acced9cba6cab9c57a7ecd6bc7ab79bd97fcbba9b
col42:   59fec4887ababcfadb8bafefcdaed9cbf78fabfffb7dbfbbbeaacaa8ab7ed9ccecd7bba9e75b8dd7
col43:   9cdabea77ba98a98cecdfbd9bcfeaad9899ebbccecedafceaa9efbfad8af8b9baafe9cabdabd8f9b
col44:   ca6a9d9dbaccfba89cda8e99b9daeccaca9e4decb9eddad9dffbacfeabba9cabfddd887cbe89cdc8
col45:   8b7a976a45b8f6ab97ccaca9c87bbbfdab8caafbcddffbf7a88a8cbaddc9e9cbbd97cbca6937db87
col46:   d7c9dbb89aa53daec8ba79dae9ceeafeaafeabb7cc9cbefcdd8e77bafdc8988f9e9defa7cc8ca5ae
col47:   b888aca7aab86cafcdaba9b9abda7a9faab5dacdb98bbaadfbdbebfbfb9fd5b98e3a9cefabfadfc6
col48:   fbcb669b9aacbcacaa9abd9eddafbc9debecdcb9a9aecb6a6dcf89f65e9bcdfa88e769c9ceae9bab
col49:   ab965babe8cab9a3abdddac8bb8aaadcadc9eeb9fefdbfcfa9cbf7dbabbb978da786d69acbddfcea
col50:   8999eaaa896bbccdd7cdeaad977bbc7cfafbd99fcabe9dc8bcaefa8ac9caedc9cbc98cedddcaced8
col51:   daebd989a9a6cc769946c99bc9aa7b7cb98ccc79baa98ed88ba7d5c7cbf949cdccab798bba6ecb6d
ROC:	 BPix_BpO_SEC3_LYR4_LDR11F_MOD3_ROC8
col00:   74686777b5a76556a66583699b635b69457acb96b854734988458998ac8a568577b9375b64858685
col01:   67c9769828744a768b9a6a8b7b79ca877a54686b86f9a89995abbc68ac778aa6b954962b5778aa84
col02:   c88585967ab66c57c4a998889795b777a64f55c69898857b898986689baa92a97c779a97b7769766
col03:   c6a5b7ba69b665b66196547b8ab4b996b877c9b7d49599a9ba687b7897fb7bdab6726b7358784968
col04:   4968c8bae79848997d78d789ba79c959fb789cd9ab9957859a995a7a8c677759a88a9d7979aa9529
col05:   78698b8564984b68a58b6978277585b7779864d49a9a8a65a996ac965a8c9499988dba6a8d687486
col06:   547a6794585683a33982bc9989a58ba8a6a4aac927aa947a5756ccc97594cb7995b49b9ba8694788
col07:   64a7a63a3e77458787b4955b882769847d9aa87db99baaca7b7da9b6ecb89878598558cabc595574
col08:   a71b8796817979cb39aab6d8e98b26a8ed85b88cb8a7cc9bdd98e45b88b6bda8999b86b595e94a67
col09:   8495449964a7977ab4c77a8aad8c995c97b6b6788964c85bb7caa678b945a5a648c696b8495985a9
col10:   84467a669865768ebc76c6ac66987bb95e5b866bc9b69b997db49755dc98abbb898cbaa741757a34
col11:   2778621c7776b986cbc75789a9799d45567adea557a88c8673a6d67b9ad798d7ca75d7976b876b49
col12:   96789c9699989578979acaabd6877a54799eb6d76898a99a89c9a4788649b796a6981778999a53a9
col13:   834976a392895898ba697caaa88a8bb8daba7e84774b78696ddba69bd66e7b89b97c567448256993
col14:   a7a67b5697a8b8997865cca3cb9d9c7878c786dbbd98b8b8b87ba878caa67879a86929b7999788c8
col15:   c48a8565552737da82bb8887596ca7caa885b3caa78a8ac7ba68a7c86aa88b8615b7a7977b577985
col16:   a7b6869b777f58b9a7b9c6b68df6b9aa99ab68da87799bafb76678a978c9c7ab87d78c8b566896aa
col17:   978ada477a9a8834c57868c6a74b9b89466aa8aa9bb8eb7978e78a89b7a8676a857897a857977488
col18:   758459cce999439774877a8eb9b977d3ad5aa9ab39c9dab88aaa9aa988f8a3877868978a86988a4e
col19:   a62549c86a7a7a96aab97bbb8a9aa8997c7caa9b88b7ddab977cbf666ebbdc499646689799b9bcb8
col20:   59b9877783817759589a69cd898acab69996ba7b9a5bbb98aedaac8b997a57cc4674566a99887b8b
col21:   9b69ac88779991a48b87abd5423d9a89a7b5a865a86c86689894ca5abba6e95b8c98b997c57a8797
col22:   387465949c64c686da87c7996af699a8c75b5e87cbd59ee9fd9ad7879877e8a89587ad7298874a77
col23:   454478364b68ab79b2abc757c69a9b8ca6b7aaa768489ba68b9ca5a5bb57997569aa556668285857
col24:   857555586878489659bac88acac678a799c99af75aaac8db7cb8da5b9daaa5aa946948a8d64995a8
col25:   923796b6a69696ac99998aca795abaa899a98acfb79887a9fc78abab76eaae78c5785c9a9775ade6
col26:   569789a47cb6984799cc8ebae6cdb8aaabaa7a7bab9b8898eadcbd7b9bbfabc4aa98ab89f958b99a
col27:   5868a78ce8b8da7b86cc9a3a8899b97aed7db9bcc8ae8be7ababb9a46ad7f5aa893cbbdaa768daba
col28:   6a8b9bcba99bbd9d9bfad9cd79798cec9c8aed69c9fdfb56f7c8e9978aecb8ebbac9e8677dac89ca
col29:   667bb7a8688d696bcc889b9d9d99bbf8bfd6bcc7abc8da9cb898da98ab48d8a89adcadd6fbaa8bb7
col30:   76b277b8d79eac8abbde77dabc88dda8b9ab898e77cbdbd9fb8878a9baf6aac8a68bbbdadac6b889
col31:   a99676ad988b8a997a7bb8fc8a7cdbaecbdbbdecdaea999acd8ccabbbcad9e8bcb866c799cabcfba
col32:   a58d79dbac9ab8ccd8b79adbb8bccc9dd97bad9accdc9fdaeadab9acfdcce9cccccda8bbec99ccc7
col33:   a7a85895bba9d88bc58a7befbccb598acacc9d9cd8c8d8aacadc9dcddc7daa86789abb85ea9ad68a
col34:   95baa8ba9acaecd8b7b9a9cdbbaccadfdbd5e8cdbecad6de9beff898bebdbcaacdadbac9996995db
col35:   ab67b8b9a7b7a8c9d7dcb9de7caccbaeebacbcbc9daabcc8a8d8ecbba89dcbacbbceaad6abaa9cbc
col36:   b697bd987afaaab88abc9bcab68ebdddfacbbcabbb89cbbafceba79faccab98cb78ebcccba5bdeba
col37:   996899c6ca8bbb7999f9bcbaad9cfac7afc9fcdcdfdcfccaca8bfddda9baaae8cacfaeed89edfbe9
col38:   e5bbc67aaa8dda6b8cbaababafdc9ba9ddbaa9bfeed9cefcbeeddbedecc8cbfea9bacd8c57bcaab8
col39:   c77ac7ecbac4c9bbbe3ea8d68ad8aaa858bbca9d9cdf9674be9edfcbe6f8a8d8e9da8cfcac9f8c8a
col40:   99acba8b9bbd9d978a99bfdcaacbcafdccfea99aeabab79cdbbabebaadddeabcbddc8caeadda8b8c
col41:   c96d5db7bbbcbeedbccccd78bdbaad8da9abfddbb9bcbb9ccaffadabeacf7bc79cc7d7e9dafc6a8e
col42:   a79ab8b3d998aba88ebeaebfdaebdc9fa96ccdbccd78bbcfefadebebedbcdcbfdbbdbbacabaaccd6
col43:   ab68acccca9a8cb9896ebdaadbbcb9adabebccaafedd7b9f6fdfcddaccfb87ae9efa898fd7bfebdd
col44:   87dd8b5abdb8b99deeecbcccda7dedbc9edd8afb9a8eca8ebfef9bdf9fccfbf8cffd9efddda9dace
col45:   aa7cb69a8a68bcc7eddf5b9eb78ebab9bcc968dbe8eaaeea9dad78beafceb9fbcfb7b9eacba3de75
col46:   6baa99dbec79fa9c8cfcdabfada9aacfebbd8acffaebcbadbdbbfbb99bdfcbeaacd79bc99b8abcde
col47:   9bc7dddaa78d9cbce69dbf8ddeeebeecdcdabbffadfbcdcfa8eaaeabfaebb8ecb8aad78c9bbdbddc
col48:   b96cc8dec67c9ace799dba9bcbbddbddedcc8fc7cacbaed97ebcaccd9bcaaaeecae9bcfd9b9db88b
col49:   7daba9bb6a4e9d6c8bb6f7fddc88ec9bb8dcadfb8dbbabcddceea99c7a99fcdba9becaa799baaec9
col50:   5bcde89bebc5e6bdbac7bcbdb3dfcbc9fd6aca6aa9bb9aafffccfdf7fcebdbbcc8bfabddcabcbf9b
col51:   668ba95814ad58758699bb9c8bd898b7c699978b6b868acad7b5f98a886bbbfeea79b788bcccab86
ROC:	 BPix_BpO_SEC3_LYR4_LDR11F_MOD3_ROC9
col00:   544116562558646c845985596866a86b78984a77894c78768578b78992778479b56c28944329a673
col01:   65c9667824a698ab6d38b999c87c9528a8bddc88888433cc8ebc89a99b5a3cf88d9a5abb98685763
col02:   8a58456a786a984456bb9b756a6898d9dcbd8d79ac96496ca49b7959c9aa9a7a39b7994a5b499574
col03:   6a9a359797a9489a587964984a966c8d9a6aaabc99baccbaa9966ba9aeba8abb99a9acc85b573948
col04:   787166757ea7b855a95bd89ab9498dd8b789cafd797786a8bbbd7bcdbaa87a741288c15b7661a663
col05:   479866a7871787898a767b85c998c898b689699c8686d8bb778ac984bc77d4a5b967557bd55d6b85
col06:   86755c56557863c98a8796c979cc86598a6b7da6f7b87b6e97baacc8bc17686a647a9a8659b98788
col07:   7b687897a8c8b37a67a4b9ac86897b69b8dadb99c99c76775cfb887bac5b7eb898c8c2a5487e7834
col08:   5b663a434a988748668c689c68abb779a988b7d9d9ab88b98b286b6deb9ab8873b869897b7a987e8
col09:   9885a558b985a749898aacb8b8c5bc89cc99787babb9a69988bdb9c8667b599aa16bab8578a84469
col10:   64b666a8684464b658a99869d889cbfb8897f99649bd7963ca8baa8baa7a7dc98996442663566795
col11:   76456526659c59aa7877a95ca69c9978aaab8cca79d6868995bbb6a89caad59aaeaa9b6b8a797594
col12:   59754746a5674687698699579a7898bc9acb97a78cd8a9b969b978aab9bdacb81b7c5b7788669576
col13:   5948468968965998ccb787af68d9bdd758a798bca979c9b26a99a899bcac988d4949ea48e79878a3
col14:   7885697436986775ba5b4986b5b8569cadba7aa9dcacedb87996dd69787885799abaa8668994855a
col15:   c99876a98a56b959857a99b9ab979a777e988b9a9767b7aab69c8c9f597cb77d58759887839365cb
col16:   6948a4867855984bb96b8a69a9999675a8b8bdae66cc8d79caa898b9ac8c88796a8c8bc83c44a667
col17:   9997528866a9788b6b9997bbcd93b69b799679b9a689a7c99baa9b69c67c8ac98a35698959684566
col18:   42445556867838a58c9b68ab97789976a278afb958d8588a87adb9a9b7927a99abc8898954a43664
col19:   36b1959888aa77b996ba69788956aec79eac45d89a7cde7dc7a96ad97d69986a8b91a457557887b8
col20:   639864a584537a5998a6a8ca698c4abcaa9bdd9389779cbb89ccca9d7a85a6795679a65a8175c686
col21:   452744686ac68a5c7cc7abdb97a5a48c6f9bbc899dbac5ca9ab6bbbaa88477b8a6a866a9cc788aa7
col22:   96498878865b66556559aa6b7a77c9b6bbc48c6ab7eb9a8967a868949c895496a96b77946c8a4766
col23:   6149885766696a5895657d89a968a456978cb898e7699a679b679ee26b97da76b6bc8b8b66997356
col24:   38c8d9879875546c69796d65b86b6449aba9b989b887aa979aeb5b7729995a16b7bd54a5656764aa
col25:   cbad69993b7aaa96ba58ab9ba89bdbd893fca83caa6daa97b8bd689987aa98a987798889a7a67936
col26:   4aa6c9359867889a8cc7bca7abd9cbaa8957ae9bcabdfc9aada8789ddd498179a78a9d34a96b4a59
col27:   59495ca88b9c568387ad9abec8addb999d8cba8b6c96accbcf6cb6a99a89aa67e8cdcbb988196566
col28:   77596c6b9a9ba9598ac78cccde7cbaebded9ab99aec8b7cc859a7d8bbc89b66ad798987cc68a47ad
col29:   3a877b8b799ccb9e7faaa9fabe7d8cfaaccae6bdbeba7baf69b66dcbaabcdc89bb68b758bc9817c6
col30:   ab69dc799597888a89dd987daa7689cdfbb7aada9acabbd5abb68b88eead9788aaa88369c9999674
col31:   5ab877a998be99acdf98999aface9b9ffbea97bdebcbcef998ccdaacfdaabadcbab6eaa868b85878
col32:   6a947b98c78a95abab5e99dbd8acb8aa8ba7bd97aca99acb995c9dca7b8bd8b9adbc8b7acb543cd7
col33:   8a5ea88ab497e69eaac8ab9c8fabdbcbbfacbff6cbc98cb98bc89cb65ccdb7dbd88aaa867af6a658
col34:   bb68758b78b8a897debb95cecdbd7abecb8dbeaaccb8b9dddaa7c9667dac9bfada98cc9a7c4a8969
col35:   b8bb977a69ac87d7cd9b8e9dc8dbcbeef8adfb6dd878d9adaadddbe8e9fdacbcbb7b9b7a9c97c9d7
col36:   8aa698b2dbbc9abcdba9aa9cbbbb9acbebcbec97beececfdb9cbaacdfa99ec8cbead5f7bd636b69c
col37:   7988c89988e97aac9ef6aaeff97aac7adcf8cafeffaaedddbbb97dddbabbccd9aa89bb89b7b6b697
col38:   98bc9bd789c77dea7cdba69c58adacfddbe8aebceadb6ebddfb7acaacdfdcad8cd6b8bda8ca79d78
col39:   b885af699bba98ac98b78feb9c9dc6d8cddbfb7bcaebba8fc95cd989e69adcc97ba3de878cc95ea1
col40:   a59bba69ad5987f7baccbc9ec87fa96d79acabcdf9fdaacc7e9efc9cebbeaebbaab9dd8e9ca99ba3
col41:   99abaa4c9ac8a69a9d94ab7affd99edabfcbdfdffaeacbcbadebe5b9acdfdc9bbaca7acaa98bac7b
col42:   aa98a77849bb2afa9aecda8cdb8eaa6dd7bd9bfbbaebfb89bcbaacf89ddcaadaf8a887869c7ab668
col43:   dc99abdacad8aa4dacbddffeb9fdbdfcc8eeecfbaacbcdecaf8adbdddfcbd8adc8cbac99d5dc9ce8
col44:   898b6abda9a88cc67ccbd88c7ee8ac98fd9dacffdcaaeb6ebe8bffaa6adcbdadbb7cdb58c86999ac
col45:   797cca7cdbbbae9ed67ccdb7c9fbabe98b8b6fcaedf9adc9edbce9dad5ccca9a9db98a78baaab887
col46:   ca7d9797b9b98c9b9ecce99a9eedbc7ce9cb85ccbd9e9b9bfa97bccbcc6ddd6aeaecccdbba876986
col47:   9894aa692c8fabbdc9bac9cdedccdbdbbabfb8fbabcdcbee84bfdabbeabdbcaccdda7d7c7599cb75
col48:   ab78b7bc9b89b8cedefacdaccdec8dab8cced7cceaccbddfdbce9dbdcebdca7c8c8877a689acc8ce
col49:   d9abbcac7879cacb87c8c996f8dad9cdeda9bcbbeafbccace9ebacdaed7d99b989d5cfbac968d8a8
col50:   a989689ac9cc9cb9a8ccbcfdf99ddbecdbbbdabedbc9c9ccbfdc9cbafbba9bd999cbca8cf9999d76
col51:   9a9462bb8a6a86bba988c9869ba9bdabbbce78abdbcb6abda754ab7c9a9856bc5b89965964855859
ROC:	 BPix_BpO_SEC3_LYR4_LDR11F_MOD3_ROC10
col00:   4588556465a564577755199a8897ba9a7686589a2b9b697b184ba877aab75b8999363b84a8589b66
col01:   79586589ba159bbbc76868d78dcaab8cec489798d8c779caa5d849b93677958a9bac8c83a867c67a
col02:   84869bb936998a9bb8c9667a7a4ac55888a93999c79a5c9ab687ac964996a5acac749c746a97bc67
col03:   a5a64a9589379a65869749494987cd98bb8a599bab9acc487a6aaa79acceb6bca8b49665a88696d6
col04:   41619886c4a4853c89d46a679968dbcc5a76efaaa9aba9b66bac88dfaa77baaba46d5574a797bd96
col05:   5652656576348876387764a9497976799b66a6aa9999bd96b6973bd6bb69aa86a8a68a6969755b96
col06:   524873a75886a967d58789ca6b7a96989c7c6dc6b8c9a9d6ac9bb787a99b879a7b66d7bccb97d583
col07:   533d4593c9bb78c67688a9bd899be698dc7cc99b8b79ccc5d89759d97abc867798899b6775958576
col08:   34267568334476656e8b88abbb98a997acb7a7c66db6b8beb855b69719d8aa8c796a886795666699
col09:   66aa7897aa988778cb965b59aaadb7b996ac8a7a88bcab9bacaaaabaf5c77b8b23b986c3a9457962
col10:   4285aab249465f87796cedb8aacc7c8b6ca9ac57a86c87987dc7c7aa5ab698ebaa9a9a568754ac59
col11:   7374b75977672b86aa97db9bba7967aba9a88949aa876dd83985aab57cab9755849968858bc56c54
col12:   43a257548956474761379b6ea99caccdc97aa4a8cabe7bb5aa988999579e993f78766859c6aab9a6
col13:   62373a66679c3466d56b768d5bcdaab6bab8b8b8e769ba8585f985a785ac78bd878bb7999a93ba59
col14:   96654589b599669bc57aa86795c9ca6fc9bccd9855c997997e5688aa766877c3896a7da471766ba6
col15:   562a7947b66c9d599c8667c7daa8a879569796b9668bc8db72db8dbd6a6a97b78a798c64b49aa6a6
col16:   c871148785c69b6386c64bdcb8af7ba949868a889cba965898b6cc3aaaec6a56a7a78877957a885a
col17:   826656a48444a546676a7478996d88cdcc97b98895eaebbb8a9595a79bdb58f64797594385c35563
col18:   658175557a887887ba659798a7e5aaac697a9cab93b5686b595c9839978a9567664276486c99b994
col19:   36955d98555c8a9889999686c6b78a6ba5ab76c888aa96b796ac479b86b88965869d964938a37697
col20:   7543386399177a68987926978d6b98699bf57b6dc979a65c69b89d97fc8b5cb74a6c88b575689a95
col21:   563b483946859aa69c9396699d69849cb9b5b8dbd5f7988df9b866da5786969997b36886b7b99668
col22:   6755636b799675536287978f896b8ba9c55a94759a93b6b888899889885b75a977c38942b99abb9a
col23:   7646658999c79256a7cbceba6569a9a69bc8d8e989ebbc89a17aa2d8ba87487a9623767889288786
col24:   4a5336a6579869296695779696bb969977c5b988c5a96cab937a89c6869a9875b4aa5a477766a817
col25:   429a95958c786cac77d76a7d77aa8ab89987e38798bca87da7a85688998a9894a9b8b6e8b776878f
col26:   56759488a6d68a66f8d98dca7a9cbb9bc79cbeca9dd97288af799a4ec8da8a58a958c78b6d86ca97
col27:   466b485c9bb997aaa96bd94bf9bcc7dc7a898a96b79bacfbc858dcc9ba4bb8db85a696bc59a57593
col28:   9758ab7b7753bcae9b99bac4babfcbc7bbfbaaea998e9b7eaba66ac99bcbdca885aba55c7d96ba73
col29:   9a8aa86b865878dcabd8988cc6c98dccaceabcaabc9aabebaaa48bb88bcbc8abb99bec15896ba8c6
col30:   7a8a9ba9e6c89c683a9bbb793eaa9ae768ecda8abcada9a88c6ac98795fbb7a3789bc7cb76aa5c9a
col31:   86a756bda9888a89f8fbbdaeedf8f9b7babaadeaaabecabbdad9ba5dc9d88c57c8c8ac9989e999c9
col32:   88858bd5798ab9d799c87a89dc8dbadbbbcbac9babc77bbb9d88d7bb999bc9a6ab8bb7cec99a99ab
col33:   9c655aaa76ba8aa99cb9aa9ddb8ccabbaf5cac9caab8a87acafa78c6fd997a9cae577ed8e9948689
col34:   bc79bba9556a6a8889bbc898d6dbb7dbc9c88cdad8dbabebbbcadbba8b68accc999ba8c89c8bb8b6
col35:   97c8b8aaf9c895aa6ddcdcb8ca6c8ccfafada78bae97dab94779cdbc2c6fba96969e8b6b8d789a77
col36:   7659aacbcb6e959ccc97eb5d9ec89c679cebedbcccc788d7beaa8da69cbdaa9a789b949d6b7887a9
col37:   ab77a4aa5bd8afaacaad5dd79addedaddb7cb98b5dad886ca487c688a8b8e7bab8975d9698737b99
col38:   a82a699c9b67c536ca8cecb9bbdf8eaa99fdfc7fccbacbbd9abb968ab7c7da8f9b97b6a8ba9a9eb8
col39:   6bbab78c5ab3cbecb98989cb9acfebe8e899ecfecbb99dbabdd99c9b7e689c9ba999b87ac9ac9cc9
col40:   767a8986babcd5ba6ec8b9cb9bea87fbaacbcb9c8d9cadaeb8b58b8acbb88975f768a8e6fed7cc8a
col41:   a9a85c6967787d87caebcb8bb5aaaaedb888ba88bb9889dcaaf7aa9996a67cf8795796baa9678ab9
col42:   77567a7abdb99bcbd6d8aacbf9db7cd8baac9b67aab78899ca99d9b4a7e4e786a4aa99c88c9acc5a
col43:   7cca9b7578a99679b6acd9ebadcc8989a8c7be9b9bbfe7bdba6575a89baccbc9cab28a6ab5f48d88
col44:   597999baec4888aafaddf6ea9c7e6dccbadeefaaad99e8d9a4d9895aaa87fae9c8fcb8a6b3775ab8
col45:   a19aeb9a939c9cbc9adab9ca8fca899e9fd9e9d8aab99a87b9a59acfbac9b899d8bb5d668d697887
col46:   a8977a69be9cd7a6ab9ad6d97cbcfabce9d6be9b9aca9c7a39b7edc6c979ed9e79b8eb9bdb6ad9c6
col47:   978b8895b6688cad7cbaafcd27bba997ccada87affbda9cbb46ac9535588b7c686a978bc7bacbbc7
col48:   8ac7ba8c7b9498ac8798ca98ca98bba98ed8d8cbeb89b8a98d9daabbacb59aea9db98c9866a9bbb3
col49:   6b8ad989dfcb996acb868bc9dd687ce9b9bc97a8abab89aca9eacb96a887b9898a85589c9697db88
col50:   a8aa1c8288bb7b9e6bbaabc7acdc9daddcf898aa8ed7a97adee6df5a8cdbcb988e8b9ca7f8eab5aa
col51:   857266b72799767664b9b8983c9925849ac779cb79629849a656c77786947ab687747836a5967348
ROC:	 BPix_BpO_SEC3_LYR4_LDR11F_MOD3_ROC11
col00:   58858ca6b8a67469978aca799b2c58c8bc78b6a68656d8b86ca593887866687856b99886977bc485
col01:   58bd7b998575b6b864a8daae6cbbb7f7bcbc85b78bbea885d6bcc595a3789ccb98a799b9881bca69
col02:   cba6b8a6cca98879865adb8d7ccda6c9799b78ce8aa97db876987aaa956b6dca8875e99c67876863
col03:   6c7cba6ba5d67a85f89d8878ac41bacb7d8dd9a8ccc9b7dbb6cb99bca56e9bea66a478b9e95688b8
col04:   885a6b8d634398c7aa6b89aacabaa9b8968ab97ecbb6bbb96ab878c9a7cbaa679aaab879b8773984
col05:   669a7aa5aa94d96b97aa9bfa9aab96ba886d9c97ebcc9999667979cca898b8b448a6d5b6894b8565
col06:   4456b695a974b9b795aa96b9e777cabadba6c87bb8f9c9baa98a78b59c98ab78b48d1a9acb886ba7
col07:   9758699bcb28869dcc79a69977d49856a8c5a988da96878ef9bb758689a7c5c786876c58d85cd99c
col08:   855779a386749a895987ad779c9de6c79cb79adc6a754f99cba2c986c78da9cbd9875aca99c9a965
col09:   a764a48a1a5bbb84ca9b916a799ae89a89cd8cc7cadb6beccc98be8cd8979aa7da7772a5ccd7745a
col10:   385ba87b89cb877779f8859ab698c69aa3c47afa737a76a5aeabeaa79456aa8bbac2a9a948a7a9c5
col11:   4b5a95a22a798964989aba99d7386a9a4ba8f96ca889977697d8a9b5b878b2a57e895739877a8884
col12:   7d8dc969c969a73aa69a86a9bb986897b9988a8cb5279a9997a48788bb5c9967b56b757bc9b69a95
col13:   9795a7576dc659a96986baa5b8ac96696dc777cd8577b5ba9a67f898957aac76f871a6a97aa9a966
col14:   866aba556756a9bbb868a9c5b75be79d899b4ada79c788be67a97f8679a45ca7993ab9c5697915b7
col15:   3a4476d8f6675bbb7587997a8255a6ab7a7aab8b9ab7b999eb628dcd9cd6ddb73668c7797389bc98
col16:   bce4b4969a4685769c6d58a95c8bc6888e9dd6b9aa8393bbbb8669bbca76b4db599868a86abb65ac
col17:   769967a9c9aa63c3b5aa89467889d6bc9795959265accbcaa68a76aaa99588c9c4dbb69764745cf4
col18:   7963856ab67772a8a6762acaa77c88bc99786bc657758ab9d68b8da8ab8aa79ba679cb993c6798a6
col19:   8556719f56ca769787a5cab39aa4eac65cf8ac6bacd4c9a9c5cb8b8ba97c9963a6a98a668987a885
col20:   6889c6867c8697b65cd8c78997b46a986b79acb9995e69b6a89796c965a6759744997f6a2e9baa75
col21:   865ba179f3b8b97b8aba88b89b888cf884a7783a97baca7db98a5bab6a89c4776b9976beb8745466
col22:   7952a99765ba55a97bb93786c5889bd568c9bada988775f9889b868357aa67caf789877978a88654
col23:   9788a6897869787798984bf7895866b9b787aaa8d19b9ad8b9a59897a2887a7735a9996ba8c8ea6b
col24:   85a6776a7989c2949969b79d5b98835b859ac8795686ca89b7b87b8999595967787cb89d6889bc5d
col25:   879ac588878b569a4d89475ab5a9c9ca9a96aaa8a9ecac88978abfc9eba9b8397e8847997b799c97
col26:   63bbbeca88ceb7c6ca79ac97d888bbba75cdcc696e6dbcb88a9bc8b9eecdc68bea88bcaaaeab8ab8
col27:   9a15a5c6cbaa9aba99abddb9ae7a998bda8a67bc9ab957ebe9cac799b8c778bd998ccbb982c9add6
col28:   a5ba8ae7bab7bbac88968acd9bbeec97bdc5b7a7acd8abbcb9b79aa88687dbeac88baa9cdaaf9ecb
col29:   ac987ba4deb8969cab4aab8689e5efa77addbadc89a99c9ac59bbcea869c7cda8dccaace6d9ddbf9
col30:   c57abb55d57c9d8599eb998cabc966cafb9b8dcbab69ca898eacaabaeb895bba8a98cbbb94cddaaa
col31:   c4baaa8c6aeca96fa9b9b6aaadabdd6a98b8a6aabaa9aaabdfb8c7c9b9b9c878a87acbbcd4a9da3b
col32:   7cd9bc7897798ac88d9dcbca899c8abdb9bdda7f9cabebcbcbc998d9c8dbaa8b6acccaacd8bbabbc
col33:   ddaa78ee8aa9fbb79d9cbbb9bdfbab7ce9fb9696caea8c6b868ce8b8979eabb8b9ba9abbabadbbb4
col34:   9bc9797e799e8c89a4dbedaeba9a68ff9688efa9cbddd87b8acdbd8dbc9bead9de95966d9beeab89
col35:   7ac9c7f6cbecc787baccc88a9f9c9a9a99b9876ba6bbabca9fb8cdc9999abcba7cc9db76faa8a879
col36:   b8aea7a97678988ddbbb9ba78ebfb7bcece7cf8ca8bbcc8ddeafaabddefcec89aaceb9abe9f9adcc
col37:   da88a7abef6ea99bd7c9ece9ef7ebfabdccbae5fabfda4ae5a7efcaf96cb8b9ae6aeabad8d9abef9
col38:   8bacfd797beb8aaee94aac9ddeacccbcfcabdc89ac78b99bcf9fcbcccccafcfbeeabdaeddba6d786
col39:   888a98daaddc9d799aeafbddbbbbda9cacdabdccdb79a98bdc7af59dd8dcbdc8dbabb8cec9ba8b78
col40:   98cb8858eccb8b9aabab7adacbb8aaedbcaaebb8aa7ccb68bcdea898f9b9afedccda7a8bc7acd779
col41:   b8f95acaf7779c899ab7dd9cbb7eabfb7c6ba7ed98eefccccebbccdad968afb9d78e9dab89baca89
col42:   a7cb6bcb8b99be99b9efebcccdcf898baced5bb8cac9dd9dddb8ab7afbfafcdcacbaf8a8e9a9c9b1
col43:   37956b886aa89fcf9ac8c8ebc8868bdac7d7edb8aaf9a8abbcd98d9b9cdebdacceacd97baadebdad
col44:   a96aafe8f887ce8ecdfcbebee9bbf8fddaca96cba9dceb8ba97cabb958c7b8aafcbacca8ca9aaae9
col45:   c9bac9f79d8babb57ddcbbbcc98cba9aab9abcdceae8fb8bde99beacbc7e6bc9bfd8b8a8ebceeba7
col46:   c6d9ecb4ecde888ac96c89f7cdcbd9eacde7aedfecdbb8ebaaa8ccf8ccbf8c9abdb7a8d99afbccfb
col47:   ba97a76b887baddb87eddbcbf9cbe6c9bfcaa6cdc8bfacbcbeacdc7ffcdec7cfccdbe9e9dcba8dea
col48:   a56774adbc4b68d88dfb7ace7abbbfdfa6adb8efaadeceededadabdd799ebdd8addd8aa8bda7ec9d
col49:   9889bc9389adfaf97b7ccbcbfbff7cdbdfeeb9df99f7c7bfbfcebd7d9777abaeb9bb9ca97d8fc7bb
col50:   877bcdb9cda7b888d9c7cb9d9dcffd9ff899a8fcc8d9b9fbabfae9ae6ce79bdc8c9d5bdab7bd97cb
col51:   a8b66994826458796578b9a695aa6aaaca9b97a9b9d936fe7bb875cac76a8a798867c78a5eac9ca9
ROC:	 BPix_BpO_SEC3_LYR4_LDR11F_MOD3_ROC12
col00:   66582666a53b64564c478655887896a56598999c5aa9a652c6c5b8a8aaa8aa68ac8eb7a9acb99945
col01:   aa699a5c777979acb98c8d8bca886bbcbbac8cb9cb9bd69b9ab79a9db96ab7798d8abe686988ab72
col02:   a854a464a7a959787b7aa8aa6bca8a9a9988779bc99c9acbe79a9aba9999c8947a38637999587c46
col03:   88967b9797657d8793665b98acb7977ab77bb9b67ace6cb99dcb98cdae98b9daac97c5db877c8b86
col04:   758b88c768a79d8589a98baa6aa7abbd6cb9aadbabcbc99ba96d7998cca5b4c9ba959c98657665b7
col05:   79587a33768a4d997cc796c9789dcd87a6aeecafa89df889aead5aab988e9c8a9a76daa8baa8ba79
col06:   777a849b488b8a65b85b97aad88b85879d7f6d8ba7c77bbac8d78a8777ccba1b8c8d7979a58976b2
col07:   ac688a95bb5b51978dc68cc6b4988b9baf687acd86bfa966ca8aa886b89aa557f87a8aaa9c7a6769
col08:   a949977b777a66749a8859a5d998ac884b688da5c59d876b9aaa86cbb98bd5bca9acb65955886644
col09:   57a469667468ac989b6ca49ba988c6e8a88d9b98a9b99596ac9eb6ab799a986ca69bab9697a7979b
col10:   89b883a8979178787dc6d8c8c7d889bcbbac8ca6cb998cfe86bc9bc6dba9c989886a4b749478b894
col11:   5b758a599657c6b68a8669b8caa8a8c9b778c8cbaaeaacad98b7fdb7be7ebcb6bca6554877477896
col12:   567a98b66274586b8999a789d4a79a7cbab6cd99d799986a8cb88a7a8adaa9dba8b9c56466a48966
col13:   7aa58a87996a8875b99ac765a47bc6afba9eb9c4b878dda9ee868cb789debbca97699ac589ca6893
col14:   ac59328695878277caa87bff4a99a8caaf96cdca8caabe7ab8ae99a988a998a5cabac57a86978876
col15:   7539a39995746ca66b98baac69cda997a7abbd96ae4efc7b6e666f6b9bd7e9c998c997a887454a96
col16:   4495b9187363d899777a987ce77b69cb989c9cdaccf6ca7baaa95abd776cf966778eabe97b748b66
col17:   7a864979474855a8955359da95bc4696dda8c99dc7c98df3ddaaaac96998de3ace4986374aa9a528
col18:   6578385558349c8669865c5ca877949cc857dc9d786eb99eaad99cb78a59ca9cc789bc556934a373
col19:   16568a94b5267876877a86ac89bb99689aed88acabeedc79bbbcaf7ddb99ba88cb87b8a657559755
col20:   566875623713a671d6a666977a75db8897994bb8cd76aba8899cfc698b63b879cab6749a67686892
col21:   47678977c83777b76685936fd1a79ccc9a3da99d99a9afb8bba7bffbc8dc87c9998a7b85759d8926
col22:   a517959687149ea7686f99c8977a96abc9b99689de6ecbd86daad588b97885c68bc8a8795668b762
col23:   7a5444bd68657c86a48d9b756769b9baab57ad7dcc99c89b79c976b8688bab7c9a5c986a8645a543
col24:   546568697a875697a4aca89b7b987c88b988d6bb6bc8866a9dab8bc999968779a7c8367faaa77497
col25:   8455172698876387958ab979aa777bbc58e9cbac99ab8bb86a99da79a9a8985a978996888d158764
col26:   7445687875659d96c9c98c83b99dbedcbab9ac8afccc9c978daedabca7fbdbac9b79aa66a8a5c7a6
col27:   6a969397687b69667b9a8acbd8cbeacabdf7dbcdfa989dbc8c8b9bcdbc9a77e8a989de83aa889b98
col28:   995966a9c9a9b9d794cab99989bb7ceab9ebeecfb9b8ebbb89afcc9bcacac7a997cbb88c98e87a78
col29:   66a56575a9585275abaa7988e878babc69bcdd9bc8aeefd7bdabbcdc97cc99a7d56b79a88b8a79a4
col30:   64b699958a875ab747ba5b9ea95eacb99bbccdbba7a9fd8bdacec9aca8b99abeb97ba89c63aa7a8a
col31:   9888ad7a49cea7ab86a8c7d9979aaaba9d9a888b97cae8fb8bc8edaa9baff9d9ddc878c99ebb9ac6
col32:   776c9a16b5c6a3b7976a789fb99c8a79cbc6da9b8ed9cd8ddaeabaafbd6abedcbebb5c9e7f9988ba
col33:   555ac677a55c9acbbcac8d7cc9c9caacdc8bc9ddfbbcecccccfffaacddbb7aacfc7ba789bada8d59
col34:   875d678bb94944fc9eabbedebdae9e76ffa8dabcbccbbcdaa6dadceb9b68ce99ca9b7bb97aaba978
col35:   cc354ba999a87aac8ace98cbdacbcbbc7fcb9d9bdb8badadcaccced9cc9da9cdaee9dca9acd7b98b
col36:   a8b7a2773bba96ac9a5a9ab8bdd8b9dab9ccfecddbcbeeabbbcdaebecfc8d96cc9bcbc9abdc86b66
col37:   6a68a7477cbc458baaaa985fcf7c9bcddfbc9cedbdb9cedebedecdce8ea9caaadebbd89adda9b96a
col38:   78aa889dab89c86cb6cd8eed7cecdc9aabc9c9c9eccdcccefffdeabcbbbec9bdca99c9ba8babad98
col39:   a339e867a668799a9aaadcf9caccdadaf7aa7faaddbba6b9fa8beecdcd9ae9db66ebdac99c9b9cbb
col40:   9cd98c8a9978bd9ba8b9989cb8b9cdbbbacfaaabaccdabc9cfbcbbfdfceab8c9cbfdcacb8bab54aa
col41:   48576a9987669e5a58a59fccdfc9aacdfecc8bbafc85db977bceea8d9daeaca7dc98adcae8daabc8
col42:   876978389b9879dcbd66bac8985ab9bbfab68aeacbcbdfbca6db9acebad7cdcbcaa99ab9cad7875e
col43:   545476e8d49989c9c8576bcaaba9bc5d9dbf9bf9cbc9dcabcecabdcbb9cd799db68ca9afccbd9657
col44:   935ad8e9a674987abaad789dabc8b9bdb9f7bc7eebfedafcbc8ecc9ccdccbb9da8bcbbbcad8e479a
col45:   a683a786896e6899aa7ba8dbdba9afcd6cccc8cdabbebfddbbcbdd9cc9dccdebfcbc8fcc6c9ca8a4
col46:   4a872c759a849d7787dbc89ccbaca7bc9bb6dd59a9bbccdffbcb9c99d9b769cdcac88aaebaab959a
col47:   839a76785aaca6d98998c9cb9dbbdbaaacc9dce9bcdab99bcdaea97b8ccfecacfb89b7cb8ab88669
col48:   354484b9969973b9886ad9bbaac9cb6d8de6abbcecfbdbcaa89cdccdcbcab89bcdb7a89a885a7a88
col49:   6a33788bbba397b99998c5a7a98a67bdaaabd99baeaded99f8aba6d7bd9caa68abeb8c8bf59a64aa
col50:   8962a587c6799ca7acaacc9ab9baba89dabda88878aacbbbda8cb9cbbe7eb96aa6a89aafb9fb8bb7
col51:   25583585556967944a69e94c95759b7daa68a8d6ba7a78a996d5b8acab7763daab766875757176c7
ROC:	 BPix_BpO_SEC3_LYR4_LDR11F_MOD3_ROC13
col00:   8848626787886785aa915886cb5919c57ab8989899b48d98bb7484a9884c96bc89a98a7666a8d975
col01:   9878789c77972754873b8eac6c9acaa89ac7b88cb779878886c89aa9f9a9a59ab6476a568bbaea56
col02:   743374786995917c77475e9697a9b98dbb6b5b8a7979798896bc99af78a88579e8a66a87b95bd7ac
col03:   794899e37969741749a6b8977664a78689a8daa69a399a6997559bc8b3c9b9db799a57bb9babc3ab
col04:   5c775a78686aa68b9779a9b6bb999b6aabaa88b9ccfc65bbc996c77a789ac68aa97f85c6ba6ddb98
col05:   5633b664437586c7a4597f8bada77b8d997ca872c87afba96aae58aae8cad8589b7899a668878aa5
col06:   8476b58996d151c77d1a648aa8696a799a7cdcd9aa728cf3aa8baa8b9f859bf8ab786989ac5b75b4
col07:   a7235a767448569864a7b6968b9a996abbda6ecb4a697bb88bb9a599cd6a86cc643789d6acc67796
col08:   73369863777557c65a8487a9c9a7ab679476558168a9c7b4cba74bba87a89b99794878794aac6c99
col09:   74a68649ca9a89e5a9898be6589ba8c888c8a8d898d7acce9da58785a5baa6da7dc79d67aa89d776
col10:   8756c8a59ba885649895aa84b899d89a49dcb87ac5cd885adde68dec5a8b88cbb68ae989789db595
col11:   58b856956698898aaa786287bb6ab7c99baa697a9dacdc9c964457c6cdc5aab947bba53845866891
col12:   797c7d769b7a36688b8653aa868b8995b6bbab7a8ca7e868a69999967a979cc8a9abbaa5f88789a8
col13:   66b3a344a6aab966769488bea887aa8a888d8b9f58898a8c865be88a88adc899ea7864aa8bc9c459
col14:   579877d8668823c6849947b25786c97ea5ad588a99aeda4b88a776aa75ab8b7b6448c74a9b569e74
col15:   7ba899ba7aa88698337788b798d99c877b6aa6acbdbc6b9c9a7a7ad8896b98a687b57ca7665853d6
col16:   7a4786736a5b5a6443b9a899becba7c7d8ca7b48d99ab96b8bc8ac76ad9ba6ca7887ac83799486e6
col17:   797a545c968666a5663cb789a7775b6a28dabebfd5c1ab94eafc689894db398ca98e879e27c99676
col18:   768436b36983a98a68578974678a6ac8c877ba7767db85886976a77aa77dba8b7b886aba6bc8c496
col19:   6a86979a6c3577679467b9a97a4aa88b77aad95baa8ba8ac76d9c88e78bcbe6a67673bb58a9bb6a7
col20:   a33776b994a4a88a7656c9669baa9a9c868e49ba8a7a9a8caacaabc7dc5cd76a79956aa5764388a5
col21:   49765578b78b582493a67ba8a9cfb998b886ba9dc8ca459cabac99aadbdd88599ac7c86d797ada96
col22:   ac8a5345a9965a867866a85a98aaaab79798da98aa4bbbba9ceb97ad9a8a7cd6ca47788ab69a9ae3
col23:   6162868a964795869a44399a937aa56d8d9ccfc599a5b9966a99bbc6b85b99d89987c6aa9c9368a5
col24:   a47569b24a8177c86949eb9665bacd998aaacac9aa984958b96b69ba787abbd7777988994d959578
col25:   6766587b8f85697aaaca8b8b7bb977dabacb98c8aa6976489778d6a4b999be996b9fb99aaad89674
col26:   2968259ba85ac89aa8b677aa9ddfdfaad88f69a96acba9ccdab9a98b869c8e97dcc7a996bcabbbf8
col27:   b58b87a8b8749c97aaa84dfa9bdeda97cc957babfdd4dcbe9bb89c9898cc8878c99bd9ab95c798c6
col28:   767ab9d87baa97899bcbc9deac8da8eaaae7aab8e86a7a8efbcaeb9e89ca9cbdbc79948ae9d96b87
col29:   97885f7ad8ac8a9c69b7fbd799cd9cdaf9dad99d9d99daec7bb8ff59bbdba8b89f8b5cd97bf998a5
col30:   966ca7c9a9b998ab9ecaacb9a8e999cac7caacafcaa9db8c9fda9ba99b9ad85659b68bb987b988bc
col31:   99d75d87d8a89889679bca5bb9acbfaabbecbdaa9bffb99979acdebab9679bdbdca97bb977d9f9c8
col32:   b998869d8caa8aaf7acaa8acd88deb8b99c8dcd6eedd69c8acabbb99babbab8bb99bec6cd76abbdc
col33:   7a9cb2a74facc66a87c6ab79f8a9ef7afbbfac7efa99bdddbc8fcacb8b6ba6e7ccb8c99bdb7caa86
col34:   99a77fca8c7a67abd8accbb888b9ee98ee6cf9eabcb97dfd7b9c8aca6dff7cbdcab4eaf97989aba8
col35:   6865dafab98599ae79aaabaaece9bdab6addcdaddb8cb6cdf89cfdcdcadfbfcbfbd9a8c89d87fa4a
col36:   dcce98c9889a88acaab98cdbdaaaadb6a8dc899acbda76fceecaa6daabbc3eabff9aceb7d878cd8d
col37:   66b6b9d879dce9bbbba89d9cca789acab8cf9cbe9fca7ffcecadaaccfdaeb7cbdbcba6acbbc98bc9
col38:   6aab8888b9ccc8cbce88fcb7dfdfaa8ca9d6cda9abdb9a9acdcce9dd8bcacbecacebd8c8cba97889
col39:   c656c9a87cb8d79dfacc66baa9fcee9ccffd78cfbabf7cbebbdbbae9caaccccbbdbc9a9dd74b7e8a
col40:   bbba7b5a7ab68a7cc98dbae67bcfcacd9faa8eed9a89defcdebb8fa89d7fc8b9e8bde67bbdc89a9a
col41:   85a8a98b4a8cbf69daacecaa8db9bd6cb8db7cadbcccbfdfcdeacf56dbbbabfbeeba9caaeea8d9fc
col42:   775699dca88999acca8c9f8a9b7ddedfadbccfccaaceccdcc9ada9fccbaac8f9ab9dcbaa99b88b6b
col43:   b894cc6c676a8bc8beccaaafbc9becacbacc9ecbbdcd8cea7dd7ada8b7cfaadbbbd9d9aa989b9eac
col44:   c6c6b968bb9bb9a7b4aff9ab7fccca9ca9ecddbdbabc8fbacfbd97fd8dfccec8bb9fbeab7ac9a966
col45:   846ca769ac66d6e9a6eacae9acf8ba8aadfcdfc7b7a4cb9dc76bdbebddcbbbcbaebc7f89abfe8998
col46:   85887acaaa9886b9b9ac9bea7affdbecbcbad99899ccfac9c9c7cba8daadfcc9abc9baa7bb4add98
col47:   988ad6a8a77fcf9dbd9ab7accacbd9fb9ceffcbefdfbbbdbaccc6c98877acfeac78cab79877dbbbd
col48:   a68aa9cad8eb98dfdb9a9ac9afa9cebaaaccbecade8ce99afab7cc9ba899aead9cfac96c3b97bae9
col49:   88a6d98c9994557cbad47cfaabb7d99c98c8dd9c956768d3eaebea9ef9bea86a6cb9cc8a89bcdbae
col50:   b9889c8a7c8acd98b6c8b6ebb99a58ab79cbc99ad7ad8f9dabdb88cfcb97ed8abfb9a7cea9aaada2
col51:   6a79884988644b6868e757e5c789a2755bb9d455188aca8997658cb49427ac4787769ac5c878b799
ROC:	 BPix_BpO_SEC3_LYR4_LDR11F_MOD3_ROC14
col00:   21378253678414846777363547179a6738967462988ab93d665698296c896a337959763b63848587
col01:   85327848894672495669b7a536c889bb87769998aa863789a36ba888a4876aa8968889665776b838
col02:   b5777669787b8a93896a675697b599766cba57989839d8c79ad76ba899eb995886447bd64884aaa6
col03:   5143a58674c94568748536689681c984aab9ab5645ada95879a4c579523aa8876688946a82827972
col04:   9584466f3a777789a58788768857b759587c5c5a9a87c85457b7a85a97568897894c83978a7b8c96
col05:   511347b28a7595987a884996c5697bbab556856785de8a98698b999ca87945b6667b696b8a855787
col06:   9985b597687544766777b848ba8b6c7ac76bc6a7abad9944a5a82899b89788983668a7777a78861b
col07:   65939677a74b878b58a98f796988d8367a8c8666858abb7a645bb8d69c9caa549a69985c9b7897a7
col08:   6681845366bd7c6599b7884a79bbbb979887cca9465953d7a8c9a9b97a998a8a6ba9749c9a553898
col09:   11234579c97ab765aea67566599778d9ca686b89b939ac5188a8cc99bb7488a578b98ab46969577b
col10:   5867958a3997489aa8c9a4a893b69899a39a8c9798a67ba9b386b7ba8b88468868c357a65a958744
col11:   5837967574984646815a8aba5599988889bb9c96a586d57779679ab9ceb9a9a894bb31c7a688da9e
col12:   7467866617ba7568565ac5bdb6b498978697a78c7b44a76ca629caa774a859a5e7a9987899b3c89a
col13:   a7495996269a9a78933cc7899597d5695887b899aa6aba9868766779c8fc429aa7ba9ac876a6adba
col14:   466967a5bf5c87a59a56b897aa879ad6686b7e4c97aaa8898cca7a896a3a88b9979898a696b55a9b
col15:   4519676a5d8b95597a797cb7a7db9d7a6798b82a9aaa8a57ab646ab6d5698797d4789596b675694a
col16:   5786767759867645b98bb98b677485996ba9b9686b777b88b6586699896db959a98b987689899d5c
col17:   16567975748858667b6aa43c55599b89a85dd8e8aac979976a788754a488556478adaccc74b5a5b7
col18:   544547b7967579a749288cc5db6e9ae69ccbaa9dbba68c6aa878988a699bc8797777a5b678b66469
col19:   b188888b8d9a986b99884b98868a898bb9b7ab9b97b69de78c97ba889a6d8ba9d79b9d8aab9878d7
col20:   784a5845c549877aa567b699dbb6a74ac6ac8bc8aa77aac5665abcbd97b7897b6a9d89b88ca8a866
col21:   6474976898147876597a6967889ab9795887b5a5a69d8c976cad66b79988ab98b79ec6ca94a255f3
col22:   874246a7c57847a177cbda6589c9979969cb4caa687b5ea98679987c6298745bb97eecb9b8d7d69b
col23:   381579365787485689958498689a8dc99bb8694288717a997adc76bac8c8c95e9a348aa78b69b965
col24:   96287a9654676a8677bc6c889aba88b8869bcbdc558bd68866969a4a687b878c98d7a88aaf869a9c
col25:   4455852e96acb14997739797a44477c6e697b68b9aaccce7debbc976ba8ac95aba5b8da47688bae2
col26:   a8536c9769ba8aab6999ea78ab8d9c5fbadaa9e8baa99efba7aaa9979b7c8b6cc8bdc9dca9b6e9bc
col27:   88799a697443a8ca7767ad8679b6a9dab897a4b3baa7b7b57ab8746587ba9bba899a96a77bba9a59
col28:   74875a97b8948bccd66bddaea7c7bea9aeacd9b6bcfba5958b78d8ba7b9ad9becdd9b6c6eb79bcad
col29:   5b7a4798bc77aacb859da9d6a87caa9a977c9efaccaa6aaadcebb8e88a98ca99cb89ceba8dacb9aa
col30:   997989eb859a858b9db5facc7ba8acc78bc98d87ad7abeb69aac8cca9c9a9bfc69ccd7b599adab9b
col31:   a948e6989cd69bbdbc8bdab8cbb9fc98b8ec8898ae9caf987acad7adbbf7a89aa88aa9cc7b6dc7c9
col32:   386eeaaaad8cab7bbcfacbfbb85e7b9c9a9beabcdba9fabfca9bedcee89bdeccdd79f7f9cbdacacb
col33:   a8a1a788dc686a9788b89b7aaeccbabbded99d9f8c7ceccbf8c9db9faab9caababa9da99bcda9797
col34:   9ab89bcbccb8999ec9b9bcbcbdbadcc8cbabd99a9ccadfbb9bd8c9bbbade89cbcafacaddbcabade6
col35:   7814bcbdbcb9a88b689edbab6cacddffa9eebaecc98d5aa7c9c9d5a7acd7dbdd7aadbbba9cba8cbe
col36:   da99b7b9aaa998caab7cd888dbcdd9dda89cbbbc7d9cedc8d87bebb8cfb8f87d86bede87e89cc9e8
col37:   887b978a9db8bb9cf9addfcaeafbbcc8bebdeaccaef9ae88adc9fab9ba99cec8c7ccb876cdbccdcb
col38:   9babadfc9daaa8dbc57b9ecb9cfbedfc9daeaacaf9b96bac9bfacab9cbbfdbc9b9acd8c99db98bab
col39:   b7aa699c889ba9dd789ad9ccdb98ad8d5cea7dde9cbcdbc9abadac97abc9c9ddbaf8cbaddaafccdc
col40:   9655a98e8869a9a9ee8fdbba8dcddccfb9addeda9bfac7fc99cefdcfb9ce9db8babaeadfad8f9bd8
col41:   87b9786ead739bcb8addccafacdbbcc9ebddb9eacd89ceabedbc9bbdc8ea9ce99beb8fbbba7b98cb
col42:   c9caee6dc85978ebdbcbbab9d8a9fdea9bfc7f998cee9cbecddb99a9bfca8dabeddfcacde98ccfed
col43:   b849e9ca977b7bbbaaabbdfda9ef8adecfcacfdbabdfd9cc7ffcecbdfccfcdefdbadf9cc6a8abbb9
col44:   a5db5ebac9fd7ccab7addeafbbabbec9defbb9daf7feedf9bdf8f9bddcd8bfccdecfcefbf9caeced
col45:   5a78ba7caac98beba9adbbae6a8cdccecf7c9ccfacf9dfbcd9bcececd99edb9dbceebfbbcaada6be
col46:   db859bc98c6b8acba9aa9fda9ededccfcfddcabfbbdcfbfbddebbb9b9adcbda9ecddecfa7d9cf9ee
col47:   caba9b59a9aafbaaa9cca9ac9afcaedebbbfbd7eabebdbdecfadeeddeafca8aefdcbd9cedbafaff7
col48:   6c99dbac9baedbaafbdffc8cf8ddeee7cd7fffdcd8abfaacbfeccabdbeb98a8a8fa9c6cfd97df9ee
col49:   7896afbcc847a7dccdceaaabfcb7ebeeb7ccf9dbeabbdddafeec98ddcdc9bdaece7eddcaedadddeb
col50:   add7dc9baaedbedb79ccabbcabef7eabbcdc999ffbcab9eefcdeeffbddb8a9bcdcfacbf68dedf9ca
col51:   7c979896467aa4cbb8ac8ba698bec6fa888ab8dcdb8caca87a89adaf8d56b9badc9abbca7758b9cc
ROC:	 BPix_BpO_SEC3_LYR4_LDR11F_MOD3_ROC15
col00:   7686a48667b7929418477973a673788475155a83453312848454837568627456b262355234562583
col01:   76b7658a55746b964569676a7a9a94857778a5688b99887688569485457b52972929835616565741
col02:   6275c3789828a94256647858b76578a887752587c6778286147885998b5938438632735466586b89
col03:   485757866235755195c79d78a998a7888596886bc788899c8784474aa675a77656a5464469648688
col04:   47567569844887758964c775a999957458b874a384947b8a58985a874643877357a675a593596532
col05:   934596b787975754a67456a999868ab96733b478a6879667d849894b9b68b678a663978a75317766
col06:   9558a8887b849875897788478c985699a89669845775aa4d96a65678658688684559476574285a69
col07:   92666596c99a9795796a98575a688898a658a768577b8957879e7459978a798168756865974a9c54
col08:   8484c7a579845692738b657758ba48494b79777a7578848b51768784557678b851555585885347a4
col09:   74d985821a88847a678a6b87ba8447a89b9a897996c87687748954484887873877cb7639847368a5
col10:   aa858459858677687596a8a8a76b67aba77b8b788a946759294b36567598779a95986c5549983567
col11:   43265553c4a5548a488a93875b5baa9897a57984575978968579a766a676534572b935eb45666962
col12:   7656757788773487798a7988cba779a64aca986477b8d58a38b8924597a66c96c56677597795b787
col13:   636868aa676399a6c8a989687497565ab4786ab9a77967d49cc62887d3abc946966e87a698761b75
col14:   67474677a77a687a97a5a8877748b37835e796a47538b78aa677a66b768b9985ab6a7a773d374783
col15:   5478878aa488736578acaa6d768ba8a9685866897c6487879596d97a469a54956367a79b54b856a8
col16:   6a53719779787285a976a7988b388a5687c97c99382a866792a79379997568a45688574288584548
col17:   7778878686b276b999a75a7a7b5987896a679b996964958659b8b68797987c85763788b667714276
col18:   b97a9b98b56b9988a697c98b8974bb8ac69878b76347a88a88665b86688967a8584a996a83786144
col19:   35969b55a886aaa8664c9b789968a667ae9eaaa96baa687a9aba989595593784d859a9586b577775
col20:   48955876ac954798489a6c8887a6888d38ada688576a764a67958778a86429979467769265766487
col21:   96886979995676887967bab4aa899878758aa38bc789b988a674668659a8c8b9b999745548587419
col22:   b64678ab96a87799a69987a8a647b87888766bbbb4b8a71a86a73768565ab84a9aa8b89467685344
col23:   7b794767b978a5658b978998cc6a7a886b56c8a8c9358ad899a3977753888737c6996463697387b5
col24:   89699a8a66388866a49a8779c899b997a88685aa696a4988a4675c5d92261666778764785891a5ac
col25:   9a58459c784aaaa48a6ac99989ccb8b9cb7587ab977898b7879979a969b7d88b584a1888a8a62c66
col26:   886a7c9eae99bc8ccc9abf97569c9a8b997e956abc8a85b9cca9d95239a79496d38aaa768a78ba92
col27:   ca787bb6aa4783aabcc897ccc7a996c9dbaaa9b9897688c6b9a8968a87a8a8b96a7a7aa76baad5ba
col28:   7b78bb7abaabfa5accba9bacacb78bbaabaca98dfb9ca8da98688899cbca8a7a8a9396bbc5b94546
col29:   b5b7976bb79788e779b7c86a689bbbbba8ab77d3bac6c5a76c79d8ba8a8b98b6a659a9b6a77899a9
col30:   85a856978a8acbaa8ab96d7bb9cabb985a9cc8979ebc88bac9ac7697c867a9a687b65a7ac7a9c888
col31:   8775b87bba6ba896d6cca9aa9a899bc9dacc989b5b98ca8babc99b9b8c8aaa9968e5999aa9698899
col32:   a952a99c995a89b5987bcb7bccbc9ccc9dbcbb9a79dbd7c889b79ac8a9a8775a6b6865a987c546a6
col33:   79ada9b88b7899dabbb8daa97a68aadbebc9ebb9da996a89ad9bca8896c57aab6b997ec9b88a9b7a
col34:   c6a7a9869a9a7ca87bd99a9b7b78b8cdbebbdb899a79ac999c5ba9b6aab98a6cb68a885995ba7688
col35:   b6cabaa6db9e48987ecb9bcd8889da9aa8cec9989b8a89aaaaad6bd4a7ca9dbd8c67a7a978957a98
col36:   bd7c89aaab8aa9ca9b9d898a9bbaa8b8999a7cdca6dad8cd9a9aa8acea8bb7aa89a955687abaa947
col37:   ac9a9cba888bdb89caccbd7cb99baaa8a9bb9aabbbe799ceccd68aa8ab98ab9976689a9898ba9876
col38:   9aaba8e9aa7964cba7dab7ebdadccbeb87cccb6d8bc9caf8eac7adaa697b976ab66b898b65c75874
col39:   c79bbbeb7bda8db8eba99ab8c67a76ab9dbbbdcae9bbac997b7d889c765ba7c85a6aabaa9acad68a
col40:   daed8bbdacabbb9bab98cfddafbaaeab7bcca99cdfabdc7d9fab9ad7e69b8d8b99d78ac7b9b87495
col41:   9c996acbcada89997ea8bcfcccb9d9cccddb9addb769b7f9b7dd8db4dd8ecaa87897b798777985a4
col42:   a8ab97c98ca9e8aff9baca6b7a7b8abbaabadb9fcddeb76bba8ba7e8a69d9ad8bcc96b98769a99c7
col43:   9bb976eebaa85a9cbcb9fdbadc8e98d7babded9699aad978ae98f687786cacc768c6a8c4787a9ba9
col44:   cabc88b9bbb87abb8fa97b686ac8c98aabaa7eab9aabc89ada67ab78cc9bbbbddca7aa996778a937
col45:   a88abe8abbc89dd6cbadaa9b7babc7cbacaac9dbd6dfd97ab6ab9bcb89f78c7b9a9c57e8b799cc48
col46:   895c99ff879ab797c8b8ccbdca6c9cadb9adac95a7b968ca9da8d7a688ba7bb88b7db8a9857487da
col47:   88dabeb7a898ae7a6c8a9d7a9ccababd8bbc9aa9ac9aacbce8a88dca8a77cc96aefcaa96bc687b48
col48:   a8eb988edbbbac69be95dab8a8d998a9c8eaccbcbc8a9aa797a87bdbbabaabbb9aad79aa99a79aca
col49:   5bdad87ab98a58b67db9d8bdeb9daaa8b88c9bcac7ccab8bbb8cac988ef898cbd969c8bb9a9ab8b5
col50:   8987bbbaacbcccb9abcdcab7b6aac8dcabbbc9bd9da89beba8a9cbd598c7ab997dcaa99f997ac886
col51:   96d96a878695a88999b949859aa7849ca7d9e68ea5a6a4a98769c4976abc84a978887888849a4974
