ROC:     BPix_BpI_SEC4_LYR4_LDR16F_MOD1_ROC0
col00:   386A7437644673484566997855B784567857579329654696535815431A7743726538255825545894
col01:   8A5A89685587934AB976BCB759A9256783666A8B896984483138D576964AC4458992478878199456
col02:   5787897889277956B597446457473666AD9B958784563A66C3789446745B76838675574383486854
col03:   A5826167769648C47735998834A68A768897798888A668489A49657664A1996A65C558B7A8959652
col04:   72A274767987744A69663789856794972AA6943765954369A8A953B483565616A6737C947971745A
col05:   A839A64658789653854CA7C7566875649A6C6AA84B8893324966775A6B414B739852888879545694
col06:   A3787999716686A895944886B44286A899757766498276774248776955787874848614937673B746
col07:   47988447847496564BD98A1488B7B87988889689A79B789A9CAB8A6C74A7A6947746759D69458669
col08:   4996959A9265976A86959764888887AA6A95A8387A768586B969665851564899B7696B98A1565766
col09:   867356997A3467D7AA376869577547566AD68959A64C87B98B5B865A84868778B568489998A58938
col10:   48563A8644A58576A986B87769C98973778657A6AA99999977AB8888D6C846466796977794688968
col11:   AB94A764678338B8A855998466B8767878888B5958539A95A8248A88CA786BC78C9AA7E857349A36
col12:   7758A59C94875498278A65929AA84B9C89AA797788966637CA53C87879BA423457A6B675195934A7
col13:   418A75CB8467B7778367774B83889B7698AD8AB9498B7A798A8E959496A8B96B8B8A78A8AD68BBA8
col14:   44753A7B9A68765897A5987499AAA78986A98786A7E9879879768788AB968B988AC98B653697A569
col15:   A45889773BB3778A81887597A9A8974AB598696BA9B754A866C6B75BB8A5869985798C69A89766A5
col16:   94595853AAA6D686A7697EA9AA9387C5BAADC989755758A9986849E9A66AC687979677877287B9D8
col17:   4655724996567955A89887897737775C69A9E9AAB9A784A9CA8698A7839586A97589B469857B9558
col18:   9749B375785C8365A5A6A6949A8AAB8887A874AAD5768DA8AA9BC5AA5C949AA7B776DAC7A8C96983
col19:   56856A7669A7AC89599ABC8B3C89978929CBCB866A77B79AB9A85887BA968A96B56B7683D868BB59
col20:   8258847A775A5548DC886565BC8AA8779597B9B589A98CB5469B8D99A8EAA89886BB95948D577565
col21:   37BBBD6645943874A82A4889435789CA8CA8A795A8955A894D3D777D8AB689A697758579C7847C34
col22:   41778454A74899787689B897AABA9A84BCBBA74896A568AA95A7566878A396BAC8988798749A6785
col23:   67585A254577473775254765B3A7A797978BAC26BCA879D758786B97CAAA968CB739948978B95663
col24:   75776997A88798198567A9D7A899997D79B95A998B7BCB6B6DCA878999AAA5867978F96549379BA7
col25:   A55987536974965AA45C86ABA2B86C8975DB9BC6C97AB779A796AB89A5B7C958A7896AAD888899A5
col26:   7889B65A96BA6679A6B562A9B8BAAAAC986A5CC9DCCA65CC4AA9CB59CED6AC867B3ACCC9BFE97C7A
col27:   8A3796997BA996987A89CBAA887868A79CCAA77DC88CAABABA78A7B79C9ADADCACBB87C779B8A899
col28:   B8759697A68968DA55CBA9ACA9ABB87AB8AD9A8A6BB9D69799E7DAB8CECDB8E6C9ABBC9699ABCA6A
col29:   8654B95756B498AC6963D7989DA6A9BAC99BACBB5ADB9BBBD79A47BDCBB9A9BBC98D78D87F8DCCA8
col30:   576676BBB6999CC79DA97DAC6EB4AD8ABB96AABDB76BB9BD7A96A799C779CA88C7DCECB5ACA7DDC8
col31:   92A934599C899E88A697BEC9C778ACEE9C8B9D899ABCBA89AC7A9BE5DCA9DCBAACD8C7CB999BF9CC
col32:   96BA6B58C86489988AB7ABB9EB6AAB8A8BBBA66BBACEADBACAEEAED799D98CA7BBAD6BA8A8DA38BD
col33:   7B6A879A95A8AABC669797BD78A987B688CC9A8CC7CAFB9CA87B9BA88A7CF8ABACACA99BBABAAABD
col34:   B98A77787B76BAB9A9AB6B899FCBD8EAEFAAC9689BB9CC999BC9DADB979BBBB8C7EB8CBABFDCE9FB
col35:   A799A6A39978B96CD8BBF99D7EA5EE8BBB6F678AACB799CAABC9DDAABECEBB8DECBE7CBEFBDB7ACB
col36:   827E8287A6ABBA798AA969B9AECDBACB4A89DADAA688ACACDFAD9B7DBB88AD9AB9F9CB59CCC8BB9A
col37:   68BABC4694489B999BF99BB9B8899DA8EBBCFAD687A9BB6CBBB9EFDACF478FCBE89BDBBCC889EBC6
col38:   688B66BA6C799B6C89CF988CEB9EB6C9FCB9DDACDBE8ABC78EBBCABACCBABE99CCA8BB999ECCBC7B
col39:   9694588B877737B987CA89BA9BA9B67A8DD8B9D996DC8DBAC8ADACBAFBAD9AD7AECBABA9AFCBC878
col40:   7956674696997A9B99D7B88A9B8AA8DCBB8BE9B989DAB6CEBAFEFA8BADCCABCACBB9AAD9E9ABBCFD
col41:   757979788C648B88A5BDBBAB8BB9B79EAB9CAEBAEEAD9BCACBB8FC97ABCD9DB7CFCBCBA9AAF8C9AC
col42:   69A66599877E8A9D999B8EC87E98ACAFBDBBCBBB9CCECAD8FBF9BACDBACA98ACABBC8AAECDCCABCB
col43:   778783A79BADCCC99CA7C7ABE996CCDEDBAFE9FBCBCABC9D9B8AACCCA9EFA9DC9AACDCFBBDECDDBA
col44:   86B9A548AB788C969CBAC9A9EC5B869BDCB8ABECC9BADCAFBB5DCBAA9FCACA9EBBDDABCCB7ACFBCD
col45:   67B487968B78CED8DB8BA8A96BEFD9BB8ABDCCEBFDCBDDCC8ECABDABDAAAB987B9BB6B7F9A9ABB9B
col46:   C688995788CBAB6995CCAB6B8DA97DCBA6BEAFAAEBEC9D9ADCD99ABCCBEFAACEDA9DECD9CDCBCAAF
col47:   888B88A9AE78AC8898DCAAC6DCBCB9DDFD9ACDECECDB68BCEAA68E9AEAFBC8ADDAC78CCECEDCA87B
col48:   376ABA4A8D9B99BBD998A8C9DDDCA9DBE8BB9BACBBC6A88B9AAEAADCD8BACE8CFDDFAEAF99CBDDC7
col49:   9689B675C6BE98A99767DD9C7E98ACDCAAABCEFBD9DCCFFCFA8BCACC9BD9ABB9DDCCCBCFB9E99BCD
col50:   775A7B87889A8D9897989C7C5EBECBB9CB8BB7DDCDCDB8CBBADCF8ABBAABDA9AC9E9AFAFBBABDB9A
col51:   886786A6B57B84AC7B85499D7BA98CB39A789AABB8A9AA798B7BA6CC9B9C6DABB96DABB5ABC6EAC9
ROC:     BPix_BpI_SEC4_LYR4_LDR16F_MOD1_ROC1
col00:   7176288819568585AB7968678C89489B97A767C7748567AA7849CB9899B747C89B99E27A99B7A789
col01:   736967989A9584646969AB8BB9AAA8BA6B798A698BC8E9F788A7B9DC6CAB77A9BCC4A5BB8DC7ACE9
col02:   73935949A8734B989987B8758785B49A99968BA49857877FAB9B9A9ACBF9A8A8BCC7A7B8A5E69BCB
col03:   26267A7776866B68DA917AB8ACAB895B9B79898ABBA899FC98998B97CCA9D99A8AAE88BBBBCABCB9
col04:   2B7576686787B54B6CA8BB88C6FDBDA9849CBBC99868B8CBABAC96AAB7AD8AFABA6A98B8A5A47544
col05:   66A874B76A966666AAC7BA8768B97898DB88ABAE7BC94B7A99D9BAA6F989AF7EB9D87898BAE767C7
col06:   27867A957889628B9568CA696A94BB66BA88B78BACAB59CBCA89A59A89A79D85B6A8F5E56BC6B78C
col07:   8895C7984A874444A667B3679743BB7CACB796BA99B58CCB85BCBBEBAAFDAD98BFCBBBABBCAEEDBC
col08:   A477343678884778C99787B7BA768978A8A86B7A79B6AC8B9B97C99BA4A9F9A76BBBC9DD8B9CDC8D
col09:   677488C747789A58957A6A78996AC5FCCB9BDB29B79B8CCD989FBA8BCB689D9ECAA89BAC8C8A95BB
col10:   269258948896AAC857C5C7B7CCCA8694B996C797C69E8C6CCC968BBB9AA4BB9B96949BA997B8BDC9
col11:   865B834869666595B5568A779BBC875B8CA978DACC96B7B8C88AA9A5EBBAA9A46DAC7E8F79BABBED
col12:   786787868978A88B57C8D77AC9C7CABC9796A9AA8BEC5AE8A55A98CA988A898B5CEA8A8BA7A399A6
col13:   967295AD955777EA786B8B5AB66B68BB7BDCCB5C9AB998CCD7C9A79BBBC9BEDAA9CBDAD3EA9577A7
col14:   46846A669A58877AB38ABAA58B9A79C89EAB59775EE95998D9AD9A6BD6CF7AF8A9FCCDE3D97AACB6
col15:   96377497699785747CB676A9A897D99B997BAA799888CA9E89CA67AABE7ACCA96DDD88EAC9DF5BE8
col16:   769896A9B96867388787897CB78A9A8CE6A7D9B9A88B56A7AE8BAD5DCB9E799E989AAA8BC5D9A96D
col17:   66585766718B896578557498CA9959DD8C9768749BBBB968B9A797A8BBAA889B6AB8C48CB9BA99F6
col18:   673784259596977845997C878758D9598C87D999BA9CCAAA779DB69AC798A76AF9B6BB6BDBDA89BC
col19:   5C44798A578AC99465AB77C8BAABBA9CBBB99979BB885B9E8A868A8A59CB7A8A78CAACCC9CB85BB8
col20:   4611767796766C1968676A2A49A8C696BB7946F97B844989C49AD89ACB976DCBC7B88FCA9788AAEC
col21:   662AAA7885668768BA82D6789B6C9E8CB8959696CB67B9AD559FC86A8477D79A9699A69A6BDD7A94
col22:   7872926AA6889678A7CA59957A7AB9536A78B5CA89A99B7ABC7BBA665397CA9B73CAA798BBCA89DC
col23:   298AAA7998B4A822649AC4B88A96CA69D869B97BABA87B46987EFA878A79A7A8CB99CB5D7786DA8B
col24:   77A58425658993478EC598998ADD99577EBEAA8898BACBBAAB4998D8F599CAB8C6E8DBA9C79858B6
col25:   857588B63B49C785A978AD6BC668FD7B989BC7C8B7CB8E9999AAB9BCA76AABDCADE86988CABCACAB
col26:   3A8AB7D87A877AA97969CB78CB7978B896FA9EB9CEB9ADBAEAB99C8A99CAA9D8B686F5D9C8BEFC8B
col27:   84BB8A773A989879B86ACBDB8CA8B7DBD9A8B99DAC8DEAC68DBADB99DA3CABB8ADF9CA6A3A5F9FB7
col28:   96A949E6C788A67C75A8B59B5BC9BAF87AACE9D7798AFB9CADCCF8BFAECCF9BFBCDDE9CA8BAAFBED
col29:   68A8348B99A7767B86BA87EC97BBFACA89C9B9EFACD7DDFDCB8FBDBF9AAEC7BB67FCCA99B9EAA9B7
col30:   87957D7A94B568E68779AAD98F88ACB7DECAAABC998EACCCAA99E7BEBC9CA79D898EDCBCE8AADBCB
col31:   89857BC896B87C797A76CABBC8BC998ABE7A85DBCB9AC9667D7AAAA9FDACA9AB8AD998BDDB9AAC9D
col32:   A986B65917AC789BAEABACB9CC79BEECAEEDFD989ABFABA9FBBBCFDBFA88D8D99D988AAAABBC9BCD
col33:   744B8788C5468366A5C7DA796ADA9C79EFAAAF8BBF9ADBFCD79BBABD6ACCDBEDADCBA99CAA9AECBB
col34:   86AA8BA699B579A4F79BEB3A79BBFB8EBFDADCEA9AA97B579CD9FFDDBFCFDD68B57AF7BAEA9ABBAD
col35:   B8AA97B558B887ACADAB979B97C68BDCC9DBD8BB56BE7E8E95DEBACFDB7BA999E8BA99CDCB8CBBE9
col36:   A4678244B985799CEBEBBA8DB8A9ABC89959BBAFDA9DAD8ACFECBC99599EBACD9D8CA6ABCD9CBBDF
col37:   8A94627DAB7C2969878CCDEEADBACCCE8CCABCCC9AF9CDAEDFBBACBBB8AAFEE99BE9FDDDD9BCF8B9
col38:   9244E598B99BE2C6CBC749A86BABA8FCB7DC789CCBFCBBBACB9CBFABAA5BECA8ABDECCFE98BDD9E9
col39:   B9C869B86B9A87475A8EAFC8B6A7BCBB97CA8DB9AFB6DCADABCABBA9BEACF6DEBBDCF88996BDCAC9
col40:   A5948A5AB4B8C877877BCBBCDCACE5CB9CA98ECAECDB7DBFB7C9BFCC98ABCACD7CECAE9DDCF9DBFD
col41:   8949C686B5DA796AB789D7DAB9A5ECAEFABAA8CADEDE8FCDECBDDFDAC9E9DBC9788EABBAD8989EE9
col42:   6795B8789B9C5A7B9B7BDBD6789AACACCBE99EEAAFCEF88AD6DD9AC8DFAEDDEBC8989D87B9EF9CC8
col43:   BB968CAA8A985AC6C8ACDBA6ECBD8A9AEC76DECCBFBEDEAECAACADEE9ACC9AC7F789CBCBCDEAFFBA
col44:   358578BD8ACB868AB9BBDD7BBCABCB9E9B99ACDEAFDCFBEAFDEF9E7ADDEDE8DCDCEECCACDD8BDEC9
col45:   734496ABD999B866BCC9ACB8DCB97CAACCBA88DB8DDCBCAD7EBBFFE9BCAAACBBCCADFC9DFADABDFA
col46:   D9A8984A8C7D9BC8ADE9969CBAC89AB8AC7BDD9BACBCDACB9DEACC8E7BDDE9BAABC9DDCDBDAEC8ED
col47:   48A5A98779BABC598CA8BBADCABC9A8D99F4D8B9F49B97DCAFAAB89EABAACDDB9FFDDFCBCCCFDD9B
col48:   36987CA97994689A7C8AB8DD9DA7B7C7CD9DDDAAA9A9ADCA8ABBBFCDCBCDEFD9E7DADAAAAE6DCCEB
col49:   468CD986EAA9A88BCABA9A997BD7AABBC7BAC9C99EC9ABAAC77ADBBBFABF5BFEBACAAD8BBBA9B8DD
col50:   78A29D897CB7B3AACBBBB7CAAABEBDADBB67DEDAFCCDBC5DC9ECA7DCFADCAEABAC9DD9CED8ABDAFB
col51:   54847598B969895A9998BA988AA688C97B858B9B7CBC8C68DCA8A6DBB78B67ABCABADAAB9ACABD78
ROC:     BPix_BpI_SEC4_LYR4_LDR16F_MOD1_ROC2
col00:   55247565724A47855788365B59696A6547877925966885554636576676C34949A654644686627641
col01:   6786BA58D88665C6A559B8B6798EA76A76A7C6CAAC8958B7857A887A958C878999A99A899BB67895
col02:   A878BB698B7957976695486C7A9C5AA9685A188AB7978897A8AAB693875777F97547765369799295
col03:   88C637D897CB8BA99799AA6B685567A59DAA2886597679762895CAAA665679AC46989393687789B3
col04:   674989A6B998798BAB887BB7A989879A69A7996AA69B79C98976697AAAA7BB7A9A9A969A6A95696A
col05:   9988747B958B86987779B6387C8998B9689868769DB983886598988A94598998457A656793787555
col06:   7975879687A7A89B8585A5A8B79847989677A6A5A98A86B786868894788889AC968779A784999997
col07:   565B9A9BA997A7957C97AA89C885D88BAAB87CB775D86765B9ACBAC98E9CA79A5678B9A7A8D978B5
col08:   67877D6B7897C998589B876BAB8B7B9C9989D6999786E989C87999B9383669C9677668B866776C69
col09:   767574B6BAAA98AC96895BA9967BF99787B668C987A99C57B5A875A8AA69AA9B8AA796888A77A886
col10:   7578B8788BB8B8B889B76898692C997967AB98B9AAB987748ACB9B65AD69B85977895BB589866698
col11:   A96CB576AB96678A6986878579B99B9AAB7BC9ABC849A8877A9A969CE9985489B98A59A468888AA7
col12:   657B564A99A9C877C57999BA6AAC9B99A86A7A998AAA78C53797B87977A77A7785A9A4638A5D87A6
col13:   799A8596AA886B8A786AAB9BA6779B858A6AA9BCB7A88BCAA97A969A8B9A68B8A988987BAB866A54
col14:   6A7999B5A7BD37DD7B8BBCB87B9BA8BBC4BDDC86D6AAAACBAAA779BA59C767A89898A9889D7AA9A4
col15:   88768777C7D59CA599C7BBA889C77A85B29783AA78969BC58797C5BC6A69AA9D678DA9A967A87685
col16:   9B76BAB67937899A99BC98A898AC8AC999CA679D6983BAA9759999B7AB5A88A79E84A96CA7A986A9
col17:   2386968598864899B8AB9E9BB9A95888BAB8697AD969788879C86596D995DE79998989988B568D95
col18:   69869578B78678B686B8F78A998CD8876BBAE86AA6929C7B6A8AC9799A97C8A9B77A989998777779
col19:   1637A8788887AB6D999889AA7EAAACA799D98A8B8DABCCAA899B9DAC8D7ABBB9889FB5589679B964
col20:   B316A85A7696BAAA85889AAC78A9ABB858BBA69C887AB7AB85664BBC79B7BAA887F59C8678A75385
col21:   77687A9798A697BC5A579B7A79869BC8F8977A4B99AB889A9A88DA87C8AACBBB95B8644A9758BB9B
col22:   B8687AA96997979AA869BB8B5CB9895AD7B9C9969C78B8B96CDFA66DBFC997BAF5688499A65996C7
col23:   639B869467989A857D6A6CC5AB9BBAB99C969ABC8AA8E7B86C88C79A99A89AA9998A6B98BAB9BA96
col24:   67688469A7D56CA98699BC78A6CA8C9BA8D7BAC859AAB99A7875B9ABD6A7699A67A9A4CAD9499DE7
col25:   9689974A47C98CBDD59AA999A8BF9BEBD9BCC88A9AEACACAA85DB9B888B8A9C99887B9ADD678A599
col26:   9A8BA998CE88D79A999ABACABABA98C678EC8CDA8AABB9976ED9CABACBB68ABAA9A7E8AB8A57A986
col27:   9B7386B7A98856A69ABFDACCCCBADBAF97AB8AC879ABBC7CA7AACECCA9CCB789C9A9AEDC8B996AA6
col28:   ACBBA9DBA9CCBCFF9ACD86C9FBBEABBDC94A7BDBCE9DEBDCAB9AB7DC7AD9AE8ABC7E9BBFCCB6C98B
col29:   79ABB88BBCBCDACCB69ADD9BEB9BEACCCB98AB8D5DCCBABEFFDB868D6B889699BCACA7767CA79F5B
col30:   C849A99CAB9E897CDC699BCD9AFABB9BBEACBDE9CBABA9CCABBBFEADCFA9C9A99987D99AC999C7C9
col31:   99C98C8CBCAB8DBC99C88ADCBC8EBBCDDDCBB9BF89DCEABCFACDBAADECA9ACB58AE99BBCCAC8C6B7
col32:   68BA8C9BEA9B78CDDCC8C7A779EADEEDC8CCEDC8CEDBCECCEEE8BFDBB8BBDBAB86F6C79E9DFD898A
col33:   EC889CADBBC8ACAADCFDCBF8BAFBEBBCABADCBED9AB98EAABBBB8EDA9CCAD9BCBFCB9BDA9946CBC8
col34:   79AACCBAAABDB9FABAAFB9ABDB9DBEAADD9CCEBCADCBCAADCBDC9BCCBDFAE8B8CBCE7789C98A9BE9
col35:   8778B6DCDDAC9EEF9CAFAA9B9A8AACCBDCE9AAEA9BDCD9D9CFA8DACAABBACAAD9BFDADDCCCAB9ABA
col36:   CC9A9AB76BBAEBC8B9ECD88CBEDC9AAB99A9CACABFB99BCACDCB59AA6ABDCDCACACDD8C9C78ABBAA
col37:   97CBCB99CCA79EF8C9C7DABDEDDBDECEDBDCDECCEF99EBBBBBC9C9ABB8CBBCFCC9C9ACA8ADAEBCB7
col38:   AB8ABADD9DDDBBF7B99BBEAADCADFECEAC7CBB9CDCB9AEEDEBEFCBDCBB6CCC8CD89CE8BDCE8D8DAC
col39:   9DAC7AE9BBDCFECD9DA5ECEEB89A97FCE9D8C75DBD9CECCCDCCEB8ADF9DB9BBBACCEACC8E96CDDB9
col40:   BC9ABCC8F9CCA89EEBD9DBACBDBA9CBCFBCAEBFFACEA7FC98FCDDAFEAEB9BCC89DAACBCBA97C8ACA
col41:   8A8B798A9ACBABDD979DAFBCCCBDDCEDBAAFCCACDFDBACDBFC9ECFBFBB9B7CADB9CDCBAD8A8EEF68
col42:   A59A9BD9BFD8BB9CBBB9BCBFDDCCAA9EDBDDBBDDB9FABAABCD9ACFCBAAFBE6DDBDCBD7DDBCEBFED5
col43:   6DD8FBCBE9AFFDBDBA9EECCAEABCEFCA9C9DBCB7AEECBCFDBDBDCEDECFDECE9BCDEEC9ABDEBDCBDA
col44:   B87AF8BF6C98EBDB8EDFFDFFBDCBDAADACEEEADBCDABFAFFDCCAABCFDADEA9CAEABBDDDEBBC8CCBB
col45:   99AEDABBABCAFACAADBD8EEFBDF8BBDCD9BAA9FDABCACC9DCDCCAABBEAEABABCBBE8AEDAAEFCF8BC
col46:   CB89D9CECEECA9EEAC7B88BBECACC996C9DCCAD9ECCFEDDC7ECDFACFBC9BDD8DF9DAECDBFDCCEDAB
col47:   AC98ABBFBAEDAEC7A87DFDABB6E9CDCCBACDDCDBBB9CEEBABCDACDAC9BBBFC7AECAE8ADADACAAFD7
col48:   BAC5ACBDFC99CC8DECCAF7CBCBDDF9EECDDACE7CBACA9A89AFCCADCCDFACBDEEDEDEEDF7FBBC99BC
col49:   BBAAA8BACBACBCCE8ADDDF87FCBBD9FEBBFEDFC9CDECFCCC9CFACDABCBAFB9ADACDCABDFDBDCAACD
col50:   B6A898A9CCDB9AC9AAFEB8DDEECCB7ABEECFBBEADC7FEA9DEADEEBC9FFCADA9EA9FBAF8DDF6AEAFB
col51:   64757B7875BB97A88ACCE9B8A69C9998CB89CCD9A9DADEBFBAC96B7B7B9A58DCB88AABB8D99BBD9D
ROC:     BPix_BpI_SEC4_LYR4_LDR16F_MOD1_ROC3
col00:   767855A56647199947A5335864363868AA87477838874A6BBA484447957A7782746375698578C798
col01:   3B9B4A3CA78788AC86B6C77A67A56788B8396A868788C5679AB95878869AB87959599A86533A4975
col02:   3623954479869799C76886B958C97549A8AA867B99A97B9A88B688898A76996884A9887BC7788A88
col03:   8345A596567689BCA278878C9789B977AA88AA1A87974496A487A7BAA9787CB6A78797CCB99A9799
col04:   7668B638748C98A7DA8A68A97699A58DB889788A7AB893A88D97A977965A6B895C999B88AB669695
col05:   B89A463674952B9A7C877B48A97686AB774398BB6A9CA557A8998BE986A7B9B5AAAA8C8ABA796879
col06:   985286883758847388687665897857794A798889A8589AB57BA876699999BA9787C9894984A59785
col07:   57267AB77496988455898B89A8CA79B7B7CB94C9DB6C5BB89A88989669E987A5A56A659585678A97
col08:   756587489656CB416699867BD69CA965C67B9996694A7B795859AEA98A98A8987BABBB76976E7888
col09:   83866789957696ABC666878C7A94979DBB98946979887AC88A96996A77B9BA4A886B7888A9768987
col10:   567298956B788859969889A8A8267776B79A68B76C9B689A7BC7798377B898788DA9B9A9A7625674
col11:   75C4538B45648675369979AA9988597C7A9A93A9578759968977BAB7367BDA97ABC778853A875A78
col12:   B8457267B8AA49684B8A759447BA9886A6B76794777B8DAA6B899A579B85899B8D88788BC7879AB9
col13:   87968876677788A9967789779985A79897B6BBB79BA8AB7846A575A8C5AACE8BC4A586746D8D7AB7
col14:   8882566B61E595E65465B7A7BB84B688879868AB8C967A968AB97A74B2847B9B9858849A76B57665
col15:   645754884785A687529997976854ABB5967189A6C547ABB7965794BB998AAA7798B8ABC99668BBA8
col16:   64B733BA85649B987456BA978367BA96697AAAD7B9B788876565788BCB77A69779A699CC896A9797
col17:   7B45877698476A9797567AC898779789765B8A878987C74954899779999C6AD79B9A8977AC7977B5
col18:   377754985656639A59A8C9C8984C8AB48B58AA88C5A998AEDD57BAA8837799A99ABA7A979977595B
col19:   65687955799657A78A9456B5889A888B797CBADEDCB58BB68778B79B9B89BAC98BA988945A9C78C7
col20:   6B9A887A6759A765243568A67B77998A588B98A86899A79B5AC587978AAC6B6C8D98B9B996D86A98
col21:   63575A876548744A85474AB97B7CB989B9ABB979D65B786857D498668879B2D7686859A68D8C8859
col22:   883574557764A78C9A9A78944898D6999A74A889BCD8A9DAA876975C98AAC89858B7858B7978C899
col23:   95695114B875A56B9969BCA5D6B59845C95AB98CB72E4996757DCD3A99AB85869995A5ABA958A8A6
col24:   76744598A75A47559C5ABA9769769788C79AA9788BA9A65CB6877795ECABA69AADD8869B98976799
col25:   9969A87776B99A7BA96A86A9896CAB796A9A888A97BB6A9887AAC8A3A6CBDAA9A97B878787799AC9
col26:   9B6977577B98A7696C76A996BB78E997CBDA5AAE78BA9CA8A98997A98AC79A7AAAABAADBBC989A88
col27:   7A897A648537B879688999998B9798BCECACAC99A88898BBA8BCBBD4C7A98B6FA9A799BA7B89FF99
col28:   7AC46B9777998A72B9BD9A7AEBC9ABBC9ACAA7896BDAAC7F68EBABEAADBC7AC9DAA9BDAB9BD6E899
col29:   8A77577BDA878AB8979CA88B8AFAAB9D7B7CD7AACBCBBA79A9EB8BB7ACBBCDBDB99BBABEAD9B8A6C
col30:   7855A796886979B9896C89DAC97BBACCCDCA98BABAAA9BD888BAB96AFA9AA99B9D97EAAC9BAEDBBD
col31:   8977A779A9B59DB898CCE78AF8995BA79BBAA7FA99D9CABB9BBFB8BDCDA87CDECC9C99A8ACDBEDBA
col32:   8AA7B95D79AA898BC8C8B87CC4BBDECD98BD9AAC99DCDFACACDDDDCCAECACBDEEAACA9BCCBABFCEB
col33:   C798B787766CBB89A6AA8A9CAAAAA98AAAD7BB7AA8B9BD9DBB9ECC7C7999DBCDBABD8AC9CEA9BAEB
col34:   7A8C84BC9BA9A9C9A9DC9A9CAD8AEC9A99BECC9D9CB976FACCDB9E9DEDFFBEDAEBDB968EFBDD9CFC
col35:   A6A788B55A598B9A98BEB9CAEC8BDCB9EA96EBAAABCCAE9C9DD7D9CB9AAEBEEC9CC7ABCD9BDBFEBD
col36:   9A676BC547BAAD89CBAAB9CACAB8D99CBBD89BAA99DDABB9CE69C9ADEBABCDAADE9CCCDBB9CCCEBC
col37:   988768A88B7CECB96ABBAACABBB98DEDEFC9DBA7A6ABCDCBCAECFBACDDEFECCCDBBCBC9C8CADBEBC
col38:   56A78DA99AABD978B7A9F7ACDC9A8DD8CFB8FBAADCABCECAACEDABD8DFDFFFACDCCEAFC9CADDFDD8
col39:   89799A95BB9DAAB6BCC9DC8989DB9CBCACFBCCA97DACED89BCCBF9BD8EBCCC8EDD9EDCBCBCEBECB8
col40:   69A796A88ACC96AC8D7ADADADAE79BBEDCD9BBCADACCEDEBEDBDDBDDCFFCBBCBBDEED9ADBFFB9F8A
col41:   9BB62C9DABC95E9B79FEAD9D99FABABABCBF9CC8DADFECCED8BD7BCBECEF9DBBBDFEEFBB9DABAFBC
col42:   489C7C9ABBA98D8AAA7ABABBBBAC7BBCCBAACADADCBB9CABACF9EADAACAACDCCCCB8FBDBEECDFBDE
col43:   D5987D77DCAB7D789BCCBCCDDBAFCDDED89EFAB79BCCED8ABDDBCDEEECCFFECADDDAFCECCAEFEBEA
col44:   AD779A7AEB8ABC8DDACA8BECABACE9BC9A8CFD3BECB8ECA9EEDA9EEEDF8CCDFCBDDBECBAADACA8DD
col45:   AD9BADA9DBDCBBA9DDAAA9BEB9C999BBBCBED9FEDBAECBC8CDCCDDBFCBDDCAAEBFB8EC8ABEAADEFA
col46:   BACE89E8CBCD9877CC8BD9C9ABADBB9CBC8AA8DDCCCCACDAABBEE9BBBDEBBEDDF9CBAAFDBD9BCFBB
col47:   6ADB879A89DBE9AA8C9CACCA8EBECEACBB8DCEB9D9CDBBDD9DA9BABD79FCCBFCAEFEDB8ECDCBFECA
col48:   99899C8B8AB8BBCAC9DBC8AABB69A5DABBEAAEDDACBAAD9FDDBFDCBBFDFBFABEBFFEFDDC99DAECCB
col49:   96BAB998A7B5DBCFB8CBEBF9B9BABBB9DFBDB9FDCCFAEDDFBAFACFEDB9DBDEFFEFDFECCDCC9ACFCC
col50:   BC9AC65BAD79FA9B9AFCFD9ECDCBDEEDAC999CDABBABEECBD9FBCBC8EEECDBFDEAEEB9BAADF8DAFD
col51:   C5A9B676BCBABA8797BD8BCBCDAAABCCF988BACA7A9ACEBEADDBDAA8ECAF29AAC8CAFCDA9ECCAA8A
ROC:     BPix_BpI_SEC4_LYR4_LDR16F_MOD1_ROC4
col00:   44975376529AB8619879B3665A7C6D94977528BAB478AA87547875573663B6FC9CE4A8949578454A
col01:   3548B9CA89AAA83A8699CB5A5686B6575AA978B9A75669898BCA6796786689A7A38A65A58698ABC9
col02:   95479778968A9596A867A256B89679AB9A3AC99999A6AAADBE3E8799577CAAA499ACB86767BCA968
col03:   A898A97B6CA375C9678477C978A8BCC86799DA9A28799887A898A99ABB89988A9989A8BB697887A4
col04:   7588A9788977485AA7879DCF65986C78B6C77B88B49B66A68AA99EB9A9795AA9DBD969A9789A7B89
col05:   8AAB7A77649C488C6A7B999D6C97C76A828A96C8736D785789A5ABE8C7B7BC6394AA86299769D5C8
col06:   B7669BB6CC77D6B775968596A968C9999C4CCA98B997866B888BC97C94BCB887979A9B79A4A79977
col07:   9699B577B775987DC9998B849DC96AA6DCA667AD9CABAA549AB8A998AB988849B8A765A649CD866A
col08:   64886696896B9A925475A8D8BBB5B8A9C9BBAA8DE79AB59993CA798D7CA4688676D99AEF5ABAB788
col09:   7C4C7AA7698892D6877A8B979B8B9458AA9799DB889B79A77489A4A97B6A839A3A8DAD8565757594
col10:   5796968486784AB86C7CA99A89A788B967B7A8BCC76DB779CD9689966567ACBA89D78957968B4B79
col11:   7BA1A8BCA4B7D965A6C939CA8B676C99B87896A689A787C869DB99C5B98BC6B1BA872685A78A8CB7
col12:   787A66BB4C86A9997B35997B8AC8D4996A7AA768A978AA556B9CAE959AAACA9769A66888369D56A8
col13:   59698497AB867B99A9973ECB99DA95A699696AAABBB7CA99B728A788569536B797B89AF548D797C7
col14:   8464B967275686E998AB8D9A66DA5D8BA8CAB978AAA7B8CC77BABC866CE9BB8B7BC989B979B6C789
col15:   897786648AA47549666BABAB9CB7BA8BAA6AACAB8F739AA6BDD6C879DBAAA6886A567999B8C97876
col16:   A89499A5B847C5DAB85AAC996B9CADDBC9D3769BC997A98678B7B6DCD59797425998767B4763A69B
col17:   89A36A65C867B994A49B96C67A5BCCD9669586A87C4CB97AC7897A619889A7B897675898B9649997
col18:   789596CBA7AAA976889AC8C7FD6D9A7999BA8DAA97D865D7CB68B9AC6A998B875688834956538656
col19:   8BBA95568A897ABADA78C7D8B6A9A6AC9AAA8CBAA6A9B5BE877BAAB7887A781D66A886C7A785935A
col20:   6845AA7BA969C98B6189689CAF7EB7DD9AF57BB6ABA6CAA89577949B79577788878867BC54E8AE89
col21:   B8989976D94567B8788D865C2BE7B8B8BF9BA9B68796BC98593D66DBA98A986979856A88AD9BAA43
col22:   C749A1598B5C6B89879A4989978F79A9999A968A79D868A697B8747A9C499ABB6985794A64A98BB6
col23:   8CB729A9A9659658586CAB9879CABC399A66AB78AAB886B77A554679CACA755C6776949578875D45
col24:   798795A67A858B468D8ABBC7DAC7CA7898AAB9C99917AB996D8D9996BB97AD82A2C565B8799A66B4
col25:   6598CAA889BBDBA9BB6B79BCDB7CDAAACAAC8D6ACB9BA7AAAC8A77BBCB39C6AC969458A6C7A88A8A
col26:   C8A8A995C8BDB9BBCAAC8E9C85EFCFEBDDA9C87BABFBB7EAA8AA3C7A98D8B6CB7C9A7ABBB68BD789
col27:   5889587C6B77AB7D77A56CBAC79DDBAB79AFAAA7A9DBF696ABC68BA77AA87C9AD459A7979EC588AA
col28:   9A89B879987BDEDCC7CDAD9CA7C9E9ADD8AAC3DAAD9BBDB8B9AEBA9D8ABAA697B6CCDCA66575A66A
col29:   9A979A7478BAB9C99A9CA88CA99EACABB999949CCCCB76BAFAA9B63BBA9AA6C593C9D9A7D78BA798
col30:   D1AA5AFD9A8D959967A6BDBBCEAF9ADDCBFCBA989BACEDDC7A9BCC8AB5BBCCB9BCA6B6B787CB98E9
col31:   88A5DACBCBC8AC989B78B8F69EBCCBDB8EBC898CDBCEBA7CC7DADDCABECBE987CD6BB66CCBBA6BB7
col32:   68A8AC97A7CBD9B98CDFD8BC7898EDBBBD88ED87BFAF99A8A8C7FA9B88A8DD99A484E78B8D79A897
col33:   589D989C97C7B8B88AAFF8AEDCD87B9BEAACEACCC9BDAA5CBAA68A5BD8D988C79FA99BFC8B999899
col34:   777B99CB9B57CBBB6BD9DECAB9FBCCCFF7B8BCB79ADCDD96CBCB98DD5BBBDCB5A7BAC79C97D5BBD3
col35:   ACA7A59CBAAAAAEB388BFBFBAEC8EB8D6DF9CBACEAACA8D6BADCFB6BDBFAB7ACB8A8BDAAEBDC9A38
col36:   9C97BACFA9ABAE9CACCFEB8A8AAABACA9AD8E978FA8BDB8AD89BC9EC9B89CAEAAA7C9AAADDB99C87
col37:   B9D6A9BBCC67BDDFEBFAEDD87BD99FE889BECABAC9EE8CCFCCFBBECCCCDDE49EAABABDCDF9BA78A9
col38:   8BADB997C99AEEBAAC9CCDC98BBCACA9FDCCC9EAFDA9B4BC999CECDACADDC7B8C9EEAADAAAA99FA9
col39:   A39AAC9CA7A9BAA7ABBCB7DAB8BBBCDB99DF9C9DABBCBAFBC8B9DAA7AB8DCEBFA967D8BDDB97FFA7
col40:   9B7EA9F8CF8E9BAB8DACACD6AC99DEADBCC9CCAEADC8B8ACA5CCDBDDBA5D999EECBCC984FD88AE78
col41:   6BED9ABBDEADAC6ADDBA899E6DDDDFDCBDFEADADC89A79BBABED7D9ABEBAD8BBDFCCE59889A96CAC
col42:   EAA7799ADB9B8CBCADECA8C88DBA9BAAAE7EBCD7C9AABCB9CB8CB9AE8CACEDC89F8CFC8AA88C88E9
col43:   DA6BA87ACB9CD9BCAAC99887A8CDCE988A9B8FBBDEA7DBBA75D9FBC7AADDC8CEDDA7AA7CAFDCDAF8
col44:   68FABAC999CFB675ECDACBB8CCBFDBF89D9EBDE8ABBEFAEF9DC9D9D8E8CACD7B9CCA8B9997D8887D
col45:   999A9A9887DA8FCDABE989CBBE7EB7BB9CDBB98DCDBBBABB9AB9E6B8CBBEE877A9AAD87BAADD8989
col46:   DA6C979AB7ACD7CEAF9FCADF8C9BAAD7F8B9EAA8AAAD489B7EADD98BBCB8AAEB9F9AD89BCB9BADD9
col47:   E84B7A779A6A5FBBBBFBDA9DCED9FADBEF9AFCADBA7DC86DBFEBACCADBCD9DEEE7AEBAACA7A9E9C6
col48:   C89EC6ADCDACEECBDAAACBDDCCABE9CAADDFFABAF9BFEECAA68C9DBEDB6BFB7BABD97D9AD8B8B8CA
col49:   8BCDB9BBD9DACB9CFCAB9BFA7DEDCF9FBDBDD9EBDCDCBFAEFCFBF5BA897FE9FBCFC8FFAEAB99BCC7
col50:   E6ACCC96ADCBA79C8CB88CFBCAFF8CFBD89EDF8CBABECFC9BABAFBDE9DDDCBCE9B9CC9C7A98C8EC8
col51:   9784BAA7A448B8DC9B9EC8779578F7DAB2796B58DBC8B89D9AEACA8E79997CBA9B8AB598788A8987
ROC:     BPix_BpI_SEC4_LYR4_LDR16F_MOD1_ROC5
col00:   6B78474817A863353665459685517458679864954A89A84959745A5741A669844A89576748596454
col01:   67878B543A1C7798A4B86AB888A885769AA86AB6777C9AABA46A6AB499E6A76A47659B7AA894A8D4
col02:   897384478A537C6447C679A58557A8B88886988A7958A9A67C4765458A6B87896AD8ABA887888468
col03:   798469D6657699B9B5895A88B839B95958AA5885AA97797BBA594384A877C7959A584A97655C78AC
col04:   466CB9686869ABAA776A8A9B8AB78AD887C69887C9577886A7AA9A83BC78898A75B56AB8A876A975
col05:   879B7673B8778C6675AC4A9A6676A88FBA4A69AC97939B59476EA6986779BAACA787888A62937DA8
col06:   6656A5684897999AC79BBB996B9897B998A6798648B7A766B7859774B9A886A98A6539855A4B98B9
col07:   867AC9A75B75ABFA987A79576A9BC7A7A6A87B5D7A79677B88974628ADAA996669B765DC59DC6B78
col08:   B6996688789882AB997A8B67786699AAA89678B8966CACB787A8AA9C57A4C7599DAAA77A657A97A6
col09:   3889C857CB968CA79A8569838A79A657BBCB5689897AB88D7957ABE568D4C97A843B89B7A6B99699
col10:   3779A9629A979AAABBBA8A96B7A8799A8CB986C99799A647BAA4867BBE78B45B97A8B988ACA648AC
col11:   48496867968853777BC776956D94A598697955A98A7BB98C4467EA6C6B746B965686B7669A5A7996
col12:   9C546A989755797D8B8A68C96897B8A59899BA7BB78798CBB5887946B6866575AC9B8789B8AD3958
col13:   68C7B8B5C9CADB88687986BA56BC7AA8B65ABAAA7BB85957CC87BA4899AA7A788C7787AA7B77B873
col14:   AA8884CAB5988A5AA5C9A8A9D9AA85D779FBB4A25A7986A9C6598687D8977886A977778A9899AAA8
col15:   86797CA9596E76B679A986A93CC898897CA88AA9A7AA9878A6C6B5AA7BBB579A676B4C9BCAAB9DC8
col16:   67AAA99AADA7A76B889B5B79992C96CB6959BA768A896A8C7BA4A9788AC9B7788AC6CB89AB5999CA
col17:   67A99859C87BA76C6B557678E7B79B7B5A7E9AA99987698A96B2D89989B9C9BA9576996954A5C867
col18:   8795379A6686C7BC98A6BFB758B7BBA79ABE8C79C98BA8E94AA8AA8D9BA7986755876589A98BABA8
col19:   648599BBBD788A587A99A87C866CC8A4976B775A7AAC9DBC8D9ACBDBE98899A78B6AF99A8CA6AFD5
col20:   98AABA78B99697AC8DD889787996ADF68BC9BBC979C757ABB7AA8C77C6D9A8D6978C8C48B7BC74A6
col21:   3A8BB9ACED89AB7929CB86BC89BC7A9986A86977A9DAD797999895C8A9AA9868BA86A676BD9AAA88
col22:   A5698B9999C79BB659AB68AB869AAB77BA8C9799CE8B9775CBCD99A98AD9C6789CA8AD698C999988
col23:   B667A48DA8A6897CAB98988B78566898A9A799783CCB5B7D7BABB7C87A86A9B87896CAA56B939266
col24:   B6789997798377A98C89A8ABB9BA8A679777F939B8B6B4BACABDBB5B594A9D8AB89B8CC9A779CB68
col25:   BB956B9DB9BDC8BA88ABB5CBAA7DCADBE87C9999B897D9C75ACCABCB79C6C8AA8B85A8A988BD8BA6
col26:   95A9C6888997B7889CCEBFAACDCC8EBC8DCCB9A9E569CE7DCAC9B9C8DC8B9ABC8EE8BC98BAC6BDD4
col27:   75969CADAAAAD8D6BB8EAA68B9BAF99AADADDEEADFFD6BDEEDC9ECDA9BA9688CBAA8CC8F7A8AAB9C
col28:   37A8BDEB9BAABFBAACA979D8BA9B9DBAABB9DADACB9DB9BDDBABACE8B6BCA89C9E8ACA8B9FB8AB7B
col29:   8997C899AA88AA9BB9EB8FBAB9B89DBBB6A9BDCD798BC9AAF9BEAC7BE7EDC98A9B9CB987CA69DACC
col30:   C3BC8ADBA7A8F98A79FDD8DCBCBA6C8BDC9CFA7986EC9C9BABAE9AD96ACC9ABCEBFBCDABBCAADC79
col31:   D9B79EAD8B8C9E7989A88ABBDDACDFDFDBAECDC9B8CCBDBB9CBCA9B9ACCCEADCBDBCAAC9BFDDFDBA
col32:   9A88CC9A9AABB8BBCFCBCCFADDDCFF9CDFEEA9AAFABCFEE6BC9ECBACECC9ECCBADBCCBDAD9DDEAC9
col33:   CC7A69CABA7EC8B9789FCBB9BBE9AAABCFDD8ACBC8ECB8ACAADACB97CEAABAFAADCEB7BAAACDBBA9
col34:   9BDADD8B7CCCB6C97BBCFD97CCED89CABC8CCCA9DE99EC7BBEA8B7A9BDAEEC9AE99FCB9BDBA8EBD7
col35:   9BBCBBADFADA9E987CECABFBCBFAD8BAFBDBAACDCBFD7FCABCBEEABCCDECBFBF9BDDBC8BFC99EEC9
col36:   9B98B8A8AD87ABD89BFC6EBDBAEFCDAD9B9B99DCFB9A9AEBEDEECDCDCDBDFB7DEDAEE8ACCAFBDB8F
col37:   B8A986CCC7CA9CCB89ADBAFCECEED9DCBBDCFF9DABAACBCFFABF9CEACAD8EBDADBDACEFADAEBEBBC
col38:   BDFCABBCB8A6A7B8CBEFBFCDA9BEDAB9ECCAC7BBFEEFADF9DCDBCCEFA9ADEAA9FDBCBBDCDBABE9BB
col39:   999FBC7ABD99D8EBBBCACACCCAADAE9BC79EFBAFCCECBDACDBA9BDECCECBDDCBBDAAEBCDC98AAFAC
col40:   9DA7A859CCDB8D99EFBEDCCBCBFCDCDCCAEE8DBCFCE9DC9DCBCDCEDCCFDBDB7ADBADACCBCCBDCEAB
col41:   A6E9ACCEB8BCBDDCDDCD7C9CEEDCCCBACAD8E9BBEBEECEECAAACECEFCFA8DC99CCCDBCCBDBE7CED9
col42:   A8CABCC8FD8FEBBCDAA9CABBAAEDAD9FFBCCBAF88A6C9CCCBBED8EDCDEDEDDDCFDCCCBC8A9DCBDC9
col43:   BA8AACE68DBCDDDCC9ADAECBE9E9DDDC9CFBFDCE7FFFDDDBADDFAADCEFDBDFCFDBBDDBBCE9CFDDDD
col44:   9ABF9DCBAFDDBFCDBAACFBF9BBECE9C9CDDECDCCCE9FBFBCCDFDBBBDCCBB9ABAFDBDBB9EF9ECCDF9
col45:   AB79DABADADCBBF99BEBFBCAAEBDCAECDDCADBBCFB9ACCCCBEFEBC9D9CBFDBBCDCFBACDDAB8B9CE8
col46:   BB9A9DAECEF8DC7DDFEEC8B8EBAAB9EFADFFFCBDCFFFD9CFBDEBA9EEFDBDDF7BBBB9EFFF998CEFCF
col47:   D9C89FC9CBB85EDEB9AEDCDFCAEFD8AABFDBDCEFBCDCCB9F7EFEFAEAF9EFCFB9ECE7B9BEAFCBDCC8
col48:   A8A8AB9BEE8CDC9EAAFCCBCCCEBEEBBF9FFFCAC99ACBEFBCCACB9FFDCFBC9CDCBEFFACAAFBDCBEBC
col49:   A7CAB8DBEBEBFBBBCB9DDCBADEFCCFAEDECEFBDEACAEDD7EFDEB9DCDAFF87FECEACCCEFAAF8DDF9B
col50:   9DB8CBBAD8BFBDACBEBCBFDFDCCCCFBFEBFDECACBEDDDDDFDFDB9CBABECBFCEBABEFDBFDEEEFDECD
col51:   BC8B99978B9AC57BC9D86AE78B9ED9FCBEBB98CBBAAA8BAAEC7BB96FBEB8997F8ADEDBABABABAAD8
ROC:     BPix_BpI_SEC4_LYR4_LDR16F_MOD1_ROC6
col00:   546157223482857478544B415614579656666882587689789987476CA58889899C966B97898B8B86
col01:   211386466A347675716B8557B65A5688699C779A8A786277975BA887669B49AB978B84846A7D9D88
col02:   A635436721856554557CB5986795A889B996A8CB776DAB76889CAAB69A9AA9A9BAA8B59D8B99BB9A
col03:   3341163895256566B782658456A85537A959869CB76A7C967B98898B99A969C9898A97B779BA88CC
col04:   6115894753616624A75666665765A899AD2874763D6E759985878B7A78A8AA8C96867CAA8A898B9B
col05:   1156414428553231746678C66866868698977B3774698577835895738BB78898957958BA9B6B99AD
col06:   1762254768455366766299A77287A6B799C4A6A8A4579A6899C5ECA7A78A9978888C7BBD98699997
col07:   7118643658B6776A687D473AA49B8A69A544B7898996699AAABA96BB9A8C89BB88BAB78BB8BB9D8C
col08:   23583365674563644644B6844BB4A9A8785795A989969EAA7899C95666ADAB6889CB8999C77B7ACB
col09:   244445555262623427867ADD9675958A57938689CCB8B77D79AB6A4BA877B797AC99B75CA896ABC7
col10:   52628138861273787278875B44973D9AB988497C49587B9B96A6797A96A8799CA888BCB9A8789C78
col11:   46421336564189D8885766596567B6B8977887AC964796989887B6667D788A8897A8D8BD8AA6A6A4
col12:   276662419933868876796568938AA5786775B578669B9A99A8B9CAAA88A9888996AA97C55ABCA8CA
col13:   542523145837654684877858889B78669A579A7AB97576C9C968A7AA979A7B7589A78A9BA7A8AA95
col14:   474913656693845881864765989A77A756896979AA4799B69AA8A8A6A9DAC989587BDBA6CB79899A
col15:   256588758334185577486736AA78C488566549A78A899A89A9968D8ABA9C7B7A5BC4A979B99B9A9B
col16:   845386A235635676466595638C5B4A57A549AC88C8986869AA87A889B88A9AB79AA6A86888998DAA
col17:   5526376567674775758856588666769757388765C6B689A88D87A7837AB9B899DCA7CA6678B7B9D9
col18:   24372265844184397495ACB873A6885ABA566879874BB6A7AB99C897C69B9388CB8AF9A7A97ADABA
col19:   388941332A46B55875745767565968686AAA899676EAA9BB7A979C86AB9ABA8D99B8CBA5ABBADBA8
col20:   665685764686B5666C8876998A96685894A7C94995C98696C9C78AABB85AA9B6ABBB7B989BCEBB9C
col21:   586832563654456B7B78569887658A68998585987879677C776899BC9C6A88B7C96899BB898787C9
col22:   21565263372754937649689679469837A95A6D9988AB7786787CAA99A97A989DAAEB969A8BBEA9CA
col23:   6615647323589786715384696B4878578968A97459A68E79B96498B9DA6EB668A99BC78BAA87789C
col24:   8497884475486794B6A767A6B642B5A49899A6987678ADBA7998B7CB79BAAC9BB57899F7974AB9B9
col25:   842757452566226888889867B6679A7868C7B77579C879A9ABCB9AC8BB798A9C8BBCDA8D89AA9CD9
col26:   277783744676A568988A664ABB667BB9AC97B8997B98B99CBFC9DBEBC8EBB98DBCCFAAECCF98FECE
col27:   756658896637769B677778769767796AAA9BC97999A88BCBABDD969AD89C89BBBB7C8AECF89E7EB9
col28:   863598899597A75788699AB9849B9DAA89BD9DBCAD8CAA8BA9CDC998B7AB879ABEBB7B9BC7F8AEAB
col29:   6778527A996A948AA7CA75796677BAA8AEC9C7BEA787BCBA99AB6BE9EEE6AACCCD9CCCCC8ECBCDAB
col30:   5464166676967A87C3899A86B8888A69BA7E7CAAB8A9BCB9D7D8AADBBDD9CCCCACA8AD9FCDBAAABE
col31:   6A6957A86A78568A9A8AB7B77A99AE9BAEBB9A9ED9D8A8CAA9BBDFAACB9BC99BDBBFBBB9DBECABA8
col32:   38569B8876659A479DE85AACCAAAAAABBBCDBBBCD87D9CBBBCAEB7ECEBDF8DABBBCFADBADBAFCCEA
col33:   547643C787679949A9E6C9B585AC86BCB8AAADCF7C8ABCDACCBABCB9DBBC99EE9EBBCEBACBDBBBCA
col34:   5A639735B8ACB5B998B978BC8AAB7EA8BACBB99BBCBA98CADC79ACDCBBDABACAFDD9BEDAECFDCEBA
col35:   66577789657567A8C9775AB79B9EBB8BCA8A9A9BDAFBDBABBCAAD9DB9BBADBFCDDB9CBA8DCDABEFC
col36:   89786976B998A9779B7A6ABBB4C79BB8986FDABCAEDC67CCBDDA9DCDBD99DDAAEDDE9DDBDEDEBCEB
col37:   6975A6B959AEB3569A75C8DB7BC6CCBCAAFCFC9BA99CBBABD8ACCF88EF79BADBBBAFFE7BAFCFEA7F
col38:   33597B8868778799A97D9E45BACDCD8A9CCABBAB8BBA7BDC8D98BBDC9ADEBFEAFABBECDEBCAECEDE
col39:   76894789677889B768B6958977C98D9ACB98B867BBBEC8CDBA9ABCBBA9DCECAEDCD9DACDCABCDAE7
col40:   4478886759979A2B77C7989DABA99CDA5BDA9B8ACDCED9AB7ACACDB69DFEFCCC9BDCAEEAECEEDDFD
col41:   7A664988B49799B87CEB6BE978ADDCC9AC78CEC99EBDBAB9B8CAACDABAC9BFECBB9ACACBEABEEEDD
col42:   8738768A974C878A8AB97A88659ACA9BDCD9DBBB989BDEA8DCB7BCADABBCCEBC8BCCBACACDEAADAB
col43:   784986A6A69777C487DCBABD9978C9C99BB7AABAA89EDBECBBDCCAD9DCDBFCCCEAFEFDCADADCCFAC
col44:   A39ABC689C678DC8B2AA8968BAAAA6C9BDA9BABD9ADCFADAB9D9BDCBBFADBEBA9C777CEDAEA8CEEB
col45:   693A777AB759A8A77B9AC9BC6AD99CC7A9DA68E5AA99A797DBEA8B7E9FCCBACFCECCBBCDECFDACBD
col46:   6A6B969B58687755A8C6BDCAADD9FCCBDACAAABCB8CEEBBBFDC7CE9ECFDEAADCFCDCCBBCBBCDCFDE
col47:   655A97AAB6898BA9A8CA8AAAABDB8CCAA7AA7B9B999DA9FDD9FC7FAC8DCAEDEBFFEEBCDCEDEDDDAC
col48:   56A6A9A899BC8A65B98B7A8C6BA6A99AFBEBC8BAABDDACACACCCDCCBCCDDDADFCBCECABBEFEDDFEF
col49:   863A99D88999A889DCC9D8B8D7D96BCAB9D899CDDABCBADCEBDDBEDFCF89ABDABCFA9BDEBDECBD5D
col50:   615956976988D798977A9A77AC99C5D6EBD8CD9989CBDA8AEBBCFBCCB8CEFCEEADFBCCEDEDDDCCFF
col51:   54539A5364857665698D7B8985AA8AAAAADA7AB9ACCC86BCCEC89ABAAA7AEC7CDEF9BFCD9CEBDFFC
ROC:     BPix_BpI_SEC4_LYR4_LDR16F_MOD1_ROC7
col00:   47876687897AA565B8A8C8966A668774A99335486D75AA89989374E89A4582415654865459983557
col01:   EB88ACADA956D688BC9BB8B8D57A6B9BEAC89BC99A68DD78559CAC74C83979B7C368885965187773
col02:   6C886859B96AAB7BDCBB6B7E4EA99A9A69D8A97A9B987597B7789863A9975879B5C6576577BA9737
col03:   699AC8795ADD559AC8ABC988866C888FB9A97A8876A79A749856A7CB767AB5D6829618BA87DA6379
col04:   97B95C9A9A78BB989A6AB89AD5EAB8C8898B6A78565B688E97D9E78385AA7B7A4B39984783AC9494
col05:   9679ABA71ACB977846E99A5D596AC9A8AA7AB5597B7AAB75D876B8534A888A78A856647534667674
col06:   6885B8C99C9AAC98B78D9AB99BB78B9A69A659A93BB75AB759FF878C895978876485A784A14576A6
col07:   BC81C87ADCF3898BA9BBB78AB8D8AC779DB89897A7BBB8B7B9B976A488E7896CBA647789D59BAA78
col08:   B3A889BAC8D8E9747A749B889EC69849BA7DCEEC989BEDC7B5B776B99BA555B799C796CC59368899
col09:   988BAABB9AAA899CA66B89798986CEE7BA4ABAA97BC9ABF87DA798A89594958B9B89A6B887744649
col10:   BD6A88A6CCCDCF985B96A99BCBC85AAB9BAA3A9AA8AA978CAB6CCA93C7C8B6CAC99897D7C695676A
col11:   A6889ACA9B8BAABA8988A919B4A76749B87C9CE7A784AA89AAB6A7B9BA8685B4A7B7BB92C9859775
col12:   7859A89BDEB697B788998B966787CC65C8AB7A969AEA886CBD67B6887C987A995A4A667984777585
col13:   8879B8D96E659779D8AC969867B87689BC9BF897AA9A8C57AA97A7A95B8B6B9A97AB96998866C293
col14:   CA89AC8C769ACDBA7A7CC86AB9ADCC7ADA7CBA829CA6A6BD8B47DAB9AAC7AA7C76DCB7A8FC9BAB5C
col15:   6ACDBA6677B58D86F7B9B9A6DAACACC57CBB6758BAAC9759AA64E955BD57AB3C856977758C874AB4
col16:   A9E7CAA89C79F7C59858DDA9BB9EC7B86AA8BAAF7A98AAAAD9AD6E9BC768868C75798EB78898BB77
col17:   97A6B8C88BABB89ABA9AD999C9B97A9A979AACBA3EBAB8D867879688AADA979A89A58969884B8968
col18:   798849858B6898779BE79B8AC8B9899BAA7ADCBB8899DA9884BDC6A69C57A8B88686C87A98B9BB45
col19:   A85A88869896599CC9A7939768AB8C868B9969AD8A96B9899CA78DDB898C99ABBCA56595B89ACB69
col20:   AB79B96DC8F797899699C8BDBBB57A7CAA9EA9AA76D9C5BBB6888ABA86BA8AD8CB7797A7BD72AAB6
col21:   CAE8A5B63A7A775C6BA8976AA9976BACCBDAA65968AB8BC778796A8B995A7B6AAAA6B6A96796B777
col22:   977978EA9C48C528DEE876C7DA88A7A8C9B795CBC667996A97A7A4548A6B9AA88A988859979A9856
col23:   ABAAB6B9BA68E8A87EA698F737C89978B8B78DBBDDAA7E4B79BABA94AB68AB9DE69B59478A988BD6
col24:   B87B9C89A5A6C6A84AE8BABC99ABA89797CB87985BCA9978CB8BA4FCA696E85C5899BD8A89DAA676
col25:   6ABACBB7CBD99B8A9A89A7B5AAAEB9BB7B6CBA4BAA6F7EB964777BAC99BCB7958C17865BCB8A6868
col26:   899A6A9ABDA9CCCDDAACA8E7CA99ACAAB79DCBAB9D9EAACCB89CFA8BD89BD9BCB78AC88CD99BECAD
col27:   9CB69D9C9899BCBC9C9AA9CB98E9A8767CFDA99BEC9E99BC89B99978BAABA9AD9A9ADBA8856A385C
col28:   CCB6BBBB7BCCBB8CACA4D6BECDFD9FBEAEC97DE9C5FACABDCDCAD8AB6AAD9AFCD8BAD9D78C7AC6BA
col29:   A997FBA8ABBBE55B8DD9ACA7DDFC9CCAECDBC8BDAD8E9CDCE8BCABADC99DA97CA96697BBCD99BBC8
col30:   C6ADBBDC6DCEC67AABABDDAB8FAB9FAC9886C89FDA4CE3B7A787C9AA9AEFABC9D88ECEEA9BB89778
col31:   A8BB9AD99BCFDDAACA9CBB77DDFDFAC75ACAAFB9B8A9ACCBAABBBB9FACD988C8E9D9D89C8BE5CBCA
col32:   CABBBD9BBAACBFBBBCA89ADF9CC8AD49AFEAEB9DBACCA9CBAA9DA8B98AA87ADB99EACCBBBBE9CBC8
col33:   4B6D9BCC778FFBB9EDAADFDE87FDACBFB9DBBD8AC8B88E5CAC9CAAAC79A98AD7CCDEC99AAFC8B588
col34:   BEBBCADBBBBADBB7CABAEA6CBB89EACCCCCDB9FFC6DCDBFAA9CE98CADDFEEFBC8BC8AA5DBABBBB9A
col35:   4A9D8BCC9AB8ED8CC9A7DCDA8CCDCC9DA6DA8BE9CAB8F9DAADADED75C9CA6BFCBF9AB7A98DB888C9
col36:   98E88B7CBD8AB89CAAB7CCCC96CB9AA98CFCDBDAF9FA899BEACBBF6DEADADDC6FAC97D9A78CC87B9
col37:   CA9DB9BDABDCDAD8A9A8E8EDDCBDBBCFABCBCEABFABBACAC7CA59CDCCBCEACDBAABB789AA9BAFDCB
col38:   7D8BC9CCBDA9ABFBDBCDEBBFBACA7FED9FBA8DFC8FDDC7DEE9BCCDBFDBADCCEBBDCCBAC99A89AD77
col39:   B8BA8BEC9CBBCEA8CAFB98EBAC9CEBE69986DBF9EAADAABACFAE9B9B9ABEC9CA9B9C5AADDDCF8A48
col40:   A9AEBB99CBDD9FCBE9C5CAABBCC9AAF8CEBB96FDC998FEA8CC9AAECCEBCD7ABCB5FAFAEC8CABBB5A
col41:   8D5F9F8ABEE88AA8C8FFD9ABF6CC8DCC9DAEAEB9BCA9CDBCAC6EBCEABB7FC9F99BA6DE8DB7ACA778
col42:   DADCB6C9A9C8CBCCB9D9DD7BCCCEFAAE9DFEC8A7ACCB8AFDABDBAAA9BDBFEFB8DDECE4DC7EDDBBCE
col43:   B8CE86FBEEABACBAB8EF8FE8CCF99DFCFDCB8CE7BACC5BCFC9F9F7DDCDFFEEBFCAD6AFCBAEECEFAB
col44:   6896BA8F9B8BB979B78AD9A9E8DB8BCCBEECCEAD6CE9CBF9FB9DDCCDFACEEBEB8BADFDECDAEEA7BA
col45:   B9A8DBD8BAD89AE7BAABC8CECCBCDCBFB9BE9DA9EBA8CEDBDCE989A8DC7A7FA7BC9CBB8CA9B9A88C
col46:   ABA69CAAC8BADACFBEBCCAAE9DABAAAFD7CCA79CCCC9ACF7D7DDFEDE9AAC5A997CCC9C8BCEAEDFAC
col47:   79BBCCBCAAF6B9DB7FABD6C99CB9D8FD8DBCFDDB9AC9BBC9BFD8CBCDEBCEBBE99CCCDB9E8CCAC977
col48:   87D97DEBC9AABFB9BCDD7B76CD8ADDA9DD9CBEADF8CDEABADBABCDCBF9BD8BBBF7ABBBA8CF89ABBC
col49:   AAABCFB8CAA9DCCCCCB9BCAACA5D8DADCEBCADE8A9FBCD9C9ACDC98BCDECCA9CADF99E79CABBCBB9
col50:   7BB9B9D6BAFA7FFCEA8DBD9FCCAC9DAEB7BFCBBDDD8BC8F8BEAFCBBBEAAAD85CAABCE79C7E9F8C8B
col51:   9A9A999BCB9669B79A88AACC88AAA5C9EDABAA899CDFE9AD58999C85B3CA89BD898D789AC5B24AAB
ROC:     BPix_BpI_SEC4_LYR4_LDR16F_MOD1_ROC8
col00:   98A2329A747A579A8A5656B95A57B8B7C685A98C97C4869AAC28A49A6B6A256469BDAA6898D67B66
col01:   6665D6867A76AC9A884BEAC879AA387B99AD9C79C8C7BA5AD55B4F6BBA9A7AAA64C6ABB4A569AC3A
col02:   55587B69B8B6D7ABC68799D7B6BD6B8A8B77BB579C759EBABE8BBBA9986BE6C69FB97996BA76D873
col03:   76A8B8C5138699666A57AC799D59BB8BA94FA9AA888997785BC779B9C8638395B9477DCA9E8C898A
col04:   799897BCCAA67677A99A599BAD2B8B9CA48BF88AC5A747978AB767787D82A68559A7766583B8BB86
col05:   878878C488695768AABB999B7C867AE6DB7B799DA95A658873BCAAA9D6886A79A38B94B959C9749B
col06:   659C97939796677B6BC7A8BA86A4C7A8A9A9499C796BA959589F69F86785BC648A8978A9C98778AA
col07:   976566BB899E4D6B96DC96BA8A5788C9A9CABEEEAB9DEC6BCAAF74ABBBFA778B9CC7766AABA84CAC
col08:   6A39BA4697B739FBF88EB5979B985ABB7B798C8BA7D89B899A94CA9D8699B8A9EBADD9B76A86BA88
col09:   8549AAA8AD83668AA789779BC8C7AB86C8ADABB7BC9BA5BC38DA88B7DCAA85AA9978C99BABAA987B
col10:   7BA84BC7697556BA79B9BA9649A49A98BB8C497BA6D6EC6BA75CBCA49AC9C5BB79D997987CC857B7
col11:   A68A56698979A98BC788BA9969979ADBA66977AD789F88AC87CA475AD8BABA64A89A788A6CA638C9
col12:   8C74867CB7BBC877BC8AAB8675CCBA575C777D789A59AAAA9E88B897A9B877796776B89A74888A78
col13:   7B9CE88C5468D79AA58A59BAA9C8B6CC79B959C8AC86C698C85A6A9858973D9AB997C9C6BB6ECD93
col14:   CC95677888C4556978569A768B9CDBCACB9E996965DA8CF6A6C3DAC696A7999A676856A9C95E76B8
col15:   8B986CACAA9BDA97D8685BAB88B9EA9F6BDCA68F9B7587B5989B8988AA88C877966BA87B99573A8B
col16:   D9A57A8C498849797A7BBAB3D8CAC8997CABBBC36799A96BE6899BAC7BB97A7789695786A88AA8CA
col17:   2D6887966E9BB9899997A6C6583CAB97BC8DCA7BC6B89BECB79678B97B9B79DA8B697DBA9A98AAA2
col18:   25CABB25A73B88778899967A7A9ABA448CA58A87C6B9AACDA985B8945AAB5D476B766767D9587499
col19:   9788BA7C7EA6A6B9988B89B6ADC6AACAE997798B97AADDCA9779B8AC999FA9888A9CCC984ABB7C55
col20:   DB97566A868689A78B848A5B7989ABBDBE87AAAB6BBAC9796796A893A8BD5779B5966969A59B8988
col21:   A8898A7895F3B8BA96677D8BCAB867995699975ABD7E468757CDBE99E8AD6CB8CCBC7E665AADB8A9
col22:   5959A975997C85AA8B96A999D87BC858CA9BFB8AB79B897758B89A5A7EAE857BA9977C7B867668AA
col23:   67E6B9998957A6B968889695DCA5BDEBDBA7A69C7CABE7ABA6C97658CC465A776C5667B46BA77797
col24:   A4B5876974567BDAA9A875287ACA9798ACC797B89A9B9747AAA9A7CA96759B9899986B85E6CB8AC9
col25:   A649798EA8ACAA8B4A5A8599D8664AA9CABEA4BACAE8DBA89CCBACC778BCBC9C9769B8A89B728B88
col26:   AACA98AA989A8A7C7B99C9D89B5DCAA3BD6BBDFBBCFB9CF9DBBA9897AC98DD8E7EBDDB987CA9DA86
col27:   7D6ADD9A88CAF8B88A7B9B8CDCC9AAACBEBCD8799EECCBB67A97EB6BD9A58E7CABC8C68BA9B6BAA9
col28:   9879BAA3C8C589AE9C9C72C9DBBCBC8CB8AFCE9BC8CFDADAB9B9CE898ACCDCCA9797DAAE878AD989
col29:   9A8EDBCB88AAB99D6E88E8CA679B9E9CA9BBDBBA89A8ACE9EC8CACFBD95BAA67CD88A6ABCC8C7956
col30:   B87A69CCBB86B9B9A788C998BDCE89A5ACB97CBFABEA99DA78EADCA9B984BCDC8AA8A879A97ED7CD
col31:   D9BAC6468F8BC9ACCEDADAE8BDE79FAD99EBAA9BCADAABBBABBDBAAB7CADBAD998CEA8DC795BDAC9
col32:   9C18B7B999FABAFC7B66F969B9CBADE9C88D79888D9CBADA99E8F6BDBCBA8BBFFEB9DAD8B8ABB7CA
col33:   8895CCAB98A9A95A899BCA8B9ABCEA8CCDDBCB8ACADAF4FDC9CDCBCE86BE9BCDDADC9AABB66C3AB6
col34:   AECAA9EABCAC8DBC7CC98F9AEC89ADB9CEBBD9CBB88AC9B7BBF69BB98C5799CC9B8C6BF9CCC88ABD
col35:   6CCA97B9A99BE89B98CBCFDCCC799ABBCB9E9DBC69FCF8BCDA7B9ECAC8BB8EAB8DACC7D9FBCA5DAD
col36:   966EACAC86E49D6BCEBBDBA9CBDCD99CABDADAB8EAABAAEABDDCADCA9CDA9998C9CAA9DBB89BDBBA
col37:   78B5BECCAA8D9BDBBA99BCFABABCA9D8D97BDFCE8EBBC8BCECCD9EACCFD8CBBDFDCCB7E889DAC6CB
col38:   AA9A5CABC85C7BDACB99CA9FAB9B7DDECDCEAEFD9CCBE8CDFCADD9EC989DBCAFC9EDCCDCCE8CF9A7
col39:   8BABDCED9C97A9CDBBBC89BECEBC8BA899DEBCCCBFA6CCCD58DCCCBB9AB7AC898DBCD89BC7AF9B9C
col40:   9AC9976A8BDCBDAE79BDD8DA88CA79BBF7E9B8DE9FBA9DAFA8DAFC7DB28ABCBEDBB6C79A7E9AABDF
col41:   9BBEDC9F7EBD898DBC7C88BF9BEEAF9F9BFBEEDBFC9FBFEDDFFE8DCDC9CCFDBE88BCB869CBB9B75A
col42:   B67CC9B9ABFADACB9DACBAC88BEBDE6CC7BBA7BABD7BAD9EAC7D89CDCAFB9ABB6AF9BBBDD898CD77
col43:   D9C79AABCBAC8C9BDEBD9CB7B7ABC98DFACCFDECFAEE89BCDDBC8FFEAFAFBAABCDECAEBAFECAEFBA
col44:   AD9A9B6DCADABB89A8E9BBFB78FDFABBCFBADCBCBBADCAEBEBF9AECBBDCDEED8CCBDBBED7CDA99CD
col45:   86BBE9ACAD7EBDDCDBBBBC9ADFCDCCABB9CFABBEB76C6E8BAF9DB8EA977CBCCBDC9DCAA8AB92FAD8
col46:   5AD9EBD78CCA9BBAB89CCC98DFDAADBEAADEDB7DACBACEACD9D9F66CCA8BB7ABAEEF5E9EECAF8DBB
col47:   F8DABFBBDAABFBFDFFCEB9969ABDEDCBDFDBAAF9FD8EAF9FFBA9CF9BEAFEA9FCBEE8E8ABB97BBADC
col48:   C898EEEFAABC8DDA79DD98BFCBE8AAEC7AEFCB8CBBAB8CEDAB8B9CFD9DBEBBC8B79BCB59A9F8A9C6
col49:   BDC5BF9ABDAFA9BC8EAFFAEFECDFADAAF88DE6AACFB4CECC9ACDAFBF9DF9BABCCAC9ADAC9E99ECCA
col50:   8C9DCCBAAC99ECCA9F8CDCFBA9A8C6ED98FDFD7CDCEBCDFCDDBEDBDBCCABFCFB77C8B8D98EDB99BA
col51:   BD7B8BB885DC68983ACB8D78B7B7CDA477AC998ACED9BBC79AB6A78959C7B9A9C7A9A97D9698996A
ROC:     BPix_BpI_SEC4_LYR4_LDR16F_MOD1_ROC9
col00:   1125548242645155B57A838267755A65A7534773A7937C45584D3312363555685717865639679341
col01:   5889AA6792778978F826B8AED5CAA89BB889652787A7B87996C8787A8B68558888774567656D6C86
col02:   68A465787454AC1B386A57795AA88ADCA4A9A7A3869A59A4677BB696D7BA68467845996557658589
col03:   64AA469359ABA46A896A98A56895B673EA7587D65996628599B8468689962966647A5B47885831BD
col04:   5135A67A7757665779A9887C668C856678C56648A29A89A5B6B4855A8327A89394734654D2C73B95
col05:   155598658351B59858885986A47673AB66675755A8A8A47AB785C7A683A86A5895964768BD688967
col06:   884BC938566BCC77A3667A98A7C77B6A5588C677A865A9ACD485A6549588A757A68767946A7A9486
col07:   2BB8795788A5787856987D8CB979BCBC98BC867AB6579A9AA7A9855768A9B55B8479B48848F2A258
col08:   8AABAA959647DA78B287B787AA7777A65B994969899ABAE994A6B86765765CC4618575A776858748
col09:   6C743896C8A834ADAA8BF7884A57C56477A7A379BBBA83894856B9575A93E948969584874475738A
col10:   97A66679A4C6768339995AB7A77867B6AA676A677C77B757779778A98887999785775AB658538C47
col11:   79A5758559C577B699873A7897E8699975FAC956BB94AA886D5676471B77C9735AB888B787656765
col12:   36295457B9F5A75377696775E949726A87A7A68AB789BC559B799A8A5865A984996D9691549775B7
col13:   9B788A76278C64859D55B8988A85C79A593ADA9688C98EB9AA88CC76C6D868169DA15A9596897695
col14:   A6387594B686A7BCBCB77796DEC75577B8CCA898A9A79499747696AA89A9B9DC7DA9C476BA85A475
col15:   5B9863A67AA688685BB599BB77187E8A5B69719956B76C7766A889A683EA6576BA8788BA486567B6
col16:   76BB9675BB9C66698566888AA8C97BA9DA99BB9A9CBE855AB69BBA978AAC68D687895A667D9588A8
col17:   8755AA874955637A89799987A9A4BC5AB596E5BB839987A58B96789C97916B89479849A66765D775
col18:   366BA336AA8245878566596D8BA97887A6C7A7976AA5A6B5D67866826749A587AC874C469C977964
col19:   5569A779487777A7AB85C87ACC99C888EFB5AA6AAA8A3EA98C8CEABC8B98996A9EA3A576BA687674
col20:   54B57938486A49988DC588A9BAD96BD95677BA67BA67AA796978B7B7979699BB868BA94A92948974
col21:   879656578BCB6BA527C8E478855997B9AA89ABBA7A68A8DDC695ABCDD862878486C979B2A97A38A8
col22:   8A87557C4A955877C9B2875DD69BB6C8B6BCB36C87A896889BAA986A9B4789757BBA8986B96B7A94
col23:   7854476698C49C915AB9786B6C67D96A9CBAB8B9C58646687E7997CA8A89DA5B5A864A9778B34C65
col24:   786565A786E48A976ACBC8B78AE5989BCB74DC9878BBB6B87BA6A868789AB69B666B798A6AB6A895
col25:   5988AACC8AA9E499EBD9BB5CEAA87AA7B8BB9DA569BC7B57BC9469BCDBB9BBAB579A869759B89868
col26:   75947C8949A66B9979F79CACD9B77D9CB9D9F76BD8BB78B7C8FE9577958AF7985AA97A9D8ADE7A8C
col27:   691665BBD8C4ABA887675CD79A1B8D6EB6A9A99CC7EA775DAAAAE9DDC9BA8C8999A8699AAA6ABB67
col28:   766B6AABCA59668CE7B8CB9CB9D57BEB58B8CDAA96DAB797E9BACDD6CCBC7BDE79B9CA977EC868A9
col29:   943984879A857888ACAACCA1BE49ECB9CC99C49D7AAEBBDC7A97CA9CBCA78ACC9878FC98FDB8BD86
col30:   8795699BDAB6EA887C6AD4A967947E9B6C797ADA88F9BB9ABDBC9DC787EA9CD8CA898C669CDBAC99
col31:   678BA89855C8BD88C68BACFB69F6D9BC9B8E9BD9886CC9FBBB9F7EFADB8BBEFEBAEA3FDABBABEB9C
col32:   79CB79676BC86AF9A979BC7CE2EC88EA9CBCFABACD8C9BAADCF9ECBCCDBADDB95DD9BCCBCCBEAB6D
col33:   A97998CA9B7AB789655999BAAAC959C8A8B9CDBB9BDA7FF8CCAAED89ECA47B9AAD58BAEFB8ABDE6C
col34:   6A949789DAB58C7D8999A9E9B6FBC7CDADCA9EC99DCBA89ACED877AACBCBBBA9C9DCADBBCDBA7C8A
col35:   9D397599C7759A678B9BBDDACA9AB999FAC9ACFEDDABE99BDCCAEDACCE7FAD8AB96A98CB6DD7BCEB
col36:   67A39BA9BAB9CA977E9B9D96CF9ABEBFAB98B98FDDEC87CA9BC8BACBFD8DEA88A8D99BBB9E99DBC7
col37:   AB57C39B9AFA5D97DC98BCCCEBDCC8CCF97DBABDDBCD9BFCCADCCEADC99DFBBDCDCBFBF7DEBBB9C8
col38:   ACD7A87BAADA5CCDACB8CD7EBDECDFC9F9DFCCF8E7ECCBE77CFAC899D9DDCFACFBFBD6F9EAEFFEEC
col39:   AA8797DBBA9E9949B8CB9D6BAAA8ADAECBCDAE8F9DA9BBCDABC9A85A9BBCB89BD687C78AD7ABA99A
col40:   A578BD6ADED99DBDADD68C89CDC7CCEBA9FCF89AE8CABCF76B5CDBAF9AEEEA97B9D7CDBDA9ECADC9
col41:   A7C4ADCBA77EA76F9EADA8BCCDB7FD9B9ACBEDBCBABBD9CBFBBCABFAFD6AFBBD9ADBBBEAF6DADA89
col42:   7ABDA8A78B7BCADBCBDD99EDAACDBDA97CB6D8CC8DCBCFA9AAB9CBDABAABF9CE8ABFACECDACAD7C9
col43:   AB5899BBDFCC6AC6D9EDADA9B9B8D9CC8FEFAAC89FAA8BECA9FCEC9ACFDCBEACDBEE55A87DBFC99B
col44:   78D69AFA98BAA96AADD3FCCAFECACA78FCADE9CACCCCFF8EDAFAF9DFF8B7BDFCBCBCD98EDCCEDAFD
col45:   7A6B7568D97AA96BA987ABB8BF7DBCBAADBC4EEABEBACAB9FDBFFBECCCE8BCAC9AC9C9CAF59787B9
col46:   97B779A78DB89CC97C8ABBADAABFB9DC9EBCCEEFB6DACCFCEBCBDCE9F9EE9CEBCBAC8EA6ABCF9DCB
col47:   9A4A8A5CA9EC6B9BCE97FB77E8B9E9EEFBBEF7BEBB89FD99BFFE9FD7E6B5AE9C9DBBBB9ADBCACE97
col48:   A73A99ABA8FBB9DADE9897CBBDAF97ABCD9FCBBD8BBFCDF8DFACFEFACA8CBB6CECACFFE7D9CBEBDF
col49:   7AB7AAF799ECA8BC8AFB99FDFC9FDBF8A9ABCACDABE9FEFCAEEAABCAECCCE9FDCBCAADFC9BCBCFDF
col50:   C9A6BCA8E98B9DBBB9BDACDDBDEA98EBAAAACFFB7DEA5DADFEFF8CEEEFC86AEBC8EDC4CFBAFFCACA
col51:   6BA78798D99B793876A7CAE77A8CEB6AC9A8EB895CBAACBD89CA5CBB8B97DCA7CA799CDA99CDD8B9
ROC:     BPix_BpI_SEC4_LYR4_LDR16F_MOD1_ROC10
col00:   766776669A5ACB673747793A87996492A8A664A8649748D5669A44649797849565754374BC587799
col01:   8B97684775555B9D7CA7979D86ADD4EBA789A988B98749AC9474A3897F75BB9E8B7A55777577877B
col02:   5636259ACB9A668656B78DB9896947A84CA98B7877A6AACA8879A99545AA7AC89BDE8D97897B9876
col03:   48C84A7AA87B76A768777B5C96687B5AA88994D89996ACA6B689A66A44C6C9999AA5B5A3B88CA965
col04:   84A27675795486B866A54C78BB7DA68B9B9777889756B959A8C6BBA599AA9DCA6489B48279936C42
col05:   7877796B7BAB97536B754687A7A89986976AC97D998F6399D58875F588997A8DB8C6997787AA7C95
col06:   855697776985599585779899538BB996B5577BA98837A9747399969A6D9B79C7779BA51B69C68383
col07:   B5799389987B89A6A9C9856E9B8BC98B8C77969CA696A5897CBCA6AA78A9C99C695A6B2999D37951
col08:   C54BB87D9A86997865A9C6CA97E679786A8598887884AB6996579B9696A8C9BBA57689745A764779
col09:   97487897AA8A79876788AB85BAB69E8CC6697C87A7BAD996CA8AB9BB99AB5A9BA7A8A773949A97BB
col10:   A888A9726759BA6776679AB9B2AA699AA69A68B87AAA3878F799A98B8A8A363AA858F84749469769
col11:   9946989A9A837A5BA9EA8B6C8AB9A8599AB6CCA5C8B3A65A6A386C8CB8A7899776985997866C6767
col12:   798686677888FA599699717ECA3787D9ABB5D778C66895CC79A79998CAE899A8B999B6643D7A7875
col13:   598957855AABB4A9A79AB89A8637AA867477B76BA9896E96A996B79698AA67BD896387BBC7A7BBC5
col14:   9955B7768DA5ABA7B78C999C7998864D58C369AAA59FBA6764ADB78BA884B7F77A475597AB479675
col15:   63A954874982647C9988E96B78B8B57CD976A856673963A77A357CC75AC3689AB68A4875A998988B
col16:   B7D78A77958AA5648798976979A839F988BB969ABEA79DCA985989B75778BA75B776B89A8998C68A
col17:   4A74365537C475827BBAB9C8A998889748BABCC9E749A8B687A99EA69456B4B599D2958D94D85949
col18:   366866A8987886478757538888987A786596C6C87B578BA787BA988947D3787478A7B568DB956792
col19:   E97BA6757A85999758B5CA77CAB94AC6BB8C88A8BAA99774783C98A878A988687DD9C5A95B9C94CA
col20:   48C97697DBD588B974B8967A98A7BAB6977BE844A766BA984CC99799797B8A9D369558DA4ABBB575
col21:   595498975777A58B9D699AA7547495997AA98697989775868A56388AAAB9A977A6ACA85B79E94757
col22:   5A726B3586A8A65679968CA9955986849C99B998DBB68B7869ABC8C7B79986A9A7DA789848EB9461
col23:   B54749888B6245BABA88859AC95AC6B8698AB8B7DA8B68B56778B8987979B878A74698946A558676
col24:   88959587AB5AA38A99CB88757A966BBB769B7B8C9799AC78A3B894AB3C8A56CB9AAA448A74AD9573
col25:   639658CB7786B4CA66CA97CAB9B7CDE7577CD799D87FC9A77BCCCC9B997C6A99EB79AA7976C97B68
col26:   A4478947ACD9A689A799AAEBCDCC87AB775ACBEBD8CDC9E99AEFD88C7C897997BCAE5B99CAE99BCB
col27:   628BA7B97999B97999979AC999B9AC657CA9999AC886EC98879B8A9E9AAACBA688BBDCB669CADCB4
col28:   A976669889B38BBB69AECDA88A89ADCECA7BCA9B98C9E9CCCEDB5AC69CAA8BBAA47769ACE777A9AB
col29:   B898E9D8B9B4B57CD78CB88996D9D564D9EBB9BABBE979C8DA8C9ACCB9EBD89AB9A8B787C8FA9AA5
col30:   9986B65AC8C9AC69A8CDBF99C9D7AFAB978C998AEBCFEBA8C9FEB8B8A8B996A9CB77A7AA7C9BC98B
col31:   DAAAC8C87AFA999E9DC9788BCBA99998BEE8BC77A9D96CEB9CBCA78AEC8CACBADE699B78B64A956B
col32:   78ACBB9D97BBBA6CC867DECFB6CDCCCBBCDEBADDBBA98AAAA6ACDBBCEAD9DCC9B695CD9C76997648
col33:   98B8CD9C658997AAABD8B999EBB79BDB8C8AA9A9DB9A899B7BB886B7B78CDAAACDBDDAA9678B5FA8
col34:   8BB88BD2A65CAA67D9A9BB66BCAABFAFACDACDDBB8AB8BEC77EC877BCBBCB94BA8E7C8EA86798AB7
col35:   A999C55A957998B98D878CA78BADEA9AE9B9A7AB5FA8B978CCC9ACDCD7A6A6F7DB87BEB9AB9BAAB8
col36:   368969669B889758CC687BB9A6D79BA8ADEB97AD8787CCE5CD68EAACD8E6BCCB79AB78DD69A6DD59
col37:   7AAB9A8886CDCDE99CAAA89A78ADDBBBA8DADAA8A5B8BAABABF759FAE8A99FBEACF8BADACB8967E3
col38:   DBABCB954B9AA767BBA6E8D9CACDFFCCB9DDBDCDDEABAD8DE7CB88EC8CDC6CABEC69AAEB95DCE578
col39:   B9896C587C88CC88DAC8DDFCBAA9B7CAD9E8C8B7AACCB88BCFBABEAEBBBBB9A4959CBBAAC9F7C8AA
col40:   66C98899BAC779ECACA6D9DAFBACABCDACAC9CBFFDACDAEACABF96BC899D79EFBBEA879CD5EA9EFB
col41:   65B878B856CBAD9CDCBDCAAFFEBB8EDBEFCD6E77FED9DFAAA6FBC98ECDB998BD8DBC96CE9ADEBD6A
col42:   E79AB8DB8BB6D9C98CB7CCDBBC8BBA9BAA8ECA79DFD85EABAF69A9ABBCB7BB7A5CA8C8AC9BA9CCB7
col43:   9AA9B74BBBC48B9EDFECDDBC9CDC9BBCDCADABCE9FD9FAEAEAA9E8ECC7AEABAF8C7ADCCEC9CDAC99
col44:   37779A6679DC7DDBE789BC99D7AD9BDCBC9FEAEB88D9BB9EDCBEBAD9FE5C8BF98B9AACD898A6C9B7
col45:   698BE8F97AABE59BC7C86D9BAB89EABC6CF99D8BDAACADBBFEFAFEBCD9C5CE6C6AAAD7999CB4C7B8
col46:   9CAEBC88CACBDBA7B96ABABDBA98AAD8ABEBBACBDBEABAECB7AC9ADADBB2ABDAA9AB697CB9EADD9A
col47:   9E956FC9CAE5ABABDD9B9BECDAA8A8A8CABCA9BDDBBAE8AA9F79E5BFBAAF6DA79BC9BAAFE89BB9AC
col48:   88CD9568B8C56CBA6B9EBE9A9DAAACECA9FC6C7AABCBCCBADC79D8CFC98ADABAD8BBB8BBF89C9A86
col49:   527AB8F98DACD6B83AD8EBCAECA7B9AFB799BFBE5BBDBAAAE8CCAB8EE8CAC7CDA6CA9AA5A9A5AAD8
col50:   91A7AB88BCAB97A8AB7BB7A79D79BACDAA9EB8DDB9E97DD8FBED49EA9988CDB79BFAB98DD9CAC7B9
col51:   36AA658A586789BB2986378C97D689CAE9778A8967E7D968B6D99799D9A99BBE8ACB98BB654698B6
ROC:     BPix_BpI_SEC4_LYR4_LDR16F_MOD1_ROC11
col00:   A8876A9A8969D86B95AA8B97899688A6796865A57373457876692775696553A96B76A34547554695
col01:   A8A896AC88B9B8A8B88AE76894A47676A8665889854793A886577496B6995546666466967537688A
col02:   A97789CA9DC7A7A9998A6879599A9989782A4A7597866987798679766D8965569475766643442989
col03:   AB9ADABABB99A9A97699B9A977A78B7889889B8757B87787779393B7637A85A84855778737686685
col04:   B998A899B9ABD99BB998A998767D27A756779776A38986967787476756597685645665A687647746
col05:   AA7B98B989F9C67986B5897756799886ABAAB658657B758927B6778626686677AA455C5B29644691
col06:   B9B98AAC9B977889BA7D99669A886B9A59A7A369996666AA5796B887B4874A986358646738175A9A
col07:   9D8AC7879AA7AABB986AAB9B48A8A78BA8C8776758885668668A39487874B47CAB45185676757546
col08:   68A57A7AA998B8989976887B957A4889479A795968B7997676B38B779389749976B6837815874575
col09:   EBDA976B8655B4B59A9767697C5A7776AA8999C8854C798988B98579785676AA72673777A3784378
col10:   8A99D9B8AAAB87B95D99CC7667955896896A857B9687478566947878A84A86554762644736289482
col11:   8C8A8CA96CA87658DA9A68B5787C67C6A7A887839787A875984567985968564761B2618841343566
col12:   58AAABAAAAC6AA6BD69AAB8CA99C9B8AA99687A68898865759958514573957852974478658746535
col13:   AA68DDC795D69C8689ABBC97AAE6BBA889A68547A8899C6568697782A57658778877B64649885484
col14:   99BA799ACD797AB9DBBA89699ABB5A696A7AA78A9868A8684A5789AAA86798856874867665665733
col15:   697CBB9988759C997BABAA68788BA9AB9C898889777C49C68998984938BA6578848687886376A734
col16:   979895AAB5A98BA98688A6A9B698A74CB6AABB8BA89989988BA8A776B659778A5787688673964358
col17:   8CA8A9D9A89A6A87E45C67BD67986985888A97BB78A86595A7A5A887749A7766776498A665878878
col18:   CD8AADBAA89BA6BABA4A87A98959B79886A96CCCA8778A7766977A877635668967A8888656878648
col19:   7BBBCCC9CBB958C9AA9B96689979A78CA997E9AC89A65897985A598662A79B98658779845A696557
col20:   BB98999BB8B8D9686CA58C8AA77A869C79956889CC9CA8687586678864B5476B838687858B945797
col21:   B999A69C7897B6877AC6689ADA69795C9AB898BD97A97B54658755587959A87BA767557854672754
col22:   B8A9B89799A7AABCDC9CA787AA89C9AB7A97B98BB88BA774889A78A8859967C8B8866A836656A797
col23:   A699AB7B99D7DA9DA77975CAA6867996A98A9BAAA7A86879B88796AAB8A64856B779688445596574
col24:   BC6B8C998C88BAA899D9CBBAA788A9D8AAB99868A995A696798A8A584A86A8C78743958C76598254
col25:   C9A7BACA88B8A88ADA9A6B98AAE7A7BA6C89867988A87B9888766C6698898A7D99A87929686B9487
col26:   EAA8BA88BCC6CAAB89D898AB9759BB9BAA9BDEA879DBB6A9BB89DA898F95B87ABA6AB8898B75999A
col27:   AADADBC9BA9AA988BABA9A6CB8BA9A78EC98A997CC8CB8AA86897A966BAD7AC8C9868A87584895A7
col28:   AAA5DBC99F9AA9A8B9B8DBADAE8BBABDCC9BC88E8C8AA8B9BE9AC699ABA8BCB8A768A8C89547A588
col29:   ADBDCC9CB8BBDAA778CCA9AABBBCDA8A9D99CA99BCC9DDA98AA977B8C7A999887999898B9898BA55
col30:   8A7BFDEA8D96EBB8B8AAADCCA9A9DB9B9988D8CBC9C8B996AAC9AA68BBBDBC89A9ACCAB59C8867C7
col31:   CBCACA8AAECBB9BADCBABBDCFCEA8ACCC98DCBBDB9B9ABA6ABCAEB8789A9B8BB59A868C9A8B9B8CB
col32:   BBCDCCDAABCEBDBCF99DCAAAC8C8BAE9ADDBBEECCBACAC8CACBEAA9BAC99A8AC7BC8A9778888BC98
col33:   FBBA9BCBABC8D8C9DC9DAD89BBCDCA7ADACAACCAC89AAAA8999BBA8C9788C8BBAC77C9A7B7C5B998
col34:   BBEAD599BD9FDADEDABDA86DCCCAAAEDC9AE7BACBF9E6BBDDABE8ACCC9CA78AB8AA78BC8BBCC9A98
col35:   BCBCAABACBCDAEDEDAEBCAE9DCA9CDCDCCCBBCFD98CBCC9CBBCCA9CBA59BA98ADAC8ACBAB5A968D9
col36:   B8DCDB9E9ABBBA999DD9DBBC8ABBCA7BACC9998DE8DCDC98AC89BCB97ABA88A9A997C89DDC787887
col37:   CC9CD7C9DB9E9BCCDDB5C9CADCCDBDCEDDDAA9FD9AACC9ADDDBBFB8BBA9BB9BCAA6BCA6CAA9AACC7
col38:   DBE9CCDDB8BBBDCBE9CDAACBDCBCCF6CCEBCB77BAB88BEBBCCDBBBACA9ABCBC96BE86EE9AABA76A7
col39:   BA9CDEDBB9ECACCB9B9DCBBC9DDAC9B6AABBE8BAA9D7B9AACDCAFBCBAA9CD788A6999DD6B97AD987
col40:   BD9EBB7DDADDF6DABFC9ACBCCBECBBBEDCAA989DBADEDB7C97BBBCC7CDEBD9CDBEBABC8BBBC89DB9
col41:   DACCBCFAC9EDECDFBAB99BBCFCACBACCCCCCBBDAAECE9F9BDDABA59D9AABEBCCAAABACB78ACBAA97
col42:   7CDBCDACADED99BFDC9BCCCCEBDD8EDADCCBBAEABDDBC8BCBCAB9DEBBCFDEACBB7C9B89AAD9AABAA
col43:   C9B9EFDBCFAECEBACACD9EDBBDEBCAEADECDBC9BBCE9CABBFCCC99CE7AAC9AD9ABDBC8ECBB9A8ABB
col44:   DBDFBD9DEE7F9CCDDCE9CCACBCDDCDDDDFBB9CCEEBDCB8EEDCEDCEDB9D99CEBBB9ACDAACADAA9A89
col45:   DBAB9C8BDBDBFCBABCCDDADDDFD99ACBCBBCDBE9BBCBEA98B999BC9CDCA9C8BAACACBCAABA9AB778
col46:   AACABECADBBBBEDBCCEDCBCC9AEEEDCBFCBCACAACFAADCDAECBAACDCBD6997B8AAAF9A9AD89CC99C
col47:   DBAADEECD9F9DCCDFCEACADBCEBCBCDBCDDDCED9DEEDA9CC9BBCB99AB8BCBA98A99AC899C76BCAB7
col48:   9DCDF9FDFCCCBCCACDDCEDC8CDDFBDACCDE8BCBDBBDFBACACEDDBB997DACBDBF6BADD8879CA9DDAB
col49:   DAFCFEEFBEBBCCECFEBBECBCDCEEDBCCCAEBCDBEEECEEABEF9DAEEC9CCB9CBA99AA9CBDCACBBDABD
col50:   FAFBDFCCEDCEECABBFFCACDEEDBFCECBCDCDA9B9BDDC6DFCECBDF6AB9DBACD988CBB9978BFA6CC99
col51:   AADEBEAE9CCEDCBC8BDDACCCAEE9BEC98CCC96BBBCBDFBCB8DBC89D7CBCAD5D47ABB9489A88799A9
ROC:     BPix_BpI_SEC4_LYR4_LDR16F_MOD1_ROC12
col00:   84152835A9663B739659689195775456987A569B6A67787558776B7588879AA95355465AAA696797
col01:   663437A47588276853769665667AC9799B69844CA897B6AB8CB66A976BC69636795BE9BA88C7AD97
col02:   546597A776B56595A81499A998C489645887D6977DA7946B8A974845AAEB998BA978BAAA6DA666BA
col03:   262476475676569699B9546C4798B6AAB9BA88D64DAABB8C66466A7B9B979BCDCDB879B9C96B6946
col04:   64687A7445952969437AB84A4AA597A96998677A979CBD688BB9AFAA8B99B96A8BD999BB579CBAAA
col05:   47882489A87A9784A2A5A3879AA299DAB856899C9DE978B9559789A89BB69F98C87278C84899A985
col06:   462CA754D4965899864A6D666A9B96AA8767D58A95BC885AAA98A869A87AEA9697B8CCCBB898B897
col07:   47394659767748657B69B8BDBA7AB85BD9759579978BB7CCAADB8BA9BA4B975DBC9B89C8ABDE8DCB
col08:   5478B86586999979899C98E6D9876B9A7B8AB9A8897B97AA97CACB9876A8BA96BAB69A682AA99D99
col09:   98258887596795679B979BA74C577A7895AC2779949887BAD7AFA9A8798B797A8B9679877BE749C5
col10:   565A452496ACB79568AB6C87A74BBABBAACB56AB969B7BAAF7798C869AC79AE8A97BB66A4795BB49
col11:   83778A4611858B7B67CBBAD7D6B88EB8BCCBC9759BAAD7B9699E79C76BF9877688BB76EBACD9A8BA
col12:   377841A578879892586C34985655AD59799659ABA998BC85A9BBBABA8A98789AAB9ACA9987B8AA57
col13:   8823499A67549667A559B687BD8BAB9A76875C5897D9D87AC789667779D7DBAD79EBFA6948B8BD75
col14:   9645997D95778687878789AA85A4AAC7ADEAA6B678989567B97A7AC897876A4B59BB787C75A799C8
col15:   64D84B97868379AA6666898C889B7ABE97977D5D76CB67788DA8AAA8C7AA8A9A865799BA98979AB6
col16:   A585958B3A89C8B979366B58A74AC6956975D698B9599786AA6A89DB699E9FB96DCC6B8793AB8BD6
col17:   A977A6568A9978A77847C95C87798477A65A8867C8C689E8894BA78789ABBB9F969ACE998698988A
col18:   64429165985465C7A958AAA769A7BBACD7A99899BACBDB867ACD4667988A4C67BAD7DABC87A98978
col19:   B9926735579766754998B8977ABA979AC78578B8EB8867C7D3779D8DC7AB7A68AAA7B96999969A99
col20:   7957C6597896B78A57B586C975B7AA683999C9B888899BA7678A6BABCB787B987B87AA689796CB96
col21:   8AA7B579A775A9766576699879867EBCA849CAABA9A9B9979989959ABB7EAC9BA899968D9A9B88A9
col22:   6947A977A898889AAA7886766BAA7A5A9ACB89898799997B8C7C89A97C9BA9DDAE897A7A8B798AC7
col23:   358644956B7886437489BB66978BA6AAC58663AB978859D97AD89A7AA7799A87A7B8BA7D678898DB
col24:   763261537A647674BCA5596788A85AA7EC59DCA4BBA9C6A7C9AB578ABBD8BA99A6778B887D4BA8A4
col25:   B6655757875549869BAA9A876CA969B9C8DF7879C98BAB97A4AA96BC84B99A5BBB9ACB98ECCAC86C
col26:   778A696D975D99A7BAB7C7ABCB5FAA7CBB88ACBFCA8BABE9A69AC99DCBBCB97C8D7AA9D8CB8DD8B6
col27:   949876734A99C9B7E8A8A58BD6D8C7569AFCAD5AA79BBDD89EC9BDADA59CBA99BBAAC6F99A7AAEB7
col28:   98669366D58C7B6B8AA8C9C6CDDCD9B87AE9FB68C6AAA9C8BADACBEAECAFC9CD8BBD88FCADADAB9B
col29:   87A66879B8889A66DAEA87BCB6F9CE5ADDD9D69E7BAB6F9D5BAE8CCDCCDB896C9EDD9ABCCC8CEADA
col30:   97CB9CCA7478A5B7ADBC57B9A5A88E4CAC847C8ED9CBCBFCABCB8C9AEFC9AAE9A78ABABBB5AD75BA
col31:   BD97AEB77C5777A98AD69BBA8BBA7A9DD98ADCBC8DBDAA899ECBB8DC9CF8CCB9BF9ECCCEC7ACBCF8
col32:   778889AC9EA9B8A67CA9CC8CCEDCBD8CADADCD97A788C7BAA6A6DE99BCCBBA7CCF8BBCBBCDACECCB
col33:   6B774A9BECBA97279A8BCA9DAEAADAAA8CAAB89BE7B67C66BD9CDE8DDD87BAAACEC7FBFB7BEBD8CE
col34:   87968DB98A98BBBD9BDB76BABBD9AACC9EEAAA99ABFCFCCBC8BE9DBCBCBC9DBEACA6AAD5D9CF9BF7
col35:   44BEB68779A49AA787AA6BDCABADC9AABBACBB6C9D87BFBBC9CC986E9ACCCCBCBECBBCABDBFECAC7
col36:   AAB8949A77B5BAA999F8ABAAD985EA9ECBCADD99DAAADCAEDCABD9CC9AB88DD9BABFBBB8CCAC9E7E
col37:   95973599ACE9ACB7C9DBDBFCAA8FBDCBA9BABBBDCDB79A89988ACEEBC9ABCDAAEACD8CBAEDAABCEA
col38:   A88997AC9A8B97C9ABB8B4C7CD9C898B7CB7FC8CFFB7BBAEEA9BBDBADFA9BFDCCAEFACCCEBAD9CC9
col39:   C789B999A88ABAD869E4DE99CDCB7D897CAADA9BBB9798BDB8DCDA88FDC79F79EB8CA9ECA79FA8CA
col40:   966B5BBAADCABB97A7FD89ABBCBDDABCAD99CCDB6AEBCABBAF9BFA76ECCCBBBCC98AF9DEDAA9E9FB
col41:   C9DBAAEACD9B98937BCDBD7AACBFAE9CC9BBDAF8998BB9B799CECA9F99BB8A9CBEBFFE9FECBBDBCE
col42:   947BAA77AA99A6DDBA9CED8DB7D59CFACD99CAAEAB8DCABBAADDFBFAADCB8A9DDBDFBD8CCBBAFCFD
col43:   C695ABDBCA9AC6C88CECAFCDCBAA8EDADBBCA7AAAA9DACB9BFCBFCCFCCDEEEFCEACEDFCAAFAEF9CC
col44:   CBC9B9889977677CAA67CA9DD9B9EBCA9BCBBEECBBDACDEBCBCDEBBAEBBAEDBCDA89BDDCCFADF9A9
col45:   3B9B9999A887578ECCBBC9CBAAFB79ECECCEA9AB58DEC8889CA9EDFDCBFDBBCBC85BADBB8DBA8FCC
col46:   499CB9BACACC9B86C989FADD9B7EC8EB9BE9BCDAAFF6BEAE99BEAD9CD99DA69BC8BCBDC9BEFD9CBF
col47:   99A7BDA9A6ACCB9B9CDAAEB8ABAFBFCABBAB98ADCCC98DACBBBBC6F7AB9C8D8DCBAEEC7CCCBD9EF8
col48:   778A97ACB8BAB8B7B4BFA6A9AC99FEC877FACBC8AC7FAFBBCBDCFDBDCDBAFAEE9BADEAFCAA99BD7D
col49:   A69899B99DC5EEC99C7A8BAACDAD98CCEBABBF99BDCE9BEEA9B9DEA9ECEDBB7DE6BCBCB8AC9CE9DD
col50:   B793B98E9BC9BA779AAB9ACECD8979BCD9DD9BABAAFBBBE9A9A9BABDBBFBC9ECECBB99BDD9DBBE9E
col51:   A64B8675957C67BA6B7CAB8997E7DC6BA747899CA47BAC9CAABDB78AB6BB5A9CEAA7DACB8B8759DA
ROC:     BPix_BpI_SEC4_LYR4_LDR16F_MOD1_ROC13
col00:   A643A63556458C7B655768669798549795C57A7758727A183748687B8A93877545467A4834647B35
col01:   2A7775A849696B7D84797BA8589EB6947A6687AC69A96BD89746B4B88B9659964559616788989B57
col02:   9AA9B69A989BB5889898CC976C86A98B75696BA58978847A48A894764A7766729489586B9998A6A3
col03:   877A949859688765C3A7DAB89769E98AFD78A846D7B6A9B5385BA986BA94C8E8AB9C48D389939526
col04:   9CA6AD7A978B889A7A5499B799A9A76CE89ABDB67799C8665B9B39576C769966978A799A975C8477
col05:   BA36ACB59C69B8A667D79AB56B9DA7678698887A869868A48D86B7A5AD46889969465727B5698883
col06:   88CB95C68A6A6AA72B789FACC3799BFA1898A4DC88B7B9B9B979824B53AC99588E694A94778BA263
col07:   598396BDC48697AAB997E9EDC7C98FAA7E69CBDBBE7A8A8EB9B9CBA9CCB5BC7969AA8C657CB8867A
col08:   695A5588C897879C985A69966D89A89CE8A6B78B97DAABDB86BBBAB783556686957798A9B8899736
col09:   D793CB975887BAA67C6A9598797BDBD99C9A7A74CC8BAB96676A886A87785987B8AA8A9877738C77
col10:   56877BBAB69AC797C9CE5B7C77C8AF78B9CEA79DAA8AC5C579D9DBB9AB7739849BC776A866788486
col11:   75BC86BAC6496CBAA7AA8AABBB8894B59D87B2646DE6AA6986438B88779A997A49AAC16A869AB86A
col12:   A6CAABACAD9A6C99BADC8497FB45886D5B79D289A97EB5AC66A747AF4B7A78AD75989A67AC478CC6
col13:   A5AA75979AAABE7BB7B69889F7CAACE99AB5AA7BACAC77BB9698979D75779CA8696998CAE4A87797
col14:   937568886AD9E59BA68B9A699A98A7B66D4BAE9A478B5CBC86B6FAB995D88AA8AA78A9A688894A57
col15:   9A67B7894C996998A5AB8867C99A5D999959A9A8C9B987977C7D8D7C789697B94498C897A658A784
col16:   898A899A9C76C98698969BDAA767CBCDA76DA89BF999AC88B78AB95DA879948D88899899999B6AA9
col17:   87B564569AA888A3A993A5AE9B87C798BB995A7D9DA8A98B68ABAB5986A6E99677B8B6A5AB658995
col18:   C7AA5BCA88B9D89DCEA7769B99989D559964745BEC8BBF98ABFA49AB867BB8AA376925A879665177
col19:   729B7868BAC9759879A79AD96ABDBB85C8CBCA9D86A895A5A66DD749C8BBA398A6767A86546B76D6
col20:   D6C687B8388A898D9B786B578C959797B9AB85CCB998D78AA69C9BC77999A87686A46B526C786773
col21:   AAA88977CBA5989C9CA8AA87ABC1A9A868CA88C76ABABBC88DBAC93C86D9BCD69CBB82678887A457
col22:   9776989BA967B7A9869C6D6587B798B79CBF876A9EA89A6BB94C78A8966C9CE798B8986759B49796
col23:   7958A5A57BC7EAC78978A9BBBABA757C7BC6B83A5BABEBE7BBB4998B96B89898BA85BD77A6A9AB89
col24:   D875975B899BD9BD7C6B6A8798CDAA8FA9A4ABAC96CAA677C89BD9AC89BAA9C8A899C99AB59BB94C
col25:   97769988C5888F6A5A9DBCB68988CABA8AC7987899BDBA99E9A9A7BBAB89D5BB5B5A4A9AA9AABAB6
col26:   C9ADA96B9BC7BAD8A9ACCDBADCEF989B98DBCCC9ABB89EABCDAC8A8FA99AEACA8BDCDBB67ACB86B6
col27:   98A784D7B889DA9CD98BC9E879A878BEBCDBD9DAD9FB9AB69AAC4AD8BA35B79B4B456DC76ABA7AA7
col28:   9AB7878B9ACBBB89CAA88A7CFBE6BBA9A8B9CBACBADCA9C9FCD9DC9ECC9D8AE7CE89E9DEDAAAA867
col29:   87A98B98A87BBA8A5DC7AED68D8C8BECAA9BAACADCB8B998BF77FFCBBAABADAB7AAE8ABDC8C9E7B5
col30:   89C8BA79B7A7B4ED9D9CB8BEB9ABBB98BFDBBC9BC98BF9AAAEA88BBBB9DEB9DDB58D9A879867B68A
col31:   7A6ADAFCABE8B9CBD9D8B9CDB9ECFADC98DCCEADBFEB88DDEFBBBCCCCA8CB48698C98CBAF6BBEA7A
col32:   BBCCB98BCBCBCCB8CCC9998C88BCB89EFACDAEDFEBCADBF9BAEFECECC886BBBCB779CC9BBCDB9A9F
col33:   A8A9A5ACAB8BBE89E6BBEBACDAEB7EEEECADFBAAEDAABE8AABAACAF7ECEB6BB65BEEAC9BE9CC6ED6
col34:   879AA88BB98DBDBACCDBDC9BBBADBF9DD9DC8BCDACBCDD8AEB68BFCBFBD9EBECECAB8CFBCCBCAE98
col35:   B7BC9CABEE68ABA8BEABCEE87D9C98CEDDAD88CBDA6ADAB898CAA8FBDFBEC675CA9ACA8F9B8BBEA9
col36:   7BDAB6ADC49AB89C9D9ADB9CDCABCBADEBABD997D9ABCBD99C9DBEDBBDBDBCBAABFDDA7BFC89EADB
col37:   CD9EB9CEACFA88EDAEEDCD9ECDEAE6C9CF8BEDEB9ED7C8BCFCE8B8C7C89EBCCFB7FA785C799A9C97
col38:   9AB57AF8A9CCAC96DFB9B6EDECAEDFD8CCBBEEDCBEBCDCBBA7AEFE8DAACDDECFFBCEC8ADBC9B9BE8
col39:   D65AB87AA5AAB7CB9C9AFCE48FCF7BDCECEECAD9BEACFDAC8EEBBFDABAAAFB8BBE78BCDBDACB9DF5
col40:   BA77A99A9BC9BBECBBAB7F6CBB8CB7E9D9A7AA8FB8A7BFBB9FB9BC98CCCBDDE98AFEEBC8ABC9FDBC
col41:   CA95EBADECFC9CCDABACBAB9E9CCAFCDCCF5F8B9BB9BCAF9BEB7EDC9DACAAFCDBCDADADDCCBB7CBA
col42:   D9BC8C7AAFACD9C9CDDCCBCF8CBEDF8ECAAE9BC6CEDEBFEDCCCC8EDA9AAABBBEEAFAB7CDEDDBCCD8
col43:   95BCBDCAAABC7CB98BACDCDBFAC7CF7FCEBCACCAABDE9DDDECBBFBEBACCBFCDCAB6DE9A8DFAFEADC
col44:   8AE58FECC9CDEBDBAC7ECA8CDCAEDAAEADBDC8CAAFFB8BFDDAB9CAF9DAAFCBCFCBCCECDDEFFD89E7
col45:   B69B8DDB9ECAEC9C9FF8CABBFEBDCBCB9BEBECDAC9FDCD89FCABF8B9DEB98BB9DEBAABEC8B9E8BCA
col46:   B9CADDBBDBBFD99BAAA8BCCDCEFFD9EDFDACFC9F9EDCF8B9FA9AFBBDD9AAA8DEBCACBBDCCCC99D7A
col47:   8CDBBCC6F99CE98BFEABCA999FEC9FECCFBCCBBEDE8A89ACDD9BDBFC89B8EFEECDCFD9B57B8DCEDD
col48:   8CBCA9ABBB67BCEDC88AFC9DB98DF9AFEE7DCBD89BCB9ABCABBEC8DCDCBCDCF96BABB8E7FEECEB9E
col49:   AC79AED9DCEDFBD79CBBABEBAFD699CFBBDCEDBD98FCDCCBECACEDFCDAABEDBA999DFABDBD89CFDE
col50:   8989CAEDBED8ABABC9C7ACDDFCCCFC9DABC9F9E8BCBDFFA9BBBCDDECEDEDC9AFDCC8ABC9EAEBBBAB
col51:   98887998AAC8ACCDA5BCE7E5BB8BF889A895BB9AAA9D9AAB9B797BABA86D5A8ACAA88987A96C8787
ROC:     BPix_BpI_SEC4_LYR4_LDR16F_MOD1_ROC14
col00:   548876568777E879C997A896B9A75E4D5BB594497988B696A954429884B38925B94577A774772847
col01:   A777AB65C4B6C866A779BA6CB9C8A89887595769A78A977658C679A75989B68B54B8765777C86897
col02:   B8A5499EA777998B78C9798B8865779AC9B9879B8566CAB986AB8A976B8B8899678E9C3416765675
col03:   8679D95668E9A6CAAC7A89A96CA799A9BA879B59C6BA9398999C88A58998879D36A6797568A75C68
col04:   6657999998D78A458BAC68D78CB8BAB6776987A9C4A895CA698D8468768968598792ACB656956858
col05:   766867B56AAD49B75A6C9CA9FA95AB786A96A55A888B899A799B57AA78BAA34656895C4839989683
col06:   6824396C89965776A87BA984C9A7A48DBB7AE659A8788C9959976B79C48A597845988AA378A68864
col07:   758A88B96299C9DBABD899C7A7A7AB78A997A6998BEAA78ADC8A7586DBB9976778899457A87896A8
col08:   A8A8BABAA799ACB87CAACABAB6F6B888B48B9AB6C6ABE859967899BAD9686999B97AB958A878A475
col09:   7597B896A7CAB8A78D9BCF878BAD8B98BB978BAB468C8C9896B8B49373C8CA8754BA78A58749AC76
col10:   9498B88B7BA788CB7B9AECAAC7998BBBBCD9AAA878AA78CA696AB899B8C7B58A758ABA78C778B445
col11:   B79B78795AA7CAB8DBA9B89C7CAAAB87C9999895798A57539AAB7BA9A7DE69A89B6589A8778B8A6B
col12:   967A3A8786BCA58CAAA8E9C8CBA8789997A9A9C888C7388949C76988C8AC7AB8B79A3677977BA464
col13:   478B98C8B53E7A77B289B798DAA8B3DC8AA4AACA84A8BA7AB8A8DBA56997C679787786A8768A68A6
col14:   CAB5A897AB98AA7B9BD8997899BBA8D8A8A9BBF889AA77987979AB798CB9B7A88D9866C8996CC5A6
col15:   AA8B978CB77DAAB7BEABB989A9A689B5AA7E2B9AA8CA89BA9B71979688C96B9D689639B6B3788834
col16:   7C8995799A9986ABB79A47B88DC899AEA8A79AB457888888E8B867A977AA8B6BA98A8C787B76494A
col17:   69C7887AA7B9994866A7AA7F79A8EA8A7D8797998A89A999AA745692C95C7BA88577889541977358
col18:   5486D7999A7D89999868D9C7A7AB9CDBE8BA94B9848A87CE95987878536A7788CC678554A778A789
col19:   9BA87776B9A94B9B76A989B8AA9AE8B88BB88A885685AB8AB7999B68B9BAA8A99688AC78759A864C
col20:   9C5AAD7AADAA8E985EA989B77879C7A995DC8CBB794D5AB676BADA7A66888A7556869A7C55B59479
col21:   A49C5A69C9D9B6977CA9A977989AC6C679BB697D6B8C7448BA585B84A496A96496C86B8BA8B765A4
col22:   59AA8788ACA989BA9BDA9ABBBD7CCB79AC9ACA9C57895A67E968DA988AAB5A9B887A88B964796591
col23:   99A8ADC48A863BCD69E9B7D78B89A4DA959BDAACD566A7B9BB784A9A88746A48955AA786689B7694
col24:   49CB95B55A5AAC48B99898B894D9ADCE987C95898BA77A8969AAC786BC8ABD7AA897974666A5B948
col25:   8D6959C8C97BAAD7C5D49478C8AC7BC7A7CBA6BB6889ADA79CB998B7A587BAA95B7A97DA89BAB6C7
col26:   9C779ABBDCCD9CACDB98EBC9BAADDAAEDDBAE4D6A9DAD8CCBB5A7CBCBCBBBD8BAAB87ABA99BA86BB
col27:   9859DC979C89ADD7C88BC9C969959CDAD6C5CC8CDBFAC9ACA8DDB99B977CA95BCDC8B8BBB3969BAA
col28:   5E9EDB9CA9B5EBCBD9CACCCC8C97CDDFB69DBADA7A8CA8B9BABABC99C7DBADAA99A7CAAE97A87AB7
col29:   88F7A9B9ABCD8AFEE9CAFABDFBEDDFB5B999AC88DFDBB9BB9CB9CC88ABAAB8A6EB79DAA9ABA97AA7
col30:   9BEA8CD9ADA8A7AB99DBD85CEAC8AA7AC9DBB8A9D9AB786AA8EB96BDAABAEAB78AAFA9BE8C9BACBB
col31:   C97B9789BD9BECBE7FEE79ACCCCAADBDCABD99FECB899AA9B9BFAABF9AEDBE8ADB9C9ADEAE9ACDB8
col32:   89BACD9DBA8AAAB7DEBBC9EBFEADA9ABDD99A8CCCFBEB9C988DFC8BCBECBDDE69C8AB9E9BC9E99D9
col33:   A97AC9CC89BBABE6BEABC7CAABFCBBAAC8C9AF9B98BDA8C5CF7CADABACFADBCB99A79B88BA9DD77C
col34:   CDBDAAB9ADCACA7FCD8DBCDEFACCCFB9EDEE9ADED6C9FD8A7BCC9EBDAABDABF8DE5BDBAB988AEBBB
col35:   ABC9EC8FFCB7BEC9B7BAB9ECC98BBAAABAEBEFEAFD8DDAEBABCCAAABA9ABB96AB97CAABDAF8A7695
col36:   9AC8ADADAADB9CADBCCDAFABA9DED89C9DCEDE88ADBD89CA9ADC79ABBDDECA9BAACE7A8DBBFA5AD5
col37:   DAACCADFBB898FCF9BFDBB9ADDDBADD8DDFDAAEEEADBCCDBDBAB9CDDC8ABBBE97EBAAA9CACA9BD97
col38:   C4CEA77AEBCACCB9CEEAACCABCFABECB9EFDEADFBCCE9CCF7DBDF9DEF9BBCC9CCBBAC9B9DDB8AAEE
col39:   C7CBDEFDBCAFF5AADBF38CBBC5EB9AFCCCAD8F9ABBDFBADACCCAAD8DCAB9E8CB5FCBD8DABDD8CBC8
col40:   9CABFED9BAAC99CADA8FFDBDFAD9FCBBB9CBDAFDEABBBD9E69BABBCBAAC9BDCCAF9EE9D5BA9BDBBA
col41:   CAFA7DFBECFEC6CEDBCDBFCCD9B9FDDBABCFCACDEDBA9C9ECAFF8FAECDD8CCB7A8BADABDFD99C9A6
col42:   CAABCDACBF78DBBEFFAACFBDDACBFEFBDDDCFFAABDDFFCCDDBBA7F7DDCDD9D99B9ACB6CDAACB9DD6
col43:   9BCCACDFABDDDBDDACDBBDEDDBDCDCFFBBC8EDA9DEFAFDDBC9DBDADDDEFEBEE8DF9BEEBBCDC9DEDD
col44:   A9BF8C9CAECD7DD99CBBB9EECFEB6EFDEEAEBCCFFF9EEBC9BDBBFBC9CCAECBD9CB8ACFDBAAEEB9F9
col45:   C8ACA9D78BDBAB77EEFDAEE9DDFFCFADDED8BCE9EBCBAAC997B7E9CDDCA9ECDACCCBBABCDD89B8B9
col46:   8CCAC8B9BEEC7EE89DDFAFFCDDEBCCECABEAEBFCDC97CDFDBCDDECA7D7F9CBEBDC8DC9EADDBABA9A
col47:   ECFFDFFECCDDE8FEBBCA9BF8BCCCECEACDDECADAFECBEA9CCCBDBBCBEDBBC9CDDBFABAEBA7DCCCD8
col48:   AA9FDA8EDAAFFBAFBECAECBFBDFDBFEADDEEAADEFBECBCEA7DABEC6CC8EABDBC4CDBB8BDB9B8B7D7
col49:   E9CDCBAEBEADFBBEEA87BCED9EEFAFFCDCB9FBCFDAEFDCFFDD9D89A9ABAC7CFC9BBCFBCCEACD9ECB
col50:   D9EDACBBCAEFB89CDDCBDDECFCCCFADCFECBDCE8FFBFDAFCDDDAC9BCAEDDC8FCBCFCFACBC9FADDFB
col51:   A8768CDFB7869B6A7EBAA9C9BBE9BCCEA4AF8D9AF9CDACE6DDB7BDB78D58B79B9C99AAA9BA8E8889
ROC:     BPix_BpI_SEC4_LYR4_LDR16F_MOD1_ROC15
col00:   936944495863B865687DAA3A8D565DAA975C66ACA569CBA87ABCD68B8CA7968AA99DCAC98979A7CB
col01:   67869596A86984E6B878AD9EE6CA87988CA8D7ABDE7B8BB8A7CBB7CEB9BCACBA38D96BA98ABFDFC7
col02:   87779778976E4A57B95928787DA5B7768ABC877BACC9E95F76CDAB87DB5BCBA99BE387A98BD8A8CD
col03:   B5B9A6CAAB77A6D9547AAC69B8BA6AAAAB878767DC97956E8BBC9DAA8CD78B9D95DC7BAB9DA7CB48
col04:   999699C895756D999B827AE78754959799794A6F87878DB88B8979DC4CAAA8B8963D8587CB7888C9
col05:   9753877956887669A985B99898BDEAAC9937EAA89A8A99D1CBB998998C77A9B5CA86B768C97F89A6
col06:   AA347BB825864676C9699799689C7BBCAAA89B9999658DC9B9FBA9DAA87CD6CC55BBDBB648678AAA
col07:   995D634895D8B6778DB6C76BABBD75AB9B79BBCD9F8CBCBD9968B7FA98C8F9BB479BC8C58DC95DA7
col08:   D585777E64B3ABBA67B257CA685669ADBACA6A59BABBDA8A999FBE97ADDDB59B996DBADCE9EDBAAB
col09:   B55B53A644BD837598CD66D788CB8B7889937D9A4FFDAA7B8B59CA8ACADA8959EAAB6ABB7B9D66B7
col10:   7358B963E685A989895BCA5CEAD5CDA8ACA6DDA9BDBBE598D8EBAB98C9BDBA687B99A69BAF8CA768
col11:   6525298B69B4B89BDBBA998886A8C66958A9E57776BA997C97ACACCA2AACADBB9BEBD9A79C4C669A
col12:   5878BA7866A7B86856966B9799BA846B396998A7AB989BA3A98A7C6987C7B8A47C847A69DCB74A88
col13:   9EA7496A963D887B84A877BD6BC7BCDAA7A8A877DA9BBE9CB99789EC98B9FBBCEB8EDE9CC9A9A5A7
col14:   2652955752DC581845C9367B9B897669CCBB77D7CB8CC8E99B876BC85EC965B9E666C568F4D77CE6
col15:   3788895954839843297949B66898ED7C56B6DF889AE78DD9AB9EBAB55AB47CB89666A66BB76C9ACB
col16:   8551897A78478A77A76A76A9A984897BEC48D96B1DAA8B487C8777C9DA88DB8D67B77289D8555D78
col17:   C39766B475958979B76A386A6ABE7B698B6A6A4D9817AB858DC76D65C39779DB665BB5EAAC78BB95
col18:   B5674777675B59C998A5B9349755BD976D5A9CA4B855A9B968A67AA589B9AABA98A9AEAA463A8B8A
col19:   D4C9425673A6BA7B7CA8A3A8BA99896E67BA98D578999C7AF7A898CBA79598A4859BB59AAB7EA9A9
col20:   127C93327797394666B978D77879899C8CCACA99B67D9BA55C7A4BB7A6978A87A77A6ADD9AB4B7B4
col21:   5451585526A22B47A4B94877A6BAAB869AB49C7996F69C57AA5A8999B9D9DC6769C88B8D687B99B5
col22:   5B74656457299D5577629D88B8C98789CD69899A4A85A69978CB9A9AA9786CA59776978979675947
col23:   6833788466292878A7DA978938CA6B8999A6A98A6D64788684598A99859675798B68B846C9674AB4
col24:   19811764973A7687789A54785882616BA8986AA963A3969AF6684599897AB775A869CCCB7AB1798B
col25:   84365769B55D5456C7C7F69CAB7B777799556887BA888B5946A2BABAC45C3B6AB8A8C6AED285ABB8
col26:   B837887A9FB775B9BE9A5A7D7B96189A576BA9C73BC9AD9FECD9B999AB8D5E96CBC5B8B8A7BCB6AB
col27:   62C789187691BA85B756658B37A8D8A6A65CA57EAD7DCD6D8BA6E78737A8C9D9A94AB9CB796C7596
col28:   9C4969A735757A768865CAA8B97CB6A6AEABBAAE68DCDA59B96D9E8EBDCCB686669AF9888D837D6B
col29:   46686455A78498799997888ED8F7CAB77759CAC9DDBA87BDDB9AAC966AC9CAAD899DA76AB88CAB5B
col30:   995365968A9B458B67ACC76B7C6AEAAA9978BAEE97779ABA76B899BBA899BAC59AA6A85AA75BABB7
col31:   A8A66A48845918676AFA78ABA67F799CBD8A93BAD88BDAE77EAACC9999BC9F8CA8CBD7DDAC589DE9
col32:   73897B84A7D749969B5574DBB9A6C399AE5A6A7986DD959AAA67FBA888EB7F89AABE8CC689B8C991
col33:   77C635377977B68C8387965D9685AB9CAA8C98BB3CACB7B9969379ED7DE6CAA872B818989DD67DAE
col34:   7A965796A8A3865D98858CA78B8FB78ABCBC979F8A89A7C899DC9A95B8CCC56B59C95669AB8999A6
col35:   45989ACA9B9671A87977B8DBAB87B887CA756AB797C798B9AA7BF98BB99BBAE6D8C9DAB7BAC9A6AA
col36:   9635A68A7DD7679E3467DD394B8787B578CB8BA787ACA798CD8599B5B89A89CAC8AD766A7C85A9D7
col37:   4585AE5AC7A49976A9E6CA99C99975D79D6E88CDCC76A77A5946AFA99CBBABAD6AC86BB7C995AA8A
col38:   7556657668898839919A96AD9DC9A88FCAC8A6A687FABCA9CBB788CBFB9EA98CB98EBB76AB87DACA
col39:   151675A385B5878A93B668855B9495B9A8BEB9799C4B9CDE97BA5AB8E8A7CCB954B7C99CE8DA788A
col40:   441867996DAB9895777899AE8689DB665C99A688779AA8C5E59CCBA9A7ADCAD3869ACAB79E9A5F9C
col41:   484AB9998A7BB63AEB6A9AEB677DF4C89889F6D7CD779A8CC9A5AABB9CBADFCEB96AA3ADB77AAABA
col42:   8578C676B17A76A37C99B8967968C6BE7839A49B9A68ABE87AB9C9FE7C74C869DB9B88D9BEBAD6A7
col43:   85B868A87CA7CD76B973AA85B56F9B9ADEC9BDBEA6FACDABE89BABFB9E9AE8A788CB9EACC9EA4B9A
col44:   6597A7A964DB9982B896A7469854B67BDBC9CD649D8CB8B8BAC2AECA6BA6AA95CDB68D9AD7A7ABA9
col45:   79A52951A8C758759CBBC957BB799DB8AC86DD7B8CCADCAAF986B6B58A55C8D89B8D9C88BD78BECD
col46:   B8843687E579C7657C6B98C47CAAFB869C99AAB999587BADACC78C8CECAD668D9DABBA5979ECEA8B
col47:   7958979B8589B786BB7CA9A5A8988B7DBBA7978DA8BE73C6A5ACE98C977BBC976AABB98C7A98A4D6
col48:   941768586A77936556C65B68569B8AA99CA77EDAA5AA6E55DBB9AB864AC9ABBAD9B77BB99C99D9AA
col49:   669BABD84B983B74897DAA88D6DAA888BC6C8C64BBB8A78B67D7DAADCCA7AAB6AC7AACB5ACA7DCBB
col50:   B4548A4D975AA8966AA9A8DAD99B67BD8D8989ADA88AA966DCFC8A9FD6979DACC9898DD977DBA9BA
col51:   78386684695B74878B45C578D18596728B7B64697566177744739F96B9D9BA98836658766D996495
