ROC:	 BPix_BpI_SEC2_LYR2_LDR3F_MOD4_ROC0
col00:   88b547a348116689da77c47576489a577b47ca955877799897dc9c979856a4752843657478873933
col01:   76a3986849787b48a7ba99dbb5a89bc7698869d858a6ab6fcbd38b988baa8cd79d689616ab4498ac
col02:   874468788c96a746779589a98c8cb9ca9b49aa6a56986bd9cbaa428b97cbb77b8d9f7789a9985865
col03:   7786799699676549b9ae7a5bedc8abccab6a99a94c97676e989daa98fbbbd9b9bb656a6a87abc732
col04:   6ab6aa9578bab9c68b7787875e879a79ab6a6aa89da77c3ad9ab68b8a4bcc9bccfb88ab797a6b9a6
col05:   a48946685aba77ba99b4aa99958476dca8ab8677bb4abcb99487887c899b997ba8bba77998962594
col06:   8956478ba6d75b875aaea47b99cd7a9ced899da7987ba99bae66a998a9799c8ac776a7b67a53a6a6
col07:   3862887a6a8a6b999a6aad798a8daaabfe99878a8bbc89a9f9ab8aa58aa699a8a6c887bcc6a6957c
col08:   77a97878ab68888798b854dbb86ca67bb6598dfecb9aa897aa98ada8b98ba7aac6ba8abad8697876
col09:   4d298a6d99a8a77a97dcca7c896ca5ec6cad98b7fab69ca92a87a48d7abdc6aa6d999eb6ba66baa7
col10:   b545697a5966baaa8d8b5b8ad9ab78bb999ca7b8a7996ca899bd7a8ad887788894597abc58fda87c
col11:   5697b987797978888d76c7b77b9b549aabcb8b7c9bcb789aa699978789af79b7ab9765877969795b
col12:   9787b2ba79798855bac89978bab66a88aab977dbb5db7a8cc5cbb6bad8a69bf98977c885b99a8c68
col13:   887a87aab888c5a986c7c9c6abb7d78999a8bb9a9acda8dd9bb988898dbb76d8874a97b6c694b767
col14:   5a6c8878888386ac672aa99e89ba97ba7e989c7c999cd87998abddab99996c899a8b596ab78c99b3
col15:   8877a9776948948b6498879abbb87ba8ccc99979b68a8b6999cd8da9babbce9a7489989c78767388
col16:   875a97768a99889a7aa967a98798adb67989a9b9f685bbccb698ac7c7acc8ac8db7989c77f6696ab
col17:   8aac8965885a9ba79aa9cbbdb9dab9a9ac96b57ca95aca9cba76b8996b8d797a98baa67a85a9ba66
col18:   a1a489da988788c7ab697aa579b98bc478b949baaa9c9c966a78beb68a7a78a7c7a79a678956bda8
col19:   785a688b95877a98588a6edda7a8f76c8bbedec4e5cac9dc9bb98a8ca7bba77a6ac8b69b96987a96
col20:   67a997a97ba795876a9a8aa79caa87a999aea8abaaab779a56abdb9789b8cba7b784cbca97b76756
col21:   7769b8b9aab9779b99799a597985bcb8daa98697be8a8cac89ba86bdb795eb7c646c88c8cc657b77
col22:   7769876376869aa78797986bd9b9899da7a789a9bcdcc999769c7989db99778965a68865856889ca
col23:   8ba78b9889779677766dbda89aa7b2679b8d8c7c9a7c9bac9aa7acbbbaa8ea65988b76bb99866998
col24:   96797c687b975c6794c8bab69aba989c8bac69b8ca969b7998a9697e8cc8ba7ad6a6b8958889d846
col25:   58bba97ca8989bc9b659ab9a678dca7887cca8acca9adddf7cbfab5e897a7abbacd878a87b469788
col26:   a89c6cabe6cecbc9a999cb7dbcb99fea9cadad4549c8fc8b7aa78cdac6aaae8ce89cbbcb7b978ba7
col27:   98ba89b8989bbaa85b97aa9d4cacdcabaabfbb7bdcca99b7bcccccbac98db9b9cd88cbb8a967aa88
col28:   aca8aab6c973aa8babbb8dcabebc6cbbeacbfaddb88aac89ca8b8fbccc8dcaadbd9db8987b99a9a5
col29:   ba7b9bcec9ace59c9bdbcbcdceefad8aa6b7ddbb9cafebc9fdca9dabcb8acab97bcbb89acb8b86a7
col30:   947aabe999b99bab9da8aacdbcff97bbc99b9bba9ab8bceceaabec998b9cddbbdecdea7686a89a65
col31:   99967b8adbb9c9adbdeab7beedfebdebdec99baabcfbbacdcbcddba8e9dcd9baadeaa9cacb79c8a6
col32:   cb8aaa6a9998d9bae99baec9aaccdbbedadaf8acaeba8b9dddd898aac97fcebcbbebc98a9cec6c88
col33:   9bbd996e99898bc9dda9a7b8d9be9fe9c9adbeaaedde9c9bbbf9bcfddb7fdc6ce67bcbcb27a7a5b8
col34:   6ed8cb9abacadad9ecbbbbfffdcc8dab7ecdac9fd7dcfd9da7c9ab7cc9b8ccbdabeab7bbabb7b9b8
col35:   8955a8b8bb8abcbbec98ba9bab5afe7beaacfdebdd9c9cdeaaebbdbdb9eca9bc8b7aa6fcabceac65
col36:   9cc7b8cbbbaaab9b888ccb77bbf9dc9cca7eddbdbe7c8d8a7b9bcb89bceff8bbd6f8f9ad8ba6ac32
col37:   6bbccbde9b9bb8acbbdaab9dceddeb99beafcdbdbfbdbccfdbebbdcbb99b9ca9bee9bbbbeead98c7
col38:   87ad9bbbab9789d9fcabc8dbfbd67ac9bacbfc9fb6bddcaccbd9caafddabbcbcbb8c8dbba98b89ad
col39:   88c8b94a8c9c7c9b85acaa9b7ab8dcffcfccedcca9aade7eabcfb8eafacba9cbdbadaaaec6dc9a78
col40:   acceababcbdcba7acccfeacdc7ecc9edeab9ddbaccf8bd98dfeaebaeabbf8cabff9bcabade8dabb8
col41:   cb9bacccbfdba6ba799cddfdbdeabddea8ddcdeebffddcdfbabadaaeabddbacacacaedabe68b7dbb
col42:   bccabbbbdc9b9edcacda8fefdcbbcedebb8dccbac9bccbddcba99a9d8fceac77df48c6aaba5a898a
col43:   deaaaeb7adedbdfacbccafcfefdccc8cddefedeefca9f8ddfcdfbfe9aeefed899a9cdbfbb99abc68
col44:   9cba9cbc9bdcffbbdeaddbcd9cfbaedaeafdfadeabceeccb9eaada9dbe9cc8bfb68a8cdebc8c7c96
col45:   ed8eb9cc9cbc8fbafbffdecca7ceacbdb9fddc9dedcdadccf7bcbdcfa8dc9fadebdcdcad7bacaa55
col46:   edaa8bbfb6acd9ecaedb9eebb9eabacffceabb9debdcfceccedeecefabbcadd9beaeaa9b788998a7
col47:   ad9becacdb8d7dde7faff9cffdcfccfbbfacdbfecefffb9cadadf99cccabcf89bdaeadb9facb86b8
col48:   cab687cfbfdbe9a5bda9acfcab9eafcdccfdfbdcfdbbdebeceabfa8bacefcf9ba9b6bcb9fdb89ff8
col49:   ecca8ddcbba9b8bbdbaabebebceeeca9eae8ecafdffaffefcbadb9cbcdccbbe7bda9baabcce9ffb7
col50:   b8aebddccdcbe9edeabacf8b8fbfdbcfdfefcfddebefcbcbccbdcebefcab98edfdaccbefabbabae8
col51:   96789db9ca7cdbab8cbdadadabacaa77f99d99b88bfab99c978beccbacdd9aaa9bb8dae7b9bb7b78
ROC:	 BPix_BpI_SEC2_LYR2_LDR3F_MOD4_ROC1
col00:   578895965b698667176ba8385a85a8bac68799a49a79c688bab25676b7988997896ba16887897345
col01:   9aa73557397a789947bbd8a7b5b9a9a9b8a99d8babc997cc9c8cca97ba94ca5aad99b9aa8769b976
col02:   935a6a7988b677d38b8abc97bbb7cbd7bbbdacaac68786a6986966b5bcbad998bb9eea6687875396
col03:   b9a9a98a889b6d7a82a66ccb9d6ad9abb9c69cabd77eaaaac987de5878958bbbba8fbac476844567
col04:   d98b6ba9a55db8cb9b88787b9889b98e99eee9d8ca9aad9b6ba89b7a77985bb9a69579a964a47894
col05:   3969b86dc99c68db668aaac3dadfbb8ea99aaa88a6c68b278cac77b9c5987bb665498aaa776ab877
col06:   9965aaacaaac8a7b9bca94a6b897a68a5e9b69cfb9a78a8bcaad96aaa9678bac88b889599696b461
col07:   b87a98a98598b98e86699b57b479bacb3ba9f9e99babc699bd78c9699ae9deba5bbe989766857897
col08:   a99a84c958a68b9c8588ba8b9c77acbc9c8b9689996ba978c889be799a8a8a8c77b67a97673a7399
col09:   3399a58dba69f748a8a8d99c9bcccbab9b9eac9988a8bb9c6b96bb694c999d7bcd8aeab776ac8726
col10:   797597ba955b9b999989d9b98bc976a79d9997cabc888b8ea798baac7adad59da9bbbc8cd8b969a7
col11:   74a7a99973a6a65a89278bb8bbbd99abb6b9b79bc76b9b979acbc6b889b998b6a7a7896a48766c93
col12:   989b86a599a8aa7b9898bb89aaa8b9856c7cc688a968cbc7c9999b889867ead97889847962379984
col13:   437d987375aaa68b89755a6899abaa69bacb7bb7a67a99acaab798ab997b9c7a79a7acb99887b758
col14:   4a738b6476d97868b67e8959fb9a96aabdcc9a54a9caab79986794a87a6bd89ca7799b87ba686c53
col15:   97ab7c5976caa89c9657abcdc7abdb7dacba97cce9d9a79a7d69a9d7bac59ec9baaa77887d7c5671
col16:   a985644aa8b5786ba8da7a597bc587b9bb7aec6bb86bafd69dfbb79ca79a787aaa94a8ca85a59ba8
col17:   587aa849cb67a758986ab776795bab8bc857a9986998cb76daa6d996fbaa4a7b468686aa7669aba5
col18:   b6a67967ca9b8498b8aacb6a69687d98bb7dd7cda978c9e7fbbcac9aa8ab75c579798a75a2789a9a
col19:   8b7c18c7a97f669b9886aa9c999abab8e86bb98eba9cc6bca88fc9bc7a87abe88999b7759b4b6c63
col20:   569b7676a77ca89aa798989ddaa9b857b7d9a7878769667ca999987bad79ca6d6a99878a78989889
col21:   786aca966a746a9b999886abe8a9ebab599b9ca9cc5b99bcaa89ba799a9cdbada6b948b88a995879
col22:   657a47a9e97d9aad769aa69ca988e877ca98ada5499b7a69b8bc69c77aa6aee49b7d8ba677a85c68
col23:   67a6889a86878c88b9369bb9bba7a97a8bb9a9968a7cbc6ac66b8b988aa98b95ba99dc98a9689778
col24:   9d5987bd8c796c79a8a7cadabb78c87aabb9b7ac9e9788aaa9be9a997989a5fa8888cb6367695a99
col25:   ac477b849ca84abbb998cb97b98f9cba8878c995bb76c997acaa6cbadd9abc788a79ac8c95cb6a55
col26:   a967bab689898be8b9b9acfbeced7acc89bba77cbabcbab8bdc99aad8c89ccc87ac9c8bbbaa8d99a
col27:   a86d7a95d7c5bbb8ac9bccefac99bba7bcb9b75baabeec8a8bc9d8bdcbaeba9dab9bcecadc8e7aa6
col28:   6bcc69adab97bba79adbcdbc9eaddfcbbebdab5f8bfe9cdad8baeceabeebb9c9a79bb6588a58b686
col29:   88497c9cc968978abaccaa9bd977bebebcdcdbb9cfddb499cccc9f7c9bebbcc9998989aaa9d9b9a9
col30:   8aa69ca9b8abc59abcbbcdc9bdec6a898dacddbbac8bacabb8bcacbacba9bb99bbbef9aa9b7b6de6
col31:   9abb8bd8d77db8be68b9bebbcecbacfcca7ad8eeecccbbfbddcd9ebc99acd79caada9d9c8eb8b8e5
col32:   d899799abad7dac89d6bbbbaebcc9abcccdbcebc99d9bdeedddadb7edbcaca6bb9bacbced96ba865
col33:   99cba9a8badadec99cab899eddebacce88c6adffc99dacaeacfdf6b8ca8b7ad6ac7a9c98aaabdaa9
col34:   aba8cb89c8aa98bdbaf7bccbd9ca97cccffbcaabdea9caada7c8c9ecacdadaadc9d99be8bd8a8d69
col35:   baa9ceac89daebb79b7c7bdeced89c9bafb9ac8bfecfbaeabcfedcbbbaddcbdc98bbcb6ea8d9b479
col36:   caab889bdbbfccefc7cb9dbdcbbafdcbcfabdcdecde6ad9deaad8cd5cb99fce9ebbbba7dc9c6ebda
col37:   8a8b97ccde8bcddaba9cac9bc8bcdcadaaa8ec8dccdccaeabbc9dd7dedcccafabdfc79bbecec677a
col38:   9fdbaaadfd8ad9d8ddaacbacf7aac7a7ffdecccbb996caabdbdeedebbfbdfabaccbcdba7a7ebb965
col39:   ac78acb7ebb7cbc9bdaebaeeded9b9ecfffcac99daac9cadeeceba9aefdfccecdcd8eedbdbbcabaa
col40:   a99bca89fbcd9dcaba9dbacbb7d6c9adbc9acddefefacabafebcbefaebbbccafbdcbeadcc7cec677
col41:   b9aa9cebccbeb977aa8ad79d6a6ddea9b9daf8cacb98bfcd9cbababceb97eeeec8a6a7cbdacba8b6
col42:   597a99adcaafdbbeb9d475acd96a9badbbd9cbdbcfbbcccd9aa9bcbabeadcbd8d9c8bcdc9c599caa
col43:   ab7bcceeefcad8a8bbb9be8cabdebebbbeaaabc9ddf9ebe9cdcecdadecbcbbcdbcebdbab99f9ab98
col44:   bcb99cbdaca95abbabedefecd99b99eafebccbcfcbbbd9abecbdcccc999dafba9c888aa8c9c9a998
col45:   a9acefbb8dbdca9baaa8beba98ebeba9cdfacbdea9dd9e99ceed7dbea99dbae9c97aaaa9b88897b9
col46:   79c7a98a8bbbc7ad89acbe9fc9abdead7ddaebfbef9acbd9daaccadefabcbdbcbacabbbbd9dcaaed
col47:   4bb9c49cc9aababacaadabdacba9eebfdebdddfeaaacdfcab9effab9affea89cac8adb97ae579b86
col48:   a6babdccc9c987dc999acdaa9bc89fca68bdabfb8bcacaadaa9ec799db9fa9ccbdbcb88699968ae9
col49:   7cbcba88a99a9b79b7c69fc7adcadaaecbfccfdabcedfdb8bdccebadfebdbdab7dbbeca9a6c87cbb
col50:   758c9a8adcecadaaba9aaccd8b8e9deafeccbdebdfbacbdbafdcdeb9becef79d7a889abbb99b57b7
col51:   8767b8d993948d69595c66a5779879698a8ccac9a758fceb7dd5da89a85a9bcbb892969986b49995
ROC:	 BPix_BpI_SEC2_LYR2_LDR3F_MOD4_ROC2
col00:   7967738775896698b55a55585a7e69a6b79a513498547571ba6788a68887756bb4857744a7b5afa1
col01:   65598a586bb9a748647ed6b88d5c99ba7aa89a9999bcaf6886aaedc998659a6d96abbbd8c8d476c8
col02:   87c879ba86ab89a98957a66a9c7cee99a864ba7aa78aa993a6bb94a9a9ac9a6775aa5a6756797974
col03:   4b785b18a546a566d97da5b8798c97b8bca9cb8858da9789cea897aa8a656aaace7a977ba59da669
col04:   68c97467663aa69767ab1a8c49969bbbb87dcb67aeb98d679a9b7797dabdb8a86b86a898a9b48b8c
col05:   9676775a76879799abb869b9ad78cb89c78baa6ca87a68a9caca697a7c6b7a667279a8cbcba3968b
col06:   76a92c93897585868ab8b8ba86cbccc9f9986ea9b97b66acda9ca7aa8a9b9a98db976a7285697a97
col07:   77acaaaa6beadaa99acbeafdecd8ac97c8cad9abbeb8b1aaba798989da8c4b7a8a999867b9b75a87
col08:   79816696697c47abcbaac8a6d79799e89da8cbdca9a99c96da7da88dca9a87dabc88a655aa7c65a8
col09:   b8ba38b68b9cd5b84aaa7698998899abd4ab9aab75ac7d9acb9f8a9aaaa6e7c7997b895a87575956
col10:   43695ba55657987857c59b96be99cadba999a6f8ab69badd98abb73bba9a9a97b7c69669779a8a79
col11:   58b675aa19c8989ca7b8d78c9ae7ab65fba9669b89a877bc7ca888cab86ac7e85a87a975635a5ca5
col12:   c19864bda77b848aa627a966888da9b87ba9c7aaab9a78b86c8cd88a8ad989b988a89891a4ab7868
col13:   a6a9a969949755b968a3788baa99b98988a89bbc478cd87cacc48aaba96e89845679a96c778a866b
col14:   d5b5ba73698c4a9ba4a7dbc67acb9bb9ab89a79a8eb887d777a5cff896f88797a738ac8cb767879d
col15:   8796a8ca48258776aaaedceaaab78acb9a9dcac7ab8cacacb6b8b8b9d97b67596a9ab7c6738b9cb8
col16:   b6698997c776a9a4aa6c5b9acd9789885aa5ae7acbb57daac8abbcacd85becb8787c488889988793
col17:   a65a467b899b69a88ac757997676b9a9cbbbb5abbc99a986768a68969ca5a589a696bb67996768a7
col18:   545aa658a68477ba9899788779897eaac9a9f6bd89c7a999b68baaa89b97899728aa8b7596a99c75
col19:   68258c88a91fa9a667bb9948876c7a84b7cab9b9b86addaa9c9b99ebb777b8ab4a8fec885b8a9577
col20:   7656b5ac9b55cac98877769b978ad8c7ab9eb56d6a8c8b6a98877698b66895a876831936a9799164
col21:   4499a6a992784879c4c598b76a859988888e9b9ba9c88b9b9dd9c69a98ab7b876b87ab648acd6aa6
col22:   37a94889699969e34bb9a7a6c6898996c8afa979a8d898fc686895a6959b58c6685766979686b788
col23:   c968997c98a699545b576666a599aa3999988e599aa8694ea7a76984c97a6b9a8898a7ca98897ba3
col24:   6b75857a73a1d81b9aa8c447c9b38a979fb6e7d85ab9c6c976aa4996cc7d8e698768c84ab9743987
col25:   595aa897bb866ec9a8a85b5caa5a5c78c86a68b9aa9a96ab7abc5e9ea68cabb997a9a485b7a989b8
col26:   75aac67aca8949ea87bba799bca9bfad8a9c8adea7bbd67eb895b99a98bb9d7d8899d586776a9a49
col27:   8767867a9c68b6c9fe8787db68bc6796ca7b99b3afdccbb68bb9aac9cb695e9d748aac75a555878a
col28:   66565c789b8bb99d877e87d8df9dbafabdbb8dabbf599a9aabc9cbc7b75c7ca99886ba8a889698cb
col29:   b9868aad9c579698bc9777a9b5bb69eecccd7cda5bccdceab9b6b7fbdcadba667a7cb9eeebaac587
col30:   55c5a977977cd8de988398bcdbc6999ce9b89b9ccebbcb9cb88f8aaaaa94b6699a99a9b9b6d769d6
col31:   a7bd97a8ee8b8baee7a69bad8dac9dbaccbac9faccbcdbfdbdfddbbdfebd8babbaadac9b97899ac5
col32:   67bcaacb89ba869c76f9a97e7ebbadfa6cf9d9b8accdcbbfbb7da7a99ccb9ca7aa7ccaadab8a6ddc
col33:   6b68cab85aa77ac71bd8aceab98ab7b96bb8bb7cbbda5abad9b9fca8b9aeebb9c86986597baaab9b
col34:   a79aceeacadf56aaa9cc9c99ced6abccce99abd6dcfca9e9d9bdbc7ddb8c7eac96cd8a69b6b897b8
col35:   9bb9979dac77ba7fadaa997dbfcf9b6dc89dbaac8dfecefbdbbaddcc7adaed7a468c988aa9b7cbb9
col36:   a8b38c868a8a9d9cbdcb5699868f9dfbaa7efd9a9d9bb9d9a6ddaccc7c998c858b77caac7eba9a9b
col37:   9dab98baaaa97bcac7b9cccbcb88ab9bf9ccddbebcbcbddeab8c4abdd9aacd9ba787acbaaaa6c99a
col38:   c97c9aa77b8bca6dad78dcc8bdabd9aeac8fead9a8bac8bedebecccd9ae86fba6ebab899c98d6ba5
col39:   8ae866d6aceac8cabcdcbcd589ab6cca96ba9bcd7fbbc698fcdcf8abb8b8aadd8dc7ab6ecd8978a7
col40:   9bb8ebcb989db8dbbca9dc8da9acb99ccbba8b89bcaeccbedbcdbdcdcabadaa9ebaad99cf79a6e65
col41:   68ca8bd9baaa79d99dbbdabbdccdcbdbd8d9dbf7e9ccdab8ccabb9deadeecdcbbba9bc9aaa9baca6
col42:   9577e88878ab9aaaaac98aed97c97acffb99cfd8afffebfd88ddcebdb9cca98b6daabad8f9a799d8
col43:   5bfb6b98daabf58b8aca9aebbaeabc7de8fdcfe9afddcaffbbf9becfecb9ba7ccccdcdbccc99be9c
col44:   c6afb9cbbbbc6baacbddbc9f9ccccddcce9c9eac9adbdcc7cf99f79bbaf9bafdaae9bb98cac89d85
col45:   a49abb9bbb99bbd59effdfccfaebef7afebff8b9a7caffb8fdcd9fbedb9adca9cb97adacb78998a8
col46:   9b68877bc78ab78bdbbaccaa9bbca7bee9dbaccacbbd8cb9edbd9affe8cbabccccdec8bbeaab8eba
col47:   9d5bc4ebd89aaeaaaafbabacdc7cdebdd89adaf89ed9da8cddfbedba9dfaec9ecdadddb9999c9b97
col48:   8b6cedcc9dedddcdacbbca8ccadabbac9fdab9ccfcf7aebacdedc8bbafd9bcbbb6dafded7bd79b89
col49:   ca9cbb9ae9798c8ffa9bf88acbfaaaadcccdefba8fbe6a88f69bc8fd8fadabbd9eab6bacbaa9dacb
col50:   6abc78bd947dcbb9ebadecbdbae8ccbcbae9fbbdc8ffaeaad98feb7ef8edbccedcabac9dacb8baf5
col51:   a78969967a8d989ac58aa9bab6d8ac78c8ccc9db99ab9ad977889d988ac8aacaae687c8e6a988693
ROC:	 BPix_BpI_SEC2_LYR2_LDR3F_MOD4_ROC3
col00:   59a7896d79c79569c97a5886a7789759b7b77a6cb888cb9daca7779a6abaca87da85997d739cc366
col01:   d9b7cdead89e96989cc9a8aaae98a8c8ba9bdcb9bda95daadbb88accbf9878b5ac997ba49ba59688
col02:   aaaae9a779da89b9b786a8979ce789ba88c9ab7bac6bbbb9f78cd89a9bb99bbaeb9644baa988cb98
col03:   7edcba7c7baec9aae98da8a979cbedabadae9895cca99dd6c9a7aca98ac7e4b7748cbe9bd997fd63
col04:   8779ab9a7c6dca9e6cbdc9967ad5cab99da7b8b6cbc5a8ab7bbabc88bdbea159a88c568985a9b897
col05:   78b6ab9b6be9c9d89bad7bab9abdb99dacd8acccbb6b6c9cccdadbabb998ab4a888c799ba7cc7a5c
col06:   97abd69abbc5c388999def6ead968ba8987fbbfbadce98a78e7d8a8bdabda88ba2aa9bcd89499a8a
col07:   88977a9c687c879ca6bda99cf796b8d656b9acc986aaaf8bb9bc799ba8c9bcabba8c666e86a96d97
col08:   a768bb5bd9db7bd6a8baaa898cb986b7a95dca7fb9eab95ed9a8f8dcdca5d984baa8c6b99a98bba6
col09:   98dab6fc97ba989b79accbea9a8eb6999ada9a8eeb9cce9b9cbcb9dd9d8ac9aac7b9f8dbbbc8bca9
col10:   dc788797de37c8ab5b9a9a5cb688bdcbe9ca6bb7d8ca68e8bb7d75cad9aedbba4c79ba96bb7374a6
col11:   989cba8bbaa7a8f9a8cbc9aebdb97a6ac9adcab9babbba5c879d6ab6999f79689a7777ab8a99b864
col12:   5a77c8bc75a969ab99c9bb97b9c77798ba97fc97ada8bcd8bb7c9c7f7d9ca7a7984ccba9876a8958
col13:   2ac78ba697e696ab9b9aba887af79dcdddda8cdcea69f7c7b9a9ad898cc7cb7987ba9d98cc78a8b5
col14:   3966a4679b97a7799cae95dfabfaedc987abb8bd8bc89c4ac7b7994d55777a8bc8b687ba8a9ac84b
col15:   a8545cafcdd657ab97873beba7aaba89cbbc95b9bd9e7eaa9bb8aeafab8ac769b996abc7777aa4d8
col16:   859aabca98acecd89c9676bcb86b79ad9cbbbaac4cd89ab8e8ba98daa6bbdcb9749b7969a3abb7a8
col17:   6a75dc9d7674baca7889dd557c66ab788aa8999c9a997a96abca9ba6a8d896cb9aaa7a77b8987936
col18:   585ab9a8c6b4a8c9b6a8a78a8aaf659acabd77bac77c9bcea9e89a79be878d97bba9aa88bbccb869
col19:   775575d896969bcb7ca7d98869c79aa6d8cced9fbbabdcac88c787ddcdd87da7b8999cb7b91876a9
col20:   95736d5768678888c89b99bba7cd9c8d9b5ad9ab87984c9dfb9acd69699e887ad868887aba4955b3
col21:   b496a8bd8d89acaa9b7acacaaa799aa8babd7d7d49de8a9ccabbdb5cbc9abb7ca8dccda5978ab9aa
col22:   96d9faaa7a99aa8d9a8cba8b98dbbbdf5e7cacb9a899b9987c7b979cb5e6fe6c9cea8a68797b6884
col23:   89aaabea588a8c7769d7c66b9b9bc79aa9e9fc7eb697ccaf69eaebaac7996a679c95a9a896586256
col24:   5658745ecb9a85ccc7a779878adbc9e8b8d78a6eca99ce99bcb77dcda77679a6fa57be39fcb77652
col25:   678a6fa8a69867ca8c688d9ad8c9a9dbabc9abadf7bb19adba8ae5b98f8badb699684af9d985b993
col26:   b68accb9769eaf9acde8a65bd9bce8da7dcca899c8adc9ab8acecfbed9bad9cbda6a6b9b8788dcb8
col27:   75c8db8c9a9d2d8eca9de5adb8e9dd9cfcfcc7dcf7cdcacbdbd69bdca7c8bd99bec68abbabbfa9e7
col28:   d88ab99bcd9fdb8cd89bbe9abe8ce8e67feaefabd7bcd7bf8ce89a6dcebddbebb89a75caccbb989a
col29:   a87b99798379c9a87afc8fadd9d8bccceeabacad8ebcbcced5bbbea9e9f9ba8a9f6cb8aadba6ba79
col30:   b4b6bc7dd9ea98b97a9a89dbdce88cbbbdbafbbca8efdbfbabbb99ecb9cbbcfbacab9bac8b9bb79b
col31:   987c99ca8abadd79fcb9bdbdbbbb9bf6bcec8eed9fad8aad9fdfcbad8adbcfb5daeb779abab4d7a9
col32:   9779c9b97da8cba9f79ada8afbecebf9ca8db8eecccc8acfbc88db9ecccafdafc7fdb8dbab9ca678
col33:   8eaebcbd9c9889b7e8b8eefa9ebca7bdbecafcdbdb6c6dabebab7eaadaf8aceccad8cbdd7b9dab8b
col34:   793b68d9b8ddcfe7acc6bbafaddcdbdbedadbbbac88cb69eccedd9efb6facfacc7dccf969bb9fb86
col35:   8c976a9aef6ecde49ac9d88adfbdbdbeae9ae8fbffadade8ca7caebaccacee979be9ebd7bbbcaaf8
col36:   b7dbbac9976abb89bbaebfbeaed78ea89cd99dd98dbadcdafb9dcbfaaf99caabe996a86ca997c9d6
col37:   9a9758abdfe7ab8dcfca9bb88dccabbcc9ebdaccaadccafafc9eb8d9adc9eebcabacccc78acfc8c6
col38:   aacac9acaa7f7bdadb9bcaccadfe9ecceeda8decdbdeb9bd9bfdbfa8aeefbcbcc6adafbbccfa7cdc
col39:   9c99a8ad5ab85f98eb9ddfdabeaca9cfdc8aaecd9fbb9ffceddfa7cffbccddbace9bcdda898bca79
col40:   caa7cbeab88dab9fbbbbbfcecdbdcbacccfeebadfbcebfe7adc99aeeffaabfdaa7d98bbbb9bfe87c
col41:   da9acace69a9d7beccaab9b7ccdfcecfc99bddbedeba6f9ca8bfeeafbcfa9e9df9dabb8caed8ad59
col42:   b9ad7d98ddac98acc8e8fdcdcddfdcbb9bdcaacddcfc6dfe9bccc9b5dcddccbadafcabbfca9c9ba6
col43:   c7ce9ecaecd9de9ead8ca9cfdbcbddabdcbffbf8aedebeedd9eeecf8a9aec7faffaabefc9ba8edd3
col44:   dfc8eeba9c9be88ea9b9bb9fea99ca8ffbcda8bacdcecab9dabefdcbb9cadcfb9c9bdb8878799e8b
col45:   a98c9f9cb9ca9ecefdcdcafd7bfaedebfbcdc9fdb9ddfcae7dcea76ac7ccb9bbcbcf9ea7aa85a587
col46:   8867c9dfa9adbc9ec7dfbab8a9adcffafd76dcc9cc9b9bbdb9dba86facbcadbc9dccebdcdef96ea8
col47:   ba4cb8acc9ba7b4abee7cbcaadcaccae97c86bc8aacbbe8bcabcbdcddcffedf9dbc7a7ba3cbb9cd8
col48:   5bbaf9788aaacb88b99e9bbaefbbbcbfacc9ef788bfdbbac7ffe9beb8abcda7997c49ec7fa9ccaa9
col49:   79bccb4fdd97bccfe7cb9fbdbcddadbbbadea8fbdbfbbeb66d8faeefaddcbcd8acc9da8eccea5b8e
col50:   9989c5be97d8c9af59b99e9c5cecec6caeffd75bcc68c9fadabdefab7bbedc888e9fcf9af9bdbab8
col51:   5c859598786abc3999893dd49488abb6ac39dcccdaeb8cac4ac6ba99cccabba8a8ab98c989b3b3c3
ROC:	 BPix_BpI_SEC2_LYR2_LDR3F_MOD4_ROC4
col00:   237a7795b9c74958897b86378b76587a9b94576bab86ab58b75b78789a567686ba7899b76a544563
col01:   648a53d5b86ba7b995ba859cba895ce3897c775b7ec986988aa9bb6e9b8a9c67aa3488b799998a14
col02:   7689cba6a97666ac97b789d56cab99aa9ddab7b6abbb98b57a98f687d9ba58a9a8a966a5cbb15a76
col03:   6c85a6ba97686ac65a9599ff7ca97666a6878b8886eea78971bc58a698a4da98dc56a96759c6a9a8
col04:   5977a8864fe95aa7ab9aebb9acb8c4c869bbbd999aeaca37ddabca6acab8998c79b7a888b5aa5a59
col05:   16a7585488979b9aa6ccabb5a8879c8c8799bbc9939d28a9ae69ac7ba68847a9b3e7a6b86cb7693a
col06:   a7968c99a967caabb78b9789bb98aacd8a8b8cba7854fb799b68acbdb9c7aa8d997acad7aea9c96a
col07:   47a9889676a877598caaba776dddb9aaa7abe799bbbaa9c69ff885b88b8588d6a87748cba989baa5
col08:   59dd8b7739ccac7997898cb5c4b67b9aa7fdfcb9d99a64a69988bc988a9989c6c678b96a566aa698
col09:   55679db8865ca5acd9dbcc8c9bcdbc5b9fa99d6bdb5c89daca67ea977897a6aaa9a4aa7abca8c89c
col10:   4637b5bc87939bd858b8daaba669bb8bcc9d74e5aabc9ab97898a959d9cd479fa6515c98b5537a96
col11:   84d56689788aa87598ad98c788aea699ada6689abb82eb56757af3b5a89a9da678997e35ab517966
col12:   979a936beb66c7789c88f6da9cca9d789979678699ba9b6dabb8bb79b88ccd9b8b898c658b695af3
col13:   b9a87a7b77877d8a9aabeb98cc7a899bd176b888cadb6995c7bcab5b9c9878deb98e8ab7869b7866
col14:   c58ba4a7c7ba7b3b79aa389857e8aa99c8cb8caae8bab88ce9a977b66cbaa995a9383ab793635992
col15:   848a699e6789ab886ba8d88cb5cda7c74cca8b7adb7cf9a4a7bcca69ca9ce979a6eaac8ac8498448
col16:   8966a5abcc6c87a676baab89d7e9b788b589f7ab6ca68e89d6bbaaba9dd64a9ac887f578b678a57b
col17:   39b49a47869bb4b698a9aa47a8ba9dad868ba77c89ba7986c89c77b7987369ba55688b3945a34795
col18:   4996a8b8c968c7b78ca5c8b884697f7ccb8699cfaab48a98a59bd38ea9c96b397896885ab8956ca6
col19:   6ba9a797b8bccc8b7dcbc4669cba88bada8798b8a8dbbabbc9cc75599a6c7b5aa6b857757957e775
col20:   935bbba69a5886a5a95896ca9eab9bbbba896dbb999b8abc58ba8799cb8c4997a6668679bd59b6b3
col21:   6475997997c9ccc79bfbddeb5b6bdedd93796c6b6cccdc697ba8ba6d7a657898386a8c68899985ba
col22:   7985a7689cdb9a7c79d999ca9baabb68b8969b8ca778c8ea97abb8ae8a69989b66686baa44aa62a6
col23:   7678988b9b999b69a7db5785eb8b78bb798f85a797bab887435a87aa4d4abb857a9c97877979aa73
col24:   a8778d58bab98648a8b8ab7a6ba67db7aaabbaf88aaa57ee947b8c989ba746988324438bbb86886b
col25:   88688adbac6bc9ba5c6a8abda8efb5b7a98fa99bb894b88da65c67b6bc99a6496a869797868ba939
col26:   97e746dc7daba6bf5a8ceabdaebb6adcdab8e75a9bcebab6dced6db96d8adb66a4ba594b97a7c7b6
col27:   778bbbaa86c958c7cc9bbcfaebe9a9b88d8dcbaa88bcacabbc968caab6db999ac97aae98c19bd1b1
col28:   7aa8e7caaca7d67b77ad9addced9aed5cdbcbbac8ecccacfda5f88adea8885a79bab27c872bd93a9
col29:   8b84985ec987caa7a87abbbcaae8ca67c87ba88dccbb938c689a7beb894acba9b7ca778885ae8686
col30:   9a78a5d9b86fba7987bb7dbb9dcbc9c4faea8b9faac699b99c5cb8ad8ab664a7539ca88855a9db95
col31:   78e9fc7cb97ceeabbb9faf7bccebfa9bcec8cbc9bd9aeca9b9ceadb89aecbaba4aabea86aae6a8c6
col32:   c8e878ddb6ecebbbb7baaf87ba8b9b789bebdaaccb5bdc9a59c99fcca9aaad8973ab759aaaafa9cb
col33:   849adaf8c8b8b8ca77eac7cfdcedcdeb78d9bc8fc89ea89d8d9bc7dbda7cbcea6b983eba74caad8d
col34:   7ba78a99abdaa8c9ac9cca8edf9dcbfdf8ca9d8bfa7aef5a997e989cdabc9dbac8bb9ca683b7be98
col35:   ca6896cabec8c8c899cae9bbdadc799cdfacc7bdcffb89acf96ba5a88cdac9ba986fbcba77a8b6a8
col36:   9aacbdaadad9fcdbabca98adc9d7fc8e88efc8caadcac89a7bd9cda8e7a7ad7acbb9baeed869d9ba
col37:   9b7b99ca999aaaacbabdc8efdfccabfc8adcb9dade897b9cddcab8dabd99a99c2d9795b799d53568
col38:   76a8cecbdadaebe8cdfacbdaccfbfdcbccbcbdae9aabd8bda7bfd99cc9adc8d95ebdbb878c965ba8
col39:   8985bb8cccaaa68879cadb99ba8adbbedaf9babda7ccbbcefd968c8998babbbc79d979cf9babbbc8
col40:   98a8adacc88aa8aabbbb9ae6cabacaaabc6f8e8afb99abc89987ad7cb86959b9a8abb8d869a8b957
col41:   49cad878b9aa999bac8babf56aebdbc9d77bc9b9acb96cb7dbbc9baca89caec468a1a76c89b8a5ca
col42:   a9b6689ab8a8acb6d69cfa9a8abdface96cebbf98dabdebabccc9c869ac8bf7bddc5da9bab88c777
col43:   2aab6bb9bb7b9c878aab8c98bf8bbaecbbbb7c67cecc7e989ca8badaa6b9d6cbcb99baa59c5b8b77
col44:   a87879ab96b6ad7d99fbad49bcc9caedb78cd7d9dbfacaabadacabccff8eb7b7aaa7dab8c85a87ec
col45:   da68978cabcbcabd8bccbb8c8bc6aaa8cdb98c999bcbcd976578b99b7c8496fdbcbaa8b788ba4aa9
col46:   987b9c7b98ad9a8db9d99cfb6be6b9bcad9caacaa8cce7bb799f8beba8c9bb5b69eaad6ac8b9a786
col47:   e7e8d7b88bd7aeb89b6bebdcc76bb6bdd799cecc76bac99ca8daac9aba8b7daf9fdca88a88ab968a
col48:   848cae8aca7cdbcbdebaa9ca7adba999bcf9e9f9aadccf869bb9d9b6cbda8586c84a79999b868879
col49:   765a9898da9b89b9898ddc9c9b9cbd8aeafa9acb9b7dcdafce8793abbad7acddaccbf679ac6dabab
col50:   5cb9b6cd9dbaba878aeead8b8f5abfaaaa8de6c9ccbea9accea6a798bb9ae95ab7cd87c7f5898997
col51:   77798644ab678eda5b8b8ad57d7ba779877ba6b5aa4a2a86bf988b797c75a797499c38a6d5a8a474
ROC:	 BPix_BpI_SEC2_LYR2_LDR3F_MOD4_ROC5
col00:   483a6986a88a47956276987ed9597a759583857b998a46c9658995796b6a995aaaa99a875ac46a61
col01:   6536786b9989a47d3688ee6c9945ab87aa778b8daeb84bb7777c59db6acab79b5c3a76ac79585865
col02:   5987b56a6894ab999caa9865a64a9c978baab7959cac89cab7c7a9c897c75889caac8b47ae85a7b5
col03:   a3a8c9b6578a9a9c97bea769c89a554b889a9b7a65b67e8a99b978987a8986b97bab4a9a99639a53
col04:   74598965767c85bb7b877ce77c697a7997697bb65bdb95467779da5b8b8d7bba8387a535c669a6a4
col05:   42276767994c747989866ac7d58b669b786ce967779aa9b7569c979876c97694e6c55b9599f697b6
col06:   38896a5679ea8989aa9a7f9c8c89f8ae7ab7cbc86ab4aab757454e858a6a9baa959959766a7a7667
col07:   6579a87b675dbdc4a9baad787d956a8d6cdb8b869bc88ba8ba5ccc9bcba896e7b7a3b6a6655cb99a
col08:   b7bab8aa951675bca5ab5c66e787e54e7b77a8ba969cac86798458e98799a9c68984769a89a86b87
col09:   6814a876a66978aba7b89b9dbb86a9b9c4a4a7caa58d8bc8c898687da98b86d98daa929a78876785
col10:   476776a9558d75c7b7bb879abbd86c759d88b8d8d6a8ddaac6b94b94aa87a7b979966966589ab78a
col11:   7a5b866876b9aa77ab98a95b7578b88ab9c98d8bac6ba698bbaa4b9c87aa889968588858ba85a5aa
col12:   5863aa8a896ac8467a9d6a6867d94baabebab788a8aa9bd77bb87788a87696a95473e8a899897c2b
col13:   8b767b6bb57763b81bbba7d5a5dce77d76c88ac898ca9e95c4babb789d89299779ac7b686788984b
col14:   766776ca6b9f9967677a7da9db9bdb69b9dabfbbbb9bb6857b69bbd565a87915798d997665568ba7
col15:   a3b89a988ab9ad6eb88a56f898dfc8a6979c77da9ea7ab8dbed788b85adb66ab9997497492f83796
col16:   91b7b7a8ba93ca83aa7c988cf9bbb7c96c7cbcba95b98aa9995a7c6678bc927628bb7359b9686877
col17:   b55abd84c5aaa59a878c99a749989a9b98caed57c3a8578aa8bbcd6b869aa9a97c29958578666545
col18:   35273d79bb8876899a8e8c9895efc97c9aa975c8a6bbab4699ca489ca8f99a61c4d8b59e67679934
col19:   697695c5b66966a89998cb5ab8b99baabc6adb77e6d865c39bb9939aa97c577979a578b586a89475
col20:   795a79a766a6f755b4a7a8bb9a788e97d38a88666c89d9486979d99b6ba799b67a7375d68856b769
col21:   556a84776476c268789da98699b77aef878866c93787c857c889bbbc279a79768a8983994b965897
col22:   8c16ad8bb36e557787869e4cbad6a88d566446ac85acaa9aabcadaaaa8a9b8566a986a38a9743287
col23:   3578d696a674a6aab97b69d867999a7c6abcb9bb797c49da8cc69599a9d9aa569547875649965575
col24:   5948b97c887946898a7656bbbb6998b7e78adb7b9b787ab787ac789ab39c6b64c16d5586a7bb8573
col25:   e36b5d79b9aaadaab6a9dba8996a8a8d8a9cad65bc88c97568798ac76bac6856d6a7848cb997a668
col26:   94aa68c8c989e895ba7da9aaa9b98f7cf5bdbaacb795e8aca95cda8a9dcba99bbb8c999cca9897c4
col27:   a9bb69a9a7c5e96cbbbbaba8a5acbb7c8d6699778ae8a78bd88788d678ba79ac999a76a89a66b78c
col28:   ba8acef85797abcb67c9b8bfbcad85fcda8cc7d6edc99ce9a8e89cb9fbcaea9ad9e9a8f9e7988a64
col29:   67aa6cc96be8c8c6bacaeb8cc9b9cafcfabdddb7f78c998b877caa99f9998babba9d8b8ba3a9658c
col30:   86a9aa8aacca6c89c8a9a89cc97cadcd8f89becebcffcebab8ca7bbd7bc7d7a7899aab9bc8dc7966
col31:   9dbcfafaabbbcbbe9cd9c79d8db9bbfbabaceddeacefb9a9bebbcab6bb9c9ff9aaa5bb97ca9996a9
col32:   c76d9c9dc7cabcacbadcfcbbadeddebebceb8b9ac8ebbbd6aa98a6ed88dbb8cdd958b8c9a98c89bb
col33:   889ab79a9a9b968bdbfbc66d9df6ccd89abadcbecae866cebee6cc677db788addc7b9aaa79c6a9cc
col34:   97cadb7cab9dcb7a8afbeccc9b9ddafdb87e9b8eb9ddefdbe8eca8aa7aecbd99bc7add6a8a99dcc6
col35:   9aa7d9c7ebacd8aeabca9ce8bdba96baacfa9ec59eb99db97a6bdbabb8cddcdb9ba9b54c85878b88
col36:   e7cdc8ab8ca9daa9d6d7aadab8db9bcbc8b8aa6dfb89ecdba9b789b99dc9ce89a7bd99cfaca1d987
col37:   779aaaa99baade99fdb9aabaefdbda9beafece9aaaeadcdafabecccdbbfafaecdaeba859b7d9ccd6
col38:   976aa8ccf989b9bbed7b97bdceaadfdf9dada8cebaaefbcdcbeefdeceb9abcbcab78fbcfbbcabb9d
col39:   a9bd8dcbb8e88a89b9cfdca5a8bfae8d7bcd9effd6dceb8bbd8cec9dcb59cdd7c87a987aebed9bd2
col40:   9eab9997aadee9d9dfa8ea8efbcaef87ebeacedcdccceeddfdcecfbcdaec9cbcb87ad98cab8bbcdc
col41:   c779beecadedb89bfbbcccfdedbbfaadcbb8fbcfcbdedc8aebcdfb59999baa9eb6fad7a6dbc9cba5
col42:   9888cb8897a8b6bab88cbab8ccecbbae99edc9ccbfbdff89f9e9d9e5bcfeaba7ecb8a868bdaaa7a4
col43:   bccb6c7ccdbaebcba9adccafcdfcdbbebffceaffb9f8e8acfdff9ccdcddf5e9e9d99dbac9cebc7a9
col44:   b5a6daabbcf858dddccfb99c8edbeaeff9bfdfcdefbd9bdecbf8ddda8ffe8daaaf8cd9cc989bdf9a
col45:   baacacd8ecd9dadcacc9cbadb5e8cbadfbebabaacee99accad9e9b9feca98a7cbabc69a8a8f57bb5
col46:   b786adcac88eecbbbce9eec5cccbfd7bbfcc9e9d8ebbfffbafcc9accbbbca9a5dbcfb79bdb6bdabd
col47:   978b8aabb5aa8bb9dfa9c8dbbacffbb9bfdf99addfe9eeeedfb8ebc8ec8ed9eabfbfcabb7eecc7f8
col48:   bcbbacc8bcdccdf9fdbdafccbfafcda9ddfe8dfdbacefffbeaaafacbcbc9ffeadcb97bc7dfb58c99
col49:   76ab9bfbecdca89dca87dcddacfcdb9b6eecfdccdeeecefbfcefcac9dbdbfd9faef8fccf87879dab
col50:   babb98ccb89bccbc9eacaad7fcf9aacbcee9bbecddcbfa6d8bcea7b9d9c8adebdaba5cd8ba9dcc69
col51:   64877e78cc89a9bb6aadc9bdf8abca97bc8a8dc6bab88cbacccce8eb7bbdc8c859a78a65b87e8864
ROC:	 BPix_BpI_SEC2_LYR2_LDR3F_MOD4_ROC6
col00:   3366955c23d997668cc36aaa77b988ba77a46b7d366971999b86b65877a5575556a76478a879a569
col01:   a9a968a73538768afad7a97c58abc9a68ccab679ac5e6dacc99dd99b677acacac9a9cadba8aeaa77
col02:   ba87a8675d8a8b9b8ad8883766ab97dbaabbaa8dbb6cb8b87dc8ca9ba67a871a9ca998377cc8c756
col03:   964baaa5caaaaaa8c99788a97899bbc9b99bad9ebc4e985bab8ad978d9bca9b767888778a5ea88b9
col04:   9888c7986879a68c6a57b6ecc8b69c9d9cc8599aa9cb69ac768dc78ba799abb2acb7c85a6898a789
col05:   a5a898d9b496dddbf88ab66abac9b9d8ddb8ac996aa99ada869b8abcea9ac8c67c77b897b6aca5b6
col06:   975899b9893d9da98758899ca8988bcdceaa979bad587bc4c988daa888bb9bbbd8994899ba898868
col07:   6439769667a7b77aa89699a89aaab9aacbba97bb8cc9cc6cac898c8889986377b99888b88a989d89
col08:   9843997486a9c9a8a7ac9ab3b49c899899a8586a998d99acc8bab8899a96baba8d8b9a57596e8a89
col09:   b5b699a8ac9a99b66e768999cabd79b9f8ae9bcc988799f97acfa98aa79d78bf6c7fa7b8c928aa68
col10:   998872c8c6a8676bb8a8bdbdaab8babe88e9a877994de7c98abc69b96889a397bbb9c8964c976883
col11:   56a69796988579cd8c8ba9679a7899c9aa859b79b6788a89cd9ab8aac8cc69ba9a7b996989878438
col12:   88a64b69b7a8679396b668b99daab5aa9cdab9b8aa9b986acdc989d9cbc7b89bc7a9a959ba5bb996
col13:   7a59aab95d7eca17a8d8a9b8bad9aab9aabce697b4aa6947bcaac67992cec6ad49efc85aa3569a65
col14:   756767a8acba457985877999ada9c9ba7ccdccb87cb9a8a899b6a7867bca9d997b87469cab985776
col15:   5c8a8a76789657a6888897da8d797b8a98bb8b9a7a7988b97b989a88aa774ab977b9d97686a47863
col16:   788a9aa2765989c88ccc9bbc986a8a9da99c7ca574a958ba9877756b7ad8c198ac9a7d5ab688a774
col17:   767577c858b38a3aa65a9a76989c97be8895584a9987868697a97ca999a56567ba854c8597b5aaa6
col18:   4d786955a8b661b878789b8a69a9bb9ca87a97a8bab8a89b87ab598c86b83795b849b8b6894a8674
col19:   7784a7a843c94a9ca9a77c9db7b9f5bf8a7aa99988bb77686787e85b59eb889b86bba7999368b78b
col20:   876b78c5987a9aa8b9a899a98a7dba977bbcdaa985b66797a8abda89887a53897b9ba658a7878867
col21:   7ba9bab87688c99ab85aa887a9ca9a799b964b95db8ab88a95c659639976789888b6869a88ca2a88
col22:   978cb888988ac85ab57ec7aa6a6daa8aa8a57b7699b7989979679988669aad9769ca49e9534a8968
col23:   748797966a9ba5c7a996b7b98baa88a67c4bc6da9b988986a97d8937d8a6b6b66abb6a69b7262fc6
col24:   7db7d4a95b9b7b7999c7b8b867a8888cb6c8ac9c9a9b99b7c6a989bb88aca8a88a89aa66a64465a8
col25:   198ac86ab9ad9abd59bd679b6d97f78cc8db9699be699a6ab87a5b789a87a7b88b9a4ba8a8e9bb95
col26:   ac998ab8b58caaabdb6ad87cc9beecc89ec8a7a9cac78cba7aa6ca75cacb888c9dc8c79797f68a99
col27:   969586ba8c896b7d9787aae8ad9ce78fbabe9a8ccd97dacd6e6c85bcbac9cc998b9c9bab8ab786c6
col28:   787b698bedab865ddab8cad8cbb99da599b7abcbab9abb8dbbb7ad97a99a8bcb9ed9aab96b97ca9b
col29:   aaa5956a8e78cabab7caa7bf8cb8ccdcd7ca9acac99c97bbbbacd8aa88dcddaa8df689ab88b9588a
col30:   43589c8ac8aaa8c7c97b7bc7cfb9bcbcab97bb84b999699e9bacbbc8c5976c58657b6a5a467abba7
col31:   ae7aa979ba76bbdc8dc97a97bdf9bdcdaaca9a7babaa8a9bc969dac9b9b7dcfaacb6bbb68a9b969a
col32:   8ac8c7aa7bbc9ba68a8ababedddd9b9ec6f9b8d99cc7b99fdb98d995c8dba6abbbfdabdab6ea8bcc
col33:   7b75eccd8a8789afd9c89cfacecbe9ceeeddb8dbbdabcec8abe9dcabfd8c9deb8ab96acdbc88aac7
col34:   99b6e8c8ab96dcc89faccbabcbbd9c8b9cbacbc9bcbcca9dd9ae88cdaacad9b9ab7dcbeba8a7bbba
col35:   99b9d9d8da7aa999bb9cbacb98c6c7d9cbcbdb986b988e9cccbdb69baaabaaa7a6cdcb5acbafbccc
col36:   c3897bc5cac9caca89aebb9aeaabc9d7bdaaa96988c9b96ae8acb88c9adc6cda96a7ebdb7d7b7a95
col37:   db77b8a78abafababbd7ef67c88a9b9ccbbeeccefaaacda7dbc79b9ddcb8b9cad6bca4ea798f9d88
col38:   b9997c8cbadbcd998cb9cdecadfcbbdcbaddceaecccc7babbfb9a6bddaca5bdfdfdda98e9abb8878
col39:   9c68aada9c9c99bdca9abcebdf88baccbe8becc98ecb897e89ae9c8adfbac7afa77c9d787eceaf7a
col40:   59c5bb4b9ad9dfad7c999facdbbbcfb69ecdccc88b8aeae9b77cb8aba9cfabcceaa87b9dacaafa87
col41:   baab8a9e99e8cb7a8cad7fcbaf99db7e9ad9cbad87ccacc9bd6a9ee991cbadb9aadcbdbaafa97f89
col42:   7666daa8ac9c98ccaafd9cbcccbd96abd8eebaedece98a7aaafb89c8abba7ddbbcaecd89cab9889b
col43:   79bac7ccbadbaeabcdadaa8afdd8ccccc7baaebccbad9faeab9d8cec98b8cbeec8ab7a89cdcdbc8d
col44:   b7dd7cdbcda9c8dbfd6ab67ad9bcdabaeffdcb9ccfc9d6ed7aea9adbdbccfbcbaea9ccbcb99a8a9a
col45:   c76ad6c896697aa7ddccd6b9de99bcbbeabbcdcabd8898ccabbaaaa77bfb78dab8dbbcadeac6c7c4
col46:   79aa8dca8c7bb589babb799bbbbbaceafbd9c9b799b8a9ac98dcca79caec5cabdbd8aa6778aa88c3
col47:   6acbb98b8abad9dcadbabfcbfeefbcbdea77ab9dbc8dbdbacc7d9899cca9e9baa8b9a5c9aedb99c9
col48:   6c9aba78abbd99ba9eab9aab7bcdd9ddbebd9edbbfcdea9bbbaaacae99a9bada9debbaaf9d9adaa6
col49:   7ab9bc89b78ca9eca8acece87ddace86b7b9cfddbedac7a8cd7b8999acf9dfd7f94b89a9cbcaa9aa
col50:   99b58abcc8ac9eb9dceff99f9cb9ddbabebc9bacafb5c8dfafaa9d9ab89cab7aabbafe898a77daea
col51:   7b5a596ac8779b7e99b98da998ccc599acc8bd9a88c86c9997bbb9c68a76b87ba87a879cb48a6886
ROC:	 BPix_BpI_SEC2_LYR2_LDR3F_MOD4_ROC7
col00:   129484867b36363b69cb5685ca5769d757a646a95aab68b917772576a66399688967a54863986884
col01:   8617bb7a8fab777b3dccb76caddaba7c89c9cbfc4aabe9abb6cc97998b556c8a7c5676789a18479b
col02:   58a49a762b98887c4a96aa7745779e8b946bc4b85b7b469a7b42d4cb76bb87b78a8b6bcb7473c8b5
col03:   9785a655b98779c79a765aaea7b6b9ba7b8a9bbb8a9b9996c9ca7bcf8ab8d8a77985afcc6479a87a
col04:   a74897a6755a99b849989b89b47a979a7b7dab9ac799973a99a8bc8bd9da4b5a8795b9bad4bba897
col05:   5774947bb86799846b486397bb8748a76bddaa8d68786daa6bacab67d99a9ba97944c6686b759637
col06:   83ba98557aa7c4ba7849a4f76aabb86c795ad68d77b98799b8bbbaa657abc7773bc1978c6298668c
col07:   a8a789ba769a49a77cbaca9979baf79caa887697bacd8c8a9887ab79b4c9cfab99ca5a6bc9a6a588
col08:   a685a968c55471559aa8f4ac88967b6abb77d9c9649996baa9badb7ab8b78c999997959588b5a787
col09:   737366868c9b9899a88aaa888ab8b76db6b8adba86d3a7b6c99a7c9598a99469c9987a88b984565b
col10:   b5a6a67548679884ca8c76cdaab6bda9a8c8e7cbbaafc7d98a979b77aa979cb7b5b165997a89bc37
col11:   5895667d6469276acb977b76698a98a7996c9c8b977ca7594acdb898664c6a99b87c35ecd8594887
col12:   2554ba743b6755a28a8a87b7a6aa86b999a6a395cb9f598b9859c6aaaa5ea7a9a9a8b5c5b6474688
col13:   5635baa669175788e87a74abba757b89869b8da99bcb89aadd99cbeb6898b79af8aaa6a759689679
col14:   638996a647ac9895876d78fa99cabbceebdacc99cb95a788e86ac98b9cbaad888998c478a7589c8a
col15:   658569a9855b79a8a9ca869a9b999a688a89ba4599bbadcaaa877aa899bbc5977a6c7a5787738a98
col16:   58865ca8767a57a87b79d9b8bc528a879dbab8ac9a899badccc36cba9b9c848cec699ba3d8b968c3
col17:   394476b68b9772a89d78c85d9b9b9a89a7c788a8b76a7a9db57ab79ed68c6878a9a5d99a8a6b9827
col18:   6432772899699a8ac787c7c84d8c958aa98ca77989b68ba58aad8ebce5778ca7759b87c767755aa8
col19:   7569685988c6eaaa769cadb9a949f77dcbd856aa7bca8979c89faaba894bfbaeb95ddb9945b88a9a
col20:   955656b38989a98786c8c8a6bb96c9abdc5b6baa87777c2e88959a6878bb6abcf6a6c7b397b46c79
col21:   3947aa8a7aa699a797acde9c8cb6ec9785ba98b79a8a869799ab68b89977c9e743ace5b77cb867b9
col22:   a75494e6c7c558ba78887c76a5a858a8ba8f9b17a66aae76d89dcaeb69b684b59558ab9ba9c9c838
col23:   457668669c6a47747938867b79bc2a5e99b998baa7ab58dcca69876b27b55a7b6b7aa978ca6a6758
col24:   679c2bac76c7a59ab9b44b6d9aba68d9aa7db958abe94b77997999979a7ca9ac9a9ba94b77652674
col25:   5568658c897682da998799a48ba6dcbd6b7b999789cc6c2d999f6ababa68a6568aaaab69baa1c488
col26:   5686978a77a957b869dd8a99b8ddac9dababe8cdcab7bbaa97d7b67aada79aa9999babe99c9d979c
col27:   a7648986779cb6c7c6aa96c67a9ea89bdabcbd8b8dfbadcac6baef68b6ab7a8ad5a6997b99c7a794
col28:   9763b75f9767ba998ab98caea89a9db9caa8cedc6aab9cd8ddcaaa5ddebbbb6abbcb76dab75db977
col29:   5b9ab7dadaa95a6bebabfe9c6699b7adc8bb98dba5deef9aaabab8d7bacbb7bd7c9c7c9ce89cc9c8
col30:   ac6bd67ba8d8b49969c79adeaa9b9baecbbb8efcaddbbbda8aa8e988a9da7aaacd9aa8b6a78ab874
col31:   a3b8989aced8a85c9e8e8c8ee9d4ce97da8eeaebf8bbdc9b7fedb9db9efdaa8fee88ac99abced996
col32:   4c659768bdb7acd5fb8bacfdcceb9ccbbcfbbbcdddca967fbcaccbd7bd9acbcecaacd2cb9cbbb6bf
col33:   a7478b9998bacf9dbf985bbc88bd89ec8dbbbdfc8ebacfacccabec7fae9a99f8f99eb9bc859eabb7
col34:   576cf5dbc68b699c9ebffcbbeacbfbfdfbddaedacabfacecec9abdd9ccbbabdb9fa48c97bd9ca9ea
col35:   7a97b9a875d8bcbbba8babab98ebd99fea9efcbc8dbbc98cdfcb8f9bdadf9acca6c8aa98cdbfb9ec
col36:   78983ca87afcdd9b9baab7d8877a8ada6b7dde98f8fea87fef9bc79d9cd9a9d7adeccbdccd99cec7
col37:   76bbacb6d9afecdabbc9f9b8decdbabababadcb6dac9bcdc999bbbcdacfd99d8bcbcfdaf7a8ccaa4
col38:   977bd888acbc7da6e6bd9c7a6db99bbbc8ccecd98bfefabfbbcb79b69cda89b8e99ca6d8d8abc889
col39:   969c85bc8775ab999bb7cdbbedc97afa9aabbaaaadccbafaa9b9dbdbceb9d98a8cb8ba6b69fd8878
col40:   9c67eddb7bb88db87dad8ee9bb8cca8cbdbcbcc8eeb57eba9bf9cdc9fa9bc8aab89aabaebfaa6cc6
col41:   9d889ebcab9baaaabccdad9b8ec8fdfeee8bddadb6e79fbdbdfa98eacfbdbabbfda9cfe8dcabdf9a
col42:   87cceaca7c9a89eb8cb97fa76bbdbc98adadfccfaecaebfacb9b9adbc988ecd7cd8968e8dccd99aa
col43:   b79a8b8decc7789bd8beacabacf8aafabfdeb9ffdffc8fc9e7dccefcd9bceead8adcd99ec9c88bab
col44:   8ad8cbc5a8d7bbc5ab9abda9ccbdcc98cccfacededd9ad7daacdfa8cefeabbcedcbcbebb97ddebd9
col45:   36bc69a8e9baaac8ec899dcab9f89d9abbafde9ef9ac6abbc9c9faabaaecafcbf63e9dcb7be7a8e6
col46:   78aca9b6caaadecebacc89ecbefdcdc8ffba9ccaebebdad8fdcdddce6d76baab7dd9fcbcabb9c9c8
col47:   9a8b7bcbd78cbdddbd9aedcdabfdeaebcedabe97cba8aabbb8e6dbf7d7dcacca8ddfcafbb6ef8cfb
col48:   dcabad9afab97cbabdff56dadecbacbdefacbcb9adeecfbed8cbdabadadacece9c97aceced6a98ea
col49:   8c69d7afbfecb9bcac9c9b67a9b9cceefaecceffbefbff9bddd8fbfd69bdddd9b7cbdfed8afb99ae
col50:   58a9bfd9a8bdcbb898ea8cb7cbfdacfca9fefbd9ec8dfbd8cfaccdd89db9dfae8abcbdccadceb9ea
col51:   56648a99abaca895b7c6ddca86aa9bcac9d7dbb97bdbf9aabb9b8dcbacdbca7bc9c8c9b69b39b6b5
ROC:	 BPix_BpI_SEC2_LYR2_LDR3F_MOD4_ROC8
col00:   7186219544b3656aa94849a16799a84babf98a99a78a8abdab94986cb65b7b9baa987aa9cb8bacb8
col01:   2272a6969b5875769c9d88aab88db9cb9dbbe982e8b99497ccecbe6ac8babb98d98cb8bb68f7a97a
col02:   55355574337499b7485879aa9a75599d98bbaab99ac9bb6bb9a679ba9cba688d8bf9696b97ec9ba7
col03:   1636459488658a9a84a9b87b668e86dca7b9bce9d9da9bc9bbbaa8b7ab8badcd8db8cabc8b99cda9
col04:   177325678455961889689699c9cc9b785398bcabb9fa6adbcb8a7c98aa9bcfbea5cbcba8768ccdac
col05:   3141832978977849a9c96ba8c9babcaae99b9bc7bbc8cb7a57a8dc5ccb998b6dc8c7e9adb9a59a7d
col06:   4336373773658373998aa8a5cbf9a5aa9c98ac7aa79aaa957a9a89acdc7ada79a9bbb9b6bab8b8ac
col07:   2a454667346487a956977ada6c98697b9f859a6ad67ab8bb99aaaacba9cbb8aaabc6ce86c59ccb88
col08:   14b79445849594b7798aaa9c799a9b6777a676ab44598cadb97976ba879e99bcc96c6edaa977a898
col09:   66565457658967695969b64aa9cbb777b7abba98fad9b8d5b89bbb588d9a9ac9bdbb99cb669cc9ad
col10:   244369361355656a58b77b6b9a79ad8aed97dde8bba996c788c4bc55b9a9787cc8b7b9977bbb89c9
col11:   84152254424636683355c7397e6abc65b8778a6b7997a7aa856a5bb6d948db89a97aba99ca49dba7
col12:   45476556683478865775a5664aaebd6c898b699ace899997b9b799a797bb8da6bdb8b78cb88cf77d
col13:   65564173642161a549889378989ac978b58ad69bba776bacb5c88aa7949f977b8cddc9be9ca7cc8a
col14:   314381945894517a376685b866a9a7a9bdc78da7a66968a789a96997e9a8adad6abb75bbdab8c999
col15:   c124148644aa3c568487a554a4bca97864599db979e56aa8999b6d779acb89979abab9da88b8ebfb
col16:   1644b864434622ca52496a4696abca8aa9aad588a98b9a7afb478aac5cdd68c497a9aac88a4cdc88
col17:   5534254886671548981545a98669bb78b7b97b83768784a58a675448a3ad7cc99887aa975aaca875
col18:   213763463468198685758a9ba98656a93a978b689476737b799d96a6ceba6aa8878877943baa97bd
col19:   55354426636447523748b9a9399a698f88b8b6a7b7b976d9a98abb67b8ab95aecda99889969b8aaa
col20:   217284851765474262739835736876a9abb7d76b9aa6877a854b9b939669c99c5abb588b7c9febde
col21:   151574974557846819949686c7768489b5a96aa577a297988997a699c98bedd7d99947dbab9f9b69
col22:   4425a25488469677157a85685896a9969689bac84997caa89bbb788cbc989ca769999799598998ad
col23:   11334946447574575263994889bc8848867697e7698a4869b77655a77ae995b9687579b79dab4968
col24:   3171386865752687474943869a9b9776437b7748a6a666998b87986aa45a897d67d5f879ac98d67a
col25:   3617765575554955265856799bb9677aaa6d99a78d856bb9ab779598d75db9bcd9c9684aabaaadcb
col26:   535757b6944457a7a2cbbb8a7c668bd69b6bba9ab88cc88a8c7b7df8abab77dba9bcd6aaaaaaac96
col27:   44b4649c376c6a7746467987ac8a9abfe81cca897ab8a7db9b6767b9eaced78eb987ee9abb9ac9d7
col28:   8425352754867a6a7385758d7c9a987a79be676a989d6a8878bd9bc86b779bbaa7c86aade9ae96dc
col29:   619689688956b755a6789777ab8a6788279aab996997d8dd8e999bb9bfbba8baabaf99ddbaa99e79
col30:   33554ba35b68b68969a8aba8989a78869ac48a79997ac6acf89a48a9a7adabaae7c8aebebcb99caa
col31:   57519855a8b74747a58847989e7acc9cb9babb4baab8baa8a8787c7caa97cd8e8ce8a8da9baedcad
col32:   589798a6755784577489bb977ce9f8cca7889beba9869b99b77ac9cbcdc9b8bcbaa8cbdbbccd8dda
col33:   b694567b796ca87a978a77a92a99876eb9c58a8fa9568c8af498dfbaadbefb9bad88bd76aaedacd9
col34:   667968655b56a739ba9a88b5c9c5aabe7cfbbbe85a77e99a88c88cd8c57ac99a9899a97fa6b9dbea
col35:   474b45b75442c7b87698898bb9a9a8c79a9abaa7caa7c7bb9d7ccdd5babeac9a7de98abb9bbc9cbd
col36:   7735d75696968d7a7aa7b8a999e78859ab788bcae6a849c78b899798899daccac9cab5bba88c99eb
col37:   6595a7a6646e6585ca65db77bacb98baabdcb7dbb7b9aa4ab8b786f7bc7a9ab78c8eebcdcac9aebd
col38:   84a9d798b7a688b763acaa8bbc8dd77b987eadca46c6b98aebb7abbdc7becc9a9ed8ddcfb99c749b
col39:   6b6a886cb95baa985368aa878987bba9b9c99967867ba7b7ac99b8abba99bca8bbae9fafefbfcbae
col40:   6468a99988b56784b7abba8ba69cd96668968b96aa49c69cc8868e89ac7c7dba88dbeacb799699ac
col41:   b65999a866b9aa6784c996cb7cbabf76888bf9aa7b99cbb8acd88a88aead7cbcaaad989bddced98d
col42:   a846ba7987e689b9789798db989d8a8a8d7998a9bc999cae9699ead8baa78b8ccac948caba8eeeac
col43:   7cb7a8a787ab774b89b9aba999dbbe6a998b9d9bccbbab97fd7a7cca8aab9cbd7a88a9b7dedb6faa
col44:   a7a6b8b7ab8aa6e7978a7a5ca8fba9bc9ba8a9dd5e98bb8acb7b9ba9d99ca979c69badebdbaabde9
col45:   8697c83fbb59c87c5cab9b7c96b7adb9c4dc99999bb86886c9d9ab7797b8dbb9baa4dd799df9b8bc
col46:   79baa8dab5b7aaa9999bda69ca9b89da76bbd7ac989db99a9eabc7a888c8a9c6babaa8c79ca7eba9
col47:   9db894caf7a9b98cac97ba7fb9bce96a968b9a9aa8b7ad9a9ad999dcbbd9bdafbd9bb9c7ab8ea8db
col48:   69a6db6c9a988a48a98cd68ebae9b9779ab7899a88ecc9b89d9d9cc8cb9c6c8a9ad98dc7d7acad9a
col49:   b7cb9c86bd89dc9afcfcb9d8f8aaa98e9dc8baaae794b68a8e68c7daaadcaecba7cadba9cecccdc8
col50:   ac6b9fac89c6b7accd9ab7dbacb8d8b8a9c7cbbdcabc9cfbc9abb9c7c9dacb6b9ab99cbdcedd898c
col51:   87a8ca9ecdca989bb889a97769cb8db99b8abd57a7778a9b8a899daeb7f6bb8bd98ae67bbb77b9aa
ROC:	 BPix_BpI_SEC2_LYR2_LDR3F_MOD4_ROC9
col00:   3655653a85533444643748a46a547a5a587ab3a65a626726767968b8977aa9498a4a7979ba683787
col01:   325448a6545876698867875a6b68888abab9bb8987b99aa879abaabae99b98abb99a97a8a9972a56
col02:   7566612826689875a785c4984869698b677588b8b89b87bb88a877b8994bb77b7776b878a4a6a8c6
col03:   57b435676667855c6ba768a9b887ba5ba86caba7989876bcbb569a8bf86aaa8877599bca9ca89899
col04:   456697a99978848497964687697a69d9a949aa8488779aba6a8b977899bb6da98969a499a6a9d686
col05:   6267555c99764545187867bbb9787776b999b58bb6a879878a9cbaa97889887a95a8a6a6a6798995
col06:   455453784656755968967a6889659aa66a9b7d89aba95ab59bba7bb9b9aba5859b677877b5a78488
col07:   28475656952768657857cab8aaba8aa8b87b9d9a96c9b857a9a99db6cc69baa85a9c98ac776699b7
col08:   344644547878856949658b7a8ba85256b699bb996997abad8896985ab85cabaa6875cc9898577a8a
col09:   33671998644ae89699b7ab5a89899d8a89bcaaa3b89a9bbb78ccc599ddca9ba7ac938c99a9a964a5
col10:   554723756547625767b7986bd998595e8a8688688a78c8abbac5c788c776797b79857cca7c98a7a9
col11:   836433979777b795787b678a85888d9a7bbd7a698abc899cbbab98a7bbbaf58a95467a87aa8876c9
col12:   643277c6875576889637847b9c768988978878867a95a89897b76ba86697a77877b98959987ab899
col13:   6273783658966b9bc9cb6589c5ab9ad8ac7967749c9b8aa6abaec958998a6bb89a9def99aca657a7
col14:   6877976695997597879ac7587a796aacc9aa6aa9a7ba8c97a5d887dccccc9adcb7f8a96a6a776a65
col15:   58878488754697c6678d6ab7b7bcc77568a6a76a89ab9daa99c76aaaac897c8bb98a7c97a6998776
col16:   441555785a476b869884c879ba69778c67e7b6787996b898ab88c67989989cab7a866bb86a59a898
col17:   42568116873457677626975abda498a9c95999aaba8d769ca99bfc4b96c99b6cbb68cb9d87897699
col18:   6757435946689687a9486656b8a5986a59988889985c988a7b789778bb9a9a6a69888aab67b8ba74
col19:   4964864a93a767657576986bbc9b6999a9b9db9a9ca9b99aab69bdb8b89bba7ab88b7698cb7aa998
col20:   166355689958798a496699879899ac97a9a8cb47b999c5aaaacbbaaeacc99cabb6879941b88a899d
col21:   53a481595a896863986b89a657996b6b6b789b89a979c8c958d89a579b8b9a7bb7996898378a7b98
col22:   6635795bb8865687755a365859a9996aacab976bb97aa499cab85cfdcc98cabd8ae8ab785d3a8c77
col23:   48584966873868778679477a78a9a8a7897a868b8989597ac9b868a7c9cbb8ada8b78a9cba98b779
col24:   36768647757339747a74788a9aa569aba9c779e997ec897b8c9a9a5b7ccba9b8acab96b88bac6a79
col25:   5872994959389558379a9aac89abb78ba7b9ac8b87bba7abcb87c977adda9ab879c99ba6aa78aaa9
col26:   a9aa8769858b7878959c87987bad9bc98c9a9cc8aba9ccddc9aad97edbaaca9abdaa78babaa76b84
col27:   57a8ab658aa46266aaa9858ab84cbebab9c9aac8a69d699caa8aecdbfadaba8aabc7cbddbcb9b76c
col28:   8987879892a44b999b89bbcabba78c8aad7cb9b99b8ccdb9bc9caedcacbd898df9e99ca9abbacca4
col29:   886657679b66a868cc969cba979eb7a5bbabbde9baacba69a999bbdbcdacadfcdfad9a8bb8dd9867
col30:   8c287679a586879aa7389bbfb9ab769ade8badcad48abbbb8bdccbbace68dababe998d87cb6a78a8
col31:   795bc87876ba9bbdb8edb9bb9ac7ba78eadcbeeecababacececf98fcffecbbccabb77b7bdcdbabfc
col32:   88a7a7cb9ab777a7aeac4bacbaa99cdade9bdda9b9bab8cabdcfcfabcbbecacca999aa9bcb8c7ab8
col33:   76a97baaac79b3bec99cabbc99ccedcad7db99dc8cbdac58deabcfbdbec7caaabaabcdcbcccc6c89
col34:   5887b76bd8698868a7baa9cbbbca7ca8d89da99cbb7ddbcbdffbbddfcbeeada9cbc9dcfdcbc9cabd
col35:   a7879cbcd6da77acb9d89ea96ebcccfa9cbbfccedbeafbb8ca99dbd9bfecbaadcc8bbedceda9c7b8
col36:   87568999568ba9ac46b75ab7bdecbb8adfdaec9ce8ebb98ddede9cce9cabfbbbcb9ccbdc7cadef9a
col37:   87cdc78b88a675b7bcccce89afb7cee9e9ebdbdbeebb79ded9cacc6fbaf9fb9bbf88acfeb8fbbce8
col38:   9aa5598bc9c6c7b7ab9c9cafab9ddbdcccbdcdcddbbcccfddc7bdaccb99e9cc8dfefdaedcfbbbdd8
col39:   48576a64b78b999abbc9abceacdd9a9ceccedfdcad9ca9eecdbabdbfbacdbaa9c5dfcbccccb8aafd
col40:   a4958658986c8d6bc9eecaa8c9fbc9acdbddddfaeb9cbcbecc8ddfdccdab9cc9cebe6b8dbdbacccf
col41:   99a8eace7e8eababddecea7bcafebbfbba9cbdbdb7ebec9f8cb9accefffffbcdcbebb9eddfdceecd
col42:   886ab88c89ab69ac69abd6adadb9b5dcecabedcbbde9eadb8ffdecdfffafbf8b7bbdbae9dbe7bbda
col43:   988a8d669bab84bcccadafbfbcbccb9dbafedbfdfaeddcceccfdcfefdffebbdedafacdce9ccebdbb
col44:   82ab56afca9a99addd7d79ddcccaf9dfc9dcffeb9e8affedbdddc96dfbdeddcddcbbd99ababbccdf
col45:   999a5a6b889aa6c79b8edacbfdde99ef9dbebeddecddadfdcbbdfbebbca99bcccded6cbfcdeeba8b
col46:   a92b7ac7bb79a7aa7dacdc9dddcaedf9ccddacac7e9cc9bebb9cdfeaaa8ebabbafbbda9ae7cccacc
col47:   4aa4d7bcacb7cabb9a9dacbbcbba7ccecdffddefddbfcf7bfbbec9fcecdcdfbfaeccae9bc8cbeb8c
col48:   a979c6a898caadd7c998ca9cbb7ecd8afabeacad9bebcdffa7ecf9bfcfbdbdfcfeb99cd89adeeeac
col49:   aa99999b7869db9abdbaadbecdccedefeddddce98cfabe9fcdfdcaefeebdbbdfbcc9ecaddb9bbadc
col50:   b87acc8cb9aaa9a6baccfbbbfdbc9dbcbbcddeaecfedda9edefabbfcadefbebfcffabbb9cfedcffb
col51:   9988781988aa99c895babcabacca99c87a9d5bfacaddabbbdacda7cadc7cdbbababbaeccbb9a9ada
ROC:	 BPix_BpI_SEC2_LYR2_LDR3F_MOD4_ROC10
col00:   3237634446467252747638475868aba6c654e8367583578579a665a4c5686685769b783a86376415
col01:   6254436797859867b5899916aa7586a6ba878a8898898a5576a995a85baa8c7a9d65bab8a796bb56
col02:   82821175336a94969364597889266886776e9b979a77a89b46ab87ae57a58b3a89c886928b8545c8
col03:   5145567325263888999ab899598a95797d8b9da85cd7a6dba888a86b55cb469988a8bb6a68a8a957
col04:   44443165733a5598576975676898aa789589b55d9aaa888b4a9584b8da6a7b87a7a7a96a65b99e77
col05:   44544755243767846c38a9876b869887998db6b98688ea6aa997a87ba7a8469c6ba7685865959c9a
col06:   4644365a5647398985747679ad696978a84766978656a8b96769667c897695585894a68979787c7b
col07:   2554494457764a85989b848769aa99d858ba767b6a8ab649abc6cbab699baa86aacf8ba477867586
col08:   7452627234844658a4978a7998886a8a999b989ac8959a97899789887758a9bac7757ba788596a79
col09:   3335a372686856a88879bb6b9d58caa86837a5a4b468667acbc5aab57b699696988886698b8379fb
col10:   53142697455891688888a796789c787896997598bc9858878a8987798a8b7c7c6adb6677fb589486
col11:   7169645694637859699677aa98897b9b7a8c896897977998a7d8a894979769699b77a75a69977999
col12:   33726886747874389895479869ab7477da689a88aaa3988a57975779786cbc6897aa9c698765b768
col13:   6346796754aa598867a6758779ba94c568796aa5d8c985d6a8c68b97bc96a8a67a4898da7b788c88
col14:   5a1335663556647789887a7599b9b8eaba998aa6cd976b588d97c99968ac8877cad477aa76658394
col15:   55917939678a89b4856577899c797ca979689c7688b7b4988a698b87f9a69a9a97a9596687ab6379
col16:   3a46657697a76968688a626a5ca8b99a8c7979aba7ba962a3b96467b79888a89a7a8a89c79889b96
col17:   5314886665577697999499698784aa7a9a9bb74c7a9aabb76a5a7879a5789ba878459bc77a878aa5
col18:   68476676a4475177868565aa678599d96b7ba886778ab7488b597a7b5879aa79668a8978a7743688
col19:   83699bc4678a4b5776a78c7bc4db99c696b5aab79ab6688899b97ad98ca99948dac697c7f78a388b
col20:   45537557789173996b1977778b899c5a574b87a8a79ab775a8c9bb7679a6ba87b98a8b9b9797886a
col21:   2577898a674644698768895d8849a6ba88a777b697bb6d88b8987b47b5ba6c5c79ba95cada79757a
col22:   15442536989866b569677b886ac88a988d77a69b48b97768aa98878799b8bb97889b8a88787a896b
col23:   4274254a3879b8c495499a949679aab7a88aa7369877a5c894c599acc8a858d8b6696b44b9b7b977
col24:   584576838465a48976477aa945899bb7bc6887788e7a978a87ca4986a7684798889b8a978984b474
col25:   5879848636a668a965589a8b7aa8d9abd9ab87cdb9ac6d4b6788bc766b8985aaaaacb899bb9997ba
col26:   997745668879aa7db89b9acbb9ba97cb8bcc76aa5caa9a8aa6bb99bc5bc8cca5b9d6cbaab99adb7a
col27:   868879656795889a69b9b9ac7cbad8cdab989d97876f9aacbacb97b9688caaed86a98c8caa9bbda7
col28:   5456276b87b9a84abab7896a9c6adabaa8d8c99be9af96bad78c8aae8aab9b99bada4ca9baad99a8
col29:   2266b9888149a93b988a8bba97cdba89a9b9ba7bdbaadd7b7baca99ecb9d9dd7af79a88dbabe8c88
col30:   b9596899496cd99a69b8daba9bb7e79c97a8ce9b69b988a7ca8bc9cbebcdcaa8bb7aacdcabbbcc7b
col31:   a49ea8daa779a98a99978dabbfabbcbaadaead9bdedd8cb9daacc9fccaeadd8f98dc9ea9c99bcc8a
col32:   9464858d8a98899a68cace7b9c9cab8cc9dc9ab7fbfeadda9adcbddfe7ccb88c78a5dfacaaecaad6
col33:   684a796ccbb8a89eae57aa7b9bc9aab9aecbbceaccaacad7dcc9ddcb9bb7968cc7bdbbca8b99b7d9
col34:   6b7859aaabc7c8a9b8baeb79cc9c9ddedf89aacd7cb9cd9abb5b99bbaff9d8bfd8acdbe9d8ccb78e
col35:   88599aa9ad7baadc6b9c87c9ccacccace9ceadabbecdcfbdab9fcc8edab9eb99fddcb8cdc86dbbaa
col36:   925797877988a7b8a7da6cb9aab9caccb9acfb7bbb7cbaa8ca9cbcaf9c9fcfbe9a8c9bfadecb9cdb
col37:   8b88c7b9d947aeabce6baaaaadcb8ed9cdd97abb6d9cc9cdcfd9adcce7aebecdddbbbcccdc8ba9db
col38:   8a9a9c6a59aaa889b9bbecd99cbdcadbdbadba7edfcbfad98cad9ffbabba9bfabdaab7a8ccecbca6
col39:   8a9576a7a9dd979ac89bba8cfb6fbcb7daabedccbfad7dccbb9dabfbcbee7a8fca9abc8dddafbbd7
col40:   4797998aba6a7aeb88c477ffceda98ddbb9a7fbadc9b9a5cddcbdcdcbf9fdcf8bb6fa9cb7ddeaab8
col41:   39a7bca97a9babfbe788afcbcf79a7c8dba8ddccf9bffcfcdceec8df9badfedaddabbe99cdc99dd8
col42:   b88f869a9db987898bca8a997dba698dc8c7b9fbcd8aacafecb9bbb9dcdd8a9bdbccad6dcaadb9ac
col43:   d969bd97bb898c8a9dbabacb9a8dddfeeac9efbdfccdbecddbafccad9cdafcbff89feea8afbbccea
col44:   bb78bcaaac88bb888c9bdbaeedbbabfc8c8a9caee869facbc7aebb9ee8bdcafeebf9e99eff88b9cc
col45:   ba68bab99b99bba8d9789aca9afeccbbecacbebabcf999cbaeebdfadefdcddb9ddcdceaacefdad9c
col46:   2b97b78a95eace1786aba9dcbbacccbd89eb99cbd9bcedcb9cf99ecacdbbbebcdb96aaac6bad887a
col47:   899dc8ccb8aabf9989db99bddbcc9deab8ccfdfbcbcfedcd9addbdbfdfc7edbbccabafdfeaa8eecb
col48:   d57b88a9ac6dba8dddaaaacbcb9abedc8ecccdd9edbaaffba9c9fcdedfbbd6fecbfcdbcfde89ccdc
col49:   99d97d89e9ba6a8abacbcefcddbdcabebdeafcbcdfda9abcebeadbfcaffabbadcdddaeddbecc9eed
col50:   bba86b8a98ca897bacbbead7cbccbadebfadeba8dfb7ebcfeeedaccbdcbedf9f9bb69ece9cdecced
col51:   8ab9ba9376a7aaab88acd8bdb98aaaba8aaabdbb9a98dbc79dedace89b8cd9edcecbcabcc6aa89aa
ROC:	 BPix_BpI_SEC2_LYR2_LDR3F_MOD4_ROC11
col00:   1474344124137394673454548867c695795b6648b8a89769494b537b88a7967788c8579a73487473
col01:   5555842b3747477b92b86d486779a8882a95677696a979baabb8c95688a9c888b77b6c89999a8878
col02:   17644675837626629697a6775a96876ccc8696a7c658a596d6a977b38a79a789b898b86787949a8b
col03:   2686627368696a7977a3772cbb9786a9b7a38897978885c97a8cd66ce7ad88699b8775a8aa699765
col04:   92724466576566568776969699788ba9849a459bb9589a6a5dc4676977a77cad959657ab67bb6a9a
col05:   514453a5621547287477997668985888196aa6b8cca998a9d7887b78b96989b8878ac589bb7977b9
col06:   534124976594646ab6c5a87898a69867485bf177b88987a797a7caa687788b8dab96cab8b99789b7
col07:   213257865c882674b457546769888a9aab58c569b87f86979797989c5998a9cb6897b48b8a8ac947
col08:   33223a742779a4148627694649bb88b5a7868a656ad552c89addaa57ba86aa7894f9c6db9a669799
col09:   7426266558495296289845799698868a8a967c81aaaa969b8685a7366ca8a6999987797ba9ea7a68
col10:   494475446674a7c7757478578a6bb96bac7769977b97b578ea87a77aa6983869b9b6a878bb8a8899
col11:   54295826495674928548a5661ae5acbb7985d6897599b6b47bb8487a8c97b748cb7a8d67b7a4c667
col12:   4656955449ad69778776598899987898687358b3b87ab5b648b78b8c566db9996b8ac8697694c99b
col13:   52118874498838467487ba9cb8768cdb9767899ac898af7bda7988178886797c9748975b9a8867aa
col14:   45119229473976715564556a79a9a86a48958c8864bbba8c6a66b69ca758b999a988ba87ab958a79
col15:   63656a6264975365738584758867a979b96967a9995a576ca76cbb6cc67aa968a8b89a9959c65a8b
col16:   9624663a74918549588bc45867b886a8b667689a7b7896a897b99aaa6987bb9acbd789ae87569a96
col17:   61a8499688858b896567c6757999694867a99878a869a85a8a98a89878a88a9a484aba9679978965
col18:   65546556758447438877a798879888778869579987889687597899aaa8959ca6cbbda7b9aa958997
col19:   54168318845982898897497999a996a9897b6cb48bbba87aa8ab8b8ab887a69bc98d697cb95ab99a
col20:   4553466565829a678668797b878898698889787b697b9b98978ada97c99996df7cbb9dcab8689aaa
col21:   45255225ab98a5957673777776a797587a77c87a9a8a7a89977a9bb6988a748497b677a7897a9a89
col22:   141667439676969576a369749965677b66b9988a9d8c88b8a8a897b5798b9896dba6d4d989acda9d
col23:   466716a5574748865a898765aa7a77774aa7995958b69688976ab9acc7886ca978cc9c99d7b7b97a
col24:   139452545b6895565584779877879a978994db9b8ab98b75b9bcab8756a67ba988999c7ab977c6ba
col25:   4668546889856d8a74979899c79a6799c9c9e7a87a97c9a8ababa97c7a9f9ada8ba699b997bac7a8
col26:   9556779759a9796889c76c5955bb7ccab6bea6bb7cbbaa89e9cfdbbdcb99aba7cacaabdb9fafcd9b
col27:   536483a2738a89c4a68da88aaaca88bba6b79cbaa7ae9bb77dcaaa8acab9cba9a8496da8a7babcb7
col28:   67559a58a968867a54b8a69a9da8aabbc9c95dbbcbb8c9ceca999c9fdb9bbcb9b6895aacb8cdbecc
col29:   494781597a97ca96ac98da9e78bccb9ca9a8aa88ccaa7cc86bcbcca9bc8bba97aabecadce9bbabfe
col30:   5516566258aa795997869a89978bc98db7dabd898c9b99dacaea99ceecfbcae7ddabdecabbab9abc
col31:   64798945bb8898c9abb9facaeada8dcabaa9fdbcbcc8dc8aebdfd9bcadadc7aade8c8dc6e5dbabe7
col32:   6578ec3ac979678d77546ada8c9db8bcbbaca9a87abcaccbcfb78ad9f9b8badccabecca6acfafea7
col33:   3a576865a77987aa78b899ab7b89b86a6edeb6accbbc8b697bace899d8cabafddabaddebcecfdab8
col34:   9a9699a9ac97a59889ab9cca8aeb6dd89cae9ac7c9bbbd98b9e7bbabcecbccdedbc6aba6fcfdeeaa
col35:   66b58bb676a68b969baa99eaa8cb8bfccaa7bba8ccc9cbe9cdaacbdaa79dd9f9edccadbbc8dbcbb9
col36:   67a698a9866968cacdca7b4ab9aa98a8edabacbbc9acda8a9ebbebedaacde8d96b8ebbfbca9bc9ba
col37:   997976dadc5488ba79788c6d9888fccbdcecb9ccecadaccacbdbcaacadcca9bbbafb7ded9ab7fec6
col38:   55a9939eaa84daeaa3bad6cacf9aa6cbbebbbd79eaabe7cacdcccbcdfeaebcbdd9bceabdbbddddff
col39:   97478978bbaafaaca8aacbbbbbcccbd5aeeacaaec8acc9adbddd7ea7aaaaabacadbbcbdbdabccdac
col40:   8898b8898a89aeddcaeaa7ad86d7c78f86daebaa8daca9efccacaabcbea9feacca9bbcfcbfdbc9cc
col41:   a7b9c767aab8bcdaccd97dcbdbbfc7d9eb9cc9dbdcbfabb9caf9ecbb9cddabb89aabdbd9dcccdbfe
col42:   86568acaabb7baa968998cdccba9c9aa9badfaeb8ccddedcbadbfcadfaaaabacafeaabcedbccbdbc
col43:   7869a49cbb889a8b8b59dad8dbda9ecdbdceadfc97bbedecddcebafcddfbed78fecbaabfeddcc9db
col44:   658aa8977aa999cd88aec9bbabecb9cab7b7c98acf99be9aecfec8ebaeedbabcfaefffefcbcfdfff
col45:   a9a8baa69b9d9a926a7bdab3b7ea9cdcab8bb848ccbbdccbcbdecbcbbcdfbffefcdbabebbdfceadd
col46:   978897a6dba87ab8d7acdbf7cbba99bde9ccaceadedbccadcdfbeaccb9bddfbdcdebeef9dde9a9db
col47:   8887ad98859bfc9c9bd9a8aadad94c8a8cbaa8fcdcb7fbdbddaad8dea9acdedddeebbaeabbfbbece
col48:   8975a9a8ac7a8aa9aa299daa9cbbebbbbe9de8ddab99ddcb8b9ddc9af8dc9bacea9cfbd9e9fedfc9
col49:   6ba9c71aa9cac9bac9b79d9ba7fb9cdbfa8abcedbbefbd9fcaebfadebcfbdddecb9c88fbbfbadacf
col50:   7967558a8ddddb998adad9cdbca9aefbcbaabbadbbb9dbadbafd7dbc9feafddbfcffafabdeccedba
col51:   8b748ca6768688a9c989879b79a9ccbb89badbad69a7a8caad98baabe99dac9cc8bbacabcad5bfec
ROC:	 BPix_BpI_SEC2_LYR2_LDR3F_MOD4_ROC12
col00:   69588536549565968596474989738846727698757333ca79a8576718b456b5368c796484785d4697
col01:   18b8585898889a5756786ac7bade9859b88896ea6d96a846685aaaac8b79988a99a6787bbc9696b6
col02:   8a76c593c883b545447796a6bba56785726a8b7a76ab9c787a876896a6468b68a777b69aa868c696
col03:   578667b76963668959a46ab9a77587897aa9896a88a3aaa85a8879735b948caaca26795658987ac8
col04:   66bc7a36bb6795868775a679898ab57896898b95a5897a9798aea7aaaf8a59b9974da9b769a9b899
col05:   51769c75588b56a34775a795b98c769898679a58c86675a68986986997c78c79888b37b7978aa866
col06:   4895a83999767ab5368988775b988666c399ba8867886aa9888c4d9a479798ba98799a6a98be7997
col07:   8644581666c66867883ca93a69798296ada689babd4999a96866a68c9cabd677887b75ba686569b5
col08:   3485777869679778ca956b98c4a7cba7687d8cb846ac6b9479bcb99ba939885a67a9a76a58368678
col09:   9a8598395756a97797ba57669a7a57b79aac7bd8998bab89ba98ca98c84c7a9aa8bcadc78ca879ac
col10:   2586b538b9c5996a55875a4879b5537ab8a6b75b9a7a854a79aaa87988858d47ab894d759896a766
col11:   8874aa6975aa9cac5689b4b798875c858665a7c978676687db2b8877a8a98989ba977bab8d9985a7
col12:   85457b86a88948858d469369ba7895c8c5a7b9c679977a5bc6998899a7aaaa5a378a8465a9a97995
col13:   4649c5988787b95b9699785bea99a7d86b98d967a9bb8b6b68b57baa96ba69749b9c85baa6aaad54
col14:   265852987678959a987a8ad98a89988ab9bab83b4e558757a9a4da5b9b4887b9ec9a9c2a89a7545a
col15:   55599787764977b73748687a88a9a56d898975c7699498998a8ba76a969aa48837c88bb997bd5b9a
col16:   21677799888767cb9859d9b8998a389d8bbbdd9486ad47ba767867a9a5197a5c5a88c89b68a97989
col17:   66a49788797a8b966cb99a6fbd86c58aa7b89987966aa66d8b8ac6c5b7877c8897a777c9b5a948c9
col18:   99636cb9876275597c7c99749895ababa88ae79dcb66a96bac8aa69886768769aa67687abda289da
col19:   467d963a869966a6bcb9caba688974bb9ac9d9657a86c8aac849c9daa98c8cbb97898bd879b57a8a
col20:   376659e9756274889d9ca9c7a838b8b5666998575f8978adda88978a8c998baa65ba7dbbc7cda6d9
col21:   552864868a448c98458765a8789947ccaaab968ce9596ba9d257a9b676879686b9c8a79a77d77798
col22:   ab3586768ba8515139889556d79cdaba6928a9f39846d97db758b576a873bc5c6c886c4696bc993d
col23:   b638366579946a37b6855b7a4868a776867c9cd978a77575b756a7878db6865bbc58a858d7777998
col24:   967377965897925a6dbca6b888996a9ab68a755899ab7a999797aa788a84d7c99975786989a9a896
col25:   645878465d658859a59b89ab888c4ab7dcbd97a5b867c86dbb7ec9aa68797abd8bd8b797a9c99bcb
col26:   95769bb85a89de798a6ac399eb5aa7cba8b99a6889acb9e8aacab9eab99bc9a9dd7bda8dcdcd5bab
col27:   a67457b797cd99bca978799a99ca9ea7cb89da9c968cca9ac89a9b9d9ddaa7ddbbcacaabacbeca89
col28:   86778ba97565cfc6ac685779abca9a95c9ca7b9ba6bbcca99de8ebbb798f9db6e99bc8bcc88fa98c
col29:   bc979ba49cadc8bafdb58f9beb8b97db79acbc9ad8cd97b88ce8e769789abcbbdfcdbabccbaec8aa
col30:   869a9a87977c7a96bc9aa987ea99eadafb97b878d5fb8a78ac8b9c99bcbfac9cd7cdaabfdac976db
col31:   aada6a9b888d8ba8beddbdecbbef99ddd9b8faca8baeca7eab9bacccab9ceccbaacb77b8dbdbbac9
col32:   c76c6cb5486a9bcadcb6b8cbccca8ace7babcda8a8bacbbaeebdadbcc8b8acaeab79ab8cdedaab69
col33:   aa58b4687aa9b78adb79f8b7b7ccdb558dcfdbbb8eaf8cacdbdeaadb9bdded8f7cdda7badddbfa9b
col34:   5b599bc9c86fc6b9aaa69a58bbb8dcadf8cbcdaccbbaeabbc9eb8dceecf9ed8dcdbfcada99fdcacb
col35:   867976aeab9caaa89cabca979dbe9b99ebddddbdcdcdedacbdcc8ba8cfcdcbffbca5acaf9dd9bbea
col36:   76a9a659b9976b7cc4dca9ba87b9aaababed9c8fdceab87bbba6acdcfeebfb8fc9edbfebf8dcbcab
col37:   5a969bebdb9cbababbde989b99fcac9ab9ddbeabadebdbabfabc9cf8cbbdbbfb9cee9dcdb8edabc9
col38:   8e86b76b65b78cd7abdbb8aaddd7c89dbbada6b7dabfdcabeaaec7bcdb96afed69ccaec9ebbfe8ba
col39:   a656b8dcb8c9bb989a9a7ecacadfeae68e9cc9da8bbdaccdecf89eacbddcbbbe8bde9deacccdbbd7
col40:   cc8acb79caac89bae7ca8ba9ab9bcfb8d9badecbdc8acdcdafcbfaeabdfddafcaecdcedbb99afcc9
col41:   ca78b898dbaebf9987eccfadefdeadeffbcadcfbecb9c89ab8abbcdebcbfafcbeb9c9fe9bccccfdb
col42:   abb6c98ca7a7cbc8bb9bbdfcd8cd99a99cdcd7b6cccfcdeeaacdd989bda88bdcdcbddeaadccafbab
col43:   8cd6698acd9c9aadbf9eecb9f99dccbbdecddcfdf8bdaf9ffdfcdcfadfaaccadbffdbcfeaaebfbbb
col44:   8ebdaafc9cd9f98bbd7dadd9baaa86bcf8dbfdddd7eea7cbbaaefcbefeebeadbdedffeedee7bdbf8
col45:   a6badad9979aa88da9aecbaddeecafedfcbd8ddeaadaaceabedaecacbce9cdbbdfadbbadbbaaabcc
col46:   56e7da7ba79ad9bece8eceac6bcee9edddf9ef9abcc6a9a9dfb8decffffbadacecabceeaac7ddec8
col47:   b8879fab8bacec98d9cdabcbeccdebc78edadcbccbedfefbfbbf8ecb8daafedcbdfaebccdc9accdc
col48:   b97cfdc89cbbab99c9a9aa6c9aeffad9cb9fc9cbf6dfbbcc9dfccc7ceebaebebbefdaaceba9eeedc
col49:   869cbbbe9efac9f8c9ddbddcf7df7ddfaebbcddbedceecddd6ffdcfacfce6ebde9cfcc9cdbdafebe
col50:   99ab779efcc9b8ecdbac59befefe8cb9de9debf78aeccbaddbbf9bffbebecbddbdeefceebffaccfb
col51:   86ac8a6aaa77eabebdcacc798cda78cc8dbbacd9badbd6cddcd8ad9b9adfdd9ebccce9dc89aadabd
ROC:	 BPix_BpI_SEC2_LYR2_LDR3F_MOD4_ROC13
col00:   438344773673a1695b8486c976b88688654dab88867689a6a9778b9e759b79736699673498474894
col01:   856485655a56764b7a579b9777da9bd9c8b76b9cc7978fbafca8cacb9ccc9997a87ab5b9c7486846
col02:   37474727859884468897b9893a3a68689bb79579fa9c9c9845daabad799bca76945b67c9e9479863
col03:   794829839888989774a8a887aaa9c89bdbacc86cb9de9ba89a49c99bfc797ba997a99d9897b997c8
col04:   a68738a68757567779b899787a6964b8ab796cca8c98acc8688a8798898c859b8c9bb97c89bae7b9
col05:   17166686585a998746a5b86357b7473db69bd69cb79aa847977c6bbc9bce7c7abbea4877a9798c58
col06:   4664651991954659b9996768a987ba6b5a8edcb88bdd67699c5b87b8a98ba93674be9c66966a6499
col07:   b58258445985f79cd834967696bcb66d788cadcbbc7a7efda46c689e8b89aba8998978a77879b8a5
col08:   9735386945794866879675889a87b37bc79b1d7be7988e8ad8769d698879578a86e6ad997a57b766
col09:   7a84b88847469459a9ba9688ad7989e99a9b998ac689a997adba999abcaba66aad8d9789aeabbc7a
col10:   76565668896967577a758adaba88aabac4ac986da888b7b79babbf98bc5b88ebb48a939a9a8a2a58
col11:   6356676788917769ccd96c6bbdc8b9ba899ba7999f9cbdca58f8abe9a9bb8aa9bb879a89d9495788
col12:   675674871468942998a7885b7a9ba987b9978e97b9aadbddd96ad9ba8cbbab96995b989b98875c85
col13:   633a62764c27a79c6a4989694d99ad7b4fc7abb389db8aae4c9d89abd61b989a9d8c896d97d3ba74
col14:   a3325998499679573a5b97b9b984b9a8c87b74686ab89abb9a887bc7af87b8996a9ea388baa87996
col15:   6325774b6494bb9667679946b889a78ac9846c96788ace6cddc9ba897c7864bcd4cda8787ae639b9
col16:   35165733a779987668b99877998d9c978988b6cd8b966aa6698cc7968cbbabaa78b99b7a9ad9b5b8
col17:   6127262a678b789b756b86b89a7aa8c78697db89a988b7db8a7e97ab9bdcc67a96b7468c98669521
col18:   46717525845998a8e7a77695a8caa9a7bbaa9b65aaaa988ab989d8b8ea9a7da6cca886628b545397
col19:   35256747566669ae8a9959a4c7977a8ebd8d9578bb5a889aabb46648aa979c99ba5c45cd98686ac5
col20:   468669aaba554a8679ca65389d67f589d99699c6699be98bba789b9be8a98b8c695798bbc5a977b9
col21:   84924959b96a6cba86558ad98888a6789bac99ea7cba99bca89bdb59ba9aaa7c98fcb567caf8aa8d
col22:   2595627869a969a9569b885a87ac889b994769897ca99a798e8ca98bddc9ab7adb8b9796829639c5
col23:   71131379c73766978a89a6fcc98696a7a887baba7aa7b9aabbc96583dbc66b79c896b7cfa9b9c969
col24:   78766684782a79ac9869798c885a5b69986c76d398aa6997bc999a9a8aab75d676ac49ac9baa7c59
col25:   4a69632b9867845968495ccc982a9998d7bc898ecaa7ac98d9ab8ac6c6bc6857abb8ba68bcba6d8b
col26:   976a354866989a9b57caac5b87e79c8b689b8cadcdabb7adbbabc9fabfcbbc9dbfc8bcbb5fdc6d4d
col27:   74176779b99aa595785abbbcf9c9eab8aba8acbbbdbccae9ccb99c8f9ef76fccea99cd9b9ea67cab
col28:   3a66485789749a9875aaac8bb8cbebacc9cd9d4aa8ccb9d9eacfafcadabdd69dada979aa7b97bda5
col29:   b64b5b67798ca688bc6a9ca686ab9bce99a87fbdacdecbdb6bdafccdb9bbbbdaaca8a5889ca898bb
col30:   8865599bba83e58b7a76a895b9d9abeb6d8bacd8fdebebdcc9deeceddcc7cabd9bcdb89b7cabbbac
col31:   7789c77aaa5699aac6a6c8bbdca98e7b5abcadbdb8e7d7cc98cbebce9bdec7ae7c7ca9a8cda6adab
col32:   aa4359c9a788a5c7dea7766cddd7bc6be5fd7abbbbf9aadefaeef7a6caddfa999e8d59f8dcdbaa68
col33:   8777a568bb8f88c79cc996bcebaaafce9d7bbfda5dac8fafdcbbbbdcbbbcd6cbc9fbdfacacdc68b9
col34:   a685a8475987c8a73faaa69aec9cffcaeb9ddecacb9dc7acba9e7cccdbc98cacd887d7a9ca457dbb
col35:   96695b1c6b7996facdb8b88cebe6cabe99fbbbadb9ccdfc98caf7dbbaca7ff9aaf8ab797d9ba89ca
col36:   84893e97a88b8adba8d9f8bafdeaaac9accddccddddac8cefeedecd7c98dab9ebdaabaabd7ba9ba5
col37:   98b7577787a4d6ab888cb78d98af9ca9abacdfbacdefacaafe9dbf8e8d7dcbe4ed7ecfb9c6daa9d8
col38:   b6a8aaad9aa78a979ccbeb76cbccdcaa6aeade8fd8becdeecaeccbda9deaebf9c7dbd9c9ecfbba9e
col39:   a19e6994b9ab9976c7bab9aadbbdcc7facbcddec98abda7ec7eba8ee9cfdf8adbfaabb9a968a8a99
col40:   9a39e67877b8a8eaabd9d8ccfbabddcefcbf9d8a6acddb8bbefbfdacfb7c8c9bacafbbabeaddba98
col41:   878ac9496ccb49ec9fc9cb7cac8aad7d9c9b899ac8c8edbeb8bfedbeb78f9aa9acaeb8edca6b7a7a
col42:   a69697896fbbf385b7cbb7aee98dbcb8bdadaccbdab8bddcf9dfaacaf7acbeaaaa97999a999bbcb5
col43:   7c8fcb795a889c7ca8aabebaaa7be9ac8dbecafadafbdccab9de8d58aeaedfb8bfbecbacdaba9a4d
col44:   5c7797b6c74d5db5c8ad8b9babead9bfeebecabd9cb7b797ba8cccac7ccefe9aa9cecbabc9acab68
col45:   4474578baabb76b4dbabd899cfa8afc999bedebcdecbfbe9ebfbfaaebbb9fccaebeacdcdec9fbdbe
col46:   5476695aca897bcdcb6b9bc9ccbcacbbb8aa8d69addaab9eda8fcbc9bf89cdbcbdb9afa78b9bbd8a
col47:   697368b47bc9cbba99be9fdcbcabe9a7cbcdebb9bbdf9bbfcbfce69dbad9abebad9e89adb8ceba9b
col48:   b5a9c3799ba9ababb87cd9a8aa9cc9ced7bccee6cb9fb9febadfdb678fdb9bbbc6dff7efcabbb9ba
col49:   35caa279a6968d6bdbabdaa9bfaec8dabbabcddbbba9acadbcacbaeadab8bbac8b8abd9cf7ba9796
col50:   9b67ba6b86989c95a689978f9cdcabbdcc9bbbedeeaededaedfb9cba8dcbfacdcf9eb7dfcb6aa995
col51:   76838967867794a87b486a89a86da749a49a8cba9ca5abcdb798d7dc8ac7aaa7894c7797e99497aa
ROC:	 BPix_BpI_SEC2_LYR2_LDR3F_MOD4_ROC14
col00:   4613826b98a7664988679a7757b886d7a5db98968a96aa8bb8899d987879898ba7de989bdbba98ca
col01:   5a47885a945b6939d56588c868bb9a8a9c85c9b69db794aaa8bb8a97abc778aabacbba9bcbec89a7
col02:   486646a767aaa3a8387a96c89b98996a988999b587cab9b7bcabcadebbcabdbb89cacae9bbeacce8
col03:   286397a58956858bdb5697bd8ca86998b7c9ed7bc5aaf9bca7cc9bb6dbbabdcea77bb8a9d8a7bacc
col04:   768a95451a9679517557aa686c9b79ba9997d77adc46bac9bebaaaa8edc8aab99c9da9cb7cc969e8
col05:   689494699786776963973aa8859768787c77ba68da998bb8a8daaacdd7cbdbab78a8d9baa8a8aac8
col06:   748668659365867557656789a6bb7cab9aab976b9bac9cca88a9cadaa9ceafbaabddac8aa8c879bb
col07:   31585579588388a767878798bbb567999bdb8ad7be9bcaac59abcada997cc7cc77dc9cb9b8ec6999
col08:   3589455579754897789898a8767c969abb7a6b99bd3ab7d876aca9a8bd8cd65adbcab99c8b89d8af
col09:   3566a768897aa7886b8ab8a95c78ba7b8db8ca6aa9db9babcbecbcdb99ce9ccd9ebbaebdb8b8ab8a
col10:   6795798539659bb587ad9aa99dca7d8799abfbcc7c9d8c9adacc99ccbdaac9bca88acba9c9cd9999
col11:   65588847866558979aaa97778b95858a8c6496859c7c9aaae9a988aa969b88fbdbc7ae5dba86cdb8
col12:   258978518aaa67767aa998ac888887bb97a88b66cbaca89c9caa69c9ebbab98969a88987addaa89b
col13:   66b49c7749a85497977894b9a9bbab8669a96958aab7cacc9abada88fabc8aa79d989784eabbc8a7
col14:   866654579a6947886c86987567876aaa9685a8aba9acb7acdbcaa78a7ba89cb6fc8d98fbaccacac8
col15:   626151728798a63765b86685aaaa78abb989b97dacc6a8bdbbca67de98bbbcaa9aaa9a6cd69eabae
col16:   a243563787646997a488689496d5baababa78abb8699bbca98bc8888adafb7bbaabbdba9de79adba
col17:   5795146475758688696577897b7acd9aacba9a548a98d9a9b948c9a8b8ade99a99ac6b799b79b8db
col18:   585646a28779a845a9a6566baca785c78b79b9bab9abcb6ccbb978ba9c78cbab9899addbb78cacb8
col19:   2326a6379d4764a36a7a9997ba8cd6999a98bbb989c7a77a86889ec8c8aa87ad69679a7ea9daaaa9
col20:   51497932638873566a84626aac8795aa75a8a59a569b9698c99c8d8b5a7c9598c9babbb8498b89e6
col21:   61646a4a887687a7aaabacaa8dab96ba9cab788d97889abcacea7b5bf98abbc8dba7a9bfaa8bac6b
col22:   4457864669655a965a9599957eb66a98c99cdb988a8a598b98b6797ba9a5ab9a7aca8cbcb9ab8a9b
col23:   44684c8668839a8482877776a99a86ebaadb8967aaa99a9ac786a89b9ada88b77bacc889b9aeb9dc
col24:   963957769b768789684789885aa467a99c9ad9a5c9b8a66a8c89bb999cbc78cbca8a95b66c89c77a
col25:   8897866a65a67378a57d6a998ab98d8a8998ba98a8fcbab88899b8e6ba898ebaeb7cbdddcbb99ba8
col26:   417a757786b5a77978ad686bfd8bd9ba9adaa9cd89ba8bbbbacdc8bbdbbb7ae9eebaacbabbbccab9
col27:   754a97b95d5838b7579b76688bca9baaca98eaad99ca8dcd9c8ffffdae7b8ba977aebdbdbcdaca9b
col28:   95b8ac999778797988cdcbba9e7ddc999ec78b97c9ce9caf99deacaa7babd9ac6ddbbbbb99caec5f
col29:   968b678896a85bbaafa7aa9dcae9cfaad6aaabcacba6b7b9b8ebcdcad9dfbeeac9baecd9d96bc8f8
col30:   8a8a967576aca9d964a7a8aaa886bdcdeb7abaccd86ebc9f9898cabcbc9eceb8acfcda8b9a99bdaa
col31:   a87645899a7499b7aa6b7d6da9a6dabbc8cdbca9cb9ebbdf7cdbbba99bcddbbbfc8badddbc9a8cee
col32:   55a76687bb85a89777d789c8cc8bcedb88f9db7dcddcdccddaabdb8ba9c9fcbbcd9d8dcabade8b97
col33:   9cb8a8b9a6dd599e6bacb9db699feaa5a89be9a9c8c9dbac89bda9aefdfbeb9cebbbcedebcaad9ba
col34:   8b59a7695898ccb99a97ba9b7beeb9d9da7aad7a9c9f8ccbfad8aabbdaeccdcbaacbfec98c9aaebb
col35:   894bb9c9877aaa8ac7c9c9f999ccbb9cc8caeabface97dd9dabaedccfaffdbceb9ebebededdab98c
col36:   5a6a78cb79d6978ab7aca47b8b99ba9abc8da9b99dde8c6d9ebabcabea9dbdb8a8bba9ebcfeadbbd
col37:   b7cc89bc7ac6cbdcaa9dcbbbac8eabebebb9da6dbcc99e9efbdb9becadcaacdcadd9b8eaadfbebae
col38:   599889999a97ad8985bbb99bcebdacdbc9cc9cdcbfcbcabba9cdceccccaac9cbb9cdaedebcecabac
col39:   96868bb7985a9d88cbcb87a9b9aae9a88edeacf7fc68badedfcafdbbccca9bd99a9de8daafebd9de
col40:   9a772d89ea7b989a98ea9bbbbabbcdabbbdebdabcd77b98bdeaefc98dbbbfdfcdeb6ccb7cefacec9
col41:   6c67ab59cb8aac99ca99a9bdb9dba9ccccbabc9bbc9efb8bbafaaef9ecdbdfc79aeadfdedbeccbc7
col42:   9b8a6a56da98dbcb8daa9ccfc9caaeedcabecccccdbdba9bdd78dbfcf6dec9da89efbdddbac99bad
col43:   78ca6999977d99acaa888cba9adadaeca68accbcdfd7debcddecbbedbecdbc9bccfbe8cadbedccdb
col44:   94797a8a7cddc8a9ab88bcc99bad9ddbabbbbebbebd8cbccbbeeb8b9e9cddcdbadabdcfbdbeddbe9
col45:   62978bcbfb799e8baa82acbabdabbbcbbbdd99deb8bfbbbcbcfbedccd9c9eabafdcbac8ded98dbe9
col46:   da4b978c97a99bac989b9ac9cdbbcabcfdba99ddaeecacedabd89cbbd7afaafabecbfbbef9dbcdd9
col47:   6ab97aa9bcb998c998cbbbaccefbcaecfbceb9bebadebdbbcdecadaced9dfccedaeccccccede9fcb
col48:   6979c8a9cae7daccb967cadcfacddceabf9ac8dbbca88dcaee9dceffcbdfdcddbfaafcdcbcb9facd
col49:   7bbab8a66895ab7cad9b7daaaf9acae9fbb9daaccc7fdbaaeda9dcc9aeecbadbacfd86ded8dfba9a
col50:   658bca87a686bb96bc999da9a97dadbcaaaedcbaaefbdebcac9ad7bdecdffcca9fda9cb9fbeeadcc
col51:   8a86aa76adcb889caa67dbb8c89da68a58caafbe8c7aebaebacf999baecbfcacafaccd7efba8cbcc
ROC:	 BPix_BpI_SEC2_LYR2_LDR3F_MOD4_ROC15
col00:   3786597277ba7745b8cd57458a9abdb7dab7ba669be8b78cb8bb7aa7aa9b4a67b5daa97c86985684
col01:   7669659914863992b9cb64b879e6d5aadafdec9db8d58aebaccdaa7a9f895e79bd4b7cb7da98a9a5
col02:   4584d69b835aaa648368b929bda47bbe7a9aa8b8aad86889ca99a9a9ae89ba7cb9d8a99d8cc97baa
col03:   86893799a7898c968c8ccb7aa8bebbbcaceacd7efbb9ccb9d9af8dacfa6ed7ad9ecaccabf96999c8
col04:   56136498a78aa46b8868a8b9c96b7e9bbca86b8afdbc9ce8d64bbea7a9bddd6dfdaca8faa8aa9adb
col05:   9678786b8a8499bdca57ac58b9cda98bb7a9e8a8f99a7c9ba7c59b897979bcb88aba998cbaa397ac
col06:   8a53774a9bb88b788a88b669799ba89687c7bdca978eabadbdf98b7a7acd9aedb687c98bceaad67c
col07:   69885978b68858981995e5ab8b6acaef8ab9c7a67fdcd8889ca9ebb99cdccc9bcaba6a98b7a7b7aa
col08:   5236a39949573a576a6a938c669c86c9cac9bddbb87a95b8ddbaaaba9bc7ab4a9bade58a74b698a7
col09:   7a77a37979669737869794bb79cc79a7db68d89bbbaadaeac8bdd9c6dafe95ab95aa77fa8aaaaa99
col10:   987a59a7985cd8b889b7968e8ba79889c7b99a7cb6ba89abdca6d59a6d8fbde99a9b66db767cb7bd
col11:   574737564786839586cb99e86daea98a9da9b9998cafd8a6b9e7eda79db6bdadea988eba9aa9a85b
col12:   38346b9925897669799975995777d9cbdbad8689b8c638ce88bbeb7997ca9ba7ab7d7b86898a5b96
col13:   4727327b776974b7979ca996887a596abfa698accbdcc97aba9bcaa6baabb585c89b9e7a9da9b8e8
col14:   9545984873c765a988871c5ab77c8cc9cbb7b58adefbaba95a77697bcacc9d8ba9cb7acba7977969
col15:   65897487997a9a89779a99c98c8b87c88c7b57cae9b8b4d89ea79c88c9bcba8ce976ec8ce5b4b89a
col16:   5535957896b97a837a58ac9cb3bd987b6cabccb998bac9cc97b9c6b79d8c99a7b89ec8c5e877a677
col17:   56349bb7448476af8ba788cca78ad6a8b9b4ab897b77bbb6cb96cb8cc998d869ae3cae49dc793978
col18:   84446666a7665b87d7865bd7ba6f899697b8ac898a759b99a9bea9c87dbba8988896a6ba7c87a8a7
col19:   57867762578d43489859cea6aa998dc98669bc997ff95b94b8b76c8aab8aa7baab8becc8a76a8787
col20:   794257659b66787838947566c78bb89abda9aa8b99a58b888bb7a9b89bbccd99ba75cb8a7894aa7d
col21:   84485a75b87d747a8b5b26a9f8cb669a8d9abf6cac89c6aa7ac8a9dbcb8eaac6e6a8899c587bbc96
col22:   555984486bd95b68776aa7769bb5a8bbccb859e8ab6b4edc779ebaece6999cc889babba865599aa9
col23:   45797868b786aaa868548aa5a9a789ab97d489bfab898b8abac47ae55b7da9abbb8aa9aa99d8b679
col24:   87553378a44777988994a96a7a9ac26bbd6998ba557aa8a89dd69a9d8eab98acdab9cb9a96ad8895
col25:   556578667898547a78b466aaabaa9bb9ab88cd8bbfdac7c9c98b998cc789bfbaa7ba9cccae585bb9
col26:   86b95d695b995789aba9978d99b9bdba86bbecafababccdabc99b85e8cbcc8acaabc8cabc7997b87
col27:   2b94c1b5a6ab697986b9898ab9dbae79bdaccbaa988aa9e99a7d8faccc9a9abd978a89979b89bc97
col28:   6895b48798a687b8a77688caa6bce9acbceb9afe99d9aae98d9c8addccc9ae8b7cfbbdac9da99ccb
col29:   787864a736b959a8b989c999c8cb4a88c9b98a8a9bab8ed99dfeacabfcd8acb9cbddd9a9c98eba7a
col30:   a25699b7b7ba487c9cb8557ad8ac79cddfbccb8babfabc9ecfbfb89dbe99a79babbadba5cda9678d
col31:   65c64a48886b768a7888cc7cadf9e9cb89dbdd9fcbfddcd996d9aecbe9d9eccec6a8cddfcbee9cca
col32:   9a9ab266ca6498a64cabb8d9dceccbebbba8ac8bf9cf9cdcab8dbc9c8c9cb99ddd9f75bd8beccbdb
col33:   a6577535a7a75bda89a9ada7ac9babb8adbb9ef8badfbebdcbcb9c8d7dcb68cc8aee9cedfc9fdac8
col34:   ba748a9aa8c57cc4a85bf8daabacacbd96c9e9eabbad9dedacdbcab8fad8acbdfe9bbd9c887bca79
col35:   56b887a9cb65ba4aa9cba9d87bcddca8b4ddb9cbdeccec9cfcf8bee899caca98a9a9ea9aacbbcdd8
col36:   4775876b986a89c7abab9aacea79accaaa7babddfbdc8badfde4fa8dfdfacb9ac8ebfeffc7cccfad
col37:   9995b5c5a985aa9abc8dbb9aa8da99b7bb999cbb5ebedbdfbd9ee7febb7fbeaa9dad8c79cccaccf9
col38:   5aaa48a6498cb799a9cb8ac897cd99ddeefa9dda9ced8ddca9bfcfbabdb9e9bbcccefebfcc8ecdc9
col39:   aa93b74d7cceb7adb9a6dcceca8c8cbdc8fbaacdb8d9b9dbd9ddcd9b99bfaccb9ccefcdcaddfae9c
col40:   b4965bb957a9b6b66a7ea65cacab8abfdefbd98bdebacddacfcebedc9dde9bcfbaa9dcbc9faa9b98
col41:   a88994768babcca99cad9ac5d9edaa9badbcfec7ac7dbcceccedcdafdf9baabb9d9dedd9c8d7dafe
col42:   79e677ab9aa9b9bdba78dc7aaaaed9bbfbbee9abadbdef869ebfbfd97dae7ccc99a8c96c8acb897a
col43:   775aaba6b86a779a659de98da5acbc89cae99fbdf7eccae9b8bfbced8deffcbdbfb9db7cfc89b999
col44:   79a85abb679abead9f99aeaba9c9d9a9dabbfe8feabbbfdfcfdabbcbdd7addcfecaeaecb9dbcef8c
col45:   54859797e5d9989ab69abc98b9aad76f8af9eebdad9cc9cdaaecedbbcdcb899bbc9bcfc9dbbdbfd7
col46:   5948a695baea7b998f7bbab5b8a68ddcafbccf6bce8cccd9f9fa7cffef7addeb8dccadec7cc9c899
col47:   7a77a7c6ccb77b9cdb9c8e9bfd8ba7afda9dcabacdfb6ccfdeeaf9ddceab9faebaa9c8bafcdba9ba
col48:   67a96aa7888ab89d9a79bbed6e89dcc6bf8bebceeabcfebbeeebfaccbcacceca89cfcd9ddc9bba6c
col49:   596b774ac6bc9a89aca8d899b999dfbae8af8ceebccfe8cbafa8ac9cfcbbecccadeccdcdbdcbd9bf
col50:   7976b998898b6cb8bd9988cbadc7caa5fc8eb9edfbab6e99aabdabebfededc789f7eec88eace9cab
col51:   8a657a49c56c47b954875cfc86669466dedafadc9c5a9c98d996a6ca9beea6d7a88d9fcbdab9ecdb
