ROC:	 BPix_BpI_SEC5_LYR2_LDR9F_MOD1_ROC0
col00:   551537326531642329351134216576755356553877626676a45364564745a5541637466458273311
col01:   a59b7c885656b98539b4787e69613b8c7a2598a6cb7b47b79779b857b649d7767661a6864cb66791
col02:   549447525679a36254535215198b765957a77a982a4754a557947761c4884559334545585172a637
col03:   433635875462ab84875399a5a76b558879869b9676887ba7aa7869aa45cabc585883754745666953
col04:   35a95a71873677935a94a754775676959888667c987f9768b65178866926a6493675858434684962
col05:   7666b587675885689aab7aa9a8c379535955b8d9598466c777983575a98466864c59794a656a6488
col06:   6247575984642b77a6577767a56aa3489443bcb7694599a46748578585748a364244486364b96774
col07:   68b3898a64aaa8c2766a67999b94975ab487ca69a96a98765899847b8859c9547829756766845234
col08:   6642558465797653755599761868196666979587585bc75798656bb96c6736543a5563879668a241
col09:   b883844ba6698b9888658b965b9a88774c9be88c96474da4d49b6499aa785989747a5b954e648883
col10:   2599249a86887547447857979b96854c979a7769677427d6b955b45d849aa6556a684552613269a3
col11:   678737639655668a74486c5598686982951f5776697a7b987da7489786a7877754794437633a5971
col12:   253ba57588387b569598496a6b778b67a799576bc266676b85486787a9369b86a745668337395283
col13:   39787b686ba458a6573766b88655778cc88e5babba9865b895c889ba8994aa8a8988676463b69a98
col14:   43443a7779c638597b67636688a438b878868b9756a63783659686768658a687b96a99aa67695783
col15:   5357679875845a966a4767b9c956a7a848a976d8a6c4679b9bc8999787c8787c598676866347568a
col16:   36c74b655b6bac95a3599655a685ba58d787878bb75b8895ba9c7a4848aaa5777b898a5a55567a65
col17:   68669879895657c3497767a865a9a1a96987b971a45b569dc9b9a968a88a86996847b67684897767
col18:   67636482786359787b785965979aa9a769b868a7495d7915c7b78aa769a6d1412986998684568882
col19:   87788595847798969a566887b6adb64888ba76a957a878978bb6b77999d99578a778868a876aa584
col20:   aa753a67174667b265834c7a6a737c5c597d3bb9b2876a767668685997957a387676376758363429
col21:   b77782a6d39789a8a8757eb6d7ab699b7b9c7b3bc9aa89bc9aba6baa7846684879898789577d6a79
col22:   887385835a425589a63449597465b6a667a968ab75aa9a97ab886a59a787787659967b67a7966557
col23:   93876a9a7b5797a1546e89b79474968b7e7d8c688a88a7a89986b3a87b1bbba9868a67939a678773
col24:   64a7497998ab8c6b7994bbbba8957d8b6756469c957ab79e9676798b7a9a564756783a4465465477
col25:   484778799ba795a75a98a8b9996b8a6b7ba68a899669a7aad5c75ba8996cb9a795656735458888b5
col26:   586b75aa874a78d6ab7b7b8b9b7a99889b979fb9b8b7ca99a7beb8998b89b8aaa4a578caaaa5bb85
col27:   7b979b7aa889788b887b9ec89ac88dccda99b769ad79aba99bc69eab9b96ca96946a9b998ba3c987
col28:   8c5ca865a98a99ac9696abc8ab9c9ea8d7c9a979cf9be987cb8daa9e7c9cb95cb9b7a999a5c55478
col29:   bbb488b9c8977ada8799a297ac9e5cdecc9baacabcfbaae9c98c8e8bba7a679a998a7bc79bcc7a72
col30:   b7cae6ad85c7bb88a8abce8b9b7aaccb9aad8cbbc9be9aa7cb9ad958d9aebaaad8a89a97cba99c85
col31:   788b95cb98cbc9abd99a9cca9fbb9e8cbbe78cd9ac9cfd9cea9ada9c9cc9cb9389998ab7ca8cb67a
col32:   567a79bac6999d77ad9d69accaebcba7dbaac9acf9cdc9e8b899b8aa89caf9e9abcb7797966ae925
col33:   96d8796ca8979c9ac78cbdcebfa8adc8bddcefaadcfbbb8bbbcce99cbdeecad9c6bf998a98b8b8b6
col34:   986c8da9c3bb96aadecadbaa9bacba8ebb7dcd8d9cad5c7cbbdcdd8acbbc9cbb7d596a8a2a9a6782
col35:   7a9b8acbaa97c6caca89fab99fbccbbdecbcccdaddbc9ebd9bc9b9a8afcecec9aeba8bfdbcda9ccb
col36:   4977788dbb9a8b6ab8cd9ccac8fccbe97adbbaf89d9d6ac9b7dd6cabbec8b5accbeb8ab9898a9a75
col37:   cb97f89bb7aaad9cecab9cdae98dbdbbbfbbcd8c9bd9bb8ecfaccbdcdccbaababfac8dce8faddc96
col38:   99ab898dda8b98aab9bd9ccafaa8dabeacceaacbcbdda7ac5cccdeaeb9ffbbcbdbb88cce99c87bbc
col39:   bac9b9b7aaff68bdfddb8e7ee8a9bbfc8dafc9fefcf9daebbcaddcfcdd99e8edaaeafbc8cc78b9cc
col40:   b6a98bab9e9ccbcbadeb7ecc9ddcedbbdafd9b6cfcbaeaecfcad8bcf8bb8cb79d9dabba97aa68456
col41:   b6daab8b6aabdeabdbfbfcc9dcedfdaabceee9bba9fbacedcd8ece9caf9bbbbdfcfd6daa4ab7a887
col42:   8cbab99ceabda7bda9cbbaddb9a9d9bd9ccbbbceeedabcbdaa9abedfe8effbbacadda9c9aaabbaba
col43:   cd9b969baebccfcc8c7abcbcd9dedefdccdcacfbdafeeafddccd9caeabbedadbcf6b5bcebdc99aaa
col44:   88bbb9bfbdc7889db8ecaccdddaddabefcbadcb9cdc8c78f8bdd99ececbaffdfd99ac9ba8949c9a7
col45:   8db9dcde7aa9caedd9dfdbcbebddbfefadcbce8b9ebcefcdfafadffd8bdaaeccad9ca8dcd99ca7d8
col46:   bbba9cb78ab98b8cdabccbacbda7cbfbcadb9d9afadaacf7aafabeeabcc8abaaed9daa7a7ca879b7
col47:   ccaeaabb8c89ed9bdbfbbc7ddcddfbbfbd9feeaaa8c9fcdefadbb99eeef9acfdfe9acda799bb998a
col48:   cdec9beafb97febbdeac7dba9d8b9cddcbafab99adcbcedadcec8ababfddebcabdc8baddca88bc89
col49:   afaaa8edad79a7ecdfebd9c7c7cdcbacbbfcbccea9dcd99dad9cadae789cacccaaa8b96dc76dc995
col50:   9c786fbc8a98cc9bbcbadc9ef7b99cbccb7cfbdaaf9cfb9cca9cbaa9dbbeab9cce7c978aba98b99a
col51:   979ab99aac8ccabba79ba78ab97896acb5fccad9bacdaacae7c8c78a8d99d8baccba6ba879cb5bcb
ROC:	 BPix_BpI_SEC5_LYR2_LDR9F_MOD1_ROC1
col00:   678365949653455672478525775576456864a6478268589695637359775964763472436537342194
col01:   6651777773596969779988bb996d89969a968769a9aaa68a87a6c885a7879897a8579385b5759676
col02:   8826779356847a665a4897a589a6178c773b757687598865788674ba688785298ac8845a66973653
col03:   387897aa9987da7398b6b975953587a7a96659c9bacbc9797778b88bbc9564a8978ac7765495a795
col04:   416677766867d88c874667784777e768787cb5b9879278a63688a5677a7749c487853c5278759884
col05:   97757a7a5a7b7685767a949a9886896b4667788abab389887a8967888aa8486986a98a678797a87a
col06:   5615865846a8e39664789597767a965687488b9b61636b96477865d86397974ac76a486697574947
col07:   b89548a8877895f7a58878679996a88479a6a9b88a598b756899a8a4647a945896c7a6898b64a8ba
col08:   65786776896799557659966584946a7ad96487a676795b366486876975591a8d8697a76776865898
col09:   749677b98779aad58a6778c76b98c79aac8b8b9bbb85a68d987668a97ca9998a59799a55858b3a69
col10:   875775674966866695899c8a786cdaa5a999da5498a474567a9aa97986979b943388655a75878668
col11:   45848875e8c7185577a78685a98a98898aa9676ba77a89759799a88399bba85897496bb888b7b578
col12:   8656646777777b8b898578579a699798979b85756895949898589785a56775876567b85a9698a347
col13:   8757a779a48989a99a48887b56caa78bc86ac676997a99868869b98ba99894979c88a799ab8793a3
col14:   665335868797ba424989a8979aa87b89d4d8598488833594988798687867966a5986784488759a57
col15:   8847639676553a685db87c399b586969a797588a6daa7ab8554aa7a8a9a7ba9668a5b687a8969574
col16:   649467678b55777a9979763aa97759a659877a8a8c56a7c95469c768887888b97c82774997468745
col17:   865866787675748aab73867b688b9998588ab67786727c97b74abb6767762a7989b979a7657bc835
col18:   638425761869a76495999cd98b859c78a777798875588685969ba79887a868c58657837758988b67
col19:   aa695878a99b998566a798a29675ca9896789a97958986a6ca59ba7c599658c9966899aa7928b788
col20:   4966469867875645756787a5479cb859ba68bb88828397696799b98376c568697669777986a77b9b
col21:   9796a764b9b7869bab6887b6aa98788c6986b978d487957aa9bb8667a886b78c683cb652668686c3
col22:   64689857659685999858a869a8988baaa987c93879998889c69b75c68a978898789996677a8b9898
col23:   446689a9696979667997a69a9986b99899bb6839a56ab9b876a5879789a66aa69b859978a6c98587
col24:   62444a58a8999459697a66a8a988999c799b7867b978b9a3d875c67a99785a77896966b8458c9465
col25:   859897a87a99b79599c5cebbc899da9b9b998a85a788a7eba997cb9895b77b6a94b69a88b958aa95
col26:   a666a96968aaa989949b97b899ba8abcd9d9a787cbde8798c8cbbc799899b98ba88ddb8b8778c556
col27:   9789b78bdcb7aaa5baad9baaba9bc7b597cabaedbba9aa978997bc9a8d8d7b899be9caa789a89b98
col28:   abaaaca6a5d8ab9996abdd7b87cbc9babbaacb8c696babc97997b8a9baacaaae9b9aa7ab759bbc57
col29:   a6c4798aa8a999d8bbd9bb8cdee9c9798b9c6fd6c887c6a6a697bc7999abb973b999bdbdacb8bcb5
col30:   768bb778b89b979b87b9899a9999a9bc7aaa79d6cb8bba9ab96a99e8b8abe88cc8acb7babe898a86
col31:   9bc9b75abb87bb8ad9cbb96bbc8bb99be7c99bc9cccabadbc9cabc6dbdbdc9cba9abcabccba96bbc
col32:   99a88abc9f88a9798bb6c76aa99cc9ba98c896bca7bb9dc6babba9abaea99d8aad7ca6bb9a779acc
col33:   886ab9b8babb9a9dbcee8d8abdbabbdbf9cafceaa89dbdcbdbfed7bbcac9af9dbba7e7b9acd9cdba
col34:   b7875899b78da8af99b8a8a99dafcdabb69bb9b9ca9abcacace7aa8cacedb9cc99b7bc9aba6bc8b4
col35:   7a95ddb889c9aaca9e9e7c9bb99bccba9aaaac69b9ba9aa7dbbaa9cb96aeb7aab56b8b7da8dda99a
col36:   cb7aa85cba69abc8aabd98ecadd98e88bdad7db8ee8a9a6b9d6ae8fbcccbc9adba9d8baba78bbbb7
col37:   a9ac586a9acc9b9aca9dbdbd99acdabbbcbccbbadbbcbd9bbccabbfbddecbdcbc89aba79bbcbd9b7
col38:   8ab6ead99cda9859cfceebbec9ba9ae84cdbac9abab9acccadceedccedebabd9d9abdea7b949a69a
col39:   b94ca88aaab6a6ada7daaca6ccbbc8bfdaad9cb9aeeb9b79fcb9bb9db6beaabb99dc9bbcb7989d87
col40:   bb5879ebba889c8cbcbbcbcccca9bbbcbb9ccceaeaae9bb9c6cf9ebeaaeb99dfb99bb8b6999aa799
col41:   997bd87eeb9b7afedbd9adedc8d8edcccbb7bb8c78c9aabbdcc89eab8ba9aacbb7a696ab96c9c9f6
col42:   9ca977babb9bacbd98da9dd777a7baddbdbcdac78e9acc7c79da9abed8badabf8afb6a9e9ab6b7c9
col43:   8bad8cebaefabcdd59c9aacfcdec9cccbcac9cacd8cae7cdadfbb8cbb9ebdaacaccbedd8b89ccccb
col44:   aaaa9a58789c7ccc98997aaaa9dbdebdd9aca9db9bbdedcccbbbcad6cdddcccc7cadaec5bcbda9b9
col45:   8ba9c9adb8acc6bfad98a69bbbcccbcdccaba9b7abbe88a7dfdacbebecdbd8cdd9adaea8caef6a85
col46:   a99a8acb898c6ada9b9b9c99d96cbd8accab7b9fadbcdbabcdcaff7dcb9cbfcca9dcc7ca79babfac
col47:   c9d98acecbc889a6cca8dabbbbaebcb9c97a9ceacdcabdddf859bfc8cccebbba8ddbbc98dcacbaca
col48:   a497b99ab89c9ca8aacab999aebaabacbacb9fbab97facfabfdbbdca89aaa8dab9dbadb98e7b99c7
col49:   a79be4fbde8cd98d9eaa9a8dbeb9cb88b8b9ccccbbd9abebbdabaadccdadba9dbfaae7dbbcabb99d
col50:   aacca879abb9acdab6ecfaccac7ba8abbdca9cabbad8bbcbbbbbfaab9dba99bdcbacd868d96b9aad
col51:   87897a9b8a8b86a89c898599a8abaad88a9789baabd8cbdbb8bdbcbc87addbacb49b888ab978ca76
ROC:	 BPix_BpI_SEC5_LYR2_LDR9F_MOD1_ROC2
col00:   b6497499366439443672612423898966968856877646465783899186665987645675375b43477434
col01:   71471366879688ab977b6a6a9a699a5a579b9a86695b8887ccb799a7cb4a6839c68a93659a969ad9
col02:   5b95753556a65776c6a48678a7947469b8aaa387ca576878a8646859e58ab4899688248689799a66
col03:   9b8456769a8468a5b777768a784499a4d9897ba8a78c97889a8b88b897c8b979a79b768ba3439997
col04:   37a79493868766b766a69a5bc9a6697966658898727759b77793894778a8888b97a994576354476b
col05:   3485b3a354697934b77a96879683abaa6a78a98a3966657acca99b6a6ba5b8899b9b966564c68866
col06:   46965864756aa569373b69a86ac798577c86b9896967b7889735f87763884cba756767767779c59b
col07:   8675777266194cc6b6a2b39a8aa6a78cd79b9a66888baaaaa4b77778b88997a88cab88b6b86b5897
col08:   47596a55a867797878ca74578489a9b6a776b888a989988aaa73858a77a56bac19a7468666977536
col09:   63664947a89a83b67d7894b98a797797a7b9c78a84bdbd677a73d4766bc88899a9547b994b747966
col10:   8856677b6b774a79a7a8488bba365479799a7cba8cab67a6ba9896ba659a4a8786a154b68833968a
col11:   b9566497b99a4687987b69a9778986d789a59cb8a886868886c6aa66bbb6888ad799a685688a848a
col12:   46267868973b6835658699a8899aa8ab94aec8cba8e755eb869bb9877b5b886695679ab659579793
col13:   65b5794877a66a875856c47d979878679b8888999a8fc88cb968ab8898d9a8ba9b9659b95776ea34
col14:   6725989aa89676649a76875ba75a68676be858cbd79bc9c8a8a8aab889b7688944a895797ab74873
col15:   45795557ab56a56969a2a5a99a9f99c8648a6b7986796daaababc6b79986b496ba59986997cb8858
col16:   37b5676a958a65aa688c86a9887799f75a78acaa877c87ab87b596c77475479a7878b8932289a997
col17:   77b6669897586ab95939ba69998b9a88d759a9ab669a789675b999b93cb838979686a97c987ba774
col18:   823579477389983a6478f646b9d765b8abea8b6d967afa8c678988c4a83897d6867e63a7c75998c5
col19:   287498857686699c9a2998aa957b899a97b89568c8b899ba89866bb9cb98ac9a8899ba7573a99594
col20:   6494679988bdb4a89b7477cdb3bcb5baaa78aa696995b98dbbbba89b7597ad68747699974a87b5a9
col21:   864867a677a77a7787bcc9a978d66ae8b9b64c8899b9d5765a8696b9998cba9979695887b8b465ca
col22:   34ab673a65a887a9269989899b5c798abd89b77ba87b566aa84baaa596b85c79d9ba976796a45a79
col23:   b5889b86787bb66aa95ebb8768c9aaa8a956abdcb92d999b54b7a8c8a775697b766997b4d594258a
col24:   877a68a657ca6a977a7797797ac2877ae67a58a797a8c6aabb97b65988aa79f9e9985786a6646a67
col25:   9658b639c5acbbb9537797a796c858dc78ca6968bacba6cc99ab6ad6a8dc89aabca977a9966a7a8a
col26:   87a7999a874999da85ba9c9ab9ab9c9c8bfccc89a8abd9aa9bbbbbb8ab9af98569c788b8ac9ada97
col27:   a78b876499885aa3bc89998b8999a9b9db8ae8ccbbfcd89b9ca7ccadbb8ccbb7aa8aadbcbcdb9aa5
col28:   a7c586865b839dcdca8cbc9c8ba784fdbacffcacdbacecaceacbb98bcdabab98ccaa8bedb69cb965
col29:   a67d8bc6d789cabc67aa9abeb7adebbabcfa9a6bbcd8ebadbb9cd79859cb8a9bbfab8b889aba6975
col30:   9995cbca8474b7a7a5ccc98ab6ba8b979baab9ac8d5badd89c9a6aca8ac6e7dabbac99dcbac89a97
col31:   7daab68897bbc67ea89fcaada5dccbcbfeebbbdaa9beaabcdbac7fe9c7dbaccc886b988b97a7698e
col32:   9a7b9bd97bcb9b9bcb8aece6cb97bac9bcadcbf86cbcabedbc7b9b7ca9bbdd6b7d888ca8acde99b8
col33:   8bb789974e8ac8a97c9bca796adaebc8ac9eeccecec8fcc89dabbbea8ac97ed9c89adfca9bda6999
col34:   b9aab8db77b7ab989aa8bb9dba99cacd9ba9b8cabdbedb7baccef79cbaccbddba9ba986ecea9a898
col35:   aebbdfb9baaceadcbc899ba89b9bdbcadaaccbba9ad7bdc9d9fabaafe8bbcd8dccda8bebabe98adb
col36:   bb9ba9ab9a89bbea7dcfccbccfc78b49b9ebaad6a99bcbb9fcdac9996ee8d98ab6c88b899a859a6a
col37:   a9ba98eaabdb9dbf7fcbd9babaaabdcacee9d7ddccdbddb8cd8cdcbcccddedbbcdca8decd98ebc98
col38:   7bbaeaad7a589a777dca9d88fddbcacd8dfacfddebca9cbacdaed9cbbca99fae799b99d99a9af7b6
col39:   e9bcca89bb9b9bbddbc7a699d9dbe9dccac8cdcbacbcaba999abcb8ad9beca58f9c8eacaabfa9c87
col40:   d84cec9aa6a8988bbca8b8c7a6cdc9baaab8e9dcabc8b9dbdbdbacfe8d9aadc79f6acdbd8497f99c
col41:   9ac997b79da8ae7a87bbac7aaecdb89ecda9dddacaccecc8eedef77bedb9bebcd99df9c8fabeacea
col42:   f885b88dcb88bdf8cbabaa7a8b4bfcba9bffeacbafbdb7a8ddac8cbacbada87daaebdacab89ac965
col43:   d5c8bbabfbbdb8dcefc9a689ddbee5dddfdea9dbeabcecdae97cdc9b7c8accc8b7acda9bd65abbce
col44:   bcd899cd97aaea8b8c9bbafcbb9dbd9cacd8bebaddba7ddedcfbbcbb9bae8cc86cac8c9c9aa4b8ca
col45:   5ccbad6b8bbfda8aa8b9aceacdfbaefa9aceaf7cdfafdcabafbbd99b9ddf9d9bc986bbd5aaa7b99b
col46:   c9f7b6b9dddbbbacbc7decdbbbacadfcbdac9becdbc9dfc7bcebca7cebba9daccbcece8bcfdecbab
col47:   79ebb798cabbfbcb9daea99fabe9bafefdad9bc9aecbebefabbe8cbefdcf5bfdc68ee7bfb68daaf6
col48:   97bdbafddba9cbd9bb9bcc98fcbdd9c89ddedadf8defc9ecccab6e7dbfbeabfb97aebfabebdcfdca
col49:   7abcaa86c9cdbe9dcdabaccbdc8efafeebdfaeabe8cbe7cfde9b8bbba9fecacfb9cedb8b8b9a8da8
col50:   ebac7d9eda9fedcacccabd7aaaf9e9bbb9cdcf7adccdffbbaddbbaadcebabdbbcea9feabcdb7ebbb
col51:   9868aaa9e8d689cd99e9aa5dc7b5c96c89bccb9cbddf6faadaa9987a9ba7b7a698b9cb86a88cab88
ROC:	 BPix_BpI_SEC5_LYR2_LDR9F_MOD1_ROC3
col00:   46b977a998ccb98abc62694bdbb88ab8bd6cbb5eba9995dd9ba8c9956aaa9ab8a9683ba9c776bb97
col01:   88a576bad7ba9b99cde879ad9b7dcb7ffbedcab9bdbc7fccc8f8b6cbfebabcbaccbcbfaaaa9ca999
col02:   a5d9b8a9c8cccba77b8adabcab87abcafdcfa9cda87bdcaaabc9999adbbcdc9bbbbb58d8a9c69a98
col03:   a7aca9bbea7bc9cadda78dbedd8eacc8d9bdcdafcfcdccdbeb89cbeadabdbcec8dccc96eead79af9
col04:   997c987bcadfacabcc7b8ed8ddb9c5c788cbc9ccabca6dbbeeabb85fbcd9a7d7bb99aca7ddb9a6b9
col05:   6a96887cba9bfbaaa89b8aecbafebcbd9ec99ad789d9c7de9c8aebbcccf9d8accddbccbcaadcfaa9
col06:   6b9ba899bdd56bbbd98ebdbb999e9e99cb9eca99dbb6dcbbcbaca6abcfbad6ecfea7b6c98f88b9c9
col07:   46bac899daaccbbcdcc7daacbfbabcbdac99bbcdaeb9f9b96b9cb8abbcbdc97b9ccfcadcd9aedbaa
col08:   b898aadc64745b9a9a89a29978cdcc7a8aa7e8d6acdbb899acd9a8dc8bcac8c98ddaca679c8dd99e
col09:   9a7668bfd8caab9ebebe7cadebec9adf9aecc89addafbbae8d98d5bdebdfaf8abdbbccfccda799e8
col10:   9a764ad9efdb899adb9c9b7b66796eccc78d9cb9ebb888e7b8cbdf7dbcac7da7ba89c9b6aead6c9b
col11:   b6b57d85bdfa9cacea7bbb97d7e89cbab9acbb8acdaa9c88abcc8b8b66f9bb888a9a9ab9bbba7887
col12:   9a7bba8beb95a8db8bc89abdb9d9a7bbd9af98aa7b9beada79bdaec9c8bba7ab88acb7969a4dd67a
col13:   ae9ab6b99a9ccda8978eabefb9adec98bcaaa8bc9babb9babd78b9abdcdbdbbfcfcc6ae7878b9acd
col14:   3ac6b9a9b89e9ba9699b67ea8cabf8a99e94c9aababeabcc8c8eddaa9ad9aed97bafacbc89bbdbb8
col15:   b8ca967bc789eca96fbc97b5bda98a89c7daabd9cbcddbca98ed9fa8c9cdaabdacaba8c9db8989ba
col16:   b8a893c7884897579b9cda786bba899d586abb9b88e3c7c99daab5dce74c88a9997ad89e8da8bc8e
col17:   98b2a8aadc7bccb7898bb9cbbaaabd77ab9bab79bca9a879ab7dec9abadeb8c99ba9ababa8dec9aa
col18:   596a67c76876daa69b96998dc9caaacbaaaca999bdcdaab6c79c9f8398b9baa9c9aaaadbbceb9e8a
col19:   7b996ac8cdc99b857ca99aacbdaabebab9dbda9de79fb98b7baacaaa8959cf889ad9dfbb79b7bbbb
col20:   6a9859957c69c59b9d9a69a3b8b989b77aaeceafca89b9998aaa9c7adaba7bd7c9c6bb7859c9c9ba
col21:   a9b849b868c8fa89c9abb8e9b6cbcd86accbb9cca9a6bbadcdcdcd8bcd8dd8899ca7b6c89998ca7a
col22:   747aaac5caac76d9ce77aa99aca6ac8ab67bab877ad5c7acc6b2aa855bcb68abf8a96cba69957575
col23:   ba9b99587cb79caaa87accd9a7d6f8ecbfdb75dab5dd8aae8b9999eda8a96aef9b7aaaaa6da5dcb7
col24:   a7588bc9a8889a76d98a79bdbaa99acbd9ecdb99aac8797b69abf8beb5af9795bbbcc8a89487a876
col25:   a78a898978bcb79ca7668d7ef8b9de8d999d69bd999cbbbaa888ae979b8dda9cba79e6cfd9c76d85
col26:   959c779ac6bdc7a8dbccc9f7acf8eabcbc98ca8db97ddb8cdbdbaac97b9cda8e9fdacc8a98ac9cad
col27:   6c8c6ddc89d8ebdedecc8aba89bec7d98fcddab9ffbbc8eac9bac9bfd8d9acebecdccaca9bbbaa8c
col28:   a3c76968aebdc9ca7cecc9badbce88a7bebbcbd899acfbfcceabfbf5689ba9a96a9996b7bbacaba7
col29:   a6869898aecad9bbd8a9aacce9adbddfefbcbf988ac8d9adbeadcaa9c9aac9c9ecadccaafcbc48b6
col30:   dca59cba5d98dcc7a989dbbffd8cad77cabae98af8b8d9fbd8bddc78a75dccbee9afdbb8b9bac98b
col31:   a99afbbbbc79fccb88befc9c98aeccf98bceb99dc6deed9fcacdd9b7b9df9abbccf9cdb9bccc8aad
col32:   97a89bac9dbabb9dbdb9dcacecabd6eba9caeabbfa8acdbe99aa88dbb9e9cbbd9aacbd8bc6bc9e7a
col33:   b7cacbb6999ce8eeaedccdd9c98aacebdd799adbdabbaecfccd9df9baadcbed9f8cc9fabebecf8f8
col34:   896ed9969bcc76becb8ab8bdabdceabadbfad7cbe98b75ea9f8bf9a9aa9ddbcbbda9c1cccbb88a88
col35:   a78b9b5896aadc9a8cce87a78bbedb9e7bcbfcccb9a89b69c9b9ac8dbc9aefadbbebd9c9ac999da8
col36:   889dbc6a7bdab55d96eacabf8cbaf9aadcfbe7cadf9cebc8aa9bebfbb6a7dbabda8afa5c8ca8cca6
col37:   8ba99a88b8ac9eababab8cccefae9cc9b7bfe97bb9e8acffabbb9edead9a9ceededfcbbdcbccdeaa
col38:   cb8dcab9b9fadb68bfbb99cadee9dcbcaccd8c9babacfefbf6b8bd7abf9bd9dcbddea998cd98ddca
col39:   d8cac8cca5cca9ac5cadabd9ebaaecfbdbccdadcacdcbaaffefdbdc7bda8bb8bb78abbaacabb6b88
col40:   9a589f78dccda7ddacabcabaac98ddbceba6b98cddbdfdd7dfb4bfaacbcfba78abebebbb9f8ba3b7
col41:   9686e8cddcda78ccfeb9cfcb7bb9ecdeeb88bbaab9caabaaedd9ad9eaaacb8cbcf89cf9acaedaad9
col42:   aa88cdab8b979b99999babbdc89bc7edee9de9dbbabdabcfa9cecbca9c99caa8dc96c93caca968ca
col43:   b86acad8bbdbdffabfc6cb8babdecaadadddb8cdbefbbdd7edbe8fd99dfc7a9fdaacbfbdfafabba6
col44:   c8875b89c8cecbbbcbc89a98dbf5bbd9acdee9cdfcbfcee9c8cdaebacdfb9db77d9f9fecbdcffddb
col45:   69ac6bda5bc7caaae78e6ceacd9a7efabda9bad9dadefe8ebabcec59d6cb7ceb9dba7bbd89acb5ab
col46:   b87aa98afc89cdacecccc9cddf8a9e96acbdcde9daa9a8bbdd6abbad9ccadb8cd9bb9bbacc98aa29
col47:   6a8b6bbab7ba7fcacba9acaacdeb9dabafcaffa99ab9cbb8fb978ac9ccdbbcfea7adec98c9dcd89a
col48:   88ac7769a9ab9b8d88b9dc9df99b9bbacbc9dbcd8c6c69fba999ddcbca8b8ed5c9c99c9ba869a6b7
col49:   9a7a98aaabcda98ca998aaaca7fb267fed8abbc6cc87dabbbeb9be9caacbbd7c9cb5a9ca8d98bab9
col50:   89a8becd99dc5a89db7e5aaccd9b9f9ab9accaa8dba8eabbfda98ea678be98bacaacc9b9acb86bb9
col51:   99c77689695b99a79a894d63d7a8778f9ab5aaecb8dc8f8bd3dda8866597889c7879ec9dc589aa97
ROC:	 BPix_BpI_SEC5_LYR2_LDR9F_MOD1_ROC4
col00:   8b795c8a68c779975a784a89bda7bc86fbbaeebcb98acb99fbbaac38d9ac9af6c8b7879978849964
col01:   9a7b867cbebcabcda7aaaabb9cfdda9d9fa89b967cbeb9c8bc9ae9afc6bbdc8a7dbaca6bb9954897
col02:   abbac877b4799cbc4d7b89cca8defe76db95a8e76becabbbdbc87ad9e8ab88e9b7fbabb5bb9d9b86
col03:   69a6aac6ea9e5c9abd87baf98bcaedacace9bbebdce9cd8aca5abc9999fc96abca9dc9addbda89aa
col04:   93766abbbbbab98a9dbeedd8bc8abdbbcb9d9abae79df9adf87bb99b8e9c8ba989ab9da86ca79996
col05:   a6b789b6cbb7a5dacb8abcaee9b399f8abcddbbba989f9b9db7db8c8c9598da9d897ac8b7bcbb688
col06:   fa886aaacadbbb59d9a9792bd97b9e9a9fcb9dcff9cb98c7ba9b9ed8db7b97b8cadb9899b87a9ac3
col07:   987bacfb97ab67dd8bdbe4cec7ac9abcec99db9cb7b99ceffb886ffaa9a8ba66eb76d88edbc9a999
col08:   9678896b9bb8edbab639b7a99abbab8d9db7bd7bdaababd88ec7cac9ab69dbbb6aa5b798dac6b6b8
col09:   ead6dba9cab96badacba87ddfb9cecdb7aefabbdcadfdbcbdcacacdaefcbddea49ac7abbbd97a9aa
col10:   86aa66ba9abbab7ada6a8d5c9aaabaabc6b9bab99dd9c9d94b8ab89dca85af889bc49aab88879767
col11:   587c46ae8d6a8cdadc8b88a9ba86fdf8ca575dd4e9c8cd875ad98798bd89a998d8cb879ba78a98c8
col12:   6a4779ca8779c86e9985bd9b9b87ad9aef8ea5baccabdc98b97cbb8a9bbdd988c7db9c5a8a699825
col13:   7b47985b98dddb987cdd9965a9ccb7c9799baecda8acfeccfecad5babbbecadcf8c8dcd69f8acbaa
col14:   b4986aedcab68998aa888aac77a99db9cbb68ce7ab86bd8abba9bcb998adc97e5ccbad9aabb98869
col15:   ab7b7acd89a57aab996b89e9cb9adbaceacdce8aaabb98abcc88b7bb959bc8bf888aab577a8aa99b
col16:   b4b3999d6bb8caf8aa4cdc97b9ab9b9de9fabbac9add7aaa8898aac9d6bbb8baac889bb6a67795d7
col17:   4b8ae4a58785788eb9aa789a7a899daea7c9aa5a88da689eabab78ca99aa78a69876589886b868a9
col18:   bd59c59ab99aae4b7b7aab77cbc9b8bb99d8e9aba7bfcda9cd9a9b9aac799ab778b45c7bba9a5b78
col19:   9486c9a899cb6ba9acbe7cbbbbdadcb89aace8bccd9cb9ddbabc97dac7b8798caaa8988db5a989b8
col20:   b69a987a9a199cb6688dbadb9b3bc87d97cd8d99aa99b79aa9e7aab9cdada765cb5a689868b7a983
col21:   acc97aa9989ba79aa4d9ac87ca8b48489cbd99f8cdfcbfad98de7a6cbac8ddb895a7a79c8737c937
col22:   8a8badaaa9db9aa9d899baa77a9a97baa7d7c9db968b99bd9aada6d2ebde9787b596a47e785474d8
col23:   a69698ae798bb88b8979a97bcabb67bda6f77cbb7c9bcbab9cf9d8dbde55aa7b89c897b959739a99
col24:   acd79539cabdd99c9ddbbb97c9cc478c9adb58bbbc9bb68689beca8c8b7c8cbaba899c59a4778a76
col25:   857aabebccb98a9989cb9ab7db9abcdcbeb9a5a9ea9b889db9a5fcd9bde8b9bb7ba76a3bb93b5c67
col26:   678ccbafb8af985abb9ac8caedba7ecafdfdcc57a7eabbbc999bcba7ad5aae7f8bc8f9a4865ba999
col27:   77dab8bbaf7fcecc7bd78f9afd7a6acfcbcdeabdfbcbaacfcd9adbbacb9cd7cc98abf93b7969a997
col28:   8c95cb99d969bd8fcca9fdebbcc9badacdedfaccfabebdadde978cd6befc8d89cab896ec9aba8974
col29:   b9aabb9febf8ba8b6bda7a7ccbb9cbbeeabdcdfbae7b95a7ebac88bdcdb97acaaa97d6bcc9699596
col30:   99d7bca8ad797fa98d87cdaafb6ffad9bfefceabdfeaddbebd58ddc8ecebba7bb92bba9b398a6b87
col31:   6c6598af6beeb89dccd8d8bbc9aeecabebdf9f5fbabc9ccdcaedec7b6f9aaecebbccb55bcaa9d595
col32:   b67bdbc89bd7cacebc6bcee9ddbad76accbfbdbc7bfbffbbc3abeadf79e8abdcaa6a96b9b668b9e5
col33:   7bceac99acd8aa7b9afcca6cdd58f99d98aaabcfdccb998dcb8c6bebfcea88cbb9bc579cb76abbc7
col34:   eb88ab6a7ebd7cb8bd9dadbacceadcda8efac9bacbde8eab9ad7dbdacbbc8eacdd89ed7aa96b677b
col35:   a6acafacda885ddee89bbb7da9cb9acbdddafcacfaafd8efccacbbb8abefab9aaaa69a97bdae8a88
col36:   c8abdd8c64acaf6adbcdeacbdf9aeaf68eb9aba6cdb697ae8cbdbceecce9bca7d9b9ba4b8b7baa97
col37:   6abaed7bd9c8b9dcdbec9bbacfaafbbeadf89bfccbc9aadccca8dffcdca9dbdabba99aea76cbaba9
col38:   9ad4d89c56ffc7da7bb89bed9cafcdbfadeaeeebac89cbbcceebceffe9a9bc8eaaccda99a9b39ab7
col39:   d7968ddba8cea8bdeaf988daff98e9cb8abdbbb8efbdd8db6bbabcd8bf9cfacdd6a99a599ab99a88
col40:   aaa968dad88ba697bfc78eba8addabacbba9bfbbeceff9ca8eaca97b9bccfca99b648ac89aa7aa69
col41:   ad55dfbcba9eba6cf8cabcebbebf9ede9c96aa9cccbedcecacab7cbbca99cdaca66f8a9da5ac99da
col42:   98e47791d79ae6fbdc978ebd99e6cbadbbe9acddbb95caf9d8baabdced9e6c9b6799db8ba8b695a9
col43:   8daa6b8da8a99f8bb77cabaad8b6caedcdf6be8ccba9dcccfbdadccabb9cddf57654aea999dbcc9a
col44:   95a8b67abb88e8888bd8987acc79eafc7abedadddecabbb9cfbdbdc8fcda7c8bba9a87abb667d778
col45:   a7a889b498cbbdcbb8eece8adaaccdabb7acbbabfcadcbcdcf8bccabfe9988b9dc965aa9aab7a7ca
col46:   b959786f5aaad8c7a7bacdbd7aedaa8aaeabfaaabdaabbcaa5ddbbdb87996ba97aa78768a96a8989
col47:   b6ba8cb85bbfd89c6bfacb899df9ca8cac7eb87b87998be9ee9ea97da9afafbada99b7a9abc4d784
col48:   b66899cb595abab9ad8ec9cc668cc9b4a7dbe9c86aaddcc9dfdbfdddfc68bcaab9bac88acd7b8aa7
col49:   ba6aa77998c77958a99edb8ccccab7bdabcceb9baca7a8966699dbbb8edbdfa98785cace9d975767
col50:   58987b979b7a496bbc4cbb8f998c99b9deaba7b48acec969eca9afc9eba9c9da786a6e9998698679
col51:   a8699479b679b229aa4a3a5bda6ac1969acb6a657687a7d63b25abb9dabcb98d66c666466cc68463
ROC:	 BPix_BpI_SEC5_LYR2_LDR9F_MOD1_ROC5
col00:   553968b75744864b6a76a688a9997dd889864b4d9c6eabaa99dc9b89d999a9a54477c85749aa68b8
col01:   6379a957c67ca9b67bd9ac8b9789aa989ccbecb99bc8daee9dbcdccaccdbd9cade8a7e8a8a6ab8c7
col02:   657895a7955d77d9876b99a86e6ab98c9c869bdc769c8cb7a7959497ab87a98da8d77c6a6a9a66ba
col03:   9658c9289a6999b9a8b999b8bf7bbbbc55f8ccecb95a8beaccd8baaacc7c9a9aba99bbc8c7945bb9
col04:   585678ac786698cac764999c99a9667aaca7cbacc8a7f6dbad898d8d7a7698ad6c96a96b684ab997
col05:   8795b498978b8535c5a8c9d88778bb9aa69a39a75bf89abaa997b66798bc859c969b5997bb6a49b6
col06:   94768c6587797dc794ba6a78985787ccd8a82d79b69798a7a7759795988bbabb7386478999675396
col07:   9558a499a88aaa7b989bbbb99a958afbcbbcd7abc7b7d4b7abe8dcafc9fd8ab9a9d84bb7976a8896
col08:   68aa9a67a577798da979995987ac76f8c7a77bad5da9b98a9aeab9a9a9988c65aa95ba8967579944
col09:   77656979a96669978aba8ac7ccbaabfaccbbca8996779c9b5a8d98b9a9c998abc8889da9a7b6759b
col10:   786c576667a99796aa56a6956bc8a98a9adbb8ab9da878adcb8b5ad5a6b97b78e4988b9cb6865a83
col11:   62712396ba22b8582b7c97d86dbb9b8acdda98a88aaaa89aca8e96989683b687a8c89c9967a78c75
col12:   85647398c84ba8c577869b298b99a9b88acba697caebb78c4966967b7bbb8d77a88cba76aa8a8874
col13:   7779849498826b6d9b95acabc928c98abddca8bbfccab96dc7ccab49dcc8aaa9c777ca8aa9668577
col14:   9661757bb5977585aa7844c9799bb8a9aa499795c68acba69b9acb4a98999a4c977c8378b7745742
col15:   75bc6551dba8755a7b98be78a45a9cbdbb89a87ec78e798d8d968b8b9babb797b489a8a887989aa9
col16:   385849a8ca864994b36a885a6b8c6f858886bcb97aa99bd88aa9957c7bab8957a95a87685579a685
col17:   877895674588799d9d8b97b95a89a9e8d7a7d8abbcd968989acc7b987c9a587898d97b97a6797975
col18:   67183346697587699475727876a9858557ccb66ca685b775969ca985b8c8984d8a77767b37824754
col19:   65c689747cd6a6c798aa9737f6de3bcb7798cc77c9ab88598b6ba86e88caca4fa897bc9a876548b6
col20:   66599a844a5a94aad866a599d98987d997bbb8b9a888868a9599987e65ea666cb9677847b8c6a384
col21:   856a9893b858858979b8c7b9c9a8b996ec97babaa58cbbcb9987ac9ba7a89495b96cca7695898547
col22:   8587c859475594a9969925eaa648ca6787baca947c7a9cb7979b998c7487acc76565965a7489a246
col23:   848aa9779c67aaa9c729696aa569ac9cc997a69c78d867577a75a668a698696a7ad989976b7ec864
col24:   76451886685e6b654ea9978858776abab67b96babbcac756d9779586c546697988868969c888c946
col25:   8957bbc8b5ccba87a897ae7acb76ecc8c9dcdb9cc76dc88c9ddc6998aa99bea88986a599a5997566
col26:   a4b967a768c7e9b98d7a9fc6caedc8acb6b9989687ab8dbd7dc9a9cb7cdb7996d8bcbc8759878db7
col27:   8bb96678d5bbc9baac69856b6bdcdd8acda9babbddabdbaa4d9c668a9bbc686c899da9a88bb78796
col28:   755cb7889978a6abc9b9ebbe7b9988cacda9c7bc7a787eaa5ac9ba9a88ac36989c67c9c6c9ed8876
col29:   68aeb7fdae8a897ddad9bb9bd7a7abcb9bcab87ad9d8c6adccadba97adaaaedc88b7bdbdc6eba88e
col30:   996566b7b9b97abcaabc8cea5bda9db6cdaccb9ac98abadad4b8a998994c9aab869bb8aad998893a
col31:   96aabb8ce9cbc89cfcaa9dc898bfbc63dfcbfab6bddbcca486abbcdebcbcebbaacea88c9aaac8888
col32:   c57897b8cb9b7d999a7cad9bab79d698a79c8a99a89daadbbcc8eb9bca5b89978add958867ab67a9
col33:   bc76c868acaacb99cbb9bcbdba8c8cc8dbfddceb8dabceb9c8bbed9a9ab8999b8b9a88a98c8c8ac7
col34:   ba64a8cbaa6cacab9d987d8b88ef9beaefcc8bb9dacd9c88ceaa99a7ad97aabad7aa67968798cd68
col35:   bdc5bc8c9bb9ae6ec99bafd85eaabab6dc9eddaaaebcf9cce7cdcde8999fa79daf99aa497d95c9a6
col36:   cd97b7658abc8d9bab7f7abaabbeaaa9bcb9aabcce7fec9b6c99a8abc8eab994cbaababc7a959da9
col37:   adaba98ebadab9f98ceabcbed9a9dea9dfcdc7bcfaaddfdacbebcaacecc9cac8bd9da9efbdbfdc88
col38:   babaca9b7b9eabcc8cec9cdaa9a78a9edb5fedb9baccab7e9e87aeabcb99b8e7ba8b7e89beb8da9b
col39:   8ac7d9aac89f8bb9ceacbab7bfbfadafdd7e7cbcccdbafcffa9fd97cbcbb9cabcab8caac5cbbcb75
col40:   96a9cbc9ad898aafa9acbdddabd6baddbbbbb98acebafb7b9bab8fbe969fcb9aab6b7bbc989cb5cb
col41:   9cbca98f79bebbcfdafcebbdffdabe9dbdbdfececddfdbccadbacbdbddfebffed9a7fbdabaacdb7c
col42:   89b8bedcc7b8999c89bbb9bebdc78dbccdcf8e79cbd9a8688e9b79baae8bbbe5dd8bca98cc7ca86a
col43:   fb9dead9dcbdb9eefabbddea8aadacdfcdcbcbfdcbfe8be8af9becffea9e9bdfaeea9aaec8faeccc
col44:   cbcaafcbf9bfba97dbbd9cafabffb79cefcdadfbecaadedacdabddaccce9badbcbaadda686856c97
col45:   aaa9c99c7edeccaccfabdd9aaccbdbfdcc6ccd8dbf9dee8fdbd9ecc9cdf9bcbbcabae839ca9bb9c7
col46:   bbcb8cbc9abb9cfddbdd9da99bbffbd7bbdaecedcf9e8da69aba7fb89cdcbda9ec9fcbacaa9c97bb
col47:   b98fdcbcff897adbbaecdecabfccbbc87f7ccdfdabcafbadfdeddaccbfc9c57cdbefcbfce8bbcd97
col48:   7dbbe8a6ed8bbc7cdfab9af8efcc5cababf9acdabee9fbfcaaddcadbbab65eb9bcc9aebde9bac7c9
col49:   c7acbddacdacdccbc8deeda9ddcefdedfeabfdfdfbdeaffcfdfe9eaadc9d9fbefbddb9caac98a9ed
col50:   d9b89a8b7caaadbcfccbbdccdbfdbafebcbddaac8ddbadcebd8dedabdabd5ebebf6bebccb8bcce6a
col51:   46b688b9dd99c8b9eb9baca4dcbab9ade9baffbe9dbcd9cad6dcbaccacbb9d8aed98b9ab55bbaaac
ROC:	 BPix_BpI_SEC5_LYR2_LDR9F_MOD1_ROC6
col00:   263234448b668846a56689b77a69b996986c668685687899a8876467477ba674ec996778a26b8579
col01:   66a999ca9799c784ca65a95e894879a6c6ab9d8c7b9bba88eb8bcbacbcb7b88ca6b5779cdd7bd5d5
col02:   1585757a89ca8754952ac7885888655bb89bcdb7d8c45a87a544b9467a7b7a5998a567898a5386a6
col03:   7878675956869c66775c8b4ababa96b9faa79daab5da4a87698dba865ba8a39689576aa975784a77
col04:   5349b97354bc38a4969969386e7c5ab59b9bc3aaa77c7677976897cc7974c992d7865888c7b8ab66
col05:   59918956489ab6c7769656c83699796ab98a96b757b8bc8a87a99a6aa67c97bc8959859689b47579
col06:   8768a46573644ac699b3aa679b887798976a8db796c9ce1784aaca5a7c727467d949b46a4555579a
col07:   986b85aac988baa7a8aac768a4ba9abcae9c776c9b98bd7b9757db899ac9b8eb8b477b9bc5d75aca
col08:   9256766558579a8776986b58979895a79687c7c9abcdb9929a7a7858a8599baa9bb7778833dc5b7b
col09:   c587bb69977ba8b65a579b8a7a655898a7c671787a7c9da969c684c769b85ba498bcac6785561878
col10:   5666a6a6258975a79769bb789a67687e67667a85b8a9679a8ab7aba56b7c779c7683dc78a8a58aa7
col11:   747797989596a675aa8a899ab6b58aecb49a86aa7aaa8879caa5599a9abd6a76d989abc4c8aa289b
col12:   68747b65daab68ab79587b97a4b978db6c9684adbb83ab99ab8b986ca7a59c87466bc6ac65378555
col13:   7b8478b87844a9bdab88599baadd79a9c67988bccb577dbbb69adbab6aa7aba9b988999b6c6c7286
col14:   846856679ba7bab7687b9947999ac8bb39a85a79dc848879a8d88a9d7db5f986aaa78ba5aa6e9c98
col15:   36a84269919c6967c8aba7aab6c9b8a979a897edabb3ac96aa8b6bb9baa9fbc9b7a898a8689c9557
col16:   a18969369597a949bb89aa79c9daad899879c858c778b577a8c76ca9999b8aa759ca4a95d99989b7
col17:   8b89a527536ab797c797b6b3778aba98a648b74787bb5b89e7bbd98b8b6988eba654b86ba2866569
col18:   9775419978aa97673d7b9b978d9aa788a9cbca989a56899a765777b69a8cbb69d6a976d8ca7b5a81
col19:   4664a73ca76589bba5ba95a6a6a7a887a6d8ab89aa6ab7a7bcb97956b96a8b776b8f7b9bc97b9245
col20:   a6258998a7ab97a79a88665965a79c99a585a7a7b58549b5bdada877a5bdbb99a95b975ac8a45482
col21:   657798776579478bbd68ab6b99c87687a69aa788926ad6bca883777a798889aa86b96b9669c988b7
col22:   6679558397e7785854bb7889ac98ada9acbcbb8a9ba5a8c799bd99bcb789a77888ac7b687a6ba694
col23:   817497939a668ba9a8b6b79bc57899df9a59687ba986d78588b887a968957d89b7557a65ba6cc999
col24:   24b8756b77978c9a9ba576a994578bd778a7ba589e86ac8a8d7ab9c89845cc8a63a8b89576779543
col25:   8889895cabc778988d7c7a798ba7acac9cf6bc8d79b67a89a7ddbb9d8a93e98abc9aacc9b99caba4
col26:   7bb59584aba76cb9bb8887988a87b739c956beb96bbdb94989a8aed689998969dbaec89c8ca7ab83
col27:   66a5596b8ba2999cdd678a7c67b7bcba7bbba98b8b7b67bb6cc9bd4a8bcaebc9ebc7899cdbcabada
col28:   6d4b8768bb5799dc669a8cac6ba6c8aabc9dc9a9699ccacbca8cbb9cca48adc8aec8bdf89a9a99d7
col29:   c969cbacd8c799ba9dbbfafaccdbdf99cba88ec7caead979b9e94cb7cc9ed5bdab6a9bba99deada9
col30:   35b5989985888aa4eda7c9b6bd5da9bc5c96db9cdcc8c7bbcbda6bddcffac7c8997d8ab49d87dbba
col31:   b58ab96ab967978a9768dc7bca7bdbb7ccfff967a9daba8c6c9cfbc88d8edbbda5ccacaa9ebbbed9
col32:   58a9a7a7d6c77aa799a6ca79b979ebaaea89a8baaa6fb779acab9db8a8ca89b9bacb9cbbc489e7a8
col33:   ba4daa8a899ba8889cc9c7dc98aab9b8cde9689bbb7dbbcabdedba9accd7bcb88988b67bbcbbda7d
col34:   8778aa98a999d8d9d99bab99a7c98b7aebcabbbbbbcddab88a7bc8a8a9bbc59ddba77a9bb8aac7ba
col35:   9897c9b73a5ac8b67ac9fbdbcfb9cac8c88cceb8adcdbbbdac99bab9dac8b7ea79dbbccdb89cbd69
col36:   985aa84d9aa989867ab689a979cdbafd9ae9c5cbda9b9b6d9acbd8dbc9cbea9ccdb9aa9d7b5bcc8d
col37:   e9aec9c9e8997aaafad8c8acabbbdc98fbebbfe9cacdcffcbbdeee5fdccfe9dcbdc8ddc9d8ac8fe7
col38:   8578cdb89eaeb6edbcbdccaebeacb9f9bdccf77cfb7bcc9cbb9df9d6cbb9d8fcddeedecfcdbdccba
col39:   74ca88bac8b78cac9a999c8bcd9ecb9ad8da9faccf87c9a8a8cad8acbd998aab89b7ecc9d4bcddcb
col40:   69b7aa6dc9978ccf8aaaeacaf79aa9ccadcacaa8ddd8fcccbc59dd66ddd9bbc9a9ced9bba89ac9a9
col41:   ba7a9aa98cbb6cc8b99ca8cff9cad9bbdcd6bcafecabcbc98ab9fccdcae89bcbcdfaeadbbbfbbba8
col42:   898da8d7ab79bd6c799bac997cbdcbc99fd9febbbb9fbeca8c8bacfca8bc98b9dcccb98d9d8db9ad
col43:   8a96a8cbbeadaab9cfbbfdccccf7cbcdccc8eeddedd9ecabebaefdaa9eb89d9ec87deb9f7ea6aed6
col44:   949ad99acb97aa78cecb9cacfa7a88bbbe9597abfaf8ddbbdec9bbcbcc9e8bdb5aaedfdb787addca
col45:   7688ec7d7e88c7dfcaebb9bbcdbddb7a7dbfcdfaedfe79dfafecfbededdb99de6b8acebfafafcbaa
col46:   7ac7a945a7889d88aeabcfdb78faddaadbcafbeccad65c8bc8d6b59ddb96ccdcdfbcbbb7688ebbfe
col47:   83b8689ac8c9cad8dce9dddcedaaddefbeddfed7c8dcf9dddbf899bd7a87abaa9b9ac88f8abc9b96
col48:   ab885b56a9caeaac7a6ca98adcbecbabc9dd8ab7aaccbca9cbcdd9caaedacd7bbacbaaa8bbd8aecd
col49:   a957ac9b9ac8eeea8eddaaccccbec98b9ac9aecddcceeda9f7bfc8bbddfccb7c8f9ca7adb9bbbead
col50:   8c8a67797aa78c59ea9cabaac76c7fbba7efdb9fbe88eaa9bfaf9bbacff99b9dcb8cbe8eafcab8b7
col51:   4563799895a649c3995898d787a789b9a7e8b9c688e7ddc7e5979bbb9ea7a7ab655ac69a9bc9778a
ROC:	 BPix_BpI_SEC5_LYR2_LDR9F_MOD1_ROC7
col00:   4165636652573644a666677863777376939899c9ba688965b149557b66988857a8962548b2694124
col01:   487986a789b6bddaa787b9c5c89bbabc9cd8a9ad7bc9699baccaab79ba79d89984a5b9a669c6c967
col02:   766476b8779b736477c779a8ba9b69768ac696e6b9b9597a73e67988ab8b8ac576687778939b5739
col03:   cacbb37894495a6597a99b9abcc9c8a6a4a9ab6bb88c8de98988bbb8a9ba787b79b755b97b96a562
col04:   678a566688a7778679b9638b798a7b785baaca97a955676ca7a6476a689a8ce9a957859a98587285
col05:   667a2d3b73459a86b77998cb7958a965aaa9d66c6987ab84a98dd7b7a6a6c9c96b77977855854858
col06:   4472aa464a8b96747b5a78895a5ba8c7c98aaaac686679bc9a9c8b9a79c989969a9798d6caaa6295
col07:   8b8d86aaaab97e5abcac89ca9e9b8ab5cb9a97e9a8b6d9b896a7bf9e6c976bbb98a9bb56b8a587a6
col08:   4741b7696898aa68899647879d7c5897a76c8a9e6bb95c98a86aa5849598986968aab8797579a649
col09:   98678b9472945b5997a8659bddd6ad9bb7b98a9c9adb8eb99a9b89c95ab967bd8aaa787d889a8856
col10:   676765697857488b5748889a7c8788b7acadca59a7bc687899a5b9d89ba78c38a6c866a568655a77
col11:   a5676a98797979787d587b7ae7cc9ba7998fc8abba98999a979d76c7ca69aa999997d988da9dbb95
col12:   69879998b8997685667aa9b89d8b9f8d9a967a8cba7ab8968aa9a9779a492a6893ac5565889aaa47
col13:   47d47c453bbb999c77aa84988b885bebab88baab98da9abdba867b6b88ebbc9776a369aabca8ad76
col14:   b49598547a99a987aa6a999996bc9b95b79b798b9c8c68aca679b6b8579baaac89b8aea776168655
col15:   85773588ad7b9b88bb8abbebd8aa7bb5a7c7a9aa78658ba69a798c7b8f7e6aacc9b964b968688853
col16:   a77b7a9848af8bb6998b7b7857789998958cba9acdbc7ba6789ba998ca967cca6b98a668797c9654
col17:   7a4686698aca67599787c8998a87a88c978dac9ad6b7c9cbba5e899b8cc65358c958c4d6faa6baa7
col18:   18477947a84865da7c9655758a76ea99ab7a6a9a8c78e9aa8b96aca6a6ca89947998778998896a95
col19:   757684886a4a9a7da7ab98a79876eca9c86dca8ca6978bcb9bcbcbac99c7a89d9cb6c87c68887aa8
col20:   9968474aaa7ab9868779d76979aaaa9b9ab7b794db78989aa688d9c8ba7bcdaa9b9dcda968977b88
col21:   7763957574658a9dbab8acd738798a77a7cba8b88ba9a7df9d9d8f69cbd9ba95b7c9ae766bb9a9a8
col22:   6854545a7699bb979766877768c698abb8587ba98ed87a999aba6cdec6c8458abaa977767aaac9b9
col23:   8856c65ac87c57aba7babb68a6cc6589bb8d9aab8c8978aabd9abd897ba89c867c5a57676a3a87b8
col24:   5935d667876caa97ca8aa3acba7dab9acabbedab899dbd789599a6bcb95db5c8895b9b899a9a99a2
col25:   af8bc76467a7a9c9bb948a8a5caab7cec9ab7baca98b8cafdba85baeea5bc897995ab787b8addba9
col26:   f9487a78f8ae789edcadd5999acc97bb9db79c6b9a9ddc977ba9aebdbd9daccac859cebabcbda7bd
col27:   67bab4b4aa98b9aca9c889eaccb8898bbaeaafc97ce6b6da95ccf8acbbdbac76db9babcb9aca799a
col28:   497ad96945acbb77a5bba99aad6ccb8ce9aabcde8ab9aabc9ca698bbb9dcadcaa7be6baab6b99aba
col29:   867598b696a9baacbdbaa7debac5baaaccababdcb9d9998cbac7ecaba8cfeeb9dbeccb9bc9d7aedc
col30:   8aa89aa6a7ab6eac5b7b9c9a7cb7ad8c6acc6c9bbe6b8fdb7e8caaa9edaadcb99c8cc7e89bc7c75b
col31:   a9ab988b97da9c9d7bcbcbc8ecda9bdedabd7ccffabcbccdbe9aadcbafeafacfabbb8a9fe8a9aabb
col32:   caab93dba4bb999a99ad69b9b7acbea9cbbdbbafcd6a8bcdecbbbcb9da9d8cdb7eb99afca9b3b9ac
col33:   9bcd9ab9eb9aabb9ae9899dcdcc8cc9be99deb9a9dfce8acfac9f9cddb9dd9baf9aabfaacabecbc8
col34:   d8aaba7c979cfcda8bbaccbd99a4868dc6fcdb8dac8c8c8d9bcc7cffbd99cebdbd6cc7b9ce8999b5
col35:   7c999c88acc79dabafc89aaddcdfbdb9bcbaebccbbbdaecbbca6dbddddbbaedccc8bec6d9cca9b79
col36:   9b897bc97aca8ca979ab878c989ab9bac9bbbe9bcebc897be9dfdbebdbbcdb6aece9dbabbec65777
col37:   6dcc65ac8899fad9cadf9abdabac9a9fec9cacbd7bc8eecbeebcccd9fefccdc99a6baadfeb7cfeec
col38:   ca7bc668bab9c9cf6d96fb7ad89bccbffd9feaabcebb8beba8baf9cfcddcb798baaca8aabfc5ccc6
col39:   a988aac89a8ecbcb8cbfba7cf8ababa894baddd8cfbeecefbccbffbdcab8bfcc9e9cbacbcb899cad
col40:   798a8597a9cc99c8ccf9daceabbcbcdfdb7c9b8fcfddbcedddcdabefbdcaecabd9bbca9cbdab99ad
col41:   d8b6aa84bbdb9e988edeea9ee9dbfcdacdbbcdbcfbddbfdd9fcdddfdadbabcbadaeaddbbc9af8e7a
col42:   7a812a86ab9c698aecbcbb8cbbafc99dbccadb5eac9dacf7dcf9ec9cdf7bcbbbdccacce9996b9bb8
col43:   78b8bce6cfbaabecabdfabfcb8fbbbeacddaeaedadddaed9bddfbcefcc9debcbcbccbabfb9f9bbdc
col44:   99a788cba9a9c7caebecbcf7dcccd8cb7eefeddeae9e9cdbebfcf9fbefcdbdafcdcb9dafedfc6867
col45:   79aae48ba8b9c9dbac896dddd9feeccbec9ff7ceddae9adaacaee9fabdcbbcbcacb9bcfbcb9b9ec7
col46:   87ec8aacb8accbed9beca8bab9abdcfa8bdface9becb97ec9ed8ba9e97d98c9d8aafceca9cc688ca
col47:   c5adbd98ad9babab88edbbb6beabeadcdafdefeed9edecce7edecabfbff9ccccb9d8dbebeae8cece
col48:   5d5eb7ba998bcbcfdb8cabfdc9acbf99ecdcdbdededcaccdbff99d8badbdaca88edb9a98ca9bbdbb
col49:   ca46a5bcebabab8eaeaaabaebfdedfdacfac8bddcecd9cbbfcaaaabc9dd9addcd9baca9bcaabce9a
col50:   ac86989bda9aaa8deccbbbcfecfbbb98ae9abeebad97ebdccad7babdccda9ab9b9a6aa8abbf77bab
col51:   6468997a5a82c9da577bd7eacfbab8aea5a9bbcdcbc7dbbb9eb5a98c9dcadc8b98a8aa97ba6aabba
ROC:	 BPix_BpI_SEC5_LYR2_LDR9F_MOD1_ROC8
col00:   37476478b698761295776797d8a7aa5627c2898866968897577aa6b9677882582982b9a1698ab476
col01:   3aa9a278775b99a88c9b6ada66978beab8a7dc9baaaa99a86c6aa5ba9b89c77cc7abbaab9a4aa689
col02:   55158a5cab7396a79a79aaad876b597e9aa85bd89d86b9cda7aa9789968ac9ab9b488a979797a88a
col03:   78368345a79acac9abaac569846ab9675af57ab4ba89b3b8999ca6abb77ab8bca7d9a87ba6999778
col04:   c565799647648a6a5878a9988958ab8c9a7b69c9789a97bba994d8ebad98998b9ba8da8d7bcaab97
col05:   6794989b8a7a8b6875a8a6a9777aba976ecc898d57a87ba48b6ab87a66adb8aa88978b7be676b9ba
col06:   a4727785998a96788729687977baab988b8a6585b99afc766aa779c7cbbc9bbf6c77e89aada9ba69
col07:   66685cb6a8c6a4996b666d9868b7aa4ba8c9dcaad9b99ca86abbc89cd8b8dd8ba76ba989a96b6a97
col08:   66879765977976a86bd888ab9785acbb7ca99cab7966ba5ab7c666786e4bdacab79adc8ac8a87786
col09:   1599c788686a9789658a67c988dc6c99a9cea79b6baa98cc6bba8a9bb99b86aa9b7b579b777c9c86
col10:   87959788859858b9b8855a4c657caaaae89beb887a8a998a8a86b6aaa7b88c786aaa8b95a7a9b979
col11:   389949a887897a876a969aba5b9b9cabfc7cd996776b86849c8bbd88dd9dc8a5679ba497af89c988
col12:   7854866b647798c499a5c5e789799ab7a9688aa69a37997bbb7d976aa775899b9aa9da78ae9986b5
col13:   624aa4b4a699a8aa89ac68d8b8c658b99c6778cda6bc8d78eed7aba86aaa7e6c8bdbba6c9b8c8879
col14:   6288996666976896784a9993bb8eb98779ca8ca94a98b7a57ca96b8676aba994a8a9bbcab846e696
col15:   885575896659c9cb89ce6b66cbb8869a96bb9c977739cba778e898b9788bdfaa79a8aaad8c6887a8
col16:   a7978987295a77968757abab57d7a78b9796ba9898baa7a999b79a8abca79a769986a8ab398cb972
col17:   bb77457a8668865a8b5784bcca79caa8c769a8aaa8a998a8bc6887a89ab6c85abb7a979bb87a7597
col18:   b6797986898746a88587984cba8898a9bc7858d996678b99b989aab6a5daa99a8c6696b859c6acb6
col19:   a97593cc5c69a8b4a9aa85bb8c997db7a989b9ceedbc88a9bac58b8ea9a6ca878c9ebe788cbb9986
col20:   87966977957eb878979978bb9b9bca9cb89a7cb79a8abaaba5c7cab9988ac8f9b8878899aa6d9a57
col21:   5635897da9b7cb7869b86aa97dcb587cb89977a597a866dabc5dbac69998a3b6c9a7897a86ab6bc7
col22:   616669a76a94885b5b8a57cc748aea77698e9a9a9bc8888a9a895d88c86bd779b88a69a9a69b989a
col23:   6873a7876586bcab98a8589889bbaaa9b98abaaac787db868a89aaaba7999eab6c868bbbad993864
col24:   a66469bac896b782797c659ac497b9c8a85c948998b7b796b85baa86bab9da8babea9b7999a9ab99
col25:   874979a9879899985798d9b7cab55aba9bcac68b968bccb7c59a9585e9998cab79c6ab89da9599b7
col26:   7ab3979ad9869977d8899b9bdcc799dcae8ac85ccad9cbababdbba98aa8fca69b898dcaccddbca9a
col27:   99a47b4b8c8aa59a7a9897a9bc77bc8bbfab9d9899a99d8c6bdaa689c8aefa7abbdacce9a8abc9c7
col28:   8b7aaabac4989969e7997db8e99c8a6cba78bed9b868f9d9bbbcd8bdadfb8bdaabadbc9deb8bebea
col29:   97b8c8c69b58b8a9a8cb78bb6bc9daaadb9aa8ecabbdbaa8bfbcfbba3d7b9faadccb7a9adfdcedfb
col30:   666a97a5fb7968d6b88bb68abaeab9b6fd9dddbdcc9cdbb9bdc5a6aaab7b5ccb9d8999eac9ed7cac
col31:   659ac876aa8b9ad998ac88979eb9fc98bbfbebcab9bcfbccddfeaba8bcaccdc9aeeee9bdec8f8eec
col32:   16a897868abe96dc8d87d8edcbc7b9aacfc89ccdd8a955cc8eacbdfa9ad9dfddbcddfbcbccfebdb7
col33:   6b8ab9bba8869aade9899a8acfe9aabadbe7cacdfabcfbbbb8cabaacacbad8797aa7cd9eca9acbd9
col34:   9987739b8a87d6ca98bbb9cb76cca9dcba9a9bbbedc8caeb6edfebffccabefdb9acdccedceadffab
col35:   9a8888b7ac89ca867db769abcb85c89cbc9bbdccccc7beaafeddccdaba7bbb9cdddc9adcddefdb99
col36:   969cb7cbaab9b6ad6b5ccb9ac89aeab8bdfc7eccddbccdadcacfdecaaacaaacbeefaddeec9bac7db
col37:   788abc8c7cd6ac8cbbeac6a9fcacacbcd89bf8cbdadba9cdc9a8dafdcdeeeadbfadfbea8beaefd8a
col38:   a9a88b9b9cc9abc99acaa9d8bcacadfaeeebcceddceedcbf9dcaffccadade9efdcccdcfcbfef9bcb
col39:   cbaeabaafbbb9b988be9b99ac9beaffb87bbdbfcb8abdcdadcacaaebddadf5bedeaad7fdcccc9ab9
col40:   989bccd8b858b7b97ca9bbcbcbc8abe9dbdcb9acdcbdac9b9d9cfda8d7decadbceeefffbdacaefda
col41:   aa88a99b6b7c899d97abedeed9fbdc9ccae9ec9da7ccdddbfc99dfdeeabddfbadc9faefdd8ccbcef
col42:   2aab89ba8babd8caa788bdd9d8da9ccbc8a99c85d7aca8bf9ccbefe8cdbd6dcbdbfaaeccfaefbeca
col43:   94b969ba8dbc6bdcc98cdabc9ecbe9cbacfadcfadacc9ecfdcd9efdadfe9eedefcaccafcfccafbeb
col44:   98a78aadb6dc9acaa7bc99d6adcad9dabbcab7be9acbcccaafabf9dacff8eee9fffdbedfddddfcf6
col45:   4977a869ad9cbad867bb66aac9cc8ccababbcbdbbbbedb7aeefdca8e95cdaadeaab8cebdbbfffbec
col46:   7b9c9c774b998a9aabf99edcacddc9bb9bbccabcfacbfcdcabfdb8cefdaaddbdc98acefebbbcefbd
col47:   88c9c76aa9aacd69ac8a9cca6bcbbabdb9cfbcacb9deeeede8cd7ecfbbcfadaeecfdedafecbdddca
col48:   b799ab9dabdb9b8777bc798eaacadbebdd8dcf7cbbc689bacacccbbfebdeeabadccffdeafcaaefec
col49:   97ab4aa2bbaded99cd2b9c8d8aabb978bd8baefbdfeffcbbcdbdfadfdcb9be8fddb9cdfbccdceddc
col50:   a8b848959d86b9c896bcbcdabbadd998adbcfc99afcfbadeceffc9e9ffdfedefcefbebafbdffddbb
col51:   aa876255b8974cca39c94b867a9aaa7cac997c689bbca6aac957bcdab8cbbd9caecab99ebbb6d7d9
ROC:	 BPix_BpI_SEC5_LYR2_LDR9F_MOD1_ROC9
col00:   8453269455755775486b3a688668957d77688868494875437997b79dab3885b87a78766688b96579
col01:   6b6958c67b759a899a6668a9559a9aa8cabaada8ab5cacebb9b4bbabe993cbd877a88da5eadb6692
col02:   54428857b865789b55797a89a85e3997a7baa9a668bc8a9a6a6c998dabba7b8a8ad8baab86a95b97
col03:   98aca57a589a88688b8954b3a8654aec989d9b95b766baa9b8ccb5b79889cb997c7996ce8da64676
col04:   65766635269a94267db82aaa9ca6b7ac8c68accacb79cc799ab6879da8cc9c87bb8af7698987ba46
col05:   67b85557a987566689895c5696b9ca8a8b869ba99b889a8bc88b7dbbcbcb7b9979a5679d898678a8
col06:   61566764979567776a86cc98c689976b958a799cd98a679abc9f99e89b7a78d6bd78777a8a9789aa
col07:   6a48c96579a6a9ab78ebaa94965a6699bca76dcc87c9d99bc99a87bdcebbb7a9bdafbaac989c7aa8
col08:   6879ac66645a767877b58499dd6896a789878b9c7779d98b87aa68cab8dad9c7aa8889cda777dc97
col09:   77989679875777a9a8b67bc8bb97b8989adc979cba89be8adbb98aba7d8897a8a99b7a6c89b97aca
col10:   777869679787959477b9496abb888b5bb79cca9aabecb6898bcab8c9badbf9b86788caba96b98aa7
col11:   589789767a7989b787a86568cba679a8b8ada667a9fb899b7b9caab8dccecbaa9b78b43a9b8ba969
col12:   68a9455a3369c6464a48aa8a2a79bf88a67a8bccb9b99bb99ccca8a9ab1d889a9cb9b887a67aa652
col13:   b68bb769a8a6887a688948b9b79b8dba9db78acbecc9babedaaccccbceacdab8bc8c999a7a6e69a6
col14:   64b93575c86776484a988b38ccc9e578a9cbb98dec59c8b6dca96bc77abce9aa9999a95a87baca9a
col15:   765968c477b878bc8a2786c6786be69b8c83ba67abca98ca6c7c9877888a9aca8accafba89adbc78
col16:   5b5c4997a88768ba34795abb9b87c98c9896fab99b9acd989ec9da9a8676ba5bcb9a79b8c878637b
col17:   96c98569556a7958a9798819bac8a8b9c6ddc8b7aaaabdb587878dbc95a9b888595a879a87d96ab5
col18:   5453248568439a9862b77aa7b5799a67bdaa9cc9c3acaabb889ca9cc9b4c5996cb6787c767a65aba
col19:   669637986699a9a968889c78e7aafa7bd99b569ba9c88aecd9aabacd9accb6bcbabed7cb7b78abb5
col20:   64875a654aa64673753976835d98cb49a99aa8ae6588c99b8eb7e7c9b47dc69c9998caacac7c9d78
col21:   41634a879ba6a979da6999bcac9ba8a9b8699999ac77b97aaacc6daa8cbcf78acbba8bbe768b3b64
col22:   965388b7895aba87475554997aa6b96997b67a89b98cb9b898d8c9b77aa6a9a8c9a8ba7c9d9a898a
col23:   64499a8957656a97d7b7966aaabcccc7cad9db59aba9b8caa97c79bb9aaaab656b8ba9973a977656
col24:   668775a6659d79b7b864a57c9bc9bc9bb9cba9a5aaadca97baacca69cd9dc9caab8dc86a79769836
col25:   95767655a9a588d58877dcaa9a86bd6c7c7ccafaa96cb8cdaac89a9aafdaeb9e8bd9cb987a969a8c
col26:   a69487a7cbba9b8899998b7b9a69add9c699bf4debccb7ad8bffef8686adacaba8eec99c8ca8cca6
col27:   a73d87a296babaa6b9cc7bc7cba7da9cc6babbcca9dc9dbad9daeeec8b8dbc9abcbbdddaaa3bb5ca
col28:   ba88b9b99a57baa989a685acb9b8bf6d9caa9ccaf8bdb7deacccebdddbabc9adb75caabe7babb987
col29:   76c5a876999b79c97dbcc9cd9bda59dbcc8bbcaba9fb7addddedfeeccb9acf99ba8a9bb9aab999ba
col30:   c66ba4a788799ba8d9a8a986abbb8e8ccf8dc8bcccd8ddc99b79e6aaedcabeeac77cbaabc858cbaa
col31:   958788a8e89dbbd9ddaeb8bca6ddb8adfcb999bcbccdcefdae9cc9cdb9ecdccfdacaebddddc98bbc
col32:   b3c777a9cdcfb8bbb9bbcbaceade7ffec9ee8f8bbe8aae7ddaac9e9cbdbd99cbdadddd9bbacbbba8
col33:   ba99859899afa9bbc8bd9cf9799cbc8cdcddb989fc6ea7d8eccc9b9ae8d8d99aae8adbee99dacd8b
col34:   69bda7aca6d98bd999cbea8cedcb8bcbabfc7ca9fecaebdbaddadd7dbfb8bd9cbaaaac9bdcc9bc8c
col35:   688989bbd8dda9ac89999beabdcafae998dbeddbf7badaecfcbcdfc9bcdbcdafbfcccab9dc9fad67
col36:   a8d9467a7d99aaac7abbbb5b8baadba6ddbddecb8dbaccc9be9cfec979ceca9ac8b9cbc9b99ab998
col37:   a7a89da8a997aebdebaa99ffa9cdccd9dbbfbcbdebedbfacaddaedcf8db8dbba9cb8cdccbe99cc9a
col38:   a86c8b9ebd98bbc9b9daccdbad99c95edafbbcecceecdcdfec8bec59dd9ffeaebfbc8ae9bccbd9b6
col39:   8997c758c496abcd98da7acfbcbaa9bfbedaae8bcfecbaaadbafbce8ccd6bdbdd9bc8c9bdd97c9a8
col40:   92a497c58b9cd89dbbaadb9ccedcbcacdc8cadddcedffdbbcbaa9bbdccadadbeafccacce75cb788a
col41:   6b859aababab8b9bbad9cbfbccfdfad9aebbacfecdabfdbbabbdbdfcce9fcfdebcbeaccf88b7abd8
col42:   b9dbb77abc7cae9c99cfbdcdccabbecdb97cbccb7aacbca9ed9beaecdddfbddefcdfbb6997bbaaa9
col43:   bbfc77bbb9cbafacea8fcddeb9c9a9ddedcca9cecddffcd9dfefabeb7cefcecfbaddadddbb6aaabb
col44:   789cbca7c97c9b7ecd8cc9cbcca9e9dbfecbdabcafccfef9ccdcceabacab9bcddc99bc9cc9acddb6
col45:   bccaadab98d8caacbbdcb7adafdcedccaaeeaceacfbed9efbcedeebdcbdd9dadd7cdccabbbadbccb
col46:   b7d99a89a987c97cebae9899bcecbacda99cebed8dfaabf9ddcac9ceddef9edddf9ffc99bbbaba8c
col47:   8dbcdd9cc9aaa5be8b9bcdddac9bbccefcfedbb9cebdcafcddf89efacef8dedaecffcedbeecdc9aa
col48:   c749bb8bbc8abaaa98fdecf8debadddb8fbddfdecbcfdf9acdbfecfa8bcabcedbcdafeadacc89cd8
col49:   7a8a9b9bdbebadc6e77dacdedbce9eecadbcebecdfaeceeddcccadefebeaffedac8ceccdaefb9c98
col50:   5cae9c798addefbdbbfbbbdbbbabbeecedcfcc9c9bcadddeedeabbafbff6cbafc8ccde7afd8dc879
col51:   95899ab55877b9b5babaadbbabaccecb9adfb89bfa7bc8d9cca9b9f9ecdcb9a6a6a8ade8cc89b89a
ROC:	 BPix_BpI_SEC5_LYR2_LDR9F_MOD1_ROC10
col00:   233587754491757a6578387865577565686564688978469395b87559488998c899698b68988b7bc9
col01:   45a656766a898484276468a76a8877aab78963a869babba7886857977682a8888bbab9969c77b9bb
col02:   53567a147778c5474738489452949988896766976469984356885a359d987a46898a9a5489983a77
col03:   568588255b7757597bb877895886a778a55787b8778baba87d8cc995d577bf899abbd677a9b995ac
col04:   3647773a476567976877849654786888a93778938a9978ab8a597768a89887769aa9a9ab799b9a86
col05:   56564754266775957b94754995754695a86659a7659495bc7a78b4776679989b8ab89a6489bbbcc8
col06:   4585866756148567688b687656c8a6788978b69564a497696aa69a747897888b7669848888b7d497
col07:   5345688999867865667852685767496677a8789877757557a793846a7458998a8962689c8d9899b9
col08:   438374684458956894273633655759796698999659985a97b5978a64976a6877c798499a8969756b
col09:   43478749556859788554a7666b79685769aaaaa66c97865ba47a998a9a6679989878597958b6a9b7
col10:   285657936677365a8816556664a59a658c7cb786865778a8d9a77a7b848b95c55699a678b8959967
col11:   7622767785688549a75866499476887977c65b6658799386a97baa4548a889895c8996a9874489a7
col12:   6563863b3776344379356a7baba667879666886b3a979d56a699979599759ba97366668a79b4b728
col13:   4756345456861376a28586825d776559a767a8ab97a4958791996978993775868b9876ba95995346
col14:   843525446a2347165a389278585c8a596666748386e4b697a4a965756367cba86749255774469998
col15:   7687776786936648696775a5875399b897a86675894a87b93966767879379a9878767b6bc4999976
col16:   942586a64535884974748567883777b8768a86c375899a7678a6767877584775979976a98651a8b6
col17:   5526b4766435539697857657b787a6989978aa66458ba463528668756a8856769777a88772866538
col18:   743784849ab727236569466a9c66c9765a67855b7898998767aa99467486455689747c89898a7864
col19:   6878986866988967679575739a979b68357878a66598aba8757a6978888766b69b798c96a8b77665
col20:   4646855268a5857375885854a7a677a7698a777977b787397797789896877954a9796744a6a6d977
col21:   65576656859896787989677878baa87987a6859788b6977ac76aa97a669799aa8da5c877aca669a6
col22:   356784a9863477a8778a786787c8859ab96b9b76a96687885c96b8386756594b8967748b76b797b6
col23:   6887278786995788876a7a587a9697aa8ba89769999458487a8598a4796779b9b787688498c57866
col24:   46595687a938a799b699696799a776798a96b96b647a59bb9b98a8a86cb77ab9767aa37797a67674
col25:   47698997775588bbaa88aab8a989b69b9b67dd999b8a989988aa7ab779978967916aa976576b9998
col26:   9677777a978a977ba6ab98aaab8ac9967ac7a9756979998b848876bc8a9a8ba6c885799aa87adc65
col27:   b6789bbb9c8995965a9b5a5dcbdac87da76cb89caaab9bcda8bbfa8ab9abcb878b7aa9788b9689a9
col28:   7966b67b8b798a89ab899a989c98bcbcca7999baa97aaea789b9af6c899ab9aa7a9eda87967a95c6
col29:   24879adb9cba7fb78bcca69bcbbabdb899abbabccb99aa99b8eaa896cb9ba6777a9b776876a8499a
col30:   87a8ad9aa6798bbab6b7899c9bba9a89cca8ddcb8aaab789c99a7ab9ba688885a5c9988879788ab6
col31:   a67968ac7c8bd8a879ca8baabacbbef9bb9d8b8cd8a9dbcba9bda99bc8799ac96d997998a89a6898
col32:   68b97c89c78aac9cbc7dbbacb9dc9b9bb999bbba9a99fdbaaad8c7cabc8aaaaea6b59bcb9aa86ab9
col33:   7b8a98aa8bb79aba78a8bea9bcd7b8bdeaacb9baaefa6bbcb9dd8d99ca7cabbcb9aaabc9879a6cc8
col34:   9798a899acbab9d8a9d9aaac9a9cc9bc9aa9caea9fabdacabcc9aaa6bade8b9bc6bcccb5b9b79488
col35:   aaa998cbbd98bebb8ddabb89ba9dcccacbbdbeec8dcbcdcaccdb9ae8ae87cb6798868acbaac7a999
col36:   aa9b9dbcdc86caba8bcadbcaa88a88f9dc89d9da78c9adcd9f8d9ea7aa9d7c8ab876ba879cac6aac
col37:   aabcc98cabaadbaabbbbdaacaefc99ac7b99dafbcdd9c9b9dcfbaecbbca8b9bcacac8dba88babab4
col38:   b7cb889c99acbdd7ad9b87ad7aea9c6cbbda9c97cbcecbb8dca9ceb9daaccbcebaaabbad8b9bac85
col39:   bb6a8baabacdbacabb99be97999bbc8ccbc98da99aa89d9ba8fe9ca9badcaebcc9b49d8daab77b9c
col40:   57b88ab8bbacabbdb9c9ebacdbdebbe8dbbbccaa9bb9d9da9abdcfadbcedcbbcbdbcad8abab79d96
col41:   89aba9878d8b7baadbada99b8cbbb7b9a898da7ec88acabc9dbcceadccabdcadc899abaa9b9b8a8a
col42:   e7aaabfbcaebac88dbc9cdaea9abeabebcebcab9df98ebbbeacbbf99f8ccecc87db8c89abadb8a7b
col43:   a777aaacc9d9cdaaebaa9da8cbbcaedac69ddbfaa9d9ccbbcaa997abddedabbca99ddbdcd99eebcb
col44:   66677bc998b9db99997bb789bacafbbbcd9cdaccbdadbcbad9addf9cbabcbf9c8d88fb9abac8ccda
col45:   5798b7a85c9c9aaa9d9a99abcb8bdc6b89bffd9bbbacbb9acaafbbcaaa99bcbcc9c99dc9b8ddb9db
col46:   b9abaa98b98a8adba98cabba9cdb9babc8acbcbbbbabd9eacbeaacbbbdd8cdf7cbcbcd97bcdd8b97
col47:   bc8b886aaa8cbbabb9c5acacca9da9bccb9bb8ddd7acbccbbfbbbd78bdbaacbdcbab9acce7a9bc6a
col48:   8d9baca89999ab8cebcbb9a79b9bebbc9cbd8cc8aaaabbacaacac9bfcafbaaaae9a8cbbdbcfa9dba
col49:   99b777887bbb99975ddaceee9a7f7a8b89dda7ccddaaabcadbddaaeccbfcdbcbbafbabaa9cbcec8d
col50:   47db9aacadacbec6c999b88cc8bb9c89aaebaddbebacd6ec9eacdcaabcdbaedc8bd9dbcaaacddab9
col51:   b999966d987c9a8cbc8c7badaccabeb98a9aac9baebb89bc8a898baaa7cc9abaab9baca6deabcab9
ROC:	 BPix_BpI_SEC5_LYR2_LDR9F_MOD1_ROC11
col00:   3556b24211935a6846375a7c88496567568a9537cb783865a6779bb53474536756a7635626524945
col01:   65b59a4a585597549e6a467b5c7b95acaa8bba885865b877c1fae9976b978a534b4b768a7da75788
col02:   56572675a987a94ca966675b3977959498a48837d8b985576b9896577478a6768aa99279568855d1
col03:   486a95f47666cb9dcb98aa7da2b77baa8aa7c83b8b7948a6897b6cada68b6a6877453a9c779556a8
col04:   5d9388b6874669cac7c78cc986d94889f6d8799498cdca859b69a9b7796685b36688894598658c75
col05:   6d68785956579a69caa8a59b787b9949798ad5d15867b5854a785aba7d648a77a79d9a899a897777
col06:   87b695a76b959dab81c73556977d93acd66b8b1acc8b3bd59a9bc7d7c699c99c69789c6a68459874
col07:   8877a784c695d78aa9969a9aab9acba7868b969a98b558995ac9acd9c896a98aa8585c76b6ac5c85
col08:   5368ca95aa99a75898476acb44ba8aa5c8a5a9ab6b988dd663781a7677a59a5c97a98baa88669593
col09:   6c997d8aa9aa87986b7888899abbcbb7eabaea8abdb3aebfe8a9997b9b797a867a989955ca49b989
col10:   588289a89cc5a58869667c55796a559b969b8aa9ba87bb4565ba45be989566aa586dc78ab958b497
col11:   515695a958a95577a9b8957b998a8475b89c6bd6679796cb4586d67c64aa9b77cca977899687a965
col12:   7a98a4b77ab9896c8877d939b687a89b7a953e857a73acbc76a66b9894995aca5d8777a6998b9465
col13:   5666bb9799d8a4867986aebab9b7eb8aa69a9d76929ab985a56bda5795b7d8a9968ab958bb557966
col14:   6387b9a4781b996575a36799ead78b858b86ab9cb6ba7985a9cbb6a8948c68a4b9579c6d68a8b79a
col15:   34776495c77c4a8b4e9cbb8daabcabba699e92876a78be9798dee7b87c888687a69798a9496b4a24
col16:   24449b576c9438d7bcabb57afa5a898a2987bc19a96698c6bca677cb7748a678b68757598b8973b6
col17:   688469945ba65b7baa597a977bacc5bcd7aab68b6a5ca79ca9bdc799c7b97bbcbabaa786696a4295
col18:   c7656a79a158658d736cba6c78676c769879886ba9aaa98bbc857689a498878b666b8a2a89abda69
col19:   4937869ca7977bee7596b97c97ff98c6b1a5d688a7c7a65b78d8c5daa6a8697988b575789679857d
col20:   599588b93798899984745588568765a7797c9c79b4b99689a6aadb669a23ba578b92955667699845
col21:   877d98a9ada4b78d7ca897aa5f8bbcc85ba9d6d9b9a8dbc9b69ba759a8a885589ab57b89593586c6
col22:   5378d9479ca58bd5268b98bb78bcdbba488785c68876a55a9e96a398a79b399ba8a666b9bab996a9
col23:   9967bb6996aa7aaba5a877899fb79b8e4678a967a488aba8fe87967895d878739a8d78ab87894466
col24:   38c59469a66d695baab388a7993a369787986cb5854664aba6aa99a7169aac97a6cb797786d8a8ab
col25:   4d589ba9ab99a86a88c89998cd65aa6bb7cabc899d88aaaad999b898ea45997289cc9a8698b458a5
col26:   aaa4b97a9cb89bcd99acb6bbac9abd99a9abcdac7989badbcaccc6eab6ca8bbacee7dbd89d7797b7
col27:   94847bdabdbae9992be9599fccc9c5cda7cc8bdaabc48bbbb7b9b998ca9cc8ad5bd8a9a9958bb7a5
col28:   875969b8bbbbfbbbccafb89999b6e8cacdd967abfbb8f4aaab9af9bbff7c7a96c8c788da8aa6aa6b
col29:   b56b8aecc8a9a7ab8ada98cbb68cace9aaf9eab9ac999daaa9fafc688e9a6ca98bbba85b98aa98b5
col30:   978b88ffe6689dc9ab6ac868ecaaca9b9bc9aa8c9a79da9d9feba8b9da6ecdfcaa86dd94aa8976c7
col31:   abd6b79c79bba9de9ad99a394ecfe8e994d8ecbbde8aec9ddb8be9cb9999bd88caaca8cecabe7b78
col32:   249a7d88b9aacc78ea8a98fca9c8bad8df97aecbd8afdaeca7d9a9a6c8b7e4b88edb79ea7cc689db
col33:   b8998cb5c99cd979e9db8bedeafecafdccbedfbc9cbdbbdc9baba78be79ecac89acb9bbbadeacdd7
col34:   5879a9ba4ebdb8added9cdadddddeccaadffbe98e8b8ccd8eecdebdbe6a9c4ccafaabbbeefc9b3ab
col35:   bcbbacdbe88abca965ebb7cfbdbebc9cffaae5abe7bbab68ac98ae8b7fffbbd7dd7aadacbd8ab8be
col36:   a57b5b98caacb8cf9889b97dfaccfcdacdcaad6bf9cd9af79c9aadda8accfea9d7bcab9dcc89adaa
col37:   6b88b9efaa7daabcaebddbbdfaa9cedcccf899ca99dbcecebd78eabbebfefc8a8bbaad6bac7bd8d9
col38:   6cb7fc88479cbcc8aafecaafcf8eb78c8aaedf99eafcfafbc9cfddefecabfbbcf8a9d9cdbe66c4bb
col39:   bbd6a99e6cfded9fcce88dbeeccfedfdcc77fdebbbea9eb8bcb69cbcdaccbf89eacd8cf79ddddeaa
col40:   69ba9bb9cc9cfd6c7e8a5ab9addbbcabeec989dfbac8decc9ca5c86ec8fecdfbdbcbd9b898edea9a
col41:   a6cd8999d7bf8bccbdb9fbdbcdb8b9fabadadfbcc8afdf9698bbbcaa7aecbd8ca8bddc99f9fea6c7
col42:   98a8d77f6dadcb82bed8bdaada8ee99cebbbfedddfaf9cbe7ddebd9dae98a999cb9ccecd59dddadb
col43:   bd9afaebdab95c9dddccbadfffc9dcdfdfdededeba3bddcb9df7babdedb7badbccbc999adccd97d8
col44:   ba99997d8857d9b9bbfcadacfcadcfdbcea9bdbb5d8dadda7a6cabb8cc9e6f97b8cc8b99cdb5b9b6
col45:   abac79eaadd9bf8b9db8eddceafdf9eadeaceddcbabfaf9dacdddafeadadeb9de9abccc9bbdb888b
col46:   aebffba9ccaebcd9a9afabbcbacdff8bcfeacbefacb7acca989cebd7eceaccc9cabcfdc5dbcb26f8
col47:   b69cbf9baeaeccfba88cbeacfbcccecccfcbd9ba8cfddbbabd888ccbdcffcd8b9c9bcab2b7ada78d
col48:   cac69acb8e88ac6bb89ab8e9cad97cc7ca9ebbac8cb9bc7cdbaaacaccd9bea9d4aa9ccb99ce7ead9
col49:   3967adaab778ca98fdb998ccfdefcf9bdd98ce8ddeceddefdcde8cfafc8cdbcb89aaeca8a8bccc8e
col50:   bdaba8a5ab9dadc999caf98e79efcad5dbc9b94b8dcbc9d9b98dbab99bbbbbbdcddbbb98ad7abde6
col51:   37aa4ad576788caba7aa7a78efa7787bad89e9a767c795e767a9baa77c8ba9ab9579795b89c7a939
ROC:	 BPix_BpI_SEC5_LYR2_LDR9F_MOD1_ROC12
col00:   a878655b834a8536667668b762a8b988dbc8aa5a667a689a79589848889686652357685927827765
col01:   76659828a2a8888a7a7a7877a9d9b99a7bb9a8999a9bdba79ca57cc767ada8baba8838b9797a8558
col02:   975b638869789887a8a95ba791a9a4a87a97b7aabacd4baba979b6469998ab9898c87c6b79435aa8
col03:   687a549cc5867957787da58bbaa89b9dbbababb56b789f9d75aaa6c8baa659b6c6bcabaa766d8891
col04:   59485a6567a5cb887756bb9457a79a8b9d47bd869a6cb84b9eacc899acc6d2969485ba98c3a88486
col05:   97a997cc7847a68b6a77885cab9b98b8d68bbbc5dba8bc69accc99a628975b6c667a78ab6b2867b6
col06:   85896674898bda9d45b75aacbc969c99978848b5bb77aae68b98c7ae8d87aadddc8a87b65ba87b49
col07:   9a9a995a787886a9ebbdbba9b8d7abbb9c4aaa6899e8dc9aaaedbbc8d9da94989dc9b94a995aa89b
col08:   8878657d778578c9966baba9b9888a9975b86baa8b699a98b8c9babb97ba78aac7aea5c784758b58
col09:   767a4b9997769888abc687989cb99fa9ca7fbca9ad99abbca58fcb9ef9c6685aa8ad86d8ca98b895
col10:   955d89677646597b6829676796c969d6969ad887bdbf99c888cadc77ca89aacad86b44be57687755
col11:   6856665285a86936ab798accc9aab98a98b8ba9a889d97db68cb79a9b99dbc6c898466977bb78c53
col12:   59756d6194b88e69bba819a7beadb7c76a8aa9b6a59bd69e59dabae8a786a769c9b575b8ac8a6867
col13:   6787ab395a7caa99a79b7bb4fa9db8999abc94a79cc9fab9e6dbb9a99a7888ca776ab587ca673999
col14:   a956bb29a69abb988a9a8c5b79a6c4c379b9aa9698b99cb9b8cb49e9d57767ae818b9c2e59f95c93
col15:   5a9a37c557a658aca56799acdbb5eda78cdccd899c9afdab88bbab9b959cab4aba7b98a7949868a8
col16:   28568b6686bbf789868ccab57896c6dcd9ab9ab8badb8bdb7da64aecf78a67ba5ab87ca9ba77d7b5
col17:   6b66873787598a656a895db98a6abba9b97aa98abab7a98866abeae6ac9899cdbac36f978c78aa61
col18:   bbb6a7866569cb779b865b796c499c76aba8decfa47aaa998c795a77c9ca85b8b84689b87674b379
col19:   827759b6b78689a77adcb6988dbccbbbbc9b9beed69bb78a99a8bb9c8a7d88569a779a9a7796bdab
col20:   68987627c97ae898a87b6998887af87a6d5b7cbb67e9a75ab4898b6a78696aa99bc7a76b687d4a91
col21:   66998c5ba96788b9a99a88cd99998afaaa99c457999bb9aaeda788cbe8f5aa8bc7d7a69b8ad78889
col22:   87b79c667777a9b77ca6b7aa86b93b8aaaacab99bb5d7bbc679785a89ca8c788c9978b86977897a2
col23:   78757297665a4c36699a6a88a8cbf5b8b6ecbc8aab9798abcb9bbbcacb5b5cab9f694a79b6aca382
col24:   1788a794324d587c84cd8a6546a496b87779bbb9ac9dac5b96d85b6c98aa9a9ba7a478b7855b4679
col25:   796189869869599dab6eaab989ed7c8f7ce996db6a89b8adab7d9beb7a9a88b9a99798b86dd78769
col26:   ea79659cab74caabcacb98bca8f8ecdaa9ca8b9a8da9c6ebcbbbd7a7bb8cbebbb9ef9ba49daa9699
col27:   66cd79dc9a7888db99c8a95d7dd8aa6ecb99a9fffc9ac86dbf97bcaeec97b9b8cacac879aab6b9d3
col28:   7bbac6a97bb79f788a9e697cebccafeaaaf7ccde9dfc9bdbc9dabdaaeceaaabb99aad9e9798e579b
col29:   6999976be6b9c99c7a7a9b8edbdbb669bff8fefafa6acdca6879e8ba8c5a8badfa8ad7ccb67aab99
col30:   6787ab6b5e9897b9ac9bbabcebaaf8aadcaea849dc8b997ab9de4ae97adc59cabccc5ac88a9ca788
col31:   9abc758bb9c98db86eadfe8ccccbdc8d9c9c9b9bca7dbafeccddafcfaeccdbbcbcba8a69ed9b99b9
col32:   6d77caadaaac9b8bb97d7e9dabdce59bcba686aeddafdbd8e8bdbdafdaddcc9dbcddab7abc876768
col33:   baa998bafb8bed8dadca9aaaa9d8faacab87aeb9bbecedfda8baaeabbfd69eceebac6bae7bbe6797
col34:   79ababbccaabec9c78889bace9abdb9fc89dccdf9bcfccdedda9beebe9c88aa5accbbd7cf7b77fd7
col35:   78bec87ac8acbcee9c68aaaacd98eedab9d9abbfdabadbbd9def9bb988aedce9b8c8eb5afa8cbbbc
col36:   c9e7a979babda989898bca7bc99cbcaabed8adedbdaccbb7d9dd9dc9dacbffacebc98f8a5a9ba589
col37:   86a999a77b9bdd7efbbdb78cd87cd9c8afcefffaadeaacafffbccba9cedafcd8ae98dbfbb9aa9da7
col38:   c9da75dac6eada8c8abdc69aa9dacddaeddb7fedcecede8adbabefafbdffddcacfbafefd7ac8e98b
col39:   972be86ca6a9bde7d8b8bbdbaf78cdabadecccbffdbae9dbcdbbdf9b9baedbeeebaae889ffcc96de
col40:   9aa85c9acddcfecc7c9a9998d9dbbdecddec9b9df9cdccccdb9dd7a9fcbed9bc9bbefebba9fccad7
col41:   7c9c68dbacabaecd8bfb8ab9aeeebeacb6bbbaeddeb9cf9ccd8bdcbcac9dedefd9cfeed9ca6dd985
col42:   abaaa6bc78adab99b9a9aaed99bdebcadccddcc9eab9dbdbbcc9aab8f7f8f9dddc7d789ccaac98ce
col43:   eacad8b9e8798da8b99a9cc5cacfbde8cfacdb9afa7b8dcdd9dceeaaeccfe8eacabbe9db6ca9c7b6
col44:   c5aa96ea9ba699b999e89b8cdaeabebbbda9efac4abcbcde9e999cdecf9ebcfdfcfccdeadbaf9ad9
col45:   957b9dcacf9cd78c7b97ccdf68d8cfddecabcddd8feeeac8acbcdafacfbcfde9d9dcba8acadeaa85
col46:   679aad9da8ceba7ca8f8cacecd9b8ac9bbbadb9deaebbafecffadddcdff99bebeacad97cabca87ca
col47:   d7adda8aea75f8a9bcca9a7bdfcefbc88aacbbcd8beadfbcbcedbdc8cc9bdad6eb8aab9b99d9a7fa
col48:   c6773a76aaebabae7b9eaac8cceecb9ebfcb9cedefddecbaa9c9acffbfedcdccac7faa5cbad5cba6
col49:   8dbac5c7a5ebeaaaddf9ec99e8acfdcadafbcdcbecceadadeb9da9f96ecbdcbafa9eabaedaacabca
col50:   a69d988ab98ada88abacabb9ddcbccd89ac9ea7d9aabcbcabbcac9c68dcabc9aaccebacdfcbcac8c
col51:   9bc999cb8859a76bca6b9c4ad7bfbb658bbd9bcc9a9abaa8b9a6b8ab9fbdcabafb8bb79685386975
ROC:	 BPix_BpI_SEC5_LYR2_LDR9F_MOD1_ROC13
col00:   44649665549658a6529941d5836b857953567a9b68686b886378687bb78d75348a4a386575a47831
col01:   45168735b96aa98c99aba6f9ba4ba88d67a868ca7d98a6b97dab59edb89aa57abcc76b5b5b86d768
col02:   9461a557799ba97699bb9778938977db6b5a98ae99c3868868ba8e788798a5c46954b398574a7887
col03:   77535764776757bc68b8abb9765ca8a9a99ae58adcb5a96b8dc7aa78cb5ca779b66d8a777f969593
col04:   451936b88987775c968895b84976abd99bb8a9cca97a6b7c7aaa9999bac9884884697878a9976575
col05:   4467c9519a59636768789b8a7c9598b749465e9d4588aa88876a86b3889c7a759b8b46957b5a66b1
col06:   7679979b877599c29485587279dd38dd86bc8c7d37aa98aca9a67d579d9bf97aa96b877b74a6768a
col07:   5465a56a7578bcba599c64379a59cdc8b98cac8a8f9d86a89bbac98c9ac98597c79f89b9a887aca6
col08:   614a7679498778394ac9c86b87b8ab97855db6ea98a6d899989dbc99cccbac9fb65a6a4b66a587a9
col09:   11b58a975d4938836779a76e9b99da889dacc8a97876c7abaaa9ca9aa987aba8a569c77dba96cc55
col10:   a67863595b397867a37875868e9d4b97acccbbbcb9ba6b86caabb569ac887697ac675969a4a75793
col11:   6d8ba64959e55a969a8b78bc8ba8ac7a6ab9bbcd7c989a9a9c78676b9acbad88baa977a3aaca9b55
col12:   76766395539acb87791cb778c8d756aa8d8ad799b39685757bcc6ace96a7aa7b5ba5757ab65ce6cb
col13:   68437a6999c7588d6d857b9a9ab7e7ab89caa8e98d9c7ac75b75a7acda9caad99fb49bb886dca699
col14:   7ac47c7a64a6b67a9887c89bba278da575a8a97579b746a6ab9d9acdaca8bad7898984b9b58b93a9
col15:   9966975816c5a8cba5a788bca99978a9a89bab7ec6698d999976487a699858baa78a781aa6969977
col16:   91971a1589a494856c86a897a47a78a7ba69bbaa798aabcaf98899aa8e9c77689b67b9c98db55796
col17:   1577788ba67b89bb8b695a9acb158a6ae96a6a78a89988c8977599ccbcb56ba88dba9bd7c838d87a
col18:   b9c3829567667b767a5871579b98aaba6c99dacb97bde7a9c9589bc8c8caafc9a999aaa869448889
col19:   45a7a5694564975b8887ba789aaa7ba69aacdb8b9c66bec8fcdb67c8bebaa7455597ab87a986ac8b
col20:   a63567595698955888c69767bd4893ba565bbbc999c98ea996adaab498a8778b7aa8a8d7a7f7b75b
col21:   6567d7896799ad4859a6aaa7ba7b8c779eabaabb6c9957e8bcdbd5bbbaaa49cc8d987a58988a9b94
col22:   946768a8b794a75ba8875957b8ba59a5b7a77b4b76786589aeb99bdacb899a7f976771788eb935b5
col23:   2469c8a589badd886859bb5bc57aac69aac7ab9aa9a978fcd89c5a5abac68e89be6ec987bb466c88
col24:   84497695799b664c5789a68a782cbe99aa8aaa99bbb89b78c9da6c4b967a7caaaa89599a77a6949a
col25:   866639587b5e8b9a694adc8ecab97f88ada9daa9c799b9c9cbba9999cbbb4caa9aba8ac96b9a9a94
col26:   c63a94a778a497b5c986887cadc8dc8957c9bca8a7f8bbda7bcf9cba76aadfabda78d87bc98d9887
col27:   9748b6bb957b2ddb9cc9b8cbdbdcceab9ca7e6dfd8cbbcc8c99acaa7aabccbfaab8bb9a8a78b79a5
col28:   86a92bb44bb98bab88cf5a67cdde8ccce9ec8adbbfcbcaacffddcbc8bad78cbbc9bbabbbf888a8b9
col29:   989674bc68fbaa89c6d9d8b979e6b9cb6add97cccdcaaa9b9a98bca9dcabeaaaccca8fef98a9cae8
col30:   569ae9a7a8ad856ca276ad9759babbddbddaf4caabcdb999cb9abbfbbecdcb9d9769abbc88a9cc98
col31:   a75e7b69dccab88cd9cbeccdcc7abfd9cde7ccceff99ccdadaebdbcadccc9bbdbcbaafa8abbcb999
col32:   669659d9c6a98889bbbf87bbcccdbddbbabd9cc9ccee48eb68fdfbbdecbb5ddcdb66bd5cc6a7d6a9
col33:   5cd85854cfdad8ee799d6898bce9a9efb9bccadbcfeddaeeedbfcc99abbabcb9caaccba9aea7ad76
col34:   bbb59c988ba6aa87a89e8ddfcdb9e8acbcf9daacacebadb9accc9ca89addfcb9bcd96989dbbc9cc6
col35:   69cb8accbc8968cadcccdd9aaddcffaeeccebbfbaebad9ccdadf8ddaefdaacacebb79a9bf59fbe7a
col36:   7a9cb9a4bab69dacfa8d88b8bba99d87b9e99dedcccecbf8fa9acd89ddbcdd58cc8cfd8a77ddba8a
col37:   9eca7bacbdcc86d6d9ddebb8dccddeceebbecfdc9899b9dd9aaff8bfeadcfd8bfbccf8ea5a6eaa99
col38:   e9bf9b988dcbcbdacfa7e9bc97eefa9eacafbedacea9c8dcbecab9fecbcabad8cdcffbccc6aae7f9
col39:   87dbbdbb8f2aae5bad89dbd9fbbab8fadfedcedccd6dfcecdcde9fddad9beb6bddaebc9c8aed8cc7
col40:   ca9bba99a788af7cbc96aaeae9bb9fcbfdaebf88a8fdedaf7cbf9fafbadbdeaa7c8cbba898ecbbb4
col41:   97faaab8bc5abaeaabf98f6b9cdbda997adb9baddffecdaae9dddbfcdbdd6ddcbe9aafabc8fcba6c
col42:   7887a59b89acd99db3cbf9bebbdabebccccba8cbea78ffbc88d9eebbcfeffefa6dfaea6cd8ccb588
col43:   7acc7a8bccc98dbcc9cbe989b7adcedddd9fafbdbdefefdcbde9dcafbc9daddfcdeb8eacabcddafb
col44:   7a8ab97ec8b6bbfab97c8fbdfcebfadf7dcfedfddd9aebecdcadbfceccd9becaaca8c8967dbc7fb2
col45:   57d9786bab9bcb6b999abbdaa9c8ffdab9cfefcbdddabf8cbaddcaffccc9bff69ccdffaacced7985
col46:   884779acbf7d69a98acb7bcccab8a8dacb6cfffdf95eec7d9c9df88af9bfd7d9ccacac9b5e88bb67
col47:   d7ba8b9dbf579ddabebad9ddcd9fbbeabeeecadcbefb8fefdabaceafca65bceadc8cddf9dfd7bb8b
col48:   b989ba96fd9b98db7abcf8ababecbbcf7eccbfcafdb9deeabcabf9cc8cbadedbb8fc973aaaa99ae9
col49:   89a67bdb8b6cfb6cbcdd9be9f8cdadbedbceaaddedbeabffedccba8cd9adaecdaacbebbccabe9a88
col50:   97d96acac9efc7ddbdbcfaf9bfdebb9abaddefaaadecbefcaa9be3bedffa9cab9eedba9ac59dd578
col51:   828a89682497869889b2b6c977badc698e9d77fc86ba8bc8bdbc8cff9ca9cb8bf9ab554b8a8b6956
ROC:	 BPix_BpI_SEC5_LYR2_LDR9F_MOD1_ROC14
col00:   18b2955589858645785686677c99799986b985796b9989899a69d7a9969a588969654974657b7652
col01:   b8999889b7b889898997c8788b8aba86baeb9db9b6a8f6b9ab87ba976bafd998a69c877498289a87
col02:   687a899346659a8648b78ba57797f88ceb989c66b848996c75a7ba89889dc667a4a6966c9a865467
col03:   767a9875aa8a6aa478b88dc97a9d89a5d9d5c888969c7cc799788c996d6a88999b8abba879a77896
col04:   3aa768657499a76cb69a79874ba659bbb88bc9aabb79dcb9bab87a9b6c89a7b9aaa99b89c6397987
col05:   8a9786aa77646899ab76c67d4a68789aac8acafcd889ac97aaccbbd5a889693b4d67aa8ac678a637
col06:   d667859998d9b7ab7776795a98b8acaa89db8bbb89b8aaa7a9bd7bc6bad5b8c9999ed79797975989
col07:   78ab86798a8889abb8da74a8aa9b899886acbb9cbbd77ba878c8a9cab888d9ab77ab91898489a8b5
col08:   78766588596ab7aa8676677abc8a94c8a9957d68aab979c96c7b78c79a3da7b56678765c459a8aa6
col09:   a9979799ab4a99b9dc5b9997bd7f8889c877acb7989ab99a45abaa9d988ad999968d79c9a9958a87
col10:   b88877a75b8899878849b87a9a7a984b859cbaaca998bca8a6bb6caea89c6876c98b854c62ac7b49
col11:   666799b9689994a58a97bcab6bbbb9a7c3ababa5c8ac594a7868a9d9566d97b69a77b8b9b9795679
col12:   a6879a777778a58aa6ba8799b6a6896bb9baa9d7aa97c6ad8aa5a9ec59b9ba9a77c9a58a97b48989
col13:   a87aa75985685acbc6c7877caea7dbc9a8e9989b989c7ac8a9a9a98b9bcdbf89a8ab5a7988dc95c9
col14:   97696967568a5797687bca7bd5ca6bab8896849879aadb96bbbbaa5c9b98b66aabaaab7b88985636
col15:   4a8875a78879899ca96d8a9b87bacdc98a8babd9be8dd577cd9bccfba8bda8b9b9aad8857b6ba9d6
col16:   7a68c76b997598aa478abb87abac999a9bccb89a486ab98a5d7b997cac89c9adc79648a696a97bd9
col17:   a3987664797778a8979b9abc6c9999975a78a98989b9585a88a7acb8ac9768d78d77989698788ac9
col18:   7a7a8667a8a4a754a9ccbc87999ab99d7a7d3aa75b9b7a87a8aaa59bbab8a49aab939d92ca769656
col19:   359698b9997a7c798a7d79a67dacceabaaa9a9aca86c8c99abb8d8c7d8c78abd7aa657ac97a8c657
col20:   bb57992864646896a68b856b89aa5986abf8d8988868d69d4a7aa7ad8ada7b96589786aa4a87a747
col21:   7a595798ba8a685879887769aaab9cbccd78c8ba9bbcbbd97a79ba8999a68a9cb99b78bb98a78578
col22:   897868a8536bab6b968a9965d5ba7d9ce8989b98a9a7c47d7989adaa78aa8ad89b996a99987c8a87
col23:   b7a77678b868985a77ad965aa5aa955db98bd8c9eb979b9a88686cac78a97998ab956a8cb9989474
col24:   8666a886a67798769a9969a79d7869b69bd9c97ab9c777aba79d8cb679785879aa8da9959748987b
col25:   699669874a7965bdb687a8b6bcbb6bb955979caa79ebabab8aa98aad898788bbf99b759797b96679
col26:   b867b8497998899c67ab7aabbbc8aacebcbaa99dacdb8bdbc96ab8b7abb9faa88d7cd8bc99dbf9b7
col27:   69ba897a9a7b9eb87a69779b6a86eabccccbe9fd9ec9ad8c8cc9dbebbc988bc9bb9acd997ab8b595
col28:   8c6697dcab797b98b8a8dcc8baf9bd8cbacb9a9bf9cad7c9ccab9ea8eddacef889a79b89aebaac97
col29:   978c9d65bdc8baa89c7cbb79acbb9bbca9dbb9dccbaefa9cdaaada8dcda99ccc6d878978a7dab999
col30:   9d9c897685a9a99d77e86a9bb8aabababacbadcddce7cffecd9cccbdabc6ba7abc5fcb77c8dd9b98
col31:   b7b878b9bb7c86c7a6b8ed8bfaca79d9efbf89aadfbbd8effbccaaddacfcecaad9eebcecb89898ae
col32:   a96aa858da7cab89caa399abb9aaac9accc5cc7bbbdb8cefa8cdcd8cdbcbcd8faab9b9cb9a39b537
col33:   695c9ca99addca9aaadbba8caccccbdd9abfaeacdcedbaaabb8acdcfdcdcefcb7ccbca9cbafa96a9
col34:   7b7b999de8caded8d89c9bbbcda69dcbbecda69feebd888cdbced9facdcbd9dcdd89be9cbbaec9aa
col35:   aabb988ab986ddcc7bab9ddbffadbdcaccbfa8baddcedcccaccbdca79fbaccb9daeecba8b9ba9ba9
col36:   7b97a77d89ccceaa6985d7b9eabdcdbbad9bcaeac99a9ccdeebccbbabdbedccc9efcdc997b87999b
col37:   a879ccad7acaac8698adddb9caddeaebbddbadfcedaeff9cdedbfcfedfecee89ccefbfcb999d8888
col38:   9c89aaaa9fdc9dccd7cb8badfdbeedcbdcbdabfc9dfbddbfbabfffc9abcf7ce5dbdccbebbcb5da68
col39:   aa8a7a6a9d9bb9afb9bcd9cbfffcfadcabdaecfdfce9dbcaca9fbbb9cfbbdffbdbe97ab8ccdc9ac9
col40:   988ab559fccbcfbaabda99bbccdfaf99affefa9aebaccfdecbdc8bcefcbdc8de75bccbbeab9ae69d
col41:   8688dbcbbdaec98bbf9dfa9daabbbbefcbebee9dbd9f9eefbc8ecbc4bcedcdbdbc9dbbbfba9aca97
col42:   f69b7ea96baabaacdc7d5aa5f5ba8afbd8bfacdbeccbeacaebabcd9ab98eedcefdce8c9deb9bcdaf
col43:   b9899bbc9cab9bbcfccec9efac9f97cfacabddabceaacccdbddfacffb9f9cc86cc7eccebabcadc97
col44:   989b7a7bb998abca99eb9cb96caafbcdaceebcded9ecbddfbc8c9eabbf6a9cbedcdec79acaadcbb7
col45:   4997868abcc78bbe8bbaadddcaeffe9cbcddafd98ed9cdbbeadaabdbbdecbdb9acecdfb78eaa9c9b
col46:   95b99cac8adac88b79c8997cbdafddccedb77decaddbdfbbadc9a9cb9bcbb8dbbfbecad99d9caed9
col47:   98a9884cdc6af7b8c69bb9ec9bd8fdfbb9896bdfdcdbbaaafcecbbedfcffd8ebbca9edbeccc8acd9
col48:   a6b4a899a86f7ea8b9b86b8bfdde7dcabcacceeb99cdc86cba8cc7cdbaaabdc8fdc5bbc9bc8bbb9b
col49:   75c8afbadf9bba7ccaba9bf9ba48dcab79badddb88bcdb6ffdbaafe9abeb99addabe9e899999ea7b
col50:   9ba9ab96cb58db887caa8a8dab9dc8f7adeabcd99dba9acaabcadab7bddbeeb9c8b79ab9beaa8db8
col51:   577975a784a7548a87a98979ab37b8f9bdd56bb6a797dababd8989b5d899a7795bb888dc5a769a76
ROC:	 BPix_BpI_SEC5_LYR2_LDR9F_MOD1_ROC15
col00:   55743976874576b55864445857369b987a54a7659366687a8998963658a724545887988b715ca346
col01:   555994773bca768a8c698d7bbb77ba6cc678c9ab954c38789aa79b9cca5c469cbaa3a97a77cc8456
col02:   65975749531972a67997967979a65aa9aa8a6585a28a6985ca87873a95c8b88b696aa7bda74a6877
col03:   47177784977b658498676a98f775acaa5ac8796a27799ab88a65acc6b99aa9cb69977556898a8a75
col04:   27895a789794c3547967489786dab77da6a68aa7ab78a58d68a6757995b96969cc6aa7a987796488
col05:   9796a867587b9a8b973897a85bb6969bba977677b6dca7d68897baa5aab997bd89a3787887865958
col06:   2546576a53736a858442746478a8da799a7788799aa8c93869c7c776a7aa8c89b9a75ec569795473
col07:   a79657559a8a7a76a69b898ca7898d5a9979ab9c9ca85e96a969986dc9dac7d7c89aacbab5598ba9
col08:   794796575d8a6a955787b8a899b66967c88b8c97ed75cccdce4c9769e985894a6897b896b8769976
col09:   65486768867aa6276a669647ca95cf7bf8877a97989e4ba8a66b6a6966da66a78969876b78a87767
col10:   c6488645968a94685a5bb685656ac99b95aba97a8cb8b86969bc8a99da97a7c9b4b7a9ba7b9c8747
col11:   54796668848399a7987888995bbda888ab7cbbbc7ba5aa9a89a9cdda8db7b7aaac6b18ac99898a2a
col12:   4596787635476b757999678d8987789667ad8bd8ac8c9da8adad9c9ba887b4796c6baa8379aab894
col13:   635b5a58b579968798577c88aca99aa7a6b7a7cd79cc9ea8c9bc7bbb9b876a88ba9b93c9c6a6678b
col14:   8b9559898ab96ba599657f79a4899a7bcc69c69db869a9b8ab8b7b9a8ab87acdcb68399e7968c695
col15:   268876b359449caa967aaa67b9b79da9abab8adc86b48db7d8b9c898c976bb5bc8ac65677a47a897
col16:   298784797647bc877b7984675955baa777b6a99d959ab7abbaab7c785aa4a5a99a9983858c967574
col17:   48796a7758a8a48b7578689a7aba8ace8c39a8ca97a89b7cbaa68cb5c969aa889889a89a976967b7
col18:   4866757974757a5cb6537a855a77977a589b96f9e9ddac9bcd88979a75a8aa9b37977976b8769157
col19:   a56a8459485788885997aa9976b7d5a5db6bda9789b38a9bbab89ba95cabec7a86b6379b78887b87
col20:   a6c77356a45a588a6a55ca4aa458b79654caac977b85b3b9ab96789c5aba76579767a6a6998a7755
col21:   7888686a4876a875e6accca498a9989a6b8a9c89a8db9b9aba8abc8958c9898aa7797b8bb9688a57
col22:   64663aa668458aa8679a7a88e9bb897ba5bdc9a4a9cd969aaa89a97b6aa6ac899fb9aa78b957aaa8
col23:   49979a8aa946585ac885b5c7cb999baad9a9999a58898878a7a6ba97d79879aab6a7cb788875b917
col24:   687ba86696a6686955857899cc7a7ac969c96c9bab8aa699c85a7487ea8769c897c6bb55c899a783
col25:   68ab977698889c797867996b9bb9e899babc5bd6beac5abaa8a98addc998e8ad8588bad999dcb5a6
col26:   8b98893e9cc9a89a8a9aa9acacaeb9ba85cbcecebeb88ac99b9c7cd9c9ba987ca888a89849a75aa6
col27:   a5895469b9888a8cbaa9a49aaa9dac9cc756b98b9b8deaaada8abcf99a8ba9ae6b9b5ba9b8a8ad99
col28:   79a7889a9ca6bb9c6beae9eacaaca7cc8ccb9eaabbbfab9fbeb8a7bcae6e97a9fcba9abbbbda6997
col29:   7d7ba7a6b7a9aa6d9c6accf4a9a9b9cdeefbfbac9ccccde69eac9c8cbc98cd779aac8babac8798ac
col30:   67ccb98c9f9d5998bc79a8b5aecb86cbad9fbe9fbbca8cbbcce85bcdafcaacca9885aba7ac7d97da
col31:   7caeaca8679a7c76bd89afa89edae7bcfccdfccadaafb8cdadceebaa9dccadb9a9ae7caba6dcaabd
col32:   7a4b77bc77c7b5addeabcd9ccc5dbbecdcccffbbfedce9e7cbbaacbebdd7cab8b7cd7c94dccbc9a6
col33:   4b69b5adbb9d7eba9cbbae8a7bccfb99b99dfbada9cccb8acc98b8cbabbbac9fc8da9cb99c8f7d8b
col34:   a8868a9d58badd8a7accad8ca95bdccca89adcde7da9fe99ccc899aecaabbaa9abcacacbbaae6d98
col35:   4b989bb6b9e99dcab9c9aaacfe9ddddaccfbdc98aa9ecbb89fcefa7b9eb9cdd6d6d9da878dc8c995
col36:   976dbcc9d98fdabd9ba9da9da8baddae88fdad6dc8bb9ebaab7cbcebbcfdcdb9a8bab8da7c772cd4
col37:   cabcabeaaccc6bddb7becac9adbfadbacebeab7bddcbaafbdbcded9abcdb9aaaadbd9a9faa898c5c
col38:   78acb94abcacd98b8d69ebb9ebccebc9decdbacabc8ceed99bcdbed8fdeeb9bdeee8cbb99eac999b
col39:   7c5dc7999768aa6abdbbcafbee9b8cddebfe7bec8aad7bcbb7f9ba9bcbfbdbdd79a8e5ab7a4d8999
col40:   aa997c7ca9ba9bc9bc9aacbffacbe6ddec5cc9fdfdedebcaeedb8e9dcf99e7ab9778ea789a8bb7da
col41:   7c8ad987ceace8acaccb8cdd8acaedfbbbad9d9ae7d9da97bbbdbbdbe878cdab8aabb8bdbcb899db
col42:   af998aac9edb9a8baf8abd9cafe8cfdefcb9babfafecfdce777beebbb89ad8bcecb9becbb8997b76
col43:   7ebadc7aa8abbcddaaccbeadfcdefec99ecfdbe9cbaceccbdadfa99ebaccbcba7deabaaccadcacbc
col44:   9c898cbb9bcbc97f7f99aa9ccbcc9bdcdaeaddbbddeddfdbbecb8bcabebcaa6ce8ceca8acaa7b8c8
col45:   4c86aab9bccba89ecbeeabfbfd6a9eebfddbfeefafd9bf6caa87bfacbdabedcb997adcb79dcdba87
col46:   78c998e989aadf88f8ca79ebcbb8bfafe79decf9f9bc7b89bddcb9b8afaeaab8ba6dbc8b983c7789
col47:   edbd8bcbbbabe9fef7aaddcdeeaadecbfcaabfe9adfaaacebfbdfbe8cfdecb7acfabdb6e8b9ada7c
col48:   5a77aafcb79efa9a8dcc99b9bcc99abafdcadbbb97caca76ea9cceb9ceceabbcebcb9aa6baceab97
col49:   bb9ab7b8b9dada8d8b8adcdbdd9edad97ddadee9eccbbd8bccc9aaedaabacad8da98dbee99c778ba
col50:   9b9b99aecbbbc8abcdc7cbabdcdafcc99be9d7dcdb9bccfd79c9cdddbabccedbcd8ad9dbbd97bba9
col51:   aa7a97a77da978899b9bad8a9cbd67be9c9abb788998ab75678ac8ae89c5cc9adca6976999989c6a
