ROC:     BPix_BpO_SEC1_LYR4_LDR2F_MOD4_ROC0
col00:   B8AAADAA8AAACA9CBCA9BABAACBBBBABADCA98AABAACBA9BABA8C999B977BB9B9ABECBBAABBBDCB9
col01:   CBBECBBBBABBCCBEB9AACDCBCAACACCCECCA9CBCAAAACCDDACBBB9C9BCCCDABCBBBCAB9DABB9C7CC
col02:   A9ABAAEA7B99ACAABBCBEBABDACCDECCEEBCBACCBACDACBADBCBBC999C9BCBC9D9BACCAABDDCABA9
col03:   AAA7AA9BCCCADC8BBACBBEBEDDABDCABBCAADCABDCCCACFCACDDACBCC9DBCCCEBFECECCBCBABCDBC
col04:   ADCBACCABB9ACDEFBAC9DDCCABBCBCAB9CACEFBCC8CDCBAABDCBECBCCDCBFBAADDA9BBBBADEBBBEA
col05:   99BCBABC99AACC9BBCABBCCBBCBBABCACDDACADAC97DBCC9A9CACCCDBBB7BCBADACDCB89C9BBBBCB
col06:   AAABAACBDAB9AAB99BD9B8CDCBBBECACBED89AB9DDDCBBBAD99BB8BDDCBAADEADDCD9CBCECDC9AAC
col07:   988CB9ABBBC7DCAACABB9BCBD9CCCCDA9BBCCBCCDAACBBDBDCBADBABEBCBDEACCCCDBBCBCBBBCD99
col08:   B7AC8A9BCBACCABCBBAACBCCCCACCBA9CBCFDDECADAABCCCABDCBBDAACCB8C9CC9CBCEAA9BBCC9BA
col09:   99DCBACACAACCBCADBACBDCCCCBDCABC8CCEBCBCAADDCBCACDBACBCDBDCCBDABBDCBDCCADDDCBA8C
col10:   9ACABBCCCCCACDE9CABCEACC8BCACBB9B9DCBDDDDB9CEDDBDCEBEDBCCDD9BDCDCCCD9D9CDDCCAACB
col11:   9DA8ABB9BACCDBAADCCDBBCCDDB8DC9CCCBDCDBCCCB9ACEBCCDEADBA9ADCDCA9AABCCBBC8ABBC9BC
col12:   B9BCCBCCAACBBBCDB9B9B9AACDB9B9CDBCD9C99BDBDDDDDCAADAEABA9CDBBABCD9DABA9BDDEFDB89
col13:   A9B7BBCCCAACABEACDBCAADCBBBDBCBDD9CCCBADCEBBDDADAADBBBAAACABCBAB9C9AABADACDDACE9
col14:   A8D98BB7AE7CABE8DBABDDCBD9DCDDDDBBFDBB9BCCCEBABBCEBBBAAABCD9BCDABCA6BCBADDBCCD99
col15:   CACBAAAABA9BBD9ABDCCADBDCBCACCCFDCDDDDDBDBDBCDCACADCCCCFDACADCCBC9BACBACBDBCDCCD
col16:   B99BD9AAA8AAABDBBCCEB9ABDCBACCECABDDDBDDDACDDDEBEBBBAACABD79CBFCCCCACCBDAADBC9CD
col17:   BBABB9C9CBBAD9BB8BACACABAC9BBBDDAD9DDBCAB9ACC9DCCBAACEDBBB99BBCDA9ACABABABDBCBBB
col18:   9BCE9A9DCAABEACCCBDAD9CBDCB9F9BACDDBBBADCB9BBBCDBCDD9EB8CCBBBBBD9BBBCCBBBABADBCB
col19:   B8A99CDACB8BCBBC8B8BCDCBCCDACEDCDADAC9BABCBB9ECCADDDDBEABBBBBCBBABADDCBB9DD9A9BD
col20:   8AA9B99BCDAA99ECABC8B8CBDDBAACEDBBCBBBBBDDAECCECCCAABCABBBBADB99DCABEACACB9BD9AB
col21:   BCADB99BACBA9BACDCECAAADDBDACBABDFCC899ECDABBBBAFBBADC7FCDECCDDB8CCCCAABECBABAC8
col22:   9999B8BABABBB9ADBADBCCDACCBBBDB7DCCDDACDACCDABEACCDDACADEDBBEDC9A9D99ADFBDBBB8E6
col23:   9B999BAB8B9EBCA8DBBC7ADBABB99CBCBBCADDBBDDCCCBCCCABAEBACADFBBDADABDACADBBBCAADB8
col24:   A8BB9ABBBCBBAAB8BCCBABADADEBBBCCBECECABABDCDBCEBACEBCCECBAEDCCCBB9B9CBBBCCAC9AA9
col25:   ABAADBDDADDCB8BCACABCBBCABECCC9DCC7DDCEBCCCAACBBCBDB9BCADDADDBBACEA8BAD9AAABACBA
col26:   AACB8BA9BBDEACBBDCECCBBCADDEABCCBBCDFCFCDCDBDCEABCCCCECC9CCDDCCDDCCBEDDCBCBABBEB
col27:   DCBCB9CABBBBBCDBCDADECBC9DDDDEDCDECEECCBCDD9BBBCBDACFCBDDCCCABCCBDDCDACADBBFCCAC
col28:   ABCDCCABACCB8DCEBDBCDECDDCDDCCDCFECDDCABCBDFCAE7CCECDEFDDCCEBDBBCCDCCDCACEDACC9D
col29:   DA9BBACD8CBCCECACCCACCBDECDBDDCCDBCDECEADADDBEDABCEA6CEEABD9CCDABBACACCBDCECACA9
col30:   CB9ACCDFCBBBDBCCDCEACCCECCDCCECDCEBDCFBDBCFCBCEFEDCCCB9BDCAFCFDCBACBDCBBCDBADECC
col31:   ABBDC9DBCEFDCCCDDBDCEBCCCFBBEB89DCAEEEEEEBCBDCBEDDDDBDEFFDEEBCCEDDDADCC9DDCAABBB
col32:   CACBCCECCBDCCBBBB9CDDEEDDCACBDBDDEB9CBDECECEECFADBBECCDBCDCCBADAACDCB8FCDABAECAB
col33:   BABBCBEEDDEBDB9ACEDDCDEBBDCCDDDDBDECEEDCDDDEBDDCEDBCDD8DCEEADCDAEDBBCCDCC8AEDCDD
col34:   ACCCCCBCDACECDDCEBE9DEEADCDEFBBECEEDECECBCF9DDDCBCCDEBDEDBBDDECBDBBCBDEAEACCCCCA
col35:   C9CBACEDEBADAADCDEABEEFDCDBFCCCDCDEADDDBECCDDCDBDDCBADCADEACFDDFBFDDEDCBEDCACCCC
col36:   DDB9BAD9DCECBDDFDFCECCDCEC6CBEBEDFDEDAEDFBCEFBCBCDDDDFBDEDBDFBBDDCBFFBACCAEBDBAB
col37:   C8DDCDDBDDEBEACFCDECABCCDCEBA9DBBDCEDDFDDEFCCDBCCBECDBBDFCDDDDBBECCECEFBCBCCCBCC
col38:   ABCDAFCEBEDCBDCEDCCDDDCEEFFBCBDDCCCADECCFBCCFCECFFFEEDCDCFDEECFDCEFCD9CDDFCCCCBC
col39:   CCB7ABBFDDBCCDFCDDACDBDDACDDFEECDEDEEDECFDCBCBCFDECDDEAD7ECDEDF9DDEEBDDCCBCDACDD
col40:   ACD9CCCCDCBCCECAFBDECBFDD9FDDEDECEECBDAFE9DCCCDCDECDDFABCEDCBCDDE9DB9CCAC9ABADE9
col41:   BDEDBDCCDDCCDCCDDACDDDBDACFCADBDCCADDBFBDCCCEBDCFC77DCECCCFBFCEFDCDDDEECACDCFCEB
col42:   CCADCEADDBCDEDFDB9ECBEDCACADDDBDCFEDDFEECEDEFBFDDEDCCDACCDCEDEBDABEDCBECCCBACD9A
col43:   ECDDABACDCFBDFCDCCEBAEEECCDCBCDA9AEFDDCCDDDCFECA8DCDBECDBEBEFCAEDABDDDFFACB9CEC9
col44:   CAEFDBC9DCBDEEDCDDCDFECA67EDCCEECDDDBEDDEDEDEDEBDD7C7CFCCFBCCCCDCCCCDECBDDDEBBEC
col45:   DDCCEEBDCCCCBCDEE9FCEECDDDCDCDBE7CEDDCDDDFFCFBDCDFDBEDDCDDEBEAEDDACDBDCBBEDBCEDA
col46:   AEDF9CCDED9DBCECEECDBBDBFCEBDDDBBCBBFDBACDEDCDDEFCCBDD9DCFCDBCBCCDDFCCDCECCEBDCC
col47:   DCCDCCDBCC8CCEBBDCDFEABDECDECEBBEFEEECDDFDEBAAEBDFBEDECFBACCDEDCEDDEABBDDECEFCFB
col48:   DECABCCCECEDACBBDADEECECC6EDDEBDDCFFBADCDEEEDB9EEEEFFDDCCCADCCCCDCBECBDBCACDC8AD
col49:   DBBCBACCCDDFACCCEDEBECDEBFEBFA7CEDDEF8CDDDDDCDCBDCDFCDECBCCD9DCBCCDD8BCBEBCACDED
col50:   CDBDBEBFCEBCBDBDCEECDFFBCDEE8CFDFDEFECDFCCFCBDECDDEBBECBFCEBDBEBBBDEDBCCCCECDBC8
col51:   AB9CAADCAA8ABBECBABEDBCDDCBD97ADDDFDBD8AD9DCBAADABDAACBDCCB8ADDBCDBBADBEE89B9CC7
ROC:     BPix_BpO_SEC1_LYR4_LDR2F_MOD4_ROC1
col00:   5986A772A977895B9B94945A7968367AB699AB976B6A85A4795914B635873A3AA6455866955B56B4
col01:   A5A6896883974691669BBAABB597A9CD7DABC7D9ACC3BA9779D9697387CAADB879688A5948A78A4A
col02:   AAABAC9575E9C6B38AA7BD7ACC9889EB7AA6BA8B16A7797AAC6996366E96958A96CAC38A99788787
col03:   86D8A98A7776D76C8B8A3C9AB6888898BCC9BDC95A49896B65B7C56DED476654A89BBA9379566AA5
col04:   46D986BB3A69979A8BB9CA89AC9AD9CBD79AB7DC9DAAAA6FE8AA97B3588D98659794A58548356B84
col05:   AB8968746BA8A7599A7989A777A79BDC9ACAAD7A7B6C893897EA5687A78A999757C38786A9696881
col06:   BA7B6A8FA5C6C767A76878E9BA6C86C8CCE6885A68877BA9757878D7878588586C5635787A796867
col07:   6DA6BA7895BCBCA77AD98CEACC89ABA89CBAB97CCAACBDA6E94AC98672A9ACB28BA89999A68C998B
col08:   B88A89CE865C6674BA6AC68CECBBBBAB6F8E969C8BA9B7E79F69A9B757A87989497465B2BA739294
col09:   8AB8CC69D8AAB46B5C588DA8849CA6EBDAAB93699BDD69BB8D87CE66B66945424B8AE65389849984
col10:   95589797AA9C9FB99AEA8ABAAABB8AB96C8659A887AA8A688BB8778D88A9958C5E899AA4456A4613
col11:   6A69896B68B6B73C8CB74DD5AD9B95CB9AC669BB989B9AB75928C7C7B78887A6B95557A5788677AA
col12:   6AC5BE7B6764C8B58587B7798A8BC9ACBFCA7681DA866946966BCA8ABBD7A54656BA7A97A6647B99
col13:   4497C6878C8D699BF6AA88EC995D58ABA98A8F6B9D8E9C99789ACA95B59BA7A989555847C7B89364
col14:   CA9888C9AC9AB6C93BAAACE7CB8BB8BB9DCCC9DAAE49ECC8A9AC7799368A78A44A388636837568A6
col15:   6586359C9B9676CD79A8A86F989D5EDC3AA978EAAB9899BDBA6D989665898787699BA36696897685
col16:   96989C9999ACB3B7B9ADB68DABE88BBCD8D676ADBBAB9AEB679A78AC9A7893897A9A7496348BB86B
col17:   B3274528968AC9D56A88A98BCF7DAC365B2B597D8889684DC69A795579B58798597C999663565B85
col18:   8A498368D9AB788A7B8B786D79C8A7489688A8B96CDCA9D9C9D9BBAB78999B7A68A8569C7755B587
col19:   7678BA87BB9AB88628BF7868587A8899879B6CAACDDB7C99AA99985A75B56D69784753A8678A7549
col20:   9546BA878D7FEA78BCF99DDDAA9AAAFB9986BBBC8978BA79A7B789A8ABB667B99487AA9BB6248A48
col21:   684AC538588867AB99BAAAA9CCBCB77AD8C9A8A99B85B5C9BDB3BE84B9B76B5D77976BA4C3795876
col22:   86A9BA66CA898A696CFA9AE7BDA9E89CADEAAA88ABE5D896BBBA887978879367A796877B79697989
col23:   596795B3C95598897866CB8A697AAB899BACDBA889A7A75BB9D997598586A969959A78B7B8ADB674
col24:   359DC46296ACE5E959C6BCBAF9968DBA8C859EBFBB9DA6293B6C77779D9BD8B7C95767A368565B72
col25:   7675A53998BC6F959A9D698697D4C97CDD89BDC87BB8AB895DE88E8735AAAB778689798994659797
col26:   B578ABA88A7B9AACC9BACEADDB7AABABE9BCFFCE9BBBFADBBECCCA9CBC9A7A57AD739888CEC6B986
col27:   9898878B57AAE6CBA9CBCBFDCAAAEBBBCAAC886B8BEB9D96C9C69A9DBA7C8D6796B89889D88AEBAA
col28:   9877ADA9BEC3E9A8CB8BCEC9CCBA6BDA9D8A6CC8DAAEC9AAA9FAEAACC899AA8DB798DCA8997B7FA8
col29:   69CAAC9ACC97B8E59FDC8CBAA959D7DBCEEEBACCCBA8CBDD5B8B7FCCEABC75BEABAD986AABBA5B96
col30:   576F9CBA9D88C9D69AB7AA7AB98AA9FC9FECDDB8A97DDBFD9999BAC9758A6C9BAB8BEAA899889444
col31:   CB9DA98BFEBBCAFCDA97BAD9CBACBBFDBFDB8ADFDEDDBACC8EF9C99CBB8DA9D7EA67BCCCAACB7969
col32:   7597A668BBCBE7BECF97FA9D6FD9C8AFCCAFADEFBDDFAAC8FBFBBDACCFBACAA6B9BBAB899BAC8899
col33:   6A7689CBCCB9DD77CEBCCABDDCABBDACAABADFD9ABA8A79A8BFADBC6A899A9B89DEE89ABC9ABAB55
col34:   CA6786CCA989B7AC8AEE4FBAEBCFEACB8ABDBDEED7EBEB7BBBDEB9FED9E7A8B75CBCFF9B8B689979
col35:   A99AA77B6EDCCBFB8DC99DE4BECCD6BCEF8BBAADF7DEEA89BBBDDBECBCEBB8BDB87ADAB9966BCBA7
col36:   98ABC57AC78AADFAFCCBFC9FCABDBDAF98C9CBEAE7EBBECCB8FBADC6D6BAB898989CAAEB7A87A7BC
col37:   585969EBAAA798FF99BFC7DDBA9D9ECEC9CCCD8DADDCCBCEE9D9FCB9D76D9BC9C9B9ACC9687BA5AA
col38:   759A9ADA8ECE7BCCCBB9AAAFCDCC9FCCACDFCDFBCBDBADAB9ACA9CBCFB9CADD9DECCD99DCBDBDBAB
col39:   88549BC6CDD6F9E98D788BBFAD9AA6BCAECD9DFCCCDCDFDCBAC9BCBDD9DDB8BA94D79DB8AB7A9B78
col40:   9BC8A6CBB9CCCC5AFACACBFEDCDFFBCECEEBFDDDFCCDFB7FCBEABADFAEBBED99799BCCEB88BA9D9C
col41:   C92BAA6BCA9E6AAD9ECEBEFDEACBCCBABCFAF8ECFBEB9EBAD98BAC9F9ACCC89E9BEEDACAB9EA6BA9
col42:   7A6AA7A79ACE77E9BCACEEDDBAC9ADD9DEDBDFABCA7BBCDCDACBEADBBBB989CADCDAABFAD7CC9869
col43:   6795EBBCB8DFA8B98BBECCBBDBEACB9CDEFFABCDBCEBDABEBBCBBAE7BCE8BC77CDDFA9D9CCA7A6BC
col44:   A5999B8A88A5ABEDABBA8ABF9EABD9EDEFEBFE9EFC79BBEFF79BC7EFD66EFAA7CC9CBAF8AECCADA4
col45:   9979AAAE8ACACBCBBE888AA9DECEACDABACC98CFFEDDBAAEAC8DEDDAAEFB99CBC7ECA7BACCEB6ED6
col46:   F559AAEFB9A995B7899BDA9997AA7A9CCD8BB7ACA9FCBEBCCAF8ABC9CECB8BAF9BDA8BBCA9FB9ABC
col47:   B7CAAB7CC4BACB5EC7F7BD8DDA95FEABAEDFADDDCBEEEBAFAFCECB9D6D64BDBBDBCF6ABBEADBCBE9
col48:   B9896B99979D989FC9FEAB9ED7CADCBCBC9DE9FCCC8FE98D9FFAADBDABCABBDA95ED8CBA7BCCDCBA
col49:   79A9DBEB99ADB5DCCEA59DDAFEEC76DCEDBCDCECDACFAC5ECD8C6BEBDB9BDE99EDC9AF99CFCFCBAA
col50:   B9989AAE46F3B89B8CC89FBADB5BDBCECECFC9CBFABCABDCB9E99ABF9B9BFCAE6C89ACACBA5CA9AA
col51:   979BA889AB9967E774AA6DD6E8BC8DAABB9CCC89BEF9DCBB9AB7C9AC8577D967DA667989CB7A77B8
ROC:     BPix_BpO_SEC1_LYR4_LDR2F_MOD4_ROC2
col00:   31768B899869D766978598ABCA88BCF988386A67AA9684A96A57A878979486B8B75999396B7A67D2
col01:   8956978A8999847495BCFAC96C89889AC9B85778C6697BADAA99CA6A9BDC7B8C99B8A657A8DEA276
col02:   797886995889556899CBB897C8D9778AA98BD9C88BAB889AE579B8B975A99DAC969D9957BDB798AA
col03:   BDC649A69A9999EAA7B94E98CC997B698B553A694DCC9CAADCD78A6BD994EA98ABB6F8DCBAAC6A79
col04:   457768688BA4556ABABADAFC5A9A6FA86B79A7D99889B8DE5B6A3AAC579BAA7A47BECEA5A97ABDD6
col05:   69A5BAA85A87AA58565AA7E7A6BC9A987B8AE7ABBA96CCDDB6C9A8B887B7CD7A7CCB5E67D88A868A
col06:   5985A6DBBD7BA7B5EABC8A9C8B99AA8B99BAC6DB5CA979C75B8C8AADCE789B997E9BAE6ABB756A99
col07:   A559C638977DAEAA7567C4CAA97C9CCC9BC78CBC689FC8BB88BBAF69C697B6DCA79CF9E786AC7A86
col08:   6577849A79A874999B785979AA98CB8BAABBBC7A86A6BB9B6BB48B58BA9CB88B85C4B3AC87B769BA
col09:   88B8BA3AC69D89A7D8A8AA8E7A89948CBB8CA9F9C75BC9AAB7B8B976997CB95CCDC8AA8D9879CADC
col10:   97C7A3859966ABA8C879D66BC899CE8BA8A69A78789D8FBB9B79F999BAB6D9889B7C789BCA57AC79
col11:   55366789C4CB556978CFBBA796767956856B6989C79B89A89B9AAEC98C9998BA97F6889CB89769C9
col12:   5B9AA998688C67895B74D99754BBC697CACCA8BEC99688ACEA98A798C898A9BAA8B8C7DB898BAA7D
col13:   363994888979B95A665B798B8DD7AB984B6A8CB88C376B6A8E9C6799A58F789CA9FDA98879AB4C96
col14:   6AA6D468B857A77A897496EB45BBA97B9969A99C99BE9ABB9BCADA69C6979C96757D8427966876BB
col15:   8634755BBABAB8947C698ABB7851A8DAEB7A8ADCAA4B8BDA9AA9AE97848DA96A77D6556B9D85996A
col16:   7BA85A8CA8779A78BBAAA7BCAA9699CA7B8B9CD8AAD7DAB9AC8C77BA7A98CA635C873AEACBCAAAAC
col17:   6993766AB58678A65559D9E5B987A8AC9999CB854A8B99588BA9AA9CE655B69B7896A8B79A69A752
col18:   549B818585768768C779938B963C87FD868D6D898CABB6E8B9857677E9798EAABA43B6BBBB9AA5B6
col19:   86A589BA78CCA799D9A587599AD78997BBAA96778699BA17BF79ABBA989ABBAAA9BCCAC8A8998988
col20:   74C56A45B5A7975A676AC7B4685BA7CBCDCB7E9ABBC899DB8DA98596C7BA5EE68384BC84544AAB78
col21:   46A66CCBA88689CC875978A5BB597787668A6A79AA5B9D7CCDBB799CAB8A8A8879DB47AA7948598A
col22:   53D55685A8B9A687B6AAA88A9D98999988BB878BCAAAAA98498C9768554B9A998966E9894B6986D6
col23:   179A95348774ADD5B694B97BC9B87B9C77A7A6A7CBA9599A6DB78BC578579BA6A9AA8769BCA258A8
col24:   2969795E6A8BA78B693A89D958B7AD9A798B8A36A889997B989BBAD397C8888979969AC98A2ABC39
col25:   3727679865878B89789A999BA99867B89A787BA7889ACA776DB999B9BA96BE89D557D4D7B85A2C88
col26:   A9AD896AB8C4BB6A8BD77BB67ABDA899CDA88A8C9F7AD8AD7A4ADABAB6DC7C8CCF8BBC9959CB9676
col27:   6BDABBDA87BB485769E97C57BADEBA988AA88A98AACCBE9998C599D799C8A88B65CBADC6988AFB27
col28:   9ABAE5975A78CA998A6A995B9A8D8789D55AB8CF9ACCCDE8C6C96EC9B9AD9998BCD9BBAB8BCBABC4
col29:   88A8EA68E88CC8C9AEBBB9CDEB9BCCABCFAEAA8869BABBFCFDFFFFCB95D59DBD8D7B598BDCAB8B9A
col30:   4BB788CA8D6DB784BB87C5B76E6C6B8BDB88BC96A6BD5DABDDBCDCBD7AA68CF67ADABDCDB7D79DBA
col31:   A8CAAB9AA6C7D7AAAA8AAB6B9A8CF897DB9C9B7C8B8EADFDCACDF7BBD5C8BDDDA768EAEDAEBE7CB6
col32:   89ACAE978A9B38AE87B6CAABEBBC8DEB8CCCD9CBBDC7AFDE9CABBF8BD8DB9CD68C567CAA99A8EAB3
col33:   5B8AAC8FCBB997EE6DAAAFBDD9CEDEBB8D3BCECC7EC8BABC7F9FED6ACAA8ADF8CCC65C87A9DDB7CD
col34:   7A92A9C7C9C6AF9998F5CB9CC9ACAAECC8CF9DBAC9DDCCEFD9FABF8B8C8D9A7CBBA8BABDB7886AB7
col35:   AB8573C8BB89D7B79CE7B65A7B9D9CC5E5BCCC8ABBBCBCB7DDAA9FECA9CFF98ACABBD9FBF8CC9A8C
col36:   84398866998C8AA999AA9C7ADCC8F9CBA98ACA99999A9BCCDE6BBDAF9B99CDFB9CEBFDBCA78F89BC
col37:   BEDC78D59C8A6DABBACA8E879FE9BEFACFF9BBBDF7ABA6BAD9EABDBBCA8C6EDD9BBD99BAFBD7DCE9
col38:   7DACEBBCC8BB6A95CCCA9AC7BA99F8CCAEB9FE9CAACFBFA8BBFBC6BCA6DA9876AB86A9DEBFCE99AE
col39:   797A5AC9C89D8A9FBBD8A989CEDB6EB9CFBCAAAFD9E9A8ABFDEECAC8797A6877D88699CCFBC9BCDB
col40:   6899BAD9CAADA88FBBBBA7ACEE9CEC8BC8BCBBAAF98DE87BB9CCDB94CC36A4ADAEACC8D79BDBD5AB
col41:   C9A448A9BBACF8D8CDBB9BA68A9CCCB9A9EDC9ACCEDCFAEE9CB6EDB9ADBA8CBBC4AABC8B9CDDBABA
col42:   E599AAA9989BBBAAAAAB89B8CF9BCB9F7B7CC9DEDEBECDDCEC779FD68F9BED6ABBC798B7867FDAA6
col43:   985A7798D7EBCCDCCBDCC97BFD6E6D858EAE99DBC7BD9CFABCDFD7A7FBEDA9D9B9BCCBFCABEA8CCB
col44:   ADA8C6DC67A9BDC889BBDAC865FACCDBCCB9ECCC8BBCDFF78D99BBA9A688A8B9D8CB78ACD98ACBD8
col45:   A987A96CF83BC7ADAACED6E7BDBBC69ACCCBBBBC7E8AACCFADB98D8ACED7D8BA8AB77EE89ADE9BA7
col46:   C67C8CDC4A99F8898A78AFBABCBECC8AA9C98AA9BBEFCBBBDA6BCDDAE9CAA89A7D789A9BFF69B9BB
col47:   9A6BB9A6ABAB8A7DEB79CBCA88CFBBADA96B6C9E6D9B99BFAD889B699CD89779EA7BA888CCD9AAB8
col48:   6A5676DE778A6878B8BC8496ADA8BA99CFA7B998EAFDB78C7BBCAAAADE9AEAB7B9AC9CDA678B6BBB
col49:   C73B98CC9C77D995CFBB97989ABECE89BB9BCAEA89AA6DAAA9BCBED86C9AAAD93DCDB8ED9ECACAB6
col50:   99D8A89FAA7A5FCAC68BB89BAD98FE4EACBCB69BBCDEDF7DF7EE8D7BAA89EF69AD969ABA8C57B988
col51:   9698738383A6A98335B599A8AAAAE98685BC8DA5AF7688AA7A6759AA4A8A9BAA8A9B94ABB78C7B85
ROC:     BPix_BpO_SEC1_LYR4_LDR2F_MOD4_ROC3
col00:   54211768597944883E68565AAA863CB4AA576369636347A5ADA452476768AAA9628999853A688945
col01:   9469845894AC37AB8B98D995699A8BD86B86DA5AE376A5885667767791798D696796598A797B8995
col02:   848799468A7997889A9457668CB988D9978AD9DAB3686858D9A4A62BCCAB8A7857C667997AB89777
col03:   579C4856996AA98C4BAB67683A7B9A7777C88C75898789A9F65A749B88C966778A853B9A766A9577
col04:   61568AA8C456769984A88EB989DA685DA8B6AB9D986CAA5B5A68BBAB96A4DA6856A387BB54968756
col05:   75455876877758DAA789AA9BA44B697A5CACC9A8A8BA6B6A885A65D66759D864599C8CDA85A85349
col06:   64733558677655BB3B5257EB8595BBBBA8975BCA7663E7A9898749B4A6766997898A879786548865
col07:   53964369A87689AA988995478897A7B9BC8A5BC79BA8A7D979AB99D4C8876D98DC7477C97D468BA9
col08:   54553A5A8568765C7C9DCCB7AB6AA9C89E67C7CC857876A966799A8A5668A9CD55779B85AB784948
col09:   697B8716A877A9799A9A977A5ADB78B8CABA69AB89A6B7CAC8795ABD595A68A6B767799964D5C665
col10:   383945A677746A3A58A4A56AD7CB9969B68889BC8B99C776489DA8829E9C9B7898AB9ABC958A3C85
col11:   A7676966986969B4659679DCC95949AD998CBB9C78C79E8996BA467795BB84579D467A78A667B7B9
col12:   A89B6593AB68488AB6A5B6C8AEAAFA6C99C8B686B8B781D79B5AB8AA85A96B48B94964A25496B783
col13:   856667B6855497A7546796C9CAA93A8887E7579CFA6974998AC76B93BA9C899AA6B46D8A9356C975
col14:   684A8778958466C9867A6D6836B788AC9979FC989B8B68B87AD58C99C9B7675D9788855A4CA88A66
col15:   4746E9887AB6789A6699B8C6C69AD389CB6A7AB685BB965A37A39997788947A85A686B76777DB7C7
col16:   3C485A45D67585856678845A9A7BC6C9BC688B9D78A79B9C8A8C99A9CA599A9B4998A9C877A77576
col17:   5A767878558943BDA886864C8BDC4B669AA38976656BC779AB2778598B94ADAA9539A9789A67B567
col18:   484365393A968883A74AE75786A2C96AA768A9A6B989C77ABA5965AA9A9999769579539797876BCA
col19:   B575829587746A52BDE6A39587B778989A49B677C7AEB78DD697988B8C79AABAC17BB863A83778A6
col20:   A7659132988854A65679DA7A87A95DB5B84AD8B8B898598CA9B59A6B586AB8B69B369D878559D46C
col21:   337794849697C5B36A8787A4DC96A5A57874CBF67B6AA9785A4A5566A69B98BC86C8559A7CB73AD6
col22:   855578597A66477836358449AA8CADB8A9CBAB77CAB7D9699AFAA57A996BD6A89976D878B569A8A2
col23:   6AA8523699755879696769C77C648C68173F8B998A8A97868AAB69486B78BB871976578AB8678742
col24:   7A369655786957668AACE98D975A89AE98A79EC9D889DC9BB59E3BBC86C99477AB88A68A94578597
col25:   858A87B536D786EAA66CD88FBB6DB8D777977BBB9AC8AC8DC9AB76A9C76FAA5A8CB4A9BBCC8BA669
col26:   7A48B9CA88989D79CA7799E9C67FC9DFDAE8AECAEAFBCCB8C58CAC879A777CC99BAA8B79FAB898E7
col27:   78A9A9866889A9EE69488A988DB96FAAAAEDE87A9EC8AC9DEACA988A396A987B96A9768C94787BC7
col28:   CA95999ACE67AC85D89B9BB9CCB8B8A9DA9A7DA9ABB9F689B8A7BBB87A6BCBAAADDBBDA8A979A9BB
col29:   4895A8BA9AD4D7AA4C7ECCB6A78A6FEB7ACCBB99AEADBDDCBC8CC888BB96B99D8CCE5C9DBAADAB8A
col30:   378A396D85C768AB7A7AA6C777CCBB8BF99EE7CB56BEBD98B7D99A9CABC7ACF6AB67E88696A7EEBE
col31:   46656989786A577BBCA7C49E8CA89A9C9CBAC8ABABECE9B9CDD9BD3999BDBD8D79CA9DEC4AA879A7
col32:   59477BDA88788BB3A6B6FDCBC88BA8DFA9C9BD9B9CCBB9EDEDC9CFEBACEAF9ABEDCDCA8ED7CCE7CD
col33:   966699C75D676A8A5EEA8ADF7EA7CDFCFEBBAECCBDA95CDCAC999B9CBBCC9BBC765E998B8DDA7D74
col34:   99C9988A6FEC89BAACECC87ABEDDC7EF7C9BEA7EC99BC9DD8ADB94C9DBACAEC9CCFACFAD8ABBBDB5
col35:   5A9DAD868AADA5ACAC9A77BAD9ECEA9A9FBEBDAD9CAF7ABAAA8BA8D9EAEAC9ABDA7AC8CC8B9AA4BB
col36:   B548B68977B694C89BDB9DF8998ECABCEEFCDBDCCADCCB7C8C9ABDA968FBBCC5D8D7B6BD5DCD97CD
col37:   795AB5AA9DDD5BA9DB87C9DF8E8CAFDAADA588BB7BCBA99F8A9BDBB9CCABBFC98CBFAEC99CA8FA8C
col38:   876B98B8A9BA6A9EECCAEA9CCEEFEFCCFA9AB9BCFEA9ACB7ACDDF9B98BABCCBAE8F85AEFCBDF95B6
col39:   A6286589AABBA9996C9AADBCDC6D9CABAD9EDB8CCBBF9FEA87FDABBDAF9ABBB7BB99AAA979796BCB
col40:   574399FF8BC7C8E998AD9CFDBFFFBCCDF9B898DEF9FBAEFA7DEAEB7CADECCDADA99AC8CDACB95CA9
col41:   53A889997798FDABCFCEBAAEDDF9A888D799CDC8BC8CBC9FCFCBCACFCD5C8BBA9CABCBAE8BFAAAA9
col42:   B98B8897DF78A8ABC9A799EAF7CCEFDBBE7ED9C9F8ABCFAADC99CDDDDCCBCEADC6FBBADBA987FCCC
col43:   BC769BBABA9BB8ABACC98CCB6CDDEBCCDDEEEECBEAF7AFD6FDDEDFBBDC6BFDF9CCDECEAD6CCDF878
col44:   AA6A9BA7C7C99DA98AB85C9DEBDBABDADAEBBABBFACBBECED78CCDCA7BAABFBCAA8AA8CC9D88CCAA
col45:   8574C787CBBA95C7CAAC9CFDC8DCAEDCFDA8F9DBEEFBDB979BA7BDE9BB7D8BACD7BBCDA9BB9C9ACA
col46:   7949B899C7BCB8B77D8BA888ACDCB9F8D9ECBCBE99BBD988FCCCCCFDBCDC8ED9DDAAFDBBBFAEA89F
col47:   769782D49AC898BE668AB8FCCAA8C8BCABCDDAD7C8BFC9BFDDBDCCDFB99BAABEB88FDEDDEBDAABDA
col48:   6BA7A8AAA9CAACAB6C9BEFBDBCDBCFBBCDFCDADCEEDDAECC8E9EBC88BDCBC6CC9BB9CD899EADFAB8
col49:   7A9AD79C779AAC5BBDDCC7ADDADCFBB89F7BCABFCFFDCDEC8DAEABBAACEAECA8EAA78ABBACAEDA8B
col50:   677999F9B9AF9877CCAACCD7BDFCEADF9CFDEFCDFBF9DABAEB99AAEEACFDE7ABA5BBF7CC8DEBEBBD
col51:   47769B7876687ACE7BB6D869A5A9B6AFE68419DAEA5E96AFA496BBB839B7C8896558949BA98BA8B2
ROC:     BPix_BpO_SEC1_LYR4_LDR2F_MOD4_ROC4
col00:   76647A6A7683AC876868AAC849897BC978BA3CAAAAFAE99CEAB9EBCA9AC6AA77D7A499CCB98ABA58
col01:   7956858AB9D86BBA6D9587AC7CBBDCBEE9ECA999EBEABFC9CDBFAE7B99A95BE8798FBE9CD6DDA8BA
col02:   763959C37B67835969CC988ABCDDDBAB98CBF96CA7D86FACA7B6D9DBDADC76D9EDD67A9ABDAAAF9A
col03:   4551886947973B66A7ACA9CCB7FEAB8CA8ABBA9B8DAFBDB8D8AD9D77BCABCB9C7A86EAC97C9E8B79
col04:   44A7B2597B6BA89A99696DB5CEAFA9A88CDDA9CC989DA7FADB9EDC9958B787C8CBEACDF79B3AEBB9
col05:   B7847B68BBA8DDB9EC98B996CB969EB8CE9ADDDD7CCD98BBB5B98B9B88B7EBDEC9A987DBACCA7AB6
col06:   48A6C66AA88C999B879B9A69D88BCFE77CCDCBFDA9BAAEDBC9B86AD8AE7B9CEBDBACC8FEA649B878
col07:   44A83A448655DD376BBA8C7AAAAAABAD66DBCCA8FCBA7AA89A77ACE886A9999777AEA6D4AAABBF5A
col08:   442259D3876DC8C7997B8CBC9BC9DF99DCDBB8FA56C8CBBACCBBB8CA96A7BB897E9CBDEFA9C9C999
col09:   A4869769B6A78998BFDCD7AD998AA8BCB8FADD7DCCDACCC8DDDAD6ABDA9799ABBEAAB857EC99A998
col10:   AC27A46BBA9896CC3BDB9ABCBA7C9E7F9FA8B8BCED9BAFA9BBBD6BC6CCB97CBBEC786AABE7879BC8
col11:   74AA79854A96976687A4AA89AA97C8DEB7DDA889849DDB6CA89B887CA97C9ADBA8B97EB8BA97A699
col12:   64867A6B4676A8A3A98B7BACDEA99CC9D9B9CA8CC5D4959C797AA89EFDCAC7C99DED6B9F7B9C9B85
col13:   739997A8AAA9A76A878D8CACA7AA9BCBCBDCCB669998D7AAABDB67469A8BB9A98CCBB9C5E896B986
col14:   794164C677A987AAB667A8987CD6C99A5EBBBD8C3D96B5ABA56AEEA8CD9989ACAC975B9A5A869779
col15:   5672878A8899B7D57A796696C85CACA69D9D9AA89BF76BC9CDE9C8BAEB9C9BD9AC99ABADABB8C9BB
col16:   7792754575A86487B56C6AD7ADA9AC5AEBAAFA796BDAECAC7ADB56CBCAC8BAAAAD78B75B77A7B8C9
col17:   9673659751AA9AC5A7C5BBA57C957DAADDA97C6CADC4C9B699A9CA7AA8BA7B4AAD8A9A98B98A9779
col18:   585378BAA873A995A4AA8897A96C687C92A5BB8CCAC6B7AA9499AC976BBB99C99AD69A99C9DBAB77
col19:   C93978769949ACA777667AF65FAE763A8CCAC9F9D9698A899D98C897B9F7676BCC99669C89ADA68C
col20:   7488A917375A68778AD5BD9E98868ABD895989779B6A6AA8999B79BDA9CAB8ECB6946B99C56CAA79
col21:   5965A8958897C82886A56A88B67FC9A8BA9B87AAC1BBD97E8CB96A69AD9ADEB989CA59989BABC8B6
col22:   3AB8757D786966899273A95A889DC76A78955C8B8B9BC8AAAB7B886CA7BB67CAC7C878A556B6D9AA
col23:   544644C6755989BD8877979585567F59AB87CA45BA997D99EAB8B7B96AB7C8AA9E8F8C4AC9C9B878
col24:   539434979965986D78789B787A7BDC68A9A7788B96A9A9A86C6A7ACA7B9A67C577E8D977BBAD74B6
col25:   8569588A6366659A69BC69B87A8CBAC978DBD4BCA7ACD59D899A7776587E6B884DD889B8DBC7ABAA
col26:   87687878A4989869B997D97BCC9A97A66CBCBBC7ADCCBAB7D9697BCBAAEB9BBCFB96B7A9BA89B886
col27:   8BC919A5A93876647978BD9999BCAF9CBA77BB8EBB9F9CFB9AAE7AC78EBBC9D787D598ADCA9ACBDB
col28:   9697997A78E765A87999D88ABC9AFED9CDA8F78C5C84CBDAC5AACADABDC8AA9FBDCB39A888BBDC9C
col29:   5B1764D5C7B78575BC7A9AABFBAC96678DA9B79C8D499AA98BB4AFDBAEDAAA8B7EA98E9CDE8DACB6
col30:   65766A7A65A99A777A8C4B969EAA5A8CBC7D9E8BCA78EEE9D5DDEEBB9DA89AC99B7BACC8666DBDB9
col31:   A8694958AAABCAD8D6ACAC9AA9FCEEA664A8C887F9B7BACBBBEE89E8868FBCBBB9BA8CD9B797AADA
col32:   AB699677E9565AB8AD78B7789BB598B86C5A888A8D7CCD99CCABFCBE99ADEA9EB6C88CEC9A96D5A6
col33:   C87699BCB79799897694DB8CC9DCBA7CFF9AD98ACAAA5FD99B9B99BDB8BCCEB8B6BC9CADBDFD97C6
col34:   3748588B8AAD89D98C6AB87A95CA9A98AEBB8DDBAAABDCCBADBBF87C99DCA9CAFC5AECB8967BBBF5
col35:   9989B46A784AB66B97A9FCDDDD89D8DD9DBAB7C69C9C5BCDCDCADBDEAEC8B78AAFDEB5B99CAA8B9C
col36:   76B95A7DBA83EC8B89AFC8E98798BB8A9A86FCECBAA8CF89FAD65B8BC8D8CACD5ADA8EAC4998AB9D
col37:   5569CA9598AA9B888BDDA989DE85DABAB7F999A9CCFABACCACBBC9C399EDAC988BD9BD9F7A7647FF
col38:   9B367B98B8779776D7CE6ABB7CDB9FCAECCCE88CABDCBD896C6F9A9DEE8CF5B7DBDDCADBCBF7A8BB
col39:   67974CA47AD7BAA89A4CAD7FADCCFBA99BBCA8AABC8BCDCCC9789AABD9ABFCAB7CBA7FCDE8D88D9B
col40:   BA785674965887BC99CBF97BB9C6CECB9BE88A98BDBCCBF9FC8BCBDEFCC778AD998BBDCBAB68A97A
col41:   8747B8B8A87C7BCA8CABABAAD7EAACBFA8CEC9B7EAC9EAD9CACADB597DC788CCBCCCDBA887968EA9
col42:   79899B66A578997EB9B9AC7ADEBE6ABBDB87897BA7E868BBEBCAAF57EBAAABDE698CAB9DABB8DC79
col43:   7C8AD6B9BF8B7957939897E9F7C8FDEBBBAADBA9A8BEDBABBB995CCA5CB8BD39AACBAD989A8D99CA
col44:   977869B5A659A8C998EE8B977868DCBCAAA4B28BC8D9DAA89EDAD7FDBA699C8AABB9A9EB799C8ACA
col45:   58AA8787CAB66ABAA89B7AC67EFCABA7C9ABEA94CCEC8E7D4ECB9D96A9B84AA87BA98B7AFA99ACBC
col46:   A7FE88857B8BB8A8D8DB7A99ADA999DC8CCB7AEAABACADCD8BFBDAC6797CC79FA69AB98AA99A96B7
col47:   4BA9A879BB95688999C993CBBBEACBA89C9DA96B7AB7BDC9BABB8B6CBDC9899979DB69BE6D7BAF9B
col48:   7B778938B8BEC97A679A5EC7C9CAAE597DB78A6B9B9EEBBABF7999C9D6A988FBCA959BCA7B9AACDA
col49:   AAB7BA6AD6789998D7E798CCAA9BA9D8ACA7DB777BB9B6BCECE9C996A4CAD89ACCB79BBCD4CCA9D8
col50:   69A8DB58989AAACAAB79A97BABA889BBC98D927CAAF96EED8D9BF6788BACC6CD99C99AA7699BAD86
col51:   8873A575869A654679BA389A7E88647A958AAABB749A8B679A77C8BBA3675BA88549798D8976BD97
ROC:     BPix_BpO_SEC1_LYR4_LDR2F_MOD4_ROC5
col00:   8243685736664786647539336459A699389A666547C565664756495434746759656826851366AAA6
col01:   85A6765B8695967795898796868AB6967996AA87863B78B78878A97977888986892664B685B79753
col02:   3564764B688A9C5A8C775A6A5AB8A7A7867885956574768447666345789797674935999897766673
col03:   865779985987755B78578965683758B8B658775CD88748BA67696BAB976749B64CAC799793657886
col04:   57576786438895967599A7586A6958977D56A77A99778A9785AA57658A5767697488979B587567C6
col05:   A65867748669928759976BD9B4948B78679BB875D999B8479B76A5675B6478767BA8995B783A6664
col06:   5B99678B764785749647B566A969D6AA88A6B6A799769BB9655788A5876974454999958766475898
col07:   3B58975357C69986B99A987AA7848799989489587C676C8A4BCB8A747AC9BA49B877956644884699
col08:   659963A677357764886868A88968879782569BB8A97989885A859686948A78758565858488469767
col09:   799978799A68598A69B87958BA87A9DBA78B77899A9698787C9699797678798899A785899887B787
col10:   7A765993677686877779B678CAA999A7A8AB6A878B99877685B9868C627655877746487998628878
col11:   566A8766B78746766A8898AB796D96C89559A7596779779D68749878B48768A89A8569567A78A587
col12:   479687B47527847787597596889767C77697994A669B97B8A787878568A9995688897488A6985A39
col13:   6B7795977958A8A7B797C79BABD999A6CA99DA9878A999A66A8A98B67875A89955A879A7A98A5686
col14:   43594B447867755885566665A7748B79ADA993C8767867CB699B5B89A8B8498AB99896BA64787874
col15:   57969A8779A979848A9699B7A8ABA98A477699BAC59A9974C5A8B8B558AA87987766589968868485
col16:   67A58A47A8867938AABA5766A67CA9488A7B889A8B94A9C989A98CB97655A888A8E7A786B6A67768
col17:   745A6788885BBB7799889A9BA779A8986E76A87D9988A8A84AB86C88694D378C9868746759795696
col18:   B887A649ABA795AAB779787787879A94A9A898A99BBC968AC85C787C59A9A89778676A8686A96666
col19:   5698A9958847877984A8B89968C8AA7888578A877BBB5A779BBA6A87CBAB5B9A76878986879C6786
col20:   6469858637987689787A9CA3A645A78A69786387C67798AA73A6B67A7B6976A97B66797B63457886
col21:   375364749A58A7A964BA8778BB5987B76897DA87A988B5668B994988DCC97889A67759B8A79C76CA
col22:   8797863B88B8889878B88876A9BAD9988B78C7A9AB886C58B9C5998599872C8878756A8798979977
col23:   A8667A7449977C6B66B899A9A5689B9A4DCAA88CB9BBAA78A98A95989A7AB8DD7879AA564B745898
col24:   6777A639C9765A886A87497CAAB898A4AA8A9BAB786A59A6A86BE7977B987677975784BC789A8A75
col25:   9A379BA78A9AA56778797AB7ABB847AA789797D98C86EC69A886A98687687388A798B3C9A9CA7959
col26:   B68BB779DA5859B985AB9A99AABBCA9D89BACAA6B9BA97A9AAC77769B889BB99AB34A998AA795A98
col27:   84665B9A7CACA9A669799CA9BABBAD9CB89AB748BA76A89ABAA9D6CBA7B9BD7AB68B9766A6B8EB8A
col28:   9967DA9A9867BBB8BBC6CBEA9A97C98ECBBBABDAADAAA987989B7C8AA7DCBBB9CA5BB997A7A8A999
col29:   A7665ADD97A6CAB9BDCA76BCACAA98BBCEC94DCBAABDBEB6B8B8A8ADCCB897B8989B97A7A6CAE887
col30:   799A8899CC599CA77AC9A6AACD7A98B6BA59ADCBDBCACBABBAABB9AB9A89CBC8AB7AEBAA88799CB8
col31:   998B8955BA799DDA7BABACC599DF9ABEADBCDCDF89CDCBD7B897B98BDC7ACCBAACA98A88BAA78AAA
col32:   B887898AB8AAACB89CC7E9CA9B9BD8EDACABBBEBBBCBC68C89A7BE8A7BCBAAB8A986DACAA9B99C98
col33:   A8ABB89DC7EA97BBABCA8BC799D9BDAD9BA8FCC8BCDD99ACCBBCCABBBCACCDBDDA9ACC9BADD78786
col34:   9A786698B77A9ABAB9DAACDECBC8DDAA8D98B8CFF9CB8ABAC8998DBCAB99AC8BBAA9F7DDA8BAAA88
col35:   88989987CACEBECBBAA8CBBDCAC9ABC99EA89FC7D87C9BCBA8BBADDCECBEEBBBAACABADAABDBBBB9
col36:   77AAC8E7BA98AACB887CBBD8CEBDC8FDCCFBBEBCBEEC9D89EBBACFAAEEBADA87A9CBC9A9DB98AA87
col37:   7697CACABBABA9EC99BCF7BABBCCBBBC9DA9CDABAED9CBDFAB8CBBB9CC5BEB99BCF9B9DBBC8E9BBA
col38:   8B99BCCB999DCDD99FAC9CD8BBDAA9D9BBECCBEBBCEAC8BBA98D79ADBDBBAD8D99BF999A8BBA8BC8
col39:   9599BAB9A9AB7BBAB9C9AA8BDDCAB9FDBAC9ACDDD8AAE9DDDBD9ADBECDCB9B7DC99EBBCC98EC8AB9
col40:   CAA896A9AA9C9ADBA9CCECEDAA9FE7A9CC9D9DDBEAF9ABBB8CACCABADDC9CCACFCDBAAB8CBABCA9A
col41:   7A9ABA7ACB989ABCECECDBBDAADCD8B9DCED9BDACBCEC9ADDADCDCCDDBC9AACCA5B89AAACAA9C9B4
col42:   7997DCA9AAACA7C5FB6CB8CC8DC9BCDCAAEDBBB9EADABE5CCEECDEA9ABECBBAACDFAB89AABB9DBB9
col43:   8AB89B9B9DCC99CE8BCABFC7CACBDDADBDBECBEC8CC7CBBDCBBDCADBC8BABCECB7CC9C9CA98C7E98
col44:   AA999BB8AB9A8C9CBBF9A78BAD9B8AECB9DC9ACBBADBDBB798A9CCBDD7B9EAA9D8CA9DFDD8BCBAEA
col45:   CAAA8ABACBE9DD9ABA9CDE97CDBBBBA9DC8ADE9AADDBCDAC7AACA7DD9ECDCCDACADBAE6BC97CAC76
col46:   9B9AC76BB6ADACAB879EA9ACABBB9ADDCACEEDABBB9DDA7FE99CCACCCE7D9A8ABDAA98EAE7CB99EC
col47:   8A8689ACA8DDC9ABCCDBCBDCDEEBDFDCFCA8CDDDDDCFFBCA9EADACAA8BB8BFBDC9BBFEBC9DEBBAAD
col48:   ABBB7CABBB88CCDBADACDACCDAACF99ABDEACB87ADACDCDDEFFBA88BCFDB9CA9ECDDDC998FB9ACBA
col49:   AA97CBABAC8AA8CEDC8DAAFC8BBCCDCEEDB8BCACAEDB9FBECD8AC8B97EAEABD7EBDBC9A9EABAD97B
col50:   B9BA98DACBACAA9BBDCDBADBE7D7ED9AAA9ECA7DDBAEBD8BCDCBDDCABC9ABBB7DBAB8FBAAC999C99
col51:   7656A9A8C8D49A5A9BB9B6A769A896A9A776BC78BB78BBA9A9B8789ACACBD6C9A978AA99A9669867
ROC:     BPix_BpO_SEC1_LYR4_LDR2F_MOD4_ROC6
col00:   6355668628538685946866789A587986887778656858756448A65849B6767679B55366372645B621
col01:   A67559565784669E976A7737A96CA6198C59A599A8A8BA48358A9B7A4AA5A935B696A697758BA5A8
col02:   535575779585A65877837ABB8BB9865698A998898C888A59B567A78776A9815BA947D77556835892
col03:   453454775496686566977969889739C7977A376B8A7A88579697868A8A7AAACA6898A6A4799585D4
col04:   4766B43545677878AB5796899A9AA689AABAC884A968D4896396CC7668C58A953688B957794AB675
col05:   416894469B8475768AB58A9A5BBA88C9D766A677885776B57A898C7AB5878A7A8865BA88927BA9A8
col06:   797A44865789A46B96187AA6559A5878978BA988689DA78884AC8B788C477A976675A6858A38B899
col07:   9348568556A874568769888A99688B9A577AA57AA97B7BA9FD66AEA7885A45A3A75FD88894588A4B
col08:   83B586687987A8678898A49898B7C68798C7A7977995ABB967B66989BA6A889A5A946786888C7184
col09:   75A727976579679796C855A99BB6AA5B889B995DDA8669A8886AD997DAC655AC87C8945A888789BB
col10:   677789595A9797AA7A5259498A79B7A879E87AAB4B89CBA997876B67999AA675BBDB569996698896
col11:   68976835C97687898B6DA88646AC6B989BA576A8ABBB99B9CCA636468D8797A9A7668A887AACB788
col12:   696A7677AA98687795998A77A999585CE77A876A6679B98C8A9BB877A7B585947A986B89537859B7
col13:   A3769695784A6877899AA997B8B865B9779C7C99B9775EB7BA9C579688DA79D5C78A899A9BAA6776
col14:   577365526A9AB6A9788B9989978B9D9CB78D5BA5C49CABBCB8B7C9C8CD8686C79AB8B7C8689A6895
col15:   5447B39657659958A68B799B7A7CA796776A9C8C9C8A5AB8C5A9CBC7B97BACDB39B875A996779BB7
col16:   5768A8947BAB559A96C7788C5B978A99976BC8A999AAC89BB9B7CB8A8A88A7B8893A98A95A7769BA
col17:   88844798657859998A89A9A898A3A9B59B796A8BCCBCD786A9CB6B889BB877D8A7A9C89587B78975
col18:   7B6676685789A139775A5B5429A97794698A8997A8C9BB89B392C978798A7BADA77A696933B79693
col19:   85715BA8AABB8857AB8BB78687A69895C8BB89A99798ABA9D8DBAA85B8A99B9C6D79CA8987677A57
col20:   A28888584A8798A45879CBA98973999988BAE98784D8EADBCC9DCA8A96A68A7ABBA689A294B78D7A
col21:   685A979764819896495CA9A5876ABDC37BAA99D7DBC9A88CC68966E7A9596968678A986458687866
col22:   5576548479887894A2C799C95D869998A7FA5A7B79989BC86A9879A8AC9B75858AAB95CB77AA79A9
col23:   377644599B6874A978A77AABBBCA2786AB9B8478588897C9AB6B87D698BD87A7789999B998BC8ABB
col24:   AA5785B7B89A7AAA6BA8C86B6978799669797CBCF77BD956AABC97B4C9A3A67D8575A7C83AC76787
col25:   A78549D388646648896BB59CC6AC8DCAB9C7997EB9A7BD7BAD6979DBEC83A996A9C6C99E48AB99A9
col26:   9688698C979A9ADB67AAA77DCBD975DC7B88CBDA9BCBAE9DABAE9ACAB99AAC77AC66ABA759AAC9DA
col27:   9468882A6B457CC8D8CBA9EBA7BBB9AAA77799DA8A767E999989C968DAB7C6998889AA8CEABB7FA7
col28:   99A3868B9C87B9A86B7BACB9988CAFAA88ABCBDC98ADDFACCAACDAABBCB8ACC99DEA89DB86B9B7B5
col29:   98829BC6898F88A9ACBDC8C7BBC9CAFD8BEDAC8ADDA88D8ACD99CAC9DC7D4EFCCACCCBEABCACCCC7
col30:   89889AABA7D6B6B7C98897CEDABA95CA6699AB9CEFAADE98B9BEF6CABCB8EDCFAFCBCB769ECADBB6
col31:   682AB768B9DBA989A9C7BBAA89ADDAD8ECB9DA9CA9DABDDBBBBAABF9BADB69A5CCDD87ABB9BC9DAB
col32:   7755779AB899ADACA9BCC9C8A8AFE99DC99D8D98DDABDBEA9B89CBADAECACDDDADAB99BAB9A9CCC7
col33:   CBA7AB577C8B8AED8BCBBBAAB97AAB8DCCCFCB9CD99EA8B7ACCAFDF8DCDAF78BBFB9CAAAAC898898
col34:   A7AA8B8A9DB887CFCA9ABA99BBDBF8C8BDCEA7989E9CCAC9CEDCCBADBCCADCABBEBC889BC9CCD9AC
col35:   77A8BE798C8BC87B8DCA9D8CF8AB9ADE8B8EEAC9C7CCADBEDE99CCCDCBEEADA99ADDB9AC9AEAE7A9
col36:   8987A47BBB6AA96BDD6BD7996DBEBB98ADBC7FA9DBAA8BDBBBC9E78B9CDCD9CEABD9D9B69AB4A87B
col37:   BB85C8CAC8CAADBEA979ABD9DCBBFDB7C99CFCC8ADBDB9DABBBECDDB7DBACEBABAABABCF9BCCCBD8
col38:   A678BAB895AB788BABAD9E9EDCEEA9DAF9B8EADBC9CD9CDDDDBBCD9EBE9DDCBDCCD9CFCBAEA999C7
col39:   8668AA9BD9B9AD9BAABAABDBAB8ABADBBEBA98DECBBBBC8D7DDA9CBCAAAD88DC99BFBACECE9BCBAA
col40:   8A88A989CA9A999BCCCAD9CCABABCAACCBCBFD998BAACBCF8ADA8EEDCCFBBF8BAC9B98BACADECC9C
col41:   C89CB67A9AADA89D9CCAB998BABFCABFD9EAFDCA9BCC8DB9A78EDBDAC6A8BFFCADDACEC7CA9BBAAB
col42:   87699C8B87CBBCABCBBCBDFDDBCDBBF8BCCBCDE97CEC99CB9EBCCFAEBCEF78ACCE9ACECADCCBDBCA
col43:   A9BAD7ABCBA8CB9B8BA9ABDAEA9DDFDEAD9BCACD9ACDFFACDBFDDBFECCCCC8FACBBFDEAF6FA9CCDA
col44:   BABC9CAD8CCAAABADCBBA9F7BDBCF9E9CBDDFB7BAACDBDCCECDAC8AABFACEC9F8AABFFEA8AFA7AB8
col45:   BA5DCAC9D8A9AA8BBBC9BBAD97CBBAA8DE9DDCCAEE8AACCBC9A9D8AFBADB7FF9EAD9BEBB5C8EA979
col46:   AAC9ABBACA9BAABEACD7FCCBCCADBDDFBADCBBCBA6CA9C7ECADBE9C9C8F9C9BD9BDBAE8FFCD7D9CD
col47:   77C6A9CBACCA9BECDBCCEADDAEECFDEDCABA8DFEBCDCACFCEBDFDCAEB9CC696FDCDDFDB79AEBECAA
col48:   A7B8A7878E98E9DADADDBCA9CDFFBCCBCAB6DEBCAACAFCBBDCAC98BBAFADCAEDDBBDEBDDC7BBABD7
col49:   AE8ACA98DD7BC9AECBABBEB7CBADDCBDBA99D9C9FACAEC9EB98FFDFABADDCBADB9ADDCDADBCEBA9A
col50:   ABABAC79C6DBC98BAECB9AE9BACBFF9DBFEC9AAC9CCF6EFBCEA9BCFBDC7BDBC89ABCEDEB9C8ADBBC
col51:   97A5CAA6889449B5B99888AE9C88E5DA99A8DAA7EB9BA7CEAC7C89789BD8A8CBCFB69A9AB8ACBBAB
ROC:     BPix_BpO_SEC1_LYR4_LDR2F_MOD4_ROC7
col00:   7757CF1A7A959788A577A61AA8A8758736B7A8D898A9BAA9B999A8AA99B5CCAA8C88A75D99959D27
col01:   646CA6A6AB949B3AE993F796CFA5E59C9DCAA7B999A9DB9BAE6A8CC9756E8B7618ACAB99AC8A9949
col02:   55E8895A8C6988D9BE9A8E77DA66988C8AEA996D8BA87BD8ACACF678696AA6DC89AA58C6BBB993CA
col03:   55879B87689A8B84B3989C9A9A8A9A8C8D68C7BB9CFAC7B87B67DEA9C9FEC6B8B89D9ABD8B6BA986
col04:   B1856BC7D885A7784999AC88BC86C7CBFED89969A7BCA87BBEAF75B998A99C8C9A9C988CE979DCA7
col05:   6A69CA497AA9979C88E97A8E9B8CB7BD9AA9A989C649A978B887EADCDAACAD9ACAAAB8B67DB89D9B
col06:   B4847848A7579788BA769D269DFCBB69DC8C9BDE9889987DB7AC9BEB6ACCAACCAAA67B7A7BB6D77C
col07:   B785AAB85BD977579A9AAB9CACBCA9B46C8C8C4B8FBB7C5BA8C9EBCDAB7A989DBDD8BF89488299B5
col08:   3678BA3D9A7989638A79B999AD8ED789BCF98B7CA8A68A9A78BBAF68B5B5AA6EA79269C9B8895BA8
col09:   8767977B98AD9C96AB6697A8C8B6B4AAF8BACBEC9869B774FBBC5A98BC5C8EBC9ACC989B89A95BFC
col10:   686893B154488A95B785BA6AE59999DAD6BBC6959CC8BA57BBABCBD99879D729BDB866D5687464A8
col11:   9876B398D79993C4DBDBAA6AD6A99DCA97C989BD9AB979798BCBBB6998C6C85A7CA847A8B8CCC89D
col12:   A1678565897A8494687AA7B9A6D89B9F69C9784B679A9DC88CA9BBB57BAB9A88A9C76D8A98CD88CB
col13:   87847A6AA666628664DBB767AB7ABA78C5B97DB8B75BAB9AADCA8DE7AABBD59796A7E64886F4DB98
col14:   6758963668777A9A88A6C667B5A8C68BC289BABA66B7A869CE7AC85DE5A8469488D8A86BC648A6AA
col15:   86583B638C88938898A6E98B89AA689B998BDC7CABCA7DB887B6BBAC8F7A8A669B7CF69678AB6891
col16:   897B76878974B6658B9B6AE887EBB7DDB669B7DBA5A8699A5B87BB7A9B9A8BCA5BD9829A84985A97
col17:   159765A46946497978997C7499777999BE8D93C99C7AB98ACAC8CBC8D89B9CBA78CCC8C894A89AAA
col18:   D38767826A54988B77967C7ADB9AAA875ABA6AA99789BAA9985A4B9CA964C99C8D4778DB9AA59C7A
col19:   5586B377A66553788975B8DD765C59ABB9CBCB8A798968AB79A7B868CBA6AB7C9BB45DB799578BC3
col20:   A568683394A586CA656989B9779CADA8CAC9ACA7C7589D898973D86B97DAA999BC9899CFA9DABA96
col21:   879375A4B598B96BA9D9DA8998BA98D73996AB766EB7C9BB99BA9D8A6869AC99BCE7BB6BB8A9C7BA
col22:   6584866646AA7554885B47993CC9898BBA867C884B84B88D89998ABAAF8AC7497F7B6B9199A7B99E
col23:   876417562749587769B7BAA9C7AA7A9A6B8886DCBA9D9997AB8B99A9488CB7ADAA8A6976D68CA8DA
col24:   55678168AAB768C89885884D7C7BA84C79ABC5A987BADC7997B879C9789986A2A7798699BCC2B788
col25:   465675384A989B67C776C5A7D6AAAB97CAAC6CB896B88BA9AA7BBA7DA9D9B9A9847679A799E9C4D6
col26:   999A96B895B7784EA8ABA6DCCACB8C998799C8F9ACCA9CBADDDE87C97BA9C678E9BC98BAAEEBCF96
col27:   946757B68895886BACCE799ACCAA9B8ABCB7C9BC8CD8EFEABCAD9ABBBBAEA8BBAC98B6D9B989CBCA
col28:   8773D8A8A98A5889BA7AEBC85BC9ACA7CDBBCDEB9CBCEBEAD69C79B6ABBBC9DA879C7AB7B88A9B76
col29:   6982A97CC6965A8966C87989CC7CEDBBBEF9AFA98C69FC99B9CACB9EACACBB8A296D98CED8A9B69B
col30:   A865ABBC74475ABAC59A8BAD9AABC7CAACF9BBBF9CBAD9ACDDCFA8D9BAFBBA797B6CC9BA77A6BDAD
col31:   76A8859999C97C9779B8A8AAAA9FFD6DC96BAACB7A7A87ABBCABBD7C8ADCABC9CBBC596BA9BC8AB8
col32:   3D99749878895AA898A9A96A9CABDEAABCEA9FF889B9AB7DACCBACB89AB8DB86CA88A785D9D9FBAA
col33:   69594887B6996A9A7BACBAF79BC9DD7DDB9FFF8DCDDEC6BAB876AAFBFA9ADC988ACCF9B67C7A89C7
col34:   749A8797CBC8C7AE6AAB58A7BF68DBC7BEE9BCFFEBDEAABBC8F5AEDFC9DABAABA7BCBAA8CBDAECBB
col35:   1A989DBCABB6889A8BD87A8A6ABBC8BCC9CB99BEDBAEFED9BBB8EA98ED869ABFBCEBDEDDD9A8ABAE
col36:   736747458BD67789884A7FAA599CC7E779E99EC9BEFA9BCACDBBC6C88E8CDCC7BBDDCCDB7CBE8AA9
col37:   274769998AD6A66A99B7BAABAB8CAC9BCFB6B88BAAB9CC9ACCBBEEB7ACDEABEDF9FDCB7CB89ACCFC
col38:   5BB83CB79C6EAC66A968BCE7AAA5E5B9DA7BCBC79CEBBBD87CDADCBB9A9BDBD9CFC7AB977BECCCAB
col39:   B48B9788DA558A8AA8C7979D7AE9DD8D9CFA7BDADB7BDBB7BEADF9BEBDB9DEFD9BBF77D999AAB697
col40:   58676976B7B86C9C69C6BD9CC8AAADADABA69AABA7B7DBADDBAB9DACBCA99CC8ABD9CBCB9B8BB9BA
col41:   837BA999D7AA4CBCAA9C79577EDBF9A5A9D9BEDD9FBCFABF9B7CDD9C597BACDFF99DAC99CF9AB8DA
col42:   6899C9798A849C88A8968FDC867ABCAA8DB9ABEFCCCABCFBBAFDC7BDEDEB88E9B8AC9CA9CBBBB8AA
col43:   A8F467C867969AA7B9EB87B7899CCBFEBA8ABFAA9BECB6ACCBACD8B8DACFCC9ECA7DD9B8B895CADC
col44:   A7656A6AA467D89C8989D869ADEDFEDEDCDCCBC9DA98CDDCB88D9D9BBAE8E8A9B9999ADA9C9EBBB7
col45:   89BA9BB9DAA58CACB8789D79C9BC96F79CBBADFCCA9CEDCCEDDB6FD7DA8CDFBC6DAADBAD87A6C989
col46:   B964A6AC847AB8899C8BC7BE7BD8ABAEDACBE9AAB999DC9CDADBBCABCBAEFCCCA7CCC6A8A78B9CAE
col47:   7651DA88CAA8DB788A98AC898CBCCC9AFBD8ADBBBBD9FCDA8BEBBFABAD7CBAB89FDCFEB6AAD88FB7
col48:   3469479578CA826BA97ABCA9B8B8C98A7988ECAADD7FCBADDDCB99BDAC8AF6CFAFB677CB8EA59A99
col49:   C994965A869C9957A8DAAECBBCDACADAA97BADEA9BDCC9CDB8DA6BEC9C9ABB9BBBDB8B97B8C9ADC7
col50:   B7CA88D5888D6A9BAAE935FA999DB797C9B9B8DA85CECACDAAFCEA7A7CDA88D8E9D3FACBBD9C4DC9
col51:   71897B78A7917479888398598BBCBDBAA78ABD798899B96C99ABB679A667988AE8728BB8AA989DB9
ROC:     BPix_BpO_SEC1_LYR4_LDR2F_MOD4_ROC8
col00:   3535276547554648627463956586A766745783A63778956666786654645498772675885763388954
col01:   8589479885676389949658886A9B669BA885988779BA979988788968B89AAB577577A88665668783
col02:   6876767966A677987693585A977748455978879996957AAA75887668887876A76883786655491857
col03:   A77735668578588976767856584599B87A7778889989988A6978768986A675888868568A955A3844
col04:   9435565778417963737599A4797868989778756689796A8A9878A9579867767A7997579596979B78
col05:   754A556377977956368B964588B9B86859B7876B7879C757AB9884987979777776587976A7766994
col06:   57889A68677B6788765978A64A797BA9977694876756688657C96777B49956567957867A95857866
col07:   864954685767765A566694663798667AC89B99698A7B66AB8798756B68A48B7CA78753579A6A5738
col08:   4857876976678677546B8A4683A765A988A88899787AAA8796997667887A69A98A4C7D7874868888
col09:   755775778C886976869796659679B97A9988B86B9C8B96968AB7A77A776895778B78B88974783646
col10:   7685758A47842C778A4889857895897A69BB9B7BAA499888567678884739AC87399A77784665A675
col11:   A66AA976464B777657999A966995B967A5785797A8BA69A8888A69769564597954B84AA69B97A874
col12:   629685A8915796536886666796786795696BA98A8C868A5578C9B577666986BB75668867AA986665
col13:   347879266BA666759847556A867899987B8794A7B58A98688DA6A7AB6BA8799967796668A866AA6A
col14:   8966974755466B88A55A798797BA876767898B6BA9A89B75A88777BAB9BA87669959989879785655
col15:   5549679B86978B6887969898A996A957A8B8A897B8987A9B566B96867A687AB77AA97B97A8688758
col16:   E7667A98758795678858777968969966C7D8A867778677AB5689798688478B988C49859985889978
col17:   995C8B864778896558A856B587679878A89879998957A6988957686797A68A988777686558688996
col18:   8464A46466A6885797A66767675569A5A749788969A69997A98777B99A8586653978565768875895
col19:   A6856696767475977899769BB99BA998898BA68459AAA999989789789A99977867995B977B78A89B
col20:   764639A77885A774866A78AA686998A9AB8987896BA9BC78764758897A89A7689B59A9AA78689899
col21:   67A67678585289888578988BCC8C77B786688A87687EA9B99899A87868898B876A99886489938C84
col22:   896557458373966857A79596B98589698A698B758689966987897979A6977647C58B7877B294687A
col23:   7A86697894779A55555C8866679A69A8998AAAA8956AA799A7A99BC7A7B6B768AA4568BA88836994
col24:   66487596988A48A99896669779895AA9AB9A9AA9C68C7C9A9AA9888CB6B89A97A9658AA7767B7959
col25:   99789678B78459689A788B8999A99A9BA98989CBA9BA9889A697589ABDA877A97B99B9A8A6479798
col26:   B87A8AA86865876698796B7BAAB95AA8B99AA8888BAA7998B7997A9979A9A89B95A979879B599BB8
col27:   8A8A598668568A889AB89A59A8B9B9AB9AA9B9DC7D8BB9CB86A9CC7CB89B5B67ACA9A878979A99AA
col28:   77799ABB99AA67CAA9B7987BAABB99A89E6C889C89AABCBA96A9ACBBCC7ACB97BBBD8788AB7B7996
col29:   98CC699A798B69A9CD9A9B7D89BD8AA9BAAABBE8B9CBBABAE8BA89BC79DEDAABBA99A9D997AD967A
col30:   788789BBB76979D788A98DBAAA87C99B7898BB97AB97BA79AA8AA99A7D997995976877C89797AB89
col31:   9B8B686BBCCBDACABBBBABAB999DCBBAAB6CCBBFCBBDEBBABBC9C88DD9ABBBAAB9AA7A8AA9AABA9A
col32:   AAB9998A998BCBD99CCABD8D9ABAAAAADACCBACAC8BB9ABB7ADBABABAC89BC98CAB7AC8A8AAACB98
col33:   97B59B99D8CACD78BCAAA869CBCC999BCAADCABDCBADCDAA99C6CADCD9B9A8B8B8CBBF6BBC7BAEBB
col34:   A9A899AAABABCAAAA98899DDD9A997BDCDBA7AEBDAAABAA9A77BB9B9A8D9B9BCA9B9CA9CAC8A6C78
col35:   BBA9AC996B9D7EACAC968BCC8D9CBCCDB8CADCBADADBCCB9BDB89C9ABBA9BDDA899C99ACABA8F9B7
col36:   B9AAB6D9AB9AA6BC7DBACABACDCC7AB7C9AD8DDB9DBCDAE9BBDBADACEABAABBCABBD9BDBBBAA9D97
col37:   CE9C9CCCBDBD7C99AAB6BBBA9BCD9CCDAABBECDDC9DFCCAA9ACABCABCFC9DCBCBDDBBA9B999BBF9C
col38:   BBABABAB99DACBA9C999CABAABBAADDE9A8AA88C899BECCBDBACAC9A8B7A8AC9CB9CB88BAAAAB8C8
col39:   88ABA8CCA78C9BC9CCCABAACCDDABBBDEDCAACDECCDCDAA6EEB987CCCBCACBCBAABAACCACAB8B9C9
col40:   CB89BCCABB9C8ABCCD8CBBBACBDAEEC898CDDBCBEDCBACBABCCCACADBD7AA9CD8BC6EDCCBA99B9A6
col41:   A97BC999BACE89C7ABCABCBABBEBAABECADCBD8CBCCAFAFCC8CBDBCB9BDEEACCEBCAAC9ABCD5DD89
col42:   87A99BAC7DBA8AA8CEAD9DACCDA9CEBDBCACFADBBDD9BCDDCEADADBDBD9DADEBBA68BBA89CACCAC7
col43:   ABDCB6BBAB9BCCFC99ADBBE9DCEAFD89DCDFBFCFDCABE9CBCCDD9BD9ABCAC7ACB9CBCBB89BACBBAD
col44:   DC9C8999ABBD9CBCCCBD9BADBCCACDCCBDDDCEBCDA9DCDCCDDCDC9FCABCCD8CAAABABAACBBB98DAB
col45:   BBAA9CBCDAAC9CC8CCDDECCAB6FACE9CBEBBAECDCAECBCFBBDEFECACCBCCFABAADAABC8CDCCA8BBB
col46:   ACB7A7BBA999DBAC8BCC9CAEFACBD9ADDBCEAECEFBDBDCC7AABA9DDCFDCAFBCCADACCA9B9BCBBACB
col47:   BBA9DADDDCDFDDCCCCCA9DCDACBCCDEEFEAEDDEDFEFEDC9BFBFDBCAACBBEEBBDDFAABD9DEDBBDCA8
col48:   DCACB8BCDBAABBAAABDC8ACDCCEAACEBBDDCDCECACEEDCEBCBC8D9BEBD8CADD9CC7EADCAA9BBABD9
col49:   CBA9B898BB7C9CDCE9BDCECCCECBC9DDCDBFBEAFBBC8DEBAFABBDEEDCDBBCCFBBBDCDCCCADCEBBC9
col50:   BCC9BBDDD9AA7BADCD9DAB9CBDEECCDDBCBCEEADCDBBECFFCDBD9EF8CDBDBDCBAEA8CDBAECC8CDBD
col51:   A9AA87AB78BCBAA9779A9A88EBABABABCCAEDB9ABC9FBBCCDCABC8FEEBDCDB9EABBA9ABCABEABA99
ROC:     BPix_BpO_SEC1_LYR4_LDR2F_MOD4_ROC9
col00:   7D568B753787B58A98A9B5E6748AB9778C3797B766E44CCA6B68A9A8B48C97876B8BB36766A19565
col01:   5A69A8D6CB5A5C6566A9DAADB79A78CAB994FB89BAC7AEBCAB87CCBCE9BD9AAA7D8BC9A8A9985C7B
col02:   A5888CBCB687499B5979CB789CC6AAB9D9C8BA8ADA69A799D77BB79866B9B58A9BB9DB9CC59D8888
col03:   6A7A9667A5A6ACB978ABC76CC6A8C8D6EBDCBBA8756AC96478AB989A8CD26AEF8C9BC9DBED6A9882
col04:   ABAB8BBD8B66BAD79BC95B89A7E998A98D6CBB5CB88D898D98BAAA9ECA6CA6AC5E6C79A7A82B7D58
col05:   A8877AB9A8977599ACBBD69ABF84B9CAC87C9ACCC8C8E9E97B99EB7B9768CC8BAAD9B7ABA669DB96
col06:   669758C879B85AC72986B386CBABCBDBEEAB99ACB9DAC78987BA688A8AA97BBAB8A8B8584771777A
col07:   AA669BB8B58EEACA7A9B98897ACBACBBEAD9DFEDC7ABD8AAFA9FB86BDB9BA7A68BAC88AB8D59AA89
col08:   88B86A9998798E8CAD98B8AD5B986CDBDB97EBDDA9B7CBC8C7FB9DAC74ABA868C98787C65898A986
col09:   BA9B7B3BB89696C6656B9AD997A5BCACAAAA9A6AA9E8DAC9BCB996AC78AA9C9B78B87E5989BA96C6
col10:   587B879AA998AA68CB9A8BBBCEA97D9C9D683C9B8B4D8CD978CA7C86C99D7BB79C59C9B8A87C969C
col11:   565A6AB7759A8D677CAACBEAB8AA89E8BCA8BBA8CB8CBCB9CBADACC98995C6A99CDB7BC67699996B
col12:   57B8AC896994B5C969ABB999A77AB9D9DAEC778BCB7A98B97B8DBBBC57B99BAB849A79A998677B65
col13:   A68896A8AC77DCCCECBCD9A8CDBABB8DCA98CAB7BBB6CB9CBEB8AEDB8CD889BD6AAE88589C7BEA73
col14:   548A777A8A7699899A9CB99EC889C9BBC9C9E8A87AF88C9C9E6A8F6ACABE9B88A5CA88BB8A7A58AA
col15:   88688A67A959A6AAA8DBBA7ACAC9BCA9B7BACC9DBDCA8C8FAE889CB78A9AADAAA8C96A6BB8BB7DA7
col16:   C867C86699E87BB9B8C9CDA99ABA7AA9ADCB7BA9A7A89D8DAACAAF8BA6AC98BAC856A956789AAB84
col17:   458778A988C8886A6A897C99A8DBE8D7BBF9ADAA98BB9B7B84BAAF7B7A9CBB7AA9C6AA5567CA8BB9
col18:   86A9694A596987A9FC59B7979669BAABB8CC9AB857A6CBB8CBAA7CBAB96C9999BA9597876D8793A9
col19:   99558CB8AA6CBB89DEDA6BCDBD97CCB9AF7CCBAFBE998DBBFFEB9BCCCF9CCEF69DDF99BAA9959A49
col20:   1A7B66AC8A699A9B877C9C8BA8DADB9BD86CABEB7BA8BC8AA889AD97B6797ADB9BB7AA75A86796B7
col21:   9749496798ABAAAEA69AAC769BA8ADD898A8E8CE8B589BD688C79C8BBA788D97AB29A8D5BCBD8A76
col22:   692A894B8C9E8B77797AD9AB96A799F9BB9C3A99A8BD96AAB9C96BD7AB8BAB87C88AAC686A4B8577
col23:   574DA7BBC5188AB76A97796F9A7CC97ACAA9BCAABA9DA9ABA9A677AACD7BA7CA96CB787987A7A87B
col24:   56979CA5B49B966A69A87BA79CB99BBDD6C2898A9B98989BBACAB77888CBC6CBA76CCB977998A479
col25:   875698ABDAA7CAA8A5BC8C7EDBDCA7AEDBCA99BC5C6BA7C99A993AA8ADC8AC88ADDCA687C99599C9
col26:   B6868BD9B8BD6D9A97CA6BECA9C9BCFBD9DBACCB9A5CC8CD5AB8A8ADDBAACDAAA7F9D9B5D799ECA7
col27:   B96B6B74AB998AC9895CFCFE9EE9CCBAA7C9DABDF79A7BDCCCDACACB8D5F8F9ACB9979BD8A499984
col28:   6539A6687BAA7FBCA95ABE9CFBDA9C9DCBCDEDAA9FCF9BCDCD9CBB89BECCE8AAFC9DDECBC5F697FB
col29:   B978C6A8CDEB99AFCF9BC6A7DDEBECECCE9DBBACEDBC9AC9FB8BCABE98DCDDB9DCD9ABACBA876AA4
col30:   9B788539C7ABD9F8CABAE8CBAAEA8BB7FADDAD8AD9CFDDDDA68B99BBC9ABBBA88EAA5C7DD955B886
col31:   A6759793396DDBBFDAECBFCDDA79DEFACAADCEABFBEECEBFFBD9EBEBAEBE4E6CCCD9DBA999A78B7B
col32:   897BA99BBCA98798DCEC8AFAEACBABBBBBBEB98ADEDD9ABCA9D9CB5ABECCADA7DB656A9ADC879AA9
col33:   759897A87AACCAEC9CBCB7CC9ABDCC9DCFBDEDB8BDCEAEB8FCDCAFCECAA9DCA9E97BB9D6997A7178
col34:   BB8A958BA99F8EAC997EC8CFBFABFE98CB9ABDDAFD78B8BFFC9986EADDCBB8A8BCDBBBC5897ABCA8
col35:   FA9B7997CB89BA9EAFEACEAACFABCB9BCEBE8FCE9D7DEDCCECCDCBACCEEBEDA9CEE8DCA7A97EECA5
col36:   497BC7DCACDA8EFBA9CAD89CACAFAFFEBCF6CAADDCBDADB89ADFBEFEACBD99F7DF8888DA9AD6B9B4
col37:   889BDCBCF9CDDF9BDDC96EAB9ACF7BBACC7C9DABDEBC5BBFDAFEFBFEDFFBDB9C78B8AA9CEAC9C9A5
col38:   9899BA89DA8BCDFCDBCCACCCFCEEEFDBFCCAF7ECDABCCAAACDAFDC9D8ECBDBC5BA6998EAC9659BA8
col39:   8968BDDCAADE9AAA78B99D9CA9CBAC8CCBA99CCBCDFA7DB9FD6DCAB9AEFC9E97D8A895BAAA6B677B
col40:   8C6AA98DCCEBFA8DCB9BACBACADDECEB8BBFAFDEBFA79D8E6EBADEEB9CFCFEBDCB7DEB9BAAEEB9AA
col41:   B9DD99DEDBD5E8D6DBD9BABCDDF9CDEAAE8DDFADFFFAFAFFECCA9DBBFE6B9898DDC9D9BDAB89EC78
col42:   C99BB7A9FAA8C958BDCCAB89EBCCDCD9BCDCADCAFAF9BCBABA6AA98C7CBBDEC6C8A97CDBBBA98D79
col43:   BB9ABBC7ACFCAFE9DD9DCCFBAFBDC9CEFEFDEBBADFCDECBED99ACCEACDDCF7B9CFABB5C6C9EB7899
col44:   957B9A8AADDAAA78B9AEEDEDFDFF9B9CCCFBEACCDFBDDE9CDCC7DA9CAFBFBBCEC7BAAAC7E7998B9B
col45:   AC5A8BFDCCCCCCE88B9BDCD9DFFAEEAC9CCF9FB7FDE8AFBD9EEBCA9BBCBCE8C9EB8D6BAB99697CCB
col46:   A799A9DAA9EAE99CBAE9ADADBDC9DDABFFAC8D7FEBADBEB6B8BFA7B88E8B6DBA69DD7A8ABCBCA866
col47:   9DBBECBCCBDFFECCCDEDECFCDFFFCFCDBDAC8CAEFAFEBCCCDDDFFECDBBEEFFDDCB8B988CACA8A8C4
col48:   BB89BBDB889DA8DBB989E6EBDCE98FBCCBBCDBCD8DBDDFCBCACE7BC9DFDAACD59A98CC8EA89B5C94
col49:   BA8DEACA9CFAEA9DECAACBE9FDBDBFCFDFBFBADBCBB9BDBDCDD8AFFCCF6EADBD8D6A99DD7EC8A8B3
col50:   B6BDCC88DDDABC8FCD78ADC99BACECEDFFBFDBDDCAE8BBBDBCF9BB7BCD8ED97B9CCADB9A78C9ACBB
col51:   56B98A8D6A9C897A8BB7985AFCE8DB64DCDBA5AC7ACEBDC79C9BAAAA96AD7B9D87596BAAA98799C6
ROC:     BPix_BpO_SEC1_LYR4_LDR2F_MOD4_ROC10
col00:   7A7A767A876988AE66BAD875AA95EAACDBB9ABA98BA8C85BBD8C6558577B54651FA89BBC77569452
col01:   CCD79D958BC99BBA8BBDE8A9A6AD9BDCEBBBDAADACD89CCC8958DAB69C888B89D999966CF96A6CB3
col02:   9C69DB865A7887A9BD999BB9BB99BABBB7A9BA98CFACBA56CAAB97CBBA7B66BAD61694ABD988A747
col03:   C8BA5CCC99AF9B9A9B97B9A78CDBEEDBD9ACAC8BBBFCBDAFD8AD8D6AB99DCFADB779B96984C97581
col04:   7BD8BA8C8A67BB8779B89BBAABAEBBABEEACEBBCC959AADC99C6B9C6D68AA6987768A878B6C95C56
col05:   C999CA7BCA9AAB49B9ABBBAA9BBABE8ECC9DB99CEB7A6AA7B9CABCACEA79BC8EB9B998B69B6A9846
col06:   9C8A6B7DA84CA9CDAC96878DF89BC7CD9CCC9DA99CDEDA97A9ADDCBB87DABBABAB498B7968847749
col07:   39DA6C9CA99A7CCC6ABA9EB27E8D8C8D9FCEFCE6DEAC9A9DBC9B98AEB778A5759B66CB66B8A1B989
col08:   7744A7AB966BA946E5C9A98ACEDAAABCE7BACBABF8ADCDDBA9D99CBA7AA9C9A8D996875A88769698
col09:   5898975A9897A896A7C8ABDFEDBDA9DBABA9E9FFCDCEF9BAEFDBCD5E79B8EA87DAE2EC9BCC889A79
col10:   8A85A8A5B9DAA9C8A869A9BA86BECD9BA88DB8ABCCBBA8B58FACCC9A987FA88BBABAE64B47988685
col11:   B378A68A69ADD87877988696799B9BC8DB9C9BB8D9AF67F9A9CABABE8EA6CFBB8876499AD176F63A
col12:   558B77AA9A9B83995ABBA9D7ABCCAD698B9B8F7D58B9798E798A7AE489CCCA9898679AB8A998AB76
col13:   675799897999C6AB6C8AB97ECBCCB8DAAE79A7DBE79AA79F8AFBBB8CBDDBA6DA99AB7A85B743AB48
col14:   596658667C885A998ABAB87C87F8AD9B6BCCBBC8C6896CBA6899AB78EEA8AA99A38877AB8A66C887
col15:   94B89AA7B67398AA8897A468EB79D7ADCA9997AAD9CDBD98A9E7B86BECE98A9ADBC88B8A9A87C589
col16:   5CB8A63CABF67996A795B8BA739B9BCAFBAB8A9FAADAB96CBDAB94C885978BBCCB547F7B9A992D99
col17:   A7658777484567BC77786DBE68A8CD88AABA79CDBC9D7BCA699B9BE8BBB99B4A878D8A996A799F87
col18:   5A7B699FAAA8A8798CFBA6A869CBDCC9CBABB8A8BEFCA9CEBBD88697BAACE5C4BBAB796A6779A6CB
col19:   6A8756998689498A7758BCAA88ABB97BD9ABDFCDDCC498A8DC96A8ECA8676868BC6DBA5669557991
col20:   795A6999BBB75A68B8AA6ACF5B7798BB5988B8ECBBB87B8A8EFDAABAACAC7A7A876599B599BC628A
col21:   34986C99A6B6898C79CDC9B7FAA7C8DFA9DD7CB9B9BECBCFCDBB6586879CBA566B88B7AA7D9B65C8
col22:   988589A9A667D79697AC47E749D9FB9DEC8A89BCE6A658B897D6CACBF7BD9A4CEA9BBAB559797384
col23:   9989A4D2A688299EBB9BBCAD9DA598694FA87987BAC79D68AA9ACAA5797D8BE83996886988888784
col24:   E997686A78A7999797586B5996A8EACB8CB6FB96C799C98B87A955BBB88398996B88A877584844D8
col25:   697958C77CA658CA998A54867DCACC99C9BBBAEBAA78799EEDB899B9CDFAC89CBB7B997986BA5348
col26:   8867A7DAA887A89B7ACAB8BABE77BBCB99EAEBA7AAAAADB9EB49B89E9ABB85D7A9ACC79ADB895669
col27:   87CC796778EAABF9B6ABAB987C8AEC9BABB468A8EDBBAB8AE7B75ACBFBA9989AACBB58B586B6AB54
col28:   99A869DA989ABABBACC6BBBDFD9B9CACCABDDECBABADC8ABFCCCFDBA9BBA9CEA99BB7BB99C78BB96
col29:   7478869F98C6A7766CCC7D7C9F9BCDACE9CBFCB9ABDD89B896AD8BEEBAAD7BAADB85A8DCA9A7CA99
col30:   9BB6579C947BD499CE8A9CD9BCDE8BBCECFCFB9EA88FED85D6FCBDBCBBA9ABD7AD769B8B9A899479
col31:   AD7BB6B6B8CFA87A99ABDE98AEBC969E9DCDEC88ACBCCCC8CEECCCCDECDB8CAC85A8A9E8B86A8A62
col32:   C74897B9B8A78ABB9AB8E8EBE9CAED8DCC699A79BC9FBA59CDB98E684D8AEA9C798E9B9A5A85A686
col33:   898ACBBCDB6BDA9D8B99ECACCB8EDBA8E9CC99ACF8A7CABADAD8B9BDA6ABAFAD9BCA8EC9966B6799
col34:   ABDAAAE958EA9A8CCBBB9A85FD9E9A9ADBCB7CABCCDA98899C98BE8CB96BBB9BAA9678967776978B
col35:   8A48E5A8996BB9DBAED99ADADABCB88AEACB99CEBBECEBCADDAEA9B9ACEDB9999DAA7AB8EDCA9BA4
col36:   6B9ADCA8DA5897BACCBCE7CCAACCDBFBFB89BACEB9ABECBCEBEB8A87A7EBA988CB75AA5B95B8679A
col37:   7B9C7B9A9A8BD8AB9AE7EBCDFAADCCDCC9E96DE7DB9DCBCDBBCDACFB9D9DAC8B9C89989AD687AB99
col38:   CA99D9A979DBF8BA6C5CB9EECBECDDB9BFAA9D869DDA8879CADDA9A9CAAFD8B8DC9B99798BA9BB89
col39:   95A889B7ABAB7D99BCBC9CB8CC9B9C98C9CDADAEB9A88EBADBD9DCCBD8DBACACBBB858DCCD7ABB85
col40:   686C8A88D648988D9ABBBFAECEAD8C7FF9D787EEEACEDCB9EAA9C8AED9CBF8BBBA875A95A9C8CAA6
col41:   AAA7BAA95BA96CCACC88AACCA8F96CAAAD9CDEECD9ADACFDEDB8E9BDDBCDBB7DFAB869ABA97C5CC9
col42:   9DB68683B8AA78BBBCB7CFC97C7B5E8BCAAACCCDBDCDAAAECCAAAAD7EBDAAC8A68BCFCC7BBA9A766
col43:   8A6FEAA9A8ABA9A9AA69C78AAEBFAE7ADBF6BE9BC9CFDBACBBCD9EF9ECC49B7CACBB6CA8AE889DA7
col44:   8A7B87B6BAEAABAA88589C884EDAB8BCC9EDDCCB7CAAAC69C7CCBF9B7ECE9B9CAB8698F95D79AB68
col45:   88A89C78C4BBC8BDCD98A9BA98898FEDBB8BCFA9DC8BFECD7BCBAACACCDBCEB89B39BADBADC8BC98
col46:   B988988B879AB7CBD8EAC8BCAABCCF9CBCE8FCB7E7AD8AAEB8CCDAAAD98BDBF898999AAADB7AB98A
col47:   16869BBBC9CA9CB866A9C899BBDBDB997BDCBBAEFEADCEBA8CB88BBABCB89C898AD8E9AD7A9BAD6A
col48:   797AA969C9BCABBAFC8D5889AD9DCDBCBBCEBCBEDABBAAACCAC5B98D9C9F8CEAA9BDA775A889A6A6
col49:   A999BA58C7BBA9DBA7CBB86CACBBE8DF8CCBDACCCECA8D8DA886C97BADAAFA98C9DEB567B85895B9
col50:   8B8787CC874ABDACAC83999BBCF8A6FFA9DBDCCEDA9DBADBABCA7EC7AADCA89B9B77DB88D7A8EBC3
col51:   55563966AC5362555A86E568C62A5CDD9B9AC9996D999AAAC84C68999788A2928997B98994A67845
ROC:     BPix_BpO_SEC1_LYR4_LDR2F_MOD4_ROC11
col00:   5876784486556799799899897389AA889C97DC898A8B77B4CAB65B97A69C6984AA8959A5869A5286
col01:   36B89677B9A6C69B999AADDC869A89CBBCBD9D5E9AA999B96687A9ACFDB88BA797996869695BD6C9
col02:   A991876B5A7A9C8ACBBB6399A89EBA99E87AD7678B6DABB9AC7ABDB889A8952BA85979AB588AA664
col03:   B44873997479A8688A8D7C7CB79A5BCA79967CDACBBC9C9A7C79AB9C9AACCC798C68AAA6C2B93CA9
col04:   5876578B89A8989A898888B8DC9C7A97BDDC7BCE8FDCACB9B9AAAAE7CCD7B659C9AC97886567C799
col05:   99CA7A7BC8C98BA7C88A6C789E7A9D9BD9BBBBBEC68CBDDCA89979B9B9BCC67D5975B969959BA999
col06:   89A69C9DB5674898E6458B5797A87888789CBA78E9CAC7CC8597A7ACC7898CB95AA886595A57A88A
col07:   A76A8A3AB89A3979BC9BD9798A9988BD989B9F6BAB8D9CC79EABCA88CEBBCACEB7AA97E69BEEAB9B
col08:   88883989999899AD8C5AC8CAAABAB78A7A7A8BBACB999A98A8BA878B9B979AC9C9B889BC87BB8547
col09:   664978B89A998BA89AA8BB87CCA9BE5CBCDA8E9EAB8659CC9BBE78C67CAA8A8C959B99B98988B668
col10:   6738646766688A7B8A8A5C59BA48F97BD96DDEAC777EC8CBA78BABC9CB9AA97C68B9768C9A978655
col11:   73A878699A9B9AB68F4898AAFF88ABC7A8BBBB55C67ACC98AAB38B9E86C9BC79B686AA9E66994AB5
col12:   99C55B6689779BCCD89BCAA9AAA58A9877CA87BA8678BBABD57CAA98B78884B88C9CAC88C67C6687
col13:   C93756688B57966B8B4A9A9ABE99B7869FB68A5CAB7996C99C99BAA757CA49CC879977A5A8875A96
col14:   696999796A58997985A7497CE86A957C9D9CB75A9BDA9B7EAED978ADBACCC99A6889586697599849
col15:   4867A6738AA79A6C7759778DC7B7B5B7ABB7DB6797788AAA8B6DBBA9946ABCCD7797777658899E78
col16:   87599D8C7697576BACA68ABA8AC797D9C9BC68D7ABB95EBBCA7AB9B87ACABCA98A7B9B78AC757898
col17:   C67B5A8899B9875988D9B977968CB97BA8D599898A7AC6887DD9AB8AC98ABBC97986C98759B7C597
col18:   7964597C778BAA98B98886996B7C9A9D6689AC7D66BDA7DB8BAB9BAAB99939B5E99866A6788A8AA6
col19:   9B9886AA78AA9C7BCDCAAB9989A8ADB89BAB5EBCBAFAB99B8BD6EAB8AA89B9ABE2B6989AA469C883
col20:   A7983BC967A987488D77B96766BADA78AB99BD97AA89CB9DA87C9E9A9B8B8575D7685568797CB8C6
col21:   4949698A8A756786AC8A6796C9A79B77ACB695B9AB5C979BA8AC8A9BB8ABB9BCC677D6D5C5A7A959
col22:   6884969A946778779BA5B5ABAC9696A5A7C3A79A87AABAAC69A89B899CABB889B9993A7C55AC8AA6
col23:   747747835A8357775798E79B89CA8A8E89AF77B87AA98858B8899CC87A7DAAAD999BBD7BB2A89983
col24:   557A988BD6488D97798A78A57A9AF57BC9A8A84ECB77A99D746A9799AC76CBC95A98AA9B68767A85
col25:   94A8B9BA8A3C699C67BB9BD8BB77E66BAABCCDB9AC9B9DBBBCA6CC5D799EAC5ABB6586887A986BB7
col26:   C98ABBAB768B97687B6B9B89C7AECE9BBA79A9B8C9A9CC9B9BAC99BE9ABCDADBC88EBA76A5B8A795
col27:   76AB585B7BAABA7B88B7C4BB78EA99AFCDABA8DBAFCBDDBBABB7ECB7FEAC98ADBAF988BA978A8697
col28:   84A79A89A99BCB9BCC989F9BAD9AADA8D5CFCAAFC8A8F9EAC9A7AD9BAAA997C79BBC9F8A9AABA966
col29:   9898578AA8AAA9ADAB899DDCA9C5B9BBCDEDDDFCA9CB5BBEBBA99AEABFC9FCC8B9BCA85B996CA6A9
col30:   8597664BB88A69B8C8BDADA8AA9B9CB3B69DBBBECCCA8A8CBD7BAFDBB9DDBAEA89A99A899887B7BA
col31:   7AB68BC986BB68B7ADBBABC9FBDC7CDCABBBCBC6ECA9CC7ADA8A7BCF7FAEEDBCA9BDEA89C58A97A5
col32:   A9888A88C6BDBE6BBAB9ABCC99E89DCADFBC9BC8CFCCFBFFAC9DEDACBAEACDE7BBA99CB89B9A95B9
col33:   769969DAD499AF78AA9DD8AAABDA676FEAADBDAA99BCB7A8EEBBC5DCDDDA9EAE787C5DC6CCAADA84
col34:   7998749A9B89AAB9DDB8EFBF7B8E9EACAFFDBB9BCED8FA9CDEBACA89AFBE8B9C7ABB89AD6BB5B99B
col35:   99AA779BCC7C9FAAAA8CD9CA8CCBFF9BAECAEFDCCBFD98ADACAABADBED7AA6CBF98CA85AFAC887D9
col36:   6A9B6B7A7BCB97B8779B9ABABECC889BCC7BECCC8ECFAFB99BFDFCCBBC6DDA98BACA5CAA99986889
col37:   97A86B987CBDC79BE7BAA8AC9DCDAB9FDBCBDBECACB7CEFEBC9EABFCEEAEACACCCBBEDF9AD9C9959
col38:   67CBCBAAEAAAA9EDCA789ACEDCCCBDBCCDFCCCFDBCCDBEABECF9BECFDDEDCCBB99CBBABB9BEDAAC6
col39:   9B867CACB8BBBCA789B7AAC8DBC9A7FBBDCB9CE8ABCCEDFADCAACBBBF79CADCB8BA8A688BA9ADBCD
col40:   9A9BACC889AF7CBBAB8A7EB7BCAABAE9BCDBEFCDDBADCBCBFFBACEBBBEBCCF9F79EDABABABADBCB4
col41:   6AB8BAE88C99B9ABE9DD8EABBD9BEFEDFCFB9CCFFC9BBBFCFCBBFDBF8E7CFCFAA9BDB9BCA5BCA9AA
col42:   96B699ACD9BB99D88B78BBBCFDBD8E9AACDBEDCCCC8CCBFFACBBFBBACBEAE9BBED6CE6BAA5A9A7B8
col43:   A979B6DDE9BCEADBBBDDACC8F9C9EBEEC39CFCBDEB8FB9DFFEEFBDE9FCDDFBF9EAA8CD87767C9889
col44:   AA99AA9B4B8BB6B8985BF9D8FEEE9BCCCB9DFABFBDDBFCCEDEFD9DCCFBFDDBBABA9B99B8878B8ABF
col45:   88CAAB7A9DB99AA8974EBEA8ABCCDAEDCCDECCF9CFFBFEBDCCBEE9BCEAFF999ABC7BBCCAE89A6AC6
col46:   9AB8AFB9CB99BCCBBA8AACA9BDBCCCFFB9BBFDDDEBCC9EA8BDAEDDABBCA9DBF9FC78CD9B9B9AAAC9
col47:   C69BCB86ADADCBBDBDB9A9FAAC8DDEFC8EDEBCCF9CBCEBBCCDDFDFDCFB9DBCBB8EEB8B9E89CBCBA6
col48:   AD9B9EBCABADDD4BCBAAABABABCAFCAF7B77DCEBFFBDCD99FC8BAEC9ABDCBC9BFDACB9AB8BABDA75
col49:   C996799A9B9C8FBCBCDACABDEE8ABDAFDBDDCFACCAADCECAB8EEFBDDB99D3CAC8DDDCBBCCBABADB6
col50:   BEB89A69CBBBBBAE9B67BFACFDCBDDEBEFADEFCADCE9FDEBFDEDCEEEDACAFBBFAA8CAB78EC79AA67
col51:   879B8867D9365A789697B9ABE5999C989FC7CF9BB99FAECC7DCBAA77BBAB8FD7E4E98676A9688CA6
ROC:     BPix_BpO_SEC1_LYR4_LDR2F_MOD4_ROC12
col00:   57A3A54884A46485233988A86A5193748885847B7827569879382A2C88877A574C56A45923445144
col01:   966A52886878BC87886787417B48A89B66DCAA77AC79EA7347B887C6774AB78C78C5C6AB25845764
col02:   7A838355387671454A86657575687C648A889799B49C875867CA68B977D859662995373749996793
col03:   C88656656855775B655377A66A24AAB8AAA9D6B895896AA58BB8BA6A8D66C4AB456864854A774A43
col04:   B75BA7A3A569B76A48884347AB97873C757389897968659EBB77B999C67624A966136A3B657A2589
col05:   76442A7576364797862A37AB658AC8B8456A8B84974859AA98B7C998CB9B777BA869668567456C47
col06:   63495477464898333B6A266986877678A985B6A64887BDABAABD57D96C6569B79736768A75866834
col07:   5184883B8A94666388C79797B67C7A8676C88A769B4B67C699B597F6A578B78BACB6889776B5C6A4
col08:   3839AA954987451974B98898B69562A7C6777883A88AD78B6B767C878CEA96A854B7859195644262
col09:   696394578487B585C9A5A883389877786EB99ABC7A96B98598988B6AABA988954676B83765E6C4C4
col10:   658B7A576439A88665B68575747896A97AAD89987A8B68776B7DB68AA7755C965745665884994684
col11:   247595347B4798856797B92A958A37B6AB97889CE96779BBBE7DC8465A876795345A877771724557
col12:   397226A9873756A66677B79896447888AA88A2B85899868359B765AB5A86C866879A877476554486
col13:   7B4559A9879465F793689463C8A8A8886C8E8A959C66D9BA6688C68A6C794A78B96B93869C67B567
col14:   867D79456754A5E478657B7487788495CC7C9696AD75ACB6798A9E6AA55566A48745555666578A45
col15:   B37686995B729839B5676689C3A9947A5834868ACFC86AC9BAB8C797BB3B8444B87C95765B678887
col16:   75555A35B75979679BD568B9968A5A774678A76597AD6A8CAB6C58789B9D7B474B66968867558C6A
col17:   54477474666A9757647788B9B958B6CA48A9B7A79B7754567A7516E9CA26E66758A89A834A777792
col18:   6375A5796647A8878874895355E7796DA9749B8B656CD5968B6B7998868785769CA6472A79B77384
col19:   4A668B7936696739798987A7899A78A9A87A8BA9D55CA5BAA9AB979CB5D8A779A5B9A877A97B6868
col20:   58969486BB2765887698A88A669BBA5AAA6A999C6761856A888B97D67A77E97A5A1C318497576586
col21:   A795A8988794C8BB87E9969B8A79A5AAC6997B988C89B6788BCA5AD59A496BBCA85D77A69897B674
col22:   54C7459788768A57A89AA7679B76AABB5A68DCA9983A66468764697659938766599A3C77964535A1
col23:   6268745699972A887A8A757757CBC8A6A8B6777CB8785CAABB978778996B9B93EA8B588685C59685
col24:   78A87B496686868A77677859669A65D87987D8967C595877AAA8C9B8A7BB74C8837567B9988A6175
col25:   B637466786C6A595A7BD99768973CAA69B8BCEA8C9B868B89B9DBB8C689EA9C9A737946A97B6AC99
col26:   CB9A699B4A89AC7C7A68AA7C86DAE8DA579A798877B9EAC8B77B79B97E9A69689AA987DDD7798777
col27:   878BB5A69986CB6586CCA9DD89D9BD899A7BCBADCD77BAC399B8CA68CCBAFBD9B767897A965AAC8A
col28:   86A4CA73AAAA677CABAA9C6BD8A688BD99BAE9CDA9CACEBB8EEB7FACBAD9AD89AD88B889CA5D9C9A
col29:   77B468AAA78BE6D9B9B9D89BCBEA977ED8DD5B9998BCDA78E97E866A9AEF9DB786CABBBA97AC3A8B
col30:   8B77B68A76C8B865C8A9C6FADC9878CA9DB9CBABAED9C8CADBCEBA7BBDCD798DA7AAF88A4AB9C3B6
col31:   7883AB8994AB848CCA99A9BDABEB97D9BF8CFA9EAABAF899F83CDDDCA9FABCE9E9A9CD88DCA94BA9
col32:   6958DAA7C79B8A9DC9BABAE9BABEC9FFA8C899E8BDBDAB9F9BDCEDCBB5A89EA58FEBCDC5A889C678
col33:   758989D4BA9D8A99D84DB9A6AAC99EECBDBACBA8DBDA9BED5A95DEAEDCDCCCADCBACC8BB98F9EA8C
col34:   887B49CCC569B5B9ABCBD89CACD9C8D8C9DBA9CB8B7BBBDECDA87CA9AD7DABB9D9BBACAC9989A7C6
col35:   66A8BB9EA68CE7F7B6ABCBBACCBDD8ACDCDACCA5DC8BC9E8BBCAC9CBFAACFFBBBCFDACDCD9AC9975
col36:   859B78B799BAEAA8DDD8F7BCDD6F9B9ADBDDB7DCAEADAEEE9CDDCCDEBADECC8EBDAAE6BA579D8A8A
col37:   A78C9ABADDA98DBDDCDDC987788A7AECBEFECEACEC9CFBDCAACBFCADBCD6A9EDA6EBAAAB998BA8DB
col38:   899ADA69BEBBFC9CCC77A9D8BC9EFDCFCFECCDCDACCFBBACCDCDDEDDBBFD9C6A89ABB988A995ADAB
col39:   52897DACAABA8BEDDEAAE9BBBBBECCDCC9CBBAC9BCC9EEBECA9CFACDFEDBA98BEFC9AE998CAD7CCC
col40:   39B6B7C8CA86B4CBAAA7EBA7BABCCCB7BBEDDD6C9DDFDAB7EBBDA8BBCCFBDECABA9BD8C9A7BB9ABD
col41:   87697A93CCB6EBC98A99AAFDDAC8F9CBE8BEEC8CBCFFEDCEEA979BD6DCCBF89FCB6BFBCDE98A9C99
col42:   C9B98ADEA9D9D7BCCBB9BDAEDDCCBBAD6BBADDAA8CDEACCABE8BD9FABEFEFB8CC9EBABE5BCDF95A7
col43:   AAB686AB98BBEB98BD7BB9B5FACDCBB9FBC8BBCACAFDAE9CB999DAECB9B899D8B7E5CB79BCB9E9B5
col44:   8BA699BA9C79EDB698D9BC5A7DBAADFBFCDDDC6CAABCB6BCCB6C8BBEAC9EDCAEAB9788DFEA6AA7B5
col45:   76C8A5AB598DBECDEA87EFDD8CDBCF9FBBABCDCDCBCAEE6BDACBFEDFDBCFECEECAEAC7BAC9D96BAB
col46:   9DB97AA79899ECB67C86ABD9BDCB8A89A99F9BACEEDDBADDEFDEEDBFFF9BDFACA9CB9BD96DBA6BDC
col47:   A8A9AC999CCA9A86E99CD8B9F7DCDBFEA9DFCCDD9DBFEFBDBBCDBEBBADCAA7CDBBAF9BBA88BA59E7
col48:   B88ABD94ABE99A4C8BCFBBBCCE86BBEAEBBB799BD9DCB9CBF9C7CCBBD7C7FDBA8FAABC8CA96BBB76
col49:   7B6AAADBAA7EB9B7DCAC8CBCAD9C96B9BCDF8AADFFEDDAF88ADDC7ACDABCAECCABDA8EBDC6DAAEBB
col50:   CD9EBAA9BA775BD87CB7C6B89DC8FEAC7CDCC9FCEDFFFD9DBDCFAEC9C8A799DAECD9DB8AC8AACEAB
col51:   AA9E4786CA68858A69A86A8A97AAB9AAB9A98B87A9AA9AB76C689BDAD9DBBCACCCD9A4A788D95A97
ROC:     BPix_BpO_SEC1_LYR4_LDR2F_MOD4_ROC13
col00:   6276A57599466586685465E989666B78BA6BE79879B58C6AB6CBA55B738A897A75987C5A2B452154
col01:   58B8283786597658BB5D67898B87A8C57CAAC9BD9A699DCAC8968C8B1D6578B58997B5474BA77244
col02:   89476C99C64A9B3288669799C97A89946AC9D9AB996AB8F88CA99AA9A77B686896879BB95B475A97
col03:   5A665589677AAA7988B5B6A789B9EACAA899CBDCACE87CEA79AC69A6D778A9AC97C6988A7B8B8838
col04:   487A5696944989885AA7C8B79A97ABAB8C9CEC988A9DA68A987C97A89CAA79864A66697A77766935
col05:   8B86558694A87B9A7A7AB89C9C687998989AE8D9C99889AB9DEC89BBAD7AA9AAB58B6A73A74C3397
col06:   B47385E659898689B85479779899BB9799BA799BC7B9B8A9BB6BCB69769AA58AAD8BB758B9855574
col07:   65A977668734A4A7B7ACB9587CA6B8AAAAAEBDCAECC39EAB58BC9A74DB8B889996A79A986B9967A9
col08:   85C5A67751CA829E65395A7A8BBA89FABBBBAAA7AFCD957AB6BBA4BCA59ABACCAA9C9953A655A388
col09:   7976A899E86C77865D98ABA9B8D5A5A7B8A9986A77ABCD64CB7D9CAD8BC8CA989696688897A7BA56
col10:   583B5AB359B46B5A978898966BA9B899879A96ADBAD9BBB7AD98BBCB8B98A7878A497851AA786A55
col11:   85A4777AA38AC877B6978779CA497C57B9977A56898CAB667A798AA587B78449986B685B69AC6A56
col12:   66A7556686758D654C85A6CB5C589B8B78B97B898C7799E9E9997A9889AD8795778677B9AA79B799
col13:   35B6A6B85B48487A68979B9EA88BA899D884D8CECDD9A9A9E99B8BBEBA5D785885E398478677699A
col14:   5368D276487A695AB9A5899AAA8CDABA85B5C4C79997AE8EABAA99976CAB8A97996983A8964AAA97
col15:   7768978566293AD77B8787C5BB79C9AA47696ACB97A789A8DBC947D88AA267BBB898978C699B8664
col16:   96968A76839A5896D7A776D9AA8A6BCCA38D68CAA78CC9A8898DDDA68A8BB799A575978997676B83
col17:   7B7A74A7967A38B569A7A899A87877689EA884CBDD9C8CC8BC889AAABF77CBA6889564A849667458
col18:   8749649878679938A66889B76DBAB979CEDC677CABCBCFC9A86E9889CA79DDC87D68BAAA9B786789
col19:   666DA4A4644ABA887987AF9BAB8C8A689AD79ABA8CC9D69BAE8AAB999C9BE699BB6A9579B7A87689
col20:   797AABA69E2859778398BA8D8AC9897CABAAA9AA98AC8BC67BCFB69799BBC9A98586B74789A77773
col21:   859A68BA7CC699AAC79AB9DA76B99E8AB98BA9D887CBAFBC9A7CB79AABDAE98599C8CB9864777479
col22:   765988959857C7CAA68B3D8997CDBFA99B7BCC9AB8ACC8A9ABA8AB859EBA9878A99CA59AC67B3687
col23:   B54667A7A6777B9ABA9C8BA888B97BC8CA995FA7B76AC9A7DB1BB9DDBE69663887BA8AA55A88B854
col24:   B49376A858689CF7D867AB9A7BA9BCA7DA67A7999B8A89ADAA7A9BA82BAB5C96497BA878B6886586
col25:   5A5B8688A7679B58598DA9CD77AB3ADB999ACBBDFBC9CBAB89C77BB87885B976689E79696287A877
col26:   B55B77899986ABC897D99E6ACEA46DBD89CCFAABD9A7BE7BC99ADCEABAAFF44B9C935999B9AD7A98
col27:   3786C8AA86AB9DAB999CA9A887BABE989ACB8ECFADDEA8F9CB58EEDC8BBBAEB989A88AF7B986BA98
col28:   4A48A7AABB676D7BA679AC9AD978AACBFCBBDDDEC88CCDDCC8BA7CCB7989DCAEB8766B5C9AC97A8B
col29:   776A5A93A5C865A98D6ABB9C9E9AABBD9FEC8999BDA9BCACBAC9BDBAAD9A746A79CCCBB87987B8AB
col30:   88A9AAA79999CA98AACBDCABC7F79DB6BEA8DDBCDABAC9DA9BBB9C9BD87998AB8775AAAD4D7BB579
col31:   99C689DB9C58AAAB9FBAC98DDBEABDC88D6BC78EDCCADC8B9D9B8AAEECBDF88CEAAB9C878B87FB5D
col32:   779BA7849AEA9CB79BBEBEC9B7AAEB99BBDFE8BABBCAEF89B988CAAE8DBCCAA89BE8ACA9A9499B8A
col33:   9B9AA6BAB9969EABC9CDA9CEAFDD9DBACDA9B9CBBCB9C9CABBBCAABB9CEBCBBCAC9C798E9C567889
col34:   788ABA9CA5BB89A7AAE8BDB9AA89CAACAB9CCCBCA98CCA9C8AD95BBBDDC79EFCAFB7B9B8BBBB989C
col35:   967A678998FCD9AACBA8F7ACCE889BBB9EBE7EC8E9BA8CEBCAEAB9C9BAAAC8BB5C6AC8BC9D8785B3
col36:   B8AAA65ED7B69DAA7899898CDADFABF9AC9EBDECDCBBDCC7DC8DBD8A7D789CACA6F8898CC7B66A9E
col37:   D7BA9BAAAB9E67C5CA99AD9DEC9FB9ACB8BCECCFCACCACECE96DBBFB7CCDBE998D6BCACA5DE9B88A
col38:   B9AAABAAA9C8C889CBAC9A98F5ECAFD9DDCEBD9CA7CCD9DAED7BDA8AFA8CDB9DBBABDC8EC899CA52
col39:   7B8A468CA75C9E69ACED68DAEECDFBD7DAABAADAFDC89CCBEFCEECFAD9B83CABFCABAADB889BB887
col40:   88B698F9BC779CE6C7BC8BDAA78BE9AC9CACCD9DB9CDAABE9ACCCECFCDD7BAA9CB8CDAD9A8988987
col41:   C3889AAADE7969EFCCAAACB989C9BEADCBBDCDC9BE9EE84AFD8A7989CBCCB9BD85B9CCAFE99B8A97
col42:   EBE49666A4B6BC9ECB4B67B8CCAEF7DEDD8B9EAFBBBCCAABD9CA9D9ECBCB6AB9DBACEEB87BB7C9A5
col43:   8686796787A8AA88AAB9ADCCDAFAFACBBCFBFA79ABDABFCCADCB9DD8BA7BB9DCCFCB87AB8B5AA969
col44:   8B8C9B98A96BAB68BAC5ADCDCBAF7BBBA98CDBEBD8EB9BB99EDC99BA9FBDCC8EAA9B76AAAD8A9C57
col45:   66B7B9ACADA7B8B8B8AC7DA99A9DCCBAABABE78BB9FFBDDBBDDDAADFDFA4D8AB9EB898A7B89DA8C6
col46:   59A98B8B68BC8DBCA988EBBFCAADECA8B7CA7BB8D9BBEA6CF877BCD87EEBB8AB9CCD6E79999988AE
col47:   68C8AD79DD7CEE9B97ECBA9899CFCCFC9AAB8ECCAE99EAEEDCFDEF9B9BB989EAABAACBDB688B5997
col48:   678C787B7B9C8EBA7D8DB9AEACDCFBDA8ECBAAACE9CECA4BBC7EAC78BC9A99BAC9DDAE883D3AAB97
col49:   89676ADC9C8A7A4AEFF88FEDBB8BCC9DBABBFB8CB7ED3CA9C89C9CBA799CC8DA8ABBDC9938A76887
col50:   999CA9ADA7FBAC9CCD7D9CCCB98D9AA9FB7AC99BF998D9C8CC89DDCFB9AAA9A869DBBAB5BD778A98
col51:   8896B5B958B76C47AC6A79BAACA8CAAA8B89A69889CB2A8C86789946AA888684D6688867AB644473
ROC:     BPix_BpO_SEC1_LYR4_LDR2F_MOD4_ROC14
col00:   5356489C65756579568B9788BA59D3675385C6C8649B7997C9C56648D955A97A7889383537535144
col01:   466B75697453647AAD8CBCAC989B696ACB7DBBC9DA8989A7C97885A9889889BA79894AA66C628695
col02:   859569595A7664A7A29489B84A9D794DC8C499A88AB7D985ADD74982857C8C65673945619572361A
col03:   7487996956866A9F6CB9748C8A5DB88BC899B97778C5AD78A7983CA6986A8AB6676B974B57C6A946
col04:   178785726795A89B9AAC9CCABA98BA9C786956AA977AA918B69BA6B759A9A6C5A6BAC517875295A3
col05:   86761AA895AB5874598BAA88A98A79A8B9A89D89AAB9C888B988BC8CB8B8B97CB69768593829B729
col06:   677558577569578A987B5BB768BAACE7F87863DAC58759B6B7C9BA7897668D9757AB466972713651
col07:   855B8A9BA89557A68B7CDB98889ADCAB9CBBAADC8DB8ADACAC99CA77AB8568A7B7A4A9798B74D7C6
col08:   A655757A6C768978A95DD7ABA7649BBA8779E978B778BAE98888988A9A71B88A97B8A74A73939834
col09:   88589A97868665AB6B9579A5D9D96DB797877A7A7A8C9C8B88989AABCE9E7799886A8C4986B54584
col10:   868746C77976598634A9DB864DC8A98BA98B9CA87A887A99AAACA5A85859865B84AA895668943965
col11:   A7654AD67A9698CAA988CAFA9EAA8A9CCABB6DA59A87AABA9BBDA695A8A987C995A869B9679998A4
col12:   5AA4997EC898B498A9987BB67B5A58B9A878C8A6769A9C4CCEA7A856BC68B7957397686361857648
col13:   6616487C8C9DE8A8D978ADACC66B6BA57B97BA7A8AAA79EA7C79A6A945B789866B6AB8889C75ABA5
col14:   7886AA67876BB987599BA7FABBABBBB9B99AAC79BEBBB9E9A7CD9B8A7BDDBA85988A99B85B99AD68
col15:   71876CA7A67A979CA589AA9878BB87D7C269C528AD9989AAB879CC6688B3AD7C8637468976664578
col16:   868369A6975478877AAC957BAC8988DBAABBBEB997989C7BAB7B9B99A8C7A9457885BB8456661955
col17:   9497B8A76B7A77774BA88B6D69DB999A7D769BEBBA4999ABB8FA59395D887867A4488769C8658858
col18:   52C36AA9667769A769C75987A7B787B6C89B7B6A8C7CCA6AC978B9B9BBBAEA6B4577596929A67775
col19:   478B778E9DB8B98998CB5AC695BAA95DBBC888CB7ABBE98C7998BCBEB8AA36A7AA983B9887769985
col20:   BC9A59A56AB784B779CC96AAD8B7AB7BCC6DBC96A599A695AD87969B9CE7A869A76554846C83A899
col21:   847B6959964A86B98CCACA898BD9DB7B6CD86BD99D68C69D8AAC989597CCC8D678A9576466A87375
col22:   16A593748688BA7A89B9AB59CAA48DA5C77BCC7BACFA769C89DCBA9AAB99C8648967774955876596
col23:   38767A89B6A668977E9889A7A7CBBEB4DCAB99C7F98776C9A8C9B9A797778B99BA746B57A631BA57
col24:   B8A5696897AA6798A87AC6DB673CBCC79AAD97A7A88CBE96D88B6986C987997A899B879674A87A47
col25:   BC7794895849B7ABAABB8A8CBCCC6C9CBAB8CDECEB977B7B7A88ADB758BC879A78B76A84C8B4D794
col26:   B6BEBC6B88AABBD8BA69BACB8B7BA9E58BD8CA7CD569EBBAA98CC67AA7B9A7777B46A87B4AA7B835
col27:   7A69AB4B4A6BBE6A7698698BDEBD9AA9C8B8BABFAA8B5CACDC6BADBCBB79B8C989BA798A6578C794
col28:   A898BABCD97CCF98D767A9CCCEEDBBBBAACACDCBABDDD9EFEFB9AB9BBFAA77A7D88B57B7ADB68B98
col29:   5B3799AA55CB498AAEBA9C9EFCDACCDEEA9BD8BBCFBABDBBCA4AB5A9C9BCEB78B8BAB86799ADC678
col30:   A9677E99DA696CBA6A9BA47ACAADB9EE8AADAC9E6AE9BCBBB6F79BBBDBCC7B9D7989DBA9B7A8697D
col31:   BB9CA8CDA9CECBBBCCB8CDFDCBB7EDDBF9AABDBDC6C8ABB7BB898DDCBA7CE9E5D9A7BA6D89A697A7
col32:   C9B9998CBB9AFBAB9B98D9BCBAFD9EC989BF98EDAF9AED7CEBAABCDB9CDAB3ACC99BBCAAA79B7C66
col33:   A6ABCA9B9CCACDA76EDDCBBACBECEFDD9BCBDCB6CEFCBBCCCCCBAABACAABBA8CAC79ADBBB8876D9A
col34:   DCB8C78BCBBD9BBD9A9ADCAE9DEB9CBA9EFBBEDBADCBAFAADDEECD9DA8787CFDD996B7AADD5D7AE2
col35:   DAAABB89B8CBBCBBE5BBCDA9B8EEEABDCABDAFCFA9CCAD7BACFCBDDCDACABD9C9C86A9DB97AAB887
col36:   95978A8B7BCC6CCBC9AFCCAACCABDACDFDBDCACABBEBD8B7D9BBEFADA9FFDD98AA99489869BB9EA9
col37:   ACC8D7A59E88CDDACBAFCCDCDBBCB8BBACBFDCCEDCCBDCAECB9ADFDCBC9FBCC79AACDA6E7998B99E
col38:   7D9BAABCDCA7DB9AEA9BCD8AB8A9BBDBDAFCDFDEEA6A9AE9ABFFDBAD9DD8EC8DCB89AE7E89BABBA9
col39:   99A885EACB7BBB9979CAC8BCAE97DCBDBBB8BFFBAEACCDCDCFADDACCDCD9D67EABBAC7BC8768C9C8
col40:   7AAA8ECCA7BBFAADBB78AABB8C8EABAAADEADAA8DBC9FEBBCC89BBBBAED7C8CEB84BAAB6A787CABB
col41:   C9DCAA9AD6ADBECBADADBBDDBFDCFDAEC9FF8ECCFCABDDFACBABAABFCD59DAFA7C6EDCCD9CEAAAB8
col42:   AD96CA9CBBCAAAFBBBAF7F9E9ABCABCC7BFDCEDABEBBAC7CBC998ACCBECDBAA9C98A7CBBA9B9ABBA
col43:   77EE9BD9ECCEA99BCBCDCEDFDEC9DCDAEEBCBED9BDFFEBDEEC9EBBDBDEDCBCACDFBFFBADBBBB7CCB
col44:   A7BDBAADE9B8CB8898CEEDDDDFBBD8BFBDBDE98D9FBEAEACFBCBBFDFBFBCEABBAD8B9AA98CBDCAA5
col45:   CAAB8C8CA9EAC9F8CC79BCBD89EECFBCDA9ADCEA6EBCEBDDBDEDBDCFFDBB9A7CAC9DBCA8BEA99778
col46:   ACA88999AC99AB7DBAE8AAB9BEFD8FDBDCDBDCBDDAAF9CDBCBEEADDBAECFD8C8DEABC9ABBB86BEC6
col47:   999EDA9D8B4F9FCCB8BDCDCEFBCBEDBC9BBCBADFCEE9BF8DCCDE9FCDDEEBDBCFD8EBFD599585EEE8
col48:   A8EA9AB8CB79BB8CBBCB99FEB9F9DA7CEDDFEBDDCEBACDBFECD9EBBDAB8FECBCA9CBB9D99BABDC88
col49:   CCDD76AC7E7BCA4D5ACE9FEC9EAFEFBDFDDAFEEEBEF6DEDAEFB96BEBBBDA9CAE99B9CFA8B98EBE9B
col50:   BBAB7BA7FBBB89CC8CDD8FE9E8ADDBFDACADCCEDACBABDCDACC89DB9CC879CFFABFDC997A9C5EB95
col51:   974978786A9B79AACAB9B9DBC84D69B9C89EC9779AAEABC6F977A79899AAA969CC76978878EA5A67
ROC:     BPix_BpO_SEC1_LYR4_LDR2F_MOD4_ROC15
col00:   A5747A78A692936A89399756D778889AB764BC87B6B5679B7A5BAB959A699B8B848978A5A4456269
col01:   5A965A87658C98B956A868A8C3BA9CC5A4A9CBCB95888C95AB97B8B9A97C4887EA876489A68BB853
col02:   484379A798A8944A6898868872AD98BAA9AADBAAA999BBA8E26B688C8793A987878B896765B99746
col03:   455AAA485BA7A7986658D98BC975B98C9F97CB6777997A8B7B94F59A97DC35A8A9AE7583DA8AA999
col04:   77947A285C7888B7897B548B89A88ABAAA984A9A89A8A6978CC898CA888889C97688547798987DD7
col05:   849547B85A4BB9875896399897BB6DA7AA9BB8BB9C8C88AAB79B9A8AC7A6A9A8AC888A887678A899
col06:   948644A4B966A7578C8686799E88A8ACA9B9786BC8D7799A7388AA9B8889686A7A586587C9588755
col07:   73873AC68A6BC9B879BC9989987A86B97BAA9B78B9667A87B98898A8869799C7F9869B8699A7AA67
col08:   8579538657A858876798C99A8BA7BC8C869A77AC9A877B8AB978B9BAAA5A793767B6D869C5595743
col09:   7755967977A9ABA88777DDA5989D98BCCC7CDAAC6DD9EA8EDDADC9CAACC9A8A8977CB2C969969874
col10:   976846BC8B96668B2756768CBF6697AB98A786ABA977B7BDA89B968B4A838899483B778A878CD543
col11:   797585B6697BB5A9A9B8BAA9A9C9CB77CCCB938697C8BF989E859793A9DC9DB8739ABA97A76A8475
col12:   596B6494766BAA9A773B398C99BEBA679ABB8B889B8A9A8A7A79A89A86EB77482856988B878AA44A
col13:   7B9B873779C5895863769AB8BC98AA79B8C688B5ED9A9969C8B58888768CACD6A89F867AB6774671
col14:   44A64A459B78599B86C679689CAAA8A88BAA98A7999A8CE7AABA86C79A667586B6866589A5747569
col15:   6879956BAE38E875D6BC6DA84BD9DAB5BBA987E8ABDC85BCDC499AC8DAE8B97ACA984BB455859B94
col16:   8BA1674789C7997AD59A369AC9D9C9877D99E85DC9799B79B5B8CDFC8BAC96884A8868CA96762B94
col17:   595A487A7689AB94A6965A9B487BE8AB9F8668CAC9B888986C9A66C89488A88997A9977BA97D5667
col18:   A59763698668999A99CB986C989A8B6AE9A8CA9BAA8C38B7958BA6B7AA85CB696A89A67846853963
col19:   A17C4CC74DB852B86C6B86AB6B9B59C9CB8A7A9CABCACACAAAA9A8AA899C966949A79B82A988A688
col20:   48289A665489CAAA87897BC669E2AA99875AB9DC9898AC69769A6B6AC9657DA6F596496B44797762
col21:   CA9859765BA6AB65A8AA4C99A678B98DEABB89C87BC59ECA8699997A48DCB9AAB6A77C74A4CA66A6
col22:   667985784AAA898778689C8ABA9A9AB6C995A69ABAA97CAB4A869ABA8BAAA4DB569C986B646789C7
col23:   75CB6388599CA78ACACD7C88A79999ADDBA9B598798BA9A988CAA868A8BABC8B8478868898319677
col24:   75B887A8B76696CE97668D58A9AA78979D99AB83AAC868A7A9AC97A7C8CCAB895B998C5476A88778
col25:   6679B8C4859CB96A6998BEB968CECCB9CC7B8CE88B8BB97757885B987A84C75AB9C795A9D6A9B747
col26:   CA7A587949ECC9A89D9DB5A7DCCBEB7BBA97B7AB9C9AABCB99BA8DD5B798ABCCA7E899B97879B6A7
col27:   9977977B798E7BCBDD9AA9CCBA9ADD8EA8CA99DD8CADA9B49BCA7ABFBECCC7CAAB98A89AB59AB797
col28:   789A69AA69CBEBA7A7BC89BBCB7CC899ECCC9DF796C7D99B8978BB8AAAA9A7C6DC8FA9B86A78A56C
col29:   9AA8C99D9AA8B89999ACCBC6AA8AFCA7B8B5CCB8DE9AA8AB8AA77ADABD7BB9BB97465DCA66779A94
col30:   9D99D79C78CAA8AB898B79DC8BBC7BAC89EFBCCBEBD9D9B8BA8ADC8BCD86AAB7999C9ABC8A87AA58
col31:   CC2587CB79C6FABDF9EB9CAECDDCDD97DBCBCADBFBCA8C999BB7CFAE8E9998AAC97A78A9ED979A54
col32:   A8C99678DDBA93F9CBBAC8A9AAEDBAB8BEBAEA9E9D8D5B8BCBDCD9BD9ECB8FDA98ACF9A7D85A98BC
col33:   78EABB7CBD96AB8BCADB9BCDC9CDBD8BA9CE7ED9EFABCBBB7FCB9B7A7C7BDBCBA9DB8BCB986BF98B
col34:   7BA9C66BC9AAA9BEAACD8C9C9F9AB7BCFBBCAA986ACDA99AC87ECAADBBC9A9CA998DABAB89BBB659
col35:   DC9AD6BDCCECEB87CAA6CEB9DDCCE99CC8CAA99EB6E8AA87D6DCFACCACBCB6DBBAAA8859BB6AD8C7
col36:   984898DBAFAC898DCADDDCDD8F9B78AA7E8DCCBCDDDACFB9BADE6F6C9BCCEAAAC9BA98D6B978AC98
col37:   997ABB9E3B78C89AEC9CABFBA3DBAD89BBAC9FDDDD7B9ECAB99BCADE8C7ABD888DBBBBBAA8D89C9B
col38:   A7A99A998E999D8B99ADBAACBECADBDBD9BDCD7ECBAF9BBDBBABBCBFCBEE9CC2AAA7DAC98B788BD8
col39:   B9B65CA7ACCBA89DCB9BDCFB889C8ECBFDA8AC8CDE9A9E8EBE8CF5BDDFBFCAC8DAB8A7A9BA48EB43
col40:   AA9D68CAADAED7DCF8CDA8D9ABAAEAEDCDECCACCA89DBBACACA9ADBDAFBEBCA7BEB89888988B7979
col41:   CCBB7A8C8CFCAC8CBBF8DAFCDBEEEAEDDCCCBCBBAAE9AADFDBCADDBC9ABCCCDACABCCB4B782B95C6
col42:   B8EBDAB9DAC9DAA9BCAB7FCEFECC88BBBEAEDBCACFFB97DFBA6CABBCDE67897979B7BB9AACA687C8
col43:   E7AF6DCA8B89DBA7DBAE99BE9BA7CFB9FEEEBEABEBEAEB8DDACBA96ADC7D8BCCCB9ED9BCB8CB7A89
col44:   9ABB9A99D9A9A9B99CE8BFEFBCDDEFBEC8DCBBCCEBB8AEBC89CD8AADCAE6AC7ADB5A99998A988A95
col45:   CAEA769EBEBDA98EBD59DF8DAC9DBCDCBBAD7A999CAD7D59B99CCEABBCCEA7D78DA666C9AF9B99D8
col46:   E7ED9FD898EECE89CB9FE98CCEB98CF78BFCBA9AC8AECA79ED9CACACDCADA8ADBBBCB75B9BDBB6C8
col47:   D9BCB9CAAA9ECED9BC7ACDC9BDDB9B7DFBA9ABACFCBCDFDC9FB8EBBEDDD7C689BBAAAB997B98D877
col48:   CBDCBB9ADCABBD7B99BEBB7FABDBBF8DAF9ABD9D79A9EBFA698B9CADBCBD989AAA5CA9BBB8AA98B3
col49:   CDAFBA99D9F55E6ABAA9BADD9DAC9B9CEDAD9FBA9CD8D9D69CBA999D9C7CA8DCCE6ADD6BD7AB5BA7
col50:   B4BAEBE7B9DD9CAA877AA9BCFB9B9ADABC9DE7B7EAF9BFCAB9CCFAC9A6ADE69B8DA6BBA9EC84AB98
col51:   9E6CA77BD978C77499DD78A489BB7B7A95BE9CCCB7BB6CCC87C98466A84FD59AA999168697878A63
