ROC:	 BPix_BmO_SEC4_LYR4_LDR15F_MOD2_ROC0
col00:   6774286517333268355544686656785a87577d66612378947599b646591a778565a8574746417213
col01:   9a68888967ca4c8794475a85668a77a9b97947a7788797875a3da8da99769577897796769434535a
col02:   75341683867a6598698979968a68898599797798874889b79bca6a969558aa566866644543786673
col03:   5446948235669479686499585756579b8b998cc8a57777b7a78c7dd5aaa56d77b9d7888768b67632
col04:   c97373653737255638794b868ba8753ab6a9a9a53687767ba7b87aa7759689776763775486747957
col05:   44294a576275386997aac8987887a9c98589894cbbaa8ab799cb69975787859576658644779a4315
col06:   254695599152665786b96a4458b98593899a8c9b26499ab2bb89a897a879ab536523564272431636
col07:   44ac978824a5917b968678bd89a86b37787998b97ca8d8685ca78ab7b8859a618aaa668795854558
col08:   484474597783a7938739a33363c66d89ba795799c84797ba58c65778b9cc8888877663787577a757
col09:   9576543979abc36a9589a5aa9a799c87dac87bd8869e866ea59c987fa8ba6898895c745794936782
col10:   3733771636889269bbb6b646a6aa998b56b6699a8965987ca9a6b677854966948886b86675834711
col11:   7b853a8c18a66665b97b96b99939b448b896c97aa79c79a9a89a99aa886b9479a739689767374637
col12:   363641572a57995698767966a7474567b792d57897bb9969979adab89467a4884a46383693a65a62
col13:   7326699d687736a16be46dbbd7676b8699868a56c65ba9c7d9abbb786479a8677a5365b4b662a761
col14:   8964513691698887b9a86c8aa989bb5a998776a468898959a87c838a77b6b54a7879a868a6457752
col15:   17675a953158658aa999aa857d7abaa8c8988fa887a8679c76a877d6aa256986c796b96a69586664
col16:   c5536687588767477a4687a675a64899a78aa7ab477a85ca5cb178c89d639f666bc6b8a878479447
col17:   4565895177797a6966b97a8ec789b89baaaa9a7b9598aaa579a977daab5b2a6a4577b68697561697
col18:   9443669a746743557b7776ba67637687887bca797ba79e47576668ba9a986569776387447a555269
col19:   9553534495885a5868b9c89b85e69acb96d9b8a99776a8775c8b869b8d27937b7596887884aa698a
col20:   9535648618a347956a6589588496ca48a9bb9a9a868685ada8a989886bb846767a47553732598255
col21:   92978897757959899a997a8957538877b7ab79858a98777772daacb5977c67a5995b48768c664542
col22:   7946528684a5355a395b846eab9c885c64abbc987a5848856986697746ad769755b54657979a4814
col23:   37463694647ba69947bb2b9686448b8abac888b9a93a57b96984aa9668879567296b878976556765
col24:   58194755a62859b5843884b8a478a758c797baabba8848a6a6c35a769578687374498459859457a6
col25:   8876834458d87679a98587c9bc3a98aafa899bd8a98c95a5e8a899a78a88b7aa7c979797ab6834c3
col26:   a77ba986a99977b6aaa86ada75a7599a9aceb6a9a6dcaaa778ab6acb99ca573a86a4b85c7b7a5867
col27:   b8995778b6ba893bb9a598898bcafa98aa9ae7acd85b9bb59bdadbaabb9ab886786c79a9474a4896
col28:   8b5998676ab969cab8969cca689dcc6db99e898998778c5dabaa9a99797baa8588ab98b7a7ba9897
col29:   a86a8dc5a7a6ac87e88ada89eb8fbaaabe9a8ce9cdbbacbb8a9d8886b98a4bca8a99d98664aa69a7
col30:   659859365e767779883a9aec4baa97e869bbb9bbaa9ca7ddc6ba99ac78a7ba9aab156687a6497964
col31:   84ab99aa9988878c9979a8afbcd99bbdb59efe8adc8ccdbd9c8a8bade4b9bc84a7699997a6896b99
col32:   7c9aa8869855ab695adfd7b598bc5c689b8c9b8de7d69c9b9a9d98a8aa9a9a8889a575436b767188
col33:   776678a8999a39aabbb88898bac9bc9889a9ddaabfba9ae9a96a789d9ad8988bca9a98776b375994
col34:   998768d6a9d9f6787b9de789ba9c6bbcaccb9c8b9ae4cebfc9ab9999aa9856b8aad959b6da959541
col35:   9a9aca77a76acdaadebbe674bcbdada7aa8d5fb87caabdaa9cb7e69bfd7babdb66eeb6aba97a8765
col36:   7b7bc87a7b4b78bac957ad9bc979efa9b9baa9caa9b7789b8ecabbca8b69974a97958968bb4a8279
col37:   7ef5a6aa8c578acb7e8ca999bacaddac8d7e79dcba9beea87bbcabbcaacb7a99b998a8887799967b
col38:   78587a8964b57cc8cda99a78bdca6be99cda8dccbcaad9edc778cc8afcbbbba988aa775b9999a657
col39:   6995758a8a6b9cdca88bcdcbcbaa59dca95aabbdbcbbbbc8accdca8dad6de7c6aac5cbb68623a97a
col40:   8c68a7b88e96bcc9ba96daacad7978ad9ba9d9887bc68f7cb95bac7e8bb8ebed76d9bab9a7bb8978
col41:   89ade9aa8bcba7cfad87b97cdd7db9cc89dfd9a9b78dc9c9ba99be9b9e89989ccabae98ad9794895
col42:   ab79ac7ba9bcdbaa8abb798ac4eabbd999ab8b6c9c7389fbc986aab99b7a8bbc6a99aaaa77a67aa5
col43:   6bc89db9bcccbcc69bfa9c99f9addafceebccbbead9dcdbccbb98cdcb9adbaba8898aaa9d9a7b97d
col44:   6d749cbeaf998a8a9baa8bcb9bc9aaa7ddcccabac7bcaa9aa78859b88b6bb668abbb7ba7baa8ba7a
col45:   97abaa8d9aaad98a78b98b8dd9acdcdbabaced8c6ccb8dcf7bc7abba97df8c87ab789b99b8d69997
col46:   9ae796bab689a7d9eb8a889aa6abdbbbb8c9afa8df8badcfcccc9cbcbbb9996bcec9bca9da5a8859
col47:   9968bc2a9baca69c6dacac9d9abbaf9868cc88deba8bbc7a8acbecac98e8de9a8c8d8dbaa96a5bb7
col48:   bbaab9b83ba78b7986b687bcb99baa9adefd5afbbbacc7ace6bdababbd9bc9aababc4bc9975598b6
col49:   ba9abaad7eb999898ea7bbcbfd98aa8ca7adeedbebabb78abe8dbb9e9b9be97fabc646a7b9d7ca86
col50:   8b9bba8a7899bb8768b68b9ddc6c9dd9c9dd9ddbaac9a97badb9e86dcba68ba7a97bdb5698a79988
col51:   677a987b85697aa9a975a9b794d8d9a9aaca89ab8c96837bac8d59a7bb9799759a5aa747784676a6
ROC:	 BPix_BmO_SEC4_LYR4_LDR15F_MOD2_ROC1
col00:   5459967a1559776a897aa894a89b76b6a979979a89a5596b8577caa9c9c28ab775955689c7785989
col01:   5442766467a59b42fc59b47d958aa6489ccb557986c747c989877d7aae89c8cac5ddd469c7c69daa
col02:   55479142787928d5a895a9969baab9cc7bb9bba49b4a7b3585ecae9897897a88bc879acbb454cc8a
col03:   56a574aa9623779887a86ca3bb6ccdf79978b4b9dddf8ae636fb798a7ca9df8b5b6959cb98a6dd53
col04:   aa66678696593d69a5aac3c9a98eb3d89dcdd9aa988897998b9ad88bda8b9876ac9a8b967bf6c8ab
col05:   36757a46a866476476b79b88c5c9c87b9c99a8b9b8adb799cb2999777465c949b9c557c59777d755
col06:   6648aae776a86ab9d769b9d88b76ba8ce278cb9aaa59a9abcb9bbabba7aac7874aab5978928d8aa9
col07:   697143854b659868a5d7898c695a9796b5c6caf8bb9cd5d4998b99c7cb93a886ab9c48685a98b697
col08:   3829786563b28994c27a87997b45a966eac49999a96b7ca7cca99a6785cca8895ba77c86b956a1b7
col09:   7649669a77725a766688b8556aa9c97a569baaa9867c79d8cd699b57d8bddc9ac67b979b29caa9cc
col10:   71783849a1564849ac8b898bc58966ab986ad7ba6dd8b88498ecc9bcbcb7988c5fa864b885787c6a
col11:   87568283c69587455769575a759968baa87f8be99a877aab69965ca5d37c6b898976dc78768aa362
col12:   38763568374459a44b8a7355876ca4dcbbaa59b68f97ccccbb7ab7caf9d9da9b678cd5dc679895b7
col13:   7591c7796645b889748885666c9b98ce5a599ed7688a6bba9a698ac9eca97a9699a77b85d7458866
col14:   42137a45477b732b766ab9a99acb66b849bb7768f96aabab557d6ba87ecab887e95ac7bb67ba9474
col15:   658b67859527ba78876755879c9d9c99a7ab97dcc78d97b9b79987a6ba9796d9b6aac879b68acc58
col16:   965756a55ba7657e479bba6cc79a74e98b78dc7cdd6888d9f78f86a5b7cdbcbd6799998a67539b89
col17:   35749678656bb98794a8969b9a8776558d778996c7b7a768789ca585afbbac8aa5985b849a96ca83
col18:   45376333769765a958568acaca8738e99489d6cdacde69babf9dbd8c94b896e9855758aa7837a69b
col19:   5745a38937589a973998c7f586c798c948b9aa5adadba938fc9fac5794caa88b87a879a849757987
col20:   463589429d39559867d4a958958a5cc36568977cc6e27cab5a58788b575717d3a97d6b4466b58496
col21:   673b7697572acb9c5589b5b7686aabdabb69bcb86eab56dacd98daacb59be82988797b6a968c7b65
col22:   566584485ec6355a868658ce79b87ca7a9eab2a67dccfd89cf78b9abbd86c87cb6a8c785698ca386
col23:   5477676568798719c867c676ca4558a89a898cb69c6cc9868999876b57737da899b4889788964885
col24:   511445d8947a7655989bb47754f68ab869c87b9ca97cd99ba3c789b6a8b9bb8a88586c5b7db77687
col25:   64149764598a31a672558a94b63a959ac87a777a69ccb7b55dbcb777566a5c4acba6a8c458ca72aa
col26:   a2837ab3ba48ab9b5aaa9a4978b9b96bdfcc9deacbdcfb9b6b9fabd75dc788bdbcdc8aa99cc8b788
col27:   aa76975965b8dc6794c59879b9d4e9a89dcad9a66ab6cb599499b8a83db7796a7b97aa9695ccb5e8
col28:   1c766b59abb468c97cdd876bb6ecda59d5c7b7968cbe9d77bcabcfd99fabac759bec89885acb8f9a
col29:   8528cb9c47955348675bba629b98b8cabb7886d9bd6bacc85896fa57e9ad99c8dabac64aab9dc686
col30:   36997575e55baa647a8b9a9d97cba5b88ba5a9989b8d9dcbd8bb5877cbccf8a76b98cab8a98ca7a5
col31:   818a84969ca59ba4b99b5b4a7c5eb8cbabcaba9aa9a6b8c7a98cb87c37b9c8488abaa7a659489a88
col32:   455b786989799b6e8ada858bb788d9cf4ca9ccbbbbcfc9b7f9fcf6ffbb8bbaaaccc696d798a8b7cd
col33:   467568755788aea662ac5b9cac8d9adb96e9badacfa569c8bd8973cabfb7bab7ccbd8a8b54a4bba7
col34:   4966577998656a667c8dbb7b5697aea8ccafacaea9b79cde9cca9fa6dbb7c8d6b8c867aec9ad9948
col35:   6766b89a485983d3a9c9b7c898cfc7ba8cd7abb599aa7ba8b7adcad9ba8cd81aa79c6be89cca4a77
col36:   c6666887abb5aa995a8babcbaab696b7b9a9aab8c6bdbab7abed98cab79b9ce699c3c7979479da94
col37:   848693c688b76b9fde896da4ea85d9ac9ab9af6b8a9d85ea47b8de899abccbaa8caacaca95747958
col38:   a56474d1c68eb8dddab5e59ad9bbfdd9e8f978fedca96bdbcf67ac7bc9c9bcac5baccb689a578893
col39:   88a989aaa51b89bc985aa9679aabb9f6cc6dca9b47fca7a6d8ebbe8eabbba8baa7a998a8849789c9
col40:   5588a587c99a88d769ccadc9cab9bccdbecaadafa8999eaaea1a6aebcfa98edc996bcb9e8abd8b98
col41:   2748a9b5a884a99b89b9ccdcfdbcbbd7d9fac97dc98addca35c9b99dbab6acb988e79bc59ac74999
col42:   5866757a8cbccbbbb8cdb9cc4877deab7a9cc9bcaaa7a7dd956acac9889dc87cc8dcec9ca975f9fc
col43:   a5798686c699aca9cb8cacb99db5bc76bbd7e6b9cdcc88ad9aa97c7ce88c97755bbde85c978ebd46
col44:   b5aca66bcb988ad7e5c9999cbb9a8bdffcd9bbb9eae9caa9dabdc9adba6aafa8969dcb8bb5e89fd9
col45:   5989689a487ac58bba9a95aadce88979b9ea5cd8b7a7ca9aad989868b7aab79be98b76d73396ac96
col46:   666b249d9b84a78d79dacbf8fadcc7b6779cbb8ce8a7f887bfecf9b6dacbbd9fca795b96b798a978
col47:   6879a98a59bba966cbc955b79d6aba8abeece8c6a8b98da59948aeb64b8bdda9d8a5988b9aa7acf8
col48:   8864789b64b778decda98acb8dcbb8b5fbadbcfdf99cbbcab8c3ab869e7b7cdab9b96689a677c884
col49:   454697f46a25ba97876bb9a9cabbe769ba88b6d8ab986c85977a5bb667bbb78ad8adbd6a6bc8c576
col50:   5687b3553f3a859ac93bccacbbcaf8a9ecba999bdb8cbba9b6f99bc9c6bf9fdb7acaa9b9b9dac66c
col51:   2367151567a8535747258d46c3876756676b4ab65a75898867a5a67b98779a61686913869998387b
ROC:	 BPix_BmO_SEC4_LYR4_LDR15F_MOD2_ROC2
col00:   1314177389a787962754a7961637b38659b99538654688986985684c877741c6a87478559856a565
col01:   726855254698937577b59588978a7a68b8a689a89a37ceaafbab997b97b9749bba977a987679aaaa
col02:   3167576863a5366859839a66979ac88795f7668b86898b985986592177555b74667b78798659d689
col03:   1685744859786a8bb887765b9478994a9868989bb98ab9ca4aaa4999758696a9b7955995a6aaa975
col04:   1762b525744196546296875b713238998b486864b6b6b79a9bb7879b999d69b4978aa8977a9a9769
col05:   364499869957547776b7745857966977779b7658b556c875888898bb99787d988a9429777784952a
col06:   121582962395a766c7b87877438964aabb99a7a826695868766ab45bae9856688885577c5381c983
col07:   55454667156377624557d79ab886bc85b7ccccba9a6aa9b9b66e89ab78989567763877ba9bb99494
col08:   344382695935a588c4888a9b7717679cf596bc97b99583869869b79ab88bbaba876898b8ca878564
col09:   494568554939bb551aa35ca6d788489267a78bc78aaaaba68a89864a7b89b889a9468acaba8b7d65
col10:   3742587545956b49879c779786a75a968bba627a69a889998878aa9ab766ca7b9b694a68a7b79746
col11:   53417455489c78168377967c195676c7aa9ba685796a46c59dbb8ceac99a5b8277bb77a9b6585457
col12:   75a839366a4696778b64589a9b8d54d7ab77b7b7aa67a7aaa9be794a6aba8b9869b9a56c867b9979
col13:   85896688a877786978bb45c65d9894659687a7767d7ab76a79bb999a8b95ab8955ab9a986b6c6aa9
col14:   134867779b556db839917885d9a55779f75a68c3898edaaa97a5b46788a377b6da999daac9a83769
col15:   866587289355736986687a884a9b9b8b663b89ae989989778d9779a96bc78ba7b699c8a77945b956
col16:   8142958648967b5655948861a98b8659879878abb7dce9a8978996b78ac977a27b9c8a7688a6a9c4
col17:   725591a3a776e1599b77798c9c6794789c5a685897c8aa6866996ab548cb759b74aa6bac8a7668a9
col18:   32346936856146752b7665757875676999cb7989f776dda9995c895856a978d9d559c96a5d5a6bc6
col19:   a574a82b5577769586da696d56a685a7a87876a8acaa79a76799d9c59a7abc8a9856aa99a6ca9b8a
col20:   367795532775737ac9ac71974677637835c5bbb699d8958a7bb99b5a8bcb898895ba5999a85b8a98
col21:   78716642826884b698863aaab977eaa5b87a5795babb9dc799a68b8c8a9849c684c7788996889694
col22:   467848759665996769869a695d79996c95859ba9abd869e8d9b6abdc8cba9b948a7b8aaab7a88549
col23:   964143878776859883a868b75adbac8895b58bca8987977b9b965b8886b7898bb9c67677765b8aaa
col24:   46833673594354ba3997667777b6696b5b9978b99aa9bab34ac969bd98969c58bb5b5973599a9aa1
col25:   1454886d6ba7978a669b85999b8dc7b7abb78aa76a8a9ba9e49a9866a9ba786c8694a86d9775b64a
col26:   899d47b35a57dc6a8b9a887ccabbd99cbbd99b8d7aa87bddd7dd9699ab94de78b86dc6f896ace594
col27:   618a996c7486969b869ad9cb96abd68cdddb65b4a9cca787b8c778b88c99e9c9bd7af8b9ab8b9bc9
col28:   8878575984a8a665a79bd7da8b97e7eec96eafa773c9aceeabcf9a9fcba9b8bcaa7b98adc9b5b889
col29:   6a968986559d78195988aa98e9da9b99a7adc79ce9bcb9c9ea659d98999f9b96aebeedb9a666c988
col30:   659baa5536386b5ca889a78be9aaa88a996a8b5ca7f8799a96eaead89bbae9cc89c9ad6adbe7ab6d
col31:   a665a598776b6a88db958ceac858c99e88ba8fccb599f88a96abaf9af9c9baf5cdabac98a9fadbba
col32:   895a988ab9b78c9958d987de8ad7ebbeabc98dbb88ba9acbbe89c5a9faedbbebd9dadbecbaaaab7d
col33:   8874a885a79656b9cc6864eec9b9caa8b8ebb9a9ddeb8e78fbbbbcf7c988dcbbbadc7a79b88af8ca
col34:   987657589a6b9ac5c6dccaebba9dd9bf8b9ce9c9ebdafdacc9b9aaac6ffdcfbe7e9baa9cdacca8ca
col35:   9573957a655669b75c7a9ebcdbb8bb48d6cc7acca9bbebcaabaebbb3cb98bd9fcfceb89cc84e859d
col36:   8993977794759b5abb9d8abc8a8cbbbb49dcabab99d7fb8d9ddd96a87adaba99dcacc699a6de6df8
col37:   3695a68a78899eee8cd9d46c889b679ba9aeabf8c9cbdc6bd98eb79acacedd79ddcbdaccabbb9b6b
col38:   c994acb5b6ac9578e99ca88bbdd96cbabf8b7c9ca6b7fb95e7ceb7acb86d98bdabccebb69bbaddb9
col39:   9767d72d984a9a8a7a8b9b9ba3bca9bdf8d8aa57adaffab8bc98bc6b97bbdeabc9ccbb6bac6ebe99
col40:   21a8898a9897872bfbfc8b948a9ca9ebabcecbdbd9fabbd76fbaaddcefbddc8e99b8c99cab6adad9
col41:   8a957bb76ca6a66ca96898e9c88dcba7be9bb899ecbdddeedafcc8ddbabfa97aaac8bdba9776fc9b
col42:   97a494a776c966b7a68698b7f87aeabd9d9d6ea7fcc9e8baaab98ab6894b4febfbbde8ac9b7dcb67
col43:   91d886ac9a88645a9cfbc9a9eb9ddcbd9babbccdaeedbebccddc7bbadccfccbbaeabb9accbdedcd7
col44:   887bc9882b766d869cababba99bed9f98ab6fdcac9dcd8cd99fafda89b78e88abcbdaaacd659c6ba
col45:   6436aa39ba8a7c7a698a8b7d988dc9bbe78bdbccafceaadaca9ca9dcc9bb7cb6caacd97eef9989ac
col46:   2b55ab87c6a6a9a8aacad9d897a65acda6bc5dccb9be7b8dcefb9becdbfb98db89debdcdbcded5cd
col47:   866397a69cab9b85b9a49bc6eaaba7fabcbcd68bbf9abbf986aeafeafb8be7aabfcee9c8fddf9ac7
col48:   a66976b9992569b86bcfe7ccc8cab7babadabaf9cfd8bcdeaababcb8cfcdc7ea7ccbf99a9d8dcaea
col49:   ca77a7875885d7b695bb7d8cadd9d8cbab9ebfdea7bf5afc9acbcadfbab98ddcaba9cabccfaac9cb
col50:   1965b95777aa9bb376ccbcbbcabc8cbbfbdaaa8bacb8eaea9cbcb9cd8ccb9ccebb67babac7b9bfd8
col51:   58848635ab7756856daa978694765378a8a5bba9be55cbc4dbabe95387a78b9b879c7cb9bbb7cfea
ROC:	 BPix_BmO_SEC4_LYR4_LDR15F_MOD2_ROC3
col00:   35aa49b739468779a688539897c84974897496856a8888a9d97959aa977ba7777a685c864282a445
col01:   69a6c646b8667b958bca969b76869988baab8f9aab6e767967c96a5a87bcda7e7a897b886967859e
col02:   53b2979728755af5659879616bc97a796be8a5b836c9a9967aab588b68c8d89e9c7956b997788476
col03:   889399ca7b96798397958b76d9d69cb9cc959c9a869e8cacbbf9abcdb997ba979a7938eca28e78bc
col04:   8779869856986babb9c98797b9a6b4a7bd9bdc99aab8be9bbabb5e8a9cb5c779adb92a856a689788
col05:   6373376a6baa66c9baa5b89c7a8979eac9897776caca7b58aa4b1ab97b78c98a888987a8d5458c76
col06:   68883a8897b598a84a6a9fb8467c779bd7dbbacbc677b9bdab798c98b7aee5a6897a994796976685
col07:   359c78a69c98c9b997678646878cd6f7958dabd5ca792868939975b89b6ba888496cc7bbb5976899
col08:   46695683459598a88b9c89b98ba92b8adb7b28a86aaddcbc9a735699789a686586d5495995496786
col09:   367db775787ba6897ba675bb7975bbf86b9babcb77aa75b97a9d49cb8cb48bdb8b6abb97a75b68a5
col10:   72162a6548a87a4b5b7a8768b377535aaacb55bcbaaa9b9b4b6489cdac896ce8474cc57eb769c776
col11:   b73467c9787799db776a67889ca997973ca8679964ca9a7717b8ebbdcac97d785876a99647ca6497
col12:   756a1778d7496769936847ba79a7869a9ba736778a8999a899a376ab8a99889884a867699ac87c75
col13:   65a78738956998569979c59a7bb89abaa55a5f787a95a6a9898bbea89aabe99977a99a9aa8a97846
col14:   38476664896949a6aa87cc55a2a8b7ca47966cc9caa6f85ae5acec925daaa728c5866858bd493885
col15:   354ea779a744d68ca8a78b68ca9b896999b9bfbbaa9bb98d8c8878b7769ad7bba77596b6759695ca
col16:   67537475659879aa597878e756b8cb746765868bc87d7885ebc778bfd89b5ab7bc7aaa98ba87b364
col17:   2629736388599485457b893c8a66a99a5b9cd6f8a999a8c98948adb877b7c78b576a42b9965695b4
col18:   49b82669b46443689559ca65a8ba999798a47f98998d88cd876b6a88c6878fbb7aa8953a58878b49
col19:   6468a99854775a77978ab97a5b998c68594e9a99bd5a7899a58aaab68b9cbda988a655b976769573
col20:   5669a667536ab87573a8b6aaa99767688c9a93b98aa9968d88b386779b8a8ac69bb779a79395b673
col21:   959667a77696b8c777777949d9654c5a9a9a9da74a287d8899a5aafaa84f9b8abd6cac4db77574a7
col22:   66686787863542a794a688a89c9997a99a9a89cc8baad9b4b7ba785a99a589bd97b9585968d95996
col23:   76b8a649a9878455768b9b6789a8984a79d9bbb6c8bbbaa9ab8b6aab97ab867684baa8296986a776
col24:   499a88a877b8559b589c8bb8b987b975b88c5ad9bd9868a8c79777168ab99887b86bc9acc684b76b
col25:   713ab1b6677b7b6af794a9a986ba99d6bb6a9a9bcd7cb4998bb85bbd9a57fd5ab97797c8b6c99869
col26:   657585b8a98aab98acadc79acd88b98b8a8abefaa9abac88d9bcdbb9b5cda8e7de97baa86a957487
col27:   8799a8c82b3866c2376b54d8c94c6aafb9bcccbaa9deffb6abbbb97b8ccb8dc5adbc8749ab6d58a8
col28:   68757b9a99989d698b9747dcc7aa9c8b7a8fada8deadddacfcdedc9cafce8aa92faba8faba6996b7
col29:   747958765aa987f9686896e6fc8a88ffdc9d97fc5dddca8b999e8ccc8b96acc8a86991887b68a766
col30:   59aa747968bbecbb7b4b98f6bdcdbba9bbdcdbfbaedefe99988eefaaed9d9598a98a6a76a9da7aa7
col31:   95c66a49b6977679ab997cbb9bcede6bafb8bc969ecfcdc9abb9acbaef9be89de8bbbd89ab5accc7
col32:   9bba8ab7b9acabcb77dcc9779f95eb7be9bac8b9b8dbdcf9bbaecc9cdfd8acaaad7ac68c8aac79bb
col33:   85bb967a6c7ba99abc98bfdcabecfcb88b9ee9fcdbfef99cc9ace9cecabf9aeb7d9765884ba78768
col34:   a86446a72b9d4694cccbcafeb9fa78bd9e5bbb9da7de8ffacbbfbbab49cdaf89a99cbfc7be9f7757
col35:   bb755cb7978ab8a7a7ec6bbb9b9db8faa968d7faabafbcad88c9bcfcd8bdad9ac9c696da996efd65
col36:   bab859c9ec899b79c9a7abdbaaacb9dd8adbdeddc9b9bbfc99eafdacd9987a99ba89d8a786e7d494
col37:   a99764cc897acb8ccc7bfadee9c67ccbbffaacabbbfbcc97bf9efdeee9e9f97dda9baea96ab98c96
col38:   859aab97c7b98d668faabdd9c9eeaffdcebcaeeadba4dadedc9ddcccaddd8bbdeccb7b98dbbc6cc9
col39:   c9cad9a78b789ae769caebcbfd6aa6b98b6bdbcdadedd8eabcafe9b9eddccdf8bdbbc7bbae9b7828
col40:   8b89d87aababa68a898deddecaffa9d7f9dae7fa9d9eaccceee5defedecdcbbfa97dfaca9db59da9
col41:   da8d7c7caa5687ad7cb9bddceebabfdfff7ecdedaabcbdebc9bbfacbbdbcdbda5bad3b98a9aa999a
col42:   bbe66c7ccc79ba88addbd89fcb9acbd9eafbdb7dc8dafeb9ccadc9dce88bcbbd98ebccc89ac79acd
col43:   669bab9cf9aca5abbebcad9bb7fbe9fedfccfaddacfdcd8dba8d8ab9fdfb9c6cdcb3c7998a997b97
col44:   b987ccc3a7c4bba93ecccfc9c97aabadcbdbdceffbb8cadb9bc9ad9fae78bdfee8ebbcbbdeb99b99
col45:   8bb89a7b7aaa9a8b8ac8aadbcbbdb6e87ef9aebcaf9edfcacf9bad8addbebbab8bcebdfebc6bb8b6
col46:   aba89ca48b94c7caccaa99fbf7b49ccace8fe8bac5bbc7cbca9ba5a9fd8aaa9dc9989d76ecc9f8d8
col47:   aca8a75fa7ee9b8ddadefc89a7daacdece8de8bfae9d8dafbdbbe6bacbdc9ec68fdda78bd7c8aac5
col48:   cb7795ab9a7959cbab9acbbaa6bdcc69998efead9cbada8afbbeebdd76cac9ddbe7acba98aa88ba9
col49:   8846a89a686bc9be6a9aca8ac577dcc8cfcc8fc9aec8c8dd9e9d99bcadeb677acbbcaca6d9fc7bbc
col50:   7a477b9b96c9fbb8eb9bbb8a987ddea8aabdcd9cfbcbde6dca9a9aa9bbdc9ba96eabc8acbb9adaab
col51:   865678a5266a69596a6b9ba8aa876c8ba7cb5d87ab66cbbaabaa7ad6cca8bd99a8a6986a9cb5da98
ROC:	 BPix_BmO_SEC4_LYR4_LDR15F_MOD2_ROC4
col00:   246396787653284788a595867475666b1999769896567849958c9a58693e949785736c17a796a874
col01:   7a83996693697389825a88796aa6bcb9d78bcca99bd999bba9c889aa8baaacba9ae86958497c5aa8
col02:   7636a5625bb197988869a7765aba58ba5c986caa8c689c95898fb98c86aaa98595db8447c7735388
col03:   a767a796a678c6885a9c6b96a77bd4c989ab9a7b9a99bacbba7b8a8c9ebcb9d6c888b6c669a748b8
col04:   2788a35589575969b916998867caa9bace6bbc78aa8a5878a988aa478cb7ab86bbacb8b779866877
col05:   8557362688988b79c56a974bb7c98ac797abb6a9db6bd98ae9a4ab76b95b8a588494469746a78a98
col06:   75555538888dc95868a3876c769c989b7a7c6c7b72cc95a98a7885cd8a5ab979eb57c9955723a768
col07:   7b899c7987a768b847ab869cbb887aadbc6abbbfd7e8ee9cadc99ba9ca9abbb76b88957dbda8a8e5
col08:   7756656c6da9a96a689953995775b49ba78775aa5d7bc89c4e98c786a9788cb785bbc86987698571
col09:   64488bca61579857a797a8999a7aa9adb8ead9abf8af99a7d886aa84d858bc8d86bc687776c5b698
col10:   8855a7336568917755d84695a8b666878ad7b99dbb7a9b6a9fa79ccaaa6b74b9975bb756b85b9665
col11:   43b28ab987997c6aa4836b8bc7a89a6abeabf9aaaa7a9a8b6db7b58d9c99a9cbd54c9747494b7853
col12:   4779676b67858635856a96bb766bb856947ab7d9abad5b67aa9da99d799d9aaac748a97357778738
col13:   749a69869b8995989bb9d4bc767aabaa7bb9b9fe74c87a49d9ceb9ad7846dc857c8b986a787a6ca6
col14:   36748468b7a354bb6aa46ca6779a9b8ba9a8aa8b9b87799a87899bab6676a49589758a8349b65894
col15:   4746868546b667d95aa987ea7c9a8bed9da69889e9cabbab877ac7baacddab6c8a9a6a7e894bc268
col16:   5855886613a9886358b54c9389899b8979959a98959ac67aac587775ca6a745a77d89d96b7ba63b2
col17:   8ab48577a8596b88896a798767b8bca96b968b46aa9aa799ab9c9bab68588ca89786bbab36798228
col18:   73d56a856564235858496795896376e673698f86946d784a6a9b894a97ab53896d7989c625467758
col19:   938349bb87b89778b9b969cfe8bd7af8ba79a89969a88977aacc5b994aa55a6b99abc9a88972686a
col20:   9672147379b12984888476cab9acacd3da9987989c9bba87696aa54a67dab788769a899786967656
col21:   39a13699848989b79c7a98651b9bed6ba7ab6ad9bdadaf9788ca9aaa9a76c8c7bc8c5ab487b76777
col22:   18a597437568859376896955d78cbc7b7785b9c8bf7d59ccaa6bbb5a6ca99ba87479ab7648984a35
col23:   6646a859947b69d88488ab58bb51eca9aaecbc8ab9867aa9bda98bb99b857a5d757a7bc6a99258a5
col24:   5796663156735a679aaa5938677aba99946a6aaba8aa87a78a9994c7495a697a58986a7b55877753
col25:   9376a7947dc5697889966bb798a979caaccaa8bb6a5a7a99cb8daabbdab7c879a6a66c9ba943c9b7
col26:   56a67c95c897ae7a5b89aaca9888cbd8acac4a9acb996ddc9b97b9ab7aff7be9999baa9488b87a8a
col27:   a5d5a876c9654a876d9bba69d9b7bcb6a9ab7eeedcbaa998ccca7c6f98979c79b766c95bb7a98985
col28:   5da9667b876867bb946a9ab39cc89ddc9acb8baf9c9ea98c7b99a979ca9899bb8569998579db6697
col29:   799877eaa574378abaaa98bb8946dac9a99cdc9bc78ccc8b9afbcbcbb9aaccbf8acb5c854babdd85
col30:   77666727699d8a78b8c8a89b9b988abccf4abca86c9b8af8ccc898d98fcc8aa7da7968ba49589257
col31:   3a698778796ee9ab9a9ccacdbfa7a9afd8dbbccbbacf9afbaca9d9dd9f6bbaad6a5cebccb8b77769
col32:   696d7778c68858ad9ab8cb76cb9ad8ecaa7c9ebd9e8c9edbdfbbafbccc9caca9a86988ad7887f897
col33:   8975ba9bc88b7c99cdaca6bcaaeb88ad698b9e9dc8cdf8daefbb8a99cad8db6cc66feb88cc8577b6
col34:   a12a7c648d585ba9cad7a8b5aaecb6ca7abb9eaf8bacebabbccccaaebead4a49bbfc88786c489a64
col35:   75bbba79a98a8eeafa6ec9fbbcac986cbad97fb78f698bbe96bcda9ae8be89baac98bba9a9ca866a
col36:   756969883d88d96bc9d58a98ae999a97c7fbf979ad7baa8abbebaae9d8fbec659a7c9b8eb9789987
col37:   84e8677acdab86bbbacbdabb8a99cd8fd9cbaeb5ab69dab9badc898b9bb799cbdebc9a6ddc98cb97
col38:   ab5b86ad78b7b99669accfddebaa7bae8fdcabedcbbcdcdbbbababbacdc8ef7b86959b86edc5bb88
col39:   48a97988789ba9c8bd8abebcabbf9dfaedbfaebd87ceeca9b8ab779cf8eacbaaa797a2bb874889b9
col40:   488ca568fb699a46bbcca9abbab99aad8d99bcb88bbcebe9daeb8ccdcdecaf9adc7bab9b58acaa79
col41:   467a898999bb69eccbd6bbeca8deebcedceaeacc89fddcaccdcccbdad7cf9ccdfeaeada9aa666adb
col42:   a77bb89b897cd9889a78b99cccb99ad8db99dac689bad9a799ca99baaadbd89aab894caa6886cb76
col43:   da98e3ca9bd58af9ad96a58cccceabc7cdcbbe9cddd9fafac9ee97aafbfcff87ecae5dbbdbedf659
col44:   b7a89b4c399bac95b68adabcac9a8b9dcabba9f9abbc9bbaadc9e7aaccadaa9abcadbbaacb7788e6
col45:   b7969d6bb9bbcd9ac8fb9a9ab86feab8eebabdcabbccffbdeead89fdbcb9dcaa78abdac8a8a8bac5
col46:   87c959b886bab59dbeabc9d7eb8cadabcb9fbb98bedfb9aedbbb97abacadc86c9c9ab57abbbac497
col47:   ab85aa79a6a8c9cb6b788a7ac8c5aaddda98dccbdfacbfdbda99bc8eee6c9bb9aa89dcaadadc9a94
col48:   7a56966976476b78ac6b74aa9dacddabaadbc5ecc9e8eaebdbcabeeabeebabcbddbb8c8ba88bc7d6
col49:   5c9476898b77aacce9a99edaadf7aedbdc8accd98b8cdca9ffcccce8b8a7d9ee9cca8ccda99aec32
col50:   4ccf78a9974979b9978c6c9abaadaefaec9caad9fddea98b87decbb5ad6afc7aca8ad9bccb9ada98
col51:   aa7a58893683a91c666c39336d9aaa688988cbefb99a9d7bfbaa679aa98677c99977a498a77db975
ROC:	 BPix_BmO_SEC4_LYR4_LDR15F_MOD2_ROC5
col00:   45324153a4a7269855859a865387a66a8476346973684b528578b676676b84a54a93958746a877f5
col01:   38a695d7989674a97a667bd58ad9a977496aa5a785fbb3ac769ba7e9a66bd9658a8898778c5b8ca9
col02:   4658c9384b64388789a165a56aa6b7926c78e6c8997a99ba79ab89a77e8799979899a69558699a4b
col03:   21b26c85675699585682aba25a76c589c378ab59a8a5bdbbb8bbdb85aab98d9ba767fd4ac8ab9b86
col04:   674a6665b5389696a58aa588898c7575a4759a87b8fa99acfdd8778993ad9984b8cba89accaa6324
col05:   58544b5597658756ca884a9a77aa983a9958bbb9b9aa67aa92aae7696cb5b7a7567c83abb9569695
col06:   456a386872a889ba44997746aa886879377bb7aa97559ababac99ecac7cd7aa89a64c9da66b4cb97
col07:   7667445766744a32a5ba96a9884da687b78bc839a8dcabafabdf986465bcd8ab7ac5853bf66a8c67
col08:   37646574598a59656a489a6785b879ba5886a669c6965a35b87ab8c287a8e78c8868c798abada8a3
col09:   5294599a847473476c88b8c8c788a56aba8586c87ead967aaa8699a9ba9b97abd7bb695a698a7eb6
col10:   54952c678176721b387aab96b9473c36dbb7a7c6c99a7ad6c8b9a58fd685a9eb7bb5bb944c8794a5
col11:   5125141a5678b3672a68a589889889986a8bad7877a6889777c986a79a937ab96bb9496b888a9866
col12:   86b465c32874658757669a5aa899978aaa98a66977ed7abdaa7d82969cbe59867c79979868b77bd7
col13:   6a36376b57b8c45496aa678aa7b9c6a787959d676868788a996aa9cb99bab7747ac8c8b859b9a6ba
col14:   233816ab4c5858967855b128a37b989279c3a969e69c89bb96acc98a6aa97a378a98758c9856aacb
col15:   16577996c39889598657ba96565c97e84cab73887858f9aaaf88abda758857c82d1a969657a4c755
col16:   5c55a2799488a67bb5384725e5b5ab89aba9bdaaab47ebdc8afa6aecf7d9c7a79b7c98eca9879b67
col17:   439c56876665646688987896aa87a868b696a87ac86b788ba898a79d896b7b7ba586c9ab5a636299
col18:   a45665366252438569ab999826896679ca89b5adad5bcaac9bbb9698b75c9587a6974adc6662798b
col19:   5641539486446885828a9b794b86ddba4b834d7ca4b7c6aa6a79a79c79a685876634947a778ccafb
col20:   12577a86a779268547a7885738daaa5a6559a6b75ca99a56a6fa7bfb37b9c6a7528da9cba8cda795
col21:   463a278276acb9638899b969c97c898b7da99ac67b6a9c6be8b6688ad977788bca77999998aa8972
col22:   574aa9534898269bb95586b999db8ab6699cbbd7aab8a688a7b58aa86959bd8776b857c568969467
col23:   648372b18655688b7a9aa968d659ab8a7b7e587a5cc979b6a8aa68e78ac997d7697964c5b88d7a82
col24:   531474291658294994a28474897cb59d8db88989987cbabd8f8acc9a894caa998baa7b695d9b49a8
col25:   81854147337966989966889477897cb979c2ca99a998caabab8a9be696b8a87aab9a8c694a9c79b7
col26:   6556a7a845a57aaaabf968797d9baa886c6888a68cdcae989bb95cd7dcfb7bd9cd8aabbb77dcc69a
col27:   457885598b58ab88a9786c898ffba9bd9da8758ca8a685d78a9ed99b6bcd85e8c9c9ab8668987c6c
col28:   3775679654fb85e367b9ba48f8c9ba8b9dae8cb8acaa4c77cd9ed9bc7abbbbca8aebb8ab89d6cbf7
col29:   6616778a6a996b95ac77b75d675ba9a79edcfdeada89a8cabcad8adcc7dadbaa96addbf6b8d5b9a5
col30:   7d756b998b487ac66998baab9a7dcae699fadbbb7fcb7aa9a79dc8ccbdaa8999aa799ba77aa88cb7
col31:   666849cc8d99cb767bbdd99a99dbcdadbbcadca8faeffeb95dcb8ddcf7edbb8aadb9f7f969bdb7dc
col32:   468575aa41867967b97dcc99cb97c8a6cdb9d7e79cb7dfaaa8fac99c9cbdfbb94b858c89b9acb7a8
col33:   8569a896d68eda678bceff5c8abf98debbab89abcdedbf8cbbaedeeb87b9d9c7b8a9ebecbacfb9ba
col34:   2395d96ab478b7984b5cc6dbfd99acbaa977f6dcbcedcecdbfbbbbceb9cef8bacff8dcc9dfbfcfe8
col35:   66a8b57bc57c85aa5c7c8bbbb6c78baac86a89ab7abfdc3bd7dee7dbaabcdd599abac9bcc8abb8b8
col36:   7d6748999ad7487bcbb3e8bda89a8fedd9cc79b9ad9ca9a99b99fbd998cdbcfbbeb9f7d7afa99ad6
col37:   4a24c8bc976d5bbbbc78aab9779b6ecbfbebcaa7bcbbcacccbceec9eebecef8cbe9d7dacafc8fa94
col38:   9388b499abbfd86cabdcc898aa9efccda6dbcbcdddec9b89d8b88bc8cdbbac88aeaaaa8cdac8fb87
col39:   5baa9bbc7bcaa98979999acc7aee87acdcd68ceda9dcfdad99c8edfdb88ddbe88dbcddceb7abcdbc
col40:   8b7a95a8aa98b788598afa798eadbdaacdfbebc2adaabeebdcdabfdebbfecbfccca78b7aada9cbc9
col41:   869695dbb4997dab9a6bb8bc8aad7adbc6ac6bceffdcddbad8b9b8698998fecabdbdbdcd5c88aabc
col42:   556668c979ddabd7d77eb9ca8db98babcd9e9dfcfcb99c9cbaa9da8cbd8bbacabebd98dcdfbcb9c7
col43:   b9b7c97bcbf97998aadca99b9ccaaeeda6ccdda5b7a7fb67faccddba9cfbb6dcdadecd6cdbaacdb9
col44:   ca47a7c6b689bb9a9baba9aa9dafb65bce8be5aeebefcebdcbccbecebbbcceace9dace878cbdeaa6
col45:   767568863c7b69a97ddc86d48ccb877bbada696cbbfa9feeb5ddca9cbbacdba9cb9daba5dee9bcda
col46:   bb79747786b6cc68ac7eabcbdd86ccdafbcca9ddbafcdd9c99dafbdb9aabdd78eabca8bdaac9a7a5
col47:   783757abd756c7d869cbe9b89afbbcaaabddebebadabdfaadfbccebd7bbfaabecefabca4aadfc99b
col48:   789b78a68a998eb89ce8ec65cb68aa58fcc8dbed5db9edbfa9dba9c89b8aafcf99cbca6be7bf5bda
col49:   7a9ca57c7ca89eaa59a8aaabf6aeb99db8bf5acc86ad978879b9dbbe8cdadf8bababd8c9a3cc99d7
col50:   a74997aa9ac68aa9f789c99bfebecca7cfcb9dfc9d8fc7e8dfa9aacaed9dd8b97a8cdaccddac9a98
col51:   b3439455825887b793a866769abedaa8ca4799d9797b97baaa6786e5ee88a797ddba995addac897b
ROC:	 BPix_BmO_SEC4_LYR4_LDR15F_MOD2_ROC6
col00:   97138433446497775769b48957ba2969ba589946a87c88eb56578baa69455a566656665575775582
col01:   8762c37765a9a879c7a597baca87a8a88988a89998cac5ab8a7d89665b8b98a75b57778768425396
col02:   4648585866856bd69a348418a8a6ac75cb9876ca9597599d6ba888d5bbbc6b6a9c8b7a4796754963
col03:   766c352579b9958769b8ca9abcb89a8aae4ebc8cecb77bae7aabad76afdba9b87579a54961b97575
col04:   743646b8783cacc87a7b8bb89596a969979bb5894b8bb67b9f9a98bbb88bb8e597668c5b81854356
col05:   61676379a9a996a76aad8ae8a2a89ca78adbccc899b687cbbfb8b9697bc9eb89387a67a65b479749
col06:   4864676667a828b6b6c9c795be967858adfa79ca6999d7a9b967caeaac7cb5b6abdba2a979857556
col07:   63558497858c6aba8aaa786ebaac88c8a97b96a9a86aabab96aa897b7b97dc77be4785a779957e96
col08:   a48579383583acda67ba96b688a7b6a8ad6aa5a8bfa6bd8d9cb794a9cb87868a569a695657852482
col09:   5463897558679a8ab68bca699aac9bfa9b968eaa6d9988bbddd88cd89898b9d64e5c6766b4a5a7b4
col10:   473677489aca8467aa9b4598a6aadcbd89a5a7b9787b96add58a9bb948687b8496b89a8552576664
col11:   53945665888c95598798598799ad7bb6bbb6dabcbaa888b588688c89b965b899a846649776637486
col12:   665c566875849a5ab8b9aa66b4898cfd8aa9cabd9aca9b8789abe5ada78c47687a387b3a99785674
col13:   61377357b8b6b85aa86999d65a499c79738a85c7bdab7b8b8cd39ac97baa56fbab756b84774974a5
col14:   41424a986972788968996a8acb4817999a8ca88a798c477a899b47d8b97958b9296697a613a7a5a7
col15:   84663469589b926a67a86699c89a5769b8db87d9ababb7aa5bcc6bac87648e88da989a959575519a
col16:   55b254197c28885e4a37bab8bb9696a8b89cad9bba89ab7ab3c78ca84abab8896ca77ca4796d7876
col17:   158414657564765a5a8679868c679785b98897a9b899c98a9688acc68a86c88a884d786667764a23
col18:   7a2784594758ab968dab449c9dc8675afc999abb9a98a548967bb8979a6a8c7787a669788a92999c
col19:   436375684678ab989884b984aab69895acab8a6a549ba8cbb87876a89a9ab95b675688a9b6997556
col20:   64326638772587768965949678a89265cc5b89889ab94a976c789dc6b5b5897aa44a958134689667
col21:   1271558766956998b8686959b98899cabc889579dd779a7c9cbb99ba9a6889f564a96665855b8965
col22:   269936274a577777bca9885db5a7a9cc5798699788cb967b9a479ab9a895967667aa77968565b986
col23:   655677677a58837a796998968a8ab9aaa7aba86b9b7abcc96a9a98aab8976987b5b9877389b7648a
col24:   8a4553658769767996b6575a98bb7773587b896658ac7a5bc9a59688a788b8dcbab87a35457a8595
col25:   773445a69a26875685cba9897d855a7ae6e68daa576b59987abab75cac999b767e8a49a994a989a4
col26:   69b899a9d77389a8aba889cc887ccdcf88ba9da9dfeab9bbd7dcdeb9bb6cbd7a86a6ba9c7b1abc85
col27:   d56776957cc6f78a589c97bcda78b89acf8bab99aa9aabbae77d9e8c7adaeb9a9867a9b5799c48cb
col28:   cb9ca769a8ca8b9886a9ba8cd6b9acd7aaafebeaea8867e8abdcbbefccadaaa8c8bb989acc75c985
col29:   a28656658698c878bfbd89898ccc79b7dadddaddb979ccbaa7da6bbaadabdcdacb5cb68a789b5ca4
col30:   a86b79b6779b68868bda8e9bccc8ab8addd9f9ada9b9db8bcbebfaaeacca9cbd9dc94ba97998ba8c
col31:   a9557728aa7bdada9b8bc9bbc79daa97bcebec8d8ce7cab9bdfddcafd8eccdeaca5cda74bab7bb92
col32:   68587bba7c9699aa9dcbac9eecdbc8abcfb9cbcbbbddccb9b6cbabca6d98cd89ede775abcbbe8aa8
col33:   bbb5caac97acb9bdbd9bbafad79acabfcbfeaaad7f9dfe98dae7d9aaaabd9c997dce887a94988a96
col34:   4959a9669a9d6eb8987cb9baa7cabcfdba58eceabd9a8bbadc6ac9daccecaf87bce4eba9caa8baa7
col35:   7ba7c7d5ba5b8a67a5cbce9bdd8c8cbbcbca9afa9aadecdbe83bccb9f9dec77bbe98b8d87b88b986
col36:   cb9ab66997bb6c7babbbabbba8bcf6b8ddc7ddcaa9ec99bbaa9bda69bedc9cebbba9b79baab89ca4
col37:   9899b6897b9a788abc9cbe9dcbac96accba9c9dacccfbcdcdac6cdaaecbcbbbdcb9adaacb8a89888
col38:   777bba769a76bb97cdafb99c8cf8ecfae9abccbc8cabcaa69cbdacfcc9c89ea8ac9c98bbcdabaa98
col39:   a9796a84aeb88dcc99a9ab9a8ed9fadd7db899bbd8bfba9cbbadad9ba9be999accaa7ca9a6787bf8
col40:   86bc98bc6d7ba9b6ccdccace8bae7aafadbbf9dc89bfbb8d9ecccabfec7ccadadcd9ab66ad8de9cc
col41:   7aa38c8bbb6b8e55a6a898c779bccd8c9d9a8cafac9bcbbb5d9cbe6dcd8feca9cb8dcac8bdd95799
col42:   658c3bbb8b6c7b88a9ac78daaebbbbaeebdbacff8b9cccedfebffabbaf9fcb79ccbdfc798b9b8869
col43:   d5daa5da9d6bd7a9d8abc9bbacbdafcabc8bede8fc9ffa9dccc6eddb9dacbb8bcb9a9c6abd9ed9b9
col44:   29ba8984da67b9bcacdaddbba9bcd4b7c5bceba8baebbddf9ae9cddbacbb89bdbac6c7be9cd99ba7
col45:   8a845b89ad5acb9a69c8ddca9caacfba7ed8c6bfe87d7d6fbccb9dfdec9fdabdc99aa8c879dca989
col46:   98b9889aaacc6c58b5cbe9aa8fb7cac9db99ccdfebda9dcbb9aca7b68fa9ce6dc9aad98a8ddbbba8
col47:   6689a8c979ab9a837adeccd988ada9cff8bfdacbc7abfdbbdbdb88bbbabbcda6d76ca197cba86c47
col48:   ab96ca39cab6886acebaabd6b7acdfdcc7edbccea9accebfaebafdfccdbdca678acd3b785c9c9bc8
col49:   a78a59a797988768c9b8d9bbdbbbfbbbb9efcad6e8e9edacca8cdedfddf89aac9caafba9ab688ba8
col50:   aa69c69b8cbaa5699c899cd8abc9faaababcbcd9acaed8a89cacfdfc9bbbaaf9cad6db8a7abdc8b9
col51:   79567793387987cc8887868f6996a8888b9aabaaeb4a8e9aaabca98b987cdad99d668d68ac6b89e5
ROC:	 BPix_BmO_SEC4_LYR4_LDR15F_MOD2_ROC7
col00:   5498625691593141426666672688624858183851a571965a145c8928458747995734551573176669
col01:   726486771796515a7969893788567a88b78885675894b86ab362675a5945e79966544662777386a5
col02:   37315159684687857396679745a7674454c998a8579778a8b85972b8844477765517634634726969
col03:   5866c3238696693478358786458788963a9558444767638a887953743c895623396479b6267989b6
col04:   614361b4b98346669667774adb4d794926869945969483768698268a987b69976715aa4868546684
col05:   12327847926a513461a37778779549526988977787a842566726c7779b7488468856778565744847
col06:   41466345499148589137295a4597a52764699bb58538588a3597275949aa8866769796b678879a69
col07:   3235271a78815726737b377aa4998864a77b87769777968654a69983ba7972c9a865a767586696e6
col08:   1357452665488b9475867763746ca9d67373a6887665c897b7da9873858a68a865a8a6d593a59b89
col09:   46577851439496967a759946669c9564a49a646878988ca5c76993aa273469aa6a5a9696a68294c9
col10:   35767687a2854b449554343c87996b658977977767674566a7549458b79478b85678489ba859bb68
col11:   536567438612788347cba549758a7a9483795876785644696a96b56a64887727889669279277a894
col12:   7283217546665388675b546487728b6647aa9848989a378677a698bd566b9866745657998a7536b5
col13:   7672747848a4d75787787a34377258999496b885247978a5aaa8769a5687679744b65865a426487a
col14:   286677466964a864886885a597678788898a5637876b37c74c7a36768abaa7868bc6da9b9cba7889
col15:   431382a42575166d76836663b9678c7874a37677986564bb6545865825675a6b7c8666796985aa78
col16:   544667725976228661667a7a8a7889699d48b879b599ca368667b85b7ba7a728796747a97684add6
col17:   47545545a653448757b734a98985248795ab7895c7b5b499ba9aa7bb889d6468998982a446987a75
col18:   1138198542427b35596678996687ad55679b86449b398aba99937cc779194c6aa8b26b5947887953
col19:   15749466287475574786869ab8547a98696a65aa76c99b7c6ac69955ac975a9bc999e57a98959966
col20:   62527675a46464456977794aa66445ca679b45684a58aa8b45755b8b586b83a687679aa69b978b86
col21:   57586761483656665847486352a868c6a7b958ad4896649bb9b6589caa6799a7a768b36b57ba684c
col22:   156458245972876c857656c1a9587996bca96d6a895a88dadaa9ca8786a58846979c66996b955995
col23:   519636837889385765457b7567d8958b6679985784879677699c549aa9a7976588688387c6979747
col24:   72553767877486b947787a66a247a9cb5995ab88a987d7aa97888878cb88a6899975274998887963
col25:   9516a8684989a46b8187b6cba6a767acd99798a69abb9db87db78789a9b6cb7897acab75a7a9b7d4
col26:   7266b39a94a579a8796a6778aaca67a59e66d988a797b8dcabbcc9bdd8c97bd8a63cbae49ae889a5
col27:   7669895788cc82b9a6466896a86a82b8a959ca88a97af9aacd8ccdcac8abc6d96d58d75b7c7ab999
col28:   8299a8469ac7a57487a7aab568b99d9a7aced7bcaadec9b8cf8ab8ab8beccaac8c6a59788a7cdba6
col29:   649cb8a6b5587b9a799aa6e9ac6989a69487a98ca8bba596fbadb8bbadbcab9ceb9d87bb59badbb9
col30:   8a6784366987799a8575b9977c9883898d9a988a89dcba78bd67d9b9cb9c9d8b6e866ba9aad9797c
col31:   b57c95a5dca687a795aaa895a996bbbdb99ba98a8c98d6cba9aa9fbb9acc6bb988cabcb9ab99aaba
col32:   46b9586bcb8b9b966aa8a99999ab9b9eb8b7cfcfcbfbabb5a8ac8bacd9ddd7f99fa8cb7ab98a89ca
col33:   97889675797564a774a9964a85588ba9c799abbab99665d8cbdb79b9877accb9cac9c9ada9a4d779
col34:   a378a9a5895c796abbdb95aab9a7cc9b7c98fc87ac6fb7fcbbc8f9ba9bcac6b998976bb88fda9eeb
col35:   685555a9d67a8a98759686c8cdd68e9ce687dba76cba8bbdb9fed8dedbbdcbc5aeca7bd68bc8ee9a
col36:   b9a98685bb5bba58baa9a687ba99ec88a8c9dab999a6c9abaed9a97a9be9c7dacda7979bb9bba88b
col37:   974389aa88aa39eba8ad378ad8aadc9bcfec96abbfbd9bfedbb89dbacd8d99d4d9b97b9ebbb99eba
col38:   b86aab78a8a7cad8d796a995d98acb88cadfaadbaa9baacbcadfbaabc8ade95c89cdea8eadcdcecc
col39:   765a9847986ba5b7468994a97ed89b9a68e8bdebbd99cabacc89d9bbafdbbdaac6baa89c9de8ebb9
col40:   da986ca859bf9ab9d7b9bcc97baa898c8da6cccfdcb9b8d9cac5cadbed7ab5ae8bba6c9debaeddf7
col41:   966aaa4d7b7c8c97597a6cbc7cbae999da8ce8bb9fea9b9f8aade9abddaabfbba9987aaaeaffe9af
col42:   8a8a9648e6886fb979887cb8aaa8cd78aab9ad9d9aa9bacecbcaecebeac9f8dbd9b879bb99b7ebcd
col43:   99a5966fcbb8c5b5989a979997d8fac9bbb7aedfde9d59fccedbbbdbacbe9ebddbc9dabadaccfdf9
col44:   6c56aa9bdbcd9ab8d79b79da8d9bfbadcba99aacabcabc9b8b9bacd8ccbac6b7cbbbabaccfbcb7dc
col45:   9895b788997ac659a9bb99a8c9b9c8acddc9ab9cdbebfb5acabcc97bcefbdeebf79b9b9ffadc8bdb
col46:   65987c7899cb9b9c88a7cbcdbfcbccb9f8dfef7aedd9d9affecfbcd8dbdb9ad7ead6ce9cbfcaf9cf
col47:   9ba9ad85ab78baa7b9a9dbba8adccbbbcbced9baa969f88cbebd6beefabfdcb9b9f9cab8fcbcbad9
col48:   788979967b985c6bc8a989d8bcabfcaaacbccccd9b7acb8b89cceec8ebadccedcaa9bcdddcfdbd9d
col49:   6bb7d8ba6a779bd8aabab9dbcbca9ad9b8dfcfbdbbcf99bdec8cfcab8eae6bfac99ac986aabcdecc
col50:   ca796799a8acac98999f85cdebdabfdffbfaf8ad8be9bbbc9ddcdbb99facdbacdbcbc9badea9da9d
col51:   76768957c9458a86b89855b9c6d9cae969b86c7f8ba6bc679ada7cafa8fbbcbd7e97e98eb9cc4eba
ROC:	 BPix_BmO_SEC4_LYR4_LDR15F_MOD2_ROC8
col00:   a466947a395768c98cc897c6ab77aa8ea758a9a997b5c6a8bb9b77997ba76469a9bb66999b6a9b6c
col01:   8b95741b4579a8fb889a1cbaa36ccac7a8a778b97c987a9a89a3cebdfb8dfbaab8786fb6ac6acbc9
col02:   6a366a7a86999834798b992bac669c8ab9688798977bbbc98bc8acbb87679b8c99487d8b63a9a9b7
col03:   768c59aaa58799ebb7a58cb7a7ccc8a879a6fbb87cac9bcbdc64cfdaca8999babad67cafbca669e5
col04:   644c7b64b7975a8957a9da6658c966878ac8889c95e6af98cc88c4dc9cc9bae9bde99b9b3a8976a2
col05:   7a72a44b9b898c8874c5c597b77b6cbb6e98cba97a9ac98a797a69498aaa64d89aab79777a7bb985
col06:   8b8ca7847b3b7976934999d94a57ba8bda6a998a767efdcc5f887cfbc96ba93aa8caa8c88a898995
col07:   776aa8998417e7666ba6ca773a8cb75ce9d3f98a7938bcbfeceabbd7594578c28edda969e8b8a899
col08:   27634ccb554646959779a9a68a8c97b79789738d5e8aa7e6698cadcda9aaab7ba89a969adb799788
col09:   7aab99878c8696db7b95cb5c7ea8f7bab5b3a8cec87aa856ab567c9af95d699aaaa6b78adbacabaa
col10:   b587b9876c7c794a7b85dab99bbb8db7b59a6cd789b896b6af8ba896aa8ca479a9abb8aba776b8d6
col11:   a8477a7ab7a58aa8647688989579585688fcaa78c8859abb57aace7bab79b88769cfac97b98ba5cc
col12:   4b87b68798bc57c9bc87ea53817b8e9896acc94a99a8e5a99d7dc68658fa78d5ac98a67ba7a8ca88
col13:   75a878c696ae7c1777a78677997cb5a7776ccbb967b9b8a8a65c9aa7e98e9abbb57ebb6cb89966d4
col14:   8538469b8ab6a87295aaa898a9aeaa9ea9686ca7abea5874e8478ac98aaa96ec8a48da66978eb88b
col15:   54b8a9a9a4a7b68c5abac7abe97d9b9a7877b6b8997f9989568896bc89baac9e5b958a5b9766a986
col16:   5486767566a77a66878979f8de5cbde6a888aca6babab49ca659a5a99938dbcad8cbbaa689aed9d4
col17:   58b167a559788ebc7b8acaa87a4965b869aaca6d99999a59b9aab796889a94b7b698caecb779ace4
col18:   859154aa5476488a6667779f7899bb4d9a874db56ca9b9d8cac1deb869a496eb9b8bb9dc66a669a5
col19:   995b8a49b51989a98358ea8a7a7c8d7fd9fbebc9769ba9c386aaeb5b6a879eb898e77c6ab6958a89
col20:   67687a92a725b98b85a7d95ba84a7ba77b64b8a99ba747a8a859b78a9f8876db9a89786aa56a9674
col21:   6695845735465b84a9c9a9877c96cd7fda89b897689c7bdbac8b9dcea7c69b77a79d958fd696ca97
col22:   8966b668769a9679778659c765c8a75c89999ea8d6a9cc786cb787a89cd69c6959ba6aa56ca96a8a
col23:   6535427198a9d887394a9bd58929bb5d5da8a9aad57a7ab998d6ebc586aacb97b79ab9c5b68bd5b8
col24:   824ab454787838a7a79a56a6ab9c9689f68b559aa99ba775d4899a8f8a9c77b8ab5c8b79ad5b59ba
col25:   5a37653b8c9578575c67944665a9ba7596aabc6cbbc554aa99a88988bbe8ab99497ceb8b9748ace7
col26:   86869aaac5a3688cadb86754cacd99c8c9facad65c7bcabc9cdcaeaabfeb9afbcdcc9bb97c6caa69
col27:   267ba895aa59a9ab8797fbeeaa769ac8abea9ebbd49697ea9b98aba8e87ba99da8bb7b7aadaddb79
col28:   a4af9773a4b7ac498bbdb9eecacbdba9998eafa89bc7cba96ea9dcb98baacafb787c96baabacdcb8
col29:   6791ca15b3ab887e6bbcbaddbbbcfeabade757b9cdb8c8d5ea9ccf7c8dd9a8ab694b9abb8b7cb577
col30:   b56576bab887837c959cb978c9ea9dbbdbc55d7b949eb94da59bcdaa89deff9eb699bdacfae78ba6
col31:   77976868b8c8986b86588a6b8cdcfc93b8dfa5df7acffd8bfeccdfc6aadcfaffeaabdb9c9cab8bf7
col32:   a7c844ac6a8b99ccb48a7ca58f88bbfe7bb8ca888c6abcaebaccbfcdc99dbfafcbade8cbc8498a7b
col33:   b59a787b95d9a9aa63b68fec8bbad9b9fde878f79babda99deadc7edbb9ecaeb98ca8d8adac8fce9
col34:   f878a7ca75a88bca58bdd789b9aeaedcaacb9f9dbfefbbddddeba8abcfeeacfcc9cbeadb9adbecc4
col35:   587986b76adba9a788daab668bcd9adcde8b5f99be6bfcfb8bb9edbbda869dcaabfdefeaa998aa9e
col36:   d9858a67eaa9ba9c8debaaaadcab7abb8afeae8ecddae8edcdebd8c9bc69c9a8adcbeaced5bc7c78
col37:   a886c8be6a79cc47a978b8f5fddeaadc99dca69dfae7e9efcacbefcaeffddddeea68bcbfc59aee8d
col38:   817b4b8a87ca984c9bccafde8bfcba5ccff9cde7a9fecc6aeecfac8cce7abc89aafdda74f8bead9d
col39:   aa69a88a6ac88bdf9bb5fd7babb8bdba8bd9b9cd8d98f98acbd9c9b9bcc7bcbad8bfbdadce65fbb9
col40:   789bb67b574fdaaa93aea9ccd9ddba8d8ccb69ddcc7bcbf9ccbecdb6ddfecf8aadc88b8bbb6aecda
col41:   574367b4c99a9fbbbbb6adb78cb9daa99fc9cab8abafcab89aad9cdb7c9debebadafccad9bcc9af9
col42:   7985a8b7bdcd6dabb9b8cb8992a8998c9dfbbac8e5d7a6c5fbaaabfdbfdeaaf6abecb88c8aa7d6ac
col43:   9a6da29f9a9769897b9c9c9cedd6ccabfa7e5ecfdfbae99e88bd8fbabba7ceecd98cfbab8ebbe9ac
col44:   a99689579b5b6dc2adfebdfcfd9cebafe8deddceb9faddbc9d8d8afb89affd8abacf8dcb68b7bbce
col45:   7a57cb6a99d7b798bcbf5dfdbdabeda8abccbdadaaadcaaadfafbabedffbdecdcbeaca9bdabf6dde
col46:   75a8bd8cbbfcac5fbd9acfc8bbdf9bfbbbeceed8ed98dca9facfabe9d978fafc8a89afabc9d8a8be
col47:   ca7486cc8dcb59e9d8cfbdbab9ffc9bb7ecacdc8aab7cbdafffeabbbdf9e96bbbeabb6aacddbfa7c
col48:   9967697e8cf8899cbda88dc9a6a8ea9bdbea8e6b8fba9fafc8b3fceab8cbbede9bfa9aabdde8cbda
col49:   a988c7dab9c8a9e8a9eb6ddcbac5bbddccfed49ccc8caad87da8dbaadd9cbb78daedacacb988cb5a
col50:   9aaca77b45a58b564ac9b69ccf9fedaddfbddbe6bb5c8cc7d2cedafefeeab9eb98b7bb97af8e887b
col51:   71d77c686ac566a563d89ba6699a988796b9cde76ccaaa89caabd757889b89455dc59d28a77cacb5
ROC:	 BPix_BmO_SEC4_LYR4_LDR15F_MOD2_ROC9
col00:   764137956471416642a7674117467b3942384683c366357895557517788518813446511761922141
col01:   55584b9366263472b5566adb886a485ac887aba879ca5b37994784875a6a95b9748b78976a638645
col02:   25457164943626423777877481638a356a977477279ab7766727156b964999617776323365583663
col03:   52848775374b47a9857145ca6a1278949734e989779495779835387b7bd7988a7b89558837a3a355
col04:   263333663915d3485a838a37499862ab91ac9b587777688a5c8857979ea6758a67765b8587695597
col05:   78176597a171343686929665655877796948b69335657c8628e386b58a7a88876c4a967868494555
col06:   953553646767285652644a76267d8766a4859c5ac7a4bac6666756f675466366a672ac9a61799671
col07:   68897286651a5c7cb77a8984c8579998cbb7c98879737499a827389e9877b55a8968a76397255844
col08:   6581747765445864a9976385aa7ea8174a6587987b36a47a5a59979742593c4a54c5765969a96981
col09:   9b12538569588896b9aa78b788b547b8c89a89bb9ada867986aa899479a6864566798a924ca46775
col10:   446645166886b38c846756559aa778759b489cbbb68a9a6b9ab4177a68989a8cb7789958b9922774
col11:   3668946877166a759a7bc97a9494a597967aa978abc5a9668cbb7bb7769cbc7756a6975985886982
col12:   39174a763c9346785cb5666627a3ad899aa95a88746b8d3a6ab8a67977a9a66659357ab87767743b
col13:   726353a426a3565a47b733b76b794e689989aabb8884abb76457acab6a932b647674745b8256b825
col14:   45c33454165476463879b188f8785b5777a57b489b78aa97c557aa869a9655689794c3748a2754d3
col15:   76881b7656895745675a7895b64c57795a97985a647da86c7a9a746e6999a7c867aa4a97598a5895
col16:   754b5a765a91b3858856c86338c5967bbaab96aa5aaa955878d6a9767d59b8996696b49794b88a68
col17:   47364a659476969c545b48baa6a966b95c7786a7ba9c88b7a3788b99acbbaa47a782948767766994
col18:   35362534166553998aa84958d99dba99c6888995947a712a857b78aa69727b6a1669782552855365
col19:   1646677668585438458a734891c6b5d9d9a7ab6ab959b94699b56a72b7876a589a7aa51a857766a6
col20:   532742385123569b34784a68967aca55a87fba195b76779766a88998968a69899a85367737651957
col21:   6a27b64617486a8bad7a78959377b6c679e94a24865a892a5768b7785fc7b9ab86889515a6367166
col22:   23536672975979c6859676c8a66699846e6b85c8d996c8c794c83aaa578a979789ccb6549733a183
col23:   5855b7494536563798485a8c58876a8ba65a94888a96a97855736ab9a7c589a78d687684779a8677
col24:   44367863a5282a976a7267b895688d9cb8d7895a69bb64597a8ab587ac888a1887ac5798a5337693
col25:   47223464aa4567c6c87bab9cab7bebb98ab46d9b3ecac9c9cb8dbc88c9a697b6c778cc97a98238a8
col26:   7457975267557b8abbada75dab8a9e95f7ba9f6cbb9b9baa97a9b98be95b86a55aba9ac648564247
col27:   8a799ab4ac1956c98a9d56c97fc98e5bfbc8ecd7babaa4bd9eec7e8898bb9e8a66995546856dc8f7
col28:   8d9364964679a96a5b98a976c55ddaeada9b7d8cd7ebebbf9859cabb8bdb7e8ab8cd9a687db95969
col29:   467888a8666bb76aba49b85baabcc1bf659dbaff99acb89987c98caca98a7aa97cb999969a8d579a
col30:   974967376969a799e977b9b8b9bbae5a7c88c9898dba97f7dbf87f9ac88b7ae6893b7999c593967a
col31:   973d9b6b98a859cc678d5fb788cadcdc9ab8a9fedeafb6bbddcc9babeabcaac9d9aa9c8cb588b584
col32:   9694baabb8d98989a7b6a6eb79996a7ccadd9dbbc6aea8be8add86eada796dc69888879eba8cc886
col33:   5487677567a26b969aa98bdcfbabbce99a7da79c9ae68f8fcab76ab99cdfcbbc9adca796daa7b79a
col34:   aa5949a4a7bac8b58acb886dca9a6bbcb88aea8f8faa9c8ba78fb97ead4d5bdcb78d7569d868a299
col35:   879789a8b4ab996fd8cbcf7878a7dc6ae6e9dbdcdcdacfe6dc9de89c99bc5cc988cbdcac76a97eda
col36:   678947524a49b976a8cbb6a5ca7467bccc9e79d49ebdccaa6c8ca5cbcb99999bb98b7ad89a9a7632
col37:   9a88c89c758b7ca7dbb99fa9ea9c8dcaaccba8afdfc99ac9adafeadd8c8d7fb99da386ac94897aa6
col38:   78a9e32a57858afccac8bbcbcadaec8b9ac7caddfb7e89ebdbb9fbca8e7cc8fbb9acdca84c8bb999
col39:   b978796cb9989fe89699ac5a8cb9afa9dbcb9cd8cabbbdfe797e9bacdb9b99a9958abc76aac8acea
col40:   b8897ba8db898a9e7b69bcdb689afbb89aabecbcdbdaa7fcabdb6bcb99bbcaae9b98b9585b788399
col41:   794bbcc5afa8d87fad89c9ce6bd79ae9fb9dcba9faf9ccacc9dbb9beabbb8bcd7db5af867ca3a887
col42:   6a89684795769a4b898a6a6c85b787cabc9cce7758e8dafb95aaab99bcd78e9e987aca566bb87c76
col43:   9b8a7b9aaba9bb7cdf95faaebebbabfcbc9accefcfaccbdfdedcdedddbbdcbdac7d7ab89dd8adbc5
col44:   a6974998a3996c7cd847e99bd9edcd879ca7bf9ccb7aacebcd796b9ca9dbaacb596b756a69aa8c96
col45:   7866787b48a5bcbd887b7a87fceeacddcaecacdcdfebcfbdca9adca5f7dc9f8bb7a76996568a8db9
col46:   87c5d4997e9b5ca94f99a7abae8aefad79cbaca8ecc8eabf8cecfc5999dabaec9a98b8d9b7676b6a
col47:   db3886bc899a966bb8ad9ccb6aebbeaf8cabbdcbcbdeae8dcdec9ee9bdabaaa8a9cbfcbc8976aa75
col48:   68aa46565c4a9baabeadf48ec8a49bd99cbdeed9ee9ac9ccc79cdf96d9dfbaaa9caab5aa9bc8b77a
col49:   9998d56b789c77abcadffa86c8efb7cad8fccbbadbdcfface7b8d9edeef997abb8bb8edb6abd74ad
col50:   64d8897e97777c7b9bdbc9d79eeebf8cc8afcdfccfbbc6ddbab9bbc5cadeabdeff96acbab66e6c55
col51:   69464a6966a99b7794cc99776b99b8ca99b9dabcc6b9c998ab8c8c88ad8d8e7c68a864a6987989a9
ROC:	 BPix_BmO_SEC4_LYR4_LDR15F_MOD2_ROC10
col00:   4577bb7a7677a8cc68aab8b9a84bb99d79bd79aa6b9eaba89477c57a747849886c68487b46b63745
col01:   98a79859a7c488999caa99cdf82bc6ddd789c9968a9d7dc9c85bc69aab95b7897a8e7bc485556757
col02:   a89869a686998aa7a8cb95aa688bc769478ab697a4ca86abb885ba59ba4b9c8993c6ccac35796772
col03:   9974aa57bca7a68a98accbaac9e9bcabdc5cc7ccbebbb7899c9ba8aacbaa7d7bbdbd8a48469aa9a3
col04:   ab59aa9597a87697d9a648ca999d7dc97799fcabcb7da899e9c67aa8da8cbaacf776caab8a5c76a9
col05:   b86789698a5b9c6aa8c6c89cebb897aa9ac9baecc97b8ca7a8caab8cabba9cc87c97984956a8237a
col06:   79a75986a9a7bd95794ca7b9a8a4bcb5c77989c77a9aca9a89aab7885ea4c7a8db67a7c9817786c1
col07:   98869b8778895bbae5689ecbaf7ab9cc9a88ab8b9de4aa88bcb6ace9a796a8f359ba96d976a46a58
col08:   29654746967785b9992e68a878af7c9ebbaa8adbb97d8ba76776da888bca56c69a888c5b69656587
col09:   ad6b6c8b9c6a9aa5787f899ebb998bb99daa9ac9ba8cca98bbe8c68c7cbd8b8c79a3a7ab797b8936
col10:   9468943a86aaa5a779ab9c9979787c79b99d3d6ab99d296a8be67bbb8595bca5b76d64ca76516785
col11:   785875878d45c59b9b464a9ca5c969c7aa9aa99cabb965a998b784b57acac9994876798599a7645a
col12:   7a59886585a68888bb7686b8b96a8a759abbc7bbdab797bcbb7ba579ba5977bb96b68bc778899a96
col13:   6758879ab99a87d889bb8a889c8b6cbb8acc8b998fb69a5b5987b989c99768926678cb8ac585e479
col14:   b861788b6db96779a87add397a67dd958bad6ca868b7aa8a7ad9a898aaa8acb8b4679b6c7c756656
col15:   b835738878ab59ca5b5879a8b57a95a99a89c955d97d9cbd69a967ec69896b77768597a757a975b6
col16:   6669899c79a6a8996b986ab69bfbbb9b86e9b97eacad75cc8998a78cf35aa9999799c95752787767
col17:   765757a4978437d97672b66789968c9988aa97b8b5439ba9d65ac9a8cbdc9a374b5c57c769276856
col18:   9a9b9a669978d4a9b9e76b6b9a9c69ab89a79a969b5a6c8d6b9a89bfdda8ac79799ea774aa598cb5
col19:   6555795a6789694777bbc98b89498c79726dbbafbb54c8784a9abac95a8838898e55965969475976
col20:   b58899886777677cba59aa96868ad5b9adbdca77cb978c89a9a8bc89ff87977e5ca98679a4873874
col21:   7a8677776a8a969b97767a987979ab8869ab8aaa99ae5c689b9dc88bbeb976a87b7788854a688896
col22:   37676cb6877877b868b77778c884cab88fad76cb86f5a8b6ccad6ba79bbcc8a93b8a648a18698775
col23:   8993b4b4a6667839985baa78bdaeb9a599d91adbbeaa9aa9d999a9bc7b4b8a99964b36a735a61972
col24:   7768869474796a8967ac8c6698a79aa66a99ad6d9788ad49a887c5e7cca8acbaf75a956652574486
col25:   7b985abce769a87a7b7688b9bb9dd9c778aaaa3adabcaa9bc9ec77999cac97aa7a475a7579456759
col26:   b968d9a8ca69a99aab8dbacbc6ab8d9b986cd8bddc9bfa8fa8fec98aca99cbcbacda8b678aab9759
col27:   9c979c9a7bcbbb93b699a93777acebbdbba9bccd97a7aadbaf6baa9eb9bacaa9dc8bc996a69a83a9
col28:   99cacb98acaab979a8a8aaad6ab79aad9f7accc9ddcfcfcab87b98ac9cca9a6ab7ba78bc7376a964
col29:   9ba7959a8b999cc89898c799a48ce98f9bb88cabc998cbaad88bbc8aaba7897b784a678f89866b96
col30:   a96781945796cdf5a8b487cb6d7969d9ab6cc9987cbccac9bb9c8b8cec7b99b7d997a57868879d56
col31:   99772e6c97a788cb8defab679aae9ce9bebedcc9c9abdf9bcbb98acabfdbf9bcaaac998e966a9598
col32:   5699daa7699b7bbb85ddaaacccda9abcb99ace8b9ccbcd8a8b8c9bee48aac9ada857c879b98a6856
col33:   9fbabaaa88c9b7d7cb79dccea9eb8cd8a9aecbbdabedbcbacddd898a8bddc7caa9bb9a877989d69a
col34:   bb796ad879d9b8d9e9a68cbfbbbdede7b87aaa7bea9dd7ecbbad6aababfc77a59bbbac99987b6aa4
col35:   55ada88bd86ceaab4ce9cbbcbd8eab98cadacd9cbaeaeeaddab9a8e87cec7c989c87c77969b977a7
col36:   a9856e567ababa86d9fd988caa8eeb8bccdbbc6eddd9a9698dafcdbbcdba9b8cc6afbba968b66b94
col37:   a887c868ab8599778bd9a89afc5acecfcaaabcecdf795beb8dd8a9899ec9a8c9a8ad8b87c788997b
col38:   6e788d85abb8aae9a7cb879c9aacceeebdce8d9d95aca99c7b9f9dabaf9bbda9ccdc7a9aa8a98b79
col39:   b579a9a795ccaacc7bcabead8df99aacfbcdecbe8ad7c8cbdaebeababe9edd96ecba3cec999a6f38
col40:   6d882db88d889ca8eab7cdcb9cbdd6dbacafab9eae7dadfcd6a78d9dcbbd9fb8cc8fd89b99556b97
col41:   8b879bb86aa8aa87797ccd49caeed69b9bdbcd7b9bdcdffcdfabb5e7afebcb8cfb6eb7cbd79aabb7
col42:   7bc985986c9dbbb9baaa69b769cbcadcd9bacbab8ac9bdcb8a89bf69bdce8a9c893caba98ca88a74
col43:   dca699688ab57bc9a75b89b8c97c7bdbbddbf8aa99cedddece6cb6bafcbaac96aa8accb8c99899b6
col44:   cd9c9a8bc48977a89a6b9fcb9ad987c9fceb8a78cae89cb7ecabcaba8be5aa68eb7d98aa87c759b9
col45:   78abab5929c98a7dbbaea889bcadcdccdbccc99cacce9aa9c96bec9adbaaaa78cfbdcccdeb8aa968
col46:   7dae6abcbabbbd89bd9c93288a7ca9a977bcab7c8cfaaaadc9cbca7d7bbafeab6998877e6b7a4987
col47:   97cccb688bbb7db89baf9abbcabbaadfccccfadc8acdaacab8b9bccfecacbdbc9a8bb9b9aaaa6899
col48:   dc9abb7b978b8b17a6a89a5a98abeb5e8aeea9dbdc9aeaacbc8e9b9b85d9ba8a78addb87bb79b586
col49:   baa97c57bb46c989bc7995a98dcd99a8966d9c9be58b9ced6cdfcbcadacd9c95fb67db69bd5a899b
col50:   98a4b86aca6bda9bb9599d7b9b99b6c7ec5cccbcbbbbed8cbbe89accefcea89b5b96fc976a57d8ad
col51:   b88d3c2797639497a5754a494a918eacbcca7ca7a8b779dcba7d799b6bb7c987a76a78b736815766
ROC:	 BPix_BmO_SEC4_LYR4_LDR15F_MOD2_ROC11
col00:   25496675667271746913d6a3aab85581693797544a949a471447455657a69a545638525554353213
col01:   319976863755ca8a887a66bd8b89675688a9aa43794a569875c888c7379778599976f66718483694
col02:   7191569471725764a69ac46346a7a67b88617676c9782574496939b6888294652995594a847638d7
col03:   7667a65446567893474a834b599a5b57b2985c536bb46a165a659787738a2a68c764687246658278
col04:   31276a866a978577a6a136a75494654568568758a4786559465794499775e89966b576776797d4b7
col05:   6583979824773549718574a99543898b8597bb9166e689856789425635655198765b49967a8a9545
col06:   71488447b549a4aa7464ba66726e776876e79a797c6ab4b5589961857aa68587886b87a6a9396356
col07:   a57a734535a9957364868b77755877b55799ab769ec935a979e94c7386ab56a9b5a5aa9c869c4a73
col08:   1458614146b4495572a499a3b54acb979c965838864a799853877a76b56758582971f88795999786
col09:   82492477c43442697887c728944386797888b8ca8b47a98b7148a98598545533855899833a4c8cd4
col10:   638666634963889a299463a4766a89a8a68a8656c57889466aa2c7824c6d69d559a6a95753868a43
col11:   2558476775a29b6198633b968746788a8559979a968847a9864847b6b6373666655456a886684186
col12:   78519b47164549278577c6b9688a5785f578a67598a896a8897bc97574582ab57746887255664b38
col13:   767658597838ac9ac8895a689cb96a9fa66a9bd9c8472a4aabac9a8b78596558998ba94888468494
col14:   212a68a7936da4a69997a58999b7a8789a9c769885658ac9c658435848947b7b1871879757a5a794
col15:   64525b836896676812573a6587a7aa646ccaa75585966a9bd8fe786956a658b97b69567463596d86
col16:   7675624bc56596e55982a986c3669c9a8aabc7bdb15748576aa279567766dc64768b7d87139667c3
col17:   5125128757457996a7746998979c875859c9759875a8785a99d683655767873866e7a99a9757ca77
col18:   648b47896766b7891697a675766779649569973c772c58e2a6686757a894a7a97f6874a988734284
col19:   47563476c848b7d768665ab7b77bc56a8aabcac8d7377986a88a75f94aa8798276aac43369a69597
col20:   a685946a757145584a79cb59a6d5a6d8a9ba6a966759e85da865887989c59676986483764a46b494
col21:   5527b285778a66b429974b98abe8a96b7989969b88769599a599868a37765da9789999995a676836
col22:   697cd9a5368c995727b67a7378aba8d59b946d66e9c6ba689365b8a978686858d6d4978472a65769
col23:   5636998847949b685b7363a9b998976889898a9888a5b278a97979378a5967697828e5686a77836a
col24:   a778797d849946ac978bb689b75343724a6754764bc73485c9a9365a99868519526a8516a36b5235
col25:   637ba8c3646a868ac72cdbb9672e9cb7a7756995a59948986ca8a979b897b7da8a69a968687c5d86
col26:   96946c877969db996a99a9f997688897fb8ae977c5c566667ff675a5c5b8ca96db549a986844ab97
col27:   da69a35575879568e956ea37768cb8b5bbcc976897d27a9898aacbacbc7cb65946449b778a78ac73
col28:   9988767bc87a859899868ca49686a566aca9bb9a5b74db97ec789cabb848ad87788397b9aca7a8cb
col29:   7c88ad857bbc77786897b9da88acd6498da66bcab389fe9788b9ebbbd7a9cff9ab88bb87839885f8
col30:   c889a3a888874c684a8b48778aa657da9bb8cd4ca8b596b577dac69e9aa479a57cabbea6789e94c4
col31:   b876a798a7a89a4dfaa9d6a6cabbc889a899a89f88b89ca98ca9d898a9978cbbbdb88a9ccb96c8be
col32:   6a9bc78c58ea849cb8b86d9eadababf998c4d77ad2cab6cebaba9adc8aa89778b8a78edb88d8ac66
col33:   b88ab76939cbba97abf998966897aad488b9bbe9c7bd8aefccbabab7beb88baef95adab6888c9899
col34:   a57b496d9a83ea86b9a9a699edacbbe4caca8abcaab7be7ddabb8d9bcfadd9bcd7dc8b79adcacd77
col35:   993a63ca77a96b58aad7c89ba87cdac888c9abcbaac4abcfedca9c9ec6bbcd9676abdb4e9798ba7c
col36:   8763a389769197a9acdf975ad7997db5ade7777b6b9a9cd9fab9fbcf7697e7aabb7aa79a3c9a6ae6
col37:   aa8a7d9787a7de9dd8ecd8b6bb2edcc98899a89bfb9cafc8dddca6dba8e6bdedfbbb9d998b9a94c7
col38:   8766bcc88978a7bdf6b86b89c98ea9dba9e9fdaae89c4c9aabaabeb86af6e9bbbdcbda99bb6a9489
col39:   8a9dddd58c88879ba6f7bb9c978dcbbcb99ebb7bc9adf8bd8dd999ceb5ac9ca89f664cfeba8aae69
col40:   bbbc9899da36dd8b8ad989b4a8bac9bdfa6de9e99879d7a7bf9acb9bdace89ecd8ecea998ba9db87
col41:   aa496adb79dbefca4bbcfabb8ccbc8d7b98c9ac8dbeaa6bdac6cea99a9c9cdfcaebab8cf899eec8c
col42:   998cdb1a7c89acba87596fbcbcdbfbfac9b8d7bdaafdbcfabacba8b8e97e7a87bf959c3eeccdddc8
col43:   cacbb9bc9bcac9aaccefbadbd76f8a7dcdeabce69badbd8cbd97cfad97edabadbaeacafcc9ddbcbc
col44:   f8699aaccdbc9deadc5e9cb9add6bbbcac9dafffbfc9beaad6ac9aaddfedbaabad5baad6baaadb8d
col45:   85a6ecfc67faa9c75aa9bd99a87fce8baaeeafdb5befecddf8a669adaa96a9b9bb79abb9fb8bbca7
col46:   79bcbaa5cbc88a98afcfb69eecc9cacbbbd7bcafacc8c9edefaaaa9a9cb78ebaacdfdc99e6aaa8cb
col47:   ab56cc7d8978baa9cd99fbace8aed97fdbdbabcd8abddf8eadae96d78acb699cb6b8acbdcc88c9c8
col48:   9e97a49e99ebadab8ba9bca7bdd9a9689bcbaaec9c8bcabadbc86fcfacbcbcd9cbdebac6f888dbaa
col49:   7585c5b99de9a7edb8dedbd9c9b9fdebedfa9cd6fbcf7dbfcecaf8d9feccabb9b98bfddce99d9d9d
col50:   989b9478da8cba9bc93cd48ab899aac7cdabc89dcacfbabbf8dcccc9ac96dbb9bdedba9abaddddf8
col51:   56b5a8b7b87a7796b6647a7baa865bdd559d8cb4a5dcad8f79dbecc946f6987988baca788b379bff
ROC:	 BPix_BmO_SEC4_LYR4_LDR15F_MOD2_ROC12
col00:   6464456594174793bbaa56b78a7c5987a94bab964374996b86a58a9acb7a9977a6664a9947796645
col01:   98687d779c8665889964b57d49757989a89b45956ab55788958d9dbdbc8cbd9a5b989ea45ec7996c
col02:   9555c5577a3b974775548768876ba788888caa587797697abd84ab96caba97a67876a6bba8639765
col03:   576588467285a987b46699888a4798985696c6baa879c698b8586987ae88f9db999cb66c76a8aa99
col04:   6668765775c6677a882db678d775a57998b957796668a9783b9aa8bbda956b58bd7688459757c6a8
col05:   4636855179635599878aaab89a7b6a899cbb95bb497978967a7bb8c887cd9599a99b8766db88a676
col06:   b955a75474a99425d6896a9686645bb7a78a9b6af76b59baaaba6a889956748c9cd59c8667b5aaba
col07:   94a2a7798573c76869d9b56b5799fcd9657ab9a8b9ab79caabbc859889b88958aa8793d9aa879bb4
col08:   6ad7989954549886489ac998575794895b68c9ba38598a89a16bb69a67959886a98979b97679899a
col09:   878874b862aa4a97778acbb788bdbcd9999c3b5dcdaa9ba8678a5aa6b7ab8a8b9a6b878869c9e397
col10:   5979c96568878698c6ab796b99a996b58587a59999488b9ad6738a96ad975985877687384aa9b977
col11:   626749527799c95787d7d863ba6d35a88cbdaa9993cca995ba9b8b89987987569b7878cbc3a88b55
col12:   15664956678578859568668a749c8895cbb877abb9988967b993dbba9ab8aa9648b7a9a9498a77a8
col13:   777598a427291bd97a9ebdafc899979a4d9b876ab97766cb87b3b3a88a47bbaab99ab769bac39659
col14:   6b4475659b8498891869a667a6d8c765b8c7c487879b9c7ea87ac9a768b85696aa957b6579977d88
col15:   a8289b77585a659a7788abc856b5abdd6ac569987b9fa9aaab89598597668a7bc766a697387a7aa9
col16:   97728878958668a87a8997a6b8c8c5b5797aa678d58cc85999658abc89496b88d8887e36f8a784aa
col17:   7489a979a77b9989a771437aa682789669aaa69986b359a986865a76a75ad7495387a798ac87b2b8
col18:   91778358865836ac68959a9a9aeb7989b8aa999459556867e93877d859aa8874585bd68745949898
col19:   63899787a6b857894a9775aaa8a6ca8c9bb9c8b94a5ccaaba7ab986496897b67988a7a4a95988765
col20:   4486679b96759c99549a99a6c48a9b75a786a9a88a78a98a7a87aa69396ab47b543cb67855c5384c
col21:   3476a8447b9a775aa979acbca2ab7976cb8b7aab75aa58a7dbb6c948dcab767b94696a9887a9aa66
col22:   3664557457c987bcba8876879a9648a3998b7b67aa94b99aaa8cc94b558a8a9a458a884cda6c9987
col23:   77645888768876a597e869584aa979a37839ba9ca968a5956b8786a8a89bab7adc78888759798988
col24:   96a556c579682881b648453867e73ac7c74a9acb8a6874a89667377b96ba69c7c6786c9796a875a7
col25:   959a85657aa78958978987b688a9ba8a5a66a6c56bcc9dd488bb7ba8acb98797478b8798e9d6c884
col26:   9bc95b7677a78a989bb98a81b7aadabbb9bc5dad889989a98acbc8879b6e7667d5b9b9976ab7c878
col27:   ac9675677ab99879b7ccb7a8a8def998bab7c89eecdb9a8ea995ad7a8c87b4a2639ddbda8b89a98b
col28:   39c4b756888b8998dc89bb8995a597b59a7dba5babb7faade9aba897aaa6bda9aba4a8a888b6ca7b
col29:   649988bcba9797a655da85bb89cdcb6abfccc9e9fb986d9c7ab9aab7d9c88899689b7a699b8aa99b
col30:   83585bd8f6869687c86c88b6984a9d59dc7badceaca9b98894cb7b986a7aaa97999d5c77c4bd97b7
col31:   857b699ab896ab77c8ba9d77abeb8eadcbbadbb89cbc8bddcc9b9b9fea7adedf87c7ccb6aaa8b6ba
col32:   9ce789a8e667ab8a898ec8db77dc7db98a7dbca78c9ed7a9c787bd78a7b8d89da9dd87aaa95c8da8
col33:   96a5abd7aacaa3b3c39c6cdd99ca87acddf8e6bbc9aba8fcbbd5bda9cafd9cbbd468ad9cabbbcdba
col34:   a6af98b837ba8aa7d5c66c99ebccbbacdc9999cdaa7dba9aeaadb94ac76b8ac9ab98eab59bdab89a
col35:   9897aa8a7ac5ab99c59e88e8c8b87eb987f89a778697bb7bdab89b99f9ccbc5fca8b79d9b8dfd9aa
col36:   a6b79d869785d9c7a77daabfccaadda8b996b7dbaeebbfaf49aacac78a9d8ba98ad9aeebbc9bbbab
col37:   aa897bc99aaaa999df5d9ccdadace9baccb6a97a8a7c79fc5a7d9b988999adaabb7aa9a9b7cd9aa8
col38:   88a3b8aaac57acab8c67b9c98b79c9bceccd9ace9dac95aebaa8c7badebdc9af9daccbc9bc69ccba
col39:   887b798a87b6cbb9b5cac9d9b87a8c9bcde8bf8cb7b9b5d979cb5aacb7b497dabb6a89e8a8bfaeca
col40:   685a77bcba6aaca65adb9b96d7b89c98beababeba899abfadb7ab9cae9d8cddadaa9a9bb9ca9a8a8
col41:   898c7a8bd4987cbba5787a99a99cbbcd77ccfc6dab9bc9ac9fa75988bc8e7a9d69ac4c9b678bbd8a
col42:   a6367ae89dcc7d886c9bbda7678caebab6dfa88caa9cc78bb7bfcba9b8aff7a9b69bbbd4c7e7be86
col43:   9a76a798d7a89bb9cbd9ab7a798b6c9ad9bbbdb53bc8bdab9ce8e6d99aa9ade8ae79bc8ab89aa8ec
col44:   b4a66d8cb877a8c88aab8cb889aa698b99acba957aa796d9acbe89eca995fcba5b9bdd9966e7bea8
col45:   b7388789bdc8db76888c8bcb4ebfebcdb9bb7a6cca8abcaab6bad9e79dcda9c9bb96bc679f9bec56
col46:   797cc9ba65adedc67969cb8caca9cdaadc79f5a479af8b7a8c5c9c9cccb9a89aac899b7bb9c7bca7
col47:   acb977b99799b8978ce9eccd6ba6f86c9eb9bd98c9acc9aa5bd8cc7fca9ab7dbc688f8c5a76dea8c
col48:   c8995ab7abc989ba5a9ad9a67cbc698aabb7dd9a7679bd88bb9eb6bbc9e786dac8c8aa99dbdabbe9
col49:   9659a8ab6ac989889bccd5cadb9cba9baacd7fd4adb7a5bb9cdc969b6ebfd9accdd8da9eb5ac8ad9
col50:   99c7c519deaaccc98a9aba8b8af86fe9b69e8caeeafa98bbade5bae5d8d969afac799ca8daabc8e9
col51:   7a1257766b548e89787767c9477a888869c7b59cb9d46a7aa99868aa839a88b3a648a3b7599b8a98
ROC:	 BPix_BmO_SEC4_LYR4_LDR15F_MOD2_ROC13
col00:   74515274458527365945564529c53aa45985c87866a2865776a16883466599a1a87985a414737772
col01:   8c142a38b6769756879569b47cac9adeb9d8bcc8c7569685887a56a889677657cb4957433c539573
col02:   6441a5574516b9a6997596ba5aaa785a6488a9958bd74989796696aabbb99642ba4994661543a257
col03:   a7858a9997288988d316aa9998d595858ba9688c9aab9ac496d6448334b9a556a7592951377547a7
col04:   49246da66748657a964983455a874ab8a998a9596a66559979544a95848b73967569e56597741567
col05:   a5859883b86987a5464786247649685ca9a664885b7a9f6797177aa986b8725559756734737a4499
col06:   82181769626165994a4964aa768898b2c8bcaaa7ba4656999d448a8746a39a77318b854776597555
col07:   9a699d7a56937b4b49a44776795c7bea79abbcaa876898e6838778caa8dc7677d45ca8b4c3679925
col08:   6525889659993368a7b69986cabbaaad39fb998c6a958baccd97cb997b77ca7446b7879547516591
col09:   2c6889975bc78aa79a58a679b8cbb4977895ab376aa9c98c7acbacb7b8cb736864b57c8a52338a94
col10:   9aa553979a444aa65637787c7c6988cb878a698ba4ab97a966d9a4ca93ba469784d8688664746ab5
col11:   123388873997696b9846d78bbb287bc868eaa7d9e7b5a97b7a48ba65a899896994c77c5985599968
col12:   14869846896557585876349988b889ce667acb99c6aba5844876c78866a6b8936c68546924891494
col13:   76a4746869677aa77866689b957a6699b99cc8a758a85ca8a67967aecc9ea9d84746b64736543515
col14:   54587468a5d3ab8a9973ed76477a976b9a59fb499778c8ba85b744aad66788b8c67a56a93a718425
col15:   671589795777977d9a9b788a97b8ba9a87b59ccaba58cc88acc5dac6686548594587957458894452
col16:   47397564558895a626fa8a9577a8ac8eb8f58fbca7588b9cb77bca1d99a679a5d445544a41652811
col17:   984789a75a68b89665975867c7d8c59d6b9a8bab76ccc48c9576898b88a665a77788f37459578476
col18:   75c1965667f95a491a76aa5a8a499968696d76775985984a854a658ae796988a982699b488617741
col19:   7868769bcc9778acca9888c895bbd498fe8998bca886b3b9998ca89b77857948496788b548734674
col20:   763467bb7525a689bd78c6cd9c85cbafa93d68eac76c96c6a9a6aba7b76466c8a677a77952b3b417
col21:   67a53774652b67bbd87aca87ad898af81c89b8ce5a7a99c9ad6e6a77487638bbd8798c85585c7267
col22:   639967854792783798664b787949999949873bb3ed996caa778567966895795859995a3741645741
col23:   56294c6bc6656c6857b6b887ad6ba9487998a62987be6a9aad67ca7b987bc5ca5546d67465376285
col24:   7865aa3b496828c477a5477c9766df9897ca58a89c9596839a6a9b995975a45a6d68984133685256
col25:   88729ca38898b95db6af97aa9766959dbaadc7d7acbb7abc99da5be7a8dbd9799748666a86886773
col26:   6a8bd98968cc979b9bdc9598bd59dda9cb7ccebe99bd8696e9cacea85aa99b887bba7bb59487a671
col27:   6d671ab57dbe8a77b978a6fb6a7a9a99a9ad8daeaabb5adbdbf8794ac79ac85ab73598ba8b196973
col28:   57f769caab8aa5c67b738788bb9a9e8adcabbd9bcb9f88f9eead889eacca6aab76aac95978779974
col29:   6a7a9787c78b9d99e87d79e9dc9ddebac8dcb9cdb8a8fabcbcdac7d9bdbb8c97d4fa97a58cb48653
col30:   9588497887dcca699bb98e5accab88e7fdbcaaacabbaaacbccbbdd89ecadbdc74a67ccc17259685a
col31:   9a17bbf5a898c8cbd9adda8bbabfef9fead79ebbedddefaa9d69adbcbdde9aac7a886cac5aabd692
col32:   a9aeb6d979996c8f9cb6bda9aebaaaa9acbbfde9bdbb9dba9a97f98be98ace99cb987eb976a68db5
col33:   4a478788877eb7c9b5dcb6acdc3b9ab8ba7fbcca8c9b4dd6ee97cda9ccafbcaea669fa73aaa7a676
col34:   c8a483d68b989bbff8aaafebbbd9fbbdafaa8dd8cdbcb9cdffcdefafeb8a6f9bafa9a8c686979849
col35:   9c86e6ca989bdebb9cba9aad9dcbbbe99edcabdba8dbc7cabffadfabd8ed7c9da8ab9cdaac7c88a9
col36:   96487976eaab8abadbd5affa6ddc77e7fbaedfd4adadbaebb7babbaa98b9cf599b5a7b889cc8254b
col37:   cb88ababeb7afbaa8c8dcadabcbdccedccdffb9dcc89cefe8da9cbfab9acc9d8c7ab65899aa9eaa5
col38:   5cabc688889ad997ebecee8cca8cdccc9ffeabfdc5ae9aafe9ff9cacbcfbcda879896bcbabbb7d84
col39:   89b97ba97a6a769f9bfacebbfbbdd7de9db7fbca98bddcab8d7dfcbbfe9c68a9da77edcb97a7aca7
col40:   8f8dc4c7ccbdb7b9befb5bdaedada9bfefbddb9ed9bfbaedbabfdabaccaeaa699e5a8cb99b8398a3
col41:   aacbc9b8afcaa6fffacabcfdeffcf68afeafdfebbdabfddcd8cdaabddfcfdd9f9d399da9beac4dfa
col42:   6d69a89968babc8cebfcfcddec7dfaacffbcdcabea6fadcad9e76e9f8abbacaa7c597d6d678698b6
col43:   989cd9eabba3fa9bbacdbbbeeec9ddbdebccaffadfaefefbdbffcdcebeddd9cbe79deababbaa3dea
col44:   b859a8657f9db9dddfcbd9bdad9efebbbdb7ee7ab89bfcfeded8dc7aa9beafd9cb7cfba8cc7c9da1
col45:   b96b7cacbbd8b4c9ceaeafabd9dfdc9eb7f9cdf89b88a8ebfeaecfbbabda8a9bdc89786cab9c575a
col46:   8a6d99a97beaec9aebfbabdaedabddbf9c89cfedabadbbccad9c9dca8ddfebcaffb96c7ac6bbcbba
col47:   ce7bb8b9987dbadfeebeef85f8abdecdcdcdbebfbefacbcdccbdcfd88beca9ccabb7aec8b9a69586
col48:   8c996dccd9c9bfdaac8cacefcd8cb99cdddfbcbeacbccdfac9acbc8bfc9cd8f8e69d699589a895db
col49:   7cdabb97badc79d9eebcd6cdd89b7bfcccaceb9dfbbeeb9cfca9aa9bdbed8bb9d7c9fdbb787979c7
col50:   ca9a4d89a9bd9cbb97eab9cbbcbffb9efdddedcdecbba999ed9bfeaabdcbbecf98d9a8aa86bbad38
col51:   5c64666988be8ad989ad84cbdcffbb88e9d8cf9fac9ffacaba9bdb9b88eab8baa77a7cba76933634
ROC:	 BPix_BmO_SEC4_LYR4_LDR15F_MOD2_ROC14
col00:   14155546596387478765a958984873f44c949762a75757a974997848986b7b5bb85687b6b4596759
col01:   b4473348b6848783b58878678799a8b792bb886ea834a8ab79b9a979a5977bb88967a688d77a9daa
col02:   134413554e4769469658698b6aa979276aa265a99c878ac97891e9ab47eaacc883867c79664a8899
col03:   148746662c58489b7766887b6596a867d6a89adda99be9569dc6aab4cc9967c4b7c4d9aaa9358c64
col04:   1565123535d3476715997b88db899b8abb5757954aa9de78a78ceaa7648ad8495b889939786879c9
col05:   85127396575865779376689a7588bac897c7a789a989b99ab6885cc6a7579b85b6a96c736a6a6467
col06:   415b66248c4736aa86d878587aa6b6a94aba95999a9688ca89b36c7ca988ec6c3859c989b6bbb766
col07:   118528749972585599b59797997b96679b89a8879bb7996bb9989a898867ca898975578798884795
col08:   274766748877968787c7ba5787979a79a998595c83885cb9b8a8bc4b9b9ca5b963b3999a6938266c
col09:   6988574677653986b68ab888b9e38baa5da8cbba4869699789d87987c8a28c87c796ba83578a9888
col10:   13474712b27457153bb7962bab8b8839b899aa8c8779d6968a7c99c8a9aa7c5a78c86cb564a6bc6a
col11:   115694179685543646e8a343a9caa86966bb7cbb98dbb9cc4374b9bc6dacadab5949ea796d8a8ac9
col12:   34662763966acb7787b56692568a2a9d89689e75759a88889a5cb68c8d77a98c98d86b769ba29ada
col13:   7b84528b69765875b45798779baac78cabacb9dc8aa7778baa9a9bb88bb67a7a9a8b598c7c965867
col14:   35447696a7869343969a8788a5b7b95a989697726b894a678977d7a6a996afa88b7785d963bdb976
col15:   14428559337956a448aa76d96969797761776b88688e996a9889854acc9bda8956acc8543c8cb876
col16:   43253478a76838675576bda9a57897b7ea9c68488958787ca9a9dac787c9789bb7a9896b998d9959
col17:   6654426683835873677878a78c8677cc8c8ab6a897889a98477495998998e67885a56985a84b8596
col18:   32639784b67195a75868966a54a8a963aa4bce8bba79d6e974b8c384a778bcaa98968876775a566a
col19:   41154475679669836656b849b8c4639a97ad9996bd94d7ea669b5a89dbabb8a7bcc8bc6aaaa5789b
col20:   82342877455534945858779846c7a9867b77867482c6b6ab7cab67b9a8b9777997997ca695938a76
col21:   48534745a86994685888b9a852e97ab88ca8a58a5b8abba9d799a94a5ca8b596c689ad9aa8ccca6a
col22:   245893785544a54656587788b8a8a7aa75af8ab98c89a7298777737b6b67c7c88a8bcb98b78977c7
col23:   15541644798188659fb6db5688aa69a7b64b7b877a76acd9658797c74689ba6697659a676679b596
col24:   4721697a6646687947a6998a8696bad7999a99faa965bb7d9aebb989ba6a78c79856da67b9b99399
col25:   87564a779a59858a998b3935a87897a8a9a7987979a4dba8dc9b589aada7a86e5ba76b58ba8a9ba7
col26:   9597596a75479477ab8ca8877a99bbaca9bbb999889cbbdaeb76fb88acbaa599e9b9cd85aa679799
col27:   9555577446668ea886bac949857daaaaa79998c9dbc8d9bcc97dc987a9889e8b66bd9ae7aa765d94
col28:   573979798ecb7a8c93a78a79a9beaa7aa87bbaaa79bceecb9cb87cabcc979ba8b4ab98c9c9979da8
col29:   8968477687b958ac8998ca987789ccbc8789abc8bac9cab7aeaafcaa97da9ab99cdbe97f989cdba7
col30:   436963569735aab3b9c7bdab778eeab77c8bcacaa8ca9dcbebcbdfda6ca978565e696dda76e5bd6a
col31:   a298bc9758789998a996c8c8bdca79bad9d7cccdacaebbdbdbffd99beac8daac8a7afccbd6bd8aeb
col32:   66a6898adb55a6989ab8c99cc7cbacb697abc8dbccaa9ecc99c6a7bfb79aeabfa9dc5ac6d9a9a9a6
col33:   57c79a69988a9aaa4faab6bac73bdab9d7dfcafcbbe9cfbacfc99b99b6fdacec6bd799bc96c5baba
col34:   6669866616b7ae9886c6ccaec8eacbcd288dbaeb9ccdafbdceccdabca6cbdcfe9be9b8ca8caaaac8
col35:   357b889aa89877ccb79b88ad9b6c9d6ffd87aabb8abbcb9eb8abbcddecd8bc999bcd7eb8cfb9abbb
col36:   78278899baca98b99ca88b4abd9aabdc986fad6c8cbd9fad8ada8a7797aa9a7a8c9fbcc8c7b8aaaa
col37:   64a774a89b7974f89ca78bb9baa99b8cdca9d7899aebeabbccb9dbf9bb99bcaba99acc994abb7cba
col38:   9858e4d67c87a9accab78bbbbaabaccbcbbabb89ecdc9abacfabdd9cdaeccef8b8b9adadaed79c9a
col39:   775bac7b78da68bd845b6f9da8cbcbce69599c9999dacd899abba8bf89eababeaab7c99accdbc5f9
col40:   87a777cc68beba88bb6aebdcb77b99baa8ac8cd8befdc8db8b49ecccad9b9c7b85edd8a9bedf9dfc
col41:   5a76ba94bab964668879ce7b5bd7feccfcd7abd8addbaa4add8c898b94a6e89b6a9bb7b9b9b9b9c8
col42:   a75688b986b7a8d6aba99ccec7b86d76c8f5ca9fc7aad66dbcccdbc9969a7bb5869ede4c7da7abab
col43:   9998c99ca889a98cbb96afac7bcbdb8b8bfaab9dbd9becf9efc9bfc98ca8ace9c9dbdfdbcad9b7d9
col44:   759c744a9a98a7c8c9ba9fe99b7bac7ca6fcf8b9c96ccafdbdca8ecda8cad9bccac989cadbeaeedc
col45:   768bdc99ba9c98996ab788bc9add985bbdcdcadbcbaffbb9b9bde8c9ac97cf99a99db4bfbcfcbc9f
col46:   5746a8b9bbbababca8ab797dcbd89ac876cbc8aabaefd8ba8aaba8a9aabb85b9abfae9d7b7adabc8
col47:   5a96a8997a9c877ba9cc989aa7b9aeacbbcccdc8cabfdbb7dacbdec7b9fbebdcaca9cb59cfaae69a
col48:   475cc78b7c95898b8c9f97d7bcbd8beda8c9c8a88ace8eaebaf98adbecaadc8d89cd9bd6aaaabd9b
col49:   9965b9aca78bbb9badaa3cbacc9bd5bbcc9aadf7ebcca8bbcdeeac99ccbddafbeb8abd7fcae7dddb
col50:   46d99dc8999dcccaca89bbb8acaba7cdcaef9dacbb7cfaa9c9cdafb7faabbceda99ec98acac9da99
col51:   6148a96665a8667978a9477498b77769ba9cdba5a65468b79aedaa6f88467d7bc8899b67bbe8ba85
ROC:	 BPix_BmO_SEC4_LYR4_LDR15F_MOD2_ROC15
col00:   77386a2a957946579548a2947c87bb9679b9b8817277bc7fd96e2e187669a7977714246376475756
col01:   97554a5197c69b995b756b78dcb998b9ebdad8a98a9bd5aa79c69e8a8ac3496bb996a6989ca66778
col02:   691247a59347c998b6879b97b9798a99588d87999ddba95aa7e96a78b677ba99786b538684377569
col03:   76a565d76b996796996b758d7ab53debfbb59bcbac6869e7ab86bbc9aa7bccacf576b49698b68568
col04:   65665e538b65791976a9adf8ab47a879b9a87b8587b9dbc87d35a66a7a88ae9aa8b5675497761b89
col05:   79aa53551c6977967889a594c4aa8aa9759bf5941c8cb7a87da6ebbb69a4bdab9529a9878a4a969c
col06:   9756596986279a7676c6b4995cc9ac9af99996d78dc696b797ba57ac58cbab9a898aa897697c6934
col07:   795b7738bc85cab99c88b6bad848ba599b6a9eb9c9699d7ac96aaca5ea9dc9cab67a6db938969a5a
col08:   74712746854a417757b458bc7989b9acb9e8cd694765ebabaa6cd9c4d6b6e8eb9788da9336979785
col09:   2975d357aa2abb7db4a7abf9d797eb9bb9867bbc8c6b7aa95f5dcac5bfabac47f97979baeda389a7
col10:   69356a366a679a96af5c7a85a9a57c9b67cba8c878949a695bbac87a67ab69a7e355666665a772d5
col11:   35596219367956c5b69b9968585aac6b6a678f9ec8e6cc97f7799ab9aac6797c6699b79987745676
col12:   776a186955786657538a299d8ce8bb8668999c89acc66db9d6a65487886c6da97788896c68b68858
col13:   353879671931b8938bbf658b87ea875c58da6a879deadcba4d987c9bbae8a79ae68634ba3b8a8f84
col14:   2765478c557a8897976a76e988cb5a489ba5e8d875f68877b6abb977989aaaa946a53da9999579a4
col15:   5c65a67562759756865aacda57aaa96bcac9ab8bbd889b9cb86677db87868a88ea471a284898889a
col16:   57745974566c7489a57c96aab9cbb9da84c9cdab59e9abb9986dc9c56d5a78736b1aa784b4258757
col17:   61532486a38868d6a5377c899b6c6c5cb687a57a8ca5bcda89d8756cad9b759b91a8c87a839ea653
col18:   54464956366957aaa7aa7875ab98aca853a7c5baa97bd95a5a779cfd9f98789aa693b67b9c5777a6
col19:   992459962a7417778a9b8cc6d68d777a87bdda8c977987ad88ca795b9bd6977fc7596a449a476796
col20:   e4645636445449555b3794db56b7d7987758a8d899ca89885faaac7a77c797879ba97798995866a4
col21:   69ca767f3c767ba8939a65a9c56ffc553bcdbad97597b61aa6baa9c6eccd9886878fb7686795a9b3
col22:   c778c8198b8844366858a8b68999b7678abaa859ed6bcbb56dd8a8ad2a59b65a9bb96876793958a6
col23:   73266451354888436888a689669aaaaa595c7aa799b5ba6b9a9b6bf6c78dccfa9ba85a1878877671
col24:   7478795394976985284957a79a9785a9665759f99ec888b97798deabbabbad486d95948586841173
col25:   25843653a86568759ac4f7a49789a855b9c8a687c88b8d8958b4ab9bdd98668a54c8bb8bc6a11858
col26:   9978ab98598a9aab88ac86a878c98698c69dcabc7a9faabc9bc8bc7edbab9dadaea9eac3a4a9b795
col27:   c49589ba89cb9a9ca99ccc9aba89bc7dbccadbac9a8e8b8f9854acc59da497cabb56a88aadcb4678
col28:   5946a8cbd77c8788c9a78bbc5b9cacfa9adb5bc8dd9bbcbacfb9aacbe8bdcac5a8b33cfa889d6869
col29:   b6965899a9aaa95b99c98da6addb6fa9bbe9bbaf6a6b89dec7cbebaabea9888e979a87bc767b3cb3
col30:   9ab76b8c7aa79c7d8bdb97967557dc97bd9ebd975a5bceb69b9ca9bbbfd8aaa7bbea49b9b8789645
col31:   a8d6878c98dccb7c8a7d879bb966e9afcebb9daaf699cebb986baaeca888bfaccc977a85bb979665
col32:   8aca9d8ba79cbfb8a99aaac7bdd99ddca4d9b8ba9ccabdbb9b69acdaffdc8859dc4caea6b78aa391
col33:   78aa95a7b7b759856cab89b7c8bbdba7e9fececddefed7a8eccc79cdcd8c8aa94a6bc686bc6d9a75
col34:   a98a56a95a7bcfb9779acba99b5ab77fcf8ed9eadbabe8f76b96acadaadc9a1755d9898a76b86a99
col35:   585bc78a7874aa7c8cc9baac76be9aa7bafb8c8bb8f9ace989f88beddbefba8986a8bbda69a37aaa
col36:   762e857b869e567cdcacd99b8ad8deedbde7abce7ebcba8e967abcbd8faae7abe5a88a489a9b7568
col37:   88a487977bac887d9fbdb8aabfa8bcbeabbddbab9b8efdd9dbb6bccabaebc8dcce968b97abcb7ca9
col38:   3895b5787bbfa8b8baa99daaa9e9efcbafdffe7e7cdad9befdcebcaa7ecbedbdaaeb674e98baa786
col39:   ad76aa85ce567f98f498feefbbbc998bffc9bad77cca8eddfcdbbffdcefeb7ecacacecbdcd5c59b6
col40:   97ca53a9d9cb7ddaace89a58f69d98faef8fcfbbcbcbdcffcfc7ddfee7e4dddb8d9bbdb9abc98755
col41:   9aab8a76bcbb896cc9ea9c9edddbf99bb9dd89fdc7eb9bc8aec8bddd9bdbffdf69dab979567abd99
col42:   1a56a567addb5c8a838ac68abc9cc6cbaa7ddfedc9fc9acaecbaaa9b69fdcc58eeaa8ec695a93aba
col43:   669698b4966ebab7799f9cdacdb9bdbddacdbecfbce8fdacc7acaffcaa7c6dd97dbabbccb2ba47c4
col44:   a667ba7db8ac6cafc7a8db8bfadcdc8c9e99cbfebcc9bbe9c8afd8bebdf9ccb9ee8acac74bb4bde5
col45:   aadaaa7baa75faa8acaa895ca9aabb6daa6baeb9bfdfeabcca9d8db9ffa9aacbb9dfab9baaaa5bea
col46:   76784a779c8ccdba6e896d889fbedecbfe8eafb9babac8ca7bb9a97cebdaacbbdece9bbb56c49a98
col47:   95b9789aaed7b69a99f9ccea9db69cdf5dedae9bcac9bdd9d69a7fa6caadac7bc7abbb6695cb9c76
col48:   7d9a989877db89b9989b9aa9d97bd6eeed9cacb8b9d79bdca79a9fcdffbab985ed9fdcfd798c7b74
col49:   7aba5ce9dacbc9798bdbb8e889aabdf9fc9ead79adddbe9cbcbbcdb8ff9afa977a78b76b9f8ad95d
col50:   6a79885d98d99fbc9b95dd7ecdafdcdaafabbafcefdff9dddc8c7fac7beae899b8cbdb8b98c979c7
col51:   dbb7551ce5ba647cdcc6ce968898fa78999a97edfbda88abcca6876c3bad7bdbda67a92547b319b8
