ROC:	 BPix_BmO_SEC4_LYR3_LDR10F_MOD3_ROC0
col00:   36236c9591724375626a855d5d43bc48a88d79ba9c85a53277d78964f958f869fa48449883692462
col01:   767e879ac7b8a7794678676aaccd9baa97bccbcbbf88b5a87c889d8a97645a877b6b457719657278
col02:   8775b7588be43a6cd2778b8765c7cc9a7c79bc4998a9cdd98b59bc3789eb8ab8a384967b74986628
col03:   9737a76263737ac958a78768a797b8e98b5e996ac5abbef99759dbd9c698a878ac58dba7d9775546
col04:   47cb84c87685c68c8abbb87d55d8d69b69fab6d9aaf78b75978ba57b7a68a9a8aa8986b76358a377
col05:   95897b9aa9a4778596f73e97ea5848c6f68cce88aa85abaaa88daad8a83b57a889a325516b897654
col06:   79f88cd687d7ab8586a776ba8ec99588e88aae8c99aaaad599c9ea8795877688286953d586a99b93
col07:   87665b8a8685884ba787ae8c8968399cc8cbab8aeca9ea8ab8bab9c9d769b76a5a67a78788485864
col08:   9b48e5a9b677da7c85c5cc89ca7687898b7bd9598c79d7b6bb694db99674ad548858716b89493887
col09:   9c7687687788a9b979c7989dc89a59b9bac9c7a5d8babb9aaaaada99b99e99cc8d988549aa5a4756
col10:   a9776b4a8a7559b99248aacb5aa6cacbba89a68c79a87b8998aa9f59a7758aa94828aa77758a7866
col11:   a66777558b878a6485c874ab987b997a6684a8c8bb875a7b74787a9aa69556953697773768858381
col12:   48825ac4b7799674c5ed897a5acab38ea89657adabbaa7b68a8c899b96b89999b466c7958835575b
col13:   2467745789b69c5bc14a97bb8d89b86cd7ba69cccb7bb3886879cb87db9b98b979158b7787546892
col14:   6765165898aaa7588aac87779c79abf787a75c7f995775cbaaa8cab9b6a888659b7b4c4a817a8646
col15:   38775a7ac77c6b49948867996c88a8ca69ad87b76b69bba1a95ba66754699ca98ab967cb1625a455
col16:   8787c356c979bebd79d7749b679bd96d9dea2ecbba98da858a658c9a797a97b984b5ba77cb48b8a9
col17:   566446c58878c47a91669ab8ea9cb9a597aab77899697738bcac83a588c9c7686986d73767756884
col18:   6b41597879386887be9785a968991c9994b49476aa79848386b97a88c98ac9188a74b35458447375
col19:   37858879d6974995d6759aa6cab75897888b66b96ab6bb78bd8b7ba7d79d78b5d998ab4788c189a8
col20:   c76a54782566729a576a56b68eb79abca9dc89aa7aaaaab4efaab5b7899848889daa679886574695
col21:   b769b7827a4aa9a3aa799867697b738c99c59cabbbb992dfa994a79a5b59e4489949b65878a37386
col22:   453674558a5ba66549578655bab98589a786a997aabd899cc4a7ed9a67a7ca66b659bb4579887453
col23:   788977758c97987168ccb4c878d6f7abcca549b88843ac8b7a8b9dacd3ac78b567a89b943417483a
col24:   998e7ab98a8779a68b589c6fc5a5e87b8bbb86ab8c6ba899cc6aa7dd6ab6ab8978685148549ab982
col25:   8a614648358a7a155a745d6e386eaa8d6b296b9f8b75e976a977977aca458657dda89b9157769248
col26:   9a67c5bacca956b7aee65abcccaa98b99ccaea9bd8d99bcb6aebeb89cacbaafe77858b72c54788b6
col27:   aa6475b878463778698dcc58984adacd787965c9a98ac986bdf9aea2b769ba99ca8abba897759a95
col28:   7c9774786cadb78799cffb9da6baafaedfecbddcbcbbddebdadfaaebebaebb889ec8db7a958bcb59
col29:   d7394d7ca6a6fab888b3e699689be94a8bbbab8aacbacad8fb7fa7f4fb59a7ab7862999a98889876
col30:   d548a6c96968f9588ca9a697eab7e9eb788d76dce8dad9a6aac998d8fa7bcd99bd868889796898d6
col31:   a96ab6a9997caa9dc989aab9bd79bb9be8fb9bf8989d8cbcaaa76dda88da9a99b59c987a9aa57798
col32:   bd67c9b589db88a6da78dadcbdddacfc9eb79bafe7aabecdfa9c89cfddb7c764b9694a9b597a56b6
col33:   496c8dd599c798cbe6fdab97f5b899aedec5cda8cb5b77addea799fcb87ecea9fc875978c777a784
col34:   edd8b8ad7bbb9a8b9876a7cacdbcfded9f7afacb9ddfd7ae96dafbaa8e8ed59a9cb2ccac6a57adba
col35:   6c9b6977ba89ae7b781b67bcd7b9aaa8984a8cbbbb7cf8fd56d8d88d687cb97a9dc8caa756945774
col36:   a3959bf9579b769a6769b9baa5aad9dcba9ba9fbf8babcbcbdbbfcdbccac9aa7ba6b89a9785a8877
col37:   94a598a6bc95c9a9fbd8cb8aada7edcfcbeaaceebcec8ceb8bb9ac8f9c89998dbacdb8ccc89b379d
col38:   ac7af8da9de5a88d9cccced9c79bbaf4ffaffdfcdfeebcd5baaabba678ddaeab9bbba9dd9db86cbb
col39:   a6675afd9685b998f8dd7c5fa9cd9ad9899fd99abb3dadfacafeb9decadb9bcccb8cd89a9eb5848a
col40:   93c298cae7785eb9d8adccbaa9efdcadb7badcfcfbd7dbbcdbadbdfd98eebcb9aeafd8a9fbd5bac9
col41:   978495664c6c6999a78aebaac89a9eaae8adbfd8adc9eae98bf68d6cbcdaafa796acc3bba9b5a95a
col42:   77c97c8cbda7b7dd99c7cda7acbca9bfd9bbdbcd9bebcfb8cd9ddbabfeeaddbc5a8abce6b9c3bb64
col43:   aa47a99c8a7abea787a979cfc9dddf7a895fcbd8daed9cecbdfbbd9aedfdfac9bb8c96face64a993
col44:   68a9ca9acc96b849c88de9c9bcbfddbbdfea8aac3a8fb5bfcdaf9cd9eceda7dcdcfa86cfca98cb96
col45:   dba96a7b9ad9799bb9999adba9cdcfccd8bd6ddba89cd8cc8dfc9bc97bc87acf9b7b9c849276857b
col46:   79fcb8a6dabadaf9ac97aaef869afbce7e9bcc7ddaecfcaebaafa9cd7da9ea7d9bb8a64ca9b9d4da
col47:   79b5d93a99ab99be8a98dabaf8ccbbd959bcbcccc56dfcbd9c68de87fcdb8a9bbd5b88a668d68cdc
col48:   abc8cd9cc9a7d6bc8b6ae9b8fadae6cbeb99ca8b6ddfd899dba898e9d8cdde594cfc979cb9d7a9c7
col49:   8f6b3988959a788c577dbabaedea96b8ad5cbe87eebbb95c99deccfb6bac8d9bb8b94ac6a27b4a72
col50:   c8cac789bcfbbbb98bdbff9bad97bdac9aeacc9bab8dbdfecdaccb79a9a9b7687acbb89caa9a8b86
col51:   8185a84a7649cc8668b6846d9c88c7ceb5669a6cacb6ab4ab5c5ab95a75b72685c896d4b5b261781
ROC:	 BPix_BmO_SEC4_LYR3_LDR10F_MOD3_ROC1
col00:   5898467855867b79b545697a867919678778a5a7987a9aa77daa8895ad77788aa78c89abacaaa9b8
col01:   893b8c8984ab9784668b8b8799abdb8b9c889ac8995bcccbab8becaba98b9ccf9a799b8bcbabb5a8
col02:   7bc8856345777b8988caa696cba967a9aada7d6baaa9d7db9bb9e9b8cda99a989aab8c86a899ccc6
col03:   7776889a897b9949967c644a8987abb9b78aa87ecad89ab9ebec797dbb898b86da9489dcc8c8963b
col04:   959b696aa56799874965863cb9acb8799b7e79f88cc7c7d9bba9acbbcbcbcbbbecc88aa8c8cba9a7
col05:   945465a6a8628a884a694a98c67baba69aa9bb7a9bd69a8c7b49a86afb7a9bbeeb6a5e99b99cbb7a
col06:   87775cb777946893bac6ac7b7a998a875eaeda9da9ddbc89c8accacb9a9c7ccadebde9b7ee9bcbbb
col07:   592948aa68ea7756a99b9c79ba69738c668b9d8bdb9a4a489aaa9bbb89aa7d7a989bbcb9a8d6799a
col08:   a518596b7145a7685ac96994676c7ba978b8be86aebfcbde58b8db2e69b6caaeac7dab97a9888bd6
col09:   478a844a8978495d7ba69889497bbcae895aebc849bafcfdb99858ebdcbadaeeb98ce9ba9a899bc9
col10:   94663577a448cc16b597a6f79b5a88acb787ccb9799cca8cdacb6be9e8ccb8cb8bb6a7dc9d8e997a
col11:   74789699a176b5966ad6998aa93b9bc9ba88acb8aa78d88c65cb7abadcab6f8996dacba97a8a9cbe
col12:   655976b887ad68b78c8e6ba59786889bb9c5b8cac8c86a9a8bac97c7bc9f9de97b898c9ad6c99b8c
col13:   549865b8546787795a68b87aa9797caa9686ad8a6b9aaaa8ca98aa6bc86b6a8b9b9c98697c79cabc
col14:   75687696a457a97678587c92cbcaa87ad899ba8bd8ab9ccc79b8a59abbc96dca8b9799bcb9a779d7
col15:   55a6584a93c6aaa99889abec57b785898ab8dadcd66597aabe8b9dd9b9bac9968ca9d8ba9a9bb9c8
col16:   9895a97a89a7976ca9969dc999ccb7c789c8b9cb99ca8ac58ad8dcbabcf898aacccbeae9fc8afab9
col17:   a55752a68575e55a96d87996984a47aaa863b799b688999ae8aa96a8e77cacebac8c9999ba3a9df8
col18:   98656a9b8a8667b9a7956c88b7db86cd78cacc8be99899eeb8bb7d6a987ac698d7499a7baa6788e8
col19:   9919b869587b5a58568a555959899aa8a9799a8c999ac9bb8c98c952cdca9ca999babf9e97c9cac5
col20:   987759a75798778687b8d7a6b898b8b8b969d8b9b93cf6b8dcdd88cbb7aaaabaccca86b778c99c96
col21:   89857376694b7a835a7b8aa8b73d99d8a897c8769e5addfc7bda9cbcbbbb9d88b97d8ac79a8bfc9d
col22:   9a378a387577668859878d9696949b9bbbca9c68ca88dd7ba8bc6baba99d99eabc88daad9abb9dd5
col23:   95b296a778767a9876c7b869698af76ab88acbb898ec58ba987978cb798ac968ab86e69ba8a87a77
col24:   886468898688556948a76aa799a78ba669acbbabba79b8897c79bb78b49b797a998da7b9a89a6bc5
col25:   769596869345768798989499cb498a8aca6bba857ab7ab69cbba69aa9d7aac89b8a99ab8a9c99e76
col26:   5bba6db77b76b586d976ae9ba88eba9aaa9d9c669bd9ebda78bafdeaca9dccea9bcd99bbbbc8afe5
col27:   742ae7888a567868869bb8ab9887bcb9ad9ab97caaaddcf7ccca96afe7d9a8bcd9adfbb9ab6ab7a9
col28:   a997c85ac558b9c69da8878b6b96a999df9acaafe8a8cdbd4cabbaa8abdacbdbdf5dec5a9dcbafd7
col29:   8747649d8586878b8a667aa67aaa7bcb9b7cbda8acca7bb5a87c9e9bdef8afaaa7daaac8dcccbdb8
col30:   a6598e6bd894d959a68499a5b7faa897fabacbbe8b9975c7cd8c4ebcbbb8fcefbb9ab85dcba7eb8b
col31:   8b999c79babab3dac9769879bda6adaad8dfcbbdd8cbbbdbaaa74f9cccbadabbe8bf77cdd9adca98
col32:   977a989eb7b898995a6847b9abe76889ab9cdacc8aaa8bc6babeadc8e87daabb889debabcaebd99d
col33:   99a6a966bb93679ca976c99a8cdb7a99cfba99baafadac7cbdacabebffae9bdbcf6b5bd99eb9cbb7
col34:   54736a9b997895fa58fbae66bb6dec9cb9cdb9fcc7bd8dc98b8a7cecbacdbeabdb9aa9cbbb4bdb97
col35:   757775b6c9799afaa999ac6aaac9aafccba9cbc9b8ddf898cdeabdecccf9eddb9adcccdbae8b9aa4
col36:   49878976da79db888e9b9eb8a89679a9cd9ebe7cbd9ad8ecdcbaceba4888bb9e8aadeb8caf5dd9af
col37:   4679ba7999b999c78ba688ad5eb3aa978ddb9ada9dbe9adb9b989ab9badbea8aedfdd9f9dc6a9adb
col38:   a876a7669bb96cbd9a9aaa7d9baabb9add7fd9b9caccbbbdc98bcb9cedcf7f8ddcbdd88be89b9aca
col39:   5ae6779a99b983a8887cbcaebda8a5dd9ccabacfcad9c6dccbfacd9efcacbeb69cdf9dcaec999398
col40:   99459a8ccb576bcc8787adcc9ae8fefbefbcad88ceced9bafcdd8d8caaadcbc9f9ecbb89cbdbe9cd
col41:   892866797998bcdda98bacbafd98b98ec5abda98bdcb6dddc9c9eeebdc7afabdbcfbbb9d8ccab866
col42:   65a4cf6b7ca76b998bab99ab9aacf9abace9e8ce9acb9aedd8dcebaaeabacabb88899dae9fcad89a
col43:   a668796869abbad49bdabab9abcab68cde4ca7bbbc989ebac7dbc9dbcaacfb9ad9abccecebdbd8c8
col44:   98595b7ac99899c8b66aad6e6abbdbdacec7ab9cddbfbac9bccaaadb9fddffcdd6c9b8db7e2fdbd7
col45:   4295a5995f88b86b89ceabb8abcdb9ccbacda9c88abbdcc9bd9fc9ecbd7afadeb9ccda9dbcabd99b
col46:   65a668a9ab7a786a5a7baabbb9aceeacb9d87b86aacefda898b789cea8baaca987dbefbc89a9cccf
col47:   bac968b9897b8aa8e8bbca8acdd8aeebbaddcbaaabfba8dbce8aeb69cbbd99c5dcc99dbbbbc879eb
col48:   a797758b96caa98abcd8abcaaa9dba6f9b8bac9baef7cdb9fb9cadfbd8c9fa8eaded8d8bcaaabddf
col49:   59987b84aa678aca8cbb8886eccab89baac8cc99daafa778c998aa7c8dadebcc95bcbbcabb9adc95
col50:   857cc9abc5c97a796bab7a9da987eeaacdabef8b9db87eb9bcfdcbf8eecec8bedacbdbca6bb9e8a7
col51:   879aa8446346967787daba5a88858dea67789a9aa777998796977dbc7eba8ae4a68997dcbaa79da9
ROC:	 BPix_BmO_SEC4_LYR3_LDR10F_MOD3_ROC2
col00:   4aa98987a88a77a2a96aa83a77474776886bd5cb9649a6978fccb7c3a5aa775b6749886874a45677
col01:   b8de77327c589b7994389bc8a7c7998d657b8c9bb7cab7a99b6ab6b7b8bcd3a5b6bcdbcb9a555584
col02:   7766aad6799aa889b5894e94698c97a94b9cc89aabac7b778b99c79b89bb9a79a7b8a85b695b1757
col03:   9ad99968ba7786c8a988989bb8aaaac7efaaa6ca878588697bca8b6a79c8a72978aa5588779b8759
col04:   793987ed387886a9697ca7bcb688a7c8c6c689aa8abca8aac887b88d77a68c8bc9b6788586999a76
col05:   9877b787c89a7b8d897c8fa8bb5b78edb9999acdce99b938a69b859995abc69d6b97a98c8b62b7b5
col06:   ba776588cba9ca87acba88abc89a75ec8a97a9ccab6b97898ba9d69bc77bdd9ad8c796aa87a59ab7
col07:   9486cb7bea78b8488ba99ab8998bad974bbecb679d98db97b5cc5bbb96bc8eb89446497a58528657
col08:   cb5a6777678898b699f7bb9c9c798a7ccea9a9eab9aa89c897c6babc4aa6997b8799da59db994581
col09:   8abbad888ca9a9298ca9688d88a89ab8c8ccbaeb9bfb5fcbbbcf9ab6879bf8b499c9a578999a7869
col10:   b6979968a698b57b8ac9ac9b9699dacba899ba9aeb97a9c7997bc8e85a8ad4ab9a999b6a7586a5ce
col11:   776a97798a7688ad95aaaa59a9acaabbbbb8b98997aeaecabbaeba9996998ca8da58589974a876a7
col12:   55766cc8ba87aaa8958bd7ca8c78aa9acd49bb79db868bbbcca8a989cb88877bbab56b55a7aab566
col13:   67687ac7798baa8ccc9ba98c7c5e58b8a8fb797aafbb7d9d6cdda79c9beaa68bccaa7677785b9285
col14:   7a7a973b7a5859abb899cb979cbe859a6dc9979baaeba96ae6ceb8888abaa7c9a97b7e9759699597
col15:   677869bcab67979b96aa9b77b95abcbcc49ca98bbcd5d7ea7c96ca89a9d8c8a9a757b6c99b785a73
col16:   b87864a7b889b4aaaaab9bedcc6b9acab799b779b8aadbabdacbbc9bac9ca8bbc993b5ac876fa877
col17:   8ac68b54d6949887b7aaba48accaaa9ba78a7fb79d8bda8ba9aa89b87789f889a9793aaa786a3ba6
col18:   b45cb9b968977aaa9739aac899cbddebdadebbdba9d9b987987b6ac8b9b7b88889b8a955a7a85677
col19:   c579aaac997c4b879b9cad9acc66788cbcabda7de8ccb85cb8aa9c8bcb78558a76878bd839b5ba58
col20:   9978a9875669a696bccb9cb6958abaad9c99c9d8ac89bad94bb829abbcbabba7adb66e7816938b98
col21:   7a779c498676c4da97baa7a79965a8bbbddc89ad687ad8a9acc855caf8cb9d98a57a8b79869c5646
col22:   a969b7aa78aab8ac998b9caa49aacdc98986988cccb7ba9aab5abbbbbca78a6bc8899b397a558a69
col23:   6c883847765db88a7b88dfba9b9699989cc9b998b7a578abcabc84d87c9bd87898b87a7a298a7436
col24:   89988597abb9c8da5a8899bedcdbd6ca999abb8a7899bcc7999986b97b9997c7a59cb9459a994797
col25:   8979667b675797bc7acd899aa98bba96b8aabb55699869cdaadbfcba867eb7ac69b79984bd9a5689
col26:   86bb87ad69b8bb86b89deebcbddc7aa8baaccbebfbfcbbdefdbe99fbadcdc58abae7ca6e6c5c9d76
col27:   77d697a78ba79bc8b888cdde9a9d99eaeec6c9efadd8cfc8adbd8adcaabacb3a9bdaab6aada9b7b7
col28:   7c5c85b9688a7ccb9ebc8e99adc9adbddddddcdccaa9ba9ba8db8aabdad788babcc9b78779a6ca88
col29:   caba276677aaa8bc9aee9ca9ea58dcdcebe7ab7cb6ca8cb9a9fbd6dbaaee9a9bb88c8c9bd9a8dabd
col30:   aa6d99d898b9de7abfccbb8decdde9798dbda9cafb88abd8c99dacabfbbbda99bc89dc7896bb8bab
col31:   a87896a7bd9b8cabbd8c9b98fcb9baeaab9aedacbd79ac9bcccbb9cdbcbbb9bccdcdaba8ba998a77
col32:   9abdbdba4cacb9abbadbbcb9aacbc8cdfdcaddd8bdcacbdac9de9ccb8afcb8b9b98bcb97f89a99aa
col33:   a7a9b8bbabbacda769b6aba9ccaa9b9dccc8bfdbcdcbcefdedabdaacb9eaa8caccd8c9bc9bbe9b85
col34:   8bbccab8bcccb8695ac9f8beffb8bfcddcbbccdc9b9cdbf8b98ffaed9a9b8c79aecc9898ea7f9a75
col35:   6b79599a8b89ea85a9b99daf8faeddadbfbd9c98befaa8cbddd6acbacfeecdabcbccec59ba9b78b1
col36:   6b44ccbcbbacace6eebdac9bbfcccddfdeba9eaef7bcccebdab89abcbadcec8aaaedab9ceb89b997
col37:   d9aa98a7acab9bdcf64bc7cdbcacbffecccadcbbfeaeccbb8e9adbfafd7bfcbcadd999aa9ccb98b6
col38:   c98ba79eb89c6bfd7abfcddefa8edfdcb8bb9fccdcbecfcbbabaedc8df9fda9f9cacebdcdcdbaba8
col39:   b8b9b8896da9ccbeedda9ccc89e998ca9cdc6bddcaeacbcdd8ecdbecc9c86ccdcbcab99ae6cc94bb
col40:   8879acfa88eababac9dafcacddacbfbdfccd9ddbdbbccdfe9b9bcb9efbfc9bbba8f79a95dc86db7a
col41:   ca88a64b997aedcc8cbac8cd7d8bddfc9dcac9bbdcdcaa8bddbc9ecdaabfcaf9eb9f96aaf9a7ccb8
col42:   a7ccbb8a8a9da8bc9d9cdba9dedbffbdae9ddecbbcabb9afb98cbbedabc9bd9acd8a9d97dbbcaaea
col43:   589baaadcc86dc9aeadbcb99bd9c9c9c68ed9edcd9f6a9c9cea6a9cffeb8c9bfd8dbb9abbb8a98aa
col44:   677ba8ad78aa8cdccecbabddaabbbeb9dcba9dbaccbbfceeaaebeb67ababcaadd8cc9c8d8cb7cc82
col45:   7d97baaa8d9fcc9eedababc6c7b9ecccf9aadc8dcdbcc9eade9cecb69fc9bffca8fb9d7aea976887
col46:   7aba7b99ae788aa8bee9eefd9a9cadccbbaedfbeaa89cbcd87dadcceeabcdd9d987bbbc9a8cb8d75
col47:   b7d99db868d9aad8ca8eab99a8cc79aafaabdfeccbbdabb4698bc8c9afdbd89babebe9999aba9988
col48:   989bd99bd8fa7ecc9bdbbbcbb7a978cc7cbf8978bcfefebaedaafbfef8cac8d888ddaaa39aab7dc9
col49:   ac9bbba98aba9dba686a9adaadb8b9d89fcadacbbbafeba9bea8c9b9a98cd77aaacdaabab9a9b49d
col50:   be98bbedc9e9efbaacb3c89aaccf89faaeaaba9abcaeadc9c9be99dba9ce8aaabdc8c976daba9aca
col51:   9aaca9367d55a87ab96dac757da6795b98bc9a799d87a5a8ba2759cac85c94babb8585cc7a925c58
ROC:	 BPix_BmO_SEC4_LYR3_LDR10F_MOD3_ROC3
col00:   9628b68596a48556544993378b98a777a979b68e88b988887b38bbab99978965797a9b7978617746
col01:   c5dca7469bd57dc888a66b77597a85c9aabeadaba89aca99b8968a9cbd9569ab5a96865669285493
col02:   96c9b8aa792e959888ebdc6c66b7a9d87bbc9ba7b76bdac7a9c8aa89c65c67aa4d548dc997937753
col03:   766c8d5b9679997598ef79987a889b9a7c67aea98dcdac7a7b99bb99bae298bc83847d496646b839
col04:   a77a79baa4b998a48daae5c9dc4abdacc7b986cad9eaa79ad968bbdacfdb8ad878b937698a869a97
col05:   185a5b6dac686545985ba977ca898bbc988b9bb7ca76b8aa7c68978d8c7caa65a89aa878ca7b8a45
col06:   878aa864588b9976696ab99b7e98ee9db9dbc8f9bcb6d8aba78a9a997b8cb995a7b74ac5a496b878
col07:   bbb895a686aa8b9895a8568878bdb988b79d9f968ca8b87aaeca6abcc5388c4576aa868798689457
col08:   a555967657757d7ba78b9ca6986adb99adc999acc89c9878b8c7cbbb769892979666a48598686689
col09:   8995598698697ab7979abb8988a99ecbdfaaab787ab59849bdc79db7b8ddcabb94c8876969698744
col10:   485b3768aa94f76987a9879997797cf89a9a6a78bda9ec6d769a8aedac8a98a9c88978c357986868
col11:   997755a78b8c889997986ebaa7964579ad6889abad5b8a79b7bda5a97c997b9d69b99a89e7837991
col12:   74a679bb8858888aba4a697bc99a9acb9b87baceaa88b267a8a866ba9b988a85ba9aac9489754499
col13:   97b977ca7768ac99c878a57c896bac4aaa8d7cc9aa9a8aaabb89b72d969889aaa88876477b556876
col14:   755c6ac86a8b98aa95a8aa69b89c6bb9bbb9a9bcb7696c499c669583ec87a9a9b785aa76b6966895
col15:   a667976db9988699bc6d89918a899ac77898a7aa8cab999b7c877897dca6a8ca8996448875a1a5aa
col16:   a7d8a79648a7b79788a9c99ea4b8bbbaf7857897989cc78aa97a8767caa99789b6b6da53cda8b987
col17:   99789a976837b19c48a9687bb8aca7c9ab99b88bc8988797b699a49f9a87c68a695c589a68555784
col18:   778d8867b96795db7bcca9baaa8c69b797898ccd9ac69c985e877aad66899874d8bc96a773b95a64
col19:   745969798594a657788b899798694c997cbacfa4aaba8b76f47b71dd858b97599a8abb788b146666
col20:   8987489a837bb5677cb9977a8baa9a4b865ea7a9ba9877a89967599978b7b98a864966678873a671
col21:   67485d7c4baa8c49bb68a598b6eeacb4787b8e49ebdbc5c89bbfc8b6bbac4c9ab79955787a698554
col22:   8665758868a5ec876486886d9788ac8bac8988acabcdb9bcabec944a4db8a979b6a3ba7645789337
col23:   86b16a687a58985968b89319b38b79bcd79978c88d859696899a89679b9bb9b36ba6a49775984878
col24:   a97727ba89676848b6586a87ae6997c6a69c779bdb4bb99a6a6aba979a598c78c58a775784779495
col25:   5a8837a88a88487a6abaa9699649a8998cbaaba997a6b97d89579d6c89956a97b77ac96d459b5967
col26:   4a9bb9aab6b84c9ad889ac8cb9badaaa9dcdd9cfb8cbddf9cca89bcb9c8bc8a9b88c8d67598b6a84
col27:   abd86bb979ba56f9a9d8797ab8ab9bfc7ebfbdcdeabdc9e9fab7fbedcbabaa69a78569a737755873
col28:   9ca9abc8aa789acdea9ebdbababd9eaaabddfb9b9deaeabbce9dbad75c8a6dc99ace8b6bcab8e9ab
col29:   5ba7ca7b99788aaa6be7cbfde7dccc89ca89dfac8987abddfad9acba8b8c988dc9ca8a6847766888
col30:   b9999d8b86bdbe789b9caabdcadc9cbfdbc8ebadcd8aceb7d98aafa9e89abcedbb99d9a77b4889a6
col31:   8891aab8778bdce9ddb986abceb9c78d7da7ac9db7adada7fdb9fb9cba88bf8aba8b7897db69a858
col32:   b67c767cc988a7bb999aacdade9dccabdee9cecbedfaa9eccae9ceaceed9cbe9b898967a9ab88c83
col33:   dabbb9d989dc7d98adc9aefcfaf8bf9cdd8ccdcbc9ccbd7ef9f9ab9dbecee96dde7da7ca7dc57677
col34:   cbb9ca99afddabd6aa7accdfb9acde8ad97bccbaddcfcd9ba7adebd9dcabcc999428b9fb588a89a5
col35:   6b9abbbc68985b879ba9f9edc95fa99dbaedcbbcaef9fdbb89cfbca88dcac9ea8ac96ca8b98bd79a
col36:   c676a74a69d5cbb98f8cb7f9cd9bd9c8ccdadbfbbcadab87eddabbd89da9aabb89cbca6bb8a78c67
col37:   ddc9da75eb9a9edecfcbbf6bb89d79feae9bbad9dbb8fac9bf8ccdefcbddaeadca9abd579b7a5995
col38:   bb6aedabbe9d8c9bbaabbfa9acfdeafccbb9deba9cedfcba8cb9e8bcacbbc69ae9c9bdae6b6b8bc8
col39:   d7679d98869cea99adb9dcdada7aa986be9baaa9bdcadbdfebafccbe9c869fa77ba7cbccbac9788d
col40:   7aba9cd8c965cc9addc9fb8bd9ccc8dd8a8f9bcfbaecddbecde9ceafbaedb9c88aecd898ddeb683a
col41:   d9cfa68a697f9fb9ad69caaac9efa7cc9edcba9da78ba6ac97cbc8cabfb9a4bbcbe89a8cd96cadc6
col42:   cd89b79cba788a9dcc9fbabdcfafbfbecbddccfdd9ccefceabe8f9bffda778b9ab8a799a9997889a
col43:   989c996ca9b9bd77ad8b9eccafafdebeef77b9dcfadcaaffdef8babcd56769b8d6a9b69bccb8ac75
col44:   9cacab9abcb98cccbcb9bcfadcfddcabddffabd9fa9dcd9dcb6ecbd95bbbdcccd9dcdcdc8cdbc8aa
col45:   8b9b688ecb9baec898bcd7adcfbd79bd8dcecebadfdcbfd9dba9f9caa9d9d8cda8db96ccbaabaa58
col46:   89bbda8ca5acbab7bd78ddbbfdc9d5d8aebdacaaebbabbf99cabdea87aefb869ba9aeab7b6cb8ba1
col47:   9c9b9aba67b6becc8cbbaadfdadadaf9cf8f9d6adfe9dfdbb6acbad6c99eac9a89d6bc8e6a9bab76
col48:   4bcab75c97dbadb8e9adabfebbcdbed9cddbcab99af9bcabbcbdaaaaebbbcca7ba7ab89bbc889689
col49:   89797f5ae8dbb5abbb6a7cbb9f9e8df9fcbe8adcdbdcd999daeba89a9dbc6eaa5a6b8bab9b6b7aa4
col50:   aab5fac8acbaacacdcebdbdcbcee9c9be7e9dccbdddccab9bbcefabb9afbafa7cb7cac869aa999c7
col51:   87557888ba95babdc759799b898edaac79a989ebc7bc9e68ebaa977bbc58a493899b7867975b8886
ROC:	 BPix_BmO_SEC4_LYR3_LDR10F_MOD3_ROC4
col00:   b87a698c6875547a8db85c88bd868a7b9889e38969ab5c68965769b7d58979849b6f6aa96b7b7237
col01:   6a27b979c9a8a9bc8e5c98887ac9a6d75cdbf99ba97ad977877a85637887dc767a6ad7663bd7785a
col02:   b7a9ca29a4e898abbe9b989bbbdaddafc699a9acd9cb8968b99a8b6f7baac8aa88ca97c58a897a95
col03:   6abbbca8c9a596d8bc98caa7decbbaaa9c7999cb8998d7cd6ccab8a594dbdda9d69d7485bb977666
col04:   855c9ab66a5c9c6a6d6ae8fbb8b7bab79989f978d6ac6a86afcc6e97cec99acd9b946b4669bc8787
col05:   a762ac9b6b798d986d95a9caaf87a659d8c86b777bc9ea9cd7ba97dc98879a577786a86aa6386b43
col06:   6888c9747e79dbaccac97c5be9da96886da99ab8995a79b889ada8da8ce8ba889bd968e9a9748da9
col07:   96489c7a786786859a8c987bbb8b97d898d7ae9a77886d8eadc9a8fbe86a8977a7ab78488667b9ba
col08:   b8b7a747aabb4ae58eba84a789a99a88b77768bc839c6baa9768b776986acb89689aaa6546499787
col09:   aca5cbaab89bcbedcc8eaa97c9cabda9ba57c9aaa898abf5aaae5a7cccac8bde9a86968a98885576
col10:   c88996d796b998a8bac8d9d7a98d9d9ea89ecd8f9bda9f9bba9a73b956bae6967b4a9657a7a97658
col11:   ba8c6acc6965bc676adc6a8abba994c3df6b5ed7979dc6c7a6c9999a7988bc66887a6b9c68656ab7
col12:   8d8c886d97977867c89a9dd7b769bc8aa999a67cdeb99a95879896a98cc5a79d6a8d838cb99e7959
col13:   75bacbb8a68a7b9abcbc8b8a8c9c98e77d998baa89df88c89bd8999d9ba797987a7698768a4ac788
col14:   5827cbbd97a8bd67d7989b8ca7be9bd78ba769d677ba87adc8a899b69bba67a95699a9d7e6759896
col15:   d9ba6a8559e99e9996385b8a976d9a9a97aababa96ba8b6a9d8aa8a7ada8d989b9469675a9b5a465
col16:   9ba3faa4b89aa98978af8ab8bffbebadbbfaca9a8789aaa986daaa789eac7c585483dd5587a75685
col17:   698958bc57a7a7b9876b59cab7ba7a5d98aa6a7aaa68dcc7c578aa899bcbba93396517d656639764
col18:   a786848ba8dbba868ac99ba9a9caa89ca94b9daaaab8cceb8985c9617bac49a9a9a8aa9d976b7997
col19:   7776c8298dcb9778a59758a788bab85bbba9a7696b79ebf7c6ab89b88969988878877873565c89a3
col20:   88a953aa775867b2a68896ba79b9abc699fb97968eaeb8d95c8ba85879598c68a284556895966948
col21:   acb9aa397886899a9b7967977679daa87da9baaabab6aa8a6baa58bbba5699ab997db5557586b379
col22:   6e646a9d8b468ba7aaaaaa9599a798dbdd8cb9cbbcb6988a6ebc7a5c9ebbb69d874323766bc58784
col23:   a4e3886997849484a48696a5b76b7b8a88a96898898368a5b668966a57ac67c9b9ba57377b257493
col24:   8a9abc955b8db59d7569aaa6c79dc57b879a6cbcaccd9ae7a87abbaa6bca4aaa74467bb966cbb456
col25:   c6aab8ad4827a3b68c5d98abda958fb7af8989dad8899a9a975998dabd89b88616b9688999ba4683
col26:   a8a799959acdd87a9bacc8bdd8a9b9bcd8ac7aaaeb9acb9cfb8bbbdbcca9bdafdaa7ebb68875b696
col27:   7777b9ea65bb9a396c9aa7d7a8899cb9b879ad8eb98bd9a9dca59e999bccaa8999959ab8e8cc49b6
col28:   db94689ad89876c9cc9bcaaa69b9afda89b97aecbebbcc9a7c9bc699c97cba9c7aa8b7adad888792
col29:   58696c76c966ba97969a7bcaacaaaaeed8988aaac8a8fbc8c69db9b88a8cbdf6876aa798c89aa8aa
col30:   78fc8bb89997785aae97bbc889a98cd9cabcaa9acc9cd9988aa8dbca7ddb86a99b9b8c5989d89aa7
col31:   a9637cc89986bbb8baaa669fd75cbe8aebaa9d8bdceb87bc8ddaa99cb9bbcaab9c9c9b9b3b8467a9
col32:   caabb6bbad9e7c9898dababacabcdeece9ada9cbbaba9dcbbcabccffe8cfbaa98c6dbab9a699d6cd
col33:   ec88c487bb948a98aa8dcf7cad8cc8b9bdeec8aed989b9978d49fcbeca8e8ecbaaebfe79e89eeb76
col34:   99cb9acc65bb8ab7d9cacbe8ad9c7b8aac8dbedba7ebebfdd78d8b79eedf89bbaa9b78b9889ea99a
col35:   34a95c78ac9979a4a7cea78b9d987a9b95abdcdacadc9deddfa78a9f8cca99af89edde6986999a9b
col36:   8dc8aa9ca86a78bcd6abbec5db9afaea7eadcb8dc69daaaffdbaa9dcaaeab7a8ddc8b9c75d8dc995
col37:   9c7c9d9fca86b7abd9cc9de6b9cbcfdec9baaaae9bceb9ac97db99ccebcc9cbab5b9c9869fac99a5
col38:   9bc7ad877cbba76cb9aacbcbfbfaec7d9ddbdbb9fecddbcfaae8adeadacbfd999cfaa9b9ab789b9b
col39:   9696387a9a56abcabe7bb68c5adcc96ebda9a999ac9afdeb9aad9e7dd88a7db9cb9b9b9759a8c9b6
col40:   89388ab67997cfa78cd9bbccb8dad7a9ba87dacaab7caebcceebbbabdc9e9e8caede79f9c49aba78
col41:   88a67a9795666b885cb9e98bababafceaad7fadba7b7fab9b9a6c99abaacddbabc89aacacbbe89a9
col42:   67914c9b479abc88aa67b99ccd9b9bafcccfb8ddceaa6dcdbaab8c79cbb88aacdf7898aec3acc6c7
col43:   5a8fe3a798aa5c5bbd7ebbcb89cdb888faccbaedcb798bb99ce78afca7dcbdaab79d87599896dcc4
col44:   aba86a74ab67ebc78eb7b999ab89abcbab9bfeccb8b9bb6caad7b87be9cfaee985bcab7b788b7bd8
col45:   725aceacbb778a88d7c8b8989c9f9ebcca9a7f85ccbcfa7db8fbaec7d7eb7a79d7a6c9979b8abb88
col46:   7b628869698e9a98d969bababbaddc8bbbe7d8fa7cc99b9aacec9a97de9baccaa5bcd988aca75b96
col47:   88a8a9b87bac7baacbc76d7ccdbb9bfacfccacbfabcd89ce9fccadcca6a589fc6a9b7cbdbcae6994
col48:   ba8b5788899c8f8498bbaabbacda9adddb49cde38cf7b6b5eeafdaed9969c9c79ebaba989d59ab89
col49:   7a7b695b4a96b9bac95d5ba7caa8768a9b9ba8c989bbbbbfe59aacabcccd8ca8788b67e1895ba7a8
col50:   98aa79a9d787c9eabebac977bed9cb8cf6c99be7bc7c9bedaadbcabcd6d8cfd7a8d6db55ce7b91e4
col51:   554148a76648789766a56ba9b757757257896a8b8893a8abb779948a5d5388a8a4745a6968874974
ROC:	 BPix_BmO_SEC4_LYR3_LDR10F_MOD3_ROC5
col00:   788a776b187697e85a589578bba56b8879a699a75c9c769b49585c67bb8c6c79a8765b36786b6a87
col01:   78a783764978aa7a48a584ba7a5adeeaea96998cb8cacc769acbc99cfcb7c8debacaaca837aab6a9
col02:   8a98866896778b7377b967749679869cabee88cd99bcb8b99abac9d9cc978b8b666867c68ac58a64
col03:   57cb95589bba597ba5c87da9babda9bbb8dda9abbba9daaadc78a86d9a7eb7bece68aa8669b7d948
col04:   58676c6ab5958b6d893c7ab5bada63bcd9bdbcedccac7baa87eac6bc9a9bad7bb89a9acd8dca9a68
col05:   4c9459788b39666f76ca78ebabccb89b99baaddac987a8cdadb6699aaca65dd6b5bca8b86aa58ae9
col06:   ab597a98459bb59bc8b57798bcca7d9da7acacac9778b8aa7bbbbddc8b9787bac9d9ecabacaa5959
col07:   5798a6868ab868beb98c67bb5655aa9da9cacab9b6d8d999a79a9ace6cc8977cc978bb98c7799878
col08:   57987779a549b3a669aaa98798a96fc789accdfe9b8c7c9b8adf9acacbc99bb89a4b888b894767b8
col09:   8577a97bb878bc8978ad7989b8beacb9cceb899bccfceda8ccc7fcdc9cbdb98a7acdaa99dbb958a8
col10:   89bd6237467a86ac79a99694dba9a8b9ac6baba9eec997cdabbbd6bb6eadcac9a8bb9cafb9a97aa6
col11:   8a87698a66837a8339c5d7bc99a79aad6aa9bfc79ceb9a6bca99caa8ccea9d996da8bac89b89ba66
col12:   9b777d777988cb88a48686c7cb99b8ea9babb788b9a5ac9abbaa98aaab78caaaec7b97bbad575987
col13:   5499b83ca8849aa5a8729a8a9996b9db77acf4cb9968b8c76badb88b59bbd9dbb878aac768b7ab8b
col14:   b29674b876a739768aa688a9da9a5acababd86bcc76dab8cacd87ca58b87c6a8d679a9cb694aeab6
col15:   75944588956865c7bb47853989c77697dabab9bcc6fc67b6dca8b68d99cbcba99b87b9d6878b8aa2
col16:   a8a777bbb877889aac8ac76aa4badab99b7bbbbbcb9ba9bbbc7cc98bd9c7ba8b9da8d7de89bb6bb7
col17:   6849a88663886d894e56b9a8a88ab9daadb99bcb7a6b9ab7888caa789b87d79dab8ca6977989b679
col18:   56656a99645a5688b98dc877ab7ab47889b96a7e9daad7a7b899aac5ac7ca8dade38bda7e88c7a89
col19:   8a9737d5794779a76a7bcac8b8ab7daac8aa8cbab8baf7cb97acc649b899bbc785bd879ea988cc78
col20:   48a4a7a97a634aaa85976998c7db88ab7297abada88d9677ebeb7c897aa899a89689bb98ada88b66
col21:   647a4c8c575b9776a96a7d5a8abeb8989ad9d8a87bbc88b8ddacaa9bdfbc78abcdcba79c9bedc9a7
col22:   498a877ab16979ca8fb96687a7ba9caa78a7c9abaacc9b8aca39bf8ee9acdb67b6bf96c6fa9a9fb6
col23:   5a7788863868469a4a77b87696a997a8b8cda6bad85c8958e8aab89da7cfac9aba8a5c89ba9187c4
col24:   b629a999369b697a4ca83b9ad887ba77d99afa68bb9acb989b898cf98a8dc65a48e7b8b89b6bc9b8
col25:   8954a7b86478ad77a8d7784baaaa7c8ccba69986b8c99bb9baaa89cbac7d877aabc9b868a998a98a
col26:   6776a8c9c978e5a8ad892cbc98dbedb9acc8dca8cadab8ebc8d9d6a8cd99baeb9cacc887a9c99a98
col27:   79999568a9b897c7ab95ca97a78bb7b9adbadaaa9bcbdbdbbe87aadbabcbf7fcfa6c568d7bb999d7
col28:   8999cba68c99f7c8b8ea9cc799bad9cca89dff9cbcfd7b7c99bcadcf8aeb8c5cdf9c7cb9aba8f8c9
col29:   977898a6baba9d91e99d9a6b9ad7a7a9a9b9adcf7cbafa76ba9c8dbb9c9ca7abaaac99cbccbb9daa
col30:   94b7aa967ba796a5bac98ababbc8bab9bda6cdfccab9e7affdcbcbbacb9fefaa8babbabbb6dccaa4
col31:   a6baa5aac96c6eaadc9caaa8c99a9dccffe9dbecdbddaccd78cbc7abbeadf8ffebe79dbdbabaacc5
col32:   99c88897967788bcd96bdeabde8dcdaadcbeecb9dc78e9cfb96adb7caca9d8caabeadaabbbb9bcda
col33:   68a994995787b69ae879ed6a9aabc96ccbe7bae9b7bdaffafdb7cafbfcbdde9dadbe9bb9bd7cbef8
col34:   78d9c6ac88c8d9e9badc9a6cedc78e99e88fdbfdead9caa9ba9adcbcfecc79cbcc9baa9efdea9895
col35:   5aaada8b9a98bc9295cbeed7b7aca6dfcad87999c9ccb9aa8a89aa9aaeedceaa99d9dce8b998a8bd
col36:   98abe8e55cb9be78deacbdaebc8f9bdacacddfddeeedcb9debdedd8fdce59b679cabb9bccbfb8cb7
col37:   a65eac7cb9569b8abbeb7a97e7c68abefac89bccd9fcc8bfbcb7de9a9f69796fcda9d9d8cdbeab7b
col38:   877b78d8cb8bc987bdbc5ffbdec5bddabcfccebcbbbfbeeadebeefbcdec8bcdfcda6abaa5cbc899b
col39:   85eaab79ba7c86abacc9e8daf98acbbbbaf77db9ad98d9dbbcfcceefbceccdd8d97f9bd87e88c6a8
col40:   84ac9bbcb89c679bbdfcaccbe8ccbaa9edafbe8a8bfaaaca9cefccfabeafdfde9eb8b8cbccca8e9c
col41:   9ad9d6a69ccbdec78aca5be97a9a97ea9ab7c7dcfba9c67adab8b6bdee8dcccbae8dbccad69aa6c7
col42:   bbe47aba89aaaeaeaacacbdebcedc8edddffdebaaedbeafcdd9cbbecf9cbdac88df9cd66c89cdc95
col43:   539eb7bcabb999ba8ef598cc9bace9e9cd9decdcbcdecdbbcfdbafdee99edb8bbcbcde9fcee6dc99
col44:   5d77fbb7c58bea7dcbd9df8cfebddabfffc7aeaccfd89adecffcebbeafb5bdfccadbbaffdba8d7ac
col45:   7997a8854dc99ab8af889acb8cb4dbbd89adcaccbfdbfa78fb9cab8cfbde8fbbbcffab8cd7fec9b8
col46:   7a487969db9a8ad9b9ab8c6b8cdad8b8abaceab9fdcceadcdc97cf9bedeeaadcbcca9bcbde96dcbc
col47:   b587b6db67986bf98cd8bcbb9b8bd8e9be9ecac6ccaefecdabcccfffbdbd787ac8d9ad9eedaacb8b
col48:   c7c475ca94caa8996cdaad8ed6ccc8cbcdbeccd8a5e9cdfebfdbcafcb7cbbddcbafafbf97deafcc9
col49:   19ab7ca97adcd7acb8daaaa858aadb9eacccdaeacedc8beaeed8be9ba9faff8bcb796aceba98bbca
col50:   bc57877889ad898c98a9be7babd9eda7f9b9dbbca9bafbf8bde8cecbead9abcaefbdcdbd9c79acd9
col51:   5778996589894b58b87786788b6728a89a4bba896b869a99aa8da7eb89cb96889ca888d7b98665a7
ROC:	 BPix_BmO_SEC4_LYR3_LDR10F_MOD3_ROC6
col00:   226344275322832227221817a7357368676438845767878598664989b47957785aa9596554648894
col01:   495133463432894852413978587688895b75a77a95959999796696674c588988b883887a87b57639
col02:   4357722128b68544631939756515577878a8367869547798478578d78677699786567cb778864466
col03:   635166557356216986478897836447aa97a85748a5896546a788979998b871bd76a87476889a8ac6
col04:   548694876477287255548977547997c77b6966a87b599a675bc88938ca79a7aaa8767888889d67bb
col05:   443783587246558786958587a6a67679487b5bc58789796845795556986a8b966a478c67578675a6
col06:   614885557a4333c5425755787567563887596b48966a88788b7599786686889897999a85b8a7aa84
col07:   1134663566a5655757358977819731c6667ba997966977977756659789a897baa998a6a97a8a7967
col08:   64655b83468874895955425a785a75798a84989c959974b988597657da99ab989969ab7896379768
col09:   646694a4a85735675b8476987caa9a9b678a7aa586979976a9d68894daa8d7568aa5bb8aaeaaac97
col10:   63664225d15457685757577776986769b976a876869aaa7b66638378763b848897c886689aba8a96
col11:   5642667575775a8866776858864774777666986489a7a5a9927977a68999875779ab895467b75988
col12:   63574588b97677659397757b59588b8a676a978cb7b7a5677999b57998c7ab789b59a387a9469b78
col13:   6577b482767839676635ab79593878989a868788785a96ba87599cb6ceb9c496479a9c98aa89b789
col14:   86337796688755876a6b95794686a48a897c57ba76b898967ac8ca6c8ba468b589699837ba39b96b
col15:   6547a836657654638896687c5977778275bc86a68b7bb86979a778c9aba789b778dc667cc9a78675
col16:   873686798578658977266644995768c7458ba8a9998789a976a87498a87a969a95b89c77caac888a
col17:   7916889557a6667573587897786656787a7aa85a897ab89ac866ba99997b9ca96988b8a4b798ad7c
col18:   661579765738654544b76a8588b7a97896a9b788a9a9b8698975768a867ab9888c96a9d88a8489d6
col19:   253587673746966595776586c67aa678dc997bb86da99a7885ab9a789bbcca7ca9ab79b9987bab8c
col20:   a758387853556868646a588b6cab9a88889677877a6a58aaa767a88a7cb789ab7c9b8baa9b7b6a96
col21:   826655c5a785767a76968a68873a989b8b7bacc7988a999ca9a9868b9ac9a9ab9bdd989c89c9b898
col22:   7578656878855966553899779a79ba696988aa89ab98aa5d888a87885babc9779cb8bcaa897999aa
col23:   88865855655899978742967899989a99aa888ba9acb79bdc86889ba99bbd98b9c8989988a9977aa9
col24:   66863386565899696a97b999987937d5997b89da77ba989ab9ca7b9caa79babcab87a6cad9a8d969
col25:   6b735459678a8a476ba6789788a7886a99abb5966cabbdc89c9a7bad8ba989c9ba99caabbe999776
col26:   9898699b6d85988a99767c99cb966997c9bacb9cbdcb68aaddaabdbcf9abc99a9a9d99a8986b9cba
col27:   6866686959a69a8998a965bcc8999cdd8aaa8ccc97bb9aaeb9d779c9bbaf9aaa9bcceb6bbbb998bb
col28:   4968879a98a8a9bc9ab8c8b8c99a7d9aacacecab9bbcbdbcbcacbaaf98bbcee9e9decacaccbbdbca
col29:   3686787b888a9cc5a867baa88a9e96a79bb8bc9b69aca8aec9c9968adbbcbbc9bb9dc99c6cc87ad6
col30:   a6789a68a95a9babaa97aaaa79ba89baacdbbdc8acda9db9db79cdceaecd969abcbcd86cb7bccba6
col31:   6aa6aba8bacabdabaa9b9aa98cbcacc9bdaaba9bcbaaebcbadca8b98b89dead9aacebd9bac998c89
col32:   b5887569ac79db7b89a9bd8bfcbd87acdfbccbeddc8ccdab9cbbbbcbac9fbabdbdcdccc9aadabced
col33:   978b8b5a9878aada9bb8a9c99867cbaabcb9ada9d7b89bbccdbdbcccbbdfbddad9abacabbabacca9
col34:   869c98adbe67bdca8898897b8c5aab9d7beccea9daa9cb99aecdabcaf8bbb978cccbc7abdaa9e9c8
col35:   a77d8a9c696c7cda9acaa8adbbc79b8a878cabeddbdcbacdecbbfcacbeba9cdd9dcbabcf9cacbab7
col36:   88888ad9a7acb8a9acf9cb8ac6acddbcde9ecda8c8aecfdccb999adacdebbedbbccbd9bc88d9ebfc
col37:   d6698b99c8ab97accaaa9b8a789acacbacad8acbabbbadbdedffabbeeecee9dbbacb9a9edbddaad9
col38:   99b87cb8ba6b9dc9caad9b9be9d9bce9dfecbaaabeacbdc9eefcccbddbcf9ecdecbbdda9bcfdecac
col39:   9b8acdba9b797bbf8bc9c5a9cbabcccc9c6f9dbba95cc7affaa9ceafeebbcbbcdfaabdbaadc9c897
col40:   b77bdbc9995ac78a96dd9a9cdafeaac9b6cdcabefcabddcebdabacd9cdadcab9beaafccccbbfcbb8
col41:   9b7a8ca88b9a9adbb76a8aabbb6ab98acdebbadbadddaadccaaedfdcdcaaadca7cab9c8fac8cbbb9
col42:   b8caa89eddbdd7ba9aa98d977e9b9edfabccdeebbaafbacbeebbbc9ccccfcbcabda8cdfc99b99b9c
col43:   8ba9987b9b57ab8b889ab9cb89cddbedbed9ceccdbdfae9bacdc9aebcfe9fcdc9d8daa9eab8aeebd
col44:   caab7b79a99d8ad89acba9bfacada9bbf9bbebcdddbddd9edcf5abcadcbefecbdcaacfabcbbbc7c6
col45:   ebb8cbb9ab9aaacc9cc7bdaa99cbeeadaedacbbdddd9dddaddbdfddbcddaaccdedcbbaceeddcbd7c
col46:   98c9aaca8b8ac99aac9bc7b788cb9ed8dc8ccbf9d9bcdddccbbade9bfebbabdaeda9dcccccbcbbad
col47:   99a4ba77c87aabb9bb99bdb8abccfaabcdbcaceabcdcaeaebbfacccffcdbbbbeeccbcc8eecbacb98
col48:   7a9ba99ca9bef89baaabb8ca7bdde9caed9c9bacbafb99bccacbacccb8cccdecdda7dbcd8adaecca
col49:   a5c958bbda996b98b59eaeeacefbabfd9eeef9a878ddbcddccdbcbbeaebdeedabdbaebabaec9bcb9
col50:   da9c9a5b8b8a8cbbacbebfcabebc989cabacbcbc9edeaccacfedccddfceccc8a8cec9ebaab9a9d9d
col51:   8e5a996a765779e7bb78abaeaa9aa8bcb9d59db8eea9abea99acbb6aae6abcacebb9a9ab9c96d856
ROC:	 BPix_BmO_SEC4_LYR3_LDR10F_MOD3_ROC7
col00:   a79b9b8a6777b4896ab99d8999999d7acb89869e3aaa5a7a69c9a878d9986b58aa797a98797ac794
col01:   3a8a8a9878a89cbcee9b799bbcabc895bfaeeafc6fdc97e5a8ccbaaac9b8b7873c69c8bb6298aa16
col02:   86abcc76649acbf99dcdcbbab5b8a796f9bd7ecb9fc9bbf7ad39ab8ba7898af8af7856a8994c8856
col03:   d99a38d86dbaed98d9e9e9b7897b9cb7cadcd8ddea9ba97c9b7aaa8baa9caccab5bca8777a5a43c7
col04:   e988a98a9af8997bbdd9edd8dcfbac9bacdbd8a89aeaad9b8dc5aebd9eb9ebb8d997aa6899a57a97
col05:   b8b9c778bca8399ac9aabc98e9bacd8c76dbeda979c7b59aeb87dac9dab99cac7c8787bbaaa66c96
col06:   aa998998796599c9b79bbe7cce77bdaadd88b88ab77aacc8ba8bbcbde9b9c4c86a8b996d85895945
col07:   a4948ba6b8978bab9bbac98abaebccc69ebc8fea96eea9dbb7c5ababda9aad8bba9c45b85877a799
col08:   7537b949aacc6bacb7dccb9cab89f99abebca6d76aa8996dacaebec88ddabd997b96c5ba78688638
col09:   acb79a8a5c7b4dca8ac9ea9caed9ba8aae9fbbdde6b9db89a7caf86dbcab7796ab8aa97998cb5b3a
col10:   6758baa499b995b98cda9daa6fca5cd96ba94879ce99ebcc87dcfcbe9a88acbbca95beb99a964861
col11:   7cb89d99aabc9ba8aaacb68bb77a98dbbda78a6f7dfcabb88a988b9abbbbad8c496abaa676a96676
col12:   94b7ad74ca36789cb96cbb4b9cea8c8a99b8b7a8aad9c5bcafaa6afbbbd77abcf896a67975583677
col13:   a1999e6cbb8b8ac99b95998869779a7be9baa8bb7c9da98aa9ab6bc8a7cc87bcc89997e5ae78a623
col14:   99cca5ab99876946dbabbc9ba7ba7c8e9c879c9a79aae8ecaac6bcacbd8d17b73a5fca7ba9b75c95
col15:   8679b78b6aaa99da669cb6899a9ccacc68a979bc88d68889d9b4a98e887bd7c79a486a777c86ac77
col16:   9b7bcbdd9dda9a5cfadab6ac99978ac9ddbfdbacc989b7a6c9bbcba9d8d8f988bcaca6b5979a2595
col17:   767796a895aa748c99877c376b99b6aac98e9b798dce7d8c7a8adac7b7cc7a988c95b58a8a557774
col18:   b8198aab9ca5b9a78c8a5b8a99a6e678ea78b7aabdac8caaf98af87884979d9958977597b9a51387
col19:   8cd7a95cc59aacaa7abaaaccdbd8e9d7ba7b8b8bba8acf8abb976d6c7859ad96b8788e8696335885
col20:   6987a73bbbbacb9c88a8689cdce7c58b7aebd9abbcb687aba7aabbe9d87857a9b789958ab7659786
col21:   78989bbbaab788ac8babab8988dea7dbbcc9dab9fc97addb799bad8889a8cb85a59966a955597475
col22:   94278bbb9d6ba659bc5bfbb8a98af87b8b7dc687cde9cca8ebbb69697aa85bbc88c5a569879978a8
col23:   9b777a9c965b447a5998d9bb96b9b5d99bf778bb9b9aaa9a9a997c47694869b8825c66b685926295
col24:   97a687654e9d49b8889caabc8cbabac9a9bc5bc99babb59976a8ae9ad88a8c886777a85556755776
col25:   9596b7a589693b99a88ccab7ac999acaa7b347cb4c79a87bcab89598b9beae987a8555d88969a691
col26:   88e87ce69bfdc8998e9a7bcbadbcda7addfde9b7a8eb9bed878cb8eb96cd89b2ad769a9c97969886
col27:   889ab7bd882bccdbc79f7b99bdbc98bccc8d67ac69bbddbf789badbbc7eeacb6aca9883ab7834981
col28:   bdb58cebb9d6adc9dcba98ccb8b666cbbcc9dbea9adecaadbac9a7badbb996acbacaa6aaca4a5b9d
col29:   c67998777aadc98fbaabbd9ee78bcb6ebc9bac49cbbcaa98bbbba6bba8ab788da75c789c37636a54
col30:   bbd9a9b7c57899c9c7c98c6cce88aed7eb9bccbeb9bfdab8f99dec68b89baba6786b9857979a987a
col31:   88acc75cc9ad769a98dac8979baecacbcccdcdedebdb9afaad96b9a6f7a9b6a955b99b8687a878a9
col32:   6c8787db79a6ad989abb8a7a7b5da7abeadddadafc7eeb9acd794aeabb86e89b2b897a7a99b69a64
col33:   9be9c7acc889dc789aedbcab989db9d8c688adccb8aabbc9a89d977b9b79ace45cab657984779687
col34:   fcb9cb7aa987bedaaabaeeac9babbd9eb798a9edbd96adbac8a999a98fbb8ac987bcd5da86984884
col35:   aa7adb7bc599eaaaac7f1acacbba9caec8fa979cba6fa7a6d79ab8ca7cd5cb799977bba599a8c797
col36:   8da97596d89987dba9b9ccc88e888ccebabebc99e79ca86795e8aafbc6d56ad977bc7b9aba96a477
col37:   bb9cbdfdb87a589c5a9cbbb9bcda8cdfeaef999dbcac8cbbab96b9af89bdaa6a5975996498757b86
col38:   c8ca9bbcb689cbd9a9c9d97ddcb9eefcaddcacbddceddadd9f88995ebbca8aa8ca68ccb9ec87a589
col39:   8486977aaca9d8f7bb6c8babcaa8d7b96f9bdadcaaec7cccc7ab7ba8ea6cadd6558997ad6aa66696
col40:   865ab8bd9a79d8b6aafcdceb8bddcace89aeacdbbe9ceabdadb9daecdcbca9798aa9cba72caba894
col41:   9c99c6c775a98cfcbaaa9b99ebbbbbca8eb9ad9dc8fbcbc9bc8aa98aabad7b8aab8d688867975364
col42:   8a9be8a88878b5e9b8589aa89b9fcbcbbeddef789af9ffdbbaaa8a9a9bcaab87698bac5a97b83888
col43:   a8aa8c87c6ac9899798a97eca9ca98a76988fb789bc7ea8cc987aa8979968c8bac8ca5989637c676
col44:   8bc8a4a8f99978b885c7ca6cb96baacbeafcb7dfadba86d98a7bc7c99a98978a88855b8c6776b522
col45:   67b7ab68eb9b6a69bec8e998b97cc67989fd8aad89cb577d9b98cb5b8abba948d97b83a8d7485762
col46:   ca56be99a89b87779a99a9ba679fccafbe8b7aaa8ac8b896c8b7796aa79d6ddd68aa8a9688879883
col47:   b599d9c774caa9d957bcaa988777a7bdbf97ccaba4897c8ac667cc6a9dc9dba986a9847698b87989
col48:   8c997a4ca8d5c9b8abca9bc99a9ad4a7ca9ecceba5aad8d9a689b97a9ce9a87c6b9ac786a6449884
col49:   dc4db9b97c777579cb615a866a76acc8b8687d69b9bcaa76beaa6aada5cbeaa7b97466a7d8565482
col50:   769a8999975a5b88979aaa9b868a9caadcaca9ab9a9ad96d99a9a7b78cb887697867b876a9b75a53
col51:   5787797a63955472495657795887386b5875b578bb9267386645b4ab77a4664989675a2557315851
ROC:	 BPix_BmO_SEC4_LYR3_LDR10F_MOD3_ROC8
col00:   844598576948b5ab579a49a5a695a86989595c8a9d697bac7aa9dac9a8a8c2ada889569598388966
col01:   9ae84b99254c8589a99ad99b787cacab5accb64d565baaecac9888a94b97ab6a897aab7c8b8649b5
col02:   7a27b57873555a9a6a9b9787adb8979f9a5c8cac99899abc9cdb88f86b9b6bd8cdf66c9687cb99c4
col03:   495bb96987a77688895a88986ab9bcadde7dbeff79db978b957b7c868bb9987fbb6d866569c877aa
col04:   6965258974896675a68c6a89999f6a8da974ab36aebc7b8ac97ac8996c8b9baa8ba98768d89db8b3
col05:   a4aa35688aa77a2d5877a8a99da999998a97d9b9a7bac887aab679a9ca99bd9798492f67753a597a
col06:   ac48479955a77a6b966c7bbbbaa4ad7d858a5d87a99cb9bca59abcca6cc9e98a95ba6878a679b586
col07:   55c7557ac8649797b6ba4bd3bbbbdeba9cb7e9569abcbaa9ab9a7c89db599b5978c99a89a689aa88
col08:   65579469a5959d6c65b6998ad436b78eda6cea6bcc77a799b89ba6ab6b869797c876b7bca594a8b8
col09:   79897746878d79c86984968479aa98b79bca88e66798aa86abc6d6bfcbbb67c77a7796abc58bb79a
col10:   94517a56888b678895a97b859b4cb669baabbacdcbbcef9b8a9cbb58d7a9bbbac8997abb8899a97a
col11:   952679976be28a99a96949ab99bb9bb89969fbac8bc5ca8da776c83b89abdac5ba8a789974b73987
col12:   7972bb99a7c7a9489cb8977799bc997ef66c8b8a287bb89a4c49bbac995a8ac868a97bc885ab76a6
col13:   945395d78268687998a88a997a8aa5b9edb78a9baa99896777aa859769a5859a8c7676548a87aa63
col14:   6887a4c97983a579964c869d78a99869ed9aa9a7aa7997a78999baa8aaa7a9c99cbb77d5bb976948
col15:   9265ad8c876893696a9ac66d98d9ad9d99817bac7ea37969c6799b8fcc848c6cd667a96a6b6349a9
col16:   4a64c7ab8ca69d7796c797877d9a788aa78c69b7a8a7baaaaacbc88bbdeb9bb8a76abaaab6769759
col17:   846727929656664878abc16a9abd999ec7b7c686d9a69b9a75c9b9b3977a8b88bab8b781a86a8a68
col18:   99599a691959a86579a6ca689ab78c9ac68698bba8a89b996a6ba69d5dae85a58a76c678ba69a187
col19:   aa584d656876d79e7ac9fa9889aca867cb79b9c99aaab9ae7a7c69c78baaa89f6cab8996a8547738
col20:   56588b28963baac7b689c9bac958e8974195c97a8879c689a9b9c779a9179499588a98c8a8888778
col21:   a499688b47952b8a58748979a58897a997989fcacbcbbab827bbcbb8889abb897798a8a4a4897557
col22:   a4a58b957689cb7d96a955998896ac78846a5ab95c84a88b8ad98bac64acd59dba8b7aa87ba69944
col23:   843778d95ba9a8585a9848b796b9a74a8a5d9a5a76cc89fc64b7c9c78d9b9766879a6a3494666865
col24:   73384733895965788688b67a6e748887b9c99d359bacbbd94697ec9999dd95859a5678b669684951
col25:   97846988a8576356d9eb4a77abbd8bb88ca5a5965aa9c5b988aa9da67aa9beb76c6b98896a676889
col26:   68aa776a8a9967a2c95a6afdcdba98ab9bd8ba986a99db68977679aa7bee6999579d5e5c6cddc766
col27:   77c79867585977a79757baa9dae9cbaf9ba788bb979c9b9baab9d78bdb9dbcb6af87c99767793897
col28:   659fc28b8aa7d9875ca57d68df8c87ac5e8d8c6c8cb7cfbeadb7b8acabadb85abfb96a9b58a39978
col29:   da38d8a9ca688b98bb86ba8ba66accc6c88aecd9aa9da8b95dba8dacc7fdc78bbd58e7985ab76a84
col30:   5a98577cbb8dadb8ad488bcc6b789a6baadfbedebdf97ba8a95c99c78bb78ba7a9c779676955f869
col31:   8978ccd876a8b97aacc94acbc99897ad5aace8c9e9dbac9fbbcbbb8bbfefcbd9b8ccc8a8b868c8b4
col32:   caad5889b4a9abd7aea8b8ccab7bccaadbbcbdccb8b8dcacbfd8a8bac9d69dfad7a8829cd88a8cbb
col33:   9c59ab9aaabcba7b8986ec9b99bdea7a9cc68bcd8dcddbdddb6c8bddabc89c5d9999bc6ba5b89895
col34:   ac7b59a8835b8a888be86c9ca49bbacca59dfde8fc98accdeaddacb9cec7a8aec96a7ac9c4775a92
col35:   77a66685adcdcc79edfabbbaedb8b7ddaab9be8fccca8acdb8bfcb44ef78a8caa9af8d9ada6396bb
col36:   69aa9a9d698b8d7fbaacaca8eaba9bcaafcbcfcbc5bddb99ecbb975ab9a9bcd97a48b89999b7b976
col37:   18ac96cbaa9b8aa8b98b98fcdb8ce9ebdae8bdb29addc7edebbfddeb9daedaad78da78cbbe8ca679
col38:   9b89948b99b799787a8cdd699ddccadfceddbdd98ded84acacbaabafcb9e879cc9da7c4b97995686
col39:   8a4493bad77a9b5b7a6a65b99b89a5cb8b9bdccfefcca8f9cc6bdbbb9cd68987998a6bcdc8adb666
col40:   aa85668aacaa9799a88ddbfca9bad8adba6ba8e896bdafdf7cd9caaaadb99e7b69d8b6bbbfbca8ea
col41:   cb9ab697889aac89a5bbaabc8fdca9be8ceaedebf99b8dafbb7b69c87fb8fc6aa8afba99bad9a882
col42:   dad76b79a9ab99b79caccba99aaca9d59abbda89eb9baacbbdef8b8cdee7698c6b98a97cbb95ab68
col43:   ad897b9babc8c5bfc8abbc7faece9cadcdbceefac98e4bab8b9fce7cbdb9bbcbabdaaabbb99cdc79
col44:   7ac87b9dc7996e6cbeabbfaae98d8dccbcfecbcca88dc48a7beaa8aaddddef79cfadcb6f7c98bca4
col45:   bc619c76cacdb5d6588d6b7dceabaaa9bc89a87e9ebc98b7c979bba876cbcb559b69ce9477b59f28
col46:   a84cbe9c99db9ab95e4659cebb9bbadebbc9bff5beecbacdbceefbdb9a8ccb6ccab9aa8da9b95d96
col47:   a47697c7cabea4d6dcabcccefdd9cd89d6daebc9acecb9ded8da8dcc9accbd89dbb88b8979c76cc6
col48:   d99ab98b7a7ca875e8888c99a8bbc9ff8bbebd8afd8bbbbc9dc7bcbbcdadeefadbee8e9a799b7a95
col49:   ab7a676b8c798b9b6adb8bc9ae9a898cbcabbb9bbc9fd9a8dccdf9e7dc5d7dc9eb9bbfbafd998699
col50:   39697c89ba86b45a5dccf97ae79bdaccacce9cca8f87a97adfbbfbacddbdaac9f8cdcbab48baab8c
col51:   9ac7a87657989965686a33ceb5c89caaf77bb4e6cc6bab37a88b869ad7aa5b4777e9a4ab88b8a953
ROC:	 BPix_BmO_SEC4_LYR3_LDR10F_MOD3_ROC9
col00:   b9cf8b9997578c8a47ca367ab695cbe8bdcf8987988eab87abaaebe98baede786489637959678964
col01:   f9eade58be6cea5f69aaedaeda9a8cbabdbcb9fc8bb8f9879eda4dfaddabfbbf9a99bd984bdfbb5a
col02:   e7cfa686c9d8986abb7f9acaabdf985cdcefe8acdadbaac5dcbabcb7a768bbbc588bc94cba94a7b6
col03:   3c75a8c8887585c8d6d9daabebacbcb9acfdadfecd9799bf796c7ebbdede9beab7b75aebaa8ba476
col04:   8a9bfbc8f88bfbd88c9ccdcd8eae6dd99ba8cfbafd99bbdfd9dafc899db78c8b89aac7654c9ac5c5
col05:   c8cedc659fbd9cda7acaafcebbeace897d96a8afbff9c8d9ecfbaabda8d6abcbfd499888b5a897a9
col06:   899696e79d95cbc6aca9fdeddfb9ab9ceafdddcbefbcfeacf8afbda7aaabb98698e59a785a886b85
col07:   9989d6fa8c79ce9cba8ea99ebea6dfcd9c7def8f8eccb8ceaced9bdd9e8a9a79baa8c7bc7937a6b8
col08:   ccb8869c9c9cbdc8c674afacc9adacaa8decc8da8c8dab8ad9aca6a6c88da5dd8669dc9b9495a686
col09:   cbdcb9acb9898ccf8a4dbbe8eafacc9adcdcdbe7c9d9dfaadfa78dcd9858f6abfc6aadbe8afaf6b9
col10:   aa8f7887abdc78fd9accaadd9ec9d9ccabdadccd76fdf9bceaddababc8ad5c5ed98dd7d99ace7586
col11:   6cacec787a89aa9caa9b749ab9d99cab9aebebbacfca7b8a9aafecb887a89d794886ca6b46854a26
col12:   99787bb9cafcaaa39caab9bbac6c9f7897eadafb7c9c7bcafbae5d8cb8587a7ad68a5ba64b8a7976
col13:   9a8585b87ca8886aa9fccccceefaeb9dcabfbcac7f9b8b7b87c79edcda4bc4d77bd8979526763536
col14:   8b8982bbea8a8bcb5bc579c4b76c8baa8bb57b8ccdedb99acae749b758c9894c999b4b8a3a697657
col15:   83869dbea86d8dab8afa7c58bb3b7abd98a8dbdcfcb89effa7bcba9cab989b76d779795763876984
col16:   b83878b9489d78cebbab8d97be8bcc6b68af7de8cbcbdabbba89ba1476a7be8aa67ca1599d899962
col17:   efab48aad9ada89d7869adb9ec75a96a9b8dbb7bddd6997e98a8cabbd9b8866e965959c3b3556843
col18:   479a579895f8cbbbb7dda8985aaaea9da96ca8cbd9cb72bc9595a989568597c8a75a455996383ab2
col19:   89bc885c7789b9b96788999b886ad96cbbda8cb9f8caa593976c7f598bdb4a9b9c35a5382a667788
col20:   b57a97888b39cad4aeb8985aa9fd8fb6fe98789c4bd78b8e56a85b5999769c9a7798b76a38373498
col21:   bfe68f9697a9baa98e65ad68496b8bce9d5bda5a9bd77887ab8d878a7979cb98bd7866665b626983
col22:   a5c8b5388ac99dbc8939dd89b2b96cad77c8ad69ec9267d8a45c6ca986aa77afb8a85778a6555457
col23:   78988845c7aba29b79b4fbc4fbbbc86cdb98d98a9f6959ada697b8aa9da86bb27a77646555ba8474
col24:   a5da5884ac6a6a697da96b6ac8bdf78abbb8c4baeacb9956c89d59e947c53a96387721814744a676
col25:   b5674997678a58974bb7abc8ab79ac7aadc99cd995aa88bac5c5d8d8a87da9661c5b94ab51885631
col26:   895cad6cc8a8c9ad9adeaeca59f749f89baaebfafcb7cfa9adedd9a9a9a3a7bda777abb836683ab3
col27:   b75bb597a6c7c848ada898f77eac99bbcbafab8aebbba8b8e9ccca8ca7f9fb69cb38699ab7866a76
col28:   b78ba37dbca57bce9bfda7dacb9cb8bcfdbcc89cafbfcbbcaeab7cadf7ba74e98fb9b4b8ac875684
col29:   796bab5caa8d7ba8cf8786ab769b8aadcc8eb9fbccb9d9dad75ebaad89c99a89bc14a7b7ea767745
col30:   b8898adbd9f89cb899c7a579a6677bbddbad869f9bca79ac9ba39ac88699bee7ca85d98b77994192
col31:   e4b89acab78dc6bbdc8e96939aba39a8a37cbbcffdab95cebcb89ed8bc9bcf99bae7886867855835
col32:   a6a5cbaa797acfdcbdbc7a5987daeb79afba9ada9b9b9cdffca68ce8998bb8aa97449955a876b3a5
col33:   a7889ba9a99cac9bac97b99a9a89aea8d7fccdcba9bc75c9efcbae98b476b988fb368ba963c6a391
col34:   86baace979d89c7b8aba484c6b8ac47bba7a8a8e9a8aa7c8e8b98bacb649ac8bb5ccb77b3766b276
col35:   6caa84cb479663bd8f99db86cbaa2ab99b6c9abb8baa4aeba988acbdc958cb8a7b96759758666591
col36:   99886688c97c9ac9abad87cafc9adbab9a6c9ac9edba999b8d6ba4688678bb99887b17db35375691
col37:   c89a8dabca55ac99997b3e87acd8b9666faca3bba8bdb6fdac8c6dc9dc9c9b67b9b6981399667562
col38:   8bb5c59a657a8d9dd9bd8b9baadfbbbda5abca8adbaadaad8ca69fbdc9acdb38be85749b94774524
col39:   677bc8a79ea97a9989a687b4ab88bb8a5aa989bf5c38b97cedd4c69fa73c97765767624687949483
col40:   c7aaa66a6e78caa6cbaacaaf8bd6bffb6ccdbb8aa888b8777989759db66ce79797fc77891a627661
col41:   8e57ba877965fc797769679779aadb9badc5aa77ed9f8c98cadccb8b95b8a57a7866b7aa79727733
col42:   88a98a7bc9daca91bb269698d7a38aac9ea9da4a7a7fb986d9cb9bb8799a855a7348b6676a198538
col43:   473b4b7a67cb7db8c44ca49799c9bc6bd49a78aa8b96dea6a5888973ab6ca98b534866b466862528
col44:   869b7bbda587bad773c39d8796d99785c7c946c8cfaebad448fb5a76b999eaacc738773537546565
col45:   b74874897c475988a5a58badc8a96a6a8cec7e9dc86665bc98ae8bf39c5aa47a8157992857366752
col46:   9948a64c745978b8b94e4baac6c899647ca593e8768a78b9c957b89886c7c7464bb7667362454533
col47:   5266a3ba285bc6a58999ec896c59bb7fbb5b78aaa9baa7598979519b94898356b876478566668916
col48:   7938c96a7972456739585a477975e7b88ac996aca5b88d9aa4ea6bc67739a6743433584763941643
col49:   7886b8595898585aa5a8c5dcd69a796acaada426686a89858a4782a27b45a8564c44646515341614
col50:   ac68a77ab676898786a99baa7d98d8d9b9c4d7aa978cb17aa859a9b9c93b3545b953522587535364
col51:   1534218168b473359968842697514798987184a1489413a465155232453128721623131163111171
ROC:	 BPix_BmO_SEC4_LYR3_LDR10F_MOD3_ROC10
col00:   7655535733546a364668878856545558687686748488996948673444763647248855a47346833241
col01:   84878794796988c9676a59789896597969967a6989865887875968559a8998173255698578453644
col02:   586a6796586474645587a546775976a9a676777997a7756a8b7747426768577944581546546a6526
col03:   67777966977755986687667c95377b8589aac86a85a987a988576a97a65367777485585757645684
col04:   745668b849742846698b7758976666766477574966889aa787977784b694a8889989bb7775987795
col05:   6485694548779778599878895968b698977598887689b67a5b6899684756b5687576569957583746
col06:   865376638a6676a7a9768469ab668957b896879b378877699998bc88285674696567597475386557
col07:   438776387785aa79668a7488757698bca87b87a9a57887876a89ac89666736877797885776574758
col08:   4a47678678373988769499968786896a79a4536aa87856889997899a69a9b6596c8988843a474595
col09:   859774977767778698777ca58a689999979b999977c967777667a5ab69a76754ba7997b998895586
col10:   95a784a694386a9978a968799698649a48b67979895698566b666b679755998896277887863697a6
col11:   55667484576975667888b694b7a988795b98a688ba7689789798987b8889a88667858a4565687478
col12:   7896555b5867788b98966559886599a6a76a866788869948586879788899a8567998a558b7678466
col13:   67664665aa97b87998c55b69ab768a89c79969798bb9aa8789669a8b99b7598769947a7569a57976
col14:   468788a565676889796888a9aa8659a6d78879697c6aa869b68ad4878468a97687587994448486b3
col15:   7b67986a769569899914bb7878967c95c8a959b696aa699bb69a878b58bab88989998694864678a6
col16:   769969776477a896969a9a86776ac998e89c77a987aa7a897ba789a59868a767583876a5565587a8
col17:   8577768b788788997798a796698768698b9867d5887a7b799a9798ba87a697a69675665865436862
col18:   8557675c65765979a8449a6ca69987997b9c999689a78a6a8ab89998876a976988965697968455b8
col19:   79475a979767788985a87c7a9b77bc87b98a886b9aa8777aa667899d88a9837597878645ac668655
col20:   86966887a7aa59b8889798b7a98988787cca96b7889998988a87796ac99887877977785a65847944
col21:   a85658a64878799695b887a99b857ada787a56b99c9a9a779798ba99a6ad8978689779975a876568
col22:   6575676b7876977757b89969799a658897999a9678aac77a9888997b9a99867b9c58c66875966785
col23:   56575275588b39869679789a698999896b78779a97989695a897bb8caab877bc5a6989a8586577a8
col24:   6a46856995885a55687579479b9898a87bb96c99d888878aaa78a9b9c86b998997a9d96895a99887
col25:   7859889969887c69789987a98a8acdc99a898b7b98ab999c99a7aa7acda978a897ba9778b6758986
col26:   8a79969c779ab9ba58ab999aa977b9c898a9abdbbaabaa9b9bbb95acbbda9b8997a797baab998876
col27:   768948b89988c88b9b9c86b74b7a79bbabcbbb78ac8986d8a8999a9ac9a4e6988eb88aa5c8887a69
col28:   a8ac48896487b8a99a8aaaadaa8ba9c9aaaca998b9abb9c9c9dadbbc9c7b6ba98999768c9788ab97
col29:   cb6aa5868b798a98979adcaab5dbca7ca8aa99ac9a89a998a8abbd8a9bc9c6bbacaa76a996c88a99
col30:   9aa8a7b7c998ac879667d979cb899a9d988c9cb998b9ca7cdca7a898acdecab9baaaa878978c8697
col31:   8bcaa989a86886aaba6aa9799b9bbd9dacbbba978da9ce7bfac89b9bcaab9aeeaa96bb9997887996
col32:   cac99aaa8aa99cbabbaac98c8bab9cbcdba9a65adc97ad8baa9addabaeeb9aab9889897bab7b9e77
col33:   9b7ac88d7bcb8ba86aa7899cab9ab8ad8a98c8a9889d8ab9a89c898c89ecc9e7b9bab98bb9ba699b
col34:   8b788c9cbdbaacbb9ccaaa88babbaaacaaabeabbcb98bbadbbcaeaca8cabc8fbca7a9b79a977aaa8
col35:   c9d8a9869ba999acaa8b9cbaddbaaddacba999bcd9ebea99dd9eccaa989cc9bacb9889b9baaa7ac8
col36:   8abcdd9bc9cbc9b9eacabbababf988c89cbdcbabbbc9ccccbcc99eaccecbb8aa8ac88da89999a96a
col37:   db79a9b98caaabaab9c9bbb99aaacac9eaa9bac9bad99bbd8ba9998fbbbdabb6ba9bcba8ca8abb98
col38:   c9a99b8caabcba9dc9abcab7bcdad6bdccacc8eccacec9cacdec8abbecbccd9c8aaa7989da9eca97
col39:   bd9aabb8bc79ca9a9cb9b9b9ceaedabbccaccdcdddabc99badbd87edbabeecbb9da8aa99ad9aa789
col40:   c8ccaa67ac9cbceccbcbadbddbbfacbdeebfdbb8aabdbbfefcbddc8bbbaacabdacabd989bececcba
col41:   bbc9c9daab9ccb89b9a9a9bdcada9becdbeadacc8bd9cbcccbcabccb9ea9accf9aaa9d7dbcb989a6
col42:   cc8cbacb99bacaacad9dab8cea9acccbbddccbbbdaacbda9bdab9daabaaaab9cbcbc9b6cda78aaab
col43:   bab9aab87ba8dabc9dcabcdb8acabadbbacfabddedaabdbdebdebbdbfdcbddaacacbaebaa8ca96cb
col44:   89ab8c7bcaabdb89bac99adbcacbdbccccbcdcbfbbecaad9deccd9cecbaeabd9bbcaaaacb8996aaa
col45:   bbb9a9ccbdcb9cc8fbddbc9a8a8dbd9bacbebbbc9cb9badacabcacdcdcbabaacbedbbbbbaaac799a
col46:   799bbcacbadcaae97aaa9cbcc9a8fbcabcb9daba9abfaf9bcacde99edbdecbfc99cacb5babedaa96
col47:   ad8ba9cabd8abcdaaacdbcc9ddededddda8cfdb9ebbebcbcdedbcccabbbeccadabacbaccc9c7c8b7
col48:   baabaccab89a9aab9aacdbacdd9b5bcbbcecdbedeccdacbcfefcccdebdeb8db9cbb88cbbd9a89acc
col49:   dcda98aaa99aabcb9b8bd797adcfcadcda8abfcdbabbbcdfcd9cdbdccd9dccdbb9cdbdc989d9aaa8
col50:   b9cbbb9cbcadebadcdcbdccdcabdcaafcccbcdcccb9fc9cb8adaccfaedbbcddbbdacdfcbcbbbeaab
col51:   96777cbabb9acbccdaaaa9cac9b8c99bbdd57cbebac8bbada9ca899bcbd7bc999a98a78ca9a99ca7
ROC:	 BPix_BmO_SEC4_LYR3_LDR10F_MOD3_ROC11
col00:   857388147576636567466889875597887496a97698a58379a8644597455668457426552133525514
col01:   b8966569698a7897698a76894865586ba86aaa98988864898c6639769765947787b6563646856352
col02:   38977669a96485b87b34768686a8988a86a8446a988867865a855e69993978326a6933536917b444
col03:   7988947ab5b79658695585bba546288af89a4a87aa889a758a5899a66657b7766974977769637453
col04:   979539855a5978a4888a68aa8b3988988867988a7876387597a7885b669aba393481477481634175
col05:   69499a948a88695b776988799b8b768ab97758738aa678975676466b9686774a85777531a4585866
col06:   4986b7747799b797bba49b89aa667699ab6995aa47896d689c7979466876a787c966147893812184
col07:   4386a9a67a5a8295b897a899a8d66b887998c887879b8a64968b8785aa85a86797774aa7641a4648
col08:   a7978577397b49ab95896b87986b679986875972a858989ba99a876858b975566b49b74245463365
col09:   867994a8965a7778ba37a98965a5898686b97a8a667897487b8b7865b8a6888995969657a8951a53
col10:   88776677475946a77aab9bc987c8657caba874aa9a67b5a949b846a94695687a499388976446b585
col11:   b47883a9569a49b7587aa988987969968a62a8b6b5967d998a447597c675b8838962665358358781
col12:   8a7b585b66787a6a979684a79a87ea6aba6a879da8a97688a69758898ac6a9377974495966866262
col13:   8978899a777673ba88b9a98b79b8793a684da676d9a89ca579cca888b999a8a957a69a948a793862
col14:   98678788766765b6997bba78cf38f98acc9568a7a49a9d79c97a3abb7985867b8669497749658354
col15:   8896b37989849d5baa87a788cd8ca7985aba7a9ab7b866cbc55858d5a879347777a8b8776a677212
col16:   98aca6b8775dbbc7a7b9599879b9d9ebb88c777c848b94d868786766c77696ab698c89a5568a7765
col17:   746758879a565a758a8566b99679c7ca999aa9adb8a968895b656c859897a6a7aaa67879a5167696
col18:   b56867a88689a9898a89b9888c7a8ac99b8b99a788899aac79598898a7b7787794a6855856965898
col19:   98bcaa78a99877c7d76896b9ca68a9cca7a9bb9a8799e769a7ca8648cb9a7975b6565aa599626733
col20:   c858bb9ca99589bddaa6adc78988587ba9ab8c668885898a99aa7b97866a78635448d84788586c64
col21:   699d89ba7566899d69baa99978a7ac7a8a9a8aa97ca97799ac5e7a8478979a7b988ab98799b86757
col22:   5b8a98b897758889a877a8ab8c79b7d7ca7a999b958a88b478988a97ba97976479558b993a8a8753
col23:   6a67a89979ab589688bb875cab879a79abbbaa96aba89baea8899a86ca68b6b8956a6756757ba751
col24:   86469cb6b8878b9aca77aa9669977abcb987bba88a5ab6959a797a89789a7797999ac9a4ab969756
col25:   7aababb97bb8bababbc7cb957c97aba8998bbba888dcccab99b9978abb9997ca586798685167a597
col26:   ecac98abcaadaa997c9ecddbabce9fbacf8fa8cabdc9d9dadbcad87a7b9d7c978b7b9694aa599996
col27:   887a4988c7beeb9faba8afcbdcab98ccb78bd89bba9deba9abbe9ccb8bbabaa5ac9abcc88a9c8659
col28:   cb7bbcca9bb68bdadd8b9a7dadecba8ddaadc8ebebabbabaabeb9bdea8cb5a97b8686b88aacbcab6
col29:   da78ddcab979ba9ba99a8caa78ecbcd8b9c8c8bc7bcdaab6cd9a8d98bbbbc89b7b8c7a9877c86997
col30:   bdfdbb88ab9caa9c9de8a99b9ddbddebd99ca798cac9cacbb99bb8d6b8ca89978a9e8aa95bcb9885
col31:   aaf7abb8ab8a9b8bf7affebaab89cbacc7abbf9ce6cab7c9de9ebd7c7abc7bc8cada9d77d796898a
col32:   7c98cd8bdbabb77add9cdbde8dadacbb98befe9acacbaecbd9eecdcbeddc9db6ccc6bbbcaafc7865
col33:   a9ae8c9abaa97d9cbececebc9eab8bbdbcfdbbdccaefbbc9ac79bb8cbdb9ed7c9bd8a87cbcc988b7
col34:   9f9abab96bbb9ec99c98baedabbc99abeaadbc9caba9aedd8adbccfcdea97a8d9f756a8aac5a98bc
col35:   d9ccbccd97d89aa6be9cccac9bbf895bcecbbac9cbaddbb8bcdecdddbbf8e8babbaa9cb6ad598896
col36:   be99996fabbfc9ecab9cdc88cda8bc9cddbc8bcfeadaabcbbabfb8ade8bd7da7a9a99c898bcc6887
col37:   ab8aeed8adbbbbabdbcecaceb9baaadff8bdcc7cbcba9aecbebaafbbdeeacbac9c8bac7ca9bab988
col38:   ebbc9d9b9cbdbabdd8aadaecadddc9ffdad9fccbddcbdacade9bbdcceacabead7adbcfbb99cac5a7
col39:   f9abc9bb68aceaabdcc8ae8fdbdddcdbecbaae7abbbecdb9acedcabfecb9b9adbaacad9a9a8acdab
col40:   ca9bbcbbcbcd9bdddfeffafcfaccc8acbbebbeeda89dd9adcb9ccbddddecdafb8abbfe5cbbdadcc6
col41:   ebddc9bbb9bdbd6acfdbcffdcc9c7cadddfdbbbee8d8cebcce79ccdddbdcbadbfdece8bbad9ab98b
col42:   bccdebdd7cdffcbdbbccaaadcaacdbffbbedcbbecbbaecccadfebb8bb9bffedfbba58d9cbecaab99
col43:   d99bccdf8cbc7deaf98ecceacebd8fccaecabffaacbd8bedbecaacbfdbea9ce9ebcce9bbf8ca68ac
col44:   cf99addcdb9ffff88cbbbeec8c9dd9dbdedbddfcababcde9dbfbeddeabfbfcadf9adafbdab9ceb67
col45:   dccbddd9dbbebcdeb9ffecd9aedfde7baecaae9fbcfbdafdececbdd8cecfcacbbccc9bacbbaab8bc
col46:   beb9bebadebeecdd9dbaccbdedcdbcdcefcbaaca9cdabedbbccbf9daddcbda9ebcbbada9cadac8c9
col47:   bccaefbdad8eedb9defaebacccbcdbfadbfefbbecdccabdbcb9efededdeeedcba9ad9beea89aaab9
col48:   b9caadcedcceedfcadcbcbedacffc8bbf9dcefcdbd8fdd99e9fbfabcdcbdd7bebdddcbdddfeacacc
col49:   dfc7cccd9cbacbdddedec9cbbcdf9dfbacfdaeaaceddccceddeedcbdcddbcbefb99abcccdeaab996
col50:   cbbacaacfdbd99dcdbbfd8cdc8ffbdc9bdcd9ffaccdededccbecdbdbfceabbbcb78acdcadbaabbd5
col51:   ababa8cbd9a87acaac7b8b9ae8bacaadcc9bbabbe78ccbeacda99eab9cb8aad7ca8999d9aa499a9c
ROC:	 BPix_BmO_SEC4_LYR3_LDR10F_MOD3_ROC12
col00:   46897a2695d695a88889da9bae57a68595c79ccac7a7c959b96676899dbba6863538358ba6927b61
col01:   b1aa587589845988abbaa5789d8dba5864a378b89b8b77ef69ababda8ecb758a8557965ba6698b95
col02:   b9c68a997788c8a6987a7784a87a7a8ab77ba982ba6699c658aa7b97bc57e9688697453557585177
col03:   a9688655b75e7ac89cd699aa85a778a68897aa676aa88999897878bb7ada98865dc597b5c9b18a95
col04:   965567852bb896a96ae8cb8c786c7ad997a8add9dd8ccca77f9b7aa89b87a686c624b95eb6685688
col05:   9a7b9958aaa79baa66eada78697ba6cabb6c7d87dad6a4b9b976dbc7758acb84ec7b386556d89769
col06:   44957c987576c9479b9879658b5979d78b999d59b8cb85aecaeb6d97bc597852c4ed858ba74a34a9
col07:   684777464648678bbb479ca98aab8a7cbaccbbb79ac77b466c747cdbdacc775787a48945769c34b8
col08:   796575b89748b973b7ad6a9a599cd7878baab7c5b8ba8bb9baac9785b7a88597a5656a6915d37b93
col09:   6c743b7659a86cc598ba4b7a4ef8bfc6989c7dbbbf9eeadc99b99cdbd96ba953a5a999ad6c5c7993
col10:   c385a7877c889665b789b5a3ce9b68a9aa698b4898bfaa9a96d79bfdf8867898622988abc79683c6
col11:   a5953876545b739569974bb8b5ba5ce99d897dc8b79cc8978a598abc7ac79579a889a68aaadb555a
col12:   1aa83476a69716987d7a79bc599a8935dba8ab9a94a7878ca89a6489854a895a6d9abab38977799b
col13:   c7964b8a67dc995f9529a8eaaf5c578799a99a6a9db67a588a698a6bcaa72b67865aa6a87b869959
col14:   c557823559bcb857669ca497aaa7a875ac9a75ce989c9b59bf3dae5b5c9b6c378898b86ac6464756
col15:   987895889b86a6a5985aa3c89a95b7ea86b6aa6ebc67c7ba88ab7899dcdbaa6ae9b6b3b9d69484c6
col16:   65a7d98238a7895aa69b8caa8699dbb88cc9a6ebcf8dcdad94748ee6b84499e965676a98bc56a876
col17:   57547a96a536766a3474585a9788bbed99cacc7ab7d76983a8bbbbca8a89d88d679b52b4686359b9
col18:   47161996a6a96b9597c4ca9d7bab9aadcab9bfb8aac6aad9d49aa978c97c968bbb6ad989695a8929
col19:   424497798676c98937575898b8696da787ba9a95bb9d79ba889bdb97aa3da7a56797aeaa64b68654
col20:   843a954877a165aa89749ac7c58a9b996758bac7957a6778869f9cab9da5985199e99887b67aa645
col21:   b63aa6c777896a8596755b9876ba6b89a89a7a696a6f9c9bf7b989aa597bc6bac8e4cbc5798a6a18
col22:   5a633bb78a7b685a4aa6797ca6c99a6cd9b8ba779aaaaa59678959b488a7b4aca6729463aa859c87
col23:   a359b53a5a3957785588679b9768bdb4ff88aa999a787a698589e99aa69868cb896aa87397678745
col24:   3697376675877aba8b9aad76979797bba7cda6ab99a785689c4bc89b46698878bbac945888a576a7
col25:   da498a389766668969b8a7a7b8d6ba65c7be9c7b8b898c8dd49999bbe9bab79ab778aa758a7c9798
col26:   a88aa7a96cc4998f97edc7c886db6fecebdd9ba7cabca7bdb4dad8ba6daccad99a78c987bf7c9a69
col27:   b7788a75646c488699bcb87aa8abcdc667acab8acd76a6dcbdafdcabecb766ad669769b58e96a8ef
col28:   84716d6a9a5799d99b8cbbfddccdcb7ceabbc6b9c9c8adba9bf6aa6b9cf9b6b8ccaab9b37ab84a94
col29:   c359a676c648b895949989a7fb1babacbaba89b6a8abcb7db9cb8f9bbbbaad968e8ac9cd7c46a99b
col30:   c98569c87868a58a68b9986759acdcfa88eca9b9d99cfcecaed93cdad6c89dbd6a97999a7a845a77
col31:   966b688a9bbf51aa86b9adb8b86f9aa97b8da7a8ddaba8bb8a89ca9caabcacaae989c9997c9a8a85
col32:   968ad9b6a989ca6c78baeac7ada69abccdbddd9acce9a7a8bedad9acc7c7cdbbab7a9c9d9c6ca8cc
col33:   5aa9899887996b7ddbac7a6adbdabe9cbc9ca9ada9bfab8bab6bf79cdedccbe9caf79cabd77ba919
col34:   6aaa798a9bb9a97e6a989cb6988de78de3becaf88b9a7bda79e9aa8d9999acb8ba97949f58c868c7
col35:   a8897cb76796686ab978ea9dcaabac7bca7ebaeabc7cccccfbcc9de697d7cb8ccf9bdb9ce9ccd7c7
col36:   bbb3c7695a777769a6edbda9ac65979dc99f999ffbae7adf8f8ceb9fccabdb69b9a8ecd79a8bbcaa
col37:   a7716aa696c9a775b9628a97ccba79acbb99be9b7c9ddefc9ca9bedaeceab9b9c9a9ebd8a9cec9a8
col38:   589765cb9879b98e8a995de897abbd9dfcaaec9cc7e98daccabbddc98db49cbf79cafae9c9bb1688
col39:   968a99b8dcc69abda8ac4dd89ab78bab9bd87be8cbecbb9d6f7fe9cdc8e9abc6bb8ca8cd6db8ba99
col40:   aa5a79d977b6bb9777bda979ada8de87aaa9baab87ccfdcb9d9edf8afcd8fa9aa9889bacfc6b5bcb
col41:   ba9aa97a9979978593ba6aa93c4bec8c7b9abbcd8abacbced7ccbb9cca8afab89b89bcc6a9aebbb6
col42:   778ab8888a7aa876ba6b89b895eccbb9aebb9cb9a9899cdeceecbfbc5daa9fae9ffdf7ddb997abbd
col43:   737a89d68bcc799959aaba7b8ceaefd7b9bd7c6cdeedcdddcadb9b9aefaecbb9a8aec7c9fdbaa978
col44:   3998789b7888978c9b8ca9aaba8bbe88a8d9ade9c9cb2bd99aa5d75978db7d8fcecffc98abbdba95
col45:   5c66879a4b68699ba4ab87267b8acd8b5b89bca7dc7bacd8bbe9cadcdaab7a98daabd69dddc7a986
col46:   77685c78e74575a7b69a659daba9dbfbbbaaaadfcabcfa9bcacc7ec9e8b9fbfccac8b7fc8abcd7cd
col47:   b796a88caa9857987c886ea89af8d99e8ca9abe77cec9a878abdddfadf9ec9ad979cafbccc9bcbc8
col48:   2b649d6899669e9a46b8a976899a6ce5d6c58ecab7aa99b8a89afa8d6c7dabaaebacbebcee9d8a87
col49:   caab5c5ab67b4a7548b8b5b66fabc9c4ebb96aaab8caba9ababaa8fbd85caddae8b8a7eccbc98d88
col50:   7b975b9af6b9bba77a9daeb99aac9cbdb8997c989c9cb8a8fcbca9bbbac6caac6c9ed96bccaedba8
col51:   741156374256754437697a598959a898985786693a956999a7aabd78594748e4d5a78a6872977564
ROC:	 BPix_BmO_SEC4_LYR3_LDR10F_MOD3_ROC13
col00:   96a759a55688853564995655987698885a6787a54435679458457641a19814455334242553512142
col01:   6a8aa9554a68b558a74a7798a6a77b8c4657a98878b48b6966974863985845645712666666644134
col02:   98a757b798778aa748887895677968897c65b89634776784787553b9569666565976544561414735
col03:   798a87597b69677b8a86487677aa8a5777797897b3867a8965c76486341856968894627567468461
col04:   96686659a477866c49a87787b99479aa87a6b775a7386788a756888ab6a834683966a298645a4455
col05:   2765b47898ac77b8895a46696aa998a66bdba768c6999764968ba596767586245738467763125751
col06:   84998ca7a7a94889977a988788a5a7b86889864869689b3888976a548a7655553555565445675434
col07:   7a8a65ab868889867856997a8769668acb866ab4729756a688595868549746575434646476144142
col08:   b76569887477b8b88989ba6a775848688976a8977776a66479766aa6aa67a6674337664366351336
col09:   a98688a797979797a55787b885887da8578797b99aa95662666866a8aa5784954867786694594472
col10:   ba6976876a9a85a9757c98b9865997746a695855a2b59aa7c99875ab688a75684635759365465443
col11:   988377a65667aa998976ca99b96686a694598897886569767666a585759774295546466434562432
col12:   98969c9a6a799899699689467897669b598777798ab788967969ba67868876667885b18446453663
col13:   69aa88a887da6aa58b8a9a7998c76898a7aaa95998a84886b74689578a9866569689385487a49943
col14:   869967956b86968799795add7c9b9a98876b667a975884578999647b9478767657a6763744245592
col15:   c9a466699ca976878a9779797778786b66c98787977659797889869a988865b59888458864449614
col16:   86abaa9666997b7a7a9bac99aaa9857b78856aa86a8a77776577868a98a75aa67566a55857647622
col17:   79777698986969a894888779998797489d98968877578683a7475777b57885648648734627656791
col18:   798b98aa9aa5abac887a78b76aab6a97b9799a867a988799ca8b95778aa467ba7597895123473695
col19:   7984668b8a8a69a899a79987b989e6788988c8989798b78679968768468776c87a16678675347666
col20:   786576a8699676aa65aaa8aa9998a7b789aa7b57987a7b8a78876676b86575995276647747468563
col21:   a98776886b87c5988636db67b69a99a99b984b796a89868989b9677978977687756899666a574544
col22:   7a89989a8b6789566a86786797b8b869c4bb798887aa6b77398ac696987549986786743986696155
col23:   ca9999795a888957a9c9a767a9ba8d9988abc8a879db685887588887868aa7865945979a44313473
col24:   94669aaa76aa659bd59999a887ababddd9999ac677a768798779a89d839a85c58797846566743675
col25:   b575a87a9a6a75aa9aa7978967a9967aa7ac9da8757839966b88956a77c7a5667884653625444261
col26:   998a5aa9899b9bc6ca999aa9c8a9faaa9ae89698988a96b9cb6c69ac8a98ad8669787a9897483585
col27:   bba968bbaae8caeb99aabcbbaf76b899b898abab9c7a8c6baaba8b884ba8a9c6ba4a878765455643
col28:   bb686b99b9caa78a69b9cd9abbbcaada989da9da9dcca7b8b79abacdac9ac4bbc97997829a7a5827
col29:   b989767988ad9bdc78998aa6999ab9bac8b67bb7998ca9a9b83997c9aa99959acac56844ba845463
col30:   a87998aaabaabbbcb8c6a79dc9ba79abaa9b79c86d9caa96abab88b9cb989cc898798a6897697829
col31:   9aada77698b8e9efa89ba79a9bdb8bbb9e5a9bccaaabb8c9a69bb97caba98aa78757a87678979574
col32:   bacbaacb9989baaa99a799bbb8dfc97bbc9b9c9dcab7ca8baa8ca8cba9a9aa69678886a575899897
col33:   beca8b8bbb9a9ae76fcabca9bc9ab9cbaebdc9db899aabd97b698eaa6baa9a98868aa687aa7ac854
col34:   b8b9abc7899ba9e8abbba9799998acfa7c789baaa88ba8aa7b8abca88aaa8aaa998b7878989787b6
col35:   9ac6aa977b86c9b899b9d8a9b9ddadbdaaab889c9bd8db87e7bcba89d8caabbb98877a88659aa899
col36:   98ad98b9bba7998bbc89b9aa8a9ad9eb8bbacbcbdcac9c9ec7ecbaaaa9dbbba799d8a58998a88a88
col37:   aaaa9ca8bcacb9b8c99babbea7ae8b89bdb9aaccd9aa6fcaa9abc8abacbab7abb89959784b79b944
col38:   c9cbaa7bac9ceb9e9b9c9abd9ae9c8d9e9dbaba9bbadcd9d8bacaaa8abbb9b987886dc66c7ca59a8
col39:   8db9aabc9bbc98dba9bbb9cab8ae9dc9aa99cc8ebbab7adbb98adaa8aab69888847a777aa9a6a784
col40:   9cea9bfaabbab9bdbcaabdbcce9dbbcba99bdefb8d88bcd8dcbcfbdb9adba7da9a8d766b8b85b78a
col41:   bba8bbdcb8a9d9becbabdabacbfdfbdbdb9bba9b7bb97e8bb98adbb98b8bccfda7aa89ad4a8a9886
col42:   dbbcba9ad8a98acbcb9bbcdedbbebabb8ab9adccacb9cccaae998bbe8687b8caba9a87877b776876
col43:   ab7cb9bcc997ca9acacddbbabbb9ccbcbbba99deb9a7adcb9acc9bb6ebbdbaabbc9c9cb899977965
col44:   ca8bc9dbcadbabacbcaba9dbbdfabebca8addcbbcbbbbdbb9babc9adb79ccaaa9abc979b79ba8885
col45:   a999b9cbc9788ebfcdbbea9ebd9c7cafdddecd86ddca97babe8baabb7cbc9eaa8a899bcbc9767a9a
col46:   7bddac9bbbba8cdba999acbcc8dabccbdbd7bd9ed9edcafaac7dacdddcbb7fcab6baa999dc468579
col47:   b8bbbadd9c9abccaa9abcacdcbbbcdadaabbcacbfcc99bc8bccab9cccbbaacb6c88897787697cb5b
col48:   d9ccca9eab9bceacbabccbcdabaddceba6a8acc9bbbbaccacbdba9a97e6bc8a998b87ba98aaa9a8a
col49:   aaa9d9d8a9aa9abbb8caf99dc9cadac9a9d7acaec7c7acacabc6aca9ab8bb9999abaaa955a99d465
col50:   b9accbbaaabbcb8bfceabdb9cabbcbbbaa9cccdbbeddaaebc9cacb6abd8cd68aba7ac88dcac89897
col51:   97889677868b8bb9999a9fbcba65a79ad99ba998a9ba8abf74698b699cd6986958b5773a8879b565
ROC:	 BPix_BmO_SEC4_LYR3_LDR10F_MOD3_ROC14
col00:   15747876243a9854346513947b58737c776894598999d777669b6844859b52a7867b3668946a1718
col01:   34963465477a594689b55cf96967bbaa8a8a683c57ac4859b4389899a7888898599a574119673765
col02:   277aa474a16846496a7788265aa8972bb5766eac9cb886bab275a4a88479aa8a7868b6458742bb97
col03:   1a66581695556bdc8a75bbaaab9baa6c998eaf596786db679a68a4a8a6b58bb95568c94f69457588
col04:   49685889a97c79b566a5adc99aca7b9c87bbecb9b98ba89a5968aa8578e77689ca98a9c98a96a8a5
col05:   582338a786898a555857a76686b8698a58999a4475572a8a68aad747896c8a8692bbb6b55c86a81a
col06:   47a5477947768977b855d87686d86b7a77d9a8d8abe69a8e9897889b87bd5259a887659794a68766
col07:   539253981395632749bccb6cb9a88bd776879c896967899bbb2693eca97cbaa7d9585737ba879944
col08:   542644998a5b6ba96b6658bc86a789a6999788acab9a7465aa876ac9bb98fa48a8678ab774847a85
col09:   33674326744a4975779a9d8a88db5a5969a7ac7d9aa98b7ea86ae789987bcc7ea9a8a964577c75b6
col10:   29a9947a6b4b8aaaa4898657da79b97a69b898caba6d8ba9a9a8e59d754c892e8673b849996b6a36
col11:   788a79a74866b34555787896a6968a7759aa566958778687775b6c8abb989a8aae93aad5a8968874
col12:   717467a84753489998895578aaba9696cbb7896997aca7cbaa56b8c899b588bb7c58c67554983757
col13:   8642299b46369b9219799da96686b8c8a76978ea6389b87a5c6d88b96c8b97aa548ca38a96a87897
col14:   746766969a75cc83a89678abcc7965987b795c8cb79ad87aab38c9eb7847aa9e9aa898aa783998b9
col15:   536777c597733cb957a58869a3e9b7da99a68daab97976b974587baa879bc64d88642c69994839b5
col16:   6b38769957636a79b3b64a7a7daa899d5ba76a6baca7a98c869a9788aa98aaaa8474778786388b89
col17:   7459685a64376a6a4528b85a5885686979998469976b5885b57c88aae98acc79ac968737858967a1
col18:   85526674667974799856b97b898aaac9acdd98c8857867b5a799aca4895a6a798b665b857d8a3944
col19:   7583635594a6138948bcba7a5d86e5c6b6a86c6aa8b7b44aabbacc9b76aba9a68aa89c86996cc983
col20:   75243c5168976678a38a765a4c8c5788a86d79c6da68b9d695d59987a588aa596969a48b8971b9a2
col21:   64a74675ac3735758785b8b6786778b7b8747d9b967b55a998c77c49b9aa88bcbaa7988cb7547884
col22:   a768562777879b9a878a8bcb5b9a6bcb78a8877aa869dbb9dc9779789bb97c68f968771488795b64
col23:   726a8671796221669d9688acb54b5b79b999bb75b69ac6bc888769bad79abc658a89ba685ca76986
col24:   b869764877976564a6d59578cab9adc59aa8c8ab5b865fecb8966f85bbc8ca8c8869ba6c8c776b65
col25:   433a47565a769695748b446b7988d77989ccc4656b98aafa8bbb66ea869a87ad7a7aa8eab7a69c9a
col26:   659968a9bb69cec8bd8ca8aacaa88caa69c49aba9bb99bbdb9a7cec8eabbb9899d889aa9bc8d96b6
col27:   659b88875a8968887989a7ba7b9b9fa798abbaaaabac9787c6bbbcb798e7969beab877ca6ab88aa8
col28:   ca966a8ab7458b79a8aa8ba9f9dcabbaa9adceedaecbcae8bbec9dadae9b876bcebda4da9db6a986
col29:   b999364a99896b66d68dbbc56877a97bba6aad8a69caba67ad9a7bbabeaa9ba78ca9a7c88cbb69b7
col30:   8595bcb8b78a78aa979acbbade9b98adabfb9dbdc885dcebececa99db8597dddfbcdb89b7c6cdc78
col31:   979a87877bb8a83bbab6d899b8abccdbccaaaf57dcabba9fcbdce9ad99d8b898dadaa997a9c9dbc7
col32:   64c797acbf9f98b93659b96fcacc8ae98a9da9ccbebe9dbc7a8abcffffccaebef9baf7785a888a99
col33:   47967a6caa5c888a67b8998c97ebc8a9978dc7a7ecaca9bdfaa9f6bce69d7c8ccaabd99cbc89a685
col34:   e6aac997b89888dda899cd9bbbaba9ac99bacda8a9bf8dacb8ccfbb9cafafaccabbf9a9db9f6babb
col35:   858a8b78e549b78b5abc59adbbad8a7caadaecac7cab99bf857ebbbbe9ddcda3ad9ccecacdbab89b
col36:   a97aab79aadaccd5d9a9bd759b9b77bdffccc9dd9adddf9ecebbaccebd988bbbfa9ab98cbbecab85
col37:   8886b8a75ca87e877c878cc89d8ada67aacbe9f9e8ec9a8cb8bb99aadcbfcdb9debadb9b6da7b884
col38:   5bbbdb8c7cc987bdb59dcb8fb9cc8fbcebd9edffadabffccccbdbd9bbec7fce9eecf9cb89ecde9a7
col39:   8b84a9bb68a8ebc8bab99b9ba6ca97ecedb99b9aed8bbddada7d6fcecc8bebbaababaabc9a8cacf6
col40:   d8b989ba7dcc9babafc7da9bbcacd7eebed9b9cfbbafaad9a998bccfcbdcdcd9bdfcddaaacbbada8
col41:   b59ccac359899f8cbbd89ae5bcdc5ebcdaadaa9bcaeeedcbfcc7af9c7decbb8cc9d9ed8cbae7bcbb
col42:   968b79a99849a5a86cafbe9a9ac9defbbcdfa68ccadd8bddace8dbefaeabbda8fdcaf9cc96af7aa9
col43:   688949b879ab968c9af8baccfbad9a7cafa7fca5cbbb9cafedbdade9ebeae7be99edfbbce9a9ccad
col44:   abe68a88b9ed8cdb9ddcfaafd8adddeffbe8acbbccce89dcfc5da8ffefdcaac9c98d8ccbb89a8ee9
col45:   c8bb88656c899ca7aa9c5cccd99ab9adabeecae8dcdbdcebebffddadecafb7abbccd8e8e898eaac8
col46:   b6c6998aa7dbd98d9aaccbe6a5df9acaa8ebacb8dfefbc7bddbcc98dfac7dceeccedfbc9bfdb7aea
col47:   979ba998cb9b9ad9bdfac88d9ac999efb8cbdf9dfca8bd8faca9dccdccfed9bcdbcc9bcc7ee69df6
col48:   99976a9a97aa7aafc5e5cb7efdffabeaaafbdaaebfcbcddad7ec9ce9fbefee6ad8e9dccabdcc8c7b
col49:   6886b89a99ccb57c6cabad8adbabcbcbbda8dacfc9aecfddcbce8acffccc9aeeecebffc9ae5ccb79
col50:   abbabbdaca89c8a7aaeb7cbcacbc9a8c8dbfddd8cecdcacface9bc8bcbe88dbfbdfccb9bebd8fcda
col51:   647745674a78574769749796b85599ad8eaa899c456bb89be6889b7e5bcbaa88cab5bba8999ac7bf
ROC:	 BPix_BmO_SEC4_LYR3_LDR10F_MOD3_ROC15
col00:   814966674485746a399468662e6a6aa78939b665cb8a7a98957bc666ca695a988c677c7b39cabb77
col01:   867b66869518d88c797686a867dc6867899b7a987dc67a9e9f8aa559a77cb9e8e8aaf9a8b7d5ca48
col02:   b9786bc66888488ba8b59babae49a88c6c986459aa94246b9ce79c9f655ab5bb8579a78879abab9b
col03:   77cc8588b45aa73a5886767ac6a578aabcac5ed97b6da779a62d8a78989aa9eebbb86998465c677b
col04:   9b9b36a8594477555b89967995898949ac7a8e9dbac9c89ba7eadbcd69a9ca8b7fad77bd99aada74
col05:   688946958788bba89b9669ae579edd5a7ca66d8d8929ba676a8938aca867897dc587b775c8798885
col06:   82ae977888388da95ac6d89b79b73dd7e376c8778866b878aa587ba5789c9aa98a6687796a99cabb
col07:   a845a966abac96a96789c78d6ba75bba6c979a8696ba9abd6bd879b8ca9b79886ab68c5998656489
col08:   8789aa958a789ba74758768d9989faa67bab397a6c9fb9b7caa9855dab96a5c887da66aba966aa9b
col09:   299a849a8456c8987a6f88476c6b998aa9faa578aa78bca998dad8a8da798847b9f6bdcaba2ba894
col10:   ab2e797c6577947c86b78637d6eb7c78c998a875ccc8a5667cd38a8e99ac9aae9c559a2da7d48943
col11:   5c1599869698b66c769c16cd87496a69aaf76ad6a889edda887a88a9ae98877d8d987789d9755688
col12:   bcb579875189695b177799c689ba7b88ab87fabbc6e8c9da5997957567bbdb44a677b99f8aba867c
col13:   686957771cc6bb9388b37859a6796b9e957679a68ba7c58ab5ca59d7a7786cbbaa58a895bd469867
col14:   6467c4696874da7865c8c8658daae7bdb9daaa88f96a358cbb7aa8b987988bb9adac5abbb78987a8
col15:   898599b51123c8d962aa8659ac6ac296ccb975c85669d9bb74c8b6877c584bb679399c6a5a67aa87
col16:   3b399daca9558885a7887bb98a57bc95ff35ae89dd867b799a8aab9a4adc3ca76b7ea388bc47b389
col17:   9589855565887658989628a698577987599aa9dd773b7347daa3c9a867966ad8a8e9989a594299a9
col18:   27648688ba8ae79c86fb897999796abb9b7bbb88793997797b9797a99b7a8879785b578ab86c6277
col19:   18765689719a87baab4a98b997a88549988a6aeeaf6a6bab964ec45acb596cc878a2686797796a95
col20:   b4b99bc4696889c6966aebe97eada9898a7495a97b9b86c9d958976a7bc59a9ddb4ce6c87698ba95
col21:   767873c7967928595986d8c8b9aa6e9794a6a775ca5b99c98f76998999bda989b6899aa43859994c
col22:   a5a797a78a6869996a33ab58984b5d9dcd98a8f8ccac8b7b438a8b678d76697685b356879969a154
col23:   56b97769756576139a47da56aac94766dac97bb8a769d6d786785a75a566bd9784a6235288679365
col24:   a8465b799876993b88b96929799b59e78ba857c597c5a9bc6ab97983a7569bb847887587797a5646
col25:   6a399a8586766a9a6c74587cc6b996b765b8db89ad75748b4b7eaa69abb9b8761777997ba2664955
col26:   6b9965589a83b989a899b64cbb89dcaaaa59d9ac78a7565cbcc8bcbacbbeab9ab79a8b48bb3a4c85
col27:   6a797caa8767e8a4797bb65aa7ba5add8f96b96788cc9abb99eadc5fbbc79ac599468b9798877677
col28:   ab398a9b98cc95b9ad8988d98998bcacb5aadfcbfcc84acb9aa7a77b999a7c9acb888aea4c4da878
col29:   a8468d9abd87b9dcfe78ce998989c69cf9db767babbbc98ddcdcabc9b99ba8c5adcb8bbbaa8dbab4
col30:   9b97a77b98adb799877aa6aba7a8d76d6cacafcd7bb9cdeaadc68bea7b9a885bd7caa88ab4c69698
col31:   ca6a873a99bbd8987eb6ba9cc58daadc9beac66bbdfcb8b86d9afbb87aabda5daa8a58aa994596c9
col32:   8489ebc9c6d4c8987acabc9bfd4c89ad9c9d9a79b9a8dab7c87ebdb8d6ca8c9e9ea489e99779a9b8
col33:   8598ab7ab6a5adc6b9a8ac8794b99b4d5debaa9cae68fcb488aacbbfbbbb8c8daaa8c8b886366437
col34:   88ab69859c7a7878fcc9ba5cddaa889bcc3ffe778ad7b76b7bf5a8db8abafcbd79b6caacba8c6896
col35:   a5bbb89bb7b5ea9b9878c7ec7d6b9ecbdb7bce8ddadacec89488ffacdb878cd6ab7bcfbac9d76469
col36:   bb2c9b9967bacbbe9a9c9efc8cde7edc99a6eacbc4acd997cbc8a9d96b88c59ba969dd866c9aa657
col37:   9bab88ca859cd79697ddc868bdcbcc8fbc7b6989bc89788d9b6d9edeacadc98bca4788a6f6499cb9
col38:   3fbb9bd6fabbaba986dbaec7c9896ce79bc9b6ece8adeda5adbaac9e89c87bcbecc6cde88a7b9a8a
col39:   d668b9d8a8954ecb8abeeaccabf7cfabfa899eeccfa76cccebad8deeadd8cf79dd569acaa9caa869
col40:   8a1d5ccba9f689cbc9ac89abaabdcaa9bbbf7cdeebbeaabbaf6ef9acbe9d86b7eb5aae6c5cb7888c
col41:   f67846679da8a6cf9bcccbb99feba7bccacfdd8cba9bba7cca8aabcafef9dc67cacc6788caabcb77
col42:   5aaaaacab93cbcea79c67cbfc9caabaf5cc9dcaaa8eba9ca9b8cdbcda89dadccad798e9a89d5b99b
col43:   b78db86babd8d56b98bcabace8f6fbabfab77e9aaaedaccdf8d8ff98ddecbdbc9b8e969a8e877998
col44:   da48c6c9ac8e9a9bde5f7fbfbfabaa6facccbdc9ebc898bc7ede9bc8dfa9bfd85bb9ca7bfc93a5a9
col45:   b3c796a946c6a6929c6a3de6dcbdda99969aea98c99977eda9abefcfa5abcfde6b989adb5a998a86
col46:   beaea79b97acda59c97b98b99cbbb7c8feddbb98edcc8ac97bcafaad869b6bac3aae7ccbd47bc887
col47:   7da89998965a86bbdaf579abda99bbb7f9f9da9d99beb8abc9aebaa4ababc8fe899a57699e3a9a8a
col48:   9a8eb99ba9b879f8bbdc79cbccaaabbdfb9c999b79a9fb7dcabdc89a95eb56ad79cabe998cd9dc53
col49:   7c78a5dd6a99ba8978fe9ddbad8cad9dbe9eccebaba97cbbbabcadbd8bd97bc89b899b9adaaeb385
col50:   bab8a788a9c7a6a8a6db86dae85ba9cc99bae9bbd86eabbcbdddcb8d7c9fb7cd8db81caeeabd7826
col51:   bc784639969ee9666786a68498be97c87369bcd976645be99c96c635b6696aba6b8b776987955843
