ROC:	 BPix_BpI_SEC2_LYR4_LDR6F_MOD1_ROC0
col00:   f5161187436714537358644421845745749684278679457468765985664457699a885766a8975755
col01:   3586575558417866668598676656677865577a68559696b7a8667add58887978769a687777bc5786
col02:   433274647664787673595466459798a7579c7656aaa7e75b786a695997899b6477c65a69885aab7a
col03:   154278977a5818545757556955649899815677589a77645774ca69676598896e6713684a86578588
col04:   586857794293537538545a767aa344a69a64a795ab9b5a6696575992687a85788b5688897aa38c99
col05:   145257539579274667549688695845688a8887a5859c996879866545a699774a77798b2a66698967
col06:   11434534556495679674454787669485656656556aaa6a98686989579687a6787474489967a79b98
col07:   55674368544988379851599787764549986a8768b879698ba586b68476b98689c969875a675a8647
col08:   5735665768838793678a995887b8b4a9389999aaa9867b83479688a8777997676a85586a7a969a87
col09:   4714827544884856a69985b6688a876a67959455a99a6a58ab9975bb777844b75967995975795a58
col10:   6153626c1772599495669653858989a7576696a88a9689a884476985c6a7c9886698878895a89ab9
col11:   57546555159775668332864644b65a597876766ba59a7589765585877788a9a58a6895446a4a6987
col12:   356764546439772764594866897777976b88a5aa879b895588a6a694b988888868a766559a688765
col13:   339176353565417688685a6994785d5a77856887ca679a9679688597769795c689987b995797a597
col14:   5555765785887958345ab9659c894899778439c578a7786bd99b96a5baa4898986baa78679b98787
col15:   662285947453678479977c7884588997538a7b5989aa896b88c8888d8c676776b96a4a587bc77562
col16:   41265785756558567886765835788885a5aa5b98bac97766d797689987b998799ba9a9a586ca98a9
col17:   532758976b643864a1776657a8a877a5678874a9987a73557a47b8969ba6b9b99b9a8ad8b6688548
col18:   4614659588656718b3388a5975985acc88898767987d77a996969796bb957666868c7982869a78c8
col19:   8364177283a37455273994a967a5947848d7a9a956988ab8bc9ab68887397c898a97ac8787877933
col20:   634583677736759397597757ba987a56a89d8857cb7897c7995976cc6757b8974a8a894975c99698
col21:   67443752856968665544478378a6b656a968575a9caab763899a9a9898bb8bb7a69b95a5a6798728
col22:   57531a77776a767b37857785599486978897778648759996b6889998aaab9aa83a79baaa648a9a65
col23:   58545745753348868b7679a93a658778875599c8598a77878c89396b658a99b96597758678676666
col24:   66468a6769748753777689787ab89688896b858a6bba86b797967e8c746556b7a7b48b99884597ca
col25:   7618562686874898aa878747a468888a8b69668bdb7a9697b55b87a986896b79b979a898a9875988
col26:   6568897647ab99a89b99864a8ba79ba78d9587c95bc99b7796cacdbba9abcdb99be9a998c885b889
col27:   4158849776937668869a99b896a39aa67a5bac89988b88bd798abbaa89ba8ca88e6a99aa9b96b9bb
col28:   59a575a8767778ca47aa87ca99885678a5c9aacbaca769a9d7a7aa8b88b8bb9b747c9899abd9a9b9
col29:   36a963759a988985979699a8868d98baa958b879b9bcaaab789997aa96aa79b999a699bb88bbdd94
col30:   345a98647973b5a8bb89a988756979a9c5b7aa977bc8779bb97c8dabbba8aa7bc778959a998c9897
col31:   7886b736a97995c888899ac5ca789bacb97987aca7acb7679abb5bdca9dde97aa58a7c6ccacac9ab
col32:   87a568b49b9887aab6a9b697cb97bacb9acab8998897b7babd9b9ca78a8a9e89a8b988caa7bc9a8a
col33:   b8988b9aab76cc698b8abc68783b84b8ba7c6c89c7979d99abcaa8b89cc999768ba9bab9885ea7d9
col34:   956765ca7d78969ab757b5cbba79a9787ab8c9ccca7aba9c9a98eb9cfad98ba8caa9c8ba9a7b9aca
col35:   78c9868997b9e8a96c9abad9896ccaadb8b9bbcaacdbabc9db87a9aa5bbb77a9a888b9abace8aaab
col36:   924a74788a7ab988b987cbc9a8e7a55aaa88a8a9dd8bbcc9bba4aab9c78cacc89dbad997bc9abc99
col37:   7798769896969bac89887a8b859a9dabbb97cc8b98ecd8c9cb99d9979ded9bb789b786b98afb8a97
col38:   a76678aab66daaac689aabadad969758d9b7bbbbd988ac8bb8dbdb9cb9cba978c7ba9c9a8aac9bc7
col39:   977797b596a9a5bab79899c8d799a9ab9bcc996daaba8aa89abbd9788bb6c8dbeac8ec96bbb8779a
col40:   79a87d7a94a968d98ab9cb8e7b8889bbba9d9a5cccaaacdaaa99c79cdaa79bba6c9cc8ba98c6c9ca
col41:   7997688ab9bc899dc99aa8aa9c7b8acacabaa9caaaa79a7989bac9b7cbabbd89b89bb9bbdbb6e97a
col42:   868ba958baaa7adaaac9aaca9db9c8adcaddd9c8bd9babed8cbc89ab7c8a999bbc9cad8999bcd9bb
col43:   caeb67bcab7b76baab79adaaca9bcb9afaa9bc989ca9acc896bbcba8a9aba869d9ba97ba97acbbda
col44:   9a887a8b79b8aae9f8b7abba9dc9b8bda9cb9c99bccdbacab8cb9a7e79d9cd7aca8bba8b7acaa9ca
col45:   7a89c95b89bb7bc4a98aaabb9aebb6b9b99cabaa86a9ae9dbaba99a97a6a99aa9a88eac8b878cc98
col46:   b798759977a87bcba7a8ba8bbbd7cc9b8bcca9b8dbdbacdaebd7bbcacfbbab86cd8bd999c9bca8ba
col47:   99b99a798a8b8c8a898ac88aa89b6a9a8bbcccbccd969b9c98bb8bc7bbccbdb9799bd9bc7bc748c8
col48:   a9b7a47ea968bba969cddb77bfa8aa7bf8badcabbedbed9bb88bbacbbbae799cbabdbbcfb7c6b9ac
col49:   5776da7ab886acab84ca7cb89d8aacbb9aaaccbedca9bdadacca89eadaccdeb9b89b9bca68d78a9a
col50:   85aa7aac879a8a998aa5abbca9c99b9cbcac9dcfdceaacae8deec8a8ab8d9baccaecf99b8d9aac9b
col51:   ba8a7877676585579b86b589b67a77cb6baca99bc8a99bbb8c8ab9aa976a78b899a7997a59ab6c6a
ROC:	 BPix_BpI_SEC2_LYR4_LDR6F_MOD1_ROC1
col00:   f2894387582963476747564683557b758688867659a85667965a875776877a789799776ca86daaa7
col01:   a53157536677556754a67755984984a67676b9876a687596b9779a698aa849baa9779b9699bb8699
col02:   43525561779468583587a846997869a688baa97495a883a68979673974a9a976959c789979a88aa8
col03:   624545976457764766466b6657247588689978968966aa8a87798a56976a999a74b96a9977877889
col04:   4755447365645778a4587767c956787a8798a977578ba789978a6cb67aabba9a59cb7b7bb578888a
col05:   15556644363355943795679777995b99688955778a89b86aa7a7967a8a867a5798ba9988a85b78b7
col06:   3442555394974863766465a778a586879b8b9876997589889868b789a8ac88a8898cb8889a86889a
col07:   825654646537884558393769896867866c476b5795b88a9976698589a85a88ac89baa9b759797a98
col08:   1854249442655635877685466685677976867aa976b98768aa74886988a867c899c8887c6788aa78
col09:   3732525497673957655344887499867598465b898699ab978a8a9685899899abbb97a9987ccb79a6
col10:   2364334824585255566aa986678779677776999aaa8c7979947c87be995b998bac9a7abab8a89788
col11:   16359335555855886658779a756534a997a9777579779888889888ba7c99777aca889a9baaa99489
col12:   145425866746576657766595476688498a988975886898b7b85a9a877995a98ba8a9887a9c8a79ca
col13:   635955815545344647874689856774c555868aa777979a9697888ac89bc7ab99a77b7a79878a8b99
col14:   675743475487566a5578786566c6965a77a7a74575a9b8b49a699b9579979cb798b886a978697a98
col15:   677365545864585656648977a966666787979899979a68a9a888baaba88aaa7998a8a89b99697b5b
col16:   14376483444378684586967777887987947668977c8a77668797b9747aa8a5a9b9b976b79ab68885
col17:   3125477a846686786476a58547746786b776798a4b5997588688699578a8d8679878b8c7977799a7
col18:   23553237765548757743756497658a55969475998756875688bad77988cb75977595888a9ac7bb96
col19:   53745674571436473695555666767785986859978b98a786a69a9897b9699e7a974976a778aab866
col20:   5667175755567764654577572569798866c8d79a7686c8b6549b967a7a7aaab95688ba799699a997
col21:   5445366558537776467988a887a88887887896ba9b79a97898996979c7ba888789696b777a8999d9
col22:   7651445873648497578797768c7899877a96699a999679979898a99598aa777a79989d8a7aa8b8ba
col23:   8293463426737387696675797487a976495a68ab8877568979779c97699c589997a9a79778a88967
col24:   54146422576736876385569646a5ab779877a86798a7c89c99b8b88888ba8ab7aa87aaa879966976
col25:   7674a58766676667658789667a787b658a8777877487898a96aa788b996b96b99866a6c999d8a9a9
col26:   757796556a96837978658a988987baa86689a8799796a9a9a9a8b9796c9a99aaacb988aacbbba8a9
col27:   5665a37574389578568a688886475ab6b8aa9a77998799b99b9a5b58a9baacaabc59b89aa89b9a8a
col28:   455588455666986a7887797888a6b77a8aac8b98697abb87cbb889d8879bbaabcacaabaa7a9ccb9c
col29:   838548771877878896757a87468a99a65779976ba779bab98799b98ab9ab8bb7b9888ababb9a9aa9
col30:   8645455774785588698687aa879a6699969ca7a8a9b9ab7779798aaaaab9ba8c9bcbbb797ab8bcba
col31:   988786889a8883889887bb67695b698b99978899889999c7869aaac89b98adb87aa9ab9cd9b7b8aa
col32:   246a7973898986797786a76989865da8ab66aba79cbaa7c88b7c9aa9a9e8c9a8cb8889e9889e998a
col33:   9736795847798376b97ab9a9998b7ab8a8ab9888cac6a9a99869c9c7accbaca9aadc7b9baa8a7a58
col34:   8676a8767795a66587a9888899a8678d598789aab7898d89cac4ca88dacd6c99aacbabb8cadab98a
col35:   798498775a578697a4888868a88897988998aa9a9ba88b67c9b7c5897abaabb8ba89bb9da9ab69bb
col36:   864494a677689a8aa7a99bba969a798bb898ba7aa7b89acacb99998a9caabbbbccbc798aa7cc8a9b
col37:   235849a79a6678b79d9b8a889987a8ca68a6789c7a9ae98a88a77b7abb9aa7ba9aabcdbe99b9bbdd
col38:   656865575a7859768c78a769cd9c99ba95a979ba99caaa9999dc9bc8bac9bb9ca97bba98baabca99
col39:   67878698b586899c85a99a799678bbb998b97aceaa9a899aacc68b8969baab9b96ccaab9cd9ab9a9
col40:   a577b76687a78b96b88a8aa8c88bbabb999aca7a7bba7dc9ac997b9a96bbaaca89ebabe6bad8d9ab
col41:   546b77796688859a85989988b89d9889978abb8998b8a88cb9bb979dcaab7d98b9b98adbbb9d7c99
col42:   888699a79775886799c699ab8acb689c8b679d89ac9bacb9bc989babbb9c7baa9a8a98b7aaccbbab
col43:   74978a999a868ba975a799ca78c88778cac98ac786bda879aaa99a998d9c77ab899b7dcaaba8ddab
col44:   76b754579699ba69879bc59777999c67b6aaad879ba6cd97ac8ac99acb9bcc7d9bc98abcaba9c89b
col45:   978476a7795967b7b8a7368b7aaada7b898b5ca978999aaabca698d9da6d9bb98b6aab7d9caba9aa
col46:   58a8aa9998a897a7a88baaa999abb98bb8989b79bad9ac79da9d88bbac79c9bcac9cbcd79e7cabaa
col47:   5679777869987a769c9ca8b7b7a8bcb8bc8d8a889a9eacf9a8ba9a967baaaba9bb8bcac9a86c9a88
col48:   64766686788b6ba958a99bb75bab99a9a8caabd9acbcaa8bc8a8aaaacade9bdd8abaa8a9acd8bc9a
col49:   699a56b797a6b956788b5b6aa7788ba8aa9acaac9a9aabbbcd88c999b8fda5b9accc978d7b8cc999
col50:   87a866b888a6ca99a85bc8b77998a8679cbb999ba9d9abaacc98aaa89bdabcbaaa9697b9bcdabb8a
col51:   6687874746978976759868a877677878a6b58ab8bb8999a7aaa97a8b89a89698a5696dab9b77ab9a
ROC:	 BPix_BpI_SEC2_LYR4_LDR6F_MOD1_ROC2
col00:   4442662332757644966646664444a68668a656767669859855789969769698a7a6a755868a795a99
col01:   6534765657663656669979686884886999997879767788789b9c87a89a958a99aa598ab9a8b66fa9
col02:   5344666715647955585748799b569775796b9b4769887aaa8b5993a587a68956b8a9e857aaa878a7
col03:   2367675557636778559666a76c9779a4985a985a98b889957969979aa9a8986884549b99589aa89c
col04:   14611365475566484645636889ca768c8a96758a5a97a978659a7877a79896ba9798a975787aa999
col05:   41555325c5565653998527468697579995967788a357856a9288b89ba66998a958c987997b878888
col06:   654394556788945b696799b76579756b479755a67796a8589a9896c797b98aabb8698688979a9c87
col07:   4563455156525527678576875578858c9a998b4aba87a799998a988c998a6a9a88887acb796b778a
col08:   57565843576347355434773758788879b893a898aa9ca9aa5a8798b597868977b8868c96b8aa9b88
col09:   26743345253557768566877727588799a79aa63856d9b7c48c9a79b9978b89a7b79c88a888ba9776
col10:   545562545867655637748687a746b8b778669894d7978aa888696a78a7a8b8aa9b97a878d5b9b999
col11:   13864556661331482786697583465984a469969a9a88979d98a79858a7a98799a7788896b68aa8ca
col12:   655773531534667646a7a996739784a79a9b67b99ab9898697999a97a479587a8ac8b877997a9978
col13:   6266658859788696548873769687685988a6799a6b88aa6aa878a8686ab7a98b996a8588bab9ab88
col14:   4653468373548756468759888a6a6a57758885987b69985799799ba79a9d887bb8969a6b76979aa8
col15:   12563653456662567549977965a544b69957899968998aba877999999b86a5b899496a9ac88ab898
col16:   35486553427277a54387895984596b78b88a9877796b5a8ba897ba95968b8a977a8c68998b9ab9a6
col17:   43566563464593666756847955689778477bb96976aa9b7879899c8a87a9769a7b94878a9a9ac999
col18:   565434716818a97977549668577a7a6667c886746788998478ba87cabaab8b88987a9c7ac6aab8a6
col19:   4676747666588556676488875879869878977bca998a9a79a686aaa98ba9c9788997a9c9ac98b899
col20:   4244642696337895676a7a7977b8897a6898969789a98a7c7976c98a989bb8aaa5ab8c787a9ab887
col21:   65467513936366647876a5a87799838886aa7b59a897989bd87b89aa979ab4aa97aa5ba6a9b4bb99
col22:   786454553a997568367546685b9779768699988895aa8773aab7879889b8bac789a89a96a9889799
col23:   479855a53666876273976685478769a76a69987aa58958788a8886888979687799896a8889688b5a
col24:   25a4756666426586577565663698895988b7b998a9a69bc7877aa787788a6bc9a8889ac7b9d79889
col25:   773453496545747568677669868895988956ab97ba99798baba999aaccba9caabcbc97ac99869ab8
col26:   769756447668686786668bb88a959a679998b5aa989988b6cbc8c98ba9aba96ab9eacc9bda79dcbb
col27:   b42598646873687994687aa7aa8a898999b8759a7b88b7b89c9ad99a9ca9b979cab69acbb987ac97
col28:   771776a68876577995768889aaaa6857bbabaabba799a6ac7caab9aa8b99beabbaabd7cabca9bbbc
col29:   578757497894a933987b98c8889888e89acaaa9893999899aaa8d9e9bbbbdbdbcb89cd96ca8dc9bb
col30:   86445478779586599789bd6a996a6799c68a8ccaa8c7a9a689a8aa9ac8bcad9cabd9c9c98abbcacb
col31:   9978876c778765a68aaba99a78c78989d89d7c8bbcabebebbb88b9b89cbbcd8edc89bdbb98dc9b7b
col32:   758968869a8978aa85989a96baba98898ebbda9ab997c8bacbabacbdbb89d9acfbdd9bb9bbcedabc
col33:   3867878a7b9c978a64babd986aba5988a8b9c9cabacabc9dc69ab8bac8cccb7ac9acacab9ccac7db
col34:   5685796887baacb99aa9ada7b879a7bbca6b8a9bcd9aaccbadcbdbbcebca98cc8be9acda9c9bcabc
col35:   55a7554688a88c9ab99a99a79ab79bbcdaac8aad977bac7aa9c9b8ecdbeabb9aebeabcbccad9ba9c
col36:   4766b77967a87798aa978887b98b898779cd7aaa8b9a9cadcab9caa9bba9aacbdceaacc8e7b9e6bb
col37:   955687ea77a99a8777db899aa9ac788b7998badabadacd8a8c7b9ccabcb9ccbcfa9dbbbac6eacbac
col38:   77668a6998abb6999ba9c8cbb8babacb9cbbb89a67dd9bbcbeaacabcababbac9beccdacbdddbacc7
col39:   6656578b87b868b7a78a99aaaabab9c8cbb89a7acaccc9d98b8addcbaabbbcbdb9c7cccacca9a9dc
col40:   9a88b759b6895779a979ba97c998dab9abdadcab9ec9bac9ba9bd98aae99bddcccdcdcada9bcccba
col41:   8959676b8aa6d9b6aab9c8b99ac9b7aacaaaaa899a9c89daccbdbdabaac9c9a9b78cceaa8aaaabc9
col42:   a547a97775a9cdbba96798db88a9caabc7aaa9bbbcddabbbabdcdc9ababaebbbfe98dcbadcdebcdd
col43:   688799a6bcab8aaab9abc9cc49caaddd9cbbdaca8dac9cbd9adeabdcbabd9bebeadfdedbfbfccb9b
col44:   9a9c866bc799888878a9bc89ccabaacbabbabcfadaab9cceabcbbefddeaccb89acbdfcb9dbdb9fbc
col45:   7876957aa98a896b5898bc99899ca9c76aa98accbde8caa8babbdebdcaadad9bccbaa8cb89ae9bcb
col46:   4b8988a797c78b9abada99cacb99bbc9b9acbabccdcbad9eecfbd8cb8caea99fdccccebcbbacbaca
col47:   a89a799a889a877a9bcad8bacaacacd9ccacbacbfc99dd8ebbcbdbadbcbca9cbcbccccaefccaceec
col48:   873a89686baaca9c9aabcaacbbbbd9ca9bbaaca8abddfbebcda9ec9aa9afdebbcafbcdbbec7ccabe
col49:   ab7ab79a6ca8bda9998adbbaa8ca9a89bdacb9b9bfcbf9eeaeacab9cced9ecddeabcebcfbbdbfbce
col50:   a9787988c697a9adeb997b9bb7bdbbacc9baaddcc9bcecbaeeccb9bc9bedbdcedfcefbebddabdccd
col51:   a4566a5a88966b5a798a9968a8ab9969b8baa898b5bab7899cccbbdb9dbacbabbd799daddcdbcdeb
ROC:	 BPix_BpI_SEC2_LYR4_LDR6F_MOD1_ROC3
col00:   655776564654257988558788547966887964868696975487b58b6898c97d89c899a8a88a8cbb8895
col01:   5844a7466475a34664789a5b7a77a6ca97d9988779bbbaaa9bbd699ac9caa9bbd7aaa6ebcbadbabc
col02:   654566654654686749754a76a88ccb579a97889ba4bd7aca9c8cbd77b8a9dcbb977abaca7accbba7
col03:   62785558786865488c7577a279749685ba68a96d8ac9abd9debcbdadbcabba9ab8877ecb98db9bac
col04:   6946877747b6629675a8343a89668b86b9aca886c799a899a97ab6abba9aa8cebd9cccfb8aaaabab
col05:   48547385546a955898aa6889779a86995799a8a79c6cd98bb98b89a9c869b69aba7a86cabbaaa97b
col06:   44578757645745459a48286ab877798997a6b975a6ca7c7dbc9fab6baabb69da9a88fb9fbdcdbadc
col07:   37553168458674688793685764697c985a788c99aa7cdcaa98baba88a8c9e89b87acacaa7c989abb
col08:   2184484444697639428957649b64b9c8aa5bac4988a7ba6b7ba798b8bddd8866a8b6dd98ccd8b7ca
col09:   879534457583745985768885b7a599a8a788988b78a9c86899bfdaaacaabbbbacbbdb9c9baebbaa9
col10:   74676584648789558a994a79888998aa97aa8ba9779a68acdbc9aa78a978bacaebc89ca9addabcbb
col11:   45368677577565488485b8695689889788b8789aba89a9cab9dae897ba99ed984c88a9b97a7a9aab
col12:   3456863442658845889646d987995666c57ab75a76aa86688ca8babd8ecb8cf9acea94aa78ba7a7b
col13:   985296946a65569755655a75a72886795c659888c93a799ebc988c7cc9b3ac9bbddb6dcdd9dbdbbf
col14:   1717317542652a2b8b45787988795e8b8c78d7697a98a8aacfabaa9aaaa8c6d86a9ad887c79bb9a9
col15:   468746747b2b569466988869b76a747776889b7a9799ab77878759acabcccba8bb89faeccae8be9a
col16:   4275627474886789668778667c87a8ab6be88c88cb79b9b8b8a7bb7885a9aada6a9a9acafcd9ebaa
col17:   4215879526587859848746677789b8788769c97a86cbbcc977b89897dba9baa7bddecab69bbca888
col18:   6568786776737448887886965ab76b76a87c967bc9baa97c988aaeacaa7accbba8adeadc9ebaae9a
col19:   69652394748467523356b98888b956a86aaac8a9688ac899a9598bb9d9aaada8bc55ccba7ab8ad88
col20:   663664847935533666895997a4a75a797bca888699887bc8a98ab9baa9a8a7bbda7a69cabb99bcb7
col21:   25723666488877588569979868934496ad8db88967ba9a9a9c9da89b8daba98bb6aa9aaab9bc9c8d
col22:   64426271678864a7a6866776656c838878b8bc898996acbb85dba88ada8abda9bb68ddbcafca798c
col23:   25483514587664578867a67979668ab67576898a7979c9869db8bbaa9a88bb9cce6bada8c99ccd7d
col24:   4176624896455476b76a676878487698b995aa996baba79b5cbc7c9687aba9e9a999b798b9dabbaa
col25:   2667855495927895a95899a3789b777b69c584857889a9876a9aa9bcd979ca9adacb8cac99b7abe9
col26:   4775b54956776978897a7896656b9696cba977a9c99ab9b9c9ac99b9bba9da9cbcbe9d8cbcbcbcb9
col27:   61935464658598979aa75a89c77aa8999ba798864a87db8bb9cabbacdc8c8b8ab8bcbdbabc9ab9f8
col28:   76578466b9b9977b573997aa9b8b58aaa99aaaa75c689fcbecb9cfadd8ccdb9fecc9ecbab7dcdabd
col29:   8546373256a487a887b8a8879a7a9a99a98a98a99a87b7bdcaac8988cbaccbb6cabbdbcb9fa9bacb
col30:   6b45887b56958667896957a5cca96cba89acdaa9acc9afda9bc7dcbc99c9edfed8dcfb9cfdeeac9e
col31:   b5666344767786569767988c9a7a884bc9bbdb9bc8775bcdb8cbcca6bcbd9ccbabe9eabcabbdaef7
col32:   76985678ab7bb8b89a997b6aed98d9a9989abcbacbbe96c9e8d7bb9ba9f98ddaa9caba8b7edecbba
col33:   94867b68589976899a9b896a9c8b89aaaad997899bca9e8bcdabc7fccc9bdfcfafbbbc98fcebacec
col34:   69794a56296698b39aa9bc6baa89aa8a9bad8bab89bbbcbaabbadaaebddbbe8cb9adcacb9bdfdbd9
col35:   86946986a66789766b656999a9aa6898779a98bacccae998c9b7c8889a9acaedeebb8ab9adaacbca
col36:   864665757a9887bb78ab78b59a84ab87cb8acc8a9a97cabaccdbeed8bdcb8bacdadacfdedccceffe
col37:   57867549a7c8779784968b9ab956a8899abb6b8aecb7ebadafbccaaaaaf9edbab9b8fbabdeebddac
col38:   7a354664aa48a99abbcaaa99b8bbd86fbaccddbbcac8ccbab99fe9cdddd7cd9baadcc89aa9aedfd9
col39:   86774654c598699a8a99999a7978dcab99ec97bc88babccbaa6edc98fecabbceddca8dcf9bdc9bbf
col40:   76758566675b5899b6c9bcabc99b8fbe9a7bb9ac9aaabccbbbfbdbde9ddaeaddcdbcdddbfaacfeea
col41:   8663469977cb86b797e4aa6797a97b8cca68abbd99cdcddbdccba9abcfbaa9bc9dbbbbcbfacbcd5a
col42:   48876978659989a9785a4bba7998bd98bbbada7aab899dc9aadfd9b9cdaabdccfbbba9bfedacbbbc
col43:   687779586999889a778a8cba77a9bbe7da9a9aaaeaadcbc99aeaa9b8f88bdec9bfcbddcbde99addb
col44:   764397a78abd78c7389998c9aa8bb9bc89cbdbccca8fdbfdab8ee87ddcabbecebcdceda8f9ccfbae
col45:   966c879b2798789975965d7879ca9bacbcb87abbccdddac9abaacbccccccdcccdcccbcdbca9edb8e
col46:   387d966b57864977ba8b8cb8aca4b9dbccdd8e6ada99dbc8ab9bf8cbaac9bfdd9c9ec9e9dfbd9bbc
col47:   55788848869a777a67bb8d7ac8cd8ba99b9c6dadda9ca9addbbcbcfee7abbbdbc7dbcedbec9acccd
col48:   4886ab76775aaab2aa888779e99adaedbcac8b8a8e8cbebabbdcce9fcafdbe9dfdffadd7cf8fbeae
col49:   1c5478677aaa8c748884887c9b9ae9d8abacbbbaa97abaafea9ba7dabccdccca978adedbacdeccdd
col50:   68995588797b7b49b67b5998c8ab9cbddcecfcc99b9dbacc9ebcd8bf8bb9c9d9acdebdbedadbbddc
col51:   68559951766697c44567879997788a799a9989796d989a78b7aa88af99bab9abacbc8bbaaa9db6aa
ROC:	 BPix_BpI_SEC2_LYR4_LDR6F_MOD1_ROC4
col00:   f1131343425855234643376453571387666544467583698755569a8478568597897459a976874775
col01:   6431362454565573856726655746667548874a67889789876988b899598968798b86778a65674a74
col02:   63353535525514651456484516868394778764565687577997769888886797a856757a896676b985
col03:   45646425336546144685798778675677988677997878786776869878a68899668779aa8786a66798
col04:   65654815226357466736546436966888764589a5776474697a39776a6aa77997699676a795799769
col05:   4374454741344262755556266487477846697865b8968a776797a9788669687a75878976978987b7
col06:   4543442355338622555544556688745778888989a7488a867779a977897787668677779769797967
col07:   45633436626621445646887542756656866889a697899896768896b8888897a9986978a6a7879786
col08:   2441664742661373a64795468358966784a698688567767a76775999aaa8887c7776798a67887977
col09:   5383553313475633584567656377675955b8966c77b835897a8788a86b9759768a767a5a68879775
col10:   63533323635557312526158286661696489855665484b8797596a67a98899776688b98b6789a5899
col11:   3243534573454316535625654675965676774a797865567b4655a797996768a889876a58766bab87
col12:   3255651755525544729775888458358858969793759366876799a866969a699497856aa756688779
col13:   563388571663446657558338546788943556977777883a5888797b9858a97977957aaa77a79b9c8a
col14:   464611234244627465475464687757578786684586a68a57a478a786886786b76c99838889a8b599
col15:   234755455721557735481458766876688789a788684b97a3b78aa66589684869574867598769a9b8
col16:   263545135372768574666366648767747a569848898578796a6767b87777799a87a8677888b877a8
col17:   433443555334824743765452666585485766876479756559aaa699a49aaa59885379796787889886
col18:   332243745153535525147447688567777a8645a76489667477a9879868699a4b8ab89a97a8779984
col19:   3356535364467277634474867677568376899986786874377a8a8a89988aa4785788697a88589888
col20:   7564414438643469553677a78788777a99c8789747878776288778789889698bc67987a676b988c9
col21:   2345435325764577465265456568567a78788576675a7a967898aa9a5659c978886999c7786aa8a9
col22:   555311448335787154676855795974a48a696376775598978aa7b7a87677a4729879a999a5c966a7
col23:   6643224556355877548436532566578664768585797877876696a8887b88a976698688ac6b868a89
col24:   5425726474266446839486786695638595958545798688785a7a8a895768779989778756a5998768
col25:   6348676375344775655696659765669528976a68688779a9b587879a8aa798776a9867a779b889aa
col26:   257274876774666697a69135659a7799a55977ab9999887a98b9668b9bb8999a89ab8899cbab8c8b
col27:   34865554755378684b789797788557999788a996779b47d7aabdcb69ab67ac799965989bab998986
col28:   26527876777597867745899787759898888979997889a9bab8a8a78ba99a888aa88878a9bb8788a9
col29:   3375966745858858998885537768a78a979b79989a7aa8aba9ab9aba7aa9b78a77b8ab79a7786797
col30:   67687567966688a68689667727575a997968a9c9ab485b6c98a9caac98bb98899aa97a8c69a7b8bb
col31:   3586874468774562a977878668787686768c9a8b94d9aca87aaca9c86aaa76a878a99aab898acba9
col32:   24946765567964876595878b4a999b96988b8a5a8a997a899aa8bbac9aa5a9d9c9aab9a9a9cbba89
col33:   543766754a5676777587b8578964876878797798ab78796688599a8c47b797ca9aa6dba8aa87879a
col34:   237595568678795649a76798878a59aa9b7b77a8a86789abb7bd8879a9878ccaac898888adb8b896
col35:   165835778a737669476a467685686869999899698d78b7adabbc8a8c897a9c8789a979799bb7b98b
col36:   6686758574376767776466786798a8998888a68b89979bbd9a988b9aaa6ab7a8b99aca98b7caaba9
col37:   478466744667666478886a8779a6bb45b675a8999787aaa998b967ca99cbac9a9b7aa8a977887788
col38:   676697538887a586799586977b6a8887b97ab8a9aa99b69989a996bba9998b7bbababa7dabadbac7
col39:   587566547467766566886978b6789957788a8a7989a987aa8b99998839abb79b8adc96abc9899998
col40:   675467877a4a5578688567797488ab979a687a98a8998a89a9aaaac7bbba9cd8a9b8998b8bbaaa89
col41:   55995755758874577697575b76baab79698aa7889a9c9b88a999ba9889bb79a8ab8dbbba6b89a99a
col42:   84558676575687a7887a87868886848b777877b787ba8aba8987a9b9adbb97c789bbb8a9a9b79b9b
col43:   74468664557786796966776796988698aaa8b997879999bbb88abae9ac9a9bc8adbbdbca9acdb699
col44:   a64976877557a64688a968b9a7a9a8a899bca8799aacaba8b7cbe9cac8aba89c5a8bb895bcaeb98a
col45:   45665989768695a967898889886997aa7aa8b9a858a998989e88a897bcc8a799aac7d99bbabcd778
col46:   48575684577b556458795889c8aa8b77889aa899b3b8b9e7ab6899bbbbbaabcb8b99ba8aa8ac99aa
col47:   7687b4589767586698a988685986a98b987689b99996a879978cac9a9c698dadb9cbcb9889bbabca
col48:   94689876675779b777589697987a6aa99a88aa98b79a778a8989b98aa78849adcc999aa897b9d999
col49:   465567878695875675b47696589796b8b99b7bbdb56bbc999ac9baaac7aab8ccba888ba9aaac7bbc
col50:   77366786665977976679c57799a7b4a8aa98ba9a9b89bf898ab99caabbadbbb9ba89a8caaa989fba
col51:   86435585773868966475779869865977ba688679a6aa9c69799ba899779889a9c97888db68aa8a87
ROC:	 BPix_BpI_SEC2_LYR4_LDR6F_MOD1_ROC5
col00:   14325646866876974695a79596798c799998a77688787a8958b6896dbb89a67a7a769898b899bbb7
col01:   434675855787965666578ab6868688a8b693886bc9998b78d9ca7c9a9ae7bda9e9a9985ba9c6c8ad
col02:   85665356576579664299b6556c8877c7b8797768b699b98abc98c9b9999ca79795b9ac999ab8bc78
col03:   445967579665479578769aa699a868768b878bbb9c78ba78b8888c7a5998cba998b977d8bab97bc9
col04:   2346557676557a99688955c988559987a8a786aa77c796baa988ab98cb7987a89a6bbc9cb9b6cbbb
col05:   375856a64666485977977787a9986689789aa7a996a8899799ba9b89eaa798adad58b9c9acdaba6a
col06:   566787693267587567b6857276c4598aa9ab69d788a8b9abaaba89a8a9b9b8caaac7bcc9a79badb8
col07:   56655535565357ab39a88667898798a98da8b998b87998c9bbdb4ada8ac8bab88aaaaa8689baaa8b
col08:   6858975588544a9756768997b9a99ab7727745ca9889ba879a89aa9db9a9bbacca6c78a7bb99ab79
col09:   77587768656974a85857868a99899a8a86868ab679984bda8dc8bd898b79a9bc88a7bcbaa8cc9daa
col10:   25968717474953478869787894799669a976b895caa77b8878c7aa5ca74a9ad68ca997c98999a886
col11:   2636577577556595474787447595588a8a7796a6dac7a8748aa699bb6989b7ca69a88995c9bdccba
col12:   26143345644573a686987a7895bbaa7b89bc8aa98998897997abc99a997ab68bc8876bb9c89ca999
col13:   663644864557a8787ab897b839a8a689389b8c87ab7a86469ceaa99769ab8aaa8b8caab7aa99ead8
col14:   784683473667578834497647749676787a886a45aa8979889689c78a9a97b689c7a7a897a87ca8a9
col15:   3261355595786a7676857ba68a8998867a688b8a796a878bc888a89caa789c9a779aa5bb8887a899
col16:   14555849677487455676858a97a5668759a6a8a586ab9887996984b9a8cb8ddacbb8c88b98bbbc97
col17:   214545664858436778886875449a867a69b777979bea8a588878af89a8989c8a88c88b8bb8a8a89a
col18:   43545568366757867918474573879776579888a5725a4688967aa9bb7657b87a88a999ba98799ac8
col19:   4546826554435385679885a69897986a957588678aa7a5c866a9a7b8a9b9999a8ba6998999b79997
col20:   4343864564a3632a76674756899a7878887897ab679a75989958b6978cb9a69cacb9a889a98aaae7
col21:   242667584655778387248997779788688ab5999bba5998a879c698a9b699998977ab889ac8899aaa
col22:   25557326578573a75585346667895847885a578988a4787a3997a9baaa7799a9ab7a857aaa8a9ab8
col23:   1525475264165754757889988858969864779688998858756996b7959748878bc96abb9aa8bb8cb7
col24:   316574444763774677648755885779778876b99aa6a84ba8a49a988a7778a978b6879ba89a8a97ca
col25:   59367645755489887648a588978784769b9967a786959a69aa78b7ba976c767b999c99aa98779a89
col26:   2584544477648686668598766878a8978a8b98aab887aa7d896a8da9899b66b8ba78978bbbabe9bb
col27:   654482756776568777897977a678869c89b8a69a96a7798b998aaaa8a899bbcbec979abb79bb7cd5
col28:   79254877856a997887caa89688997a69998a969b86baba768a8b8aa9db9998a7dca9b987aaaabdcd
col29:   66666641387775895967888a86687878a4885588788b86689a5a89bdb7a8a9b989b8ad99caccaab7
col30:   57825158649676596a98ab9ab5a8a98a9a987899b877c9895abd99dab6b9ebb9a9aaab98cdb6abac
col31:   556757855566775788787878a895a655a78b799899baabc9bba9a88ac8968a9c4d8dabc2bb8dbaaa
col32:   4248449795448888894c666798778a97b9c99b6ac9b89c6a98adb79acbaa79bdd88ce9ccbaab79bd
col33:   4393934776776a7567636997a8988877a6a79aaa6bc989b9b8db6bac68bb8aadbd9da8a7e7ea9dc9
col34:   5499737756668676689675989a88ba8697bca9aad9b8aaca8babcabc9f9ca6b8db8a8bb9a9aabce7
col35:   846854a9477498867797468ca97885879a998aa8c9a9c8ad99a9c9b9cbbac6b96b8bbbacb8c9aadc
col36:   6435867979a8866665c778abaab88798b6aa7aa8b9a87bc98c8b8aaa9bccbbccbcabbb9abbcfc9da
col37:   885767a8487a768766569799c8799789da9a769cc8a7c9989abc899c67ae7b9c99aba9b8bc97dba8
col38:   88748785879688988855867aaa87ca9767b989989aa9c9bab9e9ccbaabf9eadabcba98cababccabb
col39:   74877976457589a9b68678a869999d7888aa9ac99aa77ac7bc9a898a98bbacfcaacdbc9c9dbc9bbb
col40:   5566456586747789c84849869b88a97a99a98c6a97abaac9aba98cbacda9cba7d899cbabdaa569a9
col41:   576418939867ba777526aa3c767689ab8c8bc98ab9c9a976b7999989a6dacbbaa7bac9abbac9a9fc
col42:   553687979743788a567a678789898b9aab67a9cc5a8a89bb89a8bdb9999bacaaaba99cbbbba9daaa
col43:   35786674656967496557c8b589787799b8b969ba8b6799a7babc99b68aa9cca98e898bd9ba8bbcce
col44:   7334936555975b78967769977ca8ac8ac8b58b96aaacaccbbbccca68a7b88fb99b8cacc9edccfbab
col45:   6379a656a579847748985889887895899a89996b8b9c8b8d9a9b87a8b894acabbacadab9cccbaa9c
col46:   454786557868965767899a969696a87968aaa95ad868ac97ba98a8c9a8dbacca9baedbacdcbbcdb9
col47:   63797567492387658ba787998b7598897b9aa999d8bbbab9dbd9eafbbbbaebccaab8aa99babc9bdb
col48:   48957556547876779767a6877476899aa9987a8999c98d687c6aabcd98da8cbbcbabaccbbccbabca
col49:   84726736455865686a78aa4b769a5995b87c7ac85cbbbdaaaababacbbabbb9a98a9b8b7cd9caccb8
col50:   9858678466338566846458987998878899899999aa94a99cabd6da8cabb9ab97bd9cbcc8ccacccae
col51:   58357756a7659657322565788a7a67878859859978b6998698a9ab9a98aa798ea989a9a7d327c89b
ROC:	 BPix_BpI_SEC2_LYR4_LDR6F_MOD1_ROC6
col00:   f33364445683856594a7754367474a854565895867867896579a7b86bad6757768879898b6a896c5
col01:   7687524665599384126585877b86878b8b86879468778a79a9966b6a8ad96a7689a76b6dbab798a8
col02:   17442736965332a471655c59998cbb768a98a669a99aaa66a9dbd753a45d6a86959789c958ab6dc8
col03:   665273657a667867587878983288a73a786c87835788aba8cb778ac9c8ca7ba67678cf957797d7b8
col04:   432484455476a731635649658799688b78b46664788b86a788b898c39aaba6aaa9a98b6ac7b9acba
col05:   81476448538467454b756875486927c7466747aa9998889968b7c98b6acc7be9ccae5ad886bb4994
col06:   541798467144737767757345613a555b6788a89a97bca559ca5c9dbba7887c96798767997aacbcaa
col07:   54146675286687515786687988788897a86596854b4979a7c97aa89799a84cb67c98aad78bd9d7c9
col08:   113765352777656a53a49b9366a88a77a888b7958866b99a968bb6987a97a9d897999ba87ba8588a
col09:   545363646773497873474a7587747b699737a7949a6774a49a95868b7b78a9b9b7dcb878ba8baa99
col10:   66217465766358759968767799599956a7a693a97787aa78a55b757a8884aa7799a9d5a997b6aba8
col11:   1643755635639849389db6659aa8899965676a8c3a7a778a9587889bb999799a98a769c996a8b665
col12:   146682264785786866b68a67568a8695576897778b7978c98a6a88a579a5655a98997a8a69bb99a7
col13:   513459688756867576647574998977a9a68959bc85a779768c76977a88ca969a5aac879bd988acaa
col14:   6358564786585575694988a6596869ab8797c69a99a9b95b77788a898b8a9799d69acaaa6bbabbcb
col15:   25576915467376257575866866596b8797798869968ca9666a7a6577899996c58aca85b6ba8a6797
col16:   1344762558759626957644865b8967678a7896abcab787798988a9bbaac4aa98c57b6ca7b98b7687
col17:   32612449667855a4757695943367a8755a4584b8884a24759967895bca78a889aa999ac598c687b9
col18:   7733456666566496934757b87769a575a7a96b69446c7a2ad58648988a67a89b78a99a7889bea9d8
col19:   491477754756656877697a6979728568a8a89758ab7b8988a89a5a87a8969a6888cca9a9ada899cb
col20:   655144583887156a758786827576856a5a4a7877688359798768a678697ca9cb9a9a68c8887dbc98
col21:   4414545378576854b97666676d7688ab89a44c6678abb69876a9a95597767765797969a8a88ad8a8
col22:   3262417358784377b759687496aa667b875b97a6a66aa79b777996babb676585a86a7c8b8daebda8
col23:   2545135635556669228a4885684687a67969b557695888b8a6667968997a7a65899b797a99d78a9d
col24:   752546555669355894548717566177777676b955b846ac469586b99b77aa997647aa877c8dbaa8a9
col25:   7455438568755685765675a6b85a5965877577a7767794879868ab6a857799bb9aad8a69b9a9a7b9
col26:   4536723663666854486a9797689bc5a8966a7b8897a869a877bb9db7d97a8ea988cb79ab7997cc99
col27:   73557477655796467657c6a89987736a7b776d5b889b68b58aaba889aab79ba97a9b7b9c798ab69a
col28:   5c45585398658699c447886987a797aa5a7b86c54767ac9b868badaeecbbea99bad969aaaa8aec8b
col29:   76755568894565a637799b6667a79598bb9b9a6c577b9987a7abcab97acb978bc8bbdc88b8a99fe8
col30:   5475455a57856878966b7c7787a8b957896a9a9c8a989a77ba46a8ce869869878d88aac8aca9c7cb
col31:   975765437b3a864a84966989cbb7aa7868a9b7969a777abab99adad9d889aaa6a98af96acbca7ddb
col32:   7925b65954567888564a9778987aa8878978bab7c496b69c8aa8a9aa9dcb8cabca6babbccbfabaaa
col33:   78556738675696a966bb879b8897c8c698bbc896a89996bda8c9a99678acb99ae9db9a8c9d9f9aca
col34:   44658749448786a77696976ab88967a98aa6978a9a897ab79bce89aa9879b8aa89b7c9cc9ab8ccdd
col35:   5386731746677886768779a57c7bbbbbc8bcba8c7c88cb89c7d988bbbaeba7cc9dabc9a9aaab87c9
col36:   a1647666578688596974b7897a9878c99c99b889b9a99aa7b994aa7c99b79a87bbbbb9ccba8decd9
col37:   6723658845c767b798867669876a966bcca8cccbabc99ba8a9dae7bda9fbb9dcc8c8a97cc9bda9a4
col38:   4978b6787998686689b75b6b999a9c6a6988d88b9b7aca9aba8babd7c9c8788ae9cbbbf9dcbbbcab
col39:   775676849766a978997a4898989b88c967bd99e889c9cd999bcdabbbaec999ed698b89b99aeaacc8
col40:   44495385a8a495556585b78cb89c7a8b99aea987995aba7b9aa89e8acbd79add9b978cd9cbcca8eb
col41:   25673869a9a57ab69a778c797496a897b6979bdabbb9aa8acabacca8debbbbbde89b8af99bdbcabd
col42:   767778264546797699a958557896888cb89a887aa7aeb8999bcddaa8eb9acd7a967e8cb9bbabc89a
col43:   975785697979b6686799b7a8aa9aa8a89897abaaccf88bdddbe9c86cc7babdaec998ab7ef9acccf8
col44:   614499a478a77695b7783d9b5886eebaa89bb898bb4b88a9a8bb9c9cbbaacad8cc8aaab9a9bd8abb
col45:   737a678584c7367b4c79b6a786ba88a88bdb9a8899b7ba8a6bdc9db8d9bbdbeddccdcb9cbf79cbd9
col46:   166765aa67a66188ac87899897a8978caab8988a7969cd8ac984bacbbbbaacb7a9cc8ac85b8dcbae
col47:   867696698599b729a99b78a9888bc79b899bdcbda68acbbcaec8cabaacca9a98fbba7ab7a7b6cdac
col48:   7464868628858747a9879a97589a98bdcaca877cabeada88d9bd9cbac9d9969dbcaae9adab9afbba
col49:   6569a97488898a89a798b78998b7a96889b7a8c8b799b7b17bcbda8ccca9bbc9beabcafb99cd9bbe
col50:   958637579676686888e589978bb9987a86b67a486a7b6dc88a999bbcaab9fbaabac6fccbc9fadaac
col51:   6344658216238685686a77964a676a475a9ba98a788a88b9678ad87a967bcbb7779babb999979cc5
ROC:	 BPix_BpI_SEC2_LYR4_LDR6F_MOD1_ROC7
col00:   91436a8669847779c97766b979aabbaa7ba68aaaa4996bb9a9bb9aa989d9d9d79beb9abbb9cd9997
col01:   287696b999967a39986ad89e98b9a898b9b96bdaaab9a9bcabadb8a99dbca8aba97cac479884ca9a
col02:   63a476899687676865b98879a9b6598ab766ca7e8799acb86b7ea9ec997a9ceccacadcd9a9a9a9a7
col03:   1597647879ba677ba5bca6ac998897988a7ac7ead8da9765adbaaac9aaeddc987badcccb9db866bc
col04:   3548487697a9559857566799899a79a9dab9d9d7b9a89dbe8b8a8cc79ba889bc79eacde9a77aabca
col05:   857655ba5a56956999997a9aca8b9dba9868b9abac9c9aa8abc9b9bdddab7b79a87b9caaaaccccb9
col06:   34968b7579386a8864699ba96a89977c886b683ab5aa97ceec77a9bbdaa7e9bbb7adbbeb9c96a6a9
col07:   4264a656769999898978a76ac799ab67976bbb89a99ba99bb99988b6adafa5c85ddb9bdd99d9999a
col08:   535856954654ab9888aa69a6693aa59adc47878b79adcaf497a6cacb889a7ab8cbbbccdb75b95ae9
col09:   a68a688a767876a67786989b98bbb4799aa8dcbb98a9dc678a9b89abad888aadb8bdbb99a99ca9ab
col10:   7558768a855755bda88d988cc8997e7bc5879a87b8998d8a98b7baa689badb9ccae8bee9abbcafdc
col11:   7583775857466599955864a7bad5c6c9879b8a7badf9fbab99aba79ab8aab9c7ac97a9bba6a89a98
col12:   329a778847848995a7c77b7898bb76dcab77a97ad8799cda4b7a9e79cfca8b7bb899a787bdcb9359
col13:   16586a69a889787c6679a8aa79a8bbab79e9ba59aa8ae8aabac9ac9aabba9aaaababda8abbcbdeb7
col14:   923565a76578547781b99a69758ababb89aa8a89c68aa89cbb9989cb999bcabaabaebabd99746899
col15:   954879696d485997ac69999ab8779a7aa75b8baaa7cbc88bdc9a8cc9c88998adcabd9b57dca9a999
col16:   624554588669b969a74b998836aa9c856696eb9b78886949a9777a99bd89aada7cb99a7ebacacd7d
col17:   567788792664679988587c958a49a9974aa8977779aa6a57a3a66bcc7aaccaa78a858aadc7d88ca9
col18:   355868645b6454968a59b93587bc6577aa934889cdd8b9a99daab89b7cabbcfcc9abba8cb5ceeab6
col19:   7567564777b38865377979b6666798b7c98589ac83a9ba758aacbc989c899e889aabbb99cc89b8bd
col20:   66766843a655688c656a7869775a5878b9a98a685995a9c895b8d6768baee9b996b988a989bd69d7
col21:   233656247465a98797a77a98788684aaba54a9959999b5a79c687aa9b999cadbbadcecccd9b8a698
col22:   847593358574768c756798a2a7648787848a8ba77c7b9697eac9ba9c9a59879ca9f77acbac8d8b9b
col23:   781777285964648265968859547bac79a9a67b99ab7aa99a889cd9a8a7a6d79cb9b6867f8b7b98ab
col24:   223377596887788345a77588a56ab98a56bba47989999a6cb99947597f87cf79abbcb9998ca6a7aa
col25:   37a5315627456762679b7b587a96b9a9db6aa98ab997c97aa947998996a8999aa8e9bacbbab9ab7b
col26:   9577358b98a76986c8d766aba96ba68b8a897da68cc69aadb9a759bb7aebbea9aba9aecdabacbbb7
col27:   34a586557b874595887958aaeb97a58ab778c8a99b79b7bbb7d6acadb76ba967c8a89ae79e9a85da
col28:   385888666a5c859a76948a597a5c9aaa89cacebbcb8d69b969ebca9a99c77b7dccceda97aa8ebbba
col29:   6455754778b965a777585b978a98df96778c9a59696cbabbbbe79baaac67abac9b96dc9adbabab99
col30:   856a5979888799bba6985a9a8a7b99ababaad8c9c8a799d86c9ec99bcbacd98bcc9bbbabd96bba9d
col31:   778777a8b98888ab899c5aa8c7aaab8beaddb8dbabdfcbfbcc8cdc9cda9da8cc9b9bcc9cdceaaaba
col32:   41a3959789684aa7b967c69ba9c9babddc9c5fbcccad997bdfcb7fccb79dbbbb85af9eeba9bdcaaa
col33:   87377a898a97a9a8bcbabad9a67bc88a9b79b887c86bcb9adcdadbcb968aceaaadfddd99ad9bbcce
col34:   775a94b8788da8794a9aaba9cca9abcadac8bcb8b8ba8dfbc9ecbbe8aa9cbcc899ebfc95bc9d59f8
col35:   5989a79968768c75899ba89aaad8a9fad8f7788b96baebbcb377caaedbbcbbcddbdddcdb9ebbebce
col36:   5783862664a64879954997b998aa8bbad98cc4e58bbce689bdcbadb8d9adaaab7aa7aadfafbddcdb
col37:   356ac886768455c67aa8989b8c9bac9a8a95b9b7cbe8baabc9b87ee9fcaadbacffefc7baaedcccaa
col38:   6b38766863ba8aacaaa999555ddabcda9ababaeab7ad888caadccdcaeedacacdbbbbdc8cfbeac8dd
col39:   5d5669a7789477844797c985896ab99ec8dadba9a9bc7acfbbaaaadddbda8edbbab6cfaecadabfce
col40:   88b7978a696687b775899bdc8bcec67bacab9fcb96ac9e9cbbdcbaebbca9cbbcacbe9dcb9cbbcccc
col41:   6a5a588c567a2ba5a77bc88a98cbb9ac799fc9a89afbaa9fcdadbbabd9dbcaadaab8b9cdebacdabd
col42:   8744887796969c4649c9a9bb799ccb9b9899ce8bbac99da9fac8e9dcfa8dc7bee88c9bfdf9b9bd5d
col43:   574856686667888725a7bac6a5879999c88c8d9ba9ecb9eabbc6ab9adfbacbdecddbb7ada6f9bbf9
col44:   63777678b48a8c5569578cc8aa7cca8ccab98c8a9a898fd99cc7a8dabcd7abed7babccacf99ebdbe
col45:   67b58798a7c89399ac8a9c6989bb7ad87a6999caeb98aabcacebddbceccaf8abbddcfbaceafbba9c
col46:   6358367187869a89a699b8ccb98bc8a8b78ec79ba9bad9997d7b97bdcfcbcacbaaadba77adbaa8cd
col47:   69699745f669987668b696abc4fb7785987b7bac7daae9b8cbdaa7a88aefb7eb8bbccbebc9ddcabc
col48:   679696b4847477d6a9859a8aad7ca68daadcdc8bebacbcb1bba6aeb9aac6aadccbccdaccb7bf8ebd
col49:   68b7a98479a7978798c56ab46cb6d7a9baaa8cbadfc8a89a68789e9bca7ae8cbccddc8bdcab9d9ad
col50:   834a7766a7a88a677878acbaadb8bbb858ca8b8abadbbddbf88eeefab77bbbb9d9fbcbcdebf9ccb9
col51:   658859654a825845755a48a77c868b66aaa95576ab8a79aab9bb9d7aa79d7d6ca7d5aecbad7cabb9
ROC:	 BPix_BpI_SEC2_LYR4_LDR6F_MOD1_ROC8
col00:   667a789887986696596789ab7a98763979659684958767769b4a76354487673a7556567451544664
col01:   7c9b758c7b896795bd88a8bc8bbb89798a77887a97698899c977878656a753a49a5a886655352421
col02:   98897896777a85789b788a897a96986a89997589a9596a876548688b784a76846867876136544634
col03:   5a88a48997889796b96caaba79a8885ab9649ac977a8a77a7b68767cb77768995826788537784573
col04:   969699c86a67a96b68a77a9b874b9a9b886b96c76b9658796b78b88b769767687554437434517657
col05:   99a6817999b578ab87a849499ba897ab869799a648bb7786799634a796a667781265599773544342
col06:   c898aa9b787a96ab88b4aa9abca78c7689a88bab888a5a9459886baaa6a7a88a8818745677654664
col07:   ba7aaa9649958b79b958b79b9a75aa9c68b79a8b8478c86a7699683657789b867548467646551343
col08:   9a89c69737a49678879b789b9a889a9a97879a89989698787696697677b98a537689a14238645534
col09:   b88888aa8887a9879a8a896a7c997895ba584a8a88c88b697aa79978546a85566775762588654741
col10:   788aa98989aa8b69567baaba568ada8bb8b798c7adc79c7897b5b877aa99bb68b988778755559654
col11:   358488687759888d8868b89747857a866b96589bbaa7796764a8972658a777686686556a45235631
col12:   89ac8b948a7a88ab889aa6c98c586b79b7a66897668a89c8ba588467585648866877574844645345
col13:   678a89a99aa9776a6896ab5766a8a68694a9a9898669b72766953598574698648457884416665442
col14:   98a989897aa9666684aa987686869989785b98977ba97a9a975c7a77968996534a46417277495466
col15:   886b7597845a8a879859887979b88879a8a87986796995ab9889688b679486979b68557966736463
col16:   7897a65969b9877b8a5d88aa6a8c7b59995b95999a84aaacb789c6856a986a4a477a684883532165
col17:   8998979879a987775e69686767b57d98666896979aa6359875669875a68779476868755172157273
col18:   567567988b67c67687797a947889888a898a7766a9a699b767b9aa648a6876857884535445425744
col19:   779677875686668a7a649c96797879998989987b899788caa93659996a6889567567668872185633
col20:   88c7967aa697498869877b8978ab8997a97b9a998885959777a889678a5869585589658772335691
col21:   79638b79b687a79a58aa89a8a8a9a8aa58798d58999b55858698795a4657a77675568645426a5641
col22:   96787b4989a597c8996caa988b97898885b96796879969a886875a8996c8756697379b2447944364
col23:   47a7ba85759a989877776b6896d96a8a6b8588a85a69995b7846a896a88947886676486677366746
col24:   74969897c36a78978b68a78899c9a6878d98987385896789977978a8974685665665766586586355
col25:   767789a87a979aa78a988bb9989896ab9b96ac888c689aaaa7768796987878794a46452375413548
col26:   4a757666a68979baaba98c7a9bb9ab8c7a88ab97c9d89688ab7979b7559686a5b668985977686475
col27:   9a7aa7b9aa99789bab79aa88a9aa8a999c78a99b9889a7a999a8a8c9ba8aa7b755b745aa57856561
col28:   89bb8ebda7aabbcb9b8ba9677dbab8aabb9bccd9ac9a9aa68ba887a9797c887a768886a876567475
col29:   a8698a6a7898baba989ba8b9db6998756e9b8976bc8b7797bbb8ba8b79a896489a6299577654847a
col30:   aaa7a8989a9acc9a8cd9bdd79d97ab9989edb997acbaa9a898a96886878aa7a86868877584766692
col31:   b7887a9aabb789a8b8aa6b9aac9ca9b89bbaabb9a8af86a9ba8c6896b6a89a869967a5a886686474
col32:   97889b8cc97c8b9cab86f9bb78bbba87a67c9babbaa87db9da9688998a7b58a8bab4475969675865
col33:   6bac98a8bcb8d7da7bbab89a9baba998abb8bab8a9bacb89bc88b97a896799b97867499566877357
col34:   79a6cc68eca84e989b88988bab8c9c9ccb8adccbcdccc99b8b9a8aca9b68977b99c98a998a558764
col35:   78797689989b88bbbb8a98bbaca9b9a7dad8a9a88999aba8ac677a9abb7879a979888b8575947969
col36:   cbb95b68a8bfcb8caabad5c96bcc898dcb9bcbbbbcac88bba8c8aa9b6aab996bb998778696484575
col37:   a86cb69aacaa7b899badbaa8a7b7cb8cab97b699caebdadaaa7acaab7a8a689887787959a9869773
col38:   a89d9a79678c8a886a8889aa88be9b9b8daeabe9bb7dbaba979bac8a9ad9879b9a879989786a5656
col39:   a6a95597a778bccbbac9aab989cbabbbd7d9a77b8aaaa997998b9b88b98789879a796979753a7756
col40:   ad9d8776aa9a8db98d9a9cc9faaaaebaaedabe9ba997a9bacaba99a6a78a6aa897a6b599966a8876
col41:   984bc899a9ba786797b9cbb9cb97aa6b9da99ea7c9c9c9996badb966977eaa9b999677857455ba68
col42:   8a9d9baa68b8b7a7caca6bcbabdccbaaa9797978ccc8998a49dbbcbbe8b979da996946b8794575a5
col43:   c78ac95b8accbb7aabac99988b8ab89b97bc8dada77b9b7a8b8cba998cd6989a7987a6e4677a9894
col44:   9abcacaa7997a879bc889b9ed7dad87d8daaa9cb9bb9a9dbb799c9b9ac9bb9a8b85a9a684a799768
col45:   a9b7c6a69b7999a9ba99b8beabcaacc9c9a89bbcfbcaab98acab89b8a7eaa7ba479ba97978758943
col46:   bab8987988b976ab95b9abd5e88dcaafabcbccadeabeb8ba9baad9dcbb89a9a7acb97aa98b5585a7
col47:   a7a8ca7ba89bbbb99cccd78ba9ceaa8ddbcc99db8bd97acaa7bdc99aabcdc9987a68b568b8878b84
col48:   b7c8a98c679ac979bca9c8cc99eadfccadaacadbdebb9b8bdb98acccca8dbc986699ca58cba89676
col49:   997b87b6aba99a97aca98dbaaa96cddfde9d9da97babbac9bb9cad9b9d7dcd7b868538999a979386
col50:   9a76acaa8cbaabe8779aee8dbca7ba8fdcbabbdfafb9dabcedabacc99a986859a96c87a9c79ab654
col51:   b8478a88989ac8876a89acc89d79ba9ab9b6dc7aadcbbab98ab9d787869699866a93776a57b8576f
ROC:	 BPix_BpI_SEC2_LYR4_LDR6F_MOD1_ROC9
col00:   968537446a58954646968693689748677689a66948745578b5768969894843585967661459a87554
col01:   79595baa686899989c5b898aab66b8878bb7758da968975c9888a8785a4a896897866588a6154986
col02:   6662686674839678a675a5786b6b69789aa6a69b7a98875b867667b89576974678b968555999b741
col03:   794567576685887975696999786baa6a7db4a8e8aa564798aa88b767a89a99686887776b847a6a41
col04:   4677676896a9a6768a787a688866887a99a9e77848764a6886a9a58b9a7a888378a43698a7666565
col05:   542256985798984a8987aa977879896a85a8b6b9899278a99887a869866877998a777a8749877539
col06:   a48a85775b598469a78893999689769bbc888879674b8698986788ab9869877875a97664a9a78648
col07:   789315623758565b9a75677b7799848a9b5b956a57a6988867983777997c8b997885866976384467
col08:   67616886497617795678b9b74986a8475989aa8a8a798aa888456667867b58692169454765764275
col09:   474778a67a8988858a989ac9a599979879ea5969759b5b798779588a796768874598998578696584
col10:   768975677876bb644966976799aa86697799a9959b7586688877775c67665b878b6a6279544a6856
col11:   785887664589557576786674a6699777aa998a59699ab7678697494755465466794a6935564b6756
col12:   87a58678866677a76aa974878c68b78a997c8a686ad869aa895898775a9748a68854976963432726
col13:   6494735878b578483c86a95679758a9776b9768b76a8885688797399a6776b2456a9798575527946
col14:   3227565847496368958a985796959797b65c967799678488a6946686878758568988975255477525
col15:   aa584b53724556887936865b75b876679a998b989899879897b887b688a896665876577999257586
col16:   85879226782882965678ca9978a6588989869676584b977b858758479c5a76759495857866757954
col17:   6566438476885969a356754967758875798597a29b8576977b77b989c95876696674959319885965
col18:   88746586b578964794a967859678a88899b6744ac96697978b776936a5485ab68676a99638669438
col19:   6454a958467658596599647879a7a8a74a88aa6b86697479a9b67797868688796777aa9946346967
col20:   789537459479a666947775676878689c9a986595a9868567896797aa7574c5798755589686526873
col21:   68847577667866c3568a84487798bc485878a779584677599b657773c5676a794888743789688457
col22:   6379855768657655664a887888567b489588ac73867ca6c859946957855557567846485345784887
col23:   37a62888779676287898887aa8786b2997b88b984968bc7787c97775668a77587689468586554667
col24:   662792556787a37786977759a7b576b56755aab54778988a59b9a7a869c8b7c968985a77558436a3
col25:   584962963a817a46648359679577598668757a78ca897a8aaa87a648769a89488a65675859578844
col26:   669676688b5598d86799ba69b78db89bb7a9aa99b89a987a7698b98a7c9b877b8966ad6968859987
col27:   56777576a797587b66679a899673b89964999a9979a89cc959b99888ac88977466576ca9b67594a5
col28:   596a87867ac79995c9997975894a87b877c89c8aa957daaa8d98cc98795878877a78967888a66675
col29:   7a6b58656778868b4b965a9b86977a898a8aa8a8cbba786aaa589699a69698686788575a6775777c
col30:   56797778a5a98a9698a8aaa887b7a7b8c69ad8bcbbb897bbaaa89aa98aab76688788a59786886558
col31:   53a696aa4786a68479798bb58779a96ab7ab7c6bdd88c9976b897a78c7898a986997883a776a7587
col32:   74767778a9c5b9a9b79a8bb6b877bbb8698fbac786daa9bc87f9898ca8acdb9988baa9a7a6955ab7
col33:   995865b5a87579686a6eb4abcb6bdab9ea9a7b89b99b7c7867b9c8acbdc895bb87988a9765688895
col34:   a795b9875a89a55599b99acab79bbcba8ac8fa59a9b79aa8ab7ba88698ab9a98a696ba6866a8a686
col35:   5a8776a8497a659a79978796b88b8a97a9abb998887979c796a88977bdb9b886b8a948b899ab7499
col36:   87b59889da998978998a797c6b9999a87d87ac879b8898a7998caba89c877aacaa687659964ba698
col37:   9588963659a4ea6796997b9bba8d8b6b9ba8ac7a959acaaaa89b969d8bb797a5b697897964996689
col38:   a779da55dab99976b97b99cc5a8ac88cb8daba8aa77bcb9c997ab88acba9b98a7759c96559a5b676
col39:   899a97797aba7889aa98cba6798a8b9a88b49ad7dbcb9c9aaab86abaaaa9cbb9bbb498ad7b878878
col40:   956666aa89a67857db869a7aa85a9aabdbb9b88a87bacb9a899c9a7897ca6bb8bba995b766896593
col41:   97465459a5ba9466b7b8a99a78b99a8aa9da988baabaa9999aabb8a8a88ab7bdc6aaae8a88aa9859
col42:   786799968598659aaaa9c8ea87cc8acae9dcb5c889a999abc6cecbb7da8cc989a8a9aa9b57a7a877
col43:   86a6a8a677a49ba775887a9aba8aea98ccc8aadca989e9baba99bc8babcac8aa9c5b46baa5179c89
col44:   685844987a89a9859979b89abbb8a8ba9c98dbbaa4e9b7bab9fbd8ad57a9c56bb88877cc875789a5
col45:   895665bb488bac9287688c9a9dbb6cb8bce69c8ac8cca9a8dadb5c6c87ba7de9ab77c497767aca79
col46:   9897c9aa997697c689a59bd99aca779bbbab59c6da999c5cc7b9869cabab9b99a8b964a77d849999
col47:   77776aa28b7598aa9698e69ca9bad9ad9a97bd988a7baa87d9b9ac89abbc6ba888985a5a89788695
col48:   39598aa98c9c869585998a9a98bdac87aafbcb46a68988ab68daa69a98abc99987c95c98a88baa78
col49:   86974799898a99a784a87bda98aaaa99a985bab799988aa899ac997979b97c9bad97987749777583
col50:   b69e9c896678899899baac9ab78a9c8c9b999ab8caa97a987b8b9ba8ab997da8b978a699ba78a974
col51:   768996b57555689987a68977989ca88b8867776887987575798795a8c989a865ac8788756787976f
ROC:	 BPix_BpI_SEC2_LYR4_LDR6F_MOD1_ROC10
col00:   3445346785465564497c8966953b58b58a6d7c86a97b76978aa8a6888658266576965c7baa579666
col01:   29268788676876b9559daa75b7ba85b7a79ca7bbc9a99a87bb7b8bbb989af98888c954ba46876749
col02:   4369b66653977757765a969aa976a868a8ec78bb94fc9a699b9986a9898a6a798ab95ba56db99645
col03:   776565aa975597797859999698c69756a6b9a79db96879ab977c9a8aa69b6678abc758a3a5869975
col04:   75448437a475668d777a85cc9886c97975899c8a977c7a996b97a6a9896e7769695556799b9659b5
col05:   9977765831a678475955892969989858989b7a8aab6db99888b67987bb758999a739863989759788
col06:   3818338652669a96379a789783778e9b98aa7997c78cd987a979b79bbaa75aab69557ba9b6a53537
col07:   6675c9a95b9564aa77b699a688b7bbd58aba6b8b799ab787b8dec9b5abc88e7e67b88888b9686677
col08:   587777654196876c767865a689455aac697668aaa9b6ba9b87c9a63aa78b97b94bd978887669a76a
col09:   36ba9476a8867a887a8ca4a698b88c87aa79979ea69c69e87aa8a88a9db6bd88cbc887549c7887a9
col10:   388a774656398429779a754865b9a9a98aa847569998898a7b97c8b5d888995a99aa8b8768883588
col11:   4aa76236587786a8678b66799989db67869ea97b9eb78d8a6998baca7c6868a949a6aa8a862c6a87
col12:   74b67754385456cb889abab868897ab59c9ba99da9689a998a68b86caab68799b5aa798a558a5753
col13:   678a6bab6487559958998aa6a89988588958488dbea98b9a79989ca65759a8d6d7a67a49577a8a8b
col14:   471635869978a65a79975785878d7a5769c99a6a6787a6b9a88d9ccb97b98b99ba75b94697bb4a98
col15:   799878475678b69c6a498ac87786abaeb7aac8c6a787aa8d7898b67aaa545b9877a9764886786759
col16:   5754a56b5a383665b9b99775a6a799b7a9aaa8cc5879b89b99b9887a88967589677ab9855a6a5a55
col17:   36935a98984a5792b6876d97a96d499d9a678a79a69969b978cab578a7a6888748c7a497866393a8
col18:   685b45a26164796796d69957b7647a9888aa58ab7ac59aa6a9a94aab5998a77a7677963ac68d8a88
col19:   9b957d677877969597578a98ad9589aa8ecbaa977d7888a969b8978b9aa78a7668797768ab755581
col20:   659678996ba88a669a6985cb6a67b8bba848af9898b8b7a9eaab7a896caa98768bb89745496a76a8
col21:   4694678876a9b66463a5779bb78a7ab77927c97bc797ca766ac77ca96a85879a847a4843577987a2
col22:   9876964677586c56994a6977b59869776bba799bcc7899876c9b88876a7767c9878c68697a9574a7
col23:   56558c7a5774b7869459778989e68869b79949a74e9a7969659699697baa6a9c8686977465646948
col24:   6538595885b688466c99877887a95baabb9a8aa86aa99b57a68a6c9aaa8b98aacb4b944561578884
col25:   a88446799a5868bb85a98d96ba697b999eba999aa6a779898bb6786a77988ca8b69bb398639858a6
col26:   85747939b47aaa9aa8dc798bdd4ba89b9cebbaa9bf9cabda5edee9db988cc7b97c9b8a78a8875715
col27:   4887873689978c6b99aa7ae8899a77b89b7addb8c89cca6a98e9d589ca9f7ca9b8a989698a96c8a8
col28:   9597898657a96c89a6bda899bb997ea9b86cb98d7a78cbcddea8cba8dbccecaaba9b77ce8ba9bb67
col29:   9c5b6998e997a8a8b69aa9b79bb8bbb8d9cb8baaaa9d8c99d9a97ea8cb99bb7cc978bbaca7899985
col30:   878c9da6898799bae79b9e8bb96cbba7b679a89c9e88eaabbaabb97d9bbccb9a797c8a64e6687dbb
col31:   7a9ac9aa9da7a9dc7ab8b799aa9acac9999abace98bbccabab9c5a9c9a9be9baa7d96c99ba78aaa6
col32:   98cc8bb789aaa9cbac8ad9caa99bdbdfcbbfd7999aa9a7d99b8d986a8ad98c7fdaaabacb6aa697eb
col33:   879b8786b48aaa9cbb98bf8d7cddcc7a88cbd9c77aca5ccaacbb9dc99889ba6bba9d9d789a6a8789
col34:   795bd64a87a97c9d8ca999898bccb9a8bbc996cba9eb9fdbcaa7bafaa9a9f9baaaac88a9687a6978
col35:   88bbc9a69accc7eaccaac859baebc9daacabccb879cb89da9cf9bcddd87ab87a8aad99b7ca969756
col36:   8ab6c7975ca8aa9cd9a7dadadcbdcaab8acd8dbc8aeaaa8ebcacada97bda9c8bcebacacbc8c99c88
col37:   ab8949886a6bc8a9ae98abbdccdb9ddae84afbbdabca9ebbcdd9bb9cddba9cbbba9e97da9689a9ab
col38:   bb6a899ba9dba98fbbbd8bcbacaabaedcbcc9adc8cbdd8cacc9df8ddce99bbecb8daa9bbbaa8c676
col39:   977b58c9a9ab9f7b99a7d9aa5a7dcbd6d8debbd97dc998ab97c6a9dac78aab88d8a9a97a6bab8684
col40:   8da9adc7bab8c8b9abd999aacebdddb8d8b9d897ddd9ba9f9adc98c89b88ccbdfa8c8897bb839b8a
col41:   99c8bb7b9d7daeab7ed8d9c89bad6bd7c9caca99fccaa9fd78dcdadbb8a9a8cbb88878978abaa698
col42:   9977ca677ac9b7bb87bba99adadab7b9c9cc8b89fadd9cbacb8abcd8ac6e9c8a9d9baba99896977c
col43:   ab6cc9a68bdcdba9aebd9abcafbda5ab7abf8cbac999ccf9dbcaadbd99ebdbbbaabc9bb59aafa89a
col44:   cd88c87669aa69dbabedde9daca8accccbabb8b8aa9e5dcda9b9dbca99dbdcc6acabab88cbad69a6
col45:   a9baa89a3d778a6d98aaaccb9d9a8ebabcac9da9bd9dcbd89dc9bbbdabc89c9ca9b69b9868abb4d9
col46:   bb979ac6c768bbb6dcbda9bb9cd7bc77bbbafccccbcebcdcdccdcc6899cb9ab9c9a8ab89c98cc88b
col47:   b69aa8a9b9aa9aabaab8dab9abcaadeadbebad88dbcb9a97acacbdfdb9abcd989ea89cbba7b66bbb
col48:   9c88aa968aaa795ccaabbda9bb9ab8ba8ba7fc9d9cdca99fbccc889bddcef96cb9d8a8887abb8797
col49:   b8ae9989d8cca7a78b9b8bd9d8bddbb8fcfbc89accc9caabfaadacc8dbbc9dcdb9a8bebb77a89565
col50:   669a7b988ba9abca9d8baaf8dccb6dbbcaaecdacdd8ae9ddcacfcc98eacec8bbc989a89bb9a87ea9
col51:   b88ba997779cabaa98677bacbbc87cc9acb7cdbbbad669ba99a886a89995ab98757ccb597935c58b
ROC:	 BPix_BpI_SEC2_LYR4_LDR6F_MOD1_ROC11
col00:   84597878567b787555875c7a94a6535859acb9577a18b68b8a96b59ac6a7598e6869896482735699
col01:   7a648aa6a8846b79c79a89b9a6ab656899a8db94aa88776eddb699b83897a8b75799b94387856482
col02:   5755ac847178458897bb88bbb9c9cb4c87a9ca9b8889c6a586668ab27587a78659698ca864867563
col03:   6896ca8895ba8a58895c8fc99567d8fc5c6ba84aeae7cda6ad9b872ba5a6ac18c6c79bc58977b796
col04:   aa5348585774a687aa98986a65c8d7bcab7b88ababc7789b877ba9da787b8bba796586cb94454493
col05:   99699977aa7888648789887bca8898977977aa8c7abccaa9a9bd8b769c7aa7476ab977666647a867
col06:   759387675c6aa78975d95a8c886a9ea9987a9999a5c8bea96896b78a768789ba9c56c36795ad5767
col07:   bb7a64874928988587e6b49a687e77b899b5c7ae788bc9b89aa9a79e88b77359a3b97566b8948858
col08:   5497584767b68d8b887596c69e7aa58abc96aa79b9c9caab67b98899998a5a884aa96a6925575685
col09:   b3a9b756667b97ab7b87bb7b98865818679add96749a8ecd9aa8758787baa87a9898b87a56a49546
col10:   944895588658b56597788a9aba8baa76a7b9699ca695d889ab75a6886ac9b478958874c727a58547
col11:   4589686658968867785899787d68ba88b6d69dab989cc7abba998aa99b8854a5889869e457996684
col12:   66978878794b78c86596796999bddd9bf7aab87dfb977b6f7bb8baa9837aa679595a89a9875488b6
col13:   d99756756827a98a978a7899aa9b8a597abdd8aba5b89abaa8765b7f69c36cc65a8ac98686355776
col14:   36a6998586789744b5a8a458897d6aca8ba8d88cbbc598cb897ac4ba89bac7a9b8a68686669a5188
col15:   6679a7758678776a899abb88775a9cb6aa883a87b5d7b8bb3fb68a8a8b39787786976c5a693a6988
col16:   877885b837a7988a7a8569accabb97857a8bab8989699b9899f88c5b97876b7895c8a6a658b95857
col17:   555545a478967b7b4675966b69bb99aabb8a578978bab89caad9cc987888ac79589976887b868745
col18:   53779786797a96779b7a98965b998886db7bd78a69b9bafaa8aaa654aa89a679776dc587825b8676
col19:   863bc885389759d488b599467a8974a8a8717bbb7aaa77c6a898b7aa8cab7983baa6d5aa69587a79
col20:   974a98ad799488689c95999a89a8698859bde665c99b6d77875c779a968a64a65576889d2683c668
col21:   b7978875778879a82b6977b769759da66a6a57999c97bc5969578fbbaba89669aa6556498769c883
col22:   6885b4a88a64b769968399ba87968a8a7ab79a8acc89ab5a56c6696488c9a8cca976996aa6145576
col23:   756aa7b76a98849a5b865576d974a3967b999a688797c9889c897caa7a9aa769b2715a97a9658756
col24:   a8756a85665368887828a795b6a8a6b8a7ba9988b97787b9958ad5677baa676795747a6c7a487496
col25:   76a88479867a4a6aa5a9bc959b4b67968b895a79a6baa7a87eb8a9a9ac7798a98b99b685559543a4
col26:   b57797b9ac79ce49b7b7bbaacc7ebedda99cbe9a7b8dabdd6aac7ae7cca6bb8989a879a87b9898aa
col27:   9a88859a5998659c9a5934a5ab8aba8a9c5ed7eba5abc6cb8ac8bca59d8bb8a7a9a99a92798788a6
col28:   d8bcbbda4b7b86ca9a8ea9788bb9e99ea8abcca8cb9cd695fc7a89a97b8bdbd586be9b89b789a58b
col29:   b896ab3c798787687c8767aa89787bab79d9b8dac89f789adb99a88e886789b99bb8969a78b88674
col30:   d8b8956b78b8c9acb8a799c7ab8bbdc9ac978b69ca8db9a96fbbcbdcaab68b9cc76cba755c7aa679
col31:   8879b59888656a9bba28cab9bbc9a9d9cc798c8efd9c5a7af7a4cabbb786cb98c96989d879967679
col32:   7c5788aa8a68aaec8ab65b97bb86dd68bad9aa7f8aaaec9faad98bbbd98da7abbaae8a69c7a88859
col33:   b96c974a894696999b99ab49bdbda8898e7caa9bc674dc8acebda9898abba7e9a91e64a97ba6ab49
col34:   6974aa7b477b8acfccbb9ccab8edcc8c9bacb7fad9cb88aaddebbbc97d87cba689a7c9a8986777a8
col35:   a4867697cc578aa99c77ae6b8acb968c68ccd88788b9b8ad47cc7ba9dd9ab8ba86bc8cf9884dac94
col36:   a8a96aca7a888a58abb969fc9cb9b8d9b8cb8aacac8cb78ed8adba79b97b7ddaac9888ca4aa4aa66
col37:   5876878b78ac88ce9b65bd99cdbabac7bdacc88bdab9ea9aaa8bcedbbbd7acac88bb8678a968546b
col38:   86aabb8b87aaaa8c9a9bbbcaabebace9acbbacc99bdedd98baf899bcb99ed9cbde9a7bdac88b8886
col39:   aa96a89cb96ca5ab9aabb5b9cdb8bdaeca6b9d89eb9ac7b6adbb6a9af9b6ab9867a779a687ab9796
col40:   996895aa766a99eabdfbf9b9dbdc9799a9ddf9a9ababadad9c9aebc9dc8bbb88ba8aa5997559978c
col41:   b58a9878589aac748aabbbc9ddbcabe8daa8d879eabae7ba87a7ecac98d8dbae9d7aa8c663a78baa
col42:   26bb86cb6276eac9ace89988c9aafdede77cbaceed8a9baebec9dbdae98aadc85aca769b8abc8b88
col43:   889cd67a99e783b9ca87a69adf9db9babbbba6acdcc86cadabdeafcbe8ceb6c97bd7898b587977a4
col44:   a99a8799b7da5676987baabfc7ecfbad7a68dab9cce97bacebacdadbda9aab9ab6b8ac87db88d8bb
col45:   b8e779a8a9bb8a7acbaafcb8bccbdcaab9cbba8a7aaaa8cccb9dbbacb8dbb9ba8b7dc9ba8b956cea
col46:   988caa9c9c6a6c89bb9bdbaba8a6aa9dccca989bca8c9adb9ad9fa89bab7dfba78cd3a94dab79a78
col47:   b889e9777936d6a6678ca9acdbabfc9a8efdc9fbabbabab6a9aabbcdb99cab8b9b88b99b9789a778
col48:   977b898568ba849bb8b8bc97bbac87b8ae6cbfd96bbea688bbb9bcbbbbdca8a978a79698b49b89b6
col49:   5886954a8cb98b9899eaaac9b86a99ae6b5ccdacccb98c787ce899acbdb8bbca6abbbc7ba7889688
col50:   c9b889987acba58a568cd899adb9acdbbbd9e7c9abfc9dacd99aca8fcca76d9a7b8b6a9ac4d98a87
col51:   9747478ab5767ac7828663a89bf68c8799797abada6598ac56c9daaa95769a868b66b85867628557
ROC:	 BPix_BpI_SEC2_LYR4_LDR6F_MOD1_ROC12
col00:   f85968584a8539aa886969a8b9c8b8c5a989a9cbca8696caa888896889a9b8556858b3d569443494
col01:   b757b9a588a58ba8a847959a885669bb8a7c89b7aa8697758a765a7a6a78a8c6456836a7a8767848
col02:   985588888569866389b86689976aa9799ab98769ca6bb9aab8c86a8867194587878a5a593bb6b626
col03:   75877688a79699b7a574a8ab8776536a69a86a67baa368799bb775c99666a7a37657778746665869
col04:   778a76877578a798b99aab595888989c8ba8d8aa689b868688669895b9969b868a7588a236595998
col05:   756745766a69988886726b8a66886adb8767aa8ac7466999876a67c87c6757875c65618688488676
col06:   a696684899868ca88a997dc666a9acbba968a87968998b8ac9ab879aabc96b7859a56b686b998299
col07:   866588849c46969955878879cd97a87aa567a996a68d9879d6a7837cc87586b9bb4a5aa755687677
col08:   77bb87aa7976774a87676879cab99a798a899ac9798978b87b89b9b87a878b599a76a86a7543b675
col09:   778a6c7986999a9aa849a7aa99abba9aca993e897a979a85c78a9777758a96a37a575a5843523632
col10:   5bac589787976caaca69b59ab8c779a78baa796ba6aa8a868354c86bc6695aa46677468475847789
col11:   57b99976398a68475b8abd85987b8769787698948a7895b69a47795598d9a8994636a65671568645
col12:   5a6a87ab9777b688636a969b7b8a799a77467a7ba66a9ac8966c587696b9797568c76438747a5686
col13:   698b7348aba7b857cea8b65a7c8c7a886765bba9b9678ac6838b565678c8a886755578596827a849
col14:   487689a76845758998879a7d89a6983997aa8aaa99878885b58ab79a893d5a549957876a98563769
col15:   c3849a695986b98b996597897f87898dd4aaa8398ba69785b6395789ab66a7748757587495863853
col16:   98696a86787b7ad686aa9b9b95787d7589aca9cabaab8d9577b77ab7a7889688a4754b4a87478624
col17:   6966a776878a66ba7aa8869a79ba884978987787877c66c755784bcb87b6a999b575a45762453455
col18:   96778c8879878677ba858a799c874567899886677889c978a6868a89694cb525558359646b635866
col19:   7787c3528953983dc7ab996757d9579aa68965697c9a76a468a75698acc76476a3259675a6369667
col20:   768b78aa8788aa5c9656a48596d95a699a9c64a7698aa59759998866a77794764b45646456343476
col21:   3a87796a97577ba8aa7b8889b8a79bab7a99777acca978a976bc8687798697a777aa54766a3a6754
col22:   c669a699566898728869aab9a9969a9c59799bac99b7974873a854daa5b6a4b89768559566669674
col23:   8687857586468578a37666777a7b569ac9a688a9748a57895a8a496d698b54884738874997653875
col24:   55a6754996856596b77abb9778ab9b3c3b7b49b9abb8b79aa689a8d7784794748485c67943446866
col25:   6a87787699b9858a5b59b85a6689aaa8a69ab6b59b7687a7796b9699989a6d737788957b67658875
col26:   9a8b8a7a79a6999edc897aaae6aeb8bb9c977cbc87aa99698c9b599668966a9989b7466868777436
col27:   d8487a857e7ab9997aaa94689a54869ac9b97c9cbbab9b8898db85ca76a759b5677887b9a244a276
col28:   8786a9997bcba878a97adcb7677ab899aa9bc6998887b9bab8c9bdbadc99a89bb7ccc4aa8b6e8966
col29:   bc788766baa9786678fb97bada88aba9988aa98c9a98a3aa692bbb799969bdc57569aa698669a654
col30:   876cb89598859a8cc7bbacdba6a88b9d89acca8a6b88a8968e88aabdb879788687668b6566988688
col31:   b779988967a7ec7a587dbcbdcdada8dd87f89ac79d98d9cbb9ccc59acaba78b6b65bba6346a3a657
col32:   a69ac77b778ab9ddfbab67c8a9cbbcacbb79bacbaabedbdac7b8b99bb9aba97687789a7a8987463a
col33:   9b5b69ca8987899adb8b67c888d69ac7addbadd9aacc9bb7abbcd6ab9c8a67b87ab4688b69798763
col34:   9995cabab7b8dba7eabd7ab9cc9977bbca9ce69a8bd8db9bba8a6b8987a9989ba68baab68ba8a985
col35:   bf8d78c9c9698b8ddbb8bbcada8bbcaddcb8bbaed7dac9978978accbabaa767658829ab97c6c7888
col36:   a7b989bcc8ba7a88bb9b9dabdcacae9a5d6cd8dba8b78cada78cbdc7ac5788eba4cb757566787665
col37:   9ba8ccaaac9c9aa7d8dbaca9ba9bbeb8d899a4fcca99899dace6abba97a898595cc8a9979b9946a8
col38:   c9d9bbadccdb8cfcaababc9ec9dccbdacc9ad9d978babdbc6979a9ec8f69aab9bbaa8bad758767b7
col39:   5497a679ab65aabbcadb8dbcab9ba9aca6b68bd9b9d9869db7a9b898abb97a9c698988ba46969657
col40:   9c899a9ac9acac867a99b9b89ae8de98bc8ccdd9a8ba99bfb8da8b9db5f8ab8e9aaa87859ac37685
col41:   a4477bab6998987a9dccaea9cbabbc9dbdcbccb7a876adb89aacc9988c8688b758a694c6431c7988
col42:   a9cb8c9bcca98c8c94baa9899acc9baaa99ee79cb8becccc9b9bb77cda49ac6a8beca88787976887
col43:   898b767967fcbfada9c99bcbb9cdd8b9cfda5aa988a96b999c99e9b6ae8d8a96baaa788a47659a98
col44:   cbbbaab9c9b99d9fc999eacc88acb8cdcbac8d6aacb9bbcaac89b9b9cca9bb6adb9b87a875496857
col45:   a8987a9688a59599c8cc8bb89c7ccbbcfabdee8caabccad78aaabcbc67bb6ab839996a749b88a675
col46:   9babac787a9ce8bbaeab7eabdd9cbecddc9eaf9cbb67b9b9c8ca98c9bb8aba8ddb97c9876859a998
col47:   7dbd99b79c9aaa9a97c9ba9bbac88ac9daac97cbadc99ccababbc9989ca5ca7998999a97ad798cb3
col48:   a9956ba9abc9aba7bdb8dcd9aebcbabcbb9caa9b9acb8b8b87c9999aa9b99ddb6a979c7bbb68a689
col49:   bc8b987878bbbe8998a9a9d9cbdda9ac8a9ad7a9c69a8ddb96acbca8dc8aab67a9c97766e9a95896
col50:   a98b8c9babca99a6cb8b8cb7adaeaa8ccafc9db8a899bdc8bed88cbae986e6b78a789a88a7496773
col51:   8dc8c82dd779988959a898657948ab989c678a99aa72b889c8ba887da9b7bac977b78a7789659693
ROC:	 BPix_BpI_SEC2_LYR4_LDR6F_MOD1_ROC13
col00:   69996966297b8a785a789a85a9a988b9857769798c99a667b87986768a586949978a448563765788
col01:   c5b798b38859acaa876aab78aa978aba7979d6b89d8797acd6aa4b8989b69b878795986852756765
col02:   d7a697a6858b787a67aa89b797a7b7a79a99c8cb8c9ab9da979678bc679897688278359977966695
col03:   a6a778b6996a7699976bcbab9a999daa8ba9488858799aa7996a6969878879749798878766547751
col04:   b9b85967bbc88b9977a99babd6b988b68c8aadb9a86aaba875948b8798ba79794769956567852567
col05:   686677779877899aa96b9a69e995a8b7767aba97b89988bc98a765886869469b6637775254727553
col06:   68978888886a8b587b88889688d799c9966a989898db66aa697987ab958679b86674683663857944
col07:   8989a7b9cbab887bc99bbacea8cab8ab99bb77a9897a9a879b7998a8979979887653777574866674
col08:   abd969799849a8a5899a98b9899a78adaab87ab9a7ac76b8a9899c8a89a895a968578a7778759563
col09:   96b69889999b5b58ab99a9b98ab8b8897aa9dc77ab788898897abaa778b896548796896966a46474
col10:   7a99aa88798869595c978988a5a9ad7b9abba9aa899898bb76b8a9859cb769696448964995847359
col11:   bbb8ba7888bb9baa98769695985d87469ab9c9a878a5bb99857a89464bab48778958565746344564
col12:   7998a988898997779a87a6897b8888a7798aa8868a799989bab6887976489986644a868389281323
col13:   46884697997c8b899d9a67ab999a8a8cbc98b6799c696887979a994687675a94978a757427956344
col14:   547a889677869ba7c9888b8bb8ba7b8996c8b988887a79899b5a898ac857a989756575a565759577
col15:   9a8a9b5578a879d87aa57aa8aaa886889d7ca88889ba8867ab9b887d86b798948885568535344554
col16:   398a6868a8b9699875886b9a8ca9696a7adb879ab8b6688997696687b568789a5a77565438486684
col17:   8b277a77676989848b8aa7a6888b8eaba6959a87a8a7967c777847867795b4586637655665825513
col18:   698889657a986a6b9bba965987898a8858ba93aa777a8797ab876a79769798596545863646576525
col19:   6688779b8788cb58886798658ac77a88789a969b87caa7999a77a977869877888656865677833873
col20:   98968a87b95778979a689779778a98aba989a69aa569878a9888a9b7b59878a75577846675827465
col21:   896787777678a8999c98a7c9bacad8a97a6aaa9aaa66a66ba676a784778a86668995876756551552
col22:   b79759a99787a9cb99bcaaa7b77799c869897868a9a8a8b7ca87c6a8575645685668677857321556
col23:   587a5789c675b6b58887a7a57a79a9a65a85a9598a67789687689757b56677547456662144464465
col24:   88a6a95a7ba8b988976a79c7a9bbb88bbd6aaa96a996688876848658a59766746793457579526452
col25:   6a96a5899a98bba78caa879ba8689c688899a9abb89cba9935a7679699ba7aa29274559684363883
col26:   99899ca79788a9aeaccb9ba88898dbda9b99798c7ba8978a8b8a8a89797878764c77a6a17777a593
col27:   8aa9998b6a48886b8aac78aaa8888c589b9a769a7ada89a7b9ca8685989879856789668544415679
col28:   aa9999898aab8aac8b776bab9ba9b9cb879a888a99c68ba7c9898a7a8a966a8887987796a6b95746
col29:   9b9bca9b9496a989a6a9a8a997c9a9b86b7cc8bd97acab96858b8a98898ab8767685a66944488427
col30:   988b88d8998c8a99bccb6b767b9c8b97b96979976a99aa6bb55b989ca686847586886668a6565366
col31:   999b9998dabba998cac997a98a99db7aa8dbaaccb997cabbaa789a89698997a78b8b7a6658279445
col32:   9c9acab99998baa99769a7beac98dd9a9bcbccacc9ca798c8a9a89da6a9b6a96928a69c5a8857645
col33:   a9ca9cc9bb96baa6975a9cc98bcb698acb8c7999cbb79a7aa97a9c899879b8aa6b64756789787869
col34:   9cbbaaab6ccba89aaac8ab89bcbb9cb7ac9d79aa9daaa898897ec96a87aa6a859a47c86448679897
col35:   a78b9ca7bc6cb7ad6a979aaaac8a98ab7a8ba7987abaaba997799ba88ab8899567666868ba445756
col36:   99c9baa78bccbdbd799aa99bca958b5ab79acaab6998b787a698ccaa7c987dab86a766a795664763
col37:   988c799c987abcbccbab9aa9bd6cbabbab8b8cca9ea89ab8a9299cab9678c985a6b9578685599665
col38:   8baaacc8dba89c8b9b99cbbcccb8aabaaaae8ab9adad999abb88acb999d889579b99874879574675
col39:   8a9a8bb9888a9bca8aab88b9aa7c9a8bbcbbccd8999789cc848baaaa888769786477887936447457
col40:   acbc98a8a7abacababaaa8b8cd8bacd6bb8d9b8babbaac69abbba756bbaaa8aa8785978677654945
col41:   a7a98adbaa8daa8c9999dbdc9ccbad89ca7ac9a9abcc8acacbc877b87b99a87759a6979577584782
col42:   96b8ba9ba99dcadbd99a9a7cd9a9969a99a9b8ab6aa889bca85777a8988887b999578a4876667679
col43:   8bdcbadaaabbc8ccdb999a8d78bbba8a9bbcabebb9abbb9cb8c86b8c8cb8879baaa499ba87618694
col44:   8babbdccbba7c9cc9da9bdbadccac79bb9a9bb9ccb9abaaab8a99aa878a59a8a6698658798897666
col45:   bcc9999bdaa8b9afaaaedbabbfbd9b99bcadcaa99a97cb9bad9cc989a9ac6b8c67543667a29558a7
col46:   96c9d89e989cbb8bcdd8d9baccaadabbc9bcaba978bba9c8cbb899bdb878ab9786a79956a5887254
col47:   8ca68c9a789bb9badac9dadba7a9cca9c9b9ebd68bc99998ec8a8aa788885689999b788956469957
col48:   baac8a9d7bd4adcbabbe99c9bcbbdc9babbabb878d6b9faab88cb9987a9bbbc8aaa7785678657747
col49:   9ae8a9aba9ac9d9889b9bb9c8ccac498a996cbbbdc8a78babb999cbc68876ba96a775977476a7675
col50:   bc8aa9cca7b6b6b99bbbc89bccb7b9acbaa98caa9b889b98bda9c79a9b9ba8a8868955a88656774a
col51:   8a7a89a9a89c79986b7b8998aa9879a88979b9d8b79a9ab7585cbb64aa69698795856a8363327167
ROC:	 BPix_BpI_SEC2_LYR4_LDR6F_MOD1_ROC14
col00:   8c8d76c7a7b49b89ba8bb8aacaaa889a777a8ca9b797666998497c6598a85876358a536838675534
col01:   a76bb8a9989d7c8aa95babbcabbabc99bc8ccb9b6887a9ab88998a9a6b7886978949965924754552
col02:   6accda8a9cab6ac7b6a98cabb9b8ddcabddcba87b6dbba9a69a998aa89898869955736656773a765
col03:   b7ba8badb8bbc8ab78ab88c8897cba8ac9bba9c9a9abaa4a9798aa7468a86c876978659356858444
col04:   7a98c58b6a8bcb9b6abad8bcb9ccb8a8caacc9c8cc88aab997877857c95b88cb7563a64555955264
col05:   8b99ec8997897798caa9b9aabab6a7c88bbb88c9bb85b3a9687796a9878a78a86497859665738346
col06:   aacaa8899cbc79a89a887ad8ac8897c7a8abb99badb96b776bb6a97278897988566675a578459922
col07:   8a789ba9766a6aba9abba677da98cbc8a78b9b88ab9bbc798897a88b67b887ab5695771485255412
col08:   a7d8e3887876b857b778a97bba9a899ac788c9d9abac9ae78a887abba5aa89978796757724655632
col09:   77bac78c9a8879998b8a995c7a8988b9b7aa8b8ab8897cb876899589799999b68765769576535544
col10:   b8ea7a9878a95dbbc8acbc7ada7ea7bbc796d968879a97a9b889ba9999b68aaa6899855468633a55
col11:   676b9a6b95a8ba8b77a98a996998d68aa97cba7a8799cb89c7a9677aba75b9387644672655656131
col12:   aa8d7987abd8a69897d588bbb78a7a89a7cb8cab6ba9a89da998b883999a39955779a6a755865583
col13:   7c596b9979c687b69898a89769979999a7a6ab8c988798695d545588aa8949887741546974751734
col14:   bb89a69c6aab598aadd9c5b67986a99dca8859899d99769b959a7898666b86754982b75895455752
col15:   7ba97798abc68568989c88ab87bc89a7a9999b6869897aa8cac8a5a7a59753656675557495363334
col16:   7ab79ba78b8baacc9b78a99aa729ab7ca698aac99a99a7bd787b88b79966a8aa679147a88445a93a
col17:   aaad99a897489584a87aa99998958bb769889b49b7856499849849a7978864975556887666283433
col18:   8a7b99b9cb9d989977989a89998b96aac6895b78798c67dca5bb869ba67985566867774249527467
col19:   6788baa776989b8688c998476895cb9a9b6788a997c688749969b87789774397b493667354513223
col20:   b7b77c6aa98799baac799997d7b8aa9b8a6988a996896797586577a8888543485437448343663144
col21:   9999aa779cb6c8978898a888876a58697874c998aaa8b98a8ab79977588a46746263442496243464
col22:   87aa9775a9b8c8c8c6785b85ba8b75778a8789a5899ba6637497756865988878795a583686545144
col23:   888aaa7a869579a887aa8b89aa5978667a756a779b796a6789943318886878a62323951364351421
col24:   988788c769aa99a9698a697ab94a87998c4598a8999569ca85867764a57887675887156491772415
col25:   4a799399657965799699ca5889589a6956bba97988b5a85888574966747886635542231421541511
col26:   d899b97989b9698abd7dbd8eba8a98bdc99b7bb69998686a889939db7b6688877986191454654353
col27:   a596766a9e9888c7a694c5b7bba67887a8aba9ab8b8a78ca88799a77488775655575556542546414
col28:   88b7ba79b9a99b99ac87aacaab9a9a9a9c999c6664ab9aaa57a9a489b46685782669688655457772
col29:   99956a8a678787b7898797976b6da9ea9aabab7a897ba76a98866778386689737534a35153345712
col30:   b998ba57a88a59c9b999babaa89a89cb99aab789ac489b99797979857997866894874276735394a8
col31:   8857789787ab999db7aa7b98986b999aba9a9698b78aa8b6d966848b9a8998595681745376444525
col32:   a9b9ac7a87779ab99ca9878ab7bc8d9887baa8bc7868cbca87678896abaa95796532752812564455
col33:   a9779989b4b896da98a999a975cba8be89b89a769a9bd78ca797987b78599696686569b546213842
col34:   7c99979c7b98bb9d7b8a887bc9c7996baac6b9d88aaa6779b859c859546b6a766577567b56356683
col35:   bad88a9886986c8876cabaa96ba8c7a99967b88c989abad798887587587697567581546576454253
col36:   9ba879a9ca9aa6a6947ba7b8977a8bc684c96d795b74b8887699a9b8952875678695666362849457
col37:   977a97ac6999675a669c9a9b6b999ab57b88a887789a979bb7bbb7a6995529967697675546458711
col38:   9769b99b99abaa9aabbaf99c6acc88b9ba9998bc7bb9baab8e7ba9b9aa67b7878678159955183211
col39:   ac588c8ad9696cb5a7499a79b898978687a5b99a977a89aaa796a768686577788367767562552676
col40:   e98768ba897a8b9cabcaabc7cb9c99b9694aa9aab97b9ba9978bbccaa88868aa8668a68867738445
col41:   898899a6856699897b889869a687a9aa6a89c8bb8a8699a88686c6a988a685688867755763446654
col42:   779c9889789d89b8898a58a6c988ceca6d8876996a99999b78b7978b666776869656986585455431
col43:   9aa89bacaa975889a98797887a9989699b979a79879679b894b6b8776977a9965555875524551433
col44:   698aa89bc7b8a98acae98b9b99a99aabac886869789ba5bb8698a988a675988aa6486a7168555261
col45:   9497bc8c797bb79697ba7b79a99a9769aa8a979a77d746b778999937696768866558554584354663
col46:   89b6ad99a9a8a8b9898aa9c88bb888dc95cc5ca998779cbb969a89aa76769738a7675a7199565352
col47:   a8578887996956b78aba66b77b7ca7d69ba799b7a968697587c9b88668769b684576966347546461
col48:   8c98a8a9ba779aac87d9ba98ac9aad89a9c9986c8699a977758c646b8bb9569416765b5793566833
col49:   889bb69477978896999a68a6a9aa9ba679aa86ac859686b88988a6b987696a957a66483575756442
col50:   996aaa96abab689979879a968bac898aac5cc9969ca87a6678aab8c94478b9948977853835556322
col51:   574778666763a4656768499569755967a69785667765545554647566a37463576547567553245155
ROC:	 BPix_BpI_SEC2_LYR4_LDR6F_MOD1_ROC15
col00:   113675652646368544494647658453a7a27567775594786257834559555563486545318224444432
col01:   733416356499696775657464656387736636655479796a562573964845658466355687357a861666
col02:   75448453363754483a76a26878744498555b78a6488976676987998774551a748487637573886645
col03:   8451575455396168246779b3697777455a68988877a583664769634586567b793566668645774873
col04:   79723477839845789338468a998786886866766558ba578752486548665477781855776675759777
col05:   3357543686654766373837a6787777988756975b934696771c8338a4168792686629b45646543475
col06:   4965535548746134645926949a9767959997577373434899b88aa5a572946695a377285457457954
col07:   573648294857646378686755597784946aa57567779778598b7476698c71b82979b7846836656346
col08:   674852421436857789696a748566867785655483b5967778887a98767575864aa834969856652892
col09:   55681755756523757687a686566856787a8a687b877879667b8575572b6616487769775286766665
col10:   7655434548644665868c47968995778b6586998844a7766887797849988537759856778764839867
col11:   75564969664684756795767b48566575a49984797646587848679a97695496569785876638684655
col12:   3473842777364768468767436666a59799557988989656578a976735858775588575573978616483
col13:   3538365334766654676736a5956584517564978a6a67766ca5a586967878a1ba78466a75a6987746
col14:   63565773297535a49a65668a75876989897738c67667a6866575b66a97a4757668967986826a8884
col15:   6567755759672b5471876685677468877a779467a783989a797747786777986677a9866767978746
col16:   923154664646596768656888977554686587959886768c89375955b5467937768797677784587766
col17:   55373538255576558849666868889578786836988587887776a866878978998866576a5976967645
col18:   847626945532278575576547794975b876688b8679a6667297484864693865658657984777663756
col19:   845795536247695345a7584688a99767aa878395997877699ba478266a396743aa88767658655779
col20:   48459466954486655875595657997bb5798a9347a5d747867697965a6968474a647767a669a77772
col21:   444647768784876578a595587a876873778849563975948758798a65666a9654868696a7a7686589
col22:   433625851658695383275554755433a47678b57594968785695a9586976463a567967587688b8779
col23:   548a4665535758376837456855689258787767869955795868797c96a45689765583666666489849
col24:   63466356634a764774874586357883773345888a649976a7767a78857ca568437767878556671776
col25:   735655a386554777a8884aa9b16647847998b986696aa57aa95bc9989569696c7877858889967757
col26:   c365867496579754689a7a659895ba856587b8aaa8967a759767898a8c87ab87867998864ab6c989
col27:   2446755539a84489a475a978656b7869a777b7686a887bb57b84a86599a9ca98866c77766459aa65
col28:   76757868385578768877984879aa6797a86a77a86a9aaa969a8456977a69986b9749bb874a76859a
col29:   5676635874777488858978567777a986b59a887b9d49ba789a89858c965979bc4b987b9b655ba777
col30:   653662697945455b27a6aa79a7699898886998a7a87aa6b7c6b9568898a5a88ab9a5778a87c6777a
col31:   45964996a686a59b38aa98999899698868b6a997aa9899868987987c969a68aa88977ada7a87a9b8
col32:   556458857479a847489666b8c989a797b7679d99698795cbb997baaac897b8a6baa868b789ead9a9
col33:   4463b667978568477a8774a53588aab976b6ba86a9b8a749cda98a938ab887c9d86c99854ab899a7
col34:   6477b778bc4a95678686bc8ab64b9899c888867a99d87c9be8c7a7a998a9baca79e989aadbc98bac
col35:   8746557736776656688657ba6779aa86a89ac76a4aa8995888479b8a7b9ac56759c9998b7a96b7a6
col36:   77884779493879758979b595b8b9967ae5aba889689b8b6aaaa8a99a798a8964a97659988699a9d9
col37:   843a87695b6298b836c988b588756c59c5599b679787a75876b77688b599b7b679659a48b9a9b988
col38:   48756586a64895664ab7a79577789888b789998bc9c995786b9a5c97c9899da89b9da7b9a899caa6
col39:   89894858958978697b877977798b89788a7a998978b7ba6799b868a9aa89cab9889a7ba688885a78
col40:   9943377393b6978699776886ab97b68aaac778b85794a88a9388987a89789c9fb899c898ad7369ba
col41:   5687557885ac999698b9a9a5bb84aaba868999c78a896a7aa7c7c869b5a98bb8a7ccd98aa98a99a9
col42:   6157712667829687da747894693b9b987b8aba89a6d9a85a79869989689ab9da996b7996aac99a9a
col43:   9449966449b97778789697b97a8ab8a9989a78a7a5da79a899b87aab97a69898a9aa7a6ec88bdb67
col44:   655626585969779578568cac88886a787a758baa89999ac7b98bb8b8b68689e886ab8baab8b77797
col45:   56755358868965a869986498c68776b98778a79787a76899b79bd8779b9b8a999c97cd667bda7886
col46:   5486368868a99499668669886a97889a95878a9989b86c95b8cb96abbbba85da78a768d99a98a6a7
col47:   976697757a6776894a59689989a9b6779b8c5c56aab7796aa89b8bd8a9c987b8c69ba5a98ab66a86
col48:   764a6788b697888987678787a988bb579bcb8b8a7ad79dc98ba9a9caacacbb7cba9bcbb68b89babb
col49:   515977745766788798649b9b8579799d87ac8a9b896889daab8b9aa8689ab5d9aad8b9a986afa8b7
col50:   36268864697648a95879c9989899ba8b98988caa5ab9856aa89cdbc68ecb8b89bbb9c9c9897bcaaa
col51:   63388949445836a665656674a68778799a55773646588678679566697ca6b9b8798a7b68bbab8789
