ROC:	 BPix_BpI_SEC1_LYR1_LDR1F_MOD3_ROC0
col00:   b97f6aacb8adffdecc7dbadfdbdbfd8deeffefafeeecceeffbdcbaefddfefefebacfeecbbddcafbe
col01:   b6b586546459d86a889778a7635788975889d7a999da7dda996899bc7b7378759888b546b8b9caaf
col02:   6245968572626774a639b757ac988bc18baa9d6ad69b886b9b6aabaaa989779587a6c38985467d9c
col03:   b35683488356665679966a64688a48ba779bc96979abb8aa87a9b8b68a97599a9a7bbb9ba4a9c86f
col04:   d83356a57428785b736aa76787bb7c7aa866abc6bc8aaca7b6a99c796daca8dbca83979b8699979f
col05:   b5886a6745986788965728378abd686b58ab896994869a7b8b6bf94ada995a9aa9b9d8969999a89f
col06:   d77789979698596a99768bacab79a89aad868aacb8986a9588b9d8b9b789aa99ca8f9964c969dab9
col07:   675584676656577866a97768699bc56baba9a8aac989886ac9babbafd9ac97a6c9aca5a7b494468d
col08:   94633695788c7778845617899b9869b67a7888ab79b978bbabb89799aac9387aaa9957759b587867
col09:   8843696998b6899469a6675e6b93d99d9679daabac9ad9cbaca76cb99ab8a84a7b7c999b3897987c
col10:   9277b3777b9a7a8578b8c98c9958bb8b996898b8b7973bb879ba63dfe6c5b9ab9a8cc8a57596898e
col11:   c399675a77967456a597688acc7aaae9cbbda87cbabb96c6c7f88999f98b779799a69986799bacae
col12:   67b8695445b8455568777b6941a7cb186bae88577c88bddcbfa779aaafbaecba86ce6889ad6e957b
col13:   977a888c85b59a7b7a6a8868c778b79ab8896ac879569bdeb9a8b9dc78abba97ccaa96a868a49a6e
col14:   c579993a62784499a335978a879758d6bb6d7ae9dc789abc6ca89a9bed9ab5acb9978978aa87a67f
col15:   e947476698535887895caa7968996e5a86b8598b7aca7a89bbb8a989dcbbcb87c8e9a96b879867bb
col16:   95668773544c66878b6b99785a46aa89c8ae9999888965b5ac6c6afecdd89c8b69b9ad778587679c
col17:   c266366522b5598457279ca89ab88b49787bcccd99b8cadcbbada96a9aa7baefda69779bad8c887e
col18:   d9a868799a386768847888585ca89c886c789bacbdbc8b9b9ce8bb8a9889b8cbc9b7c9ac9bac8a9b
col19:   976b8875667665657978b56aaa9b976a6999b9aca7c69a8b8bbcaf5adabbd899b6da6c9bbaaba59e
col20:   c366874a94777698476c9ab5cc9b996968676c7ab88a8b7d9a7b4bbc97b8768cb7cd7d59d7598a6f
col21:   e6a683a79735b88567d7a88b687a877a8aaaa9b977bda8849acb788b87aa8bd65ace9aa9c8d39888
col22:   b8467935867688968a643a5d99b8987b8aca98f99b879aab8add6ba66ec7ba877b88aae49978837c
col23:   68b37996473c9a56436586d86888b689a956b79bbb9a59ba9ba8cac697b97c899b96aa9bab7da86c
col24:   c46847964869a76b66677db6a7977ba5984c7999bbbaaa9db9abe7b7d48cca88acb986a9ba57b99f
col25:   c7274a985b677945976677a4799aca47da696bd98b8db7ea8bb9acdaa9aebcaed999878ebb5899af
col26:   d778894574aa8b876684b8f889b8d9888ba8c7abb7aab9a4b79cdccdb5cacadcc8abb9862eb8daaf
col27:   b79da6492c989898aa5476a7ba5b9a58caccabcbb9da9bbbba6bcfecfadc97aac98bcabdacba9abf
col28:   d98b838b5663b79c9575ab8b88cabf8b9b884b6badbaa9ea67abbba8d9aabcaa989cba9769b77c7e
col29:   dc978aa7576478a8b7ba91859bac7cb97ddebbcabcec998ecc99c8baadf9cac9abb9cba6ccebaa9f
col30:   c57673869798a787979c7976eaabbacbab7c89aecacb8bbbba9fccc9cec5e9cc77cd9fad9ccba69f
col31:   e566a867b4589873898bba96ccaadbbdbb79778a8ca8bc7badbb9c8ab6e896abcabcc79bf7b8ab8e
col32:   d86c5489686b4886b89b6cab7c7ddeac9bbfc86aba9989b67c668ac8ac6cd999c97a593ad3c8e9de
col33:   e8a47a8aa6596578a59888da8a9dcb69b7ef89cb9a9b88f699b96aabd78babdca9cabb9a788aaabf
col34:   e68c7749743459a88787b8c99c9bb7488e7ddfbcab6bb7c9dcc9c88c9c77ecbb989ca998cab8689b
col35:   e7489869469ab667957c9bc876885c7dba8d9779aa9cdb969abacbdbb89a8aaad88ba6ba9ad9c78e
col36:   a3857966444c8898ad6886cb6cc7aabc97a887b8bc8db6a9adbadbdbeed9ab6aa8aac4a7ba6a88af
col37:   b64736aab98b8ab675886b98799c77cb999ae99bcaccbbd968b8accaab699aab9aacadaa4da57b9d
col38:   e696bb9a954b7979b686ca989b993b65917db97abbb9c98767b9ccdd8ac98b99b8cba99c77b9a9bd
col39:   9e999af48928b47aa97b9b8b77986898da99b99d7abcdebecdabc87abcf98cbadcb9eeacbadd9d9f
col40:   e8a8b98a6987468979a78876724d879a7bba6aacbaef8989fcbdbc69a95697898a6bc5b8daac989f
col41:   e799765695965b4b9b8b858b9aa38aa8b9ba688baacb76cd8b9bb68abc88ac7cdbbba9c7c8c9c6ec
col42:   f96776b46a79a7a776b4a9ca98aad9a9a77a999a9dadab7ddcba998a979cc8cbbec889dcb9a3758f
col43:   948876c435a858988f9aa856978b75b9da9988aca6b8ceb79cbcbdaac9b8d96acaa7d999a77a9abb
col44:   d5767737459577695db88a99d89b66a699aeada9a8b9b6db9dccbca89fdba98a7eabe7aaa5a8a799
col45:   f866bc79592ca78c379ca46ea697aac7b8a8c7fb9ccab97b8eafb5b8a9c87aaeab9a99a6aca9acec
col46:   98a393868231443968a7775b568a27878a88a5998baac9fdca9bceca7ce86c9bdcdbca8887bbc9ad
col47:   b449a55714686a9c44a68aa8973c78c9a599d7d786b9deceab9e9eebc9b6c99cb9a4c2a9788b997f
col48:   c88aa949646879857677c79b6a79c89ca5ad9bd9c9ebacbaddbefeadbbdadb9b96889cccc979dbcf
col49:   c754856a32842b694a9ba67574a8bbbd9895c9dd878c98dcebaaaa59bd798ba9bdb7ccba88cac6bf
col50:   94569666648a4b8889474ca969798abc99998dafa8ebcb98c9c9c68eaacdab997b7ab99cb7c99acf
col51:   97fe8ceaea9bfe9ce8cdfffdffdcfbdfffaffbeeeffffeffefbfecfeeffcdcffffdcffeffffffede
ROC:	 BPix_BpI_SEC1_LYR1_LDR1F_MOD3_ROC1
col00:   efdea8eccdfbcc9fdeecdbfdceafefdefeecdeeddcedcb8fbe9ffdacaafdbd9a779feda989dd6b88
col01:   c778878768865a558994a7a94bc6885b98a7a74ca78a7999aab6975ac996a7596683669465186369
col02:   874875898c268561598b3b6fc79c896898488bbaa89ab77849687b68488ab768535617852546578a
col03:   b649898762a989a997babba98b6886ca7d9678a7bba8a6a7a668788a89567c3796d88a816775665b
col04:   e8b6b89c95985967659a996a8b69d8b9867aa4b44599b97a967867688866969775866b2476757529
col05:   c5568458a79a3868dab6aab6a77c69f876ab4b8a9e848869bb9aa68796758a79b97977696694376e
col06:   e649559a777a6948699666c89a874a857c6458a57945988768a569346945456d64d766844857485f
col07:   fa7a78a774794999a988aa696aab73966a9aa7ae9669cc7bbaa88669f4db755988c359d3c9775339
col08:   c5698b75a7b7aba5bc8a99a685777878b67694a98536b6ad3478f979775874b55567794869567568
col09:   a62349b47b8a85797899cf9bb999766c88ab89c9bd9a7b5697b9ca8882647759937566a4968474aa
col10:   f67b8757d7663a85a8977d7c879a9acb477989897b9468c7978a5488c6a97678ba8835487783885c
col11:   d649248899aa988bb95aca7ca5c95a685c5b98b8a856aa788a9863839668739a6778976467657586
col12:   e9c6834a88779359d2699a477894587889a88baa69978686746a84496a595784a37a59775932356b
col13:   f9988878668c8ab79977969b9aab69ab8988da969bb36978798aab87b59977679a4ab7a8b64499ba
col14:   d939548777a69c5795955a7a978a76989ba889d76add77979c578779969b74587874356744922238
col15:   8692a9a77a857b7a67aa8a688c498acb6cb98b88db6a9a67998c6646a75a677497749a8435864679
col16:   b87888478b63a58876a77776974864bd8b8899cc898c8a69679467686434867895677657aa132666
col17:   c669696886aa9de5a5a29e985aa7d6babb8c8a8bb696989a7ca999a62965a8988ab596c661619356
col18:   b665764a7979777a974856ab4788b94b76bc8a69799876a875a27677717778648736254a5514547b
col19:   878697947bb4b6c68669896b89ab7a895b6c5a9979da8adac898899b658787a999a69795469a874d
col20:   e9a4756b75667598aa97a87a49a9a7b99a95e6dc9aabb9c5899789877a4658868744b958a824754a
col21:   e589aaba9a59a7eba7b98749b96b798b7b7a58f8a7998dbdaa74e7778997676769a565691854677b
col22:   a785878f98885b9887b86779abab897785da8795ddbcbda869aa896b78b798a77389369613746419
col23:   d9974355775759cb7bb68488686998889b87b76acbc69bbbd9c98548a37c7a57665775778b69585a
col24:   b976977878c786d96c8b7b3b88798a75999a58ac5a9a6a98abca67a989978585b7b575867a85677b
col25:   b87975479875b5c8a7789bda8666a996a99abae7b8d8a98987dcb8ad8a86c9c66a2468a18a889a9b
col26:   f79788ba8a8d99a995aca9abc4ca9b6ab97867ba6b995857a8777c9aaac6982994bda6447a785379
col27:   e88cca5a6979c7c94abb9d898acbbba989bba999dd9ba7aba689baaca689a9da43b886766724865e
col28:   b89c7b76ab5c978cebc89a89a8a95b88c99a9989a8aa46c7a7b6daa8a98b7a88a76c9ca87697863b
col29:   ec6ca68b5b69bb6875b9599789ca99bc85cd8999c9966aac8a8a9ae88a9b4e8b758996b98a3d945f
col30:   ebbcaa789a9a5adaa558db36bcbbdab48857765c5968a25da7767b9db85b9a8779bda78959178778
col31:   eb75889d6be9deaab5acaa9b98c9996c89e98bb698887ba97867a7b7b9aaadcc88ab8ba7b8b98b7d
col32:   9bda87a98cb889bace9ba897c49b9f7c859a7c7daa759595a666bc9b7acac767c999dba91a778b6d
col33:   f58977a8baaca9cbaacd6986bd5dbc9a6cba9adbba78a877979aa899aa85989dac8aa6789aa9a98c
col34:   d8a79579a9aa89b6afbdccc9c68cab9e9bab5788caa5d98a968aa69bdaa9a59b999979d79b7ddd98
col35:   fab57799aabaacb969a99eca95ccc999ef9c91faf89a9c59bab95bcdc9b3a6a57bb9bcbcbec9568c
col36:   f7c8789949c5d6aa6a7db7ab9bac9bbb8a9d7d6c9c3b77bcf9c96b7bd8b96796c9b5b8d8a4a89a6b
col37:   fcbabb68a48d8ecb9a8a996a9789eb7bfcbc8cd95cdd9b9bb978afbb88499a78bcc6ca7798ca5a7e
col38:   bab788be8a6daa7b76e9b75a8ad889bad98dc879d9aaa9c7dc6af8c9d8ca6a788ba486c898c6863c
col39:   e998ad88ac9ba68c6d8964696b7ba89e887aaabc87abadcb9d8ccabe7aada4ca996acc6c76ab868d
col40:   f994a5c97acdbba88b9ada7bacc79bcbbabba76ab8a99af6acbcc8a8caea98aab7b89989d4bb968b
col41:   f99b9c79a5ab77dc9ab9c5a66adb9a9bdcdcbcbd99dc7b8aebdacc8cfababc8979cc8a8bbea8d79c
col42:   fb7aba98989baab8c9697c8e9ca9c7ca3c8babba868e9cb699af7a88a887e87a9c99b8bcaeb98a9b
col43:   fa9b8aabbfd9cc6559b6997c999cadfa7ca99da7abd9abcbfb7abab8799b7acdb678a4cb99c6698b
col44:   fd9ddb9ab9ad76bd6b9ada6a9aaabb6b9cdbae8c9bfb8995d69ab8bdb7ccbdc99d868889b7b774af
col45:   f7adc8cb89cad799ba69a888bcd9b9cbbbeddd88bcdce9bcaadab9c7cba69a9b8aecababd9c9376e
col46:   96a99aa58ceab99bcbbe969d7badab969cbaabda9bbcdf89aacbdaa9ac9b7c7afab8b4ea5a6876ab
col47:   eaa98ebb9eac9aaa9ccbad88babccb68adacdadbabeab7bb9aaacb97a798897db57879abbb98e99f
col48:   d7887a87aabbd4bdaae8b9acc6b8f9adac9bf7da8bd99caca9fc79a5c899879a8966c9a48898478e
col49:   c9b6fa69899beb9dfddaaeccaac9b69dc9e9fb9ec69bdfccccaccdc8cdeb5bda47ae7c76adc5a8ad
col50:   fa5aaabbaf99baad9bab99d99abb5c79a8a9ecd8c9ab89a97ba9abc8fbccad6bb469e959a756b88a
col51:   c9ffcafedffffdfeecffedffffdedcff9efddf9fffdf9fffffdfeeefcffdfefcffeefedfffbadced
ROC:	 BPix_BpI_SEC1_LYR1_LDR1F_MOD3_ROC2
col00:   7889bca96a68897a77678ba7afab9f78a7deee8f889a6e6cafc8bdf6b8da8caba6dbbad878efd6e6
col01:   c5745884587731d688117916d988729542778399866594b5985656672547356776565a975b67c279
col02:   d4b736b4b4595165419277714aa899a6b5865986545669768668e8a767632889848522564475713c
col03:   c6718735537615665847569c545676784575645615361a7682a88593c7686789aa52975715451376
col04:   6863611812a879563679124758767c8657a4564b918a54614b6475858436654497a697696555e686
col05:   c657737554266555b51996bc54649a93c182b975384e1772b874e687b79b84458d38a586619436aa
col06:   a67747a769354396871749588d7a4ca989a648d731967987166175788b99a772862a678957992856
col07:   c55837abb4524786715484775d63877b33a96d947a677352115a15a3991ea2b88528464536b5744f
col08:   b559489ca59b379845462871762555858d865a6a75b7931648963289627a686757c25863b611a65c
col09:   6448b877458568545735756768975aa67839c6c8a6766776bc646b785a4669b4256c9582173aa57a
col10:   f182aa6614973359938b788945939bc88727a9568969542979a947497979a58457377636e6c6499f
col11:   964568c5426b7267639664b35b5a78a5b86cc7a9bb65b759b3d7b6677a5a18642a9884996547a229
col12:   d127a9555912479485273386557797b7766817377679867362548aa7767a858566837675444566af
col13:   a74952723757a45a5886255689a7679b5a659978c46359516b579ab974e5c876397188769558489a
col14:   a516d342332b669592473d864263b8cb681d68b3378848967497779d78f9586676129a4b4729885c
col15:   7816779945717f7388a8a6a43986aeb6b9d949a7bb9a34ba777a4cacc89f8a8d96579992b494977f
col16:   c3195786b874594ac48588a77786965698a98b793797b68c95f58359d77b9894b72a2778655a8baf
col17:   8556248565167b6677cb88476aa7543327761a5b467469c9487b46aa93bc8744386522335e95a389
col18:   9144345899478a58918677a96a91c1758bb4985795694afaad7a475b7786856455c688c57746a18a
col19:   e76b5167c5368c5d5458867577b75897b99715d642365b86349998b56e9388668d8b536645868298
col20:   e77947773369587715e253364b48867d3aca5674716775a486abb5babb8a778d765835a88d91736a
col21:   f865c487586978875c57859446346686876fa7a9866bbad87bb7cd9d868c89b9645ac9a46776659e
col22:   7b395668ab6b49a6756a8779584b79b956aa56a9b9ac3c9778dcdaea6d686a796b57853ba7946537
col23:   a55996a7573b37a8b9566989b795b5c7186598f79bb6ca38886bb69ed495548997c7b5772a258898
col24:   b9696988b949577a565a7676a869669886c9ac858938b77ac8c79b4dc8a574c462876a687267465c
col25:   a569aa74a7a6b3e9937ab96b847785cf9c5ab3698896a8accac7c9b9c978a57c5ca27a95c929352b
col26:   dbd79a9c536b885d8458a377cb9bdab9488a8787a865d4e6bab96cbdbdd997abbf7677ba99ca484f
col27:   f8698975478bd96b66b5c3b8989669c48adc78cccac57a8bb99bb7c9855b4de679b8a68a7aa857c8
col28:   a8434dd795ab1c7adac8685cc845b8b68a5a89568a3a787aa977a993ea779a683aa7765a7cbdba57
col29:   f28869287a7a9496778a465188baee897d6f6ec8bad6c96acbeadd997865d86cbc5ac55bbca8a9ae
col30:   fb86938766a584b7be79569f9b93c877c9b878c6cc689ddeb9a8cafcfbbba28d8dfc7aa79958876d
col31:   e887daaa89b8973e7cb94b99f9bef8cacba85dbc7ba3998e7accff9a7ccebbdfddbffaaa978ead6f
col32:   c79852ac8baba6678349bad9bcabebc8c9cac6bc9eaab3989a98ddafefcddfe9ee6a7d8bc9a8b6be
col33:   e669a4bbbba98fabc89adc6acd9ca8bdfcfd7bce9aca97a4bd88f787b7cfb8c67bfda77cc537e89d
col34:   c95769a7c98596f8b9b977c6c4b79b5faffd6c8a8bb9a87db98edae87acd8bebccc999b67df8dc3a
col35:   c4cd767ba5788a7a9d3ce9b89ed9aacb6b87a99ccfaa9bb9bcbc9febb9d9c7b9c567899bbda5d8ae
col36:   a58b8a4ba88ea96a84a6baa96389aae965988a99a78cfba9aced7aadcaa7acca9cbca5a67c8af9af
col37:   fa98b8188d94a9b576a99ba95799b8afbb699c4bba49dad5a59dcdafed99bab67a9c9ad97a96c88b
col38:   f77aa999e88a997bacaa5b7bb7898dcc9eae958cd99ebd87b7ccaccdd8e686d59b96a6a9aab7cccd
col39:   da6888bb98877478daa9b7c69a79a5ab799d89cc6ccbf9fdfdba8aeffc33c6ccea787aa3b8da8eec
col40:   b6d992c85c75a6a9486bbbc95da969ec79ddd87dbc9daaa5ea7babedbb9fc9fb85bc6df8add78b4f
col41:   959d9996bfd98656766dfb78ccb896eaaccddbcac9aac7cc8fafe7dbdce8799dc96aea9aa95d8aed
col42:   e95a99cabf99a69fb7e7b9b6add68bf9eca689adafcab7cbce6bb9c7dd9bdbb8ac39a67b6ce8d99c
col43:   fc97ba897854ce9a77978fabebc88bafa7dd9bc8ed4f8ffbcdbdfc8bcb9ccbb7a88b9bcdfec8a8af
col44:   d8b7aaac9b788cb9879899d976a5a3fcb8bfb9dd58ce788edfd87aaba6ab9cc9dbdd9dbc799c656f
col45:   a77699a9876a77d459a7bd8eb89dcb4f79c8da69deadacfcada8fbfbc9b7839ab7cfea8f9e5dcc9f
col46:   e59b88e8d5aac9d6aaada9d3d989b7cbdd8ec3baabbbeffcdebfcac8f4dd8cb87d87c7aa9be9d98e
col47:   f947da7ab76a999ba4dc7f7ecaaef8edf97bf7edb9dcc8dbfbe8aae8bea88ef8868cead9897bf5df
col48:   aa7a585aca7cd9dbca9cc7bc8fa9a7c96bb9c79e6aead9daffeda9b5a4a9afaaa7fdca6e6bb3c78c
col49:   f58b9c9a5999c6afa4bfb68d97b9eceeb4dcc9fdbe9c9c9cbadcccbab66ec9c8cfbd899acfaec76f
col50:   f77ac8c7da9cda9c8978f7b4ffdd9cedba89abaed9badda8dbbdedb3cba9ec7fd8bc87479af6c8cf
col51:   9dec8feffdefffcfbffffffe89ffffffccffcfffffffedfedfaffdceffffdffcfdfffebefdaddecf
ROC:	 BPix_BpI_SEC1_LYR1_LDR1F_MOD3_ROC3
col00:   d8f8dec79cdbbccfb7deafffcef9fccefdffedfdbe9efeeefffbdfff8ddfcecdeefdfcc9fdfaacdb
col01:   936978875953c9bc7bb9975bfa73dbacdae88c9c8833a7de46bdbb5a8ca99ab969aaabbb8975a88c
col02:   758b799675446aab877868a9d797a98fa786b69956a899b37a6bcb866b585c795b576673467b255c
col03:   d58867975279498b566a7babab67797a86a66bab8c6e8b7aaa96b95b49447797d94c7aba789b487f
col04:   9994975849388691554a5968a895a9b685c78acb8bbc9dbcdaa7957d87649a5876f86cc786463e8f
col05:   d68865968789778a5b8aa8a6a98f4ac9e6d8b789baa979ebbc96a9a9c2a9b9464aaaab98959c8aaf
col06:   6866a95a7759ab996c2a896ac85adc964bb77a99a66966aacfe89c8a866e35a498a986a978489588
col07:   d69c57ac68a8a2499b8aa19d865aec6c9bac8ef7bbcab88f799ccbadb7b8abc6bbc9aaa974c599bf
col08:   d7b7c295796888a578d76c68b79977c6848c98bc869b9bdcab8a8bcababaab98c36597569cb6a938
col09:   dc58a8a9628a85a819c59a94896cdcd7bcbbb6b8adde7caab9cafa9bc7beada99276aa2749b99a7d
col10:   f915c9b69bc85966877bb6b7e87acebac998af8db4c977a89a6d9a7cbc6a96688755b88ab6a2566f
col11:   f468b8788649b4967b969b7879cc967ce9cc7cca6a99ad7b6bb8a9ba8897cda82875c6ccc7a3b69c
col12:   eb36a46a6595a8626beaa49898a6f67796abd83878ccab4abc9beb8a678a9ab7c8a59995826a958d
col13:   77675c798cc3445a77b899ae798c88be99aca9dca8f968adfbbdddddaa9b67e8b786bc9b796983dc
col14:   c92a6a6873546a97965a6bd997b267b9a3cca789db75989b89eadbfc86ba5da7a7ecb9ad438c7898
col15:   e91bdba655ba6a87889b7a2eaa8878bbaafcaa9adbc8bc975bcb84e7ffeabbdb69b98c7767355abc
col16:   c4c87c8942498cb8976867bb59689a95b858c8a68b9cca8aaaa7fb7df5af8799bc6998968c87a38a
col17:   c9b468a874b753a8a96b8af8c6bcfe96c87a8c6a7aafafbaced9bbcabbcda7bb8ea8599c9686b6a7
col18:   d5584e87c7a6c7a79ea9cde4cb957b7887babaa897a9ca99bab9a648abbdb95cab94796ab6749bcd
col19:   ea767a85a88a889c9e5a9bbaaae5ea8ad9beb6a98537addbfccea9d995a9a7779cedb95b7bc9cabf
col20:   d93555177b89769e94597a878bab6a8bbb9cb75b96899bbccefd9988b8bba6593b67b8d8b8986d3c
col21:   8c4b7a47689b8b759846787c978b9d6b88ea8697bb69cac867bddcdd8bb999d98e887a7aeaec3989
col22:   d96872664648586bc99ca588bb9ccb75a9dabb9d94efc59689eabbc5ace89796c8b7b584489c979f
col23:   ba6499694679785977c9989a5b9aedada8299aa9dcd66cbba9ab876a8adbc8ba799988ba78bba89e
col24:   b757249796a672a6a997aab86958acdb466bd9a7bbe56b977d8a97999bab9965c89fa56d98dada9f
col25:   d8ad8afb95a95d7798889988c889afb8789ad7a9fecdb6accd9af9cadcedbeaaca586dc799a8b787
col26:   a96795b74c78bcca3a6acc9a9a78cc97c98bf9cbca8eb9f6c5a8abfb4c98e979b68bb9dbda554c1f
col27:   d9ba655ba959a8aec99bcf9d7cccdfaaaeab9bdb5dcc9799ad4a99bb8facc8cb76ae97fd949e878a
col28:   fbb9b48798ca6a9693aa88fcc7befbac9cbb88f7c99edb9783b6ab99bced67fe8cb79c17c8ba7aca
col29:   fb7aca9a998c8a6eb55d947dbe6edcadbafafccefcf7ebaa8ebfdbbbfae8cdac9fd8d9adbcab8dac
col30:   f47e87fcaaa79b877bc897bbfdafbbdadada87acff8c688b8abccaa8dce97989cc9d9866f7597a6c
col31:   d876a89c77adeae7eeccdabbfbfcbebebdc8bebcaeecbabcc8ddefadb6bcdeb9da65b7c9cce97aaf
col32:   c5a86a986a8797a67caea8cafa8cc56bb6c7fabcb9897c7ba9ccc9aedbdc8a789da999bb7aab8889
col33:   a6678b586c7f7aaba76a99d89f7deefdcddc9cff87caeadbbfdddcc9fbcacac5baa758da6f8ab98c
col34:   e7c7564698ca8786a6d8b9bfc8ddaca86bab7d9afabaa9d8886eb9cabbb8aaaaa66d9aa7d99ab9ab
col35:   d6bb98c76a4bac6687b7bb9caf8ebfacbbc98acb9cedba8dadfcdbf9cacaeecfcdc8ca66e6aba76e
col36:   a7ba9a6675bbbbc8ad6687cfd8aecbe9eaa9bacd787bbacbf9fdbade89a67b7c5987b8aa778dabbf
col37:   87aabbb788faeca8a8dbad6c7fb99f9cdfcb8bdbde9bd7d7ba7adabdadaeacad878ffbfcb7adc2bf
col38:   e54687e96ab8f79bbacacbbe8988b69a69c9bbbcea7f8cef9798dbee9ea7b978b7c57b99bb6ddc7c
col39:   efccf9bd9e7dabc59addb98afbeda8bb7cadadbbbecfdcbee99c9a89cb9adada38b9dabf99c4d9df
col40:   f788999997dc8cdd77887c98799b8adab699c9dbbbda9dfabdb7c8aa99eacbccb9aab7bb9c899a8f
col41:   f97a697e8d98d6cadcaa8ab8ddce6cadbabedaeddcb9b5bbddbdc8caae9edbb7fdfdcffabdeddcdf
col42:   fdd88bb9bc98b88c687bb9c8abddfef9feecc9acedafc8eb9dbcd9ea988aa8dae87ea8daafdcbfdc
col43:   fccd7eca58ab48bba9ab9abadcafbafa7edbdc8dadccab9bf4cfebabadfcaafac9fbe9cbc8baabdf
col44:   fa89cca876bc2b3b98b7a41a678f9ab1eb8bdaf7ca6a8cac7ddeaae7a8be9dbf99c8e75bfcc68a7f
col45:   a9b79ab8b88d5765b77accadd9ccdfaeb7affdeffdb3b8bbeebcfcbcebe9bbcbde9a9be8ba8ce6ff
col46:   b5955bd68799ac9cba98e8c98cddce7ae9e8cef8eff8bfacecc9ed9eddb9e78ea3abaaf78fbbbba7
col47:   f9d668b9a9a98aa9c8bb9acb8b689e9dfde6bf8bba9b9cec4ebbefdfcdabf8b8db9dfabcc99b8a8f
col48:   fcd9cc9abac9bd5db9d9ad8eea4bb8aba7dcbabaacbfcbaefffcddeab9bbc99ddbfcedbacab9aabe
col49:   ebc7ac27ecca7aa8ceacadaefacd9ca9cbbed9dcf9dadab9d9a9eefd9aadffb6ceebcaaacbcb8dcf
col50:   f92cbfa86ace8c9e8c9cc9d6cae9ea97cdababf9bd7acd9cbdbcd6fceac6b9ebb97dbf79bccad9ba
col51:   dfcffffcdccf7deddfeecedfdfffffdfffffdffffffffffffffffdfffffefdffffffbfffffffeede
ROC:	 BPix_BpI_SEC1_LYR1_LDR1F_MOD3_ROC12
col00:   d8fe6ab6bcabfcdeeaaeffcff7ebfcfeddebdddfbfcdffefffffcefdeefcffffeedcfdbafefdbef6
col01:   865b6a767557679a7467997bc8995c99914ac9c99dbab8ec5bdcccea8af99a68ca77a6dc9879b8db
col02:   c58a66a5c8a773c77b788897b8ab3babba8db79dc87bc6b9bb99aca9bb7ba989beb9975b8688a9af
col03:   f39893b897674c887a6b5b5c8db4a8bb779c5aaa5cccbddfa7cc96dbca8a88abcef678c5bb9b96bd
col04:   9948be76aa7988c9859a6b79a8d88c9aaa8b4cc8d7d7c9bd69abcdbbebca979beabac8d9de9c6cac
col05:   ba58679a5aa534bbcca7a9a5bc68789a6977977acaca5baced88c9a9bc8a89bb8c76977ca7ae7998
col06:   e8c835a6637878aa57a4a95fd744b96c6d7a9b9d8b9b98c9ccab8ccb9b9cccba8b89a979ddb6967c
col07:   f797999b66c3988a75657a69dacb5bb59b7bababc8b8fc8bccab78b9cd89c9779ba689695b76665f
col08:   eab89b877897a77596ab4a968dcabb9aac9cbeebde9d89a8cc9fb9ccb7a9a7dcde9eaa9b9979a5ed
col09:   b957696669715b9a7e68678c779a9ab78c8d968a8caa98cd99c8cbcdb88998c988b9686c887aad9b
col10:   a89655a787c9697b7a5988dc76cbbcbad898ddcd979abb78989c3bacba8aa69caaba7987687a798f
col11:   cb58584587a85876a9a668ab8698b7a9bc97cbea889ba8cbc98bdada87cca7c5ac77ab98a8768a79
col12:   d467a496618a76c5ba96a69887879bb98c8bae678aacb8bccaabb54a99b9ab8fe9bab3cdaa9979cc
col13:   db695ab8429969b58796b989a788c975778487baaca99a6abcaac99aceca35cc8769999965797a7f
col14:   b8778975949a99677aac73667459787aadbc9af6a879caba9eaa9dbbacacc58ac8dac858a8a67bcd
col15:   fa44a7b789577555a576a76c85c889999a7bcb8ccbabe8bab6c7e59edbebd7b8dc86973a97a8a769
col16:   a898b779479639d2878879b6867767b958aaa89cbdaace9797cca8999deaa9ac77cc9fa8a998d97b
col17:   946878a8787a39a3b6ab8578c9b768787aad7aa8dbadbbd89cba99d79abac9a97a78a985a887798a
col18:   66768948896879a689cb695a7bac78669ca5add99b9cae96e8dbc76969ecca69acdb7aad9897766f
col19:   d588b964634c9aa98788779aa6acb6bbbbb77bc68ceacbabbbdc9baac7cbbabca9b99e5bcabb59ae
col20:   b687bb375a646594a799a741bb8b867b9aa8ad58a8bc9acdb8bb887aaa6c97acbebbb799b8c675bf
col21:   d5345b78c5266a6628a67987a9995865bbcbdb899a8c9c997bccf98798bba6cabe95867a8a99799d
col22:   f6796979c7a8aa5a899d987ab8c9a7bbb9cc9bcbdbec8adb97cfe9c69afcdaec89baa97898a66b6c
col23:   f7b8466b897648c8738bcb9a97a886cedb789ba979da9cd63d9999a91be989b5878b9999997b895b
col24:   a878a8868a76cb6a779a8abd6d9b9a877a98aa7ccfb798baad8abd8accaaacaca87da538ed9d9eaf
col25:   a75889467ba6cd855a97c9b7bb99b9ca9c97bbba986eeccaa6bba9bac98cf8ae7999a7889bcab89f
col26:   a879778987bb867b97cb9b577cc9db969a758cacca8adab9f7ffcbc9fb79a8fd7c98a8ca96986a7e
col27:   dca8a7cc699756686499adaaa9dc8bd87e979a9c6cbadcdb6a9baa9ecc8aaedd9cafc8a8b9a7c79e
col28:   fca58a9a79bbb978579c8bda9dcdcdb9c8ba8e99dbbacbcadb7fb9c7c9adab7cd999a978b8ccb86f
col29:   fc64934ab7b668aa8999988f9b9a9c6cbabaa9b6bcc6b98c9b9899dbbadab96ddde898c9bbeac97b
col30:   dbdb9b8a79d86c9c979cd88bfcd6cbaa9b8bbaaae8f7aac8dacbdbacbbbcb87aadbaf87589c9bbad
col31:   e87a886769c576ac6cba88daccbddeccadaf7babbbae9cbacbfdad8c95ac8aec7adbb99a98adcdae
col32:   b79db8987c89858597d8d9c9cd7fcfeadf98bc89bc8bcd88baecba977d99cddb87bc9b9abbaa8a8d
col33:   edb578b98a878a97aaadabbc8f9bac88bbe8db89a7ecc78dcdea8cca99a95ccc9787768abb6babef
col34:   aada7888ba66986cdb99eaec9deb9919cb9b8bdadd9aabaaecaada8ad9a78ba8ababbea786b5daaf
col35:   d9588e98bb779aaa9bc6c5c98bab79dbb4cbb8494bbb9cbd9d79cca8ba749a8d8bc968bc888bcaac
col36:   ab87a7ca8787b98ca9adccb8abbbba8cf98d89fbb6eadbcda7be789d8dbaabdabab8f6aceb9dbbaf
col37:   d8dc59d9c98a7cbcff9abadb7b9ac9698797cdfbda8abdfc98ebcccce9dfb6ab8a99b9beba87cadf
col38:   b9488a789ab7a97ba8ca9acab9d7fabe969cacbaadd99aad67a9aaa9a78a9ca96779ba9a8aa9c69f
col39:   aa77cbd7ba7a9addbda6cf69cd894edc45c7b89bede88ceccc9ab9dab98bdddbf3be9bb898fbbd5d
col40:   f8989ac79b8b9769b6b89a98cab7ccd598cdfbcac89c9acbbdaccabbccca6ad9b57d8b9e7e688ddf
col41:   f33ab5748a94565b785bcbabababb8dcd9b96ac9b97c7bc869d8a69bbba8b6888998ca9bdccbba8e
col42:   a7a99aa68bb8b6c797a9cc88a6ee9daa9ac9eb9bcbdbc9cabeda8cabc7daaceed8bbbaaac4cb8d5c
col43:   ebda6887767785b69bb98ba8b67cab899b99b9bac7ab978aaddb99cabab9cbc99d89caba69aaa74b
col44:   9ab9b777cab89388a86c97ba8ab9cbcdcdbdc7cafaab7fc7bba7b6e9c8ca976bc7ba8b66a9c967be
col45:   8b595578687a5e888977cabcbb9bd95cbbd9a7bc9eced99fbaa8cc9b898bc986a4a9cb89967578bf
col46:   f4caa9bc65798476c978cadabcb9779aacbb9b7cdad7a9bddaaadccab7ba5988876b7a4987a8cc8e
col47:   8454872735577787a598a959abaa8976a9eebadba9dcfac7eaccf9b9eaaa9daea769bba69aaa9aac
col48:   b88c8a88c3b6899c9e69ca78fbb9ccbecb7b8cbe9aaa889eb9ac9eaabbb8a9baa9dba9dcab8b5ace
col49:   fa69959c54aa84a7aa197da9bbcabcc94f9db77c87ad9adb9dbbab9998b97bba8e778b889b9cdaaf
col50:   fb69c69c99596b9898797b6a9babc89a689baaa88bacbaecacae9dafbb69b9aa8aa97d968986b98d
col51:   d9feacdfadaced9eebcddfffacf9fffffbdfcefefecfdaeeffffefdffafdddcfcefeeffbdfedcebc
ROC:	 BPix_BpI_SEC1_LYR1_LDR1F_MOD3_ROC13
col00:   cc8ccefcaeaeadabefdeffdcfffebdffffedffffbced9dcfbcffffafffffdfffffdefffefeffffef
col01:   b55ac76a6c996697756285787a9fabe74aad6ebc8b88a7dec9bb9b7998b9ebb7beeabf59ebdb868f
col02:   b7974babd97a96ab699db29b7acadb8dbb8b9ccc6c9bcd8b9b7bfcaade7aa6dcbb7e9feb7bddb69e
col03:   f9b98d454a759c778b8a9d8a82a72aab59a5af6e9b6b9bbe7da7c7fbfbabac9c88cc8aabf4ab89bd
col04:   a99ad485a9785c7abad5dac7837bb789d9ba89ab998bacaccbeeacbc6d8dbccdd9ec96c9ca9bc7bc
col05:   cc3aa6bb8c99775746849bca9b6ca99b9cccb9a779bfbcd8ba7b9d8cc9dbb78cdb99a6ed7cf79997
col06:   d29a79b775a9775a68b9a79787dbfabbacd88a3aae8adf99aca85c6bdba989a87e4dcac56b6a681f
col07:   d28a649896838a7936a9598aa6858aaecfff9d9aa8dab8caae86badba7edeaad6abb6aa8b775ac9c
col08:   e34c8ab68887c8389ce89bb463a89abacba797cdcb5ca769a7accdbafb9a97f759ddba86b97e898f
col09:   c9b49bc67a87ba5964b77679b7bbbc7998adad68ba7b8cca9aa6985abb56bacb6b8db5dfaa7bba9c
col10:   ea78a697aa9999a967798c79467bcabc9799ece8babdb99cbadb78accbdcaa98d8aaab8b9d89895f
col11:   b75686b491766a96c868988aaa7abacba39cffedb8cc9597eaaa99facce9d8aba89dcc88aa6ae57c
col12:   a6785a96887ba7cd857a686a8dccbbce9998eaaa9ba7bd5d99c9abaada9bbbcb9885ca9d99699bad
col13:   d7b559bd6547488a6766caccc87aba988b9cbadb7dba75b8a8cc8bccfdadc3978dfceacb5d86ab8f
col14:   aa99a77a967878a897497799997788bb89ab89cbcc7a859c98e89acbacdafba56bc7d8aa7b7c8dbe
col15:   f6885797ba5b9d4b9a67b6a5c767c8a989b58bbabe979bd9bacac99bb9e9c6c59baa7b8bfa6ac68f
col16:   c56578c759d58bb99868bcbc89bad8bcca7faac69cc8dc9fbd9b5bada9bfbaa99c9bbabbbcc7c98f
col17:   c9699656995986758ba8ba88bb98d7c998da997a9c9cbbb86e69aabb9b9a6b88a8979a7caba8b8af
col18:   9864677379689bb5b599899ccfc996ac879baf9bd5cfbb999fed9c8bce9ccaba989bb78ad499f8a9
col19:   a698a4986527ae879c88bc9686a969cbdbede978b9fa9877ab989afadaedae87b8cb98e787d5cc9c
col20:   b98ac7a396bd77bb8699c87587cc9fadb97c5aaaa9bbb9bdb97dddeecca8dc97a98ac57d9cd9ccbf
col21:   db8988c566866887bf8a9a9c87abacb96b9e78bc489b9fa9aecdc99f8dca8ad8b8b997b47a965aef
col22:   9aa8bd9668b9a8ab4d7888b7c98ae998867b99e6c98d9dc9b9fe8f9bd7ab7fbdaacae67d95b97aad
col23:   8789ba9b8a568cec979c79289ba998c8b98dcbd989fbea9cabdba7a8ce89bba967689849c889974f
col24:   a6bac9ab95baac7cb79b76a895999aaa66bfaab99cbacd8cccdfeddc7fc88cbab9cbdbb876888b8b
col25:   b7a87ba5479c868c67b979adcbd8c8a7cbeb9acdda99a7cadcc9ba97a7bcd9b7eb98aaac7dba77af
col26:   d9a9b7bb787bcc7ecebaa8bcdbbbca89bcabb8d8cbcbf7edaeaddbdedbcedfd8f98cbaa9dbbd7bcb
col27:   d8698da8467a946b9dcaf69fd9bdddadbafae9bc99aaacca6aacdffcd9a8a789adeba7b6c9a9d59c
col28:   e96d76c9cb8ae6fd98ab5bf9dfa7b8ccb6ebcfab7b7e7ecdcb8fcefe8ccdcaade97dcdfcecbbbcae
col29:   f49c98b979db9897ad89d7c6bbbddc8bcabd69b8aa969bbfe97bcca9ebdc99daac9adf787ba698ad
col30:   c9bb998995ac9be9c9aad89c8cdccca7afadcb6d7be88c7eecbccecef7afbeaac9cddb97fbf99b9f
col31:   fa69785b98aba6789b9c98e9e9ee9dacacccb8cb9daceaaefbfcc9fcdcceabc7eddcfebc9aa989cf
col32:   d88d698bb9aa88a5db9c8a9c689daddea7e8a6a9ebbaccafbdbc8eefadacbcab9aadcaacbbc8dcef
col33:   c94d78a65b7c86a6b8e69ae9e9b979ce79dea9ffac5ddbefaa8dfc9c89d8e8ece5aefc8b979aecbe
col34:   f459a87978875876cb69aaeace9ddbdc9b5cda9bdc9b9ceccadcc6ecf9c9dac9d9aaaccd7bed89bd
col35:   e5b377b76c7a95888789a9898a99d6cd978afc7a9f9a9ff9aabafbdb6989cad6ceb97977a877aacd
col36:   b7a89d8b555aad9a7cdab9a67a5bb9dccd3ca9bbb9ccb9cebeabfbdfbc8cb8de8c7dfbabbbb8ba7c
col37:   f768c9a89a7aba9a9bc88a7a9a889a8699ba9ab8dba9d8cccabcbd9dcf89ab9c8c9cca96f579cadb
col38:   e9eca6f67aca888e8b93ecca95699ca87a89da7998cd9fdca9acccfedaab9df99ccc9bac889b9ccf
col39:   f4cb9695b8d5a57fa99b7997ad9aab8cbabcbc99addeed9bccc7b9b9cc6b9bad9bbbabe77bdc77ae
col40:   cbdaaad88b7a8979c98e999aadacbbecabaacccab9aacc9acfcddbbbcdeebaaeba9eaebbcbabc9de
col41:   b8a7467999864a989988bc9f989898aa89b5dcedcbcb7cdf9aaad8bb9ccd89b7cddab7cdb8c8d8af
col42:   eb977a5b9aabba97b6a98babac9ecaaabbdadbacde9edeacfe9e9bacee8ef88d89aefcbcdbaab89f
col43:   e976597b7868ac8ab9c5dcb6e99c8a89469bcf9ccbbbfacddecbecbca9dcc9aadbdbbbbccae79baf
col44:   b8997959b7d47769c97fa9c9a9995e9ba89afdbfadbfeeb8ccddfcdf9eebccccbac9aebafd9ab89f
col45:   e4579776a9b9b6b8799bb6abfca9fbdabdaabcaaad9cc8bdbbadfaadd7bbb9dccd9ad7c87bd7976c
col46:   f52698c7b49a978a9a887b7b72cbca99d8a5bdcecdbd8efbfbc89eadabdcabeedcc9ec7c6bc8d5bf
col47:   c69a577877ca99958fabd69898aba6ba8cc9d8bdddfce9edb8a8c9fde8bfbddc79a6f7a88c4bcabf
col48:   b975cd8b5798a977a7b9c55fcbb9cedca98a7d8a8889bfdfbdcdc8dd88cbeb78a8dcec7acb5c8b9b
col49:   a96a8b9b6da9eb9a879a59778a676997cdcca9dac79bbdbddfabacbda7edcbabdebed6caab8a8bff
col50:   f49c9896573b69dd9a89b6dfa7aaebbb97a78defcaabcbf8daebbcbbc9ad8b7cbc8aacc8a96d7aae
col51:   ecfe78cacbbbdfaabceecfbfefdadaecdeefcbcfdffffcfffffcfffffffbfeddfcefe9dffceffffc
ROC:	 BPix_BpI_SEC1_LYR1_LDR1F_MOD3_ROC14
col00:   fbfdfaaffddcacfcdddff9cf8aeffcdfffbfeeeffecbefffdffffeeffecdfffdffdfffeff9dcffee
col01:   87858ad76762b6a98664a76d9a899aed969999bf9ab7c8de8fc988f8df78abc9fbbcb979bbc9e9cc
col02:   f45784ad9518c976862cb7977b88ab9977dae7d9beaccd9bdbcbba9cfababbbccacaeabd869c957b
col03:   c96ccc969a6899a89c7b7a7997ba8dbb8ab97bbecc9a9ebcffbbfc8cbfb8eec7aac87ccdaba9d79f
col04:   bbaa7992b5c7848ba89a7a96966a8b73b8cecb8be7fd9acb877ccab8ac97fb8c66ea799d778ababb
col05:   d895b86994ab8d6aa7da5a98e99eac596eb9b8a969ac97ad9bd8dc8cdca9bbc6c886db8a89cc5a8f
col06:   fa996842c748763b9878cba9bcb8cbcad97a5acbaaab59b96b9e68bafae9c995a9b67ad989bba79a
col07:   a7a6a898999787369b879b77b6589aab59bb7abbfa87a9b6cd5bad6caaadaaa989bdda6b9899a6af
col08:   76987ab5578518777659998cbaacc6cb97cb977ac79b897679fa9c8b5a989c98af88785aba8d9b8f
col09:   d865bb5da67887b8a99b69aac89f9da5999888c978ae8ab98ecceddadbd97dbdc6ccbdcce88b8b7d
col10:   e69da8984534a679859c87887694bbccb6988998eaa7a9968d9eaac69dadc9bbab9c89e6ffbcab6c
col11:   b976a8a866a63887656aa6a98a8cc8a66b9a69cab8ab9daccfafcbccc7e8ba998cbacab7d7ac7dcf
col12:   c49431972768a76886879799b788ecc9ce7b8fc87ac58d969caad7cb8adc79b6c4bf98cb54abad8e
col13:   f58765268867955a64d9747758a9c8b7aa9b99aa79bb7fcdba86bacbfeec7cddcbf997abb6c87ace
col14:   d643aa93684a48a8694c997daac99ca9d7c7c8a67a49b797984887bedd89ebccad99a6598968cd9e
col15:   d69979798668689b65cb6b5a9b9a67accbbfa7a9bfbbaa9c8d9869df9cbdca9c89aa8abd9ab8b89f
col16:   e577757845666d777b755887c79cc6ba8eba48ae8cca37988ad89bebcb9a9c69a79b6f8844a9a5bd
col17:   a76a7612a55979a8c3aa6ba39d87c9c79879a9b9a67b7c9a6bca8b7ce9bccadaba7b97e59a6d8a9f
col18:   98962648981738a6aaf9aa9a8a87bba77b69ab7ca788aa68f9e8adb9b7a6cb2bb8d9d64a5c895dbf
col19:   8998686786ac96768798487695b7695baaa9bbd7cb859d8cc9c48dbb8babbd7d57f9cba67a98bbbf
col20:   e73a355635866b6b489a9a69889b7e898a1b69bbcc7c88baa9addbd9b9cacaec99889b9868d888cf
col21:   f5985486b677ab59b7a9a9b8bb8dbe89db9baae9baaa9adc8befdccd8cdba99bab699bac88cedacf
col22:   b693878a5465954b586a6d578b78a896679c795ad8ab69ce95cba8cdebbbab4bfbf69cbabadc85ad
col23:   98b9b7885bc4667a6b7a995986a9d2cb88a9d88ac6cd8ac7cdacce9c7ccabbfb766ca788eb698dde
col24:   99ac4c7974bc877787a91897768bc8a9b87cca89aa9ab98b97dbbabeccbce9fba78fbdaa978b8acf
col25:   da579fc97786754bdbabad59aadbb88e3997b9b9f8baabb5ddcdbda98dc8c8ba9f96988c79b94baf
col26:   e5b9b8ca55a7968c78c7eacac9b99abbcd9c9fbbac86779dabfcbbac94fadaac7ffc9d77d9faecfe
col27:   a96b7b68a8a869996879898cbef9988c7a89dca98749c9badddb7eaddbb9baecfbcdb9abb6b9bb9f
col28:   a98b89477b8b146bb4869bbaa9aca7aaa97aabaa8a9a9eddbdcabdeafcdcebb9acf9edbafb8a7bcb
col29:   697b77ab9b98936aca7baa9ce9a9c78b9ab9e9cb7bcfbcfea8e9bfbb9eafca9c8badb9ccdeedccdf
col30:   b8bab698678b8b9b98ab7ad88a5a897b9ddddcbadb9cbbdbf7ceebbebcfad7c9cbabb6ffbf9aa6cf
col31:   e5398847b8a9a778bb86cab9aa4cbe99e8d9bc9ccca29b9ce6ade9acdddaabdeac9cdc8ecdaabbaf
col32:   6ab7a8a78ac97d447a8cbb99a6fcb9ae9aff6ba8bbafcdcbdbba7ccebbc89dde9cabadadcbdcf99f
col33:   d4abca9699c87496aaba9a76c987aa7ba9feb7ab8f8bf9de9dbbafadf7ebfdeeee7effdbabbc98cf
col34:   9a5c978ab8b9caa97b88dcbc99d9ffcd7b89dafad8c9ccceacceccffdaea89bedceabfbbcdacccde
col35:   dc5a9c9ba79e7babb6ac8949aebeabb7a88e8e88bcbfcfcdfeffecaab9adfeaa9eba9adccadcea8f
col36:   f768b675747c47aa7879a937c9ccbb9acadcac5af89bbdc9ff89cfddeccdcdd9ffa7e9ddbcbafcbe
col37:   f66ad2889a85966979f5877b6e9a88a97ac898d9e9cdfd8d7febca7fae9eaaadcab7eabcd79bdabf
col38:   abc988e8ba9bae98597aadb379a99b8dc6aab998d98ac9acfcccffdcabcedcfabddcc9cda6bc9aaf
col39:   a768a7c97a723878d6597a98bea18ecaa8aeeddacf9d9faaccbfef8a98cfddacb9cdcb97dfbd9a9f
col40:   eaacdbca777965e87899bb846b66aaeacab8baffbcc67cebfefcbc9dae7bdeeb8cadcbaca6cfdabf
col41:   dab8568a96775979baa78bcb66d9d676cdacc8fdcdbb7fbaefbda9bfbfbdccba5ba69adc9fb9ffbf
col42:   846736b897296a98a6a89a28ab99796dab9c77b9cc7cfdabdbfbabdfe7bab4abcc8bdbf8bbdfd8bd
col43:   b58a665a7686c46a799a87ad988bb8b5c9adb95b3ba8bcddfebeaedcdebacfcb9cfdcdbeaa8accff
col44:   b6738ac687859863b97ebb99b8aab8dda8b96e9ababb9acccdadfdccdb7ceffbdcfa9ea8acdaddcf
col45:   e626732aa16596739a676b86bc7b7a797cd9e7babca9ddbcabbdeecdebcc8bbbdccbedcbeca9ca8f
col46:   b7ad858b47a97668388d937a838aba7eb9cffc9dab9adbebabbefbc5ff8aefbdcfddcaafccb9c7bf
col47:   99679944594b69774b6b9baa67799b7d7b8bbaa9aef9dc9fda9dabecdac9cca9aacac9b9ddcee9fe
col48:   c755758899a6748a678c765a89b69bb9aba789bbad8cefcaeabcbaeed97bbbbe6ceaccbb87d9989e
col49:   969943a6897b94ab88788db9c7b95a7da7fbbb699adbabeac9efccb8bc9acfa599fafdfa9dcdccbf
col50:   a78793475ca865756886889d86798a66e41afb8b979abacabdacadcdea8d7ea897bcf9c99bacbcbf
col51:   db7df8aca7ecec99cceb7dadedaddafdfffbeffffffdfefeceffddafdfddfffffffffffffdfecfff
ROC:	 BPix_BpI_SEC1_LYR1_LDR1F_MOD3_ROC15
col00:   9ddbda6dafbccbf6e8fdcefaedcfffdc9acfdeff9dcffdcc8bf9befffcefeafdfd89fdefb7ecab7e
col01:   b75786978984877639b858aeda7c9cbd7deb8ab85abb89ecbb96bda89cfb899bc7f383289848889a
col02:   a9916529c9667a1419892867d99b9d49a5ca9ac89b28bdb36976bbcbc9b7bbd58796527a3948434c
col03:   9b6679677533789796489895e98787ad5b9d799bcfacbadc9c986f6d9f6c7989b9faba683897867a
col04:   b55866c8956b867c839bcac4677d8665d8cbc7c9898cabbccc7f7ab94786c9a75698b45877997c7a
col05:   a4a87b8456ed97b5b8598b6877acb99bdcd998c9cae8cbce8c59ddbd5ac6a46bc697acaa886b6a9e
col06:   b84897a77ba77775bac98ca993f8b5c77877aa7b97b6d86a99aa8d99ec584ca89a7b9ba68d1bd648
col07:   d9b6884a8a9888a5bd95b9a98a886b7ba7a7e9fc8ab8ddf99ad9b9cabb9aa7679cb999c8cfb488be
col08:   989131786736567858a5a958799b99b7cbcd8eab99abb78b846a8bb575b5b7cc9cb7bac7aad5dc8e
col09:   f673ba598a295687c88a77878a664aab785abacdcb8768bca9bbdda996d9b9e46a8b5496b896da4c
col10:   d657774b88b758aa4abb9679787a97be7424b98999ab8877fabce558b98678a9678985da9796577a
col11:   ab6998834c65a8c76a99d9ee4c994c7bce8a788ab7badcaa997a4799a58ac575cb8493b9a66567cd
col12:   7685163698c576468c767475c88897c779645996c99f954bb597adab8999ca676a69a73aa378466d
col13:   b19a684789a489a6392845d9ba7a5bd74dca7aec6df88c96bd7af76cdab986a79ca6678948696b8b
col14:   f57a4356785a3396f87caa6db7a89a9799ad8b9ab9b7d7977ac7896797c899c8a6685458b694768d
col15:   8576378da358b5a98989b767a8d475bb8dca8bc9ccbebb8edbd98e9aa8c78b889ba8a96e87a949b7
col16:   a7784654567472dba56979a94567cbd87a9a788f675d855d8d688a7687ac58a464777daa1561b979
col17:   d7788877b9775956c567b6ce5d7afdcad74a999d5d8dc89b899ddea9d69b289caade9e7a8caa55bf
col18:   91638897878995698865689b599ababa6b8faa78a8747a6c39988c6a4b69ce79367777474856669c
col19:   e5433463328936798b959a65b8aba89ee45788b9ccaadffbeada7a9eb499dad97a77a998ba65966f
col20:   a296274342777a789b66b75b5ba3ca9989999c76a9ad8acc7586adc66b9768cabcb6a9e76656b61c
col21:   d56c597342aaaa8795a677b998ed9de8c7bef9bacac8b9b9cdb77d559bfc27adeae48da7aaaa863f
col22:   f2569378466c75743bba9ba797cb6497aca5949dfc958ecfbb65b8c7867cba7a98c95aa51985b61a
col23:   c968148d68b9a7779c97da78b8cb994ab77b5bb978896acc9cd69f9cc87c9acddd5bab8a8c7387ab
col24:   8866587c776b49d9e9bb9aa9b99999937c6c796aa947eb6beb86667999b7b9b9b777c75b9e8ba8ca
col25:   fe69c787976b98978bafc89b9e78289abbdababd99a797a8effdbb9bdaa8c9a9aeaf9998aca7979f
col26:   f85768a7cc5776875ca9d5b8aaa77accd87b6be579b689bd889acae8a99ea76996c8f987ae54375d
col27:   e48a9a6a79888cc97dbc97aabe8858d8d69bcb96778ba79a5bfdbeda8d9be9cab99bacdf986e4b7d
col28:   fbbb7998b96b98697bbd9ba7d77547c4ac9728a794cb9aa868fad9cbb6ddbe99b95afbac57bbe637
col29:   f5a8a7979b77cc8966ca578a286e8aa9eb9ba6bd8caebd7aa78fa9dd8edfacbad9ccdfcb6b79bd6f
col30:   a64776b895ab9f4eaebaba99ba9baa4ca679b76ba78be7b896c6bff88babebcb99ea83d8b75ab7eb
col31:   c897daabacbd79c9cdca77d99adcdc7bccbcbacdcecd9e88cdd9cfebabefadeef9cfb8ed79daab8f
col32:   ea95698c3ba9b699e9ca7c8a7cbdedaaa89987fa76bf98badbbdaaffa97aed9bd8ee998ca69a9c5f
col33:   d468865f9a8eb97cdbdaa9aad8eb6daf8dd7ba7ca8a9f7a59ccbcccc9ecd99cadff8fb7dfe7dd89d
col34:   ba765b6a855729c589d82c6daab9cbbbda89cbda68cdaaf97b9ab9fbfd7eaa9bc9cdac9b47baabaf
col35:   fa972a9465c87778cafc86b967bcc9e7b89bf99bc7faeacb9cfa89e8d88d7baf79db78da89aa999c
col36:   c6e879c65837836a6796a669c6ba8aabd988b9decafb69ddcfbfadcecc978ddccc5bb9cbfda9a78d
col37:   f66729cb7b98bcc9aaceaac8789bd596dcbb9cbc5fb9faeacfbaabdfbec79ba8d9edf9fd9ebffbac
col38:   ec3aaa58b59c779b8acf9ec9995a8c8bdaa9cdd9a8f7cb9dedaafefb9aae6cabbeabaa69bf89da7d
col39:   b7ba8fa8bb9bc9b87a989b8acdce8facd8bd82afbbfffe3bedcfeafbeac7fc877abbdffabaaacbaf
col40:   e8439d978a37675a9c99bfaad6aef9cbabc8ace8acad68eadabdbf7dbcccd8d97ccecaf798dfa79f
col41:   dbcdcabd7986dd9bbb9dab3ddbeebc9dc887bbe7becbdecdcedcfe9bf7ddcdbbd79ebebffaf8faff
col42:   b558d7b9b99abf8d999bd9cdac784d97c37ebbffdabdd99b8fcdee9dbbe75f9977deed1bd7beaa8a
col43:   fadee38c9ad87a6bb7bca8a8caaaab9bccfaecdffbc9dd88b999efa9bcffdac98bcd499f8c9dbefd
col44:   e999acea59cbb9aabcbc687abfbdacadab7fdebc9aee7bd9afcadde86cbb8cfcaceaeceabadebcbe
col45:   ff888ab9dbbabccc9bd599999c9ae87fcdeefddffefaecfacadbdfdce9dcc96c9bccceffcdbfcb9f
col46:   fa9c5cd86b8c4aa7e86b9c4ac9d9eb6de79beaefebdefcbb9efb9abe9d7ce9e8c9b99aacf7f65cad
col47:   f575b7acdaa98a9cacae7fbdead899aecc9ef88ea9ddfaa7cbceac5cac9a7ea9efb8a4bb8ce96e8f
col48:   e44a78b89ba9b9d98bfbc88aa6eb89aafaf48aaeafec9cae9a99afcccd6cc6d8ab4ad6d6a8a9db9c
col49:   bba798ab7b7bd897ff8afdc88aadd8cbb9dabfebddb9cacdbffcbeccedc998dd789bb9baedfdcbfd
col50:   f59bb77a474aa39c9bd7c9aa9be5ed6becc9797c58ab9bbfaafa8db8fbbe6f9acac4f9bcdc6edb9b
col51:   a6b7bdfdddecffcfdffffbcffddcfffdfffffaffffccfffcfffefffdffefeffbdffffbffdfbfffef
