ROC:     BPix_BpI_SEC4_LYR3_LDR10F_MOD2_ROC0
col00:   8747657C466D86BCFD4E5D3595B9897EB447A9988AA5A9D5885A8CC8794A97C294476DB5B6375894
col01:   9A6C85BA789B87DB77B84647D3BAAAABCCABA999A977A9CBAE9B4DBCB9A8879983657BB6A7849714
col02:   979A577E8AA965877BCA58578C897A899AAADB797AA6A86B78B7C977A9E8A756585B7869A5787764
col03:   777558CD86C7BB9C8767BAABBDC998BA7B99899DAAEA5A5EFA99BB79CCBB88AA68898A8745994756
col04:   59A69CB64798C8497A5779B864878A9A99697BA9BC69BCA49B9975AC6B9DAB867986D7686A775951
col05:   C6C9BB98A5868386C2968A76A9CC97C6B788CA9CAB6668879D9B92CB7B9C98988C86979AB58469C7
col06:   B7549596BBB876C8CAB5AA747ABB77A4685CABAF7DA7E9ACACB9BD8AD94798A7859667AA77486475
col07:   8855769934C6C9425989C47A3C9B99C8BBC399B886C7CDDE6A77AB88CBB9899B8B66B768C96485A4
col08:   874A68678758A677936B97AAA88767C788A86A6CA899577A785949675697C99A6798C77D76768764
col09:   56CB8B5D7A8A956CAAA7AF7AC89779BACBAB7BCC47BBBABBCB4998CEA68794B9AB89679785855991
col10:   97B985A678A76987C554598688CA35B88977959C896D698D8DA75B68864C7AC59D86C5A59651B664
col11:   C45868639BAAA7678E95AD9AB88877A79898AD889B8589989CB88B759AC478C6599859D9A99A51A7
col12:   285287BA47C996998947CC489896B866C58A7A38AADABDC7CEACAC5597687AAA4998386A55842476
col13:   9A99D89A8B4889BDDA969BA68DA5AAEBE7B9B58CDF6A6A9BB9B9A66578B9B77956A7396769866829
col14:   6B99D9B5578B88599BB29BB5AA9BBAB78A8BC979DCB9789867A7B9887BBB7A937955A4678A86A675
col15:   87449796749EA8A777C6BBCEADA8BDADCC625BAA859B79989FD6979ABBB7B65A9A8AAA5C944C4B97
col16:   9878737668A891879CAC98965AA95C9CAA853BDB98AB999678D77BB58994ACB9C9697A468654877B
col17:   747A5A8786669988967C77A85BC476B938B8DB9EB99899ADBBBB7969BBA69544857BB5C765985475
col18:   99756688D49378B6BD98D7775ABB1DA99BA4AA88D58889BB78A78BA99886A585995568743B88C876
col19:   7A818A77A97C9B8C8C76A877D9BAB88A5A9DCD9ABA89BBADC97E9DE8798A99B969776B75C7944525
col20:   78495997946555779CB3BA9D9948DA37C7A5A9999B8AB798A87997D9769A5667AD846A3464969B34
col21:   68524C7987B46B8BB78C5899774D9BD999CD9AC798BBA9A85AA9EACFB67AA98795A948B7AAAD5477
col22:   357668694AB86A8A875B6D47DA9DAAC9BDA96F6A96A99BA8B59A9A9997CA686DAB349AB685986377
col23:   917E46968886787C89CA7BAB69D98D9B9BCDC6A896B4998B7A865A6759B9898A86799885749445A3
col24:   8599A9A4A769798D6797995A4997AE7A688D5ACA9B7AC77B7BD9C97CA6A6E8A6D45B5526A465C776
col25:   95569875BB694B84AA8B69C799985F796886BABBCD8BC8A8BAA7AAA876BACA69AB89B56A367A9745
col26:   6AB859B79ABD7D5458BA886BB7BC5BD8DAB8A7C86CAEDBBBAECBA6B869D78E86277883A8C7895615
col27:   785D27899A6BA875675799AA66AA8AB9B89BDCAE8C79BCDBC8B77CC77AB999A9BE66AA9CAC875695
col28:   78AAC5B57B7B7BF466B49BB9CAC8CAECDFCDBB6EDA8DFC99DB89F8FC8EAC997A9AB9AD8AA8989868
col29:   98AACABA79A8D69A8AA99A8AC899FA9CA6CEA89CEAF9A8A7CF9C99CBD87CB8C47CAAB87687A5BA95
col30:   571999A77589BC87C85CC6878A9BDDAC9B7B9CDACAC9EAECB89DCE7A8A8BABB77B8AB9C79767B896
col31:   6898BC9E9E8CAA8D7D89977996FEA8A8ABCECFEECD9ADFC9EDBBE9DDEE6996A98BDC6366765B6559
col32:   7ABAA87AAB89A769A77685A9ABA8AE689D9AADED5CCEC99C9DBADEBD9CE7CA8BCABFD77BF9879954
col33:   B89ACB889FCC7AC9DBCCFC9DEEB8CEB9BB8BC8EBCEDD9CAABB68EE9DB9ACEC98E77BB97996884936
col34:   D889F99999B68B8A998A7DD6FBA98BDDB8F7AC9B9DAAA8DC69D5A45B9DBAB9BB8CEA8AE8598D78A6
col35:   A6D97D6A99BBBBAAB8EBAEC6A99DEAAE7BACABFBEEDFBCDDEBAABA97B79FA67B579DBAA9AD79CA83
col36:   6A788BB8A988B9B9E6BBECA98C64CDABE9EAEACF7D997BCBEEEB6FACDACD9ADC7A9B9DA5893BBA6A
col37:   7766966699A5CABC8999ADBFBF9BAAAD9D9CDDBF9DAADCD9D8ACCC9ACBCAAEADC9BDA7B6DAD47A96
col38:   5A8789998DA98B9AA8BDBBD8BBCBDAFD7B89D9BABBBADBE999DCB7CCCB9B9C984B9CADCAA5C93EDA
col39:   ABD965C9DAFA79EACDAAA6ACC998EBBDFAB8CDBCDF9D7C88AA9BBFABEDF85BAD9B8CAD9B7C89688B
col40:   AA68C9E99CBD8A7ACB9AAAF9DB7C8A9C9DADBCBDD9BD9CF9DCCAEFC9CC9BABBDC8A9AADDAA58C7A3
col41:   9A68BD9B89A7BEACABCABDCBBB9CCD7DCDCBBBAECE9FCAABAD9EBCAAACACE9D6FDB8ABC9BAA89696
col42:   9A9F68AD9DC68AD9C8DC99BD9BAADCDADB8E8ECAC8DDACDDBA9CBCADEF688886B77AAD7B874938BB
col43:   78DB68DBAAB7697979D9ACBBFC97CAE49CDBACDAEC9DDCCADB9DCBB8BCDB98A89C9AAA68D9DB8A46
col44:   85D98CCCD665BAB99A9CCAA78BD89DBAAC89959DE8BCCBCDB989ACC89C5CBB9A9AF9BB7CBDA89AC3
col45:   A979AA4B89B9B9B69C8F9DACCAF8B9EDBDCDACDFACAB9EBEEFCEB9E8B6DDCCCB7BBBADCDB9CCFAD8
col46:   6D875BAD9799B6BCDB89AB6B8E8CEC7BBCBABDE8ACAEBBD89BCBB9BCCBCFAFAFAB895E98B87C6AD6
col47:   8889974AC8D98EA55DBA9D7CB9DACB8D87C8BCA98BFA89DDB8D9CEED9AAADE9C7A6ADC865A3BBA7A
col48:   7AA8A79E798D7B989B7CF769B97CECCEEB8FCD99BBABD9A9B8A88DA9AAFFC988C86697783C9937D7
col49:   AB779CAE976B68AACAA8AB9CCADBAAEAEA9B8EEABAB88EA8FBDCF6FDDFEBBCD7BABAC76B899BB6B3
col50:   8B9CAC78CBBBACB89AD99BBD9DABAC9E9DFBD9E6D9B4FED7BB89CAD99A9C8FCAC7BECCBB688A8AA7
col51:   5878857479847778467A3663994E75BD88936C96B9BDB88999C7DBABB86AFAAAA3A1787CA6864896
ROC:     BPix_BpI_SEC4_LYR3_LDR10F_MOD2_ROC1
col00:   455747779A7A7B3866C86696B899C9B595662B697A686A89AF69AABA876689564743797659987755
col01:   A89CA8869A8AAA98DA99ABA8AC8B989ABA9989BBECA9A8AAE99B7A77B68BBBBB99AA68877D8C6887
col02:   659868967A857AB5CC8998587969DC78C39EBCBBAB9839A997C9959BACC897977A865E89668798A4
col03:   675586A78787BA5B4B3D798E8DC88988CACC8BDBB9CB8CA9D6D87999BD9B3BD6855887B47AA59677
col04:   9858579846877798D7C7C9688ABC7A59D9979B7AADAABB89B97CE99AB8AACA69CA88C98797A4D561
col05:   7989596A9A86899A899497BB9AAB97B7AD9B9999CA8ABCCABB96C8B78CCBB6AB9B6C7A57A7497B43
col06:   275C876859C86898A7859A8B7DA599A9AAA7A7A987BAC779B9EB8A99C99ACB699687999B8D488896
col07:   5738766A7AB9A6DC78B9EBDABBCB87A7C79CBD9CCB89ABBBB9B7B9AED7B8ABAAD9968A88657989A7
col08:   9968A895DB87AA99883B897B8BB6C9A89C9BC89AAABBBBAA75BBACA7BCC69F7A787B786C78677747
col09:   BA8A96B8989C299E858C8CBBABBB9AADCAB8B978BB8B9DDBADA99A798C789B8A68B8E8C64888DA45
col10:   7866A28988BC79BBCB685876BAABB7ADB7949A8DE959B99ABC969887D9B8BA97BCB89B98B9783585
col11:   845887A98BB986B79A9BDCACD6A7A9C8ABABA9A7C9B77B7AB5A7BCD9ABB7AA89D886B9C8979697A7
col12:   7356454885685697699AA69B9987986989EA56B77A8AB9C7BF7D8B8C78779B888B79759667678B86
col13:   B45A887899669A99879B78DED98799BAABDA88B888AD99CE6BC8BA8C987B7BA8ADB89675CA868796
col14:   3978B9A78CD898B6976CC3CBDD7A9BB99ABBAABDCB9A96CDA99B79DC9CB8BA6B87CE89B959973968
col15:   AAAA7B89BB9998998C7DABD6CAEACABABC6ACF5A7788A9B7B799D9978ABABAA8C8984556BCBA5676
col16:   9888A5498585BB9A8A7988D9A98CBAA7A99BABCC79966AA6C9D789D9A5DE677399A7C674599B2A86
col17:   AB7899985A7A9AA99A99C8AC9BBD87B98BD69AC9BD7BB9AB985CD98BACBB967BA9BB696A98759783
col18:   88755793665497BA698698597D5BBCA9A7AB96AF895BBBABA7BB9B88B8886CB86B6E7C96894796BB
col19:   99A8A7679587798AFAC789BC9ACCEC99DBD7CC9BA9C9D99A6A8AAA8899B97B9DAC8A99A7B7649BA8
col20:   CA898BCA85AA8966BBAB9899CC95A9ADADA9CBCCB8B95987A997EE7B5B89B89CBA58967CA4B88BA9
col21:   7769AA7998A787B9969C99782A828C57968BD998BDC6BB89CAC8B8DA67DB8989B97788A55B877947
col22:   4875A5568768877679A776DCA47B69CACA4A9BB8BC9A8B9C89BD7A966778898CC9977AA87A6AA586
col23:   9A756B677B87ABA98A9DBC85AAB9ABA99A6DA98CABBA78BACDADDBBAB9CB5B99A8D86C58B86A5CA4
col24:   7697786584A7B7CA9897BCA9A88787A6A9AC645BAB9CB5896A6B8B96AABDA87B8A88768778969673
col25:   89BD8C6A8AB6A8AB9A8C99CEC798DAAAEA6ACAB9DB97987CAAACABBC9A6DB7B9EB898569AA86A66B
col26:   77C767BAC8A769DCDE6C9BAD9CF9E6ADB9CDAFC758DEEE9CBBBFAABE89C8AB99874A88A6BA879887
col27:   856AA8AC634A4B898BCAE98EB99A9AC78C9CBBAABBCA898BB9ACACC56EB8CEAAB6ACAA99AA8B4999
col28:   8C76BA9988BD89AAABEBF9BDDDDDC69DB8AE8D9E8EADACFCCBCDD89EBFCBCE79AC998AA96B8B89CA
col29:   596A967A959DA6B96DBE88C9DB97BA9AC9AB8CCEDDEEBECBCDAECECBBA9BDBB9BBABBBD2AB798A7B
col30:   7C8C6BAACEDA84AAB9AC9A99BAAFABBE9BC7DCCBAB9BAB8AA6A5FABACABD6AABCC787C969959B96A
col31:   AA9BCC6BA6CBCEC8B9AADDBEEACCEBBDA8BBC9BCDABA6BCFC9FCEEACAAAB9CEAAAABA8DABD8AADC5
col32:   6858C95B5C9B6CBDADAB6CABBCA9BBDFBBBBAC9B78CCCEA79AFFA68CAB8B8D8AC8BCA7BDCBA7A898
col33:   99A7BC9A5AACA9A58B79AD88AB8CDBBCCCCAE9E7BD9D88FABE96DCAEFFBCA9EA8BD9B59DADD9AB95
col34:   46C98AB7B9A7DDDCBCBAE698CE9B9EA9ABBECBBCBAD9BDEBDDACAC9ABB8BCBC9AAB8BD9BCB8C7A67
col35:   ACA67ECCBEA9B99D8BC96AA68CEF7CAABDDDECDABD9DCBCCCBAECCACDFADA9ABABB99B9A9977C99A
col36:   A987D8CAB8BC9D7CAAC8AADEA8C8B9B9FFEBDCBD6BBACBD8AECAADA9BACC79BCBD6999787657DC89
col37:   A9ABB8BADA8ACDCBDFEACCCDBBDCDDBACDD5BB9BEED9BEBDA79ABD9CECAABDF89ECBAA98AA9BB899
col38:   ADAAC79BC5D78ABE9CCEEE9DDCCAAACABCBB9C8DCEADAFBDCCCDACAAACC9D7BCBBBAD849997AE878
col39:   678ECAA8BCA8BC8BBBCCBADABBBDB9E899CA9CBC8DCAA9BD99CEBDB9A99BBCA8BCEADACC698AD68A
col40:   A69B7ACA8BAC8CDCE7BBB8CCCDCBCA9BEDDEABBDADABBBACCCEC7BCDBCC9ACCAC8B9B8BC5889B9AA
col41:   9BA98DBBF86CA79E7BBEFDBCEADCFFEEFEECEBEBEFDBDD9EDD8DABDFDECCE9CFDDBBDCD9ABD9BBAB
col42:   95CBB9BBAA989CA89BBC8B88D79F9CAB9BCABACBDFEB8DECEBBB8EBBCBCBF9B9EB59AAB969BD97A6
col43:   9888CABBBD979BADABBEB9EBBBED5DECFBBDECEBBCAFDDDBDAECEFE9CEACFE9ADBB8BDEBFBC9DBC8
col44:   BABBEB9D9B78BAACBDBEBDCACEFC7CCEDF8FCDC9DBFB9CBF9AADBEAC87BCBDDBD7EDEC8A887AEB95
col45:   5A88DD9DC8AB9CBA7CB9ACCCBBBDCFBF9C898ECCEC98CC8BC99BDCFE8EB8CDAA8BDABDBCEAC99BBB
col46:   CB9CB9586CE9A887EBECC7CBBCBAD9AFAADCCFADAADCDCBCF8AA8CBDCBC9BB8CCCCD9A8B9AB9B46A
col47:   899BAB9A588FC7A9CBBBCDBCEDCE9BDFFBDDEE7FDDDF9FCFBEA7BBEDBBFCBFCB9AB8FBBBCA8CE599
col48:   A978A9C6AB9E9B899AA9DF9FE6CCAC8BA9D9CDBFBCBFAD9ACACE9D8CCBCC9CBCBCBF9AA5A95DB7B9
col49:   77CCA7DCDBBBE9BCACBAB9C99E8BDDFFCCCDFABECFDABCAEED8ECAD89CA79DBAFBBCBC8B898CA7E5
col50:   9A7BACBA969BA9B8AEED9FDA8FCF8CEBEBAAAFFEDBD8BC98D8DDAABACCCB8CBBBBBBBDD94AFBA77D
col51:   79AB8BBBDB57AA896CCBD4DD9AED87CCEBA7D8E8AC89BCC8AACDBA7BBC9BB9DA9789BBA6B7677578
ROC:     BPix_BpI_SEC4_LYR3_LDR10F_MOD2_ROC2
col00:   7669658A957AC89248887A579E66A69E79CABCA999AC83859AA6A96CB8A66749734BC97A56966635
col01:   548D58888B4A9BE3CA9CBBA3A8AE99AC9BBBF9AB97B7AFD7BCBDCBB5A2979959AAA49AAC9676BA68
col02:   999879856836468A797D7947A9C6888B897A9C977CAAA5B9969A79AAA8AA98AB929C86789838A665
col03:   7A6CBBB8888B72BC8C778B9C9DBBB7D9A98C9BDAACD8AA6866BC6EA99DB9B7B7988A8A394C697655
col04:   49786957CE6A95A9A89889A9C6AA8D7A8C6ABB89EBCAB9BCBBDB8B96B57CB8AA97ABDD796C95D846
col05:   5976DED5688C8A866B6BA9C9E4CBA89C89B9F9CABBC8B88DCABAA89BCA9A9958AA9E93689A988A6A
col06:   98796576B876A798C7BC9669AA85A7ED998A794BAB9B7CAE9C998A87BB9CCAD6B775885886569775
col07:   767AAB8AA8DA7AB7D77B7A5A88B9F9BA889DA9679CA9D6CAA5BBCAC79AB5A893DA85BA88336B7737
col08:   665B65B6A85698BCA6C7BAAAAA47B9A98EA87798B8A9B96AC9998D8BAA97E94A7763497673336756
col09:   B66689778B98CA97CB79B58C68EDBB8CCC79AB989CBAB7A8BAAACBBB999EB66A7C99A889966BA5A4
col10:   4986A36848A9A88EA8D88898AB9A6AEBAAC9EB99C9ABB79D999AA967CB98654A795A59CAE6785574
col11:   984799698A89889B4878B86B69AC96AB8BAFAB8B9BA8CD9AC95D67BCC8979AEA926965678A669675
col12:   86A3A98539A87A88AB9898A87ADAC877D8BCDAAAB7CACED79CA9A9B978BF8A9986755996C4583669
col13:   969A9398ACAB98D9A9AB8E8B97C956E77B8B89FA9E9DBBDD6C87E99986B9996AB7CA8A8B8D899A85
col14:   84699478A6866896984B96CA4ACBB9C88AA97997F8EDC6C7C85AC9878BCA8D989883745789751854
col15:   6CC87796A2B9848665CC6879997CDAA7A786A8BC8AACB988CE989BCA9BB9999AB8575788B688C848
col16:   85D3B97ABA59BB9AA58A6899C885A758B88A89BDBBBA9CCD8B8A7D7A98CA878C8ACA88654916B779
col17:   55694365A577AA886B778899B9BA89BC78B98B8B8A99AB9DA97A98EBE5793968A9838A6889675657
col18:   5687585A78396B9B7A987A5687BDB979C9889E79AAA9B8BDB79DABB87DAC77A8AA8653D655889526
col19:   37A779679795AB9D5889867C5896A7AA87A9DC9998A8787D69D7AE96BA86E88986977AC889488667
col20:   7657465AB8677B86399A8988AA999AC96989AAAABBA76AA6CAA7667EC467698C85B7A75A63695939
col21:   8566BA8877889684AD9B9A8C8C8EBAA79766BABB6AEA89AA98ABBECA979799C9897AD97664677663
col22:   55997648B6988D5756647467A9978995ADCABCBAAAA7D6BE8B9A8AB8B6BD778893991C79591A6731
col23:   688978799967769C9A6C6996E5BA8999A54898B569A57DEA9869EACDC969BC78B9A66A68AA771233
col24:   85C7566768B8A5A79896B9398C969B7978A9B7BAC94B9876AD8779998DA6777869898AA17B473988
col25:   B78E823996B66578889A9997A9AACBEECB98CAC8BB96D5AAA9C6ACAD9AB8786C5A594A9A79866781
col26:   7AB7A8968A8A57B7989A99B88DD9ABD8BEAE9A8BEB799B899B9C8BEE9BC8AA9AC5D87E997BB77663
col27:   6868A58BC7A6C7A8AACB6AAACD996D9FCABAABB9EB9EBC9DEA7A8BBBFBA98AABDA88CB6C676C98A2
col28:   A6B59C55D8CDC88898AF95B7ABB8DBCAD8AADB9B89ADAAFCA9867CB998A7BBA8D9C9AE9D7B979995
col29:   A884C8A959E7BB889AA8C86CB7CEDCAAFE9BCACCCA9A9CBA74AC98DA8A97785A87A7BA9796879A69
col30:   B97BEADCAE898C98B78C996A8C969BCFBFAA8FDD8AABBADAA5889CDC8DAB7BC7CAAAABAC97A87797
col31:   788AAA5A99BB9BEB8ABAADDCA9E9989EBB9C9C95BB99BCAB9CACAB9AE9C9BBDC8C7CCCA969699866
col32:   766A7785D7B88A7B989AC9CAEC8EDDBC9A8CEC98CBC9CCACBDBCBB8CD98FB7B9969A97A99A896A88
col33:   B977CDD8876B9D89D9EAC9BDB77CBBAABC889BADABBAEEABBCCD8AEEBAEB989CBBDCCA98199B7784
col34:   756CB9DAA99CB5A398B7AD95BBCDECDBCEB87C8CBA9E9A6DCCCC9BCDFDCAC9CCABCCA6BAAA69A6BE
col35:   BDCAEB67B968E99A8CB8BBFBCDCBAADDB99AEAFCBABBFDECBC8B86CA9EAAC8EB68BCDB76AD99D982
col36:   AA9B798AA9CACB9793ABCEBAC8BFFCACABAD9A8CDCBDDADADCABCB7CBDABCCC9CD8A8A7D58B78867
col37:   BCA789DEEAA8A897AEACCD9B99FBAEBAEFDDBBBBBCADECCBBDACAEB9DEFAA7CAC7BEA989AC8C4B87
col38:   A955AB77A78CBC7BBDEABA79A79BAFAC9ACCCA97C9B9CCA89BBEFBCECE498B9EABCBC5C6ABBA9775
col39:   C7D8BB79BCA9BC8B9CBBDA9BAFDFBDA9CEFCCCDBAB9BBBDDB9F7A8DBEDDA96B88ADA9B77BA967B27
col40:   8AD7BA899CCCC9BAAB878ADC99BBBDFDBFFCDCA9D88BBBACDCB9BCEDCED7BD897BACA8AABA78AB49
col41:   A966BB9ADEAE9D7B98BBC9CDE9BABEECBEEAAD7EFD9ACCDBBE9CD7A9BD7CB9C673B8EA8C5B88A8A2
col42:   6A7B6B9C8B9CA9E8B9C8CAAEA9CCBCCDEDDADEBBED7C9CEFFCBBD8ED8ADAC8C6CBC7B8A883A78C9B
col43:   B8E7AC9C9DDB8CC8BAA9A9CABB9ED8ABDC8DEB8EEC8ADEAFA8AC9BCC8BCADBDABA8BAB8C9A937A59
col44:   976BB9C8D5C88A678AAAC7C8DB78BDACF9ACBBA9CBBC7BEB9CBBA9DBFCD69A9C7C58BAAE8C88A965
col45:   EBA9D96CBA5C99BD9E8DDBCBACA79CAFCF9BEBABFDBF9B9DBCBDBBADBADCDBD98B9CA9A9E7779569
col46:   B859BA77BAA789ADDB8D9BA9CAAAA9DCBDB9A7BDFABB87A979DBCB6DC9C99AAB69DEB6BBB6888557
col47:   A88AAB988CDE8CA7AC98CBBDD7CBBABAAAEADAAAB9BBE5BEBA8ECCFDEFADDDAC7BBAB6ABB987A7D8
col48:   7C5AB9ADB88CDC9DAE76DB98CFDCCDAB8EDBDADBDBCAB9A7B9999BABA8FBD589BB9CCAA47ABAA996
col49:   CBBB9AA989B8789C96A9BDACB8D89DDDAADBCEBCBA6B899BDBCB9CD9ABAB7BA8DBADABBADB75AD87
col50:   ADAA9D9ADADB8A9DAA6CDACB9976CCAA9C89CDA9DFCCDEEDCBCCAEABADDBAB9CCCC9B6DB798AA975
col51:   7B87A978896EC65C79A989A8A7C9CB7B6CC69BB69E76E7CFC6B9B6FBACA998AA89938E9897563476
ROC:     BPix_BpI_SEC4_LYR3_LDR10F_MOD2_ROC3
col00:   313B582664795957154689AB689D7D68569CAAA876DAD8848959D6298692A7968A43578583A77899
col01:   7A75863856998A99AA5B7EA8ABA989AB9C599A96B8A6AC77B8A99D8C9AA9968B786A829B8BA3AAB9
col02:   5487787AB557C775BE7B598588DAC89838CCBDC5CD5A956DA58B894D95B887876E3B97C78A9A6666
col03:   5A568A7B9757989A97A97998887A7B9F999889899A9B9B69C77C5A9975AF79A9AB859C1C9A9AD669
col04:   6A547C9888B678587AB6758B978869CABB9B89B9C6B857A97799A5AAA8BBB88B59987B855B988C95
col05:   95528ACA2BC8A5A44487BB9958B7A5AAA9A6A79987AB697BAC88A7CBC55A9479799AA78765A87C6A
col06:   85966AB8774C9A85668A77A4DB658AA99A8DABAB7CC9C56AB9ABDAA699891ABB6A75778539A59A69
col07:   795469E5AC9ACBA7877B94AA9A98ABAB8AC8BAA998A5AA59B999C89A9CC99B8A8A99B98A8757CAA4
col08:   66848687A76656BA99C9898A6978AB898AFACDDA7A6CA79BE9B9C759B998B7AB6B8E6AC6C94C9427
col09:   5396698987A9CE79A989C9B69B87ED989BA795C976BB7B977BAB893C97C8B5697AA7A7CB867969B8
col10:   64A1C97775799788B9A7748B89B9A78B869CB9BCCAB7DB89786AC8A8A69A9AA98C69B8C6968697A5
col11:   8AAC67699ACEA66647E99A8899BB6785AB78A77ACB8BFC8646ABAC77BAC4EBCA7C9987F686588395
col12:   878585837B9871A59B67786588A679497B9A6A986B87A87C69AC4C77AB6B86A89A77ABA7C59779B8
col13:   BA29556AD9589B8A99A89BC85A7E9EF9DBC7888876A99998775BA69FCC7ACB7C899C86AC99C9B786
col14:   93A97C867A9DAAA895C7A4AEBA89A3CA89ABD5D99CA7A76C78B88989B9A7E499C1B9669757DC5759
col15:   36B5896AA83AA54A6696CB5C8AA6B999DB9ADBEAA9BBC7EACD9BB8DB79EA78775A94C84BBB476672
col16:   7668D66A6D3CC9A5AB779AAAA8A8C6D8ABCCACB86679AAC96AA798A6A6BCBA7198AA7B9597A7A697
col17:   6655C94789A519A8D969A7ACB386BEA9C8E89DA9ABBD4A777CA97AE7C78A92BE9CB979577BE79BA4
col18:   56A666955B8899A5CA96A8488968C8847DE8A9E396B5BD69C7BBAA39E8B4888993963A98B89ACAB7
col19:   8655A68A77C6697B9EBB78B9AAC9E5A9DCCD8CAC9DBB88A998BCABD9D8EE7AD6E8BBAAB988BA8BA7
col20:   83765A5873AB9E5A96968CB888B79FA7888C7689A9D5868779BBB687A99BB796B87B9AB68989AC97
col21:   8735A659B8FBA7B9DCB89BA87AD9B998985796F9AA68A8B89C8CC8A75DA78BB787A76CA7C588888D
col22:   99A7C56697D9998B79CA6E8C86D7A765988C6897E886A7CDCDABF9B8AB6773AB26D9AA9A6AA7A785
col23:   6636878688857257B544B7E799DBBDB899B78A9B86DA97A7A96999C7AAB9BB69C87797C96ABBA746
col24:   976B6768A699B85A97AA9979BAAD9A7A86DB6CBCB8CA79B7DE9BA5A69AAA8947A8A697C6385BB656
col25:   A8998AB998A798A7A9AE998A7A9A99CEAAAAAC8AB5A8EDBBDB8CC67D79ADD7BDDAAA59CBB99677B8
col26:   B59B9CA999957979C4CAC9ABB9BC9DCCCBCDE9BCFCB7AD86ABDC9CF8CCFB69CA99DBABBCFBD66C98
col27:   A967A98DA99AA98BD9AB9BA9A9CDBFCAACD9DAAACCACC8EBDCED598FECCBBEDBD77BE9BCB789A969
col28:   6998B99C97B749C89DD8DAEB8EACD9BDC9CC8BABAAAB8DAD7CDCECFC7AF5BBCAD6A789DAA58CA897
col29:   A77778976589D896EAADBBC8BABA8CA7CEB9BBA7DCAECCBFC7DCCBAD9CD9BD999DCB8BD5795B895A
col30:   8989A79BA9BB7CB999EC99ABC8A9ADCDCBABCACE6DCBDEBAAFDCA9AB9A8BC8DCBCA8BC85B89C98B9
col31:   8CA7A5889BA97ACAAD9CDB79A7CBFDB8FDCBB9EDA99CBCBCABBECBAAFAEADA9BDDCCA8EB79A7C8A8
col32:   856BAAAE6BDDABEBA99ECDBC8ABDBFCBAE7B788DB8DCBCFEF9CBDFBAD87A8ECB9DCBD8D8CCA9BE9A
col33:   BEBDE8EB9CBA8FBCB9CB9ADE9E79DBBAA89FCDDBAAABEACAF6CBAFCFC77B9BD988ABACA98FCAC5AC
col34:   8BA5A9B9EAAAAEF8D8CC9E9CEBBCB7CCA8AAFACEEB3AE87BDECFAADDEFDBC9CDED98BCC8B98B8B97
col35:   9BB8888C7BDBC9BCB79BAEDAB9BABCD7AC88BEC8CDB7ED9E9C99ADF8CBBDECACCCEAD8BDBBC9CDC5
col36:   6A89A8B96BA9A9CA6BB8BB9BBE88CC7BB7DCFDB7AEEDBFD9DB9BBEDFCBDCAFCACD999DACCCCAD8C7
col37:   999B8BAB9E9B7BAAEA8ABBCA68CEBEFDBCE9AEDBBAABBBCD7DDBCCFAFAEBFDACDDFABFAAE99ADBA7
col38:   9D86A9CBAB8C8599A7BBBDBBD9AEC8BDBDDBABEECCFDBDE6CFDFECCA9FDD5B9DEBBCB9ACCB9CECA9
col39:   78BEAB8B999AC87ACA8B6AA698BFCEAFD8CBDFEDFAABBAEEBDB99D7FCCAE6AAA8AF9CA6A6DDBD99B
col40:   8C8CDABBBCA7C9AB6FEBA7C9DEBD8E9ABACACDDBCCDEEF9DF9C9ADFCDAFCBEAECFDAB89F8D9BADB6
col41:   ABDBAAA5ABD8C98D7ADCC9BCDACCAB9B8ADFC9BAABA9CCDA9CFBED99BCABFFBB9DEACCD9BBBCA7D9
col42:   56C79E9ABBAECA8A86DBAEFDAACBFBACCF87ADEDDABC9FCE7DDAA79BE98BFCD9DBDBABE99D7A9CAD
col43:   DB8BCEDBB98BFBC9C9ACADDEBEEDCEDBAFFABC8CCEFFDD9ECCDDCFDCFBDECB9CEDEDEBCACADA9C9B
col44:   AADBACEEF4ABAB85BAAABCA9E9BCAABF7EEC9C9B97ADEDDECFDDDAEE8BFECBEAABAAB8C88CDDDDF7
col45:   8A39A98DAD685AD799EAB9B6CACBBBAC9DAFFBB9BCCDFCDDDBECEEDA96ED9ABADBCBCA89CCC6EDCA
col46:   8B9FF7799AFC9DFB9ECAF887ECABEAABDBCBBD9FDBBDDCDDFBCEDCAAEEDA7DDBB9EDCAABAFCBBAB7
col47:   9A9B98CCA8AA6CCCBB889CBAB8A9A9DCDDBDBCFDFBDBDEDABBCABFBDCFCBFFAD68AA9B987AFDA9C7
col48:   B4A9CA9CBBA9986CBBBCEAD9D9D7CCDBAACCCFB8D8DBDD7CCC9CBFB8FCDBFADAC9CFCBCBCCC9BDBC
col49:   99A8CE98BBBA877EABADBBFAABC9FBDAC9B9EBFEDFCFDCBA7EEDEAFEEDBCA789EEDCC8E5EBBEDB99
col50:   986C6AB9DAACDC87C9DBCDABDBBCCBABDAEBFBDCEBAACBCFCCAAE9BD4FDB9F79DB9EBDDCEFCACEA8
col51:   6B6175D7768AA6B59596A8A7488DAAA8AB7B79BA89AA799B696CAA8BCADBDD89AAA887A88CD7C5A6
ROC:     BPix_BpI_SEC4_LYR3_LDR10F_MOD2_ROC4
col00:   986728665A958CAA9ABADC9A569EBCC6A7769979677CD49D8A8AB9997B78D68888B9964899876484
col01:   5C788A8799B9889CBEAD8A8BDCC93EDA8B9A8A7DBA9ADDC96AC66C9C7A9DC776ACAD9A9658BED7AA
col02:   6566957AAA9676B6C68DA7B8A9AB958DBA9AA7BADBBB88CAA99B8B9BCB9978E69CCBDC88788BA698
col03:   6A88AB8C966AAC6D9BDDBDAC9DCACDBA689DC9997882ABA9CA87A8BABCAC872B7AB79698AADBA89A
col04:   9988B74DD7BA98D8D4B869B7ABB69AA77DC8DBA98C9CDAAC7A888A9AECAB8AC7999892ACDEC95C97
col05:   7698698B7A68B53A789BDC8966989BBDAB67EEDB6D4AB8D9C9A9CB9D97BDD9D9579AABA99968C978
col06:   6BC878998B6A7C8B95DBC85A9C8BAD9FA5ACB69D4A69ABB765A888BBACCBABAC85AAAE48B6C24BCB
col07:   7698839D98EBF6B98886AAC98ACBCC7EDBA8B5A9EB9BBBABCCDA9BEDA8BC8BC6BABCFA4B69D757C4
col08:   887BCA77B7968BA68BAD789A788B8CBBB8B98BA65BA98C87A9CFC87C989C98ED89A85BAB99B7C5B7
col09:   B78D8BA68ABBBF8BB9BCC9A9B7BD999C9BEC8E8EACBAECAEA9D6AAEB69EC99AACAB9A83BE878994C
col10:   8BC7F8A9847A8AC8687D9BB88EB5BE9C8B7BA79AB9A5CA6BAC64DC98866CA98DBB9936CBC87B8B98
col11:   B36A889BD69999B6C8899B57AC68CCB99CB86BD88D7B76BAC8B8D9BCC9EA77AA999B8BA8AA5BE6AB
col12:   86B878A7ADA7A599295789A999D8B8BDACF9A6D6399A9B9CDB88B9798B57AC9659A78A88C679A9AC
col13:   B69CB896B9BCA98A99497EC5888B9ECBC88CAA9BB9999DAA9DCA6A7BEB86C8798AB87CC65F6996E9
col14:   C4B88A7E8B989A7778BE9C7B99DA89B976BCABBEEAFDA99AAD67B79B9BFA8BC79799BCA8989D9C87
col15:   778B668898AC8989A7CAA7A586A9697D3CB8CAADF9ACBA9C7AB7D89D8CA989D868AAAB596C9977B9
col16:   9858ADB99A78958989ADA99CAA99B9B8A78ACAD5CBA98F69BAACF78B979BAA67D8987768A68B9A5D
col17:   AA6B6C9898A96B79999ADAB99A888BBA99CBAFB9C88EBB8BD99B7D898BCC88A5C7AAABC69A99C39C
col18:   967A8A6C9B66EB5CBBBDA4C898A95CD949788A88ABBDABA5BDDCAA98A6966BA7D5A8BDBFADA97986
col19:   C8A3AA5AB9C8C9A9ABCC8AF9BAD5CAAAFECBC9D8F8EBAEF9B9C9BA98A99DB66878C8E9A8BEA7A889
col20:   69885B889777B9698AAAABC9ADB7E97A89CADC9979A99A9A98DAAADBDCD9BAB8B89A8958D9858977
col21:   A957A5A79B7AA676878986BCA987BACB9CD9BCAB85BBB3CBACCBC8D9BB9877BBCC76A6A8A99AB7B8
col22:   968A68A9A4595C8A6D5BCB98A88898A5BB78DD99AAA89ADB39ABB8D787B9987F9779B98BB6A9C589
col23:   9A958B988D97AA9AACB9D75CC9BAD6A797AD8ABC8CC78C63BA95A98B98C96E9CCD4D97BEA99A8487
col24:   B8A3A59785B84C57BA7B678B97ACA6BBA7D9BBA988A5EBB7388B7AC8A96DAABD749989A787BAB858
col25:   C989D8D578777BAA7A69EB8968CBAACAC99A7799CA7DBE98C9C9AA977885A6CAD8EBA89DAA8AAB87
col26:   996BAA89D89B9C988CDCABAD9B9B98CC8BABDFAACABF8E75BBACB6CDBCB8AD9DDA59CA8D8ABDEB98
col27:   76BAB68684B689CBA8C7B9ACC79BECBABDDAAABDC9CBBEACCA89EACBDACAEABCBABAABCD7B987A6A
col28:   CCDAA9C7A8C9C89A9CB9BE9ABB7D9DAE9CDBAEAB99DBADDACACCBD9AA8D9CDA8F9B998A79DAAA898
col29:   A8BD99A7CB99CBAADBAFCA8BC98D9CEE8C98B5AB5B99DA9BBCDD9AA5CEDDBCB8CCEEEAB7DBBC88A9
col30:   7D6AB8AABA89FBC588FDCA5AB6D99DEAB9CFBBFAEA7CABB7BBBEBBD8D9CC86A8A9DD98A9AF9EA99C
col31:   8B998CBF8FC989AABAB9FBAB8B9DDCDDCBD9AE8BBAA89FCCD9CBCDBABFF9EAEFC9FE989EBA9CBEA8
col32:   9AEABB9DCBC8BBD999DBB8DFACEAFFCBCCADDB9DA89AA7BBBE9BCBBED7C9FCAE9EA7ACD7BECDD7CB
col33:   E6FCCADD9C9DC8B7ABABBEBAA999FD9BA8FCDBEBACBCAA98CC9BCDBF9FAB6DAAC99ABACBBA9CE8C8
col34:   A6B787ABBCD9CDAE9BBDB7CA8BAC9EBCD9DDF7FC8DF8ADFCDAEBC9A9BBCAF9CBCFBD999BCB7ABAAB
col35:   865ACB89E98BAC68BABDE9E6FCDDEDBCDDB99EAABAA8BFCFC98DCCAECCBBDCA6D8CBAD95A9AFB7C4
col36:   7BC493B8BC6CD7D788DBEB99BABB8CEBBDE8BCAABDBAD9FBCAD9CCB8DFACB889BAAFABBD9DABDB7A
col37:   9789BBEAA6E7B8CEC8F7BACBBEAF5E9EEBCCCCDD9CFC8FDDCDD8DCFCEBBC9AE8FDBEA999BD6ECBEA
col38:   888CA9BA9EE8BCAC8FECCB99C99CB9BFCFADCBBFDDBEF5C98EFF9CDDADDCDE9AAC98C98BAABD9AC9
col39:   67888CDCAAADD9A9FCAC9BBCBA88DFBBEDCEFA7FDDF9CADCBECDBDCEFBBC9BBDC8B8DACBDCAADABC
col40:   999BAD9BDB7A99BABC6579D98A99ADCFECCBBEBCCBBFC7D9ADDBFABBDDBECCD8C9BA77BECCBC7BD8
col41:   A4DC7ADD889DAAB979EDE8DBADBD8ABBDBDDDBEBCEBBE8DFE97CEECEBF9DDCDCBFDAADDCFBDBAAED
col42:   AAECCBA869C99CABA6BBCA9EA9CCB8F8CCACECCCEF99FBCDBAA9AA9CCBCEDDABABAA68DAEDF9ECAA
col43:   BA7C9ACC8FD8C8CBCDCAADFFC9EA6CBD7DEBEB9CEEECFCBFBEDDDDDBEEDEEACADBCEBEAAD9A69B96
col44:   AAA89C9BB9AEACAFED9AD6ACBDBCDBEEE99B79EEED9CFEBBC6ED9AD9ACCFBFFEABCAEBAACCADCDE6
col45:   A69B8F9A9BCB9BBEAAABC8DCECFCE9CBCA9CDFCCCB9DCBBABEEDCB9DCCCCBBAEE9B8BAD9BADEBE8C
col46:   ACB6BBE9C9DBAB5D9CFAFB99EFCFB8ACBDDCEEBCDD9DDAADAF89EDDBB9CADC9B89CBECCADEB6D5DE
col47:   CAD7ACBC99AFBBC68BCA8CEA9CEEBBBF9CCDACC9CEDEEDDCDFDDDFDE6CCFCC9DB8DECCBA9A9CCDDB
col48:   9B799BBDD8CAE88797AABE9AECC9CE6CD8BAD8EDEC9DFBF8CBBDDF9CC98ACDBEBDD99988BAD9B967
col49:   87BAB6699EAB99DD9BCB89FB8CABCD8C9CBEFBDCCC7D9DBCDCFC9FAF899DEDCCDAADFC8CA79DCBFD
col50:   AB5CE8BDDAABFDDACBAA8BFEF9DCAAFACBEBDEBBDFAB9EDDCFEAFDBCBCAA97CCF9B8BCEAA9FA8A98
col51:   693877D9DCB99CAAC9A696BB3C97A7AB58AA99B877AB9A9BE8BC9C9ABABCEE6BA4E6AAE578567D89
ROC:     BPix_BpI_SEC4_LYR3_LDR10F_MOD2_ROC5
col00:   B6D59A539977CC7B99DB85A8A5C8CA997AB7CA689A8D68DC76989B9D7B9EB98568F9CC93A4B499B9
col01:   866877BAE895B699677BFA84879576CB8CA8ECC74CDAA59AC8A6DD48D7C99CA9C39BE9CA89CABAA5
col02:   99B4A97BD9698E62786A9AB9CBDDBD9C88B99C88878AFCB8CA998A9BBCBB9CD8A9767DC959986CD9
col03:   B7999988CA972973BB89889BBBB8DCBD99D9BAB9CBA99DE9C8BDA9E8C5BC9AEBA9B86CBEB7A68B9A
col04:   A66BEB698A9AC9B959B89AAC8AD577DB6AE9A7CBD98A8FD4AB9ADB9DC959C8BDF4A86ADC9BA9D8C6
col05:   D4B88CA87998BD79A79D7BB9988BB9CBC9AA67B989BAD7DD7AC9BFC997B9CCE487ABDBBCAAB8B895
col06:   98AD5D6D7AE985AC8C885A679926B9A6A9B5BAAACB7C6BBAAB88A79A9DA79999B58A8AABA9998A97
col07:   8B956A96C69BB79ADA9B78DB9A8AABC89DCB6B8554B8DBA9BFBAB9AB668DC7C9C86AAA6886B685B7
col08:   6B86A98BABA8999947858C6AA99A9A89B88698AA9D895BA57A8BA86C8BCFCBB8B5B46A5A8999FAF9
col09:   A797CB7A8A99CA49BAC68CCA8B8BD8D7B8B7E8A997CBC86ECCB999D6AB99ADD49BB8A98D8A8B787B
col10:   5999B99BAB7A875A69A79A936BCB9C9AA599D9A7AC886AC8D9D6ABBCA9C9D6DA86A786AD96BD8CA7
col11:   BA6A74966435796A6C6A589999C998C8B9AA77A8BB8689FAADFBC858A779767B3BA878DBC6975564
col12:   677545A87C977977BB895F6B86ABCA95BCA79EDBA98BBBC7C8B888AA88DAAC965799AAC7B69BE9A7
col13:   68A4B89A6982796957B6869A9AAE8A99899B8BB79ADB8C79EDCCF8B98DD99BCBA88BCD479BA989C9
col14:   6986B9874A63D77BB892A79678A7DD88ABCF889CA6AB988A928B7B8B86BA7CC96E99BB94CA88A8A7
col15:   7482CB6468AAAB97E869A94A9DCBEA8ABD76ABD86CDAC9AA89C8B779D9989D99C7C8776BDA86CB66
col16:   7479354D9B2268B8B98C8AAD9589997EF5AB7ABB99A9797EB69ABA99A7CF979967A895DBB959C896
col17:   46755792BAD9A9868A97DEAB7CAB97978B5AB87C9DD97D9BA8A94889AB869B9B96879C575E398D66
col18:   782578D897595B98B99BABB8CA997AB8977899E7758B6AC8C89CADE6875A7489899567AB8AB5BA95
col19:   189948AA446C7768C579849B9ABB77ACBEABDCAEE9969B7AABB8A9CBB5D89C8A96D968598999C965
col20:   87966739B5774DBAA78788E968B5599B8B78959A87B9B769A88585C9B58757687AA987B98486B968
col21:   765869B5A78397789989797B5A9797DD8B69A999AB899D7997C6A899DBBCA78B689999CB9957D99C
col22:   4584A76495743ABA53AAA768C957CB8AA89888A4E38A8887A977CAC9CB89AAB78C599A6786A9C575
col23:   3443987667596B96969776AA97BB89776AAC9A69A9BA7A8966998ADA95BD8978A986648A78983576
col24:   8693E78696A67788AA8849A57674BBD95CA9AA76A7B9A9AA765A8B8B8795A9D699669E999C895C33
col25:   6655A9483A56795CC48C68A4A988CA385CCCADCA698FD97CF9A47AB8BA95BAA66546B778A88957B8
col26:   88775A4B8877A9A8BB98896B9A979C598DD9B5CA8B99A967C99AAB9BC99B9BA99A9798987789BB95
col27:   5885AAB6B57A79B96697C98ABD7ECCBA9899CC9B7DA8ECC77B9CB9BCDEBB797DA879A7B96C957AC5
col28:   378EC8789BB86E99A8E7BB9D89B9A69DCAEA598B8CFDBAE7A8BD9B6FCABDA96A8896A9A9D8C968C9
col29:   B99B7BA6999658D38A58BAB9EAA9FCA95C8BBCAC9AEBC99ACAC6DD796A96ACF9A7868CC9698A8ABA
col30:   3A63A8BB667B8883C9A9A998EDA97DAD9A9AC77A789855B59C9975A6A5AAB7B9BB899D9A49B999A5
col31:   6566BC89B59ACB8C77D9B98B9DAADD9CDAC97BA9A9FA7ADABACCDBADBBFACCC7BC9AD9A8879ABBAA
col32:   98379A899BB98A85AC977A779C96CBBCD9BACCDDBADD87CBAB999FA7BBCBA9DCA87B87788A78D777
col33:   AE96C7B988C9AAD46A6ECCDC8ACACA8DCBEAAA7B9ABB788D7799E98D88AACACB899A96ED9DCAC894
col34:   873856AB9778CCB997C89D99DA899A76A5E9DAD5ADBAA77CACCD9E99BA8C99AA6ABCAB7877B768A7
col35:   84B77CAB95C89999B5D98BABA9ABC969B986BC6A9AAB8CCABC5AC79D9B88EB87A7B5A9A66CCAE867
col36:   569B96BA9A59BAAB7A9AB7BAA9CB7CD7CA8C9697BCEB7CCCAAB9788C97BC9BCAC8A6ABBB89CB9BC7
col37:   8A3998989A9CB88AD84B8AB8559CAFCAAB9EDBEB69A9AB8D8E6C7DB897585D9B8A5B9A7888A8FDB9
col38:   A98C3B7869C8CA57DB86B3887BCC8ABACA9CB5A6ABBBDABADBB99B99BABFBCD3B99BDAB9B6796BCB
col39:   49B98CAB6B6C889CA978AABA948ABB98E7A96BCACB8BC99F9AACD9CB97BB7C96A6C78ACA89998868
col40:   755E9AB8A5A67AA9ABAAB9AC7AAAABA9BAC7DC7BBBCD99A9A985CAB77598BBA869CC96AB5BBAC785
col41:   483897867A66B89799BD4A8A9AC8887AC89BE87B99B99EA8ACFB79A7B8BAAB788A89B9B9ECD78B8A
col42:   68872448A7978A66BB688CB9AD9999A9B7AA9CCDB9B8CC9D8AA88BFD7CDA9A8BCC988A79A77B69CC
col43:   B8B987886869C899897BB98ADACEBBD768DABCEC99DB87C9DBAAA9ECCBC89768798A899A7948D8D8
col44:   77B9A7B599967ACB9A986C699AAEC9D9798EEB988CB9BAD679C8AA6675BDBFDC88B7879CB8DEAB98
col45:   9658B5A5AA98A876CAAA858E6CABBAAB5B9DDCBCC8D68D8ACCAB68A59D68CA78B8AB86A7AAB86998
col46:   77A6B8BC9AB7997898BDBECD8AB7EBBC8ACC97B98B9AB88D8799FCB68BCAA8894C978DABC4CAA877
col47:   6769B95887999AB877A8B95699A79BA9BD86AAACCBBB8CCCBCABBDB9C697999BEBAA877D63A9BB69
col48:   6585699C79559DA9B9AAD6A7A9777878A6CBAB8CB6AA9ABA87BC7BDBDAEBA76888A9A6D8AF7B8AB8
col49:   36787695A897A9869AA4BBB8D8B7EB7B9A898ABA7B9BA9AD7849BAC886B9C99B9478BEAB7928BB96
col50:   CA89986C5EA8988EC7C8B6BB9BC69BBB9A7C969ACAC97ABA877B69BB987AACEA7AB787A7A75B9898
col51:   32647699767758B7558864BB986A9885979984697947957B6589569997A68A9879596A97778DA564
ROC:     BPix_BpI_SEC4_LYR3_LDR10F_MOD2_ROC6
col00:   779296B5AB969465C76A98D889568AABABA7D968A9BB79CD95B8A6C995A69878FFFFF96B9AA4DA98
col01:   6765498B79C788AC7AB9AAC7BC89A68A9B7CE8E7ECC9C989CADFCAD66A75AB9BEAB89A99B97EBB9B
col02:   A78488667887DAA5BB79B897A798D788C89AAA9EA9DBB9989C6BC9899A98A9DA9CA88A69AB979A6B
col03:   578688B8A88BA8CAB9877B9FCEBB98BEAA8DAB78CBFCAAAAABCA89D9ABAABA9BA7C76FB69A6BBA96
col04:   67367885A9AC9A57B7EA88AB9BAAC9CBDA9BB97CCACBABCBABCAABCCAA98CBD47BA763A797A89B98
col05:   86D797756D8B77B899A89858B8D578EA78C8B9CB95E9ADD9BE39BBDB9BB68A8BB9D8AB9939789B67
col06:   3576988A98AB67ABEABA8CA88E8DCCBC89EE9AD57999B86AFAAEAA8CBCC9AC99AA9C48B89AC79DA8
col07:   478877A9AA9667795885C78C9B6ACC98CADA9BEDEB9C5D7BC9B96AA98EABA8CB9AAEBAA9CCADD6C8
col08:   98A9B568765779A998DBC9BAA9886C98CCA9B958BAACCFBDB78BBBA879989AA98A8A8D9A88DA8A86
col09:   78794B65AB9B8584BCBC88DCF9B95D8EFAAA8AEBC9CBDAAABCDA9CD89EF998CCCBF75DC9EC9ABD9B
col10:   8757794B89897999DBA8AB6CBC9A6A9D6BCCDDFEACACEBDAD8A66AABBACDAC6AAC9CB9C8DBC89C91
col11:   5654A8BC6959A37D5C887AB979A9B7869AAAD76D599798BB8A8AC8BB8E98BA66A9CACDF7CBAC7ADA
col12:   7558876776A5B699B9BD89688CBA8DEA97BBCC9AA99AACCAC8BAB8BC9D9EBA9BACDBCBDB79B6D965
col13:   37778A598B53C987CB9AAAC7BD8A7CBA869DCB9CAC9EA6CB788BAC7A7D7A9BB9A899D9ACB9AA9778
col14:   9397964189696DBA6A7897988AB7C9B67996AC6BB9989BA8C7CBEC5997BAD9CC99879AC898579A68
col15:   7A6668A9189A9A9AABBAA89BBBCACC9C787CEAC6B99CB79DC9ACCCDEBA8985748DCD5A5C8C79ABB8
col16:   8759876A9B6B53CA99BA79B999A89C9A9B8A9ACD9B97CBD7A769DB99B7B9BCDADC7B95ABCBAB8C99
col17:   A152698B8E95675BB79587BCAEC7F8A688DBA7AB998799B891D7AB9A6ABAA7979CCAB98CC8DB8688
col18:   668A88683987787899AAA777EC667AD99D9EB6859D8CA7D9B996C88BACA99BAD99599AAC8976BE88
col19:   26779AAA8B778876A69B99BD87C8BAAB9AE9BDC8BAB89CBBBCA8DCAAB8B7B8C76BB67A6CA89B7C75
col20:   95893C94ABA86CC9A678B77B6BB8AAC99CB8AC963CB8AC8BA98B9DAC8A6999ABA95DB7B9C8B98B9B
col21:   6586679697A7C988AB9DDAAAE7C597B5ED9D996ABA88CBA7BDCAA9CC5BA7AD898CCD66D9A8778A87
col22:   5A897778A797AAA57AA8A8C79999AA886B9BBBAA888BADAA95BB9B68A97BC86B9AA995838569AA97
col23:   636496987748B2DB99CB95886B96AA89AB9EDCACB5ACDABBA786B994C4BB98AA7B897A8A689776E8
col24:   97949A39789758556D789A939679B8D859B9A5B897BAB9AA9D8AA7AA78BBF899B99559C87B9669B6
col25:   738873395A9ACB8AAA9A9AC67C959AA7567ACD9DC878BECB77995ABBD9AE9BCBC6DAAABAA7BDC777
col26:   7BB9A8A496A8BD9B9E98DBCA9DBBB9C9DBECCECBECEAC9BEE8C9D9CBFEABAA7ACB99A99AB7C8ED99
col27:   8788956794BB976877CB79C79DCB8B7D8C9DDACDABACB9DCD8D9CDCA98DA7BDA94AD9B99DBACAC57
col28:   C6679E5AFDACAA9A7ADBDCEF8CC99C98BADBBBBDEDBBD9A99FB99F8BBA99CABFBA89BECCBB6BD9BA
col29:   A868FA8C8D8ABE8796BE88AACB9DCD96DCA9EEC89CAAEB8CB789A68D9CBCC9AADCABCFCBBBDB9B96
col30:   5989B99AB788889E8BCBDDBA79A8F8CBA99ACBD69AAABABD9B789BBCD8B99D6D9BCAC8BBFA7BACAB
col31:   B979AA9BA968779BC9C99A87CB79CBCADBCCDACAEAAB9D8BCCBBABAADA96B8ACADF8FAAE98ECBDC8
col32:   889D8AC7A6ABD996588D8DCBDBDCBABABDDA79C7ABAECAABACE8DBC8E9BCF9A9FBACB999DDACDD86
col33:   8B9A67BAC8A89A8B7BB8AA8EDCBBB6CDFC69CCB8BCDDDDC9CDEBF8CAABDCCEDCBA7A98AAC7B8B9AE
col34:   BBBA7B6799C79ACACDB98F8789ECACCDB58EAEC9C89D8CFED68AEDCC8BA8CCD6BBBAA9BB7DFCBC9B
col35:   948AAC8897999C6BCA88ACDB8B8AC9BB9BCBFBC8ACCDBDD85A9CCEC9CFD97BBB8BFBEDCA9CCBEBA9
col36:   9C67C9AFD98DABBAC9DCCCBCCA89CC9BB6DADD79CA8BDABEBCDDCDAE88D99CA8DA7AFCABB8C9DCBA
col37:   887B87ADB99BC6B6CA79BBBDBEBCD9CCBAB8CBBAECDCDA8DCB9ABABACE9DACBB6BC5A7AEB57ABDDD
col38:   66B8C8BEBECA867986FC8CCA9C9D89D78E9FDD9BACCDCD7DBBCCDDBECCEDAEAFD7DECCABDACBDBB7
col39:   6A89C98C8E98CB9DABADCB99CC9EACCDFAC798FB8DADAAC9BCE6ADEAEFF8EC888ABCBBC9CCCDCBB9
col40:   8A986AB9B88AEB6ABF8AC998B8BBACBBCDEABADCC9BBDEDCBFBEDA8FFF99AE9EA9AD8ADC56C8ACDB
col41:   84798988AB8CA9D8EA8B99DDC8C9CBCABB97CBA9BBFEFB9D9ADCCBC98AACB8FBACEB6AB9CCCAD9AC
col42:   8CCCA8C9AA49C877CA87D799CBADE6C999EDDFCCCEC9BABABFA99FACF9BB9FCCFBCCBD8C7DE8AD9A
col43:   B5AA987AF8DAB9C89CAC7B999BAAEAD9B99F78D9BACBBCAEC89EBCB96DFBBEAF8ADF87CA9BAEADAA
col44:   BC76B5BDBC9A79AA8BBECADADEAACBBAFBCFA948BBC898ACEDECDAAACCACADFC9BCAF9A9ABA9DCB7
col45:   57BB6BA8AA899B9BAABA7C5CECADA9BDDBCCB8BCDCC6DAAAFEDCC4ADE9FEBA97CCAEAED9FB8BABDB
col46:   A8497798C897DB9CB8A88AE98A8AA8EAACAD96EBAD6FBA9AACD9BBCBBBCD9D89F8CBDDB8B8CEE9E6
col47:   5A9CCC8CBAA9BABADC9955AABBBCDADBAABAF7D8CEFCBCB8CAECBCAEBD8CB8EAC9BDEDBAC6ADA8B9
col48:   979BBA75AD67898BB8696DBFAACCDBCF9BACCC979DAEDAEABBAC7D969BCFACEAA9CCFF9AEADC7B8B
col49:   AB5A9AAA9B9CDBD6EBB9DADCCBDAD9C8F8D8BAB99BABABAACCECD99DE8ACADEBABABDBCB7B98C877
col50:   6A98A7BAB99CCB8ABA9A8CB98EC9FBDBBECDABAB7BDDADC8EBAC7EDABB6DA89AC9CB8DCBC8E9A8C5
col51:   3A776BA576747BA8CAA569B977BDD97B89AAA8ABAC87DC8B99AAC49764A69C8A688B6A835999BBB6
ROC:     BPix_BpI_SEC4_LYR3_LDR10F_MOD2_ROC7
col00:   95EA647BAA55C77BA85468D9BB8699BCA8979A89B8989A986B9B88B5DC9A9DB67B5AA895C998D8C3
col01:   9998C557A975B67CB7976AD9BCB98CB99ECEDAB7DEDEE9BD8BDC9A9CAFCAB6ADC9BA7AEB56997B85
col02:   477A88765889BAC7895B9ABCDCAABB7AA9A9DABBB9BA97ABAEEA69DEA5DDA989BB788B579CACB5C8
col03:   6A79959C98B967A7A9989C99ECB78CC9DBB9DACBCDCCF9DAE76F9D77D96D9BDC9587E87BB99898A8
col04:   5717A79CA78C757A6799A6CC678B8A59F8DCB8AACAA7A59C9EA9C89EBB8BE877BAB989A94AC98F88
col05:   7F254A5A6C9688A9C6986ED7DC8BD9B889AA8CB9DACACBB8ABCCA9C99A5CBAAB87DAB87887DCDA57
col06:   AA96BB8BB859A9AD687A7A8A6ACAA8ABBB6BCBA9BC969A6B99D7CA8CADCAA866BABA8BDA97BABA87
col07:   A7876D986AC7A948AA999C9C9ABABBC6A7EB778CDEB8CCAA5A8AD6A7D9D7C9BE8BAE7A9AC7C9FB69
col08:   88A6696663C887CA689A3AA9AAA987A9B59A7BD989A9BCA988AA785AADB7A99A85BCD78B8B86A7D7
col09:   AA85AB677A99DA78BACA399BCB8BAD7A87BCCBB7CC8C6BECEABD9BCCDBCCAC9C9A7C89B79AEC8EA9
col10:   358C989776777B78CD75A9B788BC7AC99A8ABBACCEBAE9CC9B5B79D8ABDEBADAB6876D9BBA99A8CD
col11:   7487B6D7866A8D9678679CA6499C7B71D88ACA8B9AADAB8B8A8DA4EA9AEB7CD79ABBA779B48A67C8
col12:   B6B5AAAB776A5B8C856D6BA8B888C9DA69CAEA858A7C6B9B96AB799C8CBC9D588DCD6A9A9898C952
col13:   796A996198A878A89CA8D7B8BACCC9AEFAD7AF879CD7C8689CBBA8BCE59CBABD9BBB9CCCC57A7573
col14:   897B759979789DA976B6A66BCBBCB997A9FC8ACB6859888AFDBD9B89AACFA9AB6B7CA8959E67CBA6
col15:   6A56999CA5A986666AA4BFC6CC6ADABA9B6BA8BFB788BDE7ECEA9A99DB3EC8C6948788A8558D9497
col16:   A55799D5999389AA9A949AB788ABD9CD9BB8CAAB7875988BDB9B89D99D8C99A889894EB898A9A879
col17:   277649A8858C59598752CC9C6BC87C68A5AB9A99D8B668B95B7B9ADBA8DB8B9BAB6B6DB9878979B7
col18:   73487935B77A9ACA78BB8F98CA5D858C77CBEAA65AAAAACBC9B9A9A966B9EABA88886A99CAAF9895
col19:   7B6476C9957858E8989B8BCBC8A778B8ABF6AD68677FB6ADA3CADBADB68789B77697A5AC68BAB779
col20:   26827879A94BCC7B799868AAC9B74AABA8DBC6AB95B9AA8BCB8BAB98B8689778A66C5A77B7CA58A7
col21:   7534B5985B686AA98F8BAB9F989AFB88B5B9A98CBC97AA8EB97CDC7C84CFAABF8ACBBB99AA76A696
col22:   8344988668268927949CC4C7CB7B7DBABB9EBA6ABC85A8A86BE9C895A799B6BAC69878767AB7E745
col23:   345364A8755382887586B86C998895AC995AAB79B66989899B7C9ABDB78E6BBA5BBACDA978899867
col24:   49842797789796AA667566ADCC69799BA7EA78AC96A768C7599989A7ABCBC8BCB39AA78975C99CB9
col25:   73CAB946B88999889699C685A7C9AD76986B76BC79B3CA699AC7C96C99CD9EA9AAC3A789AA88CC69
col26:   4979F7B7CBC78AC99BAD5BB699FCBE598CCABCBBBD9DAA99D59B9E879BCDC3F6A9ECD8DCC8ABB977
col27:   A768B7CC9C7D8569899B8AECE9BD8BBAB8EB6DBBF99B78CCBEDAC9B9FBAA9BBBBA7BADF988ABAB97
col28:   6A5889CBF68B58EB9AEFDA8AA94A97FDA999BDCCAD8B9CC9BCADB66DCB9CC7BBCBDE8F6DA7E7BDC8
col29:   89B9BAAADA6AAB87DDBA77BFAABBEDEE9DAECB8CBDCABACC9BABF6A7C9ADA6E359ACCF69DCA7CB87
col30:   C7B6C78AE698885B9E9989BAFEBCD97BDB8AC6AABCACB8BBDABCAAA48A9678CDBD98ABD89AD96F99
col31:   96A7ABE8ADA9789A86F86FADD7C9E99F98A9AACBBFBFBD6CDDBAFBADBA89C8CD8E9DBBBADB9C7D68
col32:   478987BBB7CA679CAACD57AE699A9A8BC99BBCDA89ECB8DCC9DBFC997B9BBB6A899E99BC9B7CA49A
col33:   879655BC8C9AAD8897E87FDD9F8E9BAFAEE9C9FABBFDB4DAB8EBEBDAAECD9CBADC87689B79D9B8A9
col34:   7778A99995EBC9CA99BBA8C7BDC6EA9C8DCDF6BACBCD9CBDABACDC9B5BFADA96A9A8DABA956B999D
col35:   C399776C6A967D8DFCA69CB9FABCCCE799F9899DCCBB8AD8CDEAD9CCC7A999FBAACDAB9ACADAA689
col36:   A8A8BA99CBCABD9D9BB98B6CCC6DAAD97EAAC9BAFABC7BED8D9C8C9F77AEBBACBCBAFD64DB9AD975
col37:   8B7AABFED5B9BC987ABDC8AAAAEECBA9ADAAD9AB9AC8EAEBE6CBAB3BCDDEBCE9AAACC8A6E9ADEAAB
col38:   A78B5C8CAE79ADF9A8BC9AB894BACBBEABDFADFCBAEFAAB9CEB9FF8EFBAFB9CBFB9EAD9DD99AACB6
col39:   BF8BA898ABB62BF983BF89CB9896CC9DCAD8BDDAC88AD7C69BABECEEACFEDBEB8A7BA8CAC8FA8AA8
col40:   B788AC5ABD976F59DDAB6ACBAFEDCADCAABDD9FBBCBDACDABAECACCAC8CAFBEC8AF99FAC8498DADA
col41:   7B48DA85C589C5899AAD99EEDEEC7E98D9CEF97697DAC9B5CD88CDBC7FADE6EA77AC79C9B6DCBAF9
col42:   AB5A8CB4CB9ABBABA7CAB9AB7AD9E8CBDBBBAD999DBACBFCBA8E98DAACBCEBEACAF9ECB998FE8BA9
col43:   ACC9BA7BB6F88C75BE5CECCABCB9B9EDFF9C9EB9C95FBADBCC89CCCD979A9AFCAD99EB9ADCBEBCB9
col44:   A8CDACCBBEDAA9AA7A6CC7BBFBCFAEDDA7BEFEF9B9BABD996BC77DACECEC7DCAECF7FCA9BBDCC9C8
col45:   9977E8CA778AB8D9AEA89BBEBE8DCBB9ECBEE9B898F9CE969EACCACCDE6D9AF8DA8A89BB6BA894A5
col46:   976A7BDA8CD7B9CB9BBDABDD9CA99DCCF99CA49DFBCDF699BB8CCFFAAD7AEA7AFB5D8CBA68ACDB8C
col47:   C77A9A9DB9B7BDAF89BD988CAEE7BAAA8BD99ABDADD7BEDABDABD9BADB98BCCC9BC9BB7ACE89DC87
col48:   863778878ACA99AA7CBDDAACAC7689A8C7B8DC7A94CCBAB89DDC8EDE9CCCBDBDB9A8C6C9D9C9C4DA
col49:   89BBBB8A7B98AA79BE6B9DABAC9BECBCFCE989D7698E6BBB9786999B8D9BBCD8ABABBCBEB7A69A67
col50:   789AA8FCC959BC898CBBA6BDAD8D9B9F8CEBAC8C8BBA8F6C98BBA9EDAB8AC9CD7AD8B6EDCCB6BB7A
col51:   8477877B7B89979AAB975CB9789B9A58B689A94C9AF9BABCA8BA793BA88986D97B978795699AA874
ROC:     BPix_BpI_SEC4_LYR3_LDR10F_MOD2_ROC8
col00:   F8C7777DBB8F8BA7A99B8BA5867B5AC7BC86A99A8A9757B55779467A3EC899B8BA8CB6AC976B7999
col01:   E57798968C796AA7D98BA8EA7C28EECBC9C6FCA5E8EC8EACCCDBC6B9B977CC79DC8BCAD7E9B5FAB7
col02:   88A8899BA9DC8A46B6C7B9CB9B8A9BDC9CB9AB98BCF7ABBC8AAAADBC69B9C58C6B9C8D9877ABA79B
col03:   5587768C8B9DBA6B6989ABBACAACABCD8DBEDB89BE8D97CB98C998C9B9CE99B694A8BCBBA8CA8B6B
col04:   3467A894669A9B663A7DDB8AC6BA8B9ABCB8A99B87A8798E98F8A95AFB9AB9C74A88B89AA977A97B
col05:   969C8D9788AB95C48ACA88AACC7686CA97B8FB8A8B6ACCBECA9CA7BBC79EBDC869A698BA9AD9859A
col06:   6689C7999AB586A8CBA8A99CBCA9989EDCBD779A99BBBBDFAEC9C8DCAA8BC954ACAEB9B9D6BFC7EB
col07:   839BA6AABACCAA6797BC7A7ACC7976C59CAC78BAB5C5CBCDDE76C79A968799988C9AE8B7CE8AFB9A
col08:   68B9857AAA8B8A856779A6A8AA989D8AD98DB5DB95B8BC7AC888ABC6BCEBE89C6BA589BB869DCBA3
col09:   A9C68AAA7C79899589EAAC99AA98BBC8B79AC9B8DDA8FAD8BBCA6DBBBCCA9BA89CBAB97FB8B9AC96
col10:   497784598A9B687586BB5AAB9BAB987768DB9ABAADAD9BB9A8BA99B8AC8BE8BC55888CBBE9A78BCB
col11:   736B799949665999C5A98888487BD8B8DAA87C9DAD9B9C9E67C9C9B9887D58ACBBD87AC9BD38EC95
col12:   86997786675939A887AA9688ADD6B989CAB8F6CE9B9EBDCACB9B8BA8B79A969DA8BCB4FBB988A996
col13:   8454594778CB98758B8A8A89D8E7EC7BBA8D77E89CCEA8598ACCB98ACD79A95A9DABB9C978979B69
col14:   725667489A5A96CA98987BB9AC5CB99CAAB97A98599D989A9A6BB9CA9CBABA766AA9A3CBB9AB87A4
col15:   576B7879E64A7A89CA8677A7A98C8A8CB9DAB8AAA98B9CB9A99C7BBBB99BBCBAB9D5DEA883B899A5
col16:   8A8DA76C923AC48CB75979D6ADBB679B9D9BD56FA859AACEB8A7BB97D37A69988AC5B8B6ACC967D4
col17:   6569A589A7979996B8973B79998D95858C8BB87ABE9ABBCAB96D6CAD8A5A7788BC8779A89DB95ABB
col18:   69658479869A675A7767887BC79B9B99C79BBCA9987BCC9BAB99AAD697DC78BA49CBEAE599BA67AA
col19:   4838997B84B9BCBC4779A458A699A9798B9CA9ACD9F98AB7F6DABBB97B9A8AB59AECAABE77CADB6D
col20:   837786A58755A574CA7998BA6565B25C95DC99A87AA98CD8BB8678B994877C89BC78BC5C5A9CA8D5
col21:   846A78766BB865CB978A69D88C989659DB79A7988BBB5999B5AFA87AA9E889BB7879BBCCA786AC6B
col22:   5A748159BAC879B859689BA86BB7ACC7868B9D5D87BA988BB7A867B8A98A8AC6ABA386ACA6FD49C8
col23:   87D775899DA98A87B89B99B9B6CA75998A86B89A79BBC8C8778B79B38977A997B8C88B95CAA7B768
col24:   699698DBA979A78A79568B59CABE9C99B7AA8D96A8A7DDA775B78C79889CA7A9992AC579C99768CB
col25:   44288CD9C7A95899B9B8665A989C9A789C8B839BA996ECB8BDBACB9CB7FABAA7C8A9973C999B9C9B
col26:   48886AADC9C8BB8997A9ABF9EA89A6E77BC9CADDADACEBBDB9D9ADB9DABDC8CB8ADABAB8B7A8A8B8
col27:   559B9794D379C898D78B9A878AC8A79CBAADCDCA6BADABB99AAA9ACACDAACBDBD8DBCCBEEA9AFAD7
col28:   96D8CB8AA9ABE7BA9B765B8CBBB8BACDBDAC9BDACBBAA9CAA8FBD6C79AAA7AA9B6CCE8BA8ABCAA76
col29:   B75A689A9757B6887AB99CA7CDB9CDEAA7BF979CAFCBECB8EB7D886AC7BABB9C969AA8ADAAADC676
col30:   8A8B7BAB7B978788CC68AAA9B789D59BFDBDADBCA9A6E9DEEAC9BEADBC8CBBDB9DAFC849DC9B9E67
col31:   BC88AAA9BBACA98B7C5DADC4AB9CDADDCBEFABC9CA9CFDA8BADCDCAD9CDAB8B89BFABACABDECC749
col32:   58B9C6A7899A868C988CA9ADA8BBCBCA99CCDAFDCADDBEF8DDAB89FE77BDF8ACAC7A9CBCBAD9DDB8
col33:   74DAA7CEDABDA99B7B8699FEB9ADCCFABAC84FA9EDACEC7AAAACDB8DCDAC7B9BBEA89AD8F9B99DA9
col34:   99A4CBB88898BA89868AC8888B9BEBCCEABCDCD57ABBADAB8AC9C8CAA6C6CBDF7DAB8B9AADDEF5C9
col35:   CAD98ADCDBDBC9A7B18AAC977BEAAA8CB8BBA8FDA7ACF888DD8B897F9A8D8D79E88AD989CDB68BBC
col36:   8B8889B8AABD7CB987B8DB79CCD77BAC9BB86ABBDBBCBDEAC9BB8BB99DECE7FCD7A9AB9EC7A88BE6
col37:   9A86B9C7C96AABB7DB9DF98DCDD8ADCAFBDCBB8CECBBBFBBDFA9C8ABAEFCFBFACBBC9AF9F8D98CBD
col38:   8B89B9A8EA895BCBE9B78BEACBFBECCAB77ECE98CDEA9AEF99BDA8DFBACBCBAAFE9A9AAEACBAAD9A
col39:   9AAC4999B99ACADDBCAD79D88B99DA9DBCACF9FACBDBC79BCBAB9BDF99BABBBF9A6ECC3AFBBB89CA
col40:   9679DC8ACBAB9F5CA8D8BE9DAACBBAFDCAFB98DBDAEB6E9FDAE8BA9BDFFC9CADCDC9B9DADC99CAA7
col41:   86876699A9FCC4A986E8E7FF48CEA8D9EBBDAAACDBADBCDACC99BDE98CABCCD5CC799AAE7DEBBBD6
col42:   A699A7AAA9EB5CB9CCD9ABDAE9BBACEC9FA99DDA9BA8D9CD6B9CBA7BCBDFCFECCBA9B88BABACBDBD
col43:   897958AAC57C7AAAABBACABCDCC9CDFBDAF8AE9B8DBFDBFEAAAA7BAFAAD8ED7BDBEB9CFBE8DAEA89
col44:   8CABAA89A8DBBABBEABA699AAD898DEEA689BBEABECCCBF8AAFE8D5DEDDBB9C5ADDC9ED7AC9AADBB
col45:   87979B7BADC899A6BBD6EA8AABACAB7BCDC9FBBD9CC7CB9ADCCEF9C95FCDA999CAAAD9ABD99CBA8C
col46:   9AB65A9CA87A67997796ADDFC9BCE89BD9C8AD9DEBEEBBACCBCA77DCDECBE879AB9BC9BEEAAB8FAA
col47:   69A779AB79A7EB8D45ACAB9B8BB9BD9CCCEBAEEAAC8C8B97F7CBC9A89EBABD9BAAC9EB87FB8ACED9
col48:   9B9A9BA89ADC75C88885FCD7B9D9BABB9CB99EF9ADD7E697DD8FCCB99ED9B8BDB7EB9CB988B6EA77
col49:   7899A946AC79A797AC77C9BCDA7B9BAD9ADBAD86BA6CCAFDB9BA69D7EA99ACBF76DD6B998EB9B8D2
col50:   A9B9AB6FAA889B9888D9CC999CBCBDBCAAD999BDBFCABC9EC5DB8DDEA7DA8AA8D7EBBDAABB7B7FA7
col51:   7B48888985C7A79657D7898D78ABDCDAC858A8A87679A89D7676A686D69DB8BCAA95DC76C63999A6
ROC:     BPix_BpI_SEC4_LYR3_LDR10F_MOD2_ROC9
col00:   6A17648689668795568668A48B755B78976997786698796895748795687B555666A87A98785976A7
col01:   99999599475B985776AB9599F6BAB89AA54AB7C78DBCADFB76C5BAA8B9B9AB9847A6975999CADCB6
col02:   9396778649BD96ABA37869689779ABA97A7BC8A8AAC9797799D79CCC9A5C9879AAAC6A776ACA7C99
col03:   63556B679886A7367587A75C78968A6AA97B9B77AAC8CBACAA9C998A98A6B688A79A99967795B8B7
col04:   57564945A687A4789948B795A79588ABC57688AB73A389CA69ABD9C7B997CAC8A8799A85BBA8BB74
col05:   1347578958878AA8A7967BA884A9BC7EABEBC7677B9ABD7AA78788D6BC7B8C4B8AA7789667A85598
col06:   8334B927337A667A6B58B896A8497AAAAB86CCBDCACD6AB87A7A9ABCA88859C896C86CB497C3D7B7
col07:   9464875667985A6A59B5BCB9695AE9A679BC9B79B889B89786CACBDABEBD977A569B9BBCCB99A8AA
col08:   4664785896AA577B9A6A87B6567A787A97B7DBA96ABAB8BA95947EB98BB8B5B976CDC6AA78ABA99B
col09:   478754579688A8A6888985AB97B9997B89A978AB996A857AB9B969BBAAE6C668ACBA8684796C589A
col10:   768758778CC39BB69A98BA86A77B8B397999C7DA6D8CA5999CBCB99BB9BA46A98C5B9A69CACB88B7
col11:   7277378B6835774C5886AD9189AE3BC8AA7A97999DD97DE85876A7775B97CCB896666A8AB76867B8
col12:   76949987869C797E89675B88A9D496C5898B6C7A6BBA8B7988A88C8B6A3B6581C5A7B8876897AC45
col13:   2355647678AA8981879AB8955A97ABC5CBC4A789BBBB89A89CCBCAA89EDAA98CBBC55CA69AC9A949
col14:   47687876A855AAB6787BABA7A85C7A968CA7BBC7DA859757A9A799B99B97B88888D69A6767A65969
col15:   867685864986A7A6B48C9688D77995B9DB789C9C68CA99C999C77BE999CBBBB9C78B996BA9B9A9A5
col16:   76B46578C87857C978588876C8797ACBB89A8CE884CCA9C78B8CAF9CB889BC97B7869CA7B49798B9
col17:   7879674967679586966669C6679A9B9AA9785877387CAA9A889AA387C5A4AA7B88D5BDB89D8AAB58
col18:   4554593767A7886658989954B9558968B658BC969A9799897986C9667B95C888988A56C6AA8587AC
col19:   75C553975A8595975A79776B959AC866888A8C87A9B7A89DA8A997A8F6B8CCA664B6AA997C87AB75
col20:   636587379548754BA86BAA79B7899DB9ABB88AB6BB956AAA797AAA78A8A8B8CAA978BA87B8ABA979
col21:   A2A6915698955568679B6965B4B8C7E78AAB7978D98A98CAA8C4D79BA99DBAA68D9AA798C389798B
col22:   755757669787B78BA9886789889B78ABA56B7A79A585C8DB58AA9A9BB887A6D7A7B8B7B4AAA9C793
col23:   5484376A83B75875586967659569AAAA7D897AA898E787E99A8CB96A979A7C8DCA5A7AD76C56A6B8
col24:   55765678877387477977675A968A98CC9D7877487CD8AB8ADA86B68AC776787A867A887B7898B9A9
col25:   A43876C5778969B277797979B8689966DCBA9A7DAB85CDAC99B7C89999CA9CB97A99CBB984ADA998
col26:   8695AA98A657797A87978A8CCB8BABAAAAD9C9D9B4BCAADAC99DD988AA9BABAB44C67EABCA89ADAB
col27:   469894998657C7AA7689B6B9CCB8988DA6AEECDDAACEECC8BBB6E87ADAAED9E979CECAB8899C9BAB
col28:   84558987A986AA76C7AADCC98BA99DDA96B67B7B9C9D78F89AA8BDDBA6ECA96AAEB998C7B97ABAC9
col29:   488789B79A99A999A8CB979D8E98ACDCBBADDCBA79BC8BBB8EEA9CC5CADA87AABCD8FEDBBABDA987
col30:   84559B557AAA78BA9865D8A6B5BBA8ACA9CBBAAB9BACAF996CBA88B9B6A6D7CABCCAA9BBDC8A9BAA
col31:   5B87A9877578B98CBDEB7BABBAAA7AB9EEDDABBFCCECDCC7DEC9BCBC9FBDBB9CADAA9FCE99ADADCA
col32:   9879AA7BAAA997A7975AB9EFAADDA8DCD88BCBCBE8BFAC6D89DBD7BCECACBD9ABADAE98CCACDBAB8
col33:   955987A34C97B98977B798A988ACCB8AEBE9E6FB9ABC9A88AA9AD98AAE6BAA899AC8AEDBAC8BAAA7
col34:   A7889D69A9B999A99BBAABDAAAFA8DDBDB8C99BC99BABDCCEABAA9CBA9FDC9EBECBCDBABDCB888AA
col35:   67998B6A9887BB9688DACAA8BC9C997BCCCAEEFDACEB8CBBAC8CC8CDDC97DCEFFAA69FA86AABB6AB
col36:   7A767B7779959B69CA7B7889CBAAABADAACCBCDAD99BFADBECBB999BC8BDEACBBABBBABBCC7BCCDB
col37:   A96987AABAAB9CCB9DAABDEACDDEBDDCDBBFFACA9CDDC8ACDCADDBDDACABEEF9DCB89E8BE78DDF7A
col38:   899679D98AA79A78ABABBA97BAFDCBFEDFFCDADE9C9CA78BCBFADE9CDAADBCBCBEDDDFCADA9CBBBA
col39:   966A9B9BB78B7AB68ABBCBECCBBA9CBBD8EDDE99B979CBDEDA6BCD9CCBBFCDBABCCBFDED67BAC9A6
col40:   76698AB9998A789C7EBD8FADEBCCC9CCD9EBDBAAAABBFBBCAB8CFDEBA9BCCD6CCDEEDAEBBDCBD6AD
col41:   558AAEBDD5ABC8E96C869BDBCBACBEAA9DDBFCFAED9CABBABECEDCCEF699FCD88BAF6CACAD8EB8AA
col42:   CB7858B8A87A9B8B86DD9D9AEA8ABAACBAAAACC5EDACEA9ACDABEB97D9CAEDCBB9ECAFB8AC8BAFE7
col43:   88969A98B7BAA9BBDACEC9BBAECEDACFCECCC9ACFEDABBFBEDECCDAECEBDADBEDDEDCC9CFFBFBCEC
col44:   C7AB957EBA99D8998AC98AAEE8CE8DCD9DACDECCBBAB9BFC7DCA9CEDBCDBCFECA9EED9ABDEBABACC
col45:   C9CAABAB899BA8C99BB58D9B9DBCF7CC9D9EBFDCA8CBBDA8CAEABADECCBCA9ABFDFEBBBCB6DCEBCD
col46:   79B689596BC7B9CBB7BB5BFBA7C9DB9ADA8DCBA9CCBB98AFB9CADF89DBCEDC9BC9C9DA8BDD8DCC9A
col47:   949899989CCAD6A9CA78A9C8DADAEFCFDDEFD9E9DBDEDDDB9C9ADBDDE9BBEBCAEDE8AABFACDABCBB
col48:   979ACAA9CDCAB99B989BA9CCCA9D8CDCEEDC99BDDDDDFBFF8ABFBBEEDBE88EBCCDCBBAEDEBEDCAEC
col49:   89889889A76A99898AC9FBABEE9DDDFECBCBEFBCEBCBF9FDDB9A9EDAD6DFEAB9ECCDCEABAAFADCDC
col50:   53B87B879CD5C9789FABDCBCDACE8ACBACCBBEDDBDECCDEA9A8BFBFAACEBECBEADACDDEBCCBA8DBC
col51:   82B8B788F889858BA37599A887C6AB769CB7AB9AABCD8C8A7BCABABAAC9E8A8CB7BABBB7EA99B988
ROC:     BPix_BpI_SEC4_LYR3_LDR10F_MOD2_ROC10
col00:   B59A5BA86786898AAB78A9867A79AB9C9D9A796BAADB689BA997B8A9B7556976A57B7168896B9A37
col01:   588B4A686C9F98D8CC689689869ACBB8DAABEEBBCCBADAAEBC69B9CC8B6BBEAACCA59888CD9A7AB6
col02:   9986345488866D987996A6AD96EA9788DC9D9F987B9898BA9AA96C6DC9D9C79C9AECD7887A9A5E96
col03:   87778C2959A68CE889996BAC79B699E8DB997C8CDCC9B89ACCC99BBCAC8AB66ABCDCCA78A6A7A7A8
col04:   55988A95B88AC9AA4A9B9A6999ABA989AF9BC6CBBA9B8CA578CCAA88CBAAB9CB7CAEABD789879B79
col05:   668B54A9AB9B5CA99AABAACBB7ABAAD9DC9EAB99EDDBDB9CBFBAFEAEAC999DAB59799887989CAB75
col06:   67886889896A9BAB879A8C8A99C9BABB9CC9ACCA6D597CDCABA6A89CDBC889B8798A76B7B9976D88
col07:   C7985878868AA6D99AAB9BD88C8BBCA8BCAEBCBAA966BC9DA68BBDDBDDD6989A8996ABD96B8A4968
col08:   8AB6869988466CA69A79A888A8BDBA77AAAC9C8BBA89D8AB98CAB7B77AAAAAA5BAC7837B677759A4
col09:   799B8AA9B98489C9AA689799EAABD9B8CDBBAA7ACB8CB8B8CAC9EAA8CDF7A9BA87B6A7BCA85A8FC5
col10:   7959776A7B8B66978797ACE96888AB9A7EBADBB9B997D88AAB9B99DFB86AC6B999AA6A9AC8597A9B
col11:   686A65AA48A7A699989CA99AA7867BCA768C7B7B8CFEEA61BFDACBBA8CAB8BBABACB7AB88C9C7596
col12:   A6757AA68488BA8C66A9C78A897397CBE889AA8EEBAACADA8ABDABBBD79999B556AA99BB7CA8A499
col13:   78A9A6A7967B799C6AA977B5969BBDD78BE98CAAC67CBD999ABB8DB9BCCB9D9CBAAA997976576988
col14:   56858A666697BC76999D8579C99C8C5C69BBABAC8DBAAAEB99ADA74CBAE486799B78EDABD4A97553
col15:   8795638664B7BAA8C9568AB7689DAA9AA99CC99D6ACAF89DBB8B3C8A9ABD8CA998A889AB8A727768
col16:   A457576868759A697A557A989298CAD87B8B9DC9BA6B9A8BDAD9AAB983AAD97AB699988AC7586966
col17:   536B88A3A6999A673AC78AA8B997868BCA97AA87C99A89BAACCAA8ADBB5A98B857A6DB997B888984
col18:   76977759577AB9849D65CBA899A8279ECBACE89DBB86A99E97779AA99AC9B85A8CA797C789B34866
col19:   53689C379B7B95A798DC6A69849BCCBBD9AD8B97CC899B579BB9BB87D8AA7AA5A89BA7AAAD7DB78A
col20:   48646A5A48678577776BCBA88A799C97BCBAABAACEDAA6DBEE99A9D9E8A9A98BA58B596AB5774A96
col21:   76B7798878AA9AA8EA477AEBAFD67BBDC9AB9ADE8CBCBBC9CC7AABBAB98AB9A999A8A69EACABD7B5
col22:   86758657A88AD469899C8989B897BC9588CB8A57AC898C88CAA669797D89B79AB89AD4688B996867
col23:   A964766669975BBBA988BA7C8B78A9C9BB7A89BAA6B98697DCB998ACAABBE9B9A8C786C57976B597
col24:   A7697687B86869AB68BA8CAA9B9CA89A9E96B9A7BBD8C99A6B7AC9BA9ACECA6788A7AA587AAC2966
col25:   9D6A69BC99BEA99ADABABBA8AAAEBA988BBA898ACBDC84ADDBBBC98BCAB9895C86B559BCAA97BB95
col26:   69974AB889CA998668BCBBCBDCCACBEC8D9ACCD89EBB5AD8EEADAFA7A99BACBB5BCB8E5CDABB988B
col27:   8E699A59899996AC98B8D9C7FC968DBBAFCC7CC77DBACFCD9B99A9D9DBAB98B6DCEBAC9BCAC8C988
col28:   C89E79AC97AEB99CDBDA6C9BFBDBABA8BDE9ADFACB99E89DCBC89BDCDCAACBC9FCBEB99A8A9EB8A8
col29:   B78787A9B98999ABBB9D9CBA97DADA9C9DDBCDDCFD9D9B8BC99CB7BC9AC699BBC48A7AD798DC77B9
col30:   98988A678AA8B89BC99AAABDDAA99DC8CDB87BBE9DBABCACDDBBAAAEBAED7B8ACBC9C5BD8D7A69A5
col31:   67CDABCACDDA9ABB7C96BD9CBCBAFCB9CED9ADAFDEC9DEC9DCA9DAEA9DEDDCAACAA99E8E98BCCB77
col32:   6ADB96ACB659676DA8BC887B9AAAAAC9A999A9BEDABAA8AAECCABED7CCCCCCACCEACA8ABB9AEB8A8
col33:   95A89788B9AA9AA9AACCCAAECACDEBEAECECDACCECDCDACCC9AC8EDFBCCEA9BADC8B7B69ABDADB94
col34:   97C98ACA66A68ABBBC4AA8ADECBACCBACBC7E8BA9BEBECBEEAEBD8CA8A9DAC8C7DCB9FABC8BBCB9A
col35:   BB7EABA78C7AE8CABB8D6CC6DCB8AFDEB9DEBCDBBFEDDDC7CBCEBBFBECBEDA9BDAB98A8AEAA8BDD3
col36:   9C9CA67AAAB9A4B9ABBCEAAB9BD9DEAA9FCAEBCCB9BEBE99B9A9BBEDEBDBCAE98C9C889CAA7DDD98
col37:   A77BAE8CA8BBB8A77ABBC8AEFCE8BDBA899BCCBABDCFCCEDBE9AFFDDDFBBDAB9ACBBAB9BDAAB9ABA
col38:   9AD7CACAAEA98ABEDCEADCE9D9FDCEC9ACCFFEDAB9DEFBDBCDB9BBFEC9EFADBABE9E9D9C998DCCDA
col39:   998ABCBFBC79BCC9999EBDCDDECBFCBDBFDBB9FCEEDCFDEEACBDCDDCFEFCADEABBE9E9BC998B78AA
col40:   CBEA9BAAC77AC8B9BADCD9CCC995EBBAC9DC8FDDFADCEDCCEEADC6EDEBFACC99DCAAE7ACDA889D69
col41:   6CAB989C9A8C9DD9C9B999BD9CBBFBDB9FDBCCBAECCEEFD7DDCDCD9DAED9CCCFADCA9CCCAF9AABBB
col42:   DB88BD77B97A98BCDBB5F9DDCD8ACEACFBBD8FDABCE9FCDC98C8DCCDA99FADCB8BE8CABACA97B7B8
col43:   AAA8BC65AC7ADDC9FDC9EADA9FBDEDBEBADEFEBC9FEEEFD9CDEC9DBADDAE8A9EAFAEBFBAEFB9CDA6
col44:   9999BACD9AB9A7EB999DBABAD99EABEADE7DBDBCBADCCEADCD9BAA6BADF9A7E7E9ABDE7ACAAE88C9
col45:   BAAD5B7B9A9AA9BABADCE9BDCA9BBBBEECDAEECEFDADEDCDEBFDCBACEBBE8FECACDECEABAAECD6B6
col46:   9C9899EB8B6DC5DABCC9C9AAC9E9DEACFCEEFCCAFBCDEB9A8BFCDBCEBBCC8BD97CC9A9BCEA9B57D8
col47:   8DC98CA8BAE8BBABF99ACBEBCDACBCCEDCCEBDDEBEFECCBE9ACADDBDCEDBFABCBADCECBEAAB8CCCE
col48:   AB6CEEABAADECA799EBC99BEAACBAAAFDCA6CDBBAECEDEB9ABCAF8DEBDBEADCAACECC8EBA8B99BB8
col49:   C89A997CCD7A94ABDAFACACBAADDEDB999CCBCCDEECFEDCFF9DF9D9CAD9EBCCB8BA8D9E9DDEBC9B5
col50:   ACCDC9EBABBA66BCEBAD9ABACBABEDABBFCECDCABACCFBDFCDFDFFDEB8D9B9EC7DDABABAF9D7ADBB
col51:   B6589BC6BF75CBA7ADDB8CBB9CB9BD6EF7AA989B9B7E7AAACDEEDCB9ABA85DC6C8ACAABA88C78989
ROC:     BPix_BpI_SEC4_LYR3_LDR10F_MOD2_ROC11
col00:   5A4568A4B85345AA889B86678866A67AC5995D6B55A6877A49ACAB965768796C887956575596B163
col01:   673869775699C5ACAB81996A7B778987BBC9ACD8B84FA6E889889A9BC7689B85BBA98847A89A5AA5
col02:   77635B285686567687898338467728ABA98B885C5A8A979B56A7979A698986664347A96486474476
col03:   8A582AF886957865A777A6C9896A9996B9969A97889BA787A785D75976899696C9758C78955363B6
col04:   5B7B896ABC799897A764B9BA6A98B9899AA87B989A7A8FABC9AAAFBBA789DB793B985768B7678A22
col05:   9497B47476377B4747866A86A9B8AAABCA799C6BCB9A9876CA7477ABB9A988A89BD95174A64273A1
col06:   769235B58493A6C87697767987C48C98D53BA997B9BCBD9BB98C7D5B9BA5A676C7A8765966374578
col07:   A98318A8A5767479BAB7A888A558B88AA896B9989AC9857675869A8986A8AB699899BC7989591873
col08:   24A6648C6687669A99977988594B7A788C778A989C9D3B95AAB787EA2998D8A97825A77681783A99
col09:   A88A56BA79D6EAB69BDAB7A689A78D8798595BACB7ACD886A899A9C8CAB7DECACEAC4A6B88888626
col10:   7686D9948C6489897698B96774A88C78AA88A877BC99A9DBDC98BB9A97B9A7B932688B68B3858A84
col11:   645B978A8AC57AB7958679C77A888B69D44A77A9A9A6BE747986C9AA79879C8AA657948A65C86654
col12:   79BB6768B77B96BA98A598A99A698A8CBBC887D99D9ADF9597A9A8A8899688A8A59AA5C959778779
col13:   5369B87A9A9B7489E79BA479877DA9BCA89DA9DABBB89C88BBDA9C8B4A6BAB7C996A85977399A626
col14:   455895AA6467A1B6B9665967A97885655CA6B56BC888A99A8679586A655C4976A694496488A49858
col15:   AA5854BAABBBC8798A8B9BA99684EA9A7B68D67C9BA7F969B8289F87A968C78C9BB964B868771574
col16:   457657965B899C9AA989C5A7AA886AC897D8DAA698CACC6AB86B75A9BB8798A78779C7889998A886
col17:   5695A8758B6998A9C898AB7188D378A4988837EC8ABE7A958A85A9689A97A97947948A88B67537A4
col18:   6549699647A8A73C77579995CA98B7788C989BAAB9A5C898C883CC77AC976957B8B6474558847C39
col19:   AA74A679948C7A9836CA7688CB797879A7A98DA9CE79CADAC987ABCC776AAC57A9C65594888BB885
col20:   B6B7A8467788699B97BAAA9B686767BA8797BAAD97AA87688B899777B986999C8BB875A951559654
col21:   7938887778BC88CB7B9A9B6BC88BB5BA97DCAA89AAAC88DA899ABA78EBA9CA67A93998397587A868
col22:   698B8B78DDA95689B4D97A779966C7939B9B98BDAA89AE79B97879BBB678A6894967A76ABC6564A6
col23:   767666A7A7973399688A9BA3AC7AC8CA8DBB9A79977A87899B9998C87D8BCA9A7946AB7445945563
col24:   87657A997889B99A869B879877A79BDA5DABCBB8C8BAB56C8687F9C96DAB995A8789AC67B7575125
col25:   7AB75869C77C88D999B57C46AACAA77AA9A6BA8BA8B7BD699978C7799E569B7BF978A8459CB79684
col26:   B99B8ABA67BC99A3B888ABBABED89BA99DBAEDFBBADC7BABCA9CBFC8CDAABACFCAB6A69B779C9873
col27:   8B48B8AAC4BC88E9C9AAAE9DDBDBD599ABDACB6A8CCADD8DAECD7ACCB9AC8BBC9579A9AC4678D967
col28:   79A587AB49B86B99BBA9BBB6BCB9DC8FB88AB99C8CCEBBEB8B97B8AACA97DCB59CB94BA68DA68B58
col29:   A878B9E9B9CDBA8ACA89B97997D6BBAB9D9ACEBABBA9B9AD8AB96E9DC9BB9CCAACCD97B788B99979
col30:   C7996A789D8CCBABCBEABB9BAAEBC5B99ACECA7BBE8B8DCA98AEC989AE9DCD99A7AA8DB98875C474
col31:   BB78ED4B59DEDC7A9E5FC5B8CCA8ACC9CDE9ADDCEEAABE9998CAEBB7DCDC9A7BA8DAC9BDFC88AA98
col32:   BA8B9B78CCFA8E8CE69886C967A9CECBDACDADABAFD5CBDDCAD79DDAE787BB59AD89879C99BBDABB
col33:   788B999895EBB9FBC9DC8DC9CDFEADD7D9CDBD8FDC9ACDDDE8CBBDDD8ACBAE9CD9DCCA8B6C99A99A
col34:   C88A9C7AAC6ABBC68BFC99E9BAA8AED78DB6BFB8DBA79BCB5BAEB9ABA9F8FBECCC88668CAAA7B969
col35:   CBDDE9D9B9AFDBC9C9FCEABE9F98DBBB7EBC9C9D9AD9DBB8CDCCCBACDCACB89D98C7A8A8C57BB7CB
col36:   A98C74A9AAB8ACBBCDDDCC5E89CECDC89EFBCCCB8ADCBBEBBBABAB8AEFE9C47898DCBC9CB9CBA6A1
col37:   B97B7ABDCA9FDABAAD9EBBFDEAAFCCFDDBACDBD8DADCCDCBCBDCD9A8CEB99AA8CDBBA8CF88BB47B9
col38:   8CC98DBCAFB9C9ABEBBDBDDE8CACACDADAC9FDBDBE8F8D9BBDCD99BDDFCBDACBAB9AB898A998CAB9
col39:   AB9CCCABBDD89CAAAC8B9BCECBCDBABBACDFB8C6DFDAABDEDACAE9EDA8EFC9CBE9CBEA99B9889591
col40:   6BC87AAB987DCDC9BAB9CBCDDDBDADDEFC89AACC9ECCEEABDD9C7CAACEC7DE9AFAB8FAF78ADBB8A7
col41:   A9CC8AC85DC7EB8BAFABEF999D97BFBECDA9ABCBBBAAC8AEBABAECCBFADDBABB998C9ADAA99CB597
col42:   B6ABADBAA89AE9EDBACCDCBCBA89AACBA9DDCBCBDAB7D8DEFDABBF8AECB9FBBCCD6DC8CB4785A8B8
col43:   879BC7B9FC9879BE89CF7B8AD6CBCCCFDECDCFC9DCBEEDDCBABEE8DC9FBDEFEC8EEE878FC8BBF6B9
col44:   BC8A8AAB8C9679ABFBE8A9BECCB7CABAEBFDFCFBE889BBCCC9B9BEADDEBBCBBCECC9C76D9BDBBB86
col45:   9ABABCE99AD7CBBBBCFEEAD8CBECF7CCEA9EFCACECFCFFDDDBBBDFADACEDAA97B87ECBBA97B9AD8B
col46:   97CA9B8BD88D6D9BCEA7DC9BCAC9CEEE9CCE9DCEBACCCBA8DD9F7BDD8CEDACBDDCB6CA98E9ABD65A
col47:   8A5CBEAEADADAAAACC9BAB9D99C9CBFBBBDC88DB9DDBFAAC8CABBDBFABDCF8FCB9BAAE9DE7EE69E8
col48:   89B978868BAAC99C9AB7BDDE8BBD8ABADDABA9DDABABAAAA8ADC89EC9DDACBAC8BB8ABA7A5B898DA
col49:   FACCB98DA5ACB9C8C9CBEDCB9BDEEACBCECADDBBFCCDCDEDDBC9FAFABCB9A6AACA7FA988ED7A69BA
col50:   8A9CCCC9BC8CCAEB9DEBBB8DCAC9DE9EEBAADBCCDBB8AAEBCBADECDBECFE7BFFC99AD8C97D777986
col51:   AC4977DDBC6BB769A5CAA9A75A8C9F7AFB8DBC8CB8BCEAAFC5EAACDCDACDC98BD9AAA76C98876879
ROC:     BPix_BpI_SEC4_LYR3_LDR10F_MOD2_ROC12
col00:   63275567334481347A76674A976738A97AAB559A9687967478B89965888588776683676634646496
col01:   77966679899847968587A89B9A7869979A869A98A89885B687DA8A97D95474967C7BA88964959765
col02:   46515896484483668A777A74898977A8BA96D8AB47A779963476877AAA79886979868C6B55166562
col03:   43277595779A8AB7A3678A588487A688977A95986B9CB998A86D8A6AAB6C5957965A6559B7564A93
col04:   664798456794958736965697969878BCBD963A98B8A89B789B6D77E739BB6695398694A5A9767785
col05:   557A2749965B66A8A85779A4C8B99BA8988BBA7A8899779BA9868A6B98BBC559577599A67696A986
col06:   4678666758663937475958A997687868969BA7A669A8C8A988B7AD5A7A7BA7A8BB836A55867A9483
col07:   B6669776A61678B9A998CAAA7CACBAAC8977A5ABC797A8C967BCCA8CBA86B8C8E856989898967868
col08:   8688667777898A575B56867998DAA899ABACA59899867B9A8A7999884997CB9799B679A68A696965
col09:   5684965447747888889988956A8CAE49798AAB9D79A89BCAB86559996A8A8A89796A7A6A9A557456
col10:   639648895477A7576B65BB96AA8AA98AC68B99AABA9A8897A77BBBBA59A897A698896667A57C66A6
col11:   565669AC7CB888877857767A996A79A999AB9D687CBB8B7C889C87A5A999EAB7A8A9997A8D59C866
col12:   68727667888973534B5B7757798568ABA6EB9A9B5C8CAD7469BC8657AA668A898BCA596448398824
col13:   779C8869859997B9AB974A789C89AA75BAC97BABC99BCA8BDFC69A7A9698C69999B68688AA775889
col14:   5574A46A57895767A99687666B6897B9A89A796C8BC8B84A9ABB9699A9796888BAB9766577679866
col15:   2875177875778756A796B6AA5898C9A79896B7B68BACACBEAB99795A8A369D969A76899AAA557497
col16:   6858487AD87878688C5978987869988BAA8A98AA8AB86B8A6BA9A6CBAAB6B7B68A6898C558836647
col17:   8584566885968889A99A85966A89A7B9888ABBDA79CC9BBBA9579AC98B6CACAA89CA8965C77359A4
col18:   4574877879486996659658597B8B99A9A68BBB88376B7AAB5B9B7B9A778676D67C557789799C9636
col19:   56578867866978A7DBAA59BB6BAC7A797CB9C9BEA99B9E87BA98979888ABBABD99B786587DAB7362
col20:   5655647C778BB85A9698866B959997A785BA7989899C9A796766AB7D979B68A7C976496684655755
col21:   7377964835434B978538B9C67AD59A3AD98999A97AB999999A8BA9BC8669B8876C9B5897794A6646
col22:   9867165A2863A3778BA897DA9788B98BA977C79A98A9CA69B9BCB599BC5A8B795A68B7A999875936
col23:   568755C2266ABA9A8897AA498B8AABAB3C9B9A87ABB89A8C9BAA8A9C9975AA5C59B96A8868577865
col24:   558979458599769699A9A6A8AA97886387868AB969A87AA987D6585746ACA89A5B89A84397827666
col25:   7478A89C798778A9A9696B8AAAA8ABBBB8ADE9A7BB9BAA9AB798A9A98A98BDB5C97CA977678538A8
col26:   657887A9786B687779D956BC9AB9BD6DBACBF9DCAD9A8B9B9DC97EDCED7BBCBB89AC887775993773
col27:   3AA774679AB7699895A797BBD8BD97788CCC87BC9ACA9DC9A9A9A5AACCB8BC8ABA9898C3C99BA7A7
col28:   796769A69196986898BA9698ABA989D7E7DDBBBABBD87B979DABAC9BD9BF9B98598BAB8975B54969
col29:   9A7B8687778A6A9D79CAAA8B9BB9CBB8EDDADC9DBACB7AAAFBB8AABBBAD98998BAEB87B8E88977A6
col30:   8859A69878856999B36C796C9867DC7AE7AA9A879ECBB89B989CFBAA8B9AC9899799988AA9759AA6
col31:   69A988A9B5A79B89B9ADDB8BC9ABAB8CA9CCBABAAFABCA79FDA8EC9AFDD8A98C9C96E9BAA9B9AB76
col32:   AAAAA8AA77987AAA7DB7789CCA9B98AE9B8CB7AABAB9BD8CB8FAAB9AFCBCF9A999BCECAC8BA99878
col33:   A97998686B6A988A6EBACB8AA9BD7DFABABB9ACBBBDCB9AAFAADABB7CB9B8DEAC998ABBCCAA99B77
col34:   A69AA97CC676BAC79D6DCA8BCA7999CBC9B9D9AC9DCBC9BACE9BC8CBBC7CBACC8BB6DAAA96A67A37
col35:   7B8C6977A86B7D7BB68AACBB88EBCE8DCEACC97CCEBD8EADDFB7C6CA9AC6CC89A9AA7A9999AAB6A5
col36:   B8BA8BAAA8D9AA8A96789ABC8898ABB8DABCA9AACCEEB8C89BAC8BCDABAA9D8CACCAA97A9D889A87
col37:   C778AFC9A85BBA98AAAAEBD9ABBCDCABCDBCECAD8CDCDCC9CE96BDBDCB6BDCCBC999BAB7A8573967
col38:   A94C59AB89B9BA9C889A7B8BA99DACABDFCE9AACCA97BBAAADCB9A9EA9FAA69888A9B6C8ABA89CA7
col39:   AA59699A9A7BCA88AAA57B799A9AEBEB9DADBDBACBCCBBBC7BC8DDF9AA9ABAAB8ED5AAB7A9AA6B9A
col40:   A8B7AADAC6A996CCCCA9B6ABBBCBC9EC99ECBCFCEAABACFCBCC9BCCF9BBB9CBDBBB69A7988CBB78A
col41:   89BBABCA98A97CCACABEBEABAADCBAEBDC6A9BDB9D9BBDBBBABBADC7CCBBBCAA999989D8B98689C4
col42:   988848D9C77AB87A8B6B78AC8A9C9AAD8EA8CEAEAACDABAB8A58B7E98A999D75A76CBA99779C6875
col43:   A8B9CAAAB97BDCEBB77DCBBBB8B9CD999D9DDECBC9EADEABECAEDF9ADBBD899BCB8A8A7A8BBBACAA
col44:   B888CB9B97C8ABABA8AACA9ADCAAADACEA8DAACECCBE9AEDC7CCABACCC88C8C9BCA79ABC9C9778C6
col45:   9A59BB8CAD7BA986DCAB8BDBDCAB9CBEEAAACC7BCAC9DEBBDFAB9AACC8B9FB9BEA9DBABA5594AB86
col46:   6BAA7A7989A999A9BD98AACBBABC9EA9ACABA8CCCD7BCCEB8BBFAA9CDBDA999A99ACBBDAD9CC8968
col47:   599959A69A7C88CBAD8B9CCB9CC8BCAB9B9EDC8EC9B9BADA8BB89A9DCAEDA7AAA88A7BBC88A85788
col48:   88499A8CE88BBD6A997DBEA58ADABDC95AADCCB88E9B8AE697CAA769ABA8DA7A9ACA8B779B767662
col49:   9AA9697C9E8AACDBAADD9EBAEBBCCCBDCCC9CBEAEAB7BACDCDCFF9CD9A9AD9DEB99ABB88EA9BA987
col50:   B9849C9C9CAAACA9DA7A8CAD9CAA88A9B98ABAAEB9CD9ACABC9B9CBB7A88BEA96A7767CC578A9A8A
col51:   A7594BA6649998B99BAA56B8BB99AC9C9F8B999AC87AA8867A57BDBDCB69769988A9777937888765
ROC:     BPix_BpI_SEC4_LYR3_LDR10F_MOD2_ROC13
col00:   84B899676AA77B9AE879A9769897A8A73A8D9699AB9B88BC99AAAE8A8879976AA9693A958985B755
col01:   C566BBA8E89673D85C79DC66BA99EA7ACA957BEA8BEBAD7BFAC999CFEFACBBB8889A877AA88AAB28
col02:   7B2ACC6A989B879A5AB5758D8678BBB9689BB49E59AACDBC9A889BAAAA87B87769A87848A5676465
col03:   866C99777BD9AAA7BA6AE89BA887BC8E9BE8BBDAC8FCB8CFBCADCB9CCDB867CCD6C7767ABC88BC85
col04:   A7976AC95A8796689977897B68B8BC89BA96989F98FAB6B95DA7C6CFBBCBABA97D679B9B9C9A8757
col05:   4966B8CABC5959AABBC68B99899AB8987C2DDB89BACCBCAB889CBF7B9ADABD6DB949888CA76C899A
col06:   89BA79787B8888ABEBAD6ECC7A94B68BBBABABABD8B7A7DC9CC799FB8D5A7ACAAAAA9E469439A7A7
col07:   988AC78BB9997CACAD99CA9C8AB89AA8F5A979ABFA4A7977CA6E9ACA8DBCB9B9ABBB895AC9999B68
col08:   38586A764BA57CC9A9975ABACB79978AB8D8CAA6BACCD8977A6779995C99DABAB699DBA8967A9567
col09:   A99A98FBC57796D8DABCA697969CFACD9E89CC9AD8E9D5B9AEAFDDBACAAEBABAB8AAFA599A4CAA89
col10:   98659999D787A8C97A7ADAD98AFA6977969794BD985DA8DABCF9A8C9AC599C67C99979897A598B64
col11:   8689AB6C8857A27CACBCBAAC9CB9ACAA8CC58AA89B9AC7D5D66F5DC689A9A7AA27A9B699C866D783
col12:   A58889676A968A66AB9798888B78DAAEBDAB3B98B9C6669966EBABBA6BA9A7848B7A9C6B84D657C6
col13:   7952D15E787D6AA6BDC7A99588DE99C8E9BABFDD7BBBA9EBAA867BCF99CADBEA88AC9DD9574946B2
col14:   8897C8786AD799A8A5ABA8898BBDA87BA7C955CAC99ECB9A994AA97AACE9B7A8F98A869893874455
col15:   8A99B979D89BB96A989F99AB868A6898ED8CBAAC78AAB9AABE8D98AD99E7987ACA5989C888B887A4
col16:   6A83CBA77ABAA7C59BCBA6999A6BAE9AC8AB999C8B9BD8DB9F9AA98AABE84B98989B59696C6BC9A5
col17:   76864CB88682A558DAA6B8667A8C9B9B6C988A7B8C9AC978BB5B9CC776E9A8688766ABB997969C52
col18:   864678C979A667B879C7848F94ABC9A6759BBA7A69D8A7BBDA8B8DF8ABA7837DCA6899AA5659AB84
col19:   56C9655B78A9BA9B9A88B8A9B89CB499A9ABAB9DCAADCCA7C79DBC8C98A7BA6A95B5789B689AA463
col20:   669553197686DC754A9BA978A8B939C89AA865FB8A959A898A7A7BB86B7C9CC49936A3895A9612A4
col21:   D87589798CC7969DBA9B8BB8B99BC79E8A4EBDEEAEA98899A99B7B58BF68AB4B6A9778367D8A7885
col22:   799D66AB79B4899ACAA88AA98B59BC8F97DAB6ECBDA68968A98AAA999FB6688C487A69265BAB6282
col23:   61997C86ACBB899A8AB76BA4A6BCFBC8A897C7768A38BDB78D9CBD9BA9697A87B969A6989A677573
col24:   A88B7AB876C799497D984CBC8798AAC969DBABFD9ABCAC89B7A8A9A8ECD9438DA797B6895C486715
col25:   744B568A96D75989AC9CB796CBA898EAAC5B79A7D95A8BD8984A9AABBACC789AA89AB79AB7D77354
col26:   7898EC6BA79BA4D8BA86BC7CC9BBBBACBAADFD8688B8DABDDBEBB7AECEDBCB96A7C3A8A6A5487887
col27:   6D967B7CC9969AAEB8789ADEBC9ABC8AC9ADCAEEDA9B8BDCBDBC9C88999AB8ABA7BABA49AA7A7B37
col28:   769756B989998CB8E76ACBACD97ACA89BCEB9CCAA7DEFFF99AC8D9BCBFACAA9F7A8DAC9867A45996
col29:   9C7997C99C7ACE9B6B98B9BB8F9BAFABBBDE7A998869C69B9F9B898CD8C6C9FC899AD6D78A38C957
col30:   99598B7BA89BAAA9C76ACEACF788ACB8CCCBBABBC8CEBBEAC9B4869BA7BCC9D98C99EFCAB99A3BA2
col31:   798657BADAAD68B7B8D6CED8A8DABC7ABB9BDBAFBB78DCBABA88CAD9CBC9CBEBB8A98B8AEA894B86
col32:   79BE87B8CCC6EC988B8C8BAA88DAFC9BADAAAADBCB9CF98BB8D88DCCDDDA7EB796B395B9D9D9AB83
col33:   788CB8999ABD9BACDDBDEB999CB8ADCBEAFAAA8CAE6F8D9CACBC9E9D79DCCC7BDBCB7AD8BAAB8DB6
col34:   8B9BBADCBB9896B9C9A7AF8A99A9B9ABBA8EDAADCCCC889FA79AB9CB99B89BD9A9A9D95A69A5C7A3
col35:   9BADC68AC6BC9CEFBBE9CDCEDFAECBAEFCDE9CDF99BD9B9CAC9B999A96AD9AB9CFB8B9798A874897
col36:   C86569AA84A99DC6CC5A9B8E89A99ECB9AAACD9FBBC8AC99B79BCCB9677D9A9BCDD8B69C9A79C655
col37:   48A6AA54799A88EBBCCCE9BFEEBAE98BEB9BDCCFEA9FFA7C8DA88A6EABEA694DB79C69ABB85AA886
col38:   C6BC76B9A7BDBCBACC8E9899FC7ACBDCEDCABA9DFBDFBDD7B8DAD8EFD998BA9D99DAC59DBB885BA6
col39:   BCC9A7C5DA87DC9FE99AA8CBD8CDCBAEEBECCCCBDEA7CCCDDDABC999DACAEEDAB888CC86D99B869E
col40:   88BCA8C7BB5D6DB8C579ADBA7CCAACBBD8BC8999BBACA89BCCEEFBA9B6AA9BEBFBB89CAFAEA96A67
col41:   8A6689CAB9CFC8DDACC8DBEBAAEEEDFE9B99EADACDBBDEECCCD79DAAAB5BACA8BCA8BE8948597A8A
col42:   7B878D7AA9CBDAA9AD7F8CCDDACECBDDDDCABAAD9D89CE9CFC9BEC9BD9AA8DB86999AD9E6A4D5796
col43:   48D98BFF59ADF9DADDAC9CCACAAC9FDCB8AFBECCEDA6DD8CBA99BBAAE99ADCB869BBCDAC6BA68A87
col44:   996BA8BBACB9DF5B7EC9B9BFBFC9ABDCDDDBBE9EAA9EABBABCA8EDEAFB9FB9FA8A8367CACD8ABE64
col45:   7766C899AD92A9AABCC79D9C8DDDBABAABCEB9FCFBCFCBCA8ABD8BCDCABBAAC86DFDD89ACD96A868
col46:   A77CA8BBBC8BBD989687DC5CECBABABECBDCD9BCCC9BBBADCCDA89DEB9EBD66C68D97787B98B8785
col47:   8A55AB47CA7BAFBD7EACDC88CDC9CBA9EEADEACACAFFDA9BFBC7EDDB9AB9E6DAA99CF9AC5D74AC9A
col48:   56C9A96BC9BD99CBC6CAACF4A5ADBBBDDFA6AAA79ACAA9BCAC798E9AB9ADFCABD9BCDABC8999CA62
col49:   987CBA9DAB9A5CCCD979ABEB7DADAAFCBABBBACC8BBCACACBBDABBED9DC8BBBBB6AB6AB6CDA78A96
col50:   AB6A89BB96BC9A778BAB8BC9BCBAACFAABBB7CBABFDF8CFC89BE79ABEDADCBBB8CC6CFA8D9768A8A
col51:   6B56478B8966889B999C5949876A9967B89ABC75C99C88B8797A6A96BC7699AA8B8A4ABA857996A8
ROC:     BPix_BpI_SEC4_LYR3_LDR10F_MOD2_ROC14
col00:   775778858B1A698969C949AC87389C7889B7AB79879A7BA999A856A999896A656A3667A459762736
col01:   7184476887AB36C79A9CDB6A9B9ACAA7AD99AC9A98BA8B6BDAB87DC5B8A998BA969B4AC985545884
col02:   55553854A7875B69783A994A877DBAD67C7C9A97DA69965B9967A7EBCB98997AA4A68BB77A79678A
col03:   775989B8978A9BCC9A9BEE9AB7A9698DB696C9AE9A98B99DAABBC789ACBB97A698A7D4B9A8B8CA75
col04:   587A54888A758A6BA588B88CD9868DAB9BA87D9A989DA7B6BBCCBDA8C798DB6AAE5BA5AB76698937
col05:   796C7D9B888675AA8979AAA9B688CAAF9ACCBBDDB9AC9A987A9D998BA8BA8EAA9C97A686988879B5
col06:   587667A7A765A676C9976E999997BB8A968A87D8867AB8796A98ABBAA8C8AA9A6B647BB369469562
col07:   BE5596758576B8A8EBEABB8977969F94B9EB9CFDA99A684EAF8AAEC99DAFBA68D87CAD9D998FB95C
col08:   5A48A897838667879A6A9CB4CBB56CCB7A89C8A98A6D9C88B9959B6B987BAAC7D9D9BA8788C89B7A
col09:   8A68798DB69678CDBFBA8B9B69A77B9969B6C8A8D69AAB7D9CBD9ACBA79988CA9CBAA996889ACB69
col10:   97B89647886869468AB8579737A8A59CDBC8CD69888CA96AA9CCAE8AA9CA7AC89A9D666B5A57B878
col11:   AA278897855A9DA9898BBC8A7C8EAC9D7F79ABCAAEA6A98FA9CD8D58588CB8AD8AAEA8969AB877BB
col12:   5981AA39976AB978C95AB87287ABCB5A9B898889788C9A98AC7898B7A89CAADACCD659C97788DBB5
col13:   8988999B75976AD589AC9C8BBBBC8C7C9C98ABBDA9AA9BA68CAE9A999A9C95AA89CA5C8B898A99B8
col14:   A689788AB8A66B69A46A558C8E8A8EBC8889FBCB988AB6B999B9DDAA98767B69AAB8B798A9894992
col15:   C888786994989A9ABA96B877BB6C9DBDDCDB99BC8D6DBBBBAA9AB9ADD7C9E5D697A79A9AB97B3584
col16:   8C4556B697A6B6DBA8AE5ABA788989DCDABBC8CDBB9A7DBD7BB88CB9B69C9847987B9C8C98BAA869
col17:   7B97A99979AA59A899DCC96B8B759977B99B8CDB786AB9CBCAE79B9DBA9CACAAC95AB288CA95676A
col18:   6496A663966B7B5DC4A8ABA9A8E86698A57BA9BC8DD88ACDC9C77CC9CB3B79B9578B78AD1CCF7762
col19:   78774A7D5B96CCB8ACD8DA6C9BBBABDBA98AC9479C9B7B8DB7CE8CDAC87689AD899AB8D3C899A98A
col20:   866BAB88A93E97ACA77A7C9C87975BBD73BAB8DB6BB9AB7DC98C9CCBBB885C9BAA8A989997669657
col21:   77878798677777849C8C75BD8769ABA9CAF87B8CA9799BD898CC8A8BA9C8C985A7999D686A69B796
col22:   589A56D7566B976D69AA8B79AAB9468CB8AB9AABBBBD6B9BCCA89A5A8A8BAB67B87798585E698789
col23:   8BA6467B8B79848AD4AFBACAD95AA6E9DA78AFB59DCBBA6C99A99877B99CA89BBB993986A7C789A7
col24:   1A4B76893A366556A37C97AA69469D9BA9AABB67DCACBCACB9A4A989ACA8CD8AAC9A9974B8495D73
col25:   A89A8CA7A9A9DA79D6CADE8A88C566F7BC8BD5AB8C7BBADDA9BCAA9A7B96B5689B99B5B6969B47AA
col26:   A999B9F79BBBA8B6CADACA989BBA9DB99A969DBAA8BA9FCE8CEBB9DDCC7CBDCADF98CD76AAA98556
col27:   A967464D9C8A9874BDABC9BB9E6B9CBB9DCDCEACBABADBAFE988BEEA9A79D8BBDC8ABCDADC9AB8AA
col28:   93A879BBCE7D98BCACAB8BBEABAB6AA9CACBD6A9EBFBC9EEBDAFB9ADD7AC9DACAC94CABFC9BA9987
col29:   B898B8BA6FDABACC7ABCBC7996ACBDDFEFCDDBBDBB8FBBD9BBCDFADFECBF8E99C8A948D999D7BD28
col30:   D8886A696BB789C99CAABBDAABAC9DBACDECB9CDCABDBFCCDBBEDACBBEBACCB8AECC95B9A969B975
col31:   957ACAC89BA9B89C9BDD8CADCACBCBCDCECA7A9DBCBE9ECE98BD7DADBDACADF997ABC9A9DA67C9D8
col32:   8869ABC7AAAAABACBDA88A9D99BDAAB6AB9F98BAABDAD989BAC6EF8CC97B9BB6A9B8BCBDA9C86CC8
col33:   7B7699BCB8CBCA9D8DFDCDFCAC8B8D9DBD8BDCBB89DAC9BBBFB9BAADB6AEBC9DCA6BB99AADD98BC4
col34:   FB9AB7A87CC98A9CCC99B9EDCF9BB8CFE9FABBEEABAECC998BCDED9BCC8DBC9A19A997DDB97998A9
col35:   C787888AECBFBD8CC9DECACBCBB7CDFECBFDEDADCBEBFBEC8AFBBFCAF8DDECDBEBBAABBEDA58998A
col36:   6B7A89C67ABD5AB97FFAC67AAFBFAE9DCED998C8C4BAB9FDC98DEBCF8CBDCCAC9998BBB5997CB896
col37:   9B9B8BBE7ABAA8CDBAFCB9EBE9AD9DCBEDDFBDF9CC8EDDCDFCD9D9BACDBCCBDD7DDEEDDCA99D8DA6
col38:   AB98D7DCBA789EB9DFC9CACB9BBCBC9CCBDBCBABECCFDEDBFBACEFDCCDCDA9F9BCABDDCBBAF9C9CA
col39:   9C79C8D7ECBAB7CBCB689BACDCBACA89ABBC9EDDDEDBEEFE9FCBDACFFAED7BBDAC9EC9AABBA9ABC8
col40:   7A9B8CBB9DAC6CBDD8BAAAABABBE9FABAEDF8CBCAA9B9DABBDEEDBEBBFBCFDBECB9DCD7AA89BA8D9
col41:   BC7BEEBDCC8DAC9EEBCCDFAFABBCEDBDFCCDECBDD8DFDDBBFC9EE7FC9EFEAFEAC9ACF89C9BBEC876
col42:   DCDB5ECAB8ADD8C9EBBCDBBDC7C9C9DDDAE9D7DABBDDEAFA8589CCBFCACCCDBCC8A99A9CA6AC946A
col43:   BA9ECEDCCCDBAAA9BDCFCEACEBCADCBE9CDBBBCEEFAC9CB9FFEDBAABCCCCEFDBD9C9DAA9CAEB69AB
col44:   DA99B8BFC7DAAACBD89CDCBDCCCCBCCDAB9FCC9DBFBEFCBCBC9C9AAA99CDEA8BAC8899F88B6A79D6
col45:   DDBA8CEBBB968BFFCB9BBEDECECCFBFECDAFBBCBEFCEACBAAC5CBCDDB9DE8DDA9DC9BA69BA5AFBA8
col46:   A9C9ABA8A9BAFA9CBC9ABBDE7CBEBDBAD9F9BAED7BCCCDECF8BCCCBEACCB9CCFDB9DCB9AECBBBC78
col47:   CACE8D9BCDBE7DBDDCEBBCCBECFCCFCCA8FCD9EDDCEECECBEDED8ADECCCAEAAA8DBAEDC98BBCCB88
col48:   6AAFBAC89BA899C8CBC6B6ABAAAAC8BDBCEBC8EEDEDCEECCCD7FDDCBDECBACB7AD9CACCD899E9D55
col49:   B8ABBD88CD9DE8D9CCBC9ADDCFEFBCBDDDEEBFEEABADFFDBFAACEFFFCDBCBEBBDDD9D9CDCAACDABA
col50:   BDC9CBBBBE7FB8AE5BBAEEDBFBDCBF9CEFFDEFDECCCCDDCDBCCCBF9ACADBA78DDBD8797CBB98DDC4
col51:   FA5A8968B7A9579A6C8E998BADB8E8A9BA9DACACCFD89EBF9CAAC9D9BDF89B9DDB4AB67CA888C5D4
ROC:     BPix_BpI_SEC4_LYR3_LDR10F_MOD2_ROC15
col00:   A164385548993717578B6B9567867B889AA877A686BB772A8575D667989C59754399665645246913
col01:   57995BB69AA799DC8A8A9DB58B79779CDCB8999A9DAAE8795D67CC5BCABBACD847897879679C7681
col02:   664958A85C563B99B78849768C8B996D79A54A5B39868897B979B99C88B97B5584689A6974256742
col03:   897469A9856789B5AA3C98B8B85AB8CA7A99B6BE9CC99967BAB7868A95795396588779A996782585
col04:   556985A16A636B7989979A59779A5867898BA8AB9B976AC797D869BCAA8489968A6674A446CB9563
col05:   44E6868ACC7766586599999C9A569BB999AD6BBAB6AC47BA5965A5967B8AA9A9979587AB9C39A761
col06:   664B4986938958BD546B886B878977988C899A7D69798C6897C77799BC99B3897568F159978617B2
col07:   9599B9787AABBA9CBAB9ABCB9CA9AB7CBA9F8BDCAB7AA7B75AB995BB87BC97A83579734979F85676
col08:   699A77C8578C6A96A99B8867669C9C87D96895867D9AA587CCC8B958ABAB86AA988988B768255874
col09:   8779C369B73987AA7AC8CA9858777CAC89BC858FC8BB7D67A78989896CECF679A55B67A886797976
col10:   986D676A64A8B6CAB886B95B977B9B9ACAD88A9E79BCCB9889A7DAA8CB5BB6977739956583875576
col11:   78B4857A796989BA48EAB98B9BDC9BB8BA886BB69BE9DA8CA99A59879EBA6C57AB8BC33759654652
col12:   988877695B75CA66C87483AB97996899B9B7A99798D9CD99C88A8B7ACA8A9A49A679ABB767867375
col13:   B5486889AA88AAAAAB98BB789A98C77CBF8A9BCA9C98ECA7DAB9F8CABAABF8887DC4CAA679974798
col14:   58468848779B7596A9AA9576AB7C77CB5BBDDD86999C5A99BAB7DE9993A679B7A5B7A97594646963
col15:   BCA6686947A6C9AAA67998A6BB65168B9EA9DB8B89AC97876ABF99BD9698E775AB8B88AD76688774
col16:   699856789C5879A7B8495B969AC599879968A78BA68ADFDEC5979A79BAA69A8C8998C67779689672
col17:   A697AA38AB9ABAAC6699A77AD749CAAB69D9E4D8CBCD58C9E9C886D9BA6C6B548EC64A7955455524
col18:   98A8984B8BA79B5297778E877379AA9A87888A97AD89896BA989ADBACB19A9899598669675376653
col19:   7A88A89B9D5B68BCB89C66BBBB9CBAD7BBD9BA989D9AABAB8A9DBB8C88BB88B7CE88B67596799965
col20:   B8A9B99678848CAB687898868DCAC8C98B5C5C979AABC9BDA8D976A9888757B7BDBAAAA3B5A77883
col21:   789B56A866736576A7B69AA9976888AFAAD9C86BBC6997ADDA77AD5AABDBBAA8895B876C35759678
col22:   D74766396277859829688A8699CC88C9D7D6BF7ACA6CBA99CB58B9475C9A6A659A687196B5A84777
col23:   97355B99B87A6A96B867AB9AEA8CB9F6C8999E9BBA97F7ADBA7CB6C6AB8A5976A7778D7562869757
col24:   186834B73698BA975C745A9ABEA4977B78BBBA89A9A75675E9CBA99A979B96F9A8B8898897776542
col25:   6A99989A86ABB98AB7C8DCDAEE9A9A9BBBC9BE7DDBCEA8BC98B77BEBDBB769B8B96BA479C765B692
col26:   9876AAA88697B9B9979A9BABDFA9896BBC8AEC77CBAFCC9A8B8ABDADEADDCA98D99A9A86AA989984
col27:   AA96997A77BA76A3B89E9ABB9AEFCBA9FDBDEB9A6BADB8ADF9ECFC89BC85DB959965D9E8C9774B65
col28:   ACEA8696BB8A98C7BAAA7ACEDCC9ADC9CBCA6DDFABCAAEB9CBBEAC67ECAACCC796CA4A9B777A8376
col29:   B79AC9B995CD786C874BBAD8E98BCA9FF7EEACADBDB8BBAEBCCCBBECC8BDA9DA8879997B89AA7B69
col30:   BA6A8D49D88ACC5EA696DD8CBCAC9B6CDEB7AEBB6B9DC8AA9DCED9A9E88CB8CA79B789379955988B
col31:   9D77F998BC658AD9978C7FE9DCDBBA99DD7BDC8EBACCF9ABDDABACDFEDC7A76A999889CEB8897AE7
col32:   9ABB889A8CEA97D79BEBA9C9FA75FDBCAABCC9FCADAFCAACAE9B6BCC99AB6C9BD7DEA8A95C8C95AA
col33:   8BCAD8DC94DE9AADFCEB6DDCAADBCBACEDACF9DABBAEBCD9CD6DAAD69C99BAAED9AA9899AAB8A948
col34:   BCABC8BB9B9FA87BB9BB7EDCCADCADADCFDDEDBDCF9AADBFBD9D9DAB8A8FCC9C98EC889B847B9A69
col35:   3CB8C79BAAABEADCEDAAAAAAEEAECACCBC7AB99CBBAEAECDAABCDCAACD9CCC8B9DABABBA9B885AB8
col36:   9AB7DAAB8BABE9CC9BADAAAACE9C87BACFEFDBFCBECD99BDB8ACDDDD5DBBB9FBA5ABB9997A698695
col37:   BB8A799BF98AECBFACCD9B9E7BCBB88BFFD9BAEFCCCFDDDDBCACD8BAEABFA9AB7CBF9BAEBA9AC988
col38:   B7BBBA65AE7BBBFB9ABCDACBA9DDDB8BC8CCBD9AEC9899CDBEEBDCDCDDFAB9ACFAEA9B7D7CB98973
col39:   AA8AAA9D7CDAAC7DBCCCEB99CFEDBCFCC9BAAFA8ABABFADDCDCBE4BCACE9ABD8B8CB9AF69995C889
col40:   6C375EC7B8AB89BCABDC9DABDBAC7AEFDCEFC9EDBC9FEABDB98CCBE9DACC9ECDEECB99B8C78C77A5
col41:   AB78BCBBBFCEDAB9FEEEA8CDFBACAFF9BBCDFCEFBCCECDDCEEFCDADFABF9E9BCBBACA7A9BA8E8A65
col42:   8B8A99ADF8BAB8BAC9D9BAAB9ABBBEDF8DCABAAABCEBBDCBFBAA8EBDAC7BE7D7BA7AAFD5B77ABA84
col43:   DCAECBCDDFDBCBDCEFADCE8BDEFEFCEEEBFCFEBCFB9AFDECEFC8ADCBAEEBB9AECC9FBD8FEC996CBB
col44:   7BBDBAAC9AEBDBDBCBBDCDDF9DEDC89C9BDEDB8DADCBADBCF9CFDBDACEDBDBEDC9CC9BB9AD8B9984
col45:   9BA7B76CABE9EBEDCED9D9CB9ACAE9EEAA9CACDCBBAFDEEBBBBBB7BDCD7A97989B859788ABB9B884
col46:   6BC89CBEBCABF7C9ABDB9CBAFFC9DDBDB9CDBD8BE7BEA99BDE7A8DEAEDDEA8CAC8EBBAA6A96A7A65
col47:   ADBA9A9FBCB9ADE6CCBAC9DEDBCBBFEBBD8CCCDEFEDDEBCADCB7BEFBBCCBBCE5ACB7DC9AADD777B9
col48:   DCC999CCCDCF87DAFBDADCDACB9EEAD9AC8FBE7CCFCABCBBACCBA99D8BA8BCB8D99C959DEB7BA757
col49:   9FC9CA7F96CAADECDD89DAEAAD7ECFDBCECABAFFAD8CBBBFF9FBBDAFFBBAADEA9BA9789DCC6AAAAA
col50:   8C9D99CAB788A98BBACCEDD8CCBBDB8DCDBDCABADBFB99CDCCABAE98A9ABDEC5A9D9C9DAABF49655
col51:   8A8B8E7BAA889A8AA99DBEC9DDB9EAADDC6A7BCAA7C6AFBC8B8CABCAD8B97A749CA7779995777B86
