ROC:     BPix_BmI_SEC1_LYR4_LDR4F_MOD4_ROC0
col00:   83637DABB74986A97A7798657C9A8585AE66A4A9D7AC6AC5B866C93C989A896C77B767C99CC6B742
col01:   86B997CB49A89B37976C7CC7B8BAB96BB6EBE95D775AD799799C987EBA997BB9894994E85C847893
col02:   789467347AD78C7869797CEC57ADB8255879C8A56C78F8CBC8A7BAB89B8DC899699677829B9A98A2
col03:   A8578C8A63ABB6CB767A9AB8BBEBB8573B8AEEAA8C59C846B999E8A8BB68CA88CD78899B849989B7
col04:   6899D87A9A87877887C7C65D78BAB5477AA57C989C797A9668278AC8BAB5A8E5C85AC5896479ABB6
col05:   772A8B53787984867AA98897DD8987DCDA8A7ACD77C9DBAAF866CA8AB498B7A6BBBA87793CACBA9B
col06:   767A8985985A68996A8B97CBD895CB6BE9B8DCA64ABBA8C7887896A7ECBDAAAAB599786697CCD555
col07:   6AA7346A69886D839B65987886DBA9ED8899F7B78ECBCAAA7BCD77CA4D79BCC5BC9BC5A95BD973D6
col08:   67756547764C36A8895796B3B64C8C7BCC96A9BEBF8997B88648ABA6A8AABD6A4C7EBD77866A2AA8
col09:   4B6C7396A6977895BAB57D79C9CACB9A9B8AA8C9C8A866D899DE55BC6BB8BB96BAABD88ACABEA855
col10:   8BEAC18A8A8A6A6AAACB576A68BAEA79B6B79CA9869BBBCA676598AA779B8CBAB5A95899BC66A969
col11:   988C996496568977459AB8789A4D98B9D864E95A9C4AAE467AAC7CA8A9AABEDABCABFAD9CCABA8A6
col12:   49A4B778F758B93687A67C8CBD9A6DA8AECDC7D89ADFAD6CC6C6DC5CCBA99A897BB87986C6C9B69A
col13:   56BAAC398AA967988A89CBAFAEB5A7D59C69BCFBD79CBA88AAEA6BCC98FC8588859BB996BA988D91
col14:   BA7B5B95A6857879895D8B78BAAB8DA8BBA9AC759D8BC899AA7798D847DB5AADD97CAFD9A86CAA98
col15:   5693735786896A8BA8DA9AA7A6B9999CACF9DBB6995BDB4B8A79AA97E996798BC959A8A6AD88A6B7
col16:   96269C57C42968AD7D6A5A48AAC79DC9A9DA99D699AF9AA899A789B77999CA9A586BACBD87C4ABEA
col17:   3872A62A7945658498A495C5EACBA6C8779B9C99CC6C7BC6A9B7BB789BCDABA799C99AABAC8C9B63
col18:   6698D7794885C858778A783888B79BAD6AB599ACA97D4DAB997A9A989B99879C66B9877B8493866A
col19:   786885D9A6579A958669B6E8A95997BAFB66C5997BCCB9C9978C8AEA9BA59778AB73A8D97C979A9A
col20:   517276569896B87AB9A769D67D88B8A68AB769DD799786CA9A96B559C8A74B8A755B8A476A765A74
col21:   9185AB99B89CB913A87A96A8977AB8A9CACBCC8A7BAFC78A989A88ACDE8A56B78BCAB9ADACC9E57A
col22:   6548A97488AA83C6EBAB77B7A6998BB9788BD88A99F5C9B9AACB889A78B87A6B84A8C77B75A3BA97
col23:   97498A8888719BA4936D9395AF47AB79B9D85B9A95DD78B94AB8A9D9636AEE87C59696897768A686
col24:   975B67AAA8D55AA686AA3DDAB9D878BE9BBCABCDCDA9A7987998BBAD9C6998A988D8A676A9B97976
col25:   4664C75A496DC73759888ABA9B5AA698A8A9A87CC9A77A84F99ACCBBCC9ACC887AB8A9A8A89B8958
col26:   56758B79A879A7F76E8C96CBF8D9CBAE84ACA8AAD8BAA7DE86FDCC8D759DBAA97A7CBD68BAA8A997
col27:   5665C8DC588C6B877BC9898998C9D8B9BE77C5CCB9AB87BFAB8C997B6D89EC8ABEF5ABAB9CC89C89
col28:   7449876A67BBAA8B976A8CCA7F5CFAB88F9EA9C8E8ADBEB9B757AECE9BAA5A98A779D8A7C96DD977
col29:   9354A689A9A8D8DBA5A99BB7A898B8AC7CBEBAAAB9AAB796BB6E8DC95A7AE6D9CA97AADCC998A769
col30:   9B98A7A96A6B7AC8DCA8A99B7AADB9CFEEC799BCEADAB8CD999B989BBFB7BBDA9A89EFBDC6C987A4
col31:   E958CD9B49C7BE4A5BBEFE89ACF8996DCAAAAAAA7A8A9B97A79CBEDFFC8AAB8C79A758D9CA7A59CA
col32:   5D976BA9C67ACBC99B7DCAABB7BC8A79CDA8CFDD99DBDC9BCBCB8B78ADDD8B9BFCBD96A99EDE99C8
col33:   775A7BCAB6AD9998ADFAD98F9789D6CF8CBDB5AAFDA8B9E8B9B8DA67AC7A8CEDD9B9CB9BBC9CA9DB
col34:   A65BAB8789DA54C8DAE9CCAFC9CBBDFFE5ACD88CBADAFCCACEC59B6BDD788CC8BA9DBDDABA7ADEB8
col35:   A989CABAFAAC9DBAE6CB8CAABAAAFA8D99ADDD7BBDBF9BBAFADDDADB9D9C83CB99DBCAAC489EBADD
col36:   6B934AABBBB89BC4AC97D8CEACB9DDBEBFBAB8ABBCA9CD9BCBBFBBBC48A9ABB9ABD99ABC99BBEBAD
col37:   A7A8398DDAAB37D9BACAB9F6BC98FBEDCBBBBCDDB9CCFC9C7D8C95BBABABBEFC97A8C9ABCBD8BE89
col38:   9AAB89ACB9D6AA7ABB8ACACFC7AEACCCBBDD9CB8CBABABDBDEADAEDFA8B8B9ECBC69A9797BBAAACB
col39:   ACDD9CCB85A5BCAAADE6ECA8ABB8C7E899BD6FE8ECCCBBFFADCAACCACCA99BCCCEF79DB9BC965CAA
col40:   87A7C8B78A89A8AADB78BDCC99B9BACCBFFC9ACBE7EECBFCCEAECA9C9BCBCFFD6BB89D9AA7BA79FD
col41:   B6ADB8ACB8896ECE9A97D97EA8FAE9DFBF9ADFC6E7AACC84BEA9D8EB6FFA98D7FA6DC78B98BD6AD8
col42:   845A89B79BB8ADFC7B9ADC9A9BAFEB7CDBDCDE8ACEFCFBB89CEAAAFABCD88C8CB9E9BAEAA7ABDCFB
col43:   997897BACABBDA8896999EDD8BCAFCEDBDECCC889CEFABAAFCDD6BFAFBDCB8DBCFCECA9A969F9CA9
col44:   C68CC7889D88D5AECAC6DAABD88A7EEA6EEDCD8DCCC9D8ECACCBEA8DAFDC99D9ECC7D9EA99FBCDB9
col45:   B9D9B7C8CD87F7D596BBDBA999BC9A999CABAB89CB9EFA97BBB7EC98CBACF9C8BF7AAA9B8CBDFAAA
col46:   B2A8EC88A8B96AEDAA7DB9CCBDDDAEFBABFAFC5DCBB998FEB8FCABAB7ACEC9AC8F99BFBADCF8EC8E
col47:   678A7ABBC993BDEABECB8BB89BDB99BCEEDA89BB78BF9DACAAAD99C6EFADB7B7AAB9B7E9BABACDA9
col48:   8FAA9BACB67D9A9ABED78DCCBBBF8EEDC8CBFCFFE9B7DDAAAACC9EB9D868D964EACDCDBEDAFBAB9B
col49:   B9CBC99AA6AAC88C79BD9FCBDDEA9BB6E9DEDBDDCBBF99CF9BCC8B9BC8BECBADBCBBCC7EAFF8BAD6
col50:   B9937B6B3A7ABBBC8CDBA8AE6BBDDADDDFACFEBDFFADC8CEBBADAC7BCDFDCDF9CCBADDDDFB7DDB5C
col51:   777568A9B7D88588B8988C7D984A8EBCEE8CB7E7A6DBB94BE849D76C8588A8BDBB9A4877ADCD7CA7
ROC:     BPix_BmI_SEC1_LYR4_LDR4F_MOD4_ROC1
col00:   3441164135215533284738748987593714DC6697339753A147425976644135565297558575765648
col01:   61284734A292168A47643588678A5B9774B6ACA6A7A186A695B84A69663CB96763936487758A98A4
col02:   571556656A4A17846186722183669B9588A8C66474465888475598848747BA55B585B32556776451
col03:   54416382479573A397855488969B8776A8AA8AA8966A97B9475656785864968C4793688489965874
col04:   4161776763538985646667A5779B99B4586848F79A6A96638686C68877328A6456867A2699996534
col05:   36278896749732726656A6747A5666997A83A754AB7373286572776573578A79BAC6588A76574942
col06:   5674537778788688377788767964C263B59455588AA69A759695A56999778677333A54999A735884
col07:   14769463467666479B8679D7A9878AA69CB78686AC899797B8A777A87C66676B77777A5867B58263
col08:   645691547378358865B795877548697589A6966485994BB9C77AC59834B76B764489A39787755985
col09:   5836395365AA66667B878855B57AB6E789AA7988A8A6AA937D6667887489A9A8878369A846B94587
col10:   539566378926A58479398776687BB598582985BAB7D68A74456577574773766487A647577B575959
col11:   45494324647A363B648A53789844A8989758A996668A985C965CAE7898B59938679862999948A773
col12:   3364D3736676456B867927467585687BA78669559959666438A95A5678577785365959A377386724
col13:   84854656585546A66974584678A7C887777B9582AA767886C56777AD6A683A584B55952D37998586
col14:   44345539778367A993467478DAB657786B88C96943A68A84675AC69775894A6877678996598164AB
col15:   5597B99336477C9584849A876875B58789A7AB85986258B47787667A7887C6798A67A51377598666
col16:   66477726A86669B493484A6548367232A696899B697B5667968596658696675473454525A6623695
col17:   775456439686A959A56879437867A58898786A6B9A9767857595888B7569966684A7448565739676
col18:   42162488A395786696857892694676A9979889A86592BB3989686A65439564646646A7D4154A4537
col19:   5455964684799799977587989658687D78545ACA9C76869855CAE83889A6BA778757856B78768985
col20:   86251574639597749699A988978876889975A68785A7925887D59A667786A965748656A86486797C
col21:   1753A7466874343A887B98A7A19B8987C7BB86758965769968988578895AC69888D54869675B9886
col22:   3837946656696544B8779DB7977599C988BBA886AA565A9588C55A9376A556756789649795786A94
col23:   51385667788977A65878994878B56A57A7BA9C99D776789566CA7C978B8762794C5767865898A784
col24:   236644664854766748844689997794869582872688A97B87A7976A9C767866A9A8889B56598647B4
col25:   688458948289A755787874987B77ABCC952A486A777AB7B76B98B77A7A5ADC958BA88A99A97AA83A
col26:   32B484B7B7B4799B98499AA8C6B5A9C8BA8B6A48AA7B7A899977B7986B9BA89788C8D97A77989986
col27:   A6752548B77A7886BB64447577B697DC9CCA9A88AB9996B96BAA8AB856CAC813788A8997985698B9
col28:   6A7A98B7596969A29477A7A66C6BAAD86A87D878AAA98A7DEBCC58C86676B9889C867B9AB9969797
col29:   68889A759EACCA8B93A4A7778A698BAB96DA7B7598ABC69DC94AAE7BBA996C9CCA7AA9B88768B796
col30:   89787849668497699AB58A7BBCB654A7EB887DCDC49996ABABB8779A698BB97BF9C8C9B9A89DC988
col31:   8A6B9AAA4BAA6A9AA4A97BADDBB3A8B9B979E5BFC8CC7BB7F96CC8BDDB75D6789A9BAB9A998AAAE7
col32:   65A6A54BB49B68887A75A9CBDBAB89BBABBCDC77A9AA8B9CAB8AC79BA7BAAA77AC6BA997AAB98888
col33:   98459AAD89367D955CCD8AAA68AC888B7CAEA9A99DA9A6BB8896CA96A99B79BA8CAB886A8CD99988
col34:   579A46A95279DCB7999B7BBDCB8CCBDC888785D899DBAA8AEBBCAFDE7DBC9799999A96C79899674E
col35:   38AA365A9A8A5A8A9977A9C79C8B9E9AACBBBBCCBDBBFB89AEAAA6DA79BAB899AFB8ABDBB7976898
col36:   7767D968587AAAC7697DA6EA899DAA99AC77CBAA98BDB9BBB8A8BF96C7DEB86BC9AC577759CBC898
col37:   4684A8B68978AA999793BCB8CEECCB899AACACABCB9CCB8EAA99BCFA9ABBAA7CB9AD486A999CCB9B
col38:   7CA858688687876899798A98A7ACE68AEC999C977CC8B89DDB999AB99BA6DFEDBCDBA7D89DEDB97A
col39:   78679B78C74769959AC9C8A7A98AABDEBDA99EB7E9D96ABBD9ADEF3C998A9BE6AB8987D88FA98ACA
col40:   66C97ACAA5BCECA89AA898B28B89ACBD8CAABAACBBB98DBDCEDDB9B98999EA9ACCE9B8997AC78CA9
col41:   8757B9AC89A6889C97BD9DBA87B8CBB9DEFC8AEDB8BCDCA8B8FAABBBB8C9CDCEBA9D9B9ADAA9CCDA
col42:   67877BA9A8F9B695CAB989BAD5ADBABBBBFACF9F99ACA6FBD7C98ABBCADDCBB79CDBDBC7A8CBB8E8
col43:   59B4AAB86FA7CBB9A8A9CC9DCB7DA9BCDACDBAECFEAACEB9DAAEB98CCEACEA8CFA9EEDC8FE9CB8C8
col44:   7797699ADC8A88CCAA8ABBA9997A79B89DCCCE7ACADBA8FADACB6CC7EAACDDBBCDDD6DAD9AC9D99A
col45:   9776597B9988886BABA96BCAA7998ADDBADEDA9CDAB9A9A87A979AEF9BCACCEBCADFACCC9C975895
col46:   87658596B5C886B79B989C899BAABB9ACD9DCA9FEAFAA998AA79E96DFBABEEAABCBDECE7CA6DB8D8
col47:   6B7C7B9997CB9A9BA68A8C9EBAB7DAFCA9D99DCACDCE7CBBCADACBDDEDCCA8DBEBAABBAE9D8ABCB9
col48:   6C9789577BF568A7AB97CCBAA9BEC8DE8E8ABA99C99BC88DAAD9EACD9CC9A8BBDACABFECDDBAEBF7
col49:   87896C8387EAACB999BCCD99A9ABBDDDA7DC7FBFCCBF9CC9AECF69CACBBDDCDDBABEA8ACDFDBBB59
col50:   95967B6889587D9AE698AAACAEBBCAAD9DDBB87D6B8CAA9FDCDC8AB9AAA8ACB9AA85BCE89A7ACCCA
col51:   6576565479C96B8977A8CBAB98DBCF9B7CAABC89BAC98587BA9BCC899B9BAC99CCB97BB6E9B89966
ROC:     BPix_BmI_SEC1_LYR4_LDR4F_MOD4_ROC2
col00:   6626361B3866948796375787477756775669784B887B555765586657598A885599875C7266796614
col01:   675585AA7738C97B29498AD6CB6866A45BB7D79ABABBA99B9A968CCA787AB4AB47795B9C9D738A6A
col02:   72854635398A58772A8C768A39AA54577A86B9BB99977899896C6B969BD7898668A7389986A65267
col03:   48778695859976B89BB94A9A8686A79AB97A7A5D847988C78B5877E87A674C9A79243B7C54756639
col04:   37747596567865989868BD7A75977BA9C997DBCAA6898A7987C95A9CB63796969987496485578789
col05:   354C79A5C8638AB4696798899AA86B77ACC8A7888689D7A9A69878A699BBB4B6B768B698456A687A
col06:   666885387A4587379A7887787789BAA959799D88A96C5A7A75D787B8A597AC88C855589698686655
col07:   98B5786887557A79A8AA699A885ACA787A89BABBBCACEBDD8899BB9AABBBA9ABAAD99BA39C9BA6CB
col08:   4735878778859CB8A877B679A76DD976899B7E7AA9987B896AC9689ABB7B7A9AC46B5A987759A994
col09:   467587A79A7A8767CC6AB8C686E8766D9FCAA999C8B78CB9A8B5879BACA89A96AB89998A74886955
col10:   66384868B3B75547B59B989AB7AB7D6599C99A56779BB9875B9BBB68CC8CDA779966488871994BBA
col11:   A9759677885779A83988A8916E689536A6AA9B564D9A597EA6B6A7A896C9A89DAA989967887A9864
col12:   8498894A6986639762973779A6B988997BA2996A678B77A98DB6879A979C3968AD868667698A965A
col13:   977693978658A6A8858BB87AD88ABBAAD9AEB9CC8B7D797C9B88BBBB6B8A8AB897B896B8B88A83B4
col14:   96557B6628977968AA6689897A247BAA9979A68ABAAC867B78B9B9BD85BB8B6967686887C648C784
col15:   534596B889887A897A969D8AE8BC8BABCCBAE9AB9A67D3898C4BAABBAD74A99A55A8BBB973587788
col16:   595618766667A839C8A8878699C9E88877ADB9B577989998BBA89878775B9A897B636777C7896B74
col17:   947867876B6777B73A8C89979779C7DBA69E9D8B966C6897DBB7957A9D9A574B7888686AB8889A68
col18:   7657559328986AA77CA5888D7AE978C65AAAA86659B7B6ACA67ABAAC95A5A6768A8877A6299A7955
col19:   C9A9C779B79A6BC749AC7BA89E8BABBFA9CD99AABEC97799CB967996CC8BCA99AD6DAB78C677CAC6
col20:   A664961566B657B8AA5B8BA387A8897A5BBA88AAA778AAA9A576BB7587939BB994BAA9759866D586
col21:   59978687BA874996AA489AB8C7BAB4AC7BBE98ACA9799A98AB9C8896C9D97B459769869973989281
col22:   97588876474876D59A9968AB8A59AB44BAACB59B978B987B8CC9B6B978A9B766B9567658A6766665
col23:   A739A96CC7C6C8ACA7C7C978B7BCC86876FB977ACAE9C7B9E98ADA7A87A9998BB679685A64879447
col24:   76A968471D7A5647985A558C9398968A99786844769B9866999B7A8994898699A896B59498778586
col25:   BC975D9977BA8B799597997C9AAC89C8A9C98DBB89BBDB89CBA796B6BD999B78CBA7ADA969964897
col26:   999B9977A89D789D89996EB899CAAE99CC9ABADFE9BE4BBB77CAA8DBCCAC5DC9A6CBD58DAB9B9687
col27:   9789DA7ADB69A89AC9B87EAACEA867A9BBCB7AABECAC9DBE9D9CBBA7AEF9B9AE8CB5AA8D9999BAA9
col28:   B84BBA8B77A996698CCA9E9DABC96CDDA9DAADAFEC7947ACBE9BB999B968BCACC879AA6AA659A84A
col29:   8A9888BBCA9BAEA8AAA9DCBDEAB8A9998CAADBCCDCA9DDFDBF7CAC79FDBC8A6C9C89A8AAB7BB8A9D
col30:   9C2896B6C887A6ADCD7CFECCCCACBDABADABABDA88F9CBE89A6AA98DACBB8C89888A69BCB6457AA6
col31:   ACC987AF9DAB979EDABCDCBBAFCD9EDFCBB9BEBEFDED9ACB6E9BC8AC9B9DCEAF999CD797FA75A776
col32:   9B5BF978AAA8ABABC7889DDBBCBACCCABABDEDEB9ECEDABADA797AAC879EBDBAB7789A766B5DA987
col33:   78AADEAE6A78A8D9B6C98CCCCBCB8A8ACBCCAB9B8CFA8AAB9A8C9DFB7ABCCEB99FCAB9D6BEBB6B75
col34:   9A949AAC9BDBAAA8DBBC9EA9FEBC5BC97CAE8ACCF9CBB9ABF97B8ECDCABBBD8A9CA6977B79995988
col35:   C9AC98879CCEBCABD9FBBA9DBCCBEADBAEC9BCCFDBBCEDBDDB97BCAE9DDADEB9BBF9CBBA4897ACB9
col36:   B74BA377AC97C9BDB999986877CC5DCD99ABCA9A9CB78B9CAA9DB79AFBDCBC59BAAA99AB9E66999A
col37:   9ABDC68CCB78C7AFAB9CAE9BCEB9ACEBBAEC8BDEDDBAA8BDCBEDB9ADEDABAFBFC7C9AB9DADC99ABC
col38:   9ABBB6BCDBCAECAD8C98CCABE99DAADDBCECBDAECDECE8AFCBAB99DEDDDBCADAEABCB9A9CBDDB9A5
col39:   9CBBA4BCD79AAFBEABCDDFDCD9FDAFDDFDAEDDFABBBCFCBB9ADACDC9DFACABBFDA7AA9AA4988ABBA
col40:   A9DC9CA85ACEBADECE979AB6EC9DBBC8B9DACCEBBABAFEDEABFFBFCBDABCA9B9EAAD68EB9ABA7D86
col41:   AC877ECCFECEBAFCC8C9C9CBDDAFFEDCDECFF8FCEDCDCBEDBFFBBBDCDDF8CCEC8EACFD7BBC9BE8B6
col42:   89B7D99E9DA8AA8B979ABCACCACCDBDCBDADDE98CDFBBF9CD79BFDB7FDBBDCAACCAD88F9ABCADB8E
col43:   AAD97D7DD9CDBEEBCBCFCFFBBBCADDFCFCDECBDBCCEFBFFFFDFBCEACECDDAEEBDDC9DEDCB9B9B9A9
col44:   A8DCAEAABCCCFDBDDCEC5FBBCECDBCFFCA99CDFBEEDCFBEBBE7BEEABBB9CCFBDCA9D89C7DBC7CCAA
col45:   9AAB998EC6B9CAB7CACEBD7B8ADCCCA8BDCEEDDC9FEBFDDCFAD8AADFBACC7D979DAC8D9CCB9CA7BA
col46:   AC9BDAAACCD97CDBA97CFAAFDAFAAEAEFABFFDDBCBCBCDD7ACABF8DCAA67F989DEADADBD9CADD8C8
col47:   B9BAF9AEDF9EA9FBA79CB89BEDECEECE9DEFDEFCCCEBECFAC9CDBECCACBFBC99BCF9C79B96CDB998
col48:   EB898C9AAACADEA9BBDDD7BC8CBBBDDC8CEBEAEEBBCCABED9AD8CEFCCAADCD99A8C9CB7B7C99BE76
col49:   DBABABDD9ABEEFBD8BEDC9DCADDCBCEEFF9FB9FEEEDD9EBCDD99BCE9A6CC8DDDCCDCCDFCFECBC9AC
col50:   DCADAF7AAECBCAA7CCADBB8CDD8ABCDBCDEEBDFD7CAB9DEBBCDA8C9F9FCFECDCBFA6BF9A5BDDAAB8
col51:   BB99ABBBABB8CBBACAAABAAACD79BDC7EC6DD9ADABDC9BB9BACDC9B9ACACDA9F8699899DA9BA99B8
ROC:     BPix_BmI_SEC1_LYR4_LDR4F_MOD4_ROC3
col00:   75458675955486B793B67864433465898BB5388878876A594A65A1592A5714258B89974615593857
col01:   67999477C979887E6A7A8B97AA85874B7575EAB626ACA946A88869B7D6BC948996A6697D999A8A4A
col02:   856979897D669898897599A897A8B5778A48878ABB756AC7949A5768B8887A6A7CA8541CB83735A7
col03:   88C47BB49646589B7583C88877B7A96679B986C87797867B787489A486A9CA8A9A8878878754B693
col04:   9379676985977653589979A879767BB7A93967A7A7BAB675978D87A6AA579E76957ACBA1A6976973
col05:   96A6748865A996B67C74788997899697AB7598BBCB988377556CBBB796C7A3595777764785878686
col06:   777D6778768B796998A87AC6A79A779967CAADB6776C888997887D9A9784BC8768A6A99395973889
col07:   797A9966BA788587AAA696886899DAC7D7A975ABAA96EA5648CB9AAA7CD796888B4B47763A777686
col08:   566689798977A5799B7A56C98A779C94C67BAD88AA5C85858CC6B67783757C877A6867BD7AC86AAB
col09:   598436A45C95878A7578F86B7A778577A6AC96BA9D99CAB8469394A7964A959A875A88B89887B667
col10:   AA8372793198A88828CE9A8988A95B59BABCC984C999859A97C7768A49F7A9364A4888A4BBA99789
col11:   4697A89676478A949ACA99F798BB7AA7988AAB857AB7DA7C5A58AA8A6A8D8A9966AAB6A669785B81
col12:   3764AA875789A94A67865756C69A9A69995CA78879D98A65BB7B89891B6C98A87988A67364A84869
col13:   9947A78697AA98B79786BBABAB99D59BBAA8BB7B976A6B7BB99B88856998559B979A89AA84897885
col14:   766791A6D478B958A887A9698C7C7A7DAC9B9C968B6B9B9E9698B88A6598AA567B9796849A87B688
col15:   748892B7673A56758947CA7B84A787F88CAABBDAC764BB9BA69365A552A9B588B88A7767A6784C68
col16:   A399688948655588BA966688A85B58A99885D966D8D63694A86B47776D48C9688879998A7865B8AA
col17:   6564B586A48743617B975BC89C99A9875B79A77D9C77879677A5988A99B9A995954A979769865B97
col18:   1644BB585A9477757699789A9AA9679B786ACB8869A678AC9B78588958699363A7775BD979B382A4
col19:   8B798C59983AB6648A7AA497798B96A9F97D9999567A959AC99AC9687A97B5A679985D9C776899A7
col20:   6A593567664785BA7497588A758A75BABA997D7B9B987748C5B8BD96275856298894579528298895
col21:   7862A9494A6959A75B76AC8876AA9AA9B99998BA7A67898B79B886E9A5977948661A436899598957
col22:   34A9783679C39A188588B86667667AAB7AD8A58A68789AA573A8386A5B8469557478C76988837548
col23:   87895A998767A5774838337566756B89A79AB69B978878C8A8B89B687895A68B518A97976765A686
col24:   C4738A6BA34AC78BAC94B38B86776C977679BA887886AC769CA9977C556888B665356B95A9569373
col25:   9947C89A9A98855AA56ADD7AE6CB66ABA46A8547B77A8ADB988679CBB899A97A9D64535773886864
col26:   996199C8879B9588879CBC846B6997DB687B8C7FBCCBA87B9B2BBCB9C7B939D4B9576589657999A2
col27:   55A648568AAA94AA6667758788B9887A8AA4C8A9E95CCD6ABABEBC9A78C9BBA95D6C589787AAB7DA
col28:   E369B7578898AB7A99B8CC99798AA9AC6B779E99C79AEA67C9F9C78667B8B7B8B5ABAAA7965BA977
col29:   8A8587898B99B4A82A9DD877AA999BADAA9A9A6BAAB769A9A7ABEBC8CAA69A6B8AA68CB3B5695C98
col30:   5868A98847A589A6A5B57999BBB34C8B8A9AEAB9899A899A9E96A887C8BAA898C786875BB6979CC9
col31:   69A89C99FCBA676A8AA789A89A8AAAB7AC9C9AAAECBDCAFADB9CD866DA7CD9ABBADA46BA88B99B89
col32:   46BABA4CA9A8ECAB986A68C4C8B88AABDAEEADB797ACCB7AAC8BAAA9D9BA64DAA6B88AB786AA8986
col33:   75D869B9A979AFAA79BBBC659CE7BDC9C8BB69CDBA7CA6BA9BECB7667AA98C9AAA978798A89DAA85
col34:   7BA6888A9B7AA6B77CA8DCBCAE9C997AD9899BCCCACBDD6AC6AACCA78FBBB84B9B8C75AABB9798A5
col35:   688AA98BDDBB97AE899AEA9D9EDD9DABCBCC7AB7B789ACBBC68AA37CA9A87BA7A6CDB4989BB89968
col36:   65A599A87479A4189B78B993A8CA9C8DDB77BBC9FA79C96B9AB75679B8A97BAA78CAC8CAB9A6588C
col37:   C8B6C7CBA9BC8BACBD89EAB5B9AAF9BABADC9FC79ACCC7DDDDDBCEC9DCB5BB9AC7AAA89AAA8CAB88
col38:   99B9A8ADA788FC979C89AE7A9F89D6ADDABECCB5BD96B9AD8BA88C7AABBBAB7A77CA5AA87B9989C9
col39:   B5686ACA8B76CAE9D9CADAA889B799BB6A9899B8CBC7B8CB99A95AEBBC8AA7AA989C779AABBC8BD7
col40:   9AB8CBBDDAFC79CD8D6E93CBAAABCE99EAAFCEDE5CBABBDBBCC57AD77A8B88BCA88A9F9A8EC8D9A9
col41:   A88CADBA9AABA7E8BBEAC8BCBBCCBAA7D8ADCB7BD9EBA9CCDBCBAFABAAC9898A8AB7C85E7D8D99B7
col42:   A8897A999A7B6D9B7998B6A74BBBDBCCC7CC9898599ABADCE9A689DBBB8A878A8AA8999C7D8A98A9
col43:   BBB9BDCBEDABD7BEC9D9BBFAEBEFBA78B8BBAADDEDACCBCCDAB8FB77ACDDBB9986BA7D9BCA9A98B6
col44:   979CA8C8A6E75AA7BBBAAAAAB8AB8BACD9EB8AC9B8ADA9A879A997CDCCCA79CD9BCAE99898AAEC9A
col45:   6A4BB4C9CABEBA88A67BA7B9CCADCEFDDBB7EA6B99ABACABDBC9BCB98CB8B98997A9B965B9A8889B
col46:   B8B759BBCCCB8CAA8B8B4A79CDEF7BE8DAA9BA7BB9EAB8B88DB9AAEA88D8E9AAAABA89BAA9847AA6
col47:   77997AA8ADB99B78DAB9A8BAA8AA96D8D9BFB77CBBABEFD9A9CAFBCCAABDDDAC6C868A878C79CDB5
col48:   D6CBD3DAB548B8A689CAD8CDA7AC8A999BBA4AD9EDB9BBAAEB8BBD8AA8BBAA99A77C9CC98AB779A9
col49:   96A7A99B7BB8B69BB7A7CDDFD999BCABCDECC8BCBAC9BBCBACFA6CB8E6A9CAAACB7D8C88AEBA98AA
col50:   9A897AC7D9DCA8A8CC8B8B97DA7ABAEAA9BCB7E5AAEBBB8CCB9798A8C76DC897DCCDD9879CCD6AD6
col51:   AA765896C46994B778AC5D999AA9988A889D9B6B93EB9BA5A96A87AA5D598786CB4876A7A97B6779
ROC:     BPix_BmI_SEC1_LYR4_LDR4F_MOD4_ROC4
col00:   43537116633157328859543A754913769874356355795C66954547587A4666536633356655713761
col01:   4765482136BD815BA84A8978B5677783695787D7BC6A5985C7A99BC979CBA89BB99866995BC4935A
col02:   67844467566168785789669174A63956A5A667B969A796B888A778699777A8B67769754776978371
col03:   817249766777685566A6C9754686CBA9995CAAA986885A7878C67377C848A76565A2A8696638BA67
col04:   2444467B35AC695994898899A996B87886A37AAA9A58A969A7C97B5A5A89B88928666A8584845497
col05:   4975B77846278846AAA576A46788B6796549599988694C78C9799D6469B78B7761967957A31A7647
col06:   A74738568786785689897A7B49A84B16887999BC388A96594896BE5BA9A75E7C8537636358779999
col07:   377A57A8997B7879BB67B8B79588A879BAACC98AC7BC8BBC69A9497CDA6AB8FB67A678B887A63A56
col08:   364556C792686788269C5C5659A97B9D983A88558DAA78F97995ABBBBAAD979ABA88759755748886
col09:   77879939C399418959B67998B96B9D87779856A74896BBB77C9C889948BA58987B796AAA47987475
col10:   7389515679244998597A58694589A75666A89696A787B9D6CDCA6A788AAA799A2987764777968878
col11:   6879585195966C77B45857758A68A98AA95A566B77956788977879BA8C88B97AC899A5B76D769696
col12:   63345845366395736A869A347D2399946C8755A988B4B64586B79A6B88738E79767C494475647946
col13:   7959A8583BA5267698799AB969BBAB6A73DB9CA48946CBB8AA9A9A7CA89996A97576688717645873
col14:   4763C53785A5A37A85B956E77879C6A89456B99998398AA749AA6A6C64A9E6A6674859395767A47C
col15:   6757766865666944A6497768C26B6ABC4AB8A5BA78994986AB95BBAB7A777A4789A5889847566576
col16:   9755868C6856567689A94787CA976B88979BB6AA89969B59AAD6AA7AA95597757B77B548B5388532
col17:   6755547C66658688699A89BA888B7D8AF886D9934B95BB9A88EAA6A5A6BA84877477577BB7556B89
col18:   755454785537786771A75A67365858857B878698CC84968AA6A797969975C43A869469A63645B7B8
col19:   6A697984468973877B968867BE9A8AB9689A7B9AC977999AF3AA68A9B9BC888969A4967998445696
col20:   6414646546745B7766368688B5946997C995679A598996AC3AA87898A837699983A8AC7684478452
col21:   6788837835232574569A848496986587AAA888989779C959298A696A69E786A94A964877A9367488
col22:   4415376553654A677979155B76C8777B58379A8995ABADC7A6A79459B86748469397695652664534
col23:   686664588B48926649A85969A796558597769AD796BA2ACA8987D78977955C8854854A795A748862
col24:   2767688734834877698775535B6E8596685A88A95BB8AA883D8676975BA996897B47559866682245
col25:   17675758683756757A479B779AAA7979794598AA8673A8CBABB5B6A99CC97B49C7967975746B58A5
col26:   66387688768A4B97A5A6B5837DA8A95C6ADC9FACE89D7BC79A89B7A9D48B88AAAB9688AB7A896AC8
col27:   688B9487B777A66D697589A9B7788C98B899CBADFB97979DB9A9C879A55CABA9A8E8966767679383
col28:   9938665965993B688B87B6A8388988B867B77ECA89BB9EED7BC59B9ADBAABB8C8799BBC545966268
col29:   B557B8BA7835A8A6BC5A6C87ABA9D5BB96CAE5AC899C8E9ACB8DC67BD9B6BA8B9A35A97D8997C566
col30:   85898656A8786A3769C68B6A98D999A8B9989B798A8B9C89EA89A69A9C9DDE88BB88A46867557687
col31:   687787846A5B959B89C8B88FB9DA99988C579BF8CBB99ADCEB9B8DBDCFACBA986A88B5A77669B996
col32:   5838CA795A77D9AB5696ABE8565779BCA8BBCFCC9989AB8BAD9A9688BCE96986C6A9967543876A55
col33:   877889A95A6766C96AB957897AA9DF6AA799CEDEBEBBC89B97B9C8BBDB9DA79BAA8CB878674BA687
col34:   4747B99C7479B88887AA876B8AD5BD9C799AFCDADFF8ABDBA7BBC776BA8978A96B77C864999AF8B3
col35:   6A6A99499858BA7ACA76A975AC8A698798D79E9B8CAA9FDC8C8C9CAABCABCD9976D965AAAD958766
col36:   84559766398B95899599B9B675B9B99ABAB9B86CCCAC9AEABBA7A77AACB88686AB7737B3A85A7881
col37:   7797979AA85BC6BABBEA7ABBAF8AA8D77E9ADEBAADBAFCBAD9DBDDD6BBAABC9AB8C87898DE61A664
col38:   A8599367B697977A5989A7966A6BDAC7798CA8999BB9BAA758A78987B9DBB7699988997C69B9C945
col39:   CB297B897878C7AC868798AD8A9D79B9B87BFA889CAB9BBA6CCB6B6B9DA7A89956788B889A94869C
col40:   959C6778888886B988BB798BB89897BCAC8ADBAC9A8BBE9889CDA9CC5F98AA6C99B97A6879AA5AA6
col41:   977688C9AC9A8A79C65A89BC999BA9CDA6FBC77C9CD99ACCDB95A8BDE8CCBA8B8A997A98A99D7A95
col42:   759898B8988978AA649BBC7886CAABB7ACB9BB8AB9CC898EAAFBB9A8A786DB87DA79C74AB8657475
col43:   3DD75B8AA8AA885A9DA8BBABC88D8BAA6BBABEBDAAAECDAAFDEEAABEBAADDCFBB99C84CAB98BB9CC
col44:   6A5C58787D879C9A763D6999F9A9BBD9C7EFAAEBDB8AFDFC6A37AC9BE8B9CACACDA9ACB979ABA689
col45:   2B7283A88997E86B84997867AB88BA9EA7CCECA69BCBC69D9ABEA69DC9CAC88A9C8BC4B8EB7C9C59
col46:   96755988C588866B8AAACC9966B7A7799CC9799BDDBC884CD8A99A6A8CA77AEA69C86B95788A55A8
col47:   9873675668ABAA8BBAB75ACDCCAB66FBBDCC7DCBBDC7BECEC9DD9EBFB999A588CBABCA68BBA8685B
col48:   9879AA689A6876898BA985CEE967CCAC6BC7BBAB7DA99AAA5BCEA97AB9C579B977A868573A76AA84
col49:   699346A779CD9C6A8CA888A89CFA7BABA8CBBC899FEE6A9AAABB9DA9A9CCFB6C8CB7986998BC6987
col50:   C7598476769656A86AAB9D98B777C8CB7BFBA8ACAACCECAC8B9A898BA7DCF977B976BD78A49777A8
col51:   84B676587949569794958C77773BA9859B98C78A8B8B8888688CCAC9A67AD5C9999AA5775A4576A7
ROC:     BPix_BmI_SEC1_LYR4_LDR4F_MOD4_ROC5
col00:   4A261614457922618667833573941A576999823188A29754313915236683665257889734C4773267
col01:   6333385B55526A5886C6778C99298579873694A746448A3977656B76A988397295C7AB58768695DA
col02:   55A1879566543A35C793BA9784CCA167A65488A8A7936C77794967686388376558A61C577AA96782
col03:   525755C5468967627763866345987895A9588888AB69B4A579B6956A7494BABD597E67A8978A6769
col04:   6AA787369545696A748747811A7A9C8A9B1AF83C8568E59998694ABB7B76B8966783978979CA7AB6
col05:   3586A89783469B66C786679788CA8A6449DBA15A98AB76A9689CA6D858A8A7796648A78669785936
col06:   A6456563A776A69453B884A5677CA869547B5B68679778B8588886A645839D84AA9AC77955996565
col07:   8348652989A3597978A7799E9B85C4987C876C8657BBABE9C7679A98988AD8BC7C8798AC957A98DC
col08:   6B59B38697665699A4B3A795A948A677B587DA7BE6A5A79948998B69575566855AA7AC8B86A9C695
col09:   7A5665845654A387A6875CAA9977A779B6A9AA77AB6CA546C878C2798A867C48BCAB689899589988
col10:   8544A37677B83658779883468758C674A796CA85889A9685D8B57CB8B45AA8A889A88C789F827998
col11:   5C888376878896879888BA6785BA8A9ABAC8C68B7DAA9665C78C52AB66687D586A8589793B899BB5
col12:   A16A59476A5597634828AB7749965AB785D8D875A9ADAA99B5696888747A98A9BBB47797384789AA
col13:   739986A86C35B78889C786A9BACBD696AB96C9A97AA97B6899BACC9CA976A9B9AB79779978BA38D7
col14:   71A583A7A58896898999AA8797B98885A9877A6DB567B5AB94ACCF8A8A88B897986B9688B8956C74
col15:   44797899A6957D7B36788A3AB7B8797BC75AA8BC78966BB6A98D4AA787AB98BD94A5795BA9788488
col16:   737838676784649A5893797A88A987A96AA7C67A9BC6575A9BA7B9EBA9A78A6A797AA94797A899A6
col17:   59765B5449996767688688BB8496A89B58BA8C6B8B6BA967A97A889977B98DB9856A4B46987868BB
col18:   628A997D866B7A87A688785978A97A7CAA78A768B86C99797A6769B6678A98A886D69777958473B5
col19:   B1A755C579576B9488F4B98967667C87BB99C78768AF79A8ACD5998CBB9DBD78875B88AA96786983
col20:   65A646A75494599A8B6846A985A9AA99AA8AB8A98931B7A7B89BBAC694667F868698A7599747B7D4
col21:   858968916578669859B689998A86CE76B68796BAB4D7A8A796C78AA97B8BCD9966888687A8787989
col22:   765856889749A9857797E8B886A59BBACBAA8B989689B8ABB9CD8AAABDC7777A5966C458BC99A6B7
col23:   B96C5799969A88AA688C6C88898AA9AABA7867CBC587AD996BC5889798368A6A6687C9C78B4DAB89
col24:   A879884554384AB989BD9648A8C8CA78A7997A898E6798889899B98A977A8999DB97A9B957A4D3A5
col25:   75BB679B83A88887A68BC47D8C5B9CDBBAFA9A8ADB99CBA89997A9FABDDCB8C4989C5E9CC7B8B864
col26:   78A978DC3B6787C9BC9BBDCCA8989ADD9ABCBFFADBE7AAC79B89A8CAB89776C9AAFCC69E97A6AB9B
col27:   56658BBB36947BC77D6DBDAB9DC8BACDB73DCDF9A5779CF888BAD87EBAACFA3CB889A889C8A96B7B
col28:   76C47A6AA899BABCC8FADA69BB768C8AB6BACEAB8A7DBCFD87F8BBCBBDCABAABD9BA9C87788CCEB6
col29:   47B9DA89925CD89AAF8CD9E79DCAB966F8DDBAE8BB99EA478DEBFABBB4AB8B8EB989DEBC9CCEABC9
col30:   8C88CA9B56726BB98D96A7B997A9BC97E89CA8CE8B789BCCE96BD9CDB998BDA98A999EB64A858988
col31:   88A86CAA99AF9CD59B9AEB9CAC9FBBBE9ABBC9C7BFCEBCBCABBC8D9CC8DDCA7C7BCBA89BDBA9DB9A
col32:   7839D8868BB9F8AAAC8A98C8A8BD7ACCCDDDC99ACADADF9CA8F9BADBD8A9BEE998CBC7ABCACA8A87
col33:   59699A98BEEACB9BC96AAAB6B8BABBA9D7C8CC6AEC8BA9ABCABFEAADAACFBBFBDB9D6DDC79C9C9EA
col34:   9C878DE6A9BCA7C9DC7BF9BB8BC9BBA8DBBDEAEADF9CBDE98D7C7C6A9EEFE5A9C8CB9EEAACD8DCDB
col35:   75789AB996CABAACCA9888DA9CEB8FDBDCB9BB9EB9BBFA9CC6BDD9BBA8A8B8D8A7BAEBE788566BB7
col36:   A4A7B67AA97A9AC4CBABBABEA99CBBF7ACDDAFEB98ADA7AEBC7B7BC97ABACEED8AABA9C6B859CC9C
col37:   8BB9CEBBCAB99BADACD778B6ACACADADACDE9B9C9CDC6DCC8EDDDBBDBBDEAADD9CEFBBADDBBB9AEE
col38:   6BBA96CBD66D7DAAA9C58DB7B8CC9E87AF8BDDBCAAC99AABC89CCACD7C9BED9BE9DA8DBADADCABCB
col39:   79A769AD999A9BA8ADC89B9C9DBF9D9AECB9BCEB9DFAEDBACCDACABCC9DBCCBAA89A9E78CDCBC99C
col40:   A889B5CEC7CAC9D9A5D88BDBCBAEEBDCBFCCADBFBDB8D9AFCAEBC69A9ECAEDBECCACA9C8C9FDAB8D
col41:   A88A99C99BBDA87BCB89CAACABCBB9FB7CCA9CBCDDBEDCDBCFBFB8BA8CFAFBDCBFDEC8898BBEFBA8
col42:   9B969C98D7D6767BD9ABDDCABB7C98BAC9ACDCBBCE9D94AB789B8BFA99AFF6DC9CAAECDACBA9CCAB
col43:   EBAD9AABAA79FD788EDBCCABEBFE8AEDFBCEECEE9ADC6A9E8FABCBFCDDEFECE9EAE9B7D86CEB9DAB
col44:   77ABBEBAAAAABBD8B7D9ACDF9E99BEA8A9DCD8DACEAEFCFFFB9FEDA9CAFBCAC7BFB9CBC9BEBD8BEB
col45:   A788AAA86D9AC9FCBB9A8B9DCABAAD7DE8EABBBB9EFCDEFEABDABCCAA99ECABB7A99EABBDC779BD7
col46:   BBB7DE8A9ADBB99ECBEBAACAEEBCDFBEFDECABABF8CECDE9B9BC8FCCCBF9ADC8BCC9DCE7BCAABACC
col47:   BAA7B99ACBAACABBCFBFA8DC6BAD9AABCFCAFB9EDD6BCAF9EC9BDD6BBBBDCECDB8C5DEBCACED9EDB
col48:   BB88955B8DBA6AC6D6F896BEDC9DD6DFFBCFDC9CDFCAECBABABCDBBDCA9AFAC8DD9B9AA8E96FAAB9
col49:   B9BB8FBA89CBBAE9FC8FDB96D89CECD9DB9CCECCCECBCDACCFFEDCFFBBCDEBCCDBDEF9C7EDACC88B
col50:   89CA988DBAD7CAA4CDD9ACB79DD9DCA7A9ECF9B8B8BFDB9E8ADEECCAD8BCADADEDFD86D6C9AAFC8A
col51:   D967697CA95A89A8B88AB8289D44B8C9B8B99CBBCA98AA6F768AAA4BAAB7CCAACBFB6BA9D76CBDBA
ROC:     BPix_BmI_SEC1_LYR4_LDR4F_MOD4_ROC6
col00:   8134132821116765145A853896827747477B485886A189632987988499755A966641497622468356
col01:   D75C815667AB5777674948897275BD997B5597A9A99A7D9889599BAA8A2CA879886752774AA6AA76
col02:   47557863774654DB5A6958A58A494A849AAB69B8C86577857A7AACA57A9868A8AB95692895684495
col03:   345685197556177A6B985844C578396A99588D9D88887CA38BD889DB979B656D89A2584976683674
col04:   4555625A94374357B8B6786A476485C888966CA9994A68597BB2982A9968976C9247848759349662
col05:   69975538BA66578856AB559536786A5A67A678878A998AC79A99BB87F888A4677B8693267597A673
col06:   7A8738675D53AA5A868978CA58855489C8A556AB78358B87635BB86BA85C86A8667987482B678351
col07:   5C55ABBB89AAA7698A57A68691CFED7B9885848C9B5D4C867BA7A78B776A69C65A998558836768D6
col08:   A568696567A5887B98A96B8A8B5568C8AA699C55A886B8798998399C85E8A687AAA7895A56168A45
col09:   9476696A97824873A5987988599778698D4CCC9699C975897977865BA4D9D58CB9688BB562999663
col10:   A675B779547259A35C598A68A66A9484AA7B785878A8688B8AA54AC45F88792899975C4B6677827A
col11:   434685788B66827A49A6996787B82799B6BD5C88A68AB89979756CC97898B7788969855796477569
col12:   7714653656576867B66388976747B77977B97CB6798AA957584A9B8C966876878297976882814873
col13:   572637679A59A984B9558A6A788C79C4CDB67A99BA99DB8A297BABA89966796569D8C69C8B78A7A6
col14:   15749B7577A5A6569738AAC77CB875E98A9AACA9CA58B7D95789BA8B74A6956687C3676B49984816
col15:   9886786654A955DB795A498973B8A75DAC8AA595AAC69999779AAC8B955899A7697BA858A43777B8
col16:   5A92685A776994977F88469AA76A767A8999CABAA996A799AB6B9B8A9B8D9977568ACA9939876861
col17:   594E8748C664668B988966748A6B8898DB998787689AACB9CD9AC589AA74A495764B59AA8D368946
col18:   3857766666A797B987875889A5AA968765A76866987899AA5888AA8A79ABC9466A78794676937444
col19:   837A64CC56B95986A9A484A9A7974A79A99BA9878BBA9996CB9CBBD999978B67A867A96966877758
col20:   47543844699876C699889697B479858988B5C99AA689B7AA9478A839A876286967756977A7256726
col21:   958A77694968AB848784AA74BDBA6A98A8D9A68C6F3C4667778BB67577798B898A773AC5687451C4
col22:   6664747B37A685C799A78AB96388669ABC677A9DA7A8699E88478678ABAA877A5897565683996A47
col23:   86C88977896965A5C69A97D78B9999D8E87BC86979CAC4BC8678872AA83D36C8A957AB9AA6A592B9
col24:   877BB78885488B96A878AA87A7A9967B88B8A738678CA66879384B9B58B58B8A5AC6633986676859
col25:   B6B8686AB96A8D8556B9A94A99B599BEAA98CEB7DCEBAB7975A9AB77BD9889799CA9C42118A69745
col26:   68663AA8BBC9989996A9A9CBDA9ABED8AC958ABDC888BA97A98B7AAA85979A9B8BA78AEB1A87A658
col27:   67867C87955897AC8CBB7ACEBC96DBD97BD9AA89BCACCCB97CCB9A66AACBDA857B96ACB99B88C976
col28:   B997D8679796B9C76BBBBBCCA78C8A9AABAA8797F9AB88AC6ABCCD9BA9CEEB7CD68C9D6AA9887CB6
col29:   A999ABA88C9BDB8A8B9C8D8BDCE77BBD88C9DBC88A898A9B6ACCDB8C9F9CCD9A8A89AA9A9779B6B8
col30:   66A76C96869A7C9B9BA5AB93C79B945B7CBBA7C38ACBC6ACACA789A98BBB99A687B9996C86C5BB99
col31:   BBC57B869BEAE9A988D9A99A89C6CAC9CEDB9D6B87BACDECFCBC99EECFEA9895BABCBA7A99B84D89
col32:   9D75C987A59728A9DA9AC8BFAD8DBA9DCDABFBCDB88BEAEDAF8A7A68FAABC799B78A77AAC5B64A7A
col33:   56ACCD6CDB88A8B9F8AFBACCACEC9DC9ACEDFEAAEABCBEAACBFCDAD98B9B7B5CC9CCB9EB4679AB65
col34:   CA87BA5659BA8A8B9B8CAB9B98BB8DCCBC8DBC89ABCDBCBA799A858ACE5A9CC9A7977CB6C7D76499
col35:   AD99D8B999DBA6897CB9BD5EDFB9FAD8EDCD9B99D8DAB9CCBDCBCDCDA9FD9ABAABCEC797C76B8978
col36:   6A89E9CAC99CCC88C9AB8989C9ABBD99CC9EABCBBB9ABBC9A8BA7BC9A867E459A6DE97BD8B67DD14
col37:   8C7B8CA7AAD75D8CCCDB8DABDCBABBCDCAEB7FBBECBC7889CDAD9DD9BAABCA7C9E9DB87A8BCBB8B8
col38:   78BBD74CBC9869EDBFAB9A7DBCAEDE9EEBEBCCDACBCDBEACFB8BDBCC967DC9BADEAA9AC599DADAA5
col39:   A9B98ADA889ABC7B9C78ABDDBBDAFABBE8EDBCACCBC58CBB9AAD9DACB7E95C6BAC7796A7CB987C77
col40:   CB69C9AE9BAABCDB89ACCCCD7C7BA9DDCD99B9CCCB9BBECDA8DA9ABADEFAEA777B89899DBE79B368
col41:   B78B9BF9EC7D9BCDECFDC9ADCCCBCAFBE9B67CFDFFCABC9ECFDEDDC8DBBFECDCF9B8BABCEA7A9BC7
col42:   BB9A89B69BEBCDB9CEBCCAADAC8BA9D7CECBA97EAFBD5E6AB9ED8CAD8CBE9BCC8C8E6B7C7B3CBB66
col43:   AB6CC98ECEADCBC9DBEBFFFCFFCDCC9E99EEDCBEFBCD9ED7DFF9ECBDC8BCCAE6EBACCCAA8799DBF5
col44:   BA9B6CDBAAC9E9ABBB9BECBACAEBCACFFBAFD9EEBAEEBEADBD9FFAEACDDE6AC8CC89C98999B8B7C9
col45:   8CDDB89AE6DACBC99D7CEECCBCDBABABDDA9CACDA9AEBE9FD9F9A7CCCADEECDBC98D7DC66B9AAA55
col46:   89AC7AC688ADCDAEDBACEA9BCFBA8AFAEBBBDDCDECACADAB9BBBEA9CAEECAD9AAB9A8D79ABA7B7B3
col47:   CF6ABBBF6D9AB9ABBBED8ECA9FFEDE9CCDFF9ECAFABBDCAFCADCD8ADABABABCC6A8CC7ABCECCF9A8
col48:   899AC99AC9AC9B8AACBCAAADDCB9EFEFDFD9DAFCB79EDDDB7FBCC69FFFBFB96B9EAC78A768A987A8
col49:   AAE6CBE9E7C7AF9B9C8BEDCCACDEA996D9EEFEDDDC8FEDCEBADDB9EDDEAB9CF8B989FBAAAA99A9AC
col50:   BB9C989A8AABACABAC7BF8DBCBDCBBBB8ECECDAE9AABBFCBE9E9DBBDFBBCCDBBABBBA97B998C8BAB
col51:   B6A757999C6ABBBABA78C97999BCD7B79CABEACBCC8A88BD9D9FD89F9A8C65B7759AA8758788A282
ROC:     BPix_BmI_SEC1_LYR4_LDR4F_MOD4_ROC7
col00:   615185269645313526948747294A337136577BA773467395636838A7249A51A49678F7A444544449
col01:   5657D357478797B9A844B8873A7B84ABAAB7C6AB6499998D66B64C8AA7795884B5796AD87A369766
col02:   55468482D73378574667972669A8568AC5877889A657C25528467184A7885248831B77B4B9476255
col03:   3552697B56335675A575A864A6BDBA735A6991B8B9AC795878568A7984B847B2F5CAAAA5B6455168
col04:   366A87623937897CA7936C42751AC935AAA9B492D68547B668785895681995923398968789875851
col05:   54664386523264C569A788344699BBA83257CCA9D897656B5B99A8A83598978746F67D996B843925
col06:   6273A9341553557284548677A375B518976A8859CBA9398A83BB85AC59962776D588996778B96478
col07:   75895997BB8AA58859E9555289BB998C8A6C599BAA9958BD74568A66AB7A99A8765896A76A3398A8
col08:   74757471A17396A2367A6B7975A98695487C5558788A8C57E48C67679986A49E9985687A68993867
col09:   64912878866868A778978ABAA54DA85A89DBC45C9B8ABA765AA9987C7677837776959A9ABAB6F8C4
col10:   952464674693557957C675785B777968CA5826B779899897948974288A6B87876BAB8B6C7B46B995
col11:   42659F44C886166766AB6A84976487694E97CBB4D6788A99A87AA5696AA8AAAD79CB5BB4567729DB
col12:   517A3854994857589776739583696767AA6D96998757A7C884A9B7578286B9795B54D5677A73D938
col13:   A3273847892D6AA88987595945B998B6595A7BB8B87A87CE94B77AACB9CBCC19AA54A68C85587BA9
col14:   2653765714B6714757555744BA3855889CB4A779F8B8B8AA99DAB974677A68559A668897899D29AC
col15:   63561669547B5A8A5899868992989378A9A9966798A2A43767A6A94597484D8996785A57829686A9
col16:   7466635569799AA888486186569794C4B87A286DA98BAB6AC98C76939897AA57C6CBCAB795978955
col17:   5A79462A8B8A2987763838969B8A69CADB9D47AA6697BA76ABA78BEA74D7B756BEA768CA7B5AA467
col18:   589769B37A8385C47A87788592B85775AA675AB886B266B96CB78899149AAA8A4B96C6B996CB68B3
col19:   49773788884886955A76AAB597796C6975D68CA97A77ACB8989788AC9A5889B778878A9966EAA897
col20:   7855365B7B6175A353856A5B7B69A974BA74A87A6D746FA6ACCA8885B9C877856BBAAB87975A6595
col21:   57B77A78989B5949B886B58468989B9696A77B8586AC548958695AC1BD8586B3B479984668CD5978
col22:   64864486167957769B856747C365AC68CA887A87B8798C872AA576BA89B699B7918A8A7BD7BADB85
col23:   693878926523667A157839556A3DA87569786AA7BC3BAA85BD29E98D8CC89D5B88AA9285B7887697
col24:   932448558685695974C8868A8196B96A6D8B5887954597B99D894AB9594B679A7A6AF48A4AA9A48A
col25:   879468396AB9966377264958849679A6B96BB8AA876B8B5B868A8697D95BC86BCDAC787B7769B498
col26:   4169778885B586838A4E846BC597C68BAD6BCAFBCD67B76AAA98B5989BDB7A9689BBCEC7D9B9978B
col27:   3566A8556B6966577A94549A67A774788A7BD2988997B6B87CBB77ABA77C6969A8C96AADD5ADBDAB
col28:   529794982779C58D8C7D9AA6FCB7D6DE9BAA78C9CABBB9CB8A15B7B68BBC79DB99B698BDFB9CCDA8
col29:   7A458AAA6DB468A98E9BC77B89FADADDE875E98AA9CC7AEA75DBE9E9ABC5B9C9EADAB9B6B5ACD835
col30:   54A5575B65C92B58897B9BBC9CACCAC9DACC98DFBDA8959BB5C75AC99DA99BB99DC9B9B787B58B8A
col31:   9AAA9A8689B37ABB5A9A8A9ADDCD9ABBCA7C6BB8BBACDDE8CDD89D8ABA995BCD3B9EBEEB778BE9D9
col32:   B559AAA458BAC699979D787BBC8BACBCBADBEB8B97C6BEB8C58A7AAD4D8CAA8F66BBC7DAE99CE948
col33:   8B67744A6ADB669A968DE8C95B5BB9ACA8FCA9F99BBBFBBA9B68998DAA97BDB9BDCA99CACC79DAC9
col34:   852766B679B3A69B8B568F499E9CA8C5BAB7BBA9D6FBDCCCA97E8ACCAB9BACCADBABDB5F8CBC8EBC
col35:   B736AAA6BC99B947AE9E9CADBE8FEADAAD78BDAAD7DAEFA99D9ACCABB89EC989EEBB9F9B9AEAAFB5
col36:   9276557856C7BABC88C8AABCBAAD86CA989CEDDB8DC8C8AC8FAB9A9D66CCDE99BAB79ADCAC5889B8
col37:   7699C7594B9BCD68889EBBE989CC8EA7DB8EEBBDAAAABFAEFEEAEFCBDB99B9AEDA8BCA96A99CFBEB
col38:   88AC9BA797B956BAB79C9CA678BC76CDFD7CFBBAC9CBD9DCEAAABB6CE9DBCFCEAACBFEBBB877995A
col39:   8AA997576B9BDB886CACECDD96872AABBEBBBA979CEC7CE8EBBFB87EACCF99EEBA7DFBA9A9ABFEC6
col40:   929719CA3A79CB5A85B97687CDB9AB897C59EEFC87A9FCDDBBAEB9CDBABBA9FEBDBAF8B8A9579F94
col41:   8AA7D686A7B3A975ABAFA97BCDCABBE6ACBBFDDBABB8CC5A89AADFEBADC9ADDDCF97C89CC9E9EAEA
col42:   B589B78B8E9795D98CDDDA976AA9AA89A9EAECBBAAF77C7DFBDBF9AADEEFC8C7869ADA9F9DB8CED8
col43:   4697BAF9DAE9BA5D9AA98CCC8B989DC8E78BBBDDFBCFBBBEFBDECACCCDEBADF9CDEF9BCB9EFDBD88
col44:   8156AAC9CCB78BCAEC8F9CEBABC5AAF98ACBCB69AEB8BDEEABFCCE8CDBBBCADACFFDBEA7F8CEFCCD
col45:   59A86E8F2BCA819E8A5EF89C5AFD97A7BD8FCB9C78FCEADCCEDDFECAEFDDCFA9ADDC9DE8CECD9AB9
col46:   6588768ADB78FB86BD7DA6CBDE76CEA8FB9CAEBABCECF8ABBEBCDBCBBEAFCB9CB99FED9BB7D98AA9
col47:   9CAD77789DCD9A7C8DCBDBA8DFBBB9CB97EAEDF9C9B9DB8FBFEAEBABDEACCEDBDECFEAE8AC8C8E95
col48:   96A99C89B68BA9B8C8798B6AFAEDFAFCAFCBCADCAEADBC6CBD9AEBBDFFF9DDFBEDAAEADACB8698D5
col49:   C67BCB9AA5A8B6A9D9BBBA8FCBACADBAD8AABDDEEFBDABDDAECCFCBBBAEC9E9DCBC8DCBABFCEEC7D
col50:   A75AD79DB9A9E87CACADDA9BCEAACCDFDCCA9ABECFEAC8BACBEEDDDAEBB9BEBDBDA99DFBCBBBA99A
col51:   5649387A54B823977859A8D6A6B8775A5B9ABBBC8FEAB8CBC8F98666CBBBBFD9BA9CAAEAA8A98F84
ROC:     BPix_BmI_SEC1_LYR4_LDR4F_MOD4_ROC8
col00:   F4443515365662666755547657144657685A9479365573678875878A648235455634353669775341
col01:   23486578A598889858B9478565846658795574678A57888869874676A8A5B9758385665813468746
col02:   4469569761565482687826758799A6699777797A6456A846A57749789473B4B87A64868553465345
col03:   863948BA8668678539755577665676477C7A7884447B8A76D668989718B699A826666B98657467A4
col04:   25332866247576754572774A575595B8874585AA8D4948B9899776A768B547964265666625733565
col05:   73469193566867658569A875957A6487887499449A668B89A55566897678B74687464857A5164543
col06:   5867556875946267746587887A777987998A95A879854967A8B5655555668A561576756456555543
col07:   496726677698625899667493676898DA95998A69A6B3958735974555A676C67786379A486C389573
col08:   827674643653474663867662958698682A86B794675A595775747995756885136762954865625585
col09:   766487885586877868956467BA577A778B659B686795998A6786967758635879889668378A856463
col10:   78488565941478A594856496428797AA89B69B5CAA7B898767A8766968A78C653577658357764224
col11:   4487357649967888296A48874855778569958967296A748786886678878575967838535794661845
col12:   2564843467648A498878863789868AB79946478665A5584759795977598767447687236645497264
col13:   87674548177857A889983857668B775D465C997768789A885A68A9B7967769794456766435368883
col14:   5546754472185578384475A884B89552857767A9498A8477A672578825657999C795886536675B39
col15:   72347587663357747635A991963BC88A766C68A78B639789877745789A86B98495756BA7A5667446
col16:   95886793A664619364463588848E88A78968598695457977979979686A9959676474563747442686
col17:   4673647365557575745725644844647948885785898689575BC58A558786359774257666A5644353
col18:   835525482669A17656754A9868956C8697A883538A7554988987569A6A7A58947788973781243575
col19:   6A369324455824874875446465A7A746A7766746B5775768A67A7598BBB3795485547516657A5851
col20:   585357544B3725436A873A47855A57759A97A75879A9989562576A5735947A666434168365589744
col21:   653868937683B232796659357667895899989984878AB75468B665B85B69A5865899954787593756
col22:   693463178629745626A728355B947867A799376867A5898673688758857698996631547558155147
col23:   56335225458786A4736B765776A768898B69866464498695888776658952289355A8953664796853
col24:   546658758357484A396587836548648675546858744788778574B38A775B37665825553354646471
col25:   3596345595556BA6DA9587A8B873A78A889759B98897798969667987865549B655A7475244327791
col26:   B7732925894767595747778875A7A6679A68459898748A68688876484995787753638C5899816346
col27:   3972887625697684A7A95759866B799779996C5B7BA69988599777589742786BB568785896677865
col28:   5459363423557837757A6A66784A3A5A78499888C68997B7879A6A2677B789876B79596858786757
col29:   79979A9688947565DBA48766A6A7677A986889AC9B489996B666A99696BB8784864A249959753444
col30:   77879875A3A988A666AC68B799A8986A99677A958885971B897A68798AB699767A7656958A576522
col31:   6797456A6948A59655BCC89AA7B8A58A967898B7AC694AAA9AB898876B8B3A87A576485385743677
col32:   564653697785979898987B88A98A68898988B87859896A9655B978676758B6989458877666866483
col33:   9BA564867A887A5979988868986877A7B88A696C9CC958AD897B8A9B849696D576AB56785A775A68
col34:   79978446484C8773AA8B3A74DA56676A8A9768A9AA86B676A6878B54A9986A977778467794967546
col35:   536785996777C87786A668859478B8957AC884979C698899AA98AAC79A59AA6877897798B9A98647
col36:   5677764672874A39744957168BA98876A56888A7B8997797B88A78A77B99847C5797A86898876662
col37:   5B855776549B44897788985669597A84976875A88B7B999CA8888977465C89AB964B859A39667764
col38:   896687666665687C8B77B76948B88757CB878BBA89A976BAC976979288B8597877869A669AA64775
col39:   9675887B8A9A6A66B7499696569CAA7C99988747DA79B7A8AAA878998997669776A858579B167665
col40:   6A89596875578898AA8A9A78AABD555BC9A488B78AA8BB88B8869986967999A666A6A738848A6486
col41:   95656A657875969977B489685B7987B897BC267A694578867D9849969A97877467B9849876766377
col42:   84268768969AA79787A73BAAAA986AAB96A899A999B7769C6A7854B76A7648C878669984645A7553
col43:   7A77A78648658AA6A879B78A767688C79A79789996AA798979587CA9699699897679B7A889A76466
col44:   576576785819488776A9A98C6959BA97A769AA6685B96BAB88875B6B9568987785987B9AB7346386
col45:   885679779798A78B9A8B8567A6A9687799A989594ECC7989A8A9898BC8A899669675CAD886654858
col46:   67649653A9498789746875577796B98AA5BAB88BAAB99578978C9A9995C6687148355865738B93A7
col47:   97757A6766586766B5A897558A59974CB6B4B976669A9A697796B687A8879CA56A9592A868966885
col48:   875647991787583468A988AA9768676888A85549B8A848AB896688987825B878747686D684B77667
col49:   547569685969A9A6669764B8997A8477B78879D96A894B8AA48A99787484C9959678B96857365946
col50:   95883C871876874A8A78B76899867A7988BA746988B6889A9877879699BA4847739576C576652585
col51:   333735944468898744753583674373B47A6177975B5689884967785A7897366518968358A6793386
ROC:     BPix_BmI_SEC1_LYR4_LDR4F_MOD4_ROC9
col00:   494212526746A869886AA59C759578969179A556C555C88665B98C688958D9B5A795697B94678997
col01:   35847697678579796C8C8956679AA4B9CCC99A8BE8CC6CD9B855B95AA987799799BAA9C879B86488
col02:   65366A8439847576D988A8B587654ABBCCEDF9BAA9A85A7A8974AB9896C89BBD9C789A98694779D9
col03:   257468B66BA959555A92AA88B799B5AD9A5AC787ECA8B8BCB78D99679C85ABC6673CB9C98BE88587
col04:   C7879686987C9C838AA96577C6BE878792C88686993AC9BECA699C8AC8AA78479AC57978A8BA6AD1
col05:   3176458292876B89A68888C65A79A9B6BACACC95DAC98A8DC97A899BA792A9BAC4969ABDB2AA89AB
col06:   6556BC839798A938BA89A999895BDBEB63B7A77B8EA93BC56779A8BA8A8B9CA9A6C67A7997A68179
col07:   541A5B57887877899B48438A5B898A8BDCFDA9DACBA8D5A6BBABC796BAAD76BD97BAA99B7C89DD6A
col08:   4B9455796985A6992755887AAA97959665BBA89E1884A289678755B969BBB88B5BB68B8787A98B67
col09:   A5867A89669A589B7777CA69A6B8AA3DBC7C9A539984C899D9BF67A9CDBEBDA9D8CAB7D99BB79AD5
col10:   7632196999C43796578848997AAA38A8AB86CA77867D6AA5C9856CB969BA9846597A93C8BAB98E99
col11:   6773AC26247597A9788A735DA9AC9E866A788768BC7ACFDAB75899B9CCC9B8BA7CBB58B878B669A4
col12:   66A7573499968798A86C8A956878A8EBC898AE8797ABCA8A9AC4BBB8BA969A96BA96A88B987C57E3
col13:   31493B6569B7A95476684A66999AF8834BB8EAA979D498A498998AB5BDADBCBADB56787DFA66BBB8
col14:   257768A63B7786AB859797A9A988589DA493A6A899C8B79CB9B8BC799A869665376894BAA89A6B74
col15:   695884B75C8A999796466F6B79869B9C7ED7BDB4AC8969BA9AA87B9C76BB94C9A6868ABD6B997EE7
col16:   45B3A8B78387A589DA6B9A8A92A9C82788D949C9A8D988A79A49A6A76F6A878F5857767AB9BC5AB9
col17:   3585639A6588968A999884983784DDA95A6C7787686AE9BC8897B6A76A9AB7B73476E16AA57894A8
col18:   667B57977B9A53A7C5885A868E76A78865499988B689C98A6CA755C8C6BBA94749D88CA7DA6AB965
col19:   71628636A149847C788659A78A9CCBE6FBAAAA6C998CB8E7A8C69A8B77ADBA9797A69B98A7DAB99B
col20:   48942A7835B63666875A993989896476A5C8A9CC77A698979888B4C7877C788B879A855784A7A8A9
col21:   5C59977688A89A954554E896DDA974B8C7B79BC9EE7987878BBA97A79BDCB8B8A589B89ADDBA6796
col22:   5555985973746489799799B8A9C88A86876A7A9786AAB77A397898D9CA996DB897A9A975DBB9BCB9
col23:   9719764534A76C96183845672B38D98998A9678C779C8B53B67894D4A8E858778B79A988A7868879
col24:   26292571A9764C8796898567F79D98A9799A8979B3B3CB8A68999F9997AA87AC786AB8B976B26A65
col25:   9B876695367768838888B84789C6B8E8896657D87A88BAC8EAAB9998B54886A8535798AAACBDA9CB
col26:   7778A73883998A9A788AD4CB79A89A59F79BBC698899A8AB9AAF6BCC9B575BCAD5B89BD495ABA7B9
col27:   87527675665559959A6A7B9EB687D84F858B9CD89A8CB9EA8BBADDAB78BA9C8DD9AA96D9B4755BB5
col28:   A478A8736C977C88796CB99D27C6A86C6A68BA9AFBB6496AB88A9B7A9988CA87C977C9CAC87C6A86
col29:   567A796775ADCC9579B7A9CAA5AA687BC97EC99A67F7BD7CB5D96979CBAB98CCEF89D9898D9B9694
col30:   6573878988756B788DAEBE88AB8ADA97BC5B6CB88AA9BD8BC3BBA8897AB9C99C7D69ABCA4698B7AB
col31:   86A3958AA675DA49C9ACCEAB7D79B79EB7AE9C89DBC98CB98DEA98B759D7CACBB9373BD8AFCAAD97
col32:   94967866AA99E87796EA856B9BB8677CC6BB9AD8BBB6CA9AACCABA8F8D58A8DCCB6AB57A8B86F7B8
col33:   96D978784879999A98B999A6F9ABD9AA8FADC8D9CE96CAACD8AEACD8E7B7B9A8A8BC57F9CBBC9BB8
col34:   6A9BF9A8A8A98B896996A77DA69EAAAD97ABAB8BA6CAB78CA57CC7DC6B69F8B9B98D9899ADCAC9A9
col35:   6A692789886B99BB888648BA8BA958A8EBDC98B9AADABB786CB79C7AA9C9C4A5C9D986599CA6D6E6
col36:   56688797CBA428BB7C7A99A7BC98D8CBA9E8CAD7AE8BC95C6888C9C96BCA98A9AADBF7588A8AB8B7
col37:   68588888B785C9DC99EBAA8CB9CCDBFCC99BB8AAEFACEC8CA97EC9CCA6CA8AABE9AA6BCB999BA889
col38:   77819A948696C9AABDAABDA8D79DCBAAACCDDBBD9FA98BECBA9BA9E9F98C7BA9A6989998B9A7FBB9
col39:   A6A886ABCBAC89BBAAFB8AB9989CCB66EDC3ABDDC8B97B8DD6AEC9BFBE599ABA969ABA8ADA6A99B7
col40:   B8BB9B7C99BB66E7BBA7998CA9E88B7EAA9DCA9ACB7D9C38EC8DEBCB7C9C888B9BBB8AA84AABDA8B
col41:   86859629969CBBA7C795AA98B86D8B9AAEDBECB9BD79E89C8CA99AC8F9D99A9DF7C8EC5AAA98BF69
col42:   777BABC9729B6397DE78C8AB993B9AB877B786BAA8C8B8EB9ABCBCBBACAEBBB9BADDAB8AA799F8AA
col43:   7B7B8AA97889BB95F8ADE8A959EFDA8B8899CCEB7A9999BD9CBAB6BAC9FBE8979CCCCEBCA8BB9AA8
col44:   797CACC77BB9CB9A986BA9877CADAD9CB9CCAA67ACC6A9CBCCBECB9FEB978CADBEC78BD78E97CAE8
col45:   8A8B77857A5999BCBB885986C9A8A6CDE97B9B998A6DA9ABCAD7A87983BAD9B7DD9998BCA9B7BF7C
col46:   76786BA895DB9A8BCD98C8B76BBAAC9DCCC8CEB7BE6A8BA6C9596D98B7AAB676699CC8B94A9A7989
col47:   55B8A87A36987BA85779DC766BAEBFE8C87BDEACCA7EA9AB9DA6CBAB899A6D89AE8ABF9898D9BBB9
col48:   9979988927A7CC47B8A89AA68FAB8A9AACD9CB9AABA99BAAB8B8AC7A7E9FB7B8CB68A8CAAA9AA877
col49:   6798B84999849D65688BDAB556ACACDDFDB7ADFABB88A9A799AA9BAAB6DB86A99B986C7A7C99ECBA
col50:   758899B6B9AB86B7ABB9B6896CBABD7A98AB96A9D8CFAE78A9BADC9CAB8BAD868AA6B7BDB6CADAA9
col51:   6914B8C898C4447A75996A7535599856A8DC559AC66DABC7AAD69C52C27447A6474683688A9C5967
ROC:     BPix_BmI_SEC1_LYR4_LDR4F_MOD4_ROC10
col00:   8757465D7853355ABA98654946A9669A387979BD6968AC768A874B8A987679D786957838B8785695
col01:   8935656784A75AC7B98859869A69788878D47ACB88BE978B5C6B6AAABA98D977A968CD22B68A2735
col02:   75774476744985616B8A597A6A77A976879A789A8BA8B9B567BC655686AA5A5B999B79A576955979
col03:   8A45765B998455B795A736A69A865BCBA9899D7BA656B7989B85797BBBBB8B977914798586673436
col04:   348194A79B6567744AA39C8A78AA888B49AA9B88B6CA889969B77A8578BA7787B7A68A773BA87875
col05:   9828889976A5666A5654B779974776AABAA8A89589B5BB677BCB75696C669985974789B57386B899
col06:   7457B5645714469767868A675A9A8CBA8CD887987C9884887C6AA78A7CA989EA82CA898738B66824
col07:   99584559A949A79989896B96B999AA7B7798B37A7A99B966CF6B9B59C7767C849B968BA748485479
col08:   9C996643A9779567768866377597796866B699A74A678BB976A788B8A876A974554779754776AA97
col09:   E7C949A6636966755898968857995BB6CDABCDBBE886CA9E7A9B7AA9BB879AAA9AA8A775B79967A6
col10:   7445293468588978977978888D957938848B8D9878B8DB995AB98B77A698A97A9A35885755A96746
col11:   8B989C68949756C9A9447886A796567A6B57C9A9BD688A82D956AA77585B7479A866745393658892
col12:   43876A66897486DB99A87AB6A889B898A79B77A997A8D69A59A989D67A889DB8898A795554537583
col13:   6798248856656B6698A589A869A996A9CA7AABB4AA9B958A4D8A8B99999C89A575947AA9375726AA
col14:   438878B7A7AA7A6776A47768696A557787969A66C6897589BC59886A7B88989776A899767A6568A7
col15:   5865534559677A89678899777999CA79BD7ACBA977B98AB8C69D887CA9D8798C78785B9B58669885
col16:   9A847A9866688378A997398896878BB99A9B799779CBB98886C4A6779699618A883775777C587793
col17:   27639775A68877688A9399B85888898C8CA978CB59AB68C978A696769B66996A686578458914B756
col18:   A72A6857189567A65A68BBA99A87B9CBBA798A8CB89B8B83A7BB87979C84679A9795836BCA976465
col19:   97968899698A76479A877793A8C9989B5A8DC777A8B8349C368D98787997799989B797568B6A8964
col20:   363837363786564866ABB4968A877997BAD57B74A7A2AAA9B556674A9856A99877A5852657A55755
col21:   57878A58597699849A789AA9B68A9877AB989B979A987A9795A894B999BC6BA73A8A75784986A555
col22:   8894A3454A3668A8A8559766D677A8D6A869A76549C9A9786849974866B679939955674A59249363
col23:   6677976681876287A83983A79576A98CB599B488A7AAE996AA779985B8B4569976A4C86659866734
col24:   717777775649563B6854AC78A88CC7A96959ABBAA6687A6778756A5BA94368885AB7897688365865
col25:   A3599B9ABC87698A9C75899639BAC8CB978ACA687D88A7B78CBAA968AA7979784367A8985594A66A
col26:   937A796895775CCAA48B99A98A89BAABB498AB7A88DAA597B8AAAC9998BC66D9878C7895D789689B
col27:   9D977B85486ABB6D888AA979AA67785B8977B9AB98BAA7DC78BE8BCCCAADB7C66CA669A9A8785885
col28:   475A6A889A9A9684AAA5768896B776A8BBAEAAE9AB98A7898C8A7A8EB7A99CCC974A867B76A954A8
col29:   46867788A98867998A989B9C996BABCA6BC7BE9A8C9B89BAB7EB9B7CBA698B6EAB7787BB57C8A976
col30:   A886A7BAA97977885977BAA9C667DBA7ECAA899ACB89AC999B8C898D9DA86C8675B5B885886A88A9
col31:   AA998B4898879AA7DAC989899BB7CCCACFC4BE68DDAAC8ABD99EAA8C8885A8BB9A98B9C9977B8689
col32:   EA999A8B8BB688D7C6B89978A997BDAA6AC7AA8A98B9AC897BB87B8A79B9B8A7CA7A9979BA736754
col33:   8747B8A8A7CAC79ABBB97E77CAC8AB7C9F87DBAB8887ABDCBBF8CB99DB7A9AC9CA9674AA97B99997
col34:   B888ACAB96F89999768EC669498D589AAAAA8BB85ABBB99BE786A79EA7CA8B6776D8A74876755686
col35:   9AA6BB7799969B9B99DBC5CCAD8ACA94BB8A9C8D7CEB89C9DDCAD7985889AF6897CA48978AAAA599
col36:   7A6767ACABC96C59BB79BBAEBDC7D8BDAA9CB8C8B9C8DE9B587AD89AC8C6DCA89985C7976877A43A
col37:   88B8B8C99C8FBA9C8BFDFAEFB979AC98BBBAE9AABA76AABDBD7DBBAAAAB999978A49C8A7AE79A835
col38:   A96D9AAAB77E9B9684CBACA67898DCBAAB9AE6FBAACE9A98ADA9DAA57CC98A3AB89886C769CC4487
col39:   98B798DACAB4AC8D88FB89A6A998BA9AFDD3B9AEC99BBA988A9AA9B789DBA8B88DB88D96CB745BB9
col40:   CC88888769898AAA99BBC8AABB8966C6BD98B9DA9BABCD7ABCD9A888BDB9C68BDAA879787A87A766
col41:   88A9787ADA9D6B6B588AA67CCA6BA8CC7EDBAFC8BDAEEDB9BB9EB886E98AD78CBBC7CA98C7CA3886
col42:   A5758769A988ADA8DAEB9AAA8B99BBFBB896ACAFB9C9D586D9CACCC8A8FA9AC78C9AD89699817B97
col43:   E8BCC68999DB86A8CB3CD6BCAAAAFDEA87BFB7AD9A9BCAA96C9BAC8EFDA8B8A9C9D9698B9799D8AA
col44:   899C78CA8A89C8ACDC569CBBB9BCDCACDA78A9A9C98DADABADCB98AAAB687B6E55A2B5DD77D88BA9
col45:   8BADBCA8779B9B98C9ECB8896AB88ADDCACD6CBA5BACAAC98BDCA9BCE9D8A9B7AA8A9BA95B99DBA4
col46:   67A6AA48977CA8AC55AA9994AC67EAA9888BBBB997B5BEBAB9BBB79A8A9889A3A8BC47A9BB5BBAB5
col47:   6C79A699AB88689AAB698AABB9AACF88BFBC978B9F99DB86CD9AECB899CB89C6AA9888AA7BAD9C6B
col48:   884CA769697797998B9BA9A7CA896ACD4C87EA98A96C8D8DB56BA777CCA7BA35F7ABAC89B5B7778A
col49:   F84B898C599A87AC9997A87AB78A99BBAB8BF9CBCB9C9F95AA56AD98CC8AE8B87C9D7B795985E944
col50:   568B9C9779A8A9B87D979BBA58B7899AB58B8EA699CC89AAD9A997C8BCCAB6A9AB67A88A79CAA8B6
col51:   85413A59B6487895778689B89576BB8ACAB66A999857889C786A9626AA6B6936A8A47B5355C78794
ROC:     BPix_BmI_SEC1_LYR4_LDR4F_MOD4_ROC11
col00:   C4C65638BB54C965165A7AAC785BD96C555AC6B6D9947B58789452A68667A9BA9769559856B8A665
col01:   7989B787AF69989C98B5B78BB8BAC977C7BBF7AADA8DC9AA9D7A99774885A499B498894599A997D2
col02:   96778A96AA79967459C18BBA9B9D588D6A396B74BB95879987878D755647DA7CBA49659635C77869
col03:   8B744A76445A99875679B6CA6A58ACA94B895A47CAD989AADCBA6AA7B8BA98B89A5949BBC9877C78
col04:   7778ABA8A75AA965C876AA86898DB5E378AD9BD857C92A6769668996AA79A7B98A68593A6A968988
col05:   666354BA9CC8B999C868C9A8A9878698667A7A8ADDABB88CA698CB6CA98BB8877D8B94C85899C699
col06:   9A89398286E98C989C89ED6B88ACACE9994A99A89C4789AB865BBB788B87948ECD9B6B9888AB956A
col07:   BACAA99588CA65A776BA7689B3A5ACAAAB6CABA9C76A6D786CCB9A7684A78999A6CAC77D7A95C6AB
col08:   9B56A47998B95B875557BBA7CB77AA6868AAA9A5B4B9769AB65A6A417B9EA3748C7AA957C8AA82C6
col09:   ABA6A9C7A99634A7A78D8B76777AAA9798D89BAAB96C7A989AA77AA78978CB9A8986AABD9A9A64C6
col10:   8785577768B44887BE76A57A87A67AC976568A8AAA6786869A7A88C9B7C3AC9B9B6994CB93F7955B
col11:   526A4B58964B5B879BB4A9756DBA4B696A78B565B6DA866588A797AA88A768AA64E6876855958878
col12:   D54628764599C96779BC9967A9DC5D87677588B86656ABA485C9387D978AA6569F8877C9BBA886A5
col13:   789AABAAA97557A958A6A688B8873A868B56A9C74CAA8588977BB9AC9795586AA9C757B9A696559A
col14:   54A59748795496A597A7DA9A479A683B85B78BBABAAAEB9A459E3A989BA587C8A654674B689784AB
col15:   74764448B8A68A88CA9A788699CDABAD87889C8778A9A4CAD6C9AEA887787BB865AAD58B857A6764
col16:   8154998647B9A39CAC768C79A755799D898A9BA6887B67885779B9B6A79DFC67B9C869955597A787
col17:   5289A8B3A654665AA767658A6678CA56C6AB7A9888A9CA72BBB8B75597896C98A948B989A9A7A79A
col18:   4668B7498AB9A276599A97A886766767A7CB469899C8A8E99C9798A798BB89982A7C6972B4556B86
col19:   977BD779B9677C688B96575A998A877B7DBCA9A8599A6894D98B89B87C4866898889BA999676A3A6
col20:   75A7A646799639B959669CB5B68C5B8BAB886C6B6CAB86852499AA895979A7CA48385B4A847A8A96
col21:   6A96958876B959BA784783AA957B78697C7B7699BBA5AABCA967948B79AE6E68CA8896AB99B89389
col22:   6986368677874A8775BB8498998A998992A7A8545AD79A98B8678D58CA548B78877D4AC6B89AB289
col23:   595773A8A478A6482551676889A6D8898A8A4C86BA8A6A67694758D6AA6DA277A95B6EF85785AB39
col24:   6A67869926CA726758D9A9A78BB897A7879FA2678867ADBA7386C8ABC874BB37A9CAC9C697983766
col25:   6284B97A935757926646ACB88A47CAA5AB6AE6AD96BA99ABD99A89B6D898A6895B9B88A499C786B5
col26:   87A778699DC785B5B5BD57AABAAA7DBA7BA7BAAB99B98C8A7A997B789A9977C89BA679B87C79AA78
col27:   4786A985978798AA7A6D8768C7AE9DB39FDB8178DB9889ABBCA98D73979C8BEB988BCB99A6989AE8
col28:   849477688C8788899B699A98ADAA8DAC7A99B79CCC778969A8AFAB87975AAAA997876BDA57755778
col29:   938747ABD67C9B8A9B8696999ACA88CFA98BFA968A88C8C97BC8BE9CACA6B7A8FD99B98A87B8C688
col30:   B879889BBBDA8CCA9777787B89A9AA7DDACA979659969B75B89BA9C9B9A79DAC985ACDD87C959BCA
col31:   7DBDA6CF98A6D77F8BE6EBCC5BABEAAFBCDC99BC9BAAB8AFBCD967CCBDCB8F4BCA8BB9ACCAA6C567
col32:   C9B773C7958D887A9799B7CBBF9C5CCE8A9CAE8998DAB899BA8ACC89698A78BBB99BBDBA9CA8A8A6
col33:   AA67999AA8BB89C5996BBDCB5B99A7EAA98869B9AAADB6777BD7EABCADB7A8AEBBC7AD7DBA9D89A6
col34:   97C8CB798BF7CC9D48BB9AB857A978AFCBC9C99E89AABDDAB87C9A9AF88CC99DBAADE84AA966C879
col35:   79679578AC9799C8EAAABA97BA8CD9979AAB56AEADCDC8D8AAC6EC8DAD9A8DC7A8A8DDDAB896DE78
col36:   C9867BB8CCA879BD66A8C8D9ABCFD8B9C7AA97A89D9AC8897CAAB7A967DA86A8ECA7AC6B999876EA
col37:   BA59B958BEDADEA9C8B9A8AA6CBDCABBCACDAC88C6AAD8AA6CABEDC6BAE7CAADD8D97BBB987A76AB
col38:   F8ABDAAAADCBCA77777CDADBECBC7ECEDBC9CBD5C6DEA77DAC8AC86DAAACFDCCFD89B8ADFD889E78
col39:   59BA99CA9A8B769AC7BBEDABAC989EF7A69DBACABE95CCBCACAAD9BDBBBB989A77F7759BB49BB897
col40:   C5E58BA8CD798CA7ABCBB7D798F7EDD85DDF8DDD9C99C8CCC8A2F6AB9DCFA76C6986CC8BA4BC89C5
col41:   B679BD79A6EDBAD984A7999ADDACA8FABDACEC98ECBAD8DBB999BA9CC76B6BAD88F695AAB6BA5B4D
col42:   AAEBDA8A87BB68787CDDBD98AB89AACEDC8A9C9BCEABDDBAB9BCE68BA9CA5AAA79AAB79C6C99A9B9
col43:   9A6478C87ABFAC9CA86A89C79AEE95CE8BCFABCBFABDDBABDDAC9A9898B8DBC7DCC3BABBA9AD79B9
col44:   D9A9A6C97B79ABCDC8AEB9A869FBF8AC778889ADDD6BD7D5DD89DE79CC79BDDD9F9AB5ECFA8D87EB
col45:   C8869AC8E9DBBBD5D6B8B8E9F7ACACA68CB9BE9AC8BBBA9D6BA9A9A99A9AD7FDA5CCEDDFF57A87BE
col46:   7E98B99CD99CA6B886B9BD8C7CCC5DBBD9D6ACF89BBD9C6CD96EAB77B9C9AAC99AC97F888E7C69B7
col47:   D797D8D9BBBD7BBF7BABACCDC9EA99AA9EECDCC9ADC8C99DCA6A9E7CCFA97CADBCC9C9ADBC9ADB9B
col48:   C6BAA69BB5C78B8B89B97FB8DDC7F9BDB8FBABD9C89DBA5BC98CDCF9B6DBA7CB8BBCA77E9C88A7B5
col49:   64695974D8978B59CB7868CEAAB8DC579ACDBAD9CEC9CBACAEA9FAEC6ACD98A5A9B9C886F648A49B
col50:   A9EC88D8ACB79CABC97AB9DBBA88BACAAADAC94A89B8EEF9BEA899969BA96ABEADFABD66A88AB7E8
col51:   B289499B8AB599588A9A797A77EA6B9C7E87AAB9A4A6886989795B87A88655E5A56B5748A7B78982
ROC:     BPix_BmI_SEC1_LYR4_LDR4F_MOD4_ROC12
col00:   458A54576259476B4778889792A77B4988B89AA7B769C8B8546984A45757AC1965567AA974583743
col01:   A9A7566DDAA99497769959DDAA5A9A6AA8A99A8CA9B9C58B868756A9DC6A58869A9977956AA88658
col02:   66678796A39865A767269A6C6AA987C8A583C787354A68666CA2CB8B68A67A759899449686788555
col03:   A599675A999585AA98AD9ADFDAC8878CD9EC8CACA6BA9898B5B7D8BCCAB3A996A679638889896769
col04:   745757B9465583767DB9B57A898C88989A6AD8A867D7BB58A66899AA59FB7A7B8BA89B9C49578856
col05:   52467464679979C79A68A98A699B8967C7AEA8B969798A7B9A9C7546858765867968A824A8975A51
col06:   567987338B9B9A89B4BB899A7B977ACB8BB6399FA87B9C66C8773797C89996A86879EB958546B947
col07:   59747CA4A3A885777B66AC7C98ABCACCEAA7985EBBB5DA7798899989D988A1A7B58696C689968842
col08:   5876A7748396A755B98A859679655B8A68B9DA8937A8BC98A99787A4D993AA578C35833588672454
col09:   785AA9B7B252CA8C8968585C8A8898DD9DC876BCBC9C9B85A8BCAA989A9CA7B97979779AB9867779
col10:   76457634B957A98999B9C9B6AB85498666AB99C6A88B87D696BAAB4AA919B79B7A76795DA4754523
col11:   4248974A8B898B76898585975AAB889A796E9AAB9A9A7B6E87779E6B9A66477A8657747A76419562
col12:   655479A787498A78A79799AA6A6AA73F6B6BA7BA78A7997B8A997888647A7B6BB64969395A8A6596
col13:   76456995A3627A959B8A6DB7AD89789D9CB9BCA7698C9E988B78989BDA98CC977259986A69678C66
col14:   8886A7724A26564987694A8A859E676B478AB95A58CAAA96956C7B995CA7867A86B855B558785796
col15:   A57298A9B7A67C96774CB3A8AD898AA669A7A6A9AA99678B9C7BAA9B39CD7F939AA897C3975A5468
col16:   52A6255AB777446B496A888DBBB45A9B87AAB8AACB5988EA8988C687B8AC5AA9948679A87568D386
col17:   B771456A89576CB95986479C689759AB69A7B5C7A99998DB59CA6B796487A77B4A5A7A686A625874
col18:   8354665496563A5AB9C289B89873A769C8B99ACBBA9A7A98987AC74BAA8566968477666A46764587
col19:   6799776A99A7B69567A988DA7748B99C895AAA88CBA7EBAB87B68AACBA98A98C8D68A8C4B4626684
col20:   A875A45A55764959666A787BADB398BA877A78889978996B78598699D96DC89598666A798B369784
col21:   5A6896B6618776759689AAA6AAD67C6A6D9B994B6D9B77886C87C9D7965997B96887576977692789
col22:   45887598998699578656AA7787B7C9969686DC757AB7BA7776AA9CADC9959A856C6A75769A865681
col23:   5B56753757869A797886A55978397BBB989996BA999A9876A9A88AB9A9C8B985AA98AA5677765B85
col24:   66B66B739AA6A9848A5896D56BB4C99A889A8A6B8787C68A5CA7A874ABB9C89C68A8686896757617
col25:   666B779968A9686D698799979A9797BA9B6A6BA98DB98AB2A9D9A9B787897C78A79625A5AA976355
col26:   956695B78BAA997686B9BBDB7AB9A9EBB8E89BAABBA8A9A8AB8A9C8C8BAD987A87B688B4B8B84176
col27:   A75C977DE9D887CA8A88BC9AB8CCA8BBAB99ADA98BCBF9E679E9D79CAFB69AC89B5B868A8AA88A57
col28:   CA8A98599999C89BC79A98C99DBC9A6DB7DCDCD8FCBDBCABCD8CA8858CCAA6A88897967AA8C94598
col29:   8865A787874979BC98A87798DB289CACAABACCDBAAEAB7CC8B6DECB97E5B76D8BCB779999A667A95
col30:   988688699BC9AA895B88A86ADA7A98BA696E9AC7796BCB98AB7B99EBA9C9879D8A79799C9A83DB56
col31:   9A99CA8BAA9DB9B6AC77AEAAD87A9ACA7DAF7DACBAA67CC6D9BABB5ABBD9B9BB9A978BCAAD6C77A9
col32:   9799A9B9CA88BC4AE89E4DABA5BAD9DBBCC7CEA8C8DA8CAC988CCCCAABBBDA68A5975AA75ADC7DA7
col33:   96BBA799BB75ACBCDCAC9DB88C9AAB7CBC8AC8DEBC9E99CB5B7CAA8C9ECA88ABB899A9B47B79BA78
col34:   93AB876AB39A7CBBB888AB99677899CCBDBBE9987D96BB69D9EB9B9CCAD8EBA88C47BD4B859997B5
col35:   AA5A9A98AAA9A6F98BA89AEAB8CBFBCBBB8CBACECCAAD89BD9AC7A6E5D87CBA8B98D98ACB889397B
col36:   BABB6A37C8A9ABA8BCEABB8B7BACCBB9CCCCF7ACBECDC9CDBDCABFAB6C99A5E8CDBD8A8878A99C69
col37:   AA9C687A78EA98CA9ADB779BDCADBABDDA9BFB9BDCF83DE99B985E89BB8CBBEDAB6C9C89B398F6C9
col38:   CA5C6B9BDABDACB9CADABFCB68A88DA8BAA9FAAC8BC89CA8C7ABC7AB9EDCBAA7BD8BBD9BA8BA8B59
col39:   AB6AB797B68ABCD7EACAA9AABAB8BC7CCDCF9B7AAD9CAD7DCDC6B8DBB9EDABBACD76EC9BC76AA89C
col40:   C8C9BAAADC9BBCCB9CAC5EAB7BD8D8B99FDDDCA9C9C9DECCACACDCB97BE86C9DA59E8D874669A676
col41:   9B9B7A9D885D9C9AA596BFD7A88D88BDDC9BCBD8CCCAFAAEBEAFEC9EABBAEC99BAB8C8A6BC57786A
col42:   9DA86B95CCE98BBC9A9B8ABEBA7BACCDB867DC9CBAC9C6EAAB9CCEDAEBBAABB96BAA88B97867A8B4
col43:   BE79BAB79E6FBBCABACCBB698CCFEBCD8DBCEA6CF9BBEC9CC7AAFBBC8BAE9BDCCCAAFBB7C98B99B9
col44:   A8E98899C5A9CAB96BDCBBD6BCAABBBA8DB9C9DBAADABBAC9CA8DBAAC9BDBCDC7945789B696997A5
col45:   BE9AAA999DDB699CBA9DCB98DD9ABBADBCBEBBABCFACB8A8CAE9DD9BEBCCCDADEB5AAEEACA777A78
col46:   C7668A9B87677A997777EA87EEE98A9A99C9CAB9CA8DBCCBA9C8D9BBFB7B6BFBAB9A98A8B5B67A88
col47:   CACBD84B7EDA9E6A7BACB8A869C89D6FCCBBE8FBA89C9C8CAB99C8EFCCBA5CB89DEDBBA698889D65
col48:   888D788C9BAACA989B779B8D9FDBDBDEB9A9CFBCDBAEBCC8D5CDC66BA9CD9C7D9DC6A8A7ABA66985
col49:   78978B97665ACA7C4BBAEB899BAD58BB9EBBCC9A5F7EDDE9CA8E87C8BBEDFCB9BC79ABE6A8899B65
col50:   C6A8B56BABEC9EA7C97DB7DADE8BC8FB8BBEDDBDACDDA998E8EBCACBDC5DCD8AABE89BE978AA9B46
col51:   9668968A95848989C72536D8889659ABCCBA7B4AB8896AC859D98BD98E6AA9995998859A79644A45
ROC:     BPix_BmI_SEC1_LYR4_LDR4F_MOD4_ROC13
col00:   5A7A34A8A64753694596997958BE8D8A9AC8B951CD98C8BC96759BB98AB9BD756AB9BB896B978787
col01:   688566877C86854C8895969959ACEBDC9DB8DAECAAB9DA5CFDBB6CBFABDAC9AA876D78A869DB6A88
col02:   185556965866AAB98796F48B5D77BAD9556BD99AC79D998AA95E9E9698BBFC7A58D9EC9979BA856B
col03:   CA79978679969A978B798979A78C8ABADA8BCBBA6DCBABE8A9A79B9CAAC95EBCBA5CD9B97AEA788B
col04:   738BBB7B848C974CA98965CA7888C9D968976CAA8A9DCCF8ACA659CCCBCEBB98F87A7C78B38D98EB
col05:   92929589956795B9999777BAC497CC79767ABAA899B7CCCC9998ACCDAB6A99BE97D7ABE4D7A59BCB
col06:   D27AA675BBA49AB68887ABA2ABAD989C89DCCD9DB9B69CDB8D9AAD8BAA287BBEBAA7BCBA8AB6ADDA
col07:   6698776A7BAB35D3A9CAFBAA78DE5A79AABF87E8B96DB8C88BBBA79CBBADA79CCBAAC8ACABD6B97B
col08:   8558977574988734B9978A89A779C68AC678B9BAE8BA98DB8787BA6B6C5B8675A65987998AC7C977
col09:   A84877D5588B6BBDAF58BC69676D78A86A8A6A7A6A6CFB8A9CDA9FC7C68C8D997CC783B779FBAEAE
col10:   767868498ABA7C887CA4A57ADA69C87B987BCAA9797CBDCBD9B6BA8FBCD6BA8B6A96BDA8C9A99867
col11:   7734B67649B6B45D96C7DCAB8EB87AB99BC94C6989CACA89859899BA7ABF7D7C788A78797A7C968A
col12:   7658784727AB95A76BDA8899C8676BDBB8A9899B67D9AACBE77CCDB7C698A9B77C889679E78BBB8A
col13:   94489954C566978E778B779B9F88C5A9BAB9AE8B98A799CADCDCACC8C98AACBDAE884A6A7A8999CC
col14:   685568734A768A591AB8AB868CAAA588A888A8899A8CBC988CB8978886A8B89BB85FCA99BA896A77
col15:   86A76958788A79988A7CA7CD7A87A98BA9C7ACBBA9A8985D9BBEDA9ABB9AD9CBA7B895A998998E87
col16:   3545588A887549868E8CCC477B88C787B7BBAB89B987DD7B6BB6E7A9BC8AD767D7A8C8AB7AB9A8AB
col17:   8436544248957F7AC7D7687A8BDA788AACDBBCDAB8789A9B9F9B97B98B589A2987B6C98C72AAB766
col18:   9519132464E99E57EA76A6D97C98D99B9BABDBDB98A7B5B8C98C89899AC7B645DB788A886A96C798
col19:   D5475393A8379B7A88589997AA97885C997A6FA96BB9B67897BABA74A86A89735B7B578A97CC78C7
col20:   63648289485784796448A857A989889B9888B69858C89777AA368CA969B9977A78CA88AC68BA48B4
col21:   59318BB97A6B76874DD8B88C99898699A79689C8BABA8B9DEAC4ACBBA9BEADB88C88E8C5BAACCD99
col22:   45747497979A9594D75B8B7AD97997C96B79AAD9BDB8D98D96868689A7AB5AC8489B6B85965A76D9
col23:   85346B897983973B8BA57AB9789B86858ABC65BB7868CB4697ABB57CD9B8BB889AC969BB8BACD88B
col24:   565B876675916966968676A77474795A667168CBCB8A994B89A7C96496A87C4A67BB96989C444AB5
col25:   29175458749AB9799B9A8CDF6CA98FCAD8A998CA78A67EB7D8BA8A498C4AA9989A69A877B6C9EC58
col26:   8289877986C3B97AB874C49A7997B9975B79DC9A8C9BA9998EB9B99ACD7A8CA98ACC88EA89879A77
col27:   C7979BBA976A69D969AA6BC547ABF99EECACFABCAA9C977766BBFCBBBB89C2B98CACBB967AA7FAAB
col28:   7A77858589C48D9A969B7ABB8BABB6B7CCDCA7DABDCADFE878ADBBCCBBB8ABD6C6DBAB88DB6B8A96
col29:   87799A86A657875987C7C89ACB998B7AF3E67BA9987665C99BCBCBBA8BC6AACABB59CCDFBBAC9995
col30:   677488A6999E2C199B49B597DD6ACB8CBDCB78CAB9C696CBBD7B7CDBBB89ACAC99CEBEDCC9B898CD
col31:   57498A69A69CEB8995EA9D988C8FAADBBA8AB9A4E68DECA979B6CEC9BB7AC7CADEDDAAA6ADDF999A
col32:   9A936BBA7897B8CAA9F8A9C7A4886A9DDD6CCAB5ABE9DCA97AEADADCBAFBE5DD9AB7CDBA789CDBE7
col33:   B86A9C877AA865B8F8ACBFB778A9C88DAADBBDECAFCCCCEAACAF8EAC9D5ACBD986FADECAB8CAAB99
col34:   A38A7A5AA8879D89C9E8BC87AAACABCBEFBD9C6ACAACCD78B888CBB9ABCAD8FC989AEA9DBBAA9ACF
col35:   B3888EA97C6D69AB87DD999AA9CFBC8BCDDDABBABDB7C8BBD87CA9B9FDACDB868EE8BED98ACBD9BA
col36:   8A6877CB8A88A6997A9789A9AE5FA6ADFBDE9ABABDEEC98BADC9BFB8B9EACA73EBBDB999ECBB7CAC
col37:   99665A69ABB89AABA9DCABBC6BABBACBCB89C9BDDCB7ABCDCF7CDABDA999ACDBA8BE88AA975CFD88
col38:   BB5A7F998BDCA66DA7B89D5CDE8BA9BAD9DBCAD9CCDCBBDCDBABDCCCBAAD9CBA7BDBACCDACBDDCAA
col39:   69786C9BAB989BA85A9CBCD7BBABAC9CBBDCCCA96AAAEB7ABAC9B8BBABBBABBDBFD89C8B79AADAFA
col40:   7458B4AD769A65ACABBF8E8B9CBADDC9EB8ABFB7F96ACB8E9BEABDDCBDF8CBE89EDEFAFBBEDCABFE
col41:   A66686D6BBC9886C9CC9FACBB7BB9DC4CD8A9A7DDDBBCDBCADCEDBA4A8BADCDA9DCEAAFBBACBEC99
col42:   6898888886BBB7A8CDA9A9B7B8CAD8BACE59BABC9BA9BBD69ACAC2A83ED8ABAAA998A8DCC8CAFBD7
col43:   928A99B487B8C7AACA8BBDCB7BAAFFCAECAEFA8C68BFD8A7DBBACCECDBECB79C6AC8CE4ADBFDD68A
col44:   847579E75BABBFABBDC95AB9ACC5BBCACC9BBEAECDFBB9AB8BABCDFBACEAEBDDCCBBFAFCFC9CBBAB
col45:   799738AABEC98869A98CA9ABEB7CCBCDDCBBABC9ABEB9B8FDBCCEDD9ACEDE6DBB9C9B9ECBCCAA6C5
col46:   98A69978D97D8E98FCD98A89787FBCAEBAE8EADBA7DDDE5B9CABCDACEDAB7CCBC7ADCA68CCAAA7EA
col47:   676AA7989A9AA79AA9BC9ABACE5C9AADCCF7B6ACACFBDD9DC8CCDDCACC9B7C66A997ECDBC78C96DD
col48:   77BA9BAA5B95676AAC68B7ABB9699C9CF9B7B8BCBABDACB8BCC9D86DA9BAAA7ADAD8ECEE599EDA8B
col49:   A788A7B6ACB398BAA7A9BD96A5A989A9E8CA6987FBCACB8176DAADDCBFDBFC9ADCC9ACB9BBABE9EC
col50:   78677B999C9ABCBCAABCDABB9D8F9B9FA8BB9A9EC7CFC5B7A7ADBAAFBFEECB8BEBDA9BCDE8C9BFAA
col51:   A6885178AA699AA88A57978988769B4A7996B6A779A8C96AB6B77C798898B8EB84988E86CBB66868
ROC:     BPix_BmI_SEC1_LYR4_LDR4F_MOD4_ROC14
col00:   4445465755367A5684668446661663958B86574A44297863375C8996784167685854555668366955
col01:   87558488658936568896779948A585397A76B435CCD6947589DB89A77834CA36775167A8B936A983
col02:   556449A764652A655A57C68987698797C923C5594687885316A6A587C77A84715A9776959897A673
col03:   5675653667B5886668586992C576A8CA576A9896A995979944597579AAB83592B59B865A8CB489B7
col04:   4769957A56487A8885897956687695936798D55A6B83DAA96786AA155AB5957875A8677784835738
col05:   4665245B754346B877B73195869857A895354978796896A8B894B95969A7B9A59876299C42786458
col06:   812934456279995A8786887986927C449958A5877A989864A3776967899679778B867A67977B7C75
col07:   64673663B97698AA7966786B866AADBC8E7854AAAAD9BAA7AB79479BC79699BCA4A9A9CA9BB77875
col08:   557287668686888665AB7A4527C69A94875AA9A59798389A8459659B899BB897668A6AA978979B52
col09:   68494294988A5434668746689798CD4B2D68A599847BABAA94A7D9776A9E7753DDC6D99798C98765
col10:   A5846488B6556B546A8C87AA7796DD688BA78A877888B567B89737B93D9A7678764A7B6988595699
col11:   33774B77346796846B577976A9B876AA99899798A899887AACBB5B8CC8ABA8A878C787788A79BA86
col12:   7955884695C3A8725364AB64653456589CB69578B57547959872A757C795C8A8A6A7667B59477487
col13:   9A7532868458A98665A76AB974BBE8C7A798966AA65979FA9A8775ABEC659CBAC5797AC956578976
col14:   B89A4838675659663B67A9B95799876B97A697A877A85C76B63AA57C8995A9B5A57A94A6B7AB899A
col15:   776A665669B6A587A59A775A7A8C89B767A69936687B6597C7CA697887985A8B5A6BA778837355C6
col16:   A676467579949B9B67A9AC798C9B6868BC929587A86B873876B86879B79836868EB9788C8B899A78
col17:   8276667A4756A3A15B8364A8DA57C77A96A6A6A6A5AA6799AA968BB6BCBC8BD7879A7BA789559789
col18:   45A88379728691767695976997854AAB7948666879A8786AA73994A998668957369AC788889A6355
col19:   76756978676875989D78A989AAB6C59899AAB9B6649AD6CBD8389A95A9A6B98A497B6AA669738AC4
col20:   265669682859774A67A7AA77B6B6689B9CC775A36DB78949898C896763C6565DB97699B7678864AA
col21:   94874684A7596753A8ABBB9A779BEADDA97999FA799799576A88C968B7A68387B6BA8496C19B67DC
col22:   677A77D361386596AA855A979978C64AD9A6756AA7A8BC7958AC86AAC8D92785A6868483989764A4
col23:   6358429795578967768967766775A8B7B6767C7AB7BA986A7FCB88AA78965B799B7A67979A997C98
col24:   9DA6977A766875846898AA47A9CC5E75797368868B98B74997BBC6AAEAA6BB6598E886E7B885B9A3
col25:   79867A2683B7CC899C799BA8B78AA9A4BD968DFADCB97B8689A7DB958C8B8AA6A96AA8CAB777A888
col26:   7C897DBA378A57DAA78A6DAA8EB9C979DB7ACEAAA4DF99BCDA68FC9ACAA8F79A599E6AAD8C88D669
col27:   76984B8279B25DA9A67A9C99A6698AC79779C6B8B596ACD756C8EA8469A8D88A98C95989898CABD9
col28:   82793877584A887B59A9CCD6A9A7B6ABDACA98ACCFC9AD9B68A9A9EB69EDFB7BCA9BAD77AFBC9A86
col29:   C79764A99AA758B76AA8789D77D9A9AABA8A99B7C3FAEBBB79AA9CBBCFAB9BCCB9DAB987CAA4D976
col30:   75C568A88B8994BCA8CCA9C9DBD8BAA8696D99FCA99A793ADB97BAAAC9BABD97AAA86C7A765864EB
col31:   89CA8AA7B7A867959DBEA68CCA7DEC8DDACBBA96FE7DAB8CC8CA9ABC9CAAC6CE9BB9CBCA8A96FAD7
col32:   59A99C8CD99B9A8DADCC5BAB7A9B6DDCAEADAEBCBCAD7CCA7C7CEABD8BCAD9E8ACCAADBAC99BCFAB
col33:   99B6759AAAB9848BC9D5CCEBF9BCAECBE8BBADADACBDDC899A77ABB9BAAC68BBCA8CB89DAB7EF8A7
col34:   77A4C8B8A8A7978B8AA96DB9784A8ABDCA8DAA869A5AFB6B87ACCBAFB99A89B9F9EA9CBC88CACBFA
col35:   9B76A77989A9CB98AA8AA9CD9DE8DADC95BBC8DC9B8DDC8D9CBB8B8ABCAA7BABA9DCA9BA9E8C9CBC
col36:   9588C569699AAA98B9F9DDA9DFC9DEDCED9AAE8BAAA8BA8DF6CBACB6EADDB9CA998BB9CD999A9A99
col37:   79C778B8CBA9A7A9BE69B8A78CBCB7CA99CC659E9BAEB88E89D9BA6EFA8EDCACCCB7FFABEBF88A8A
col38:   9977BAB578C5BAB6BBBA8CD4C6E68FE4CA6DCCE6CADA9CFBDBB9CB8D9BAEC8C8EDEDCBA64A9BDBB9
col39:   84A67B889CCAC789A8A88A98C58D68ACACEDDA7CDFABBBECA9CDF8BBAACC99DDBFF67ABAAB79EBBB
col40:   76A5CBC8AAC898C9A9CBC9A9CC9CCCABCF5EF9CACABBC9FB8ACECCA999FDDECCEBDA9DAADACDE9AB
col41:   BAA8DDBC5ACC8AC9CB9CAEEBCD7D9CAEC69FDBB9CB9B7EEFDDCAA9CA8D7C8BFEC6B8DCD7ED9FAA93
col42:   D858ACA99988C9BA8EBEA4FEED97DBCDF7D9BA7BC7DDDBDDBEBBC8FD8FBBB898ABAECDAC7DEBACC8
col43:   97B7BADFC999BCDBDACAACBB7AD7DDDD8D88CEEEBADABBBC9FAAB9EFCC69FACCDFAB8CDEDEABAABC
col44:   7677BAA7A9D6E9ACB7A8CB7DBEBA69B8EBCAFCAFAABFCA9A9BFBEC79EDECFBE7D9CBAFCEAAB9DCBB
col45:   A996D477AEDCB9B9FAB9ABCAC75EF99BCFB898ADB9B5DDEAB7DE8B9BE9BDF8AC8DE8CBB9ABEBBCB9
col46:   99D7A8BD85B9A8B9BCACCA866ABCBA9AEC9FC7D7DABADCBBCDCF8A99B79CCB9CA9CCFBBAA9C5BC9B
col47:   B68D76DC7AE99CC65AF8797BF9BBDDBCEB9BE778A9FEC78B68C9B97BBABDBB87AFEFEBDDFDBBACFB
col48:   A8C789A6C7EBB8BAC9BD97CCB79DE9CCADB8DEAC8BCE97CBAC9E79ACCB8A9AAAFDBB9A8DADCBBCA9
col49:   C699A9A8B99A9E8BC89ABA79ECAFC9DB7ACEFDB9DDFCDEFFBAD99BDD9CDABEF7FCFEE7DD87DCBAFD
col50:   B8A498CABBA7ADB6BCCBAAB89AABDFCADAD9FAAEFCEBFCB9AAD9FB9EDBBCE9CEBCFACAAEAFFCADE7
col51:   7C5675EA68B69899A79C8368A799B8999EDC9D6C7A9AACA8CA98BC88BACA76ADBAB8DBAFC8E79B87
ROC:     BPix_BmI_SEC1_LYR4_LDR4F_MOD4_ROC15
col00:   11656848741647423689448787A9776AA754D9567873465498187767754BA457637A4443358A4718
col01:   365594AD88446A96A69585949395A4759A67786B97972997E9AEB59694B5D6875591896887396694
col02:   4973943398685867538B84A585A59F58466969A4969667866A9E7986A95566986AA3658B68816382
col03:   84C58458674735BC775766C5B56785887BC89B5B94A8AAB4D4699EA9BD95697397CC737347768242
col04:   86347B976688B564865669C8AB8944989974B79C8A7AD995B877F795A9BA9C7A4C89B687AA847866
col05:   34868855698768A7A7CA798A678AC9B69ABD19867EC7A6697DAAA898A78B8577598868A897666639
col06:   651739B746267B56978A7665B799A7586AC9578A7C9BD88B85A85C4A97995B766476A666D455A9A9
col07:   576879648874D567B76779A6BAE8AAAC7B9B668D99A986A99B6BBB898964C5B687A9B6B874853676
col08:   4556489A654845852C9E768884A89BA79F9AB6C769A7C796A7AA65ADA7A5B87B4A47878DAA7A6666
col09:   4596979757BACB659596868867B8ADAC99A7A9A6C489559BA3EBB44B7A48A7B66875CC2892964975
col10:   678849745796535A899897AA5B9D55AAA6C8C9ABA686C96759886B89D6558A9999596AA9A3882B47
col11:   681A78319585686956877B61975988A857E7DBC79A98C7D9A834AB9AAA5ECA7A8AA865998E157493
col12:   957759487928769778A746859A8685C85989AB647857779A584BBAB28C5A64B35BB89787B8477241
col13:   296A5888B9689BA6A7B5AC9A7A48BCB97FA855AABCCAAA8FACB9AAA969679A977A777D59B8759374
col14:   7633A87A834B587357A9847678C5899976BEBA2CE8BC89AB8C997E8A7B89BD788A4897D9B778CB68
col15:   76576A856C49998A47BD8BC6BAB79C996C97C9BCBA7B879AAC96A9968ABA65BA74738D99A4279536
col16:   74577A9869A84A8488A65E9C999A79AAA6BC9847A8466779A4859B7E78479E965B76578858336A44
col17:   7568B85883C56676A685B8765A97C5C85877BB9ABA97DB6988AAC6C789C8DCB8B67A687C85A86985
col18:   83664C77684889B6B46B9987978578B8A58A996DD97987C499CA9BA88CA8C847586648C8A764434B
col19:   A5783977857CBB7AAC7963A7857BD8ECBD8A8BB97A7DA7996D7A89AAACA8A887A49C5D9468B889A9
col20:   66A91A656A49799888377E7B8A6A8B5C7DB78AC6B7A568A85AA598B9789E6A5838679B7839478B67
col21:   583B7D883866766957A5C977B6D7A36A997C35958A3DA89AABA99BB8FABB4A75A67667D66598A83A
col22:   5553996E665842569A666899B9BA79BABD8C7989ADAA68BAB66D4C9998785796956685568C67A745
col23:   5734C695C979B98BA7553ADC6CB9C7777876B546788C99C58B8A9DABB89B98B9A7757A4764365448
col24:   66172983585B45786458ACAB786576896A9C768DD99C79D79B66A89A7B99A9A9ADA7997A9A766775
col25:   B8287D77AAAAA69AA7986B78CBABAB6DA69ABA6E993796C6A89A99ABA98979CAAE975542565BA8A8
col26:   6886A979DBA989889998898B9ACB8B5A4AA7BA6CBA9BCCB78DB5BCC9F7BB6B5DE989B8675B8C67C5
col27:   6636898888A7AA9A7CF8C8FA7CA77DAD6C9CC7A8D9E858B6ADCBA8DAACACABAB937B6899C7583878
col28:   9E9C7B89B3A9788A7CBD8A89A9767A988E77ABA9CB78AA8BDEEBBD9CBCAB86B9ACA89AAA6859C9C6
col29:   856A98A88BB66B6CAB9DAC69CBCCB9AACD88F89BAD4F97D878FDBAECABB8B8BF8BBA889679997A73
col30:   A68733CD68A76799AA9BC6886B89DB85BDA997B9688BBA9798CFC8AC9FACBA9869C979CA7B46B879
col31:   9B46A9B9AE7C9978BC8EDE6F9BCACFA89CA9BDAD6DAACAB7D8CB999F9EFCD9CBADAAD98FA747AA98
col32:   B58851976ADB9AB9F9E8ACCDB7779A9A86DAEFAC99CDBA9D998C86CFD9B87D8E6A989BFCB78DA958
col33:   9C795CBB7A7895DB7BB8E6B9BBFBA8BB989CBCAEAA8AEAADAD8AD9B96C997DFDA589DBB9A7AB75A6
col34:   A787CAA7D78A6A9A6A9DABDC887BD9BDABCACDFF89DABCBBBDEB8CCE9C8DBF57CC889A6B78A9C575
col35:   9ACAB9ADBCB99ECAA8CD979CBE9CEB4CEDBFAB8CB8DCBC8BAD8FC7A9FBD68CAFAACBCB69985E7C98
col36:   9AA88739A87BA8D863D8DC7DFAF9DECC8C9DC8BA9DAE989AE83DB977D9AFB99D9CA7BAD9FD9BDC27
col37:   7AA9ECDE8B77BBEC7EC6AD9CDDAACACDAEACEDBA9AC9BADCCA8CEA9A88B78BCEAA4D78B69CB9D9A5
col38:   BAAB69C8CC58AC989CCADA8779AACCE7CABC9FEAEACBECA9DCDA98AAA79AFBCCCBCC5AA889D77B87
col39:   AB6A878A9B89C9AA9DA6CA7DA85AAD9E9B998CC9BDCCB88A8C89BFACBCAAC9DC87688A6FDD946BA7
col40:   BB86B7C99AC97BDBE9CBDC8FBCEEC9C6ABF9AADEEDFADAD9AFCA9CBDC798DAB8BD769CBD89AA679A
col41:   79B96BCBACBCCC99BC8EACABC9B9FDDFFDBAEBACFF9ADACECACFADEBACBACB9EBCD9FABA6A96B7BA
col42:   A97BC6AA97ABB797D9CCCA9ABC598CB9ABABBACDAABBCDCA99C8ADCAED9BB8B7AA6FDCD7E9998877
col43:   9BDC9C8ACEB5CF7CDB96FBCCA9CDFCBCBCFEDDCCBDFADFECBAAD99ECDDDDDB5DABFBADAFBABCC7BA
col44:   99BC9A8B9BEAC6CABE4CAC9AFC9D9DBDDA98ADCDCEADFDCCA8B99E8ABBB6CA98A8C5B9BCA9BAAA8A
col45:   D69AAC9A6CBA969CAAACAB8B7DA9D9CB8CDEF9D9ADF8EBCBCFCCAADF9EDCC6BDECCABAA7C9A799B6
col46:   F6AD87B9BDDCD8B98DDA89A6AEEBCB8D9EAB899CBBDADDBECD997B9CABEFB6DDC8ABAEDA999CE9B6
col47:   B9BB89B9BF68D7E7BFBEFACB7CBDECD7C97EBDDBCBDED7BEAECCA9F8ABDCEAEC9CAB77CD7BD9CCA5
col48:   ABAA9689C9C7AC7AE9EE8BBFBCFBBBD8C8C9CFCB9BBBCF979CCDABBBDBABAF89D98ACA8C8669956D
col49:   76CEFB7A98A9BEFABFAD99CA8AEBEC9CEDAFFACFA98ACECCBBBDECA9CFFBCCDCCBEABC9DAAA98887
col50:   A87AB7CD6CBFCACDDEAACF9BABAABFE7E6EDE9CAECECF6A4DEECCCBD9A99DEEDBA5CBF8A7A4BA8D6
col51:   B472878A79B88E9D7A98EF9AA9CEB9B78EB8D97DD8ABB9AAC9BCE6BCFB79B98DFDE877959AB7C673
