ROC:     BPix_BmI_SEC8_LYR3_LDR22F_MOD3_ROC0
col00:   566BF5FF4A7778658B8B5A2478A7C7A6775A8799A99859996A967C563883B9739467964597494946
col01:   6A986F9669ECC87838ABAB6D9B97B8577789B894A868DB8AAB39B8B9B95A9995BB7686A98C69178A
col02:   98FFF5F9D5A54475A8674ACAA8996C6AA9B89B5D97898BBABA9AAA788BC8B9A778C87897667768A4
col03:   86FF75957868A8B965948978689ABBCA995694998C59B7A587645657A9736979936779B5773A5958
col04:   64FFFA99B66784688A98BAA79AA8978BB5D8B87AB8DCABB987AE86876889A7A8C8A6A457679C8966
col05:   955FF966778A98958A799849B898AB74666AA8B689ABD968AB689B78997979B56B9799B88A359A71
col06:   85FFFFB6989882A76399C668B888787AAA79AE6AA796998799A99579778866787895673783766659
col07:   5B49FFAAA66A99958AA9BC759765A7999B89A997AA6DA89B99986A896A6847577A99AB8777AB7967
col08:   7FF7F7B77BCB7CDBAAAC8B9A9B65879DBB97AC9AAD877A58ADBA99ABC9A8848856A788D8B89753A7
col09:   5FDAB67757567A66A998869A9B6B7BBA88A6B888896757B5D5D8895A94898A8BA8A6B82688688447
col10:   FFFF64B994A886786B999669AC9ACD8DAAA8BDBAA9BB598B894788A99A7ED767BE8A9AC7B8A7866A
col11:   9B7AC636B88987567A9AA7C97888D7A99B76797A9887AB7237958ABD6DBAA5667987BAB69B7BAA86
col12:   FFFF968797A93B7689CA876CA989B568A899CA9B878689798AAABBC9577CBB75989C4319598A9757
col13:   89856888A97A8998B86A9AC77BB8C7C997994A789A47BBA9D6B799BB79866887779BA6AAF7956779
col14:   9F8AD9498669C55BAC996BBCBA9B879A9899AD4B8A89D848DCA8C76A88BAA6A99853CA7A896689B8
col15:   7968957969889A79787967A7A96B77DB75A6ADAAACBBA97996ABBA9CB9A6B7A7B97A86967695A74B
col16:   D8B777A69A8A7629879796C89D8B9779B96899BAC6B6AC9AAB9A4CB998B8A6A9BD5437A768949CA5
col17:   77B77988B568AA77A685788AA8AB97C48899778BCA98A99B8B958A787679DAB979B56A7667D8A86A
col18:   6519A68B99848AA65AA9B8BB9659ACA96868996AAEA6899C98AB988B69BAAA98857B6B96568695A8
col19:   58859C94A78B9AA86C77798979A7695898ABABB8C6989AC9CCB4AA7878777A9C8AA8A99A7BBA37C8
col20:   7897B9B73C79758BB9579778AD697C796BA7A7C8A7CBAB89B9C8DB8D5B6969D896AA68886BA8B8D8
col21:   7999478386A74A79968789A7B68BBA79B89B899BDCA9B94877EB8A8BA86A6AA6C8787966B8674698
col22:   B997798738AA47279BA799BDB9769696A59B9F79BAC597EA7977B9B9D5D7499AA49B898668B85CA6
col23:   87888A69378A4654BB87C9AB99AAB7966388A9AAABB99C795774DCAB6699786A98795947B89732B8
col24:   5A95B97A7979A889899B78979A79A8889C7AA7C66AB8B879BAABAA68B887B6A99B847785B4578876
col25:   B9588975898A6C97996BAEC9997B99977C88898A6948CB6AA898B868889BA9B8D4887CB97A89798A
col26:   A8879BA8959AD98AAACBB8ADBBACC8D3AACCA6BAAB8BAC9A899A87799776CA99B89689BA9BB79A8A
col27:   7898C6998988969B9C9DA9BDD8B9BAA8ABACDB8899898FE8BDA8DBA98B578968B74999A9A96666A8
col28:   8579ACA799AB79C898AABCAD79BEE8DAB9A6C7AABBA89BB9CA9FA8BAF8DBC9ABB78B96CFDA9BA9B5
col29:   8999BBD955C6A7B77ACCC9A6B898CC5D79BAC9C9A8CBDBDAB8D9CB77879A566A996BD8498AC8AC96
col30:   66B3B7C88D9BC88EC8DA88BDDCA8E7E87999EB8775D98B9A98CAAA9B9BC9B785CA79A8B78CEA46A6
col31:   977898A959BBA8D9D9AAB9CB9B9F9DDB9AA8BA7AAA97BDABAC9AACADAFD6A987BA9D8AC89BB7788C
col32:   9C89AB4CACD6C7ABACACBCADDB89CDBBCD9BEDB9A7C8BCA9BACBB9AB7BCBB89CD7DCA8AA6B568D58
col33:   9BA7BA9BB9668B9CA9BC8AA789AB8C86889ACDAA9EDB9A8ABDB9A986A9AAA7EA7878AECCC87B695A
col34:   BAA8989CBAA8BA9ACAADAABBBAB98CCBBCE8ACDCA7A58B7B7AA6C8CEAAB9A9A887ADCCB7C79C7B79
col35:   89ABB989B89A498E9AE78ABCBBECEC8BAAAADBDCABFB9AA99B79D696A79868BAA5B28CCD7A799B6B
col36:   7CA9C879A9ABDB887B9ACC98DADAACABCD9DA7FDA9AFBCBDAD7CBBF8B9B8A9A1B8898A893BAB6787
col37:   8997F99C697BA98ACDD7F7C9D88AAAAA9BACC66CB9DBB7F9D9CBEAEABD9C36B9CAB9CCD787AAA9B9
col38:   9BD4E7A48A989AB7B9BB9D9BCAABAEBBF7877BCBDADDBDBAAAB9EDB899DCCD99E7999AD9AAAAAAC9
col39:   7A9986988BDC8AA88E8AB9B87AACA9BA56A6ACBA9ACBDAAABB6C5B8B989BDACDAA8A99A988ABAB97
col40:   49B9CBBCC947B5788B999AC7A9EC9BDC9C69BAD899BC99AFBEBCB8E8DABA89DAD9A9CD6C99875B9C
col41:   C6997D9FBB9BB8C7A9B8AAC58D79AD9B6BACF8BB8CB9BE77E67EAADFB98AEABBB8A74F8BB7BBCCCA
col42:   89937ACB86B6BA9997C9B9D7D98BCB69DDBBBCDBCD9CFB8B7DBAA89FB9CBBACB97BB6A6BB8BBA996
col43:   AB7B8589CCA6AABABDCEC88CCA9BDE699EAEDCE7CCAEB8F9C9DACCDCCD99C9DC8BCBCAA79ADA9B8A
col44:   9998CB9F994CB9A98AAEE6CB9BDAEA9CDCDDDBDC8DDBDCBECB9BAACA8BABAA9BC8A9A998AADCA8B8
col45:   C76A9AC9BB9F968B888DDE9BACAA99B89DFDCA8AA989ABAADEAECA8C9BD979ACA8AB89759CAB8AB9
col46:   692BABB88BAAA76BADAABB7EB89BB9DE7BBC9A8E6CBCE8B9CEECBBCCB6D99C99D6BBCA88BFBDA8BA
col47:   779BAA7AB8CAC9BB997FF9FADCABBCDBBDCBAA89BAC879B9ADCDABAA7D898AADABD999A99AB88BA7
col48:   7C85A937CAABA8897AC9DBFCDCEBDEC89DEBCA99AB8AA67CCEDAFB99ACBDFDBBA8D6B5ADB7CB8BB9
col49:   67EA88ABECBDA98979CCDAACCEB9E9BCCDB899BAAD8DADCFAFACCA9BABB896AD868BD2968CA699A5
col50:   4999BA8EF8CB7A899CFADA5B9B7CB8CB98AAEAAFBFBACBED98BEAACABCC9DC8D9B7CA79DA99CBBE3
col51:   4947A9A99755769ABDA8C89BBBC3788AAC9BA98B76BABACCAA78B7CB78C7BF4AA775B66857979A89
ROC:     BPix_BmI_SEC8_LYR3_LDR22F_MOD3_ROC1
col00:   B7945B8B76485598D6496BCAD9F988F696A94CCCAA96C64F89C9B979B7D96E6ACBC597A879E85A65
col01:   9D8B9DD7A88AE7A9CB99AAA38CCA986F8A9BAED99D8DBDBDDBA8AE99EE7BB39ABB759C77C8AB87B9
col02:   796DBC9AFE9AEB59A9BDDCCE9BE8AABC7CC98C6B97CADA9D7CBBBA988AACBCB49D3E7C9AD5889FC5
col03:   6D8737A8CC7A7798BBDDC89CBCBBEACC7C9AFDD97AEEAAFCFCADB79BBA7CA8BFA8CB6FBB89867CC4
col04:   86BBC9DC6A99AC79A8EAF9CACE888D8CC9A8BA9B99BBEADDE6BACDBAEAD8C88A99AEA8FB77C57B98
col05:   9879A99CBB6BBABD6A9CACE9DD8FCC57BCEEB8FC9ECACB7DD6F8E9BEBFDA9B7DDCA5AD77888A96A8
col06:   189DCE9CC8A9BF88B7EBCE9B7BD9B8A9C9B9DAAFB89CAB79A899999975FAB7CD6ABCA96CABA879BA
col07:   AA65ABE999D9B98ACAECDCBD9AAAABDDAD59FAECBAF89C4FBBAC699BBAB8CABE68CB5C769D8A6CA3
col08:   A795A8789B87AE785E5DD99F9BBAA7DCACAAA9AA5AB797DB8CF9BBABBA5BA7947ABA9786768BDEB8
col09:   A659B89867AABC99E9C9A99ACCFADAC8EDC5C879BFAA9CDAAEC99FCED9FAE8AD898A5BCCD7968598
col10:   89376B76C6FBBBBAC8C97498BCDB7FCCB6BC8FCB94FBB99BCAD6DABC9ACAD7DBD8FCAA7B8EC49A65
col11:   65385B9597D789ABB9CA98A88ABE7988CAAACC94AFBCA7ADAA7DB897B55BF279BBCA3AB1AE9BA577
col12:   799CA7BE9AC3DBAABCCDD6CABBE89AEBCAEC4BDCC88CB8CDACD8DCDDBAC9A986ACD97977A88A1968
col13:   F597A76ADB799DB7A2C98E698DFACB9FABB8CBAC6FBC99D4D5BB8CD6878EA9ABCBA8CE9C6E768437
col14:   5864AAC9B99C7C5DAABC9FE8B9DB6AE8A9B8B66A9ABCCCF99EABC89C68BB8DB96BAB9575897B3779
col15:   A6B9C878358AC7AAAE999CB749A7898BC8DA98A89E9DCD7AA9EBBBBFEC8BCAA69F8DA599765479B4
col16:   4592A898A76B5A99A7B8A9DAA9C38ECAEDB9AD8CBBBCE9AB969A9BE98CBCA8A8C5D6A97B995798BB
col17:   87889B86D767C793FBBA97AA86F9C6A8AC888D59AD8A9CD998DD88867BA9B78967CB287268988967
col18:   C965A846D67B79A657CA98BC8BAEDAE65AADECA8F6B3A6B6ABB9D999DA9A6A88A7C5597888547674
col19:   86A578EA8A38B776A57CBD8A8BA9ECAACD9DE8CA9B9ABAECA7E7B9AA89BAA6C756888B795756A965
col20:   719A988987387A8B3AAD6BBBBB4BCECE1A79BA9AD8AB8C84BA7AB9FADA9C994A8B779BA67877C642
col21:   7A9519A9AB9BA9A99889C6B779C3C7DDA6AAB6AACFF9899C728B8CE8BE7A9969C7ECBC9896B5A7C8
col22:   D9998A9A8657CA7A95799C9BF848ABBC5DFAEAD898CACCBA9ABE97D8B7A9DBDCBAACCB485588C28B
col23:   A6979C9A68C55776799C99CCFA8BCA6A9B8768A8EBA8999B699CEC667AB4BE7A7A8A586C96C78A77
col24:   96968B849CB854A9849EB88789EECA99BBBAB3B7A9ABDB3A9A8A97A8B49C9A9D86B8C7888657AD96
col25:   66298684B59CABDBA9A8CA9BA9C9CB979B999AB8785AA6DE9999DA9BBBD8A5CE78BB9885999A49E7
col26:   A99AB879AEC9FB59DDFBB9BFAA9E9A76AFCB99C9BCCF799DDF4AF9A9AC97D9A7A9A85AAD89BBC7DC
col27:   78B8BAC8B89ABCECC7BBA9CF9EDBDCC7DAA97CDCD898E998C8BAB999BA9BDC68AC8FDA998CB79B9A
col28:   AAB9B7B5DBA8A8E7B8AA9DBFBCC9DBDCDB8EBD9FAABC8D9BD9F8CEBBC587ABCD9A99B9D89A7B99A5
col29:   698A68B99986B86AA7BDDB5B999ACDC9A898BCADBBDA69EA9A589BECAABC86AB48B8994CB7AA7A85
col30:   879768DAB6AA8B868A86DDBD95ECE97CD9ACBAA8BCF77CEDFBECFEEBABD9D9FB9CA8896A877B86EB
col31:   896FC8DDB9BAA87C99D9ACC9CAAA8BDABCDBCCEDE969BBBCCBB99FAABCAB9C9EA579C9D797AAB7C6
col32:   884C78786DBE99CC989FB99CACB9FBF9B9DDF7EACADDDC9DD959FECBB6CB87759BC89AA595BA9999
col33:   89CC78799AEADC9DEBE9DBC7FCF97FDFCDBECAACB9F8DBBACF8EBDEAE89987AEDCA8CB999BECBB6B
col34:   78ECCBBDBF7AA9ABCFDDDFFADCB8BBBC8FBAD99BEA8DC88A887BBEABB9FAAABAFBBCBD696959B8A7
col35:   7A85DBBEAAAA7FB583FEDACCC9ACC8ACBDAFA9E6CBDC9A6B9F5BBFDBC9DFC8DE8BA5B8CA6C3E964A
col36:   5678CAB7A88DBAAAD9ACBBCCB89FEBEAAD8D9AE8CDAB8AD9B9BABDBC8ABACED9A7A77678B8C7957A
col37:   688AAAE9E87AB9EFDCCBA9BB9CCFF9BCCB9BFBEEDACC9FAAFABCCCE6FBFE7BCFA78FDAA85EB99D95
col38:   D9BAA977BCCC9DAC9ECCCAAA8B9AF9499DEECF6D456EBEA97DF4DCECE8AEDCD9DBD89AC99AAA7BAA
col39:   A489B8DD5BA887BBE8BDDBBCCDA6ACA9FDABECFCCCBCCCBAACFDBAADAFDF76FED7D89B5DF68B7898
col40:   5B6CDBDD9889ABBDBCCBB9B99BFDEFDC6CC9CDADE9A9CEFD9C8CBAACBB8FDCEBB8ABB9DCA89869C9
col41:   9A5F9CA7C87CD6ACDAEFEABA799C89CA8DE8CCB4BAFAEDC9EEADAC9DDCF686B9AEACC46D9BC99A9A
col42:   FD989CBBD6CDB9B8CBCC76EAE999E9DDFE97E8FD98A7ADA7A6FFE8A99BACA78F7AB9B7BCBA7ACBA8
col43:   A3BAA9CF9A8AB9DBBF879BC9EAC8DBACDB9BB989A9CCF9CBD9FCF99ABACA9CEEBCD6BEDA79BC9768
col44:   B799B969AADABA7EE887CEDDACED8F5EEE9BD7BA8CCEEDBBACABAEBE77BBB8EBD69CC88F7A465797
col45:   A6B9E98C8ACA9ABCA895AFC988D6EBBCACCDCBCABACC8ADECAC7CDBEBDDAACAA9B98AAB498B86952
col46:   AAA98ACCAEBABBB68DDCFCC9F9DCC9BB9BFDDA79AA9EBACEED9DDCBCC98BCDACB79EC6EADA9D8779
col47:   96BC8BC9DCA7DBD8B988DBBB9CD8BC8FDBACDABA8DCAC88798EBAFABCCBB9D7DC9BB6ABBDA889AB7
col48:   A9C9BADA885998ADAB7C8CBCA87EEACBB8DBACCD9AFDCDE9BAAA99ABDEBCB59B8D7B9A89999888FA
col49:   88BCB9BCDB7AC99CDEC8CCFCCCBF998FCFCADABF8E96CCF8579CCBDCBBE9ACC5C96D7DC879969D86
col50:   A98D9E9BDDAC8B8BA9ACCCC95FACDC8AC6EBA9EC8EAA9AC94B9769AB9D899D9ADCC8C59A7787D8A8
col51:   C14369577C57AC767D6688BC28BA99A7979B2BA947E8678CA85BD97589B6B37986948A9BC6567265
ROC:     BPix_BmI_SEC8_LYR3_LDR22F_MOD3_ROC2
col00:   3648146C887385AB2985965C77477775949C8645489393A657689699593563877655714227171436
col01:   C79A69958A87DF6A7B5A783B898DAD7BA8AABAF577B756C89BC9FC69BF7996788768C79737469868
col02:   635831758547837B87A6B759B8B8BA79D77A9D9978A9B6B75985A2ABB5A8788A7E688974299B7578
col03:   977848778AC76E9A58934DBAB8A8C6DC88A9A78976CC5D6AC993AFB9978B957E868671AA68649749
col04:   AA77978A8D426AC825479CDC8B8B87ADBA8BE9D98A9AA59D8A8A4A88ADDA698ABA77994783597831
col05:   B988629B83864777738889AD778B69B898C76A14B6A7BA4875B7687A9B969888A79677B58456C551
col06:   87547A8A13539A5BA77768998A79A99AAA9A5B967A67BB78C685A7A2876888849D32794564957793
col07:   24A8772998B677698A9CB5A77866DA87BC78A6A878C99B5C97B52854DD79C958B7BB747981754867
col08:   9471C939B485A77C57948BAA8B9B9867B8CACBA8AAA6C986A59B5898E9AA8998B69A119559A2A774
col09:   7A987696A869BB6AC9A9CBB98BD9974AA77B9D89BB99BDD6CD9CDD8AB7AA267CA9A96674C667B7A2
col10:   6739F6947996D5994B7658CC9D9298CA76D897AC57967A7795A888988BAA8798D5B6A79345558566
col11:   46C686697A456B5687698A69579D8A39B97BA5B8BC99C96696BA7974A9F7598A7978A479A568A7C8
col12:   57879696B976486AA7A8BCB8567CC97C97886DC7577B79C847BA4787BEC855879789C889898A2773
col13:   585798AB7579B88F598C45AC97966499CEAD9BCA78CD7CA885A7CAD8997E9BB9685B6B7772533656
col14:   787AB9894D8769877C7779AAD8ACBBAABB9D68A98C988B79A6A9798999AAEC8B785D87B44A8B88A6
col15:   5686BC5349A47ACA89C69CAABBD6EAC69DA7ABC8D7987A999B9A6C4B5A9C8A5785DB3878857A6566
col16:   697999A9789ACAB88CAAACA99ABA98B9FC4A56BA8A55798DD897D96ADE8AB89BD8B57876AB955C76
col17:   5295849DA938897AACAAA8789A8BCABAC9A9B5BC4D5BECBA5CB49B6878999B7887849B8255622885
col18:   766B98884A7997878B976BB579978A7DD9AC777DD9BB79DA73BABAA66A69CD9A4797B98662585763
col19:   8B758B984A975936D7AD88CDEA8A9B5B9677E8A689B79A6DAA9876ABD93A7778AC97FA634754848D
col20:   6366748697A4DBAA88BBCA8788799FA99DA8BA4F7895A89D9699CCB49ABAD9966979626C849CB345
col21:   A685B8A767AABB893D979A97AE6969998A87567AB7679A998D8D99E468FA98A89686879B687A9543
col22:   94B5B984AC637576A96BA8B8ACCAA9BEAB7688888999CCCBC7AFA86BCACC8599C598A69765875855
col23:   7B485B64C5952697859A8A789A9889BAB9B79DC6A895A99ACBC3EAAABDAA88D5BC486965C1666773
col24:   675758576A8365F57B6888CACA669BBB88E88ADD8D58E8DC8779DAB8892899848897468A67557849
col25:   9957A7978678A9B9AC6A7A7B877C7FC99E7BCD8F87BF9878AAAB87B9B9767A697886E34A76567984
col26:   A4BD76C774795B9CABDBD598FADCCFEEB889BD889CE899BB8BDCBEDBBD8D7C89AAD67B79DA7887A7
col27:   C9953877C5B7B8A9B9BFDAB6BBDAEA89DBACDFAA9888B98997B9AE7B9ABCE86A7876A95583765776
col28:   8647799ACB9B87E8A9A9ABF8CBAF89DC9CC7C7ABD9AEBC77DD8FADE9BD789DB99AD9BA99279ABDB7
col29:   C589A4CBC469FB8AAB8B9ABC9877D8E9F998B89BF9AC497DCC6FFDDA88C8DA6ABDA3C5B7C44A4885
col30:   825B98A99C553AFBE95DABAACDA9A9CC789D9CA699A76A996AAEAC96DCEB76ACF8DC7A9A66977C88
col31:   6AA9ADC499ACEDFC8BAFBCDA88B9FBDDCDEBF8C7EE5CB7DABBA9CD88CFBCA689DAE89B8CC6DBA674
col32:   7DDAA897AA89A8989B9D8BCB89D9FDFCDE89BDB9ACEA9BBDDBAEAAADEBFB7AEBBD788696CC854C97
col33:   A8298AC5BCC6BA8A9BACBCB9CCDBDABAC8CEEC9B9CACBADABA9B6E9DBBADA8A8BE9C4D6B69389787
col34:   D8796E97B7BECA8DBBBAFBBDEBF9CBBC9ADCDDD9AAFABE8BAE9B9D9BEDA99CFCA8BBABAB978F8757
col35:   C8A6CCFDCDF68CBC98699AEFDFFEDDDDEDCDBDACDFCADAA89CADFDB9EBFBDB897B9ACA64BC89A9B8
col36:   9896B9B99C6CC9BBDBBAABDFEEDA8B79B9B9ACFADACBBB6DE9D9BA8D8CF9AFBA98A99EA99AA88B3B
col37:   BA9C689BBFCF7B87759EC5D4BFBBBCBBCAEA6FDEFFED89DA7CFFACBCE799DCABCFB8AAAEE5759A53
col38:   988BACC8CC9B9A9B9BC8CFEADDCBBEDCBDBBBBFBF9BCF9ACFECBABAFFFFCCEDDABB9B997599A9C94
col39:   D898AC9AAAFECA98DFA9ABB9BB998F8C89BBFA8D8B888AFAE9AADEDFC88AD7A8998B9DB86AB56796
col40:   6A6995D7E799ACA9B8FECBCCFBCDDFBEB8BBED9CBB9BBADFBDCCF9BB9CEDD7BEF7C949AB8B99AD87
col41:   EAA7BDC77C9BDAADCBCECBADFAFACDAABDEBDCDDAEBEAAEFCBD7A9BD8CBBEB9EDB9AC9CBA84CAAC9
col42:   67AC7BB897BBDCC9A9DBA9DFBCD9CA7ADDC9BDF9DCCAEEABAE649DB8CFB9BF9AA8AAB7DAAA9A5AA3
col43:   FAACDBA98FC8BCCABB8CCDEFBBBF9FCDD9CCCCEACDCAAD9B9BDABEADFFDCDBCCBACDCA86CC6ED796
col44:   595BBF89AFB98C9BAADCACACEAEEB9EDBCEBBDBDDBFBDBFEBBDCBCA9F9ECBCCADBCADA67C7A89595
col45:   A8A7A9CABCDA9C9DCCAFCCDCCCFCB6AEBF8DFFDDE9DDA8AB9BABACE98ECD9DCF87CAAC7A68B87AB7
col46:   ABEDCB8AAD79CF77BCE7DCCCABDED9ADFBC99C7BBDDBACDBCBEAB8F8C9A9BCCA9D997BCBDA5A879C
col47:   AAB8A9AAE9B9BDDB9ADDDEDEBEB7BAD9BFFAD7CBDEB96BA7FBCCAADFFCF9ACBC8BB85E9DAAB699BA
col48:   A99999BBE8FB68ACB9BBDCCCDBDA9CCF9FCFBFD9AB9E79DEFEBAA8C9FC9FD9DF9BB979B6E8D98ABA
col49:   D787F9BB7CBC7DBC9BDBBD8DF9ECDDBACE9FDAFCFFEDCD9DAAADCE9CBDBEFBBAAA8BBEBCDA96958B
col50:   8EC89B9B89CA99BAEAEBBED97CBAFAACBB9BCF9F8CCBCBFB9AAA9FA8BBECCABBECBACB9AA8A8B9A3
col51:   84798E8579B6AB94B9798ADBBD7A6498795CFE7B969ABD49CBABCBEDAECE78B89BBA975874872861
ROC:     BPix_BmI_SEC8_LYR3_LDR22F_MOD3_ROC3
col00:   C7A9956C8A656B9969F988856C89C6BA6C7589697A7848AA98AB9AC4D4547B7387AA337669797557
col01:   865B7CA99C89B9D7689ED9A7D7A9CAEDABAC88BEEA7BBCA9B5D877EB9AB8C38F78637D988B6B5664
col02:   824BBAB79A8ABB7A86C7B979DC869DD6BB998899CBBBE7DA99BEB8967BA9C58BB8899683A7674954
col03:   88D868ACA98ADBEAAD9EC9CE9A8AAABE8EB97DFBBAAEDAC7BFC9CC696898A96A86C9C66567C55887
col04:   969979897746A897799C8CCB83E99E8DDE9BC9ECCCDBBCEFCFC9879AAECB9D8688AA568B94A9B47A
col05:   775957AA99A9AFD89DA9ABAA8B9F9A98A6A87BDAD35DEAA7AC9DBAB89AA6A95A7A968658946BA489
col06:   A697C99AAAA4CC8B9A5A7ECF78CB7ABAC89BADC68C8599A9DC78AC97CCCADDC889699AB9896A3797
col07:   BB78869B68A868A8BBBACFA9B88BCAC8B7999D9B3BB8DDEB8AA997988B9B8BD7878C7C8B5B797554
col08:   8A79A896557969988B8BBA86D69996CCC9989B66CB8698BFDC5587598B9BDBA7DA99A897A87BA891
col09:   A789DCCC7B9C4A8CC68CCBA8CA9CC9BCDB7BA999DB9B6DBCADBCBCBA8D5798DC77497CB589AA6376
col10:   7CA8B69B79C8999D8A6BDEAAC7775C9AABC89DABA9ABAE9CDB888BD6A9BBAE7EA87C69489833A687
col11:   A695C9BA5ADCB9ABB6DBAA94D96B97BB9AD9C979F989DEC88797C79B748B69A8A49BA87976586573
col12:   7CCA869894CAAD88F7597B69B999BB7E8B8AC8CEDDEFDC9BB98CBD894789C97EC56C8A8999A37967
col13:   668A54A5B877DCC9B8D6FAB599899A9AABE897AB99BDC7BA4A8DEB9CEA89DABA59595C88477C8686
col14:   5989788DC8C95FD667FA99CCDBB89A99CCECBCCAABDCCB8E98ACBC58AA8F997A74BBACC997777742
col15:   A6B868898B9A88A97CAB97BAAA78CBBBD9AC88898CA8CEBFB9C87BA9AC8B876BAC79DA79DB68A7C4
col16:   A6A88A9CD786DBC88AA87B8EDA9CA7DCAC9D8997C89D5A99AA5BA8658ABC8A9A9B8568AC972C4866
col17:   7A9A7B6A86AA999868979B9A69ACAB87B77A799BFCA97FA9BC698BA6B979B87D586A8C6A5594B875
col18:   BB7A78AC9479878C8898C9CACEAB688B8C9DBDF9FA978AE99B98AD88AC8BBB9DD8DB9A65965ACBA7
col19:   578AB9779987C6BC89BA9CB99ACCB8ABDB7BA99E9AEBAAAACA69A584BB86B95897A9887897C56744
col20:   78B76969A83678563BA786C9CA9A484AA8CAA9FBDCC8BA9B99BE978E8A98A989A688B88A79A88AB5
col21:   94A3DA99C9789ACEDBC9DBCB9C7BCDACD6A96DADF6EBABC6CB7AAB897B8A738695998A8AA7998B63
col22:   98987ABA494B66B77778DA8CB679A78FAC7898DA7CEA68978B99A8A999B796BAC8ADD95868725B86
col23:   8785E7BC7AA8C779C88A98A8A8DCAADEC8CA9AD9D99BEB9899BC78888A7CD68C88B8BC37A7A96495
col24:   85999BBA9B65A9EAAAC89B9B7B9AED9C5B5E8DA9ECBB7BBC7C9A87CAC88AA68A9A8976E699478A57
col25:   7AA59BECD78DA5ACDB996946CBC887C7D7ACCBD9ACBDB9FA9999C8AACCDA5A85AA9BAC64449C8176
col26:   868A99EF9B9EBC9FC8BCCDBCBADBECDAB9CB9A99ABBCAEBCC8ADBCAFBCCD89AB38BEA699C8B78AC9
col27:   DB978A8AC9BBE9DABA9AAAFADD6C87DCDFDB98CBDDDCEAC97DB9BECEBD98AACA98665AA8B8A98753
col28:   B8A57B89B98DC9CCB88BD8EB8BB9ADCCDBCBCBEEE7DB8AE8AD9989A98C9FB7ABBC97C9A77AB66E94
col29:   C8AAC9B798AC9DEEB8AAABBA9D9EEFCFBC9ECBDBCFACBCACC9BD7BCEDEBE6AABFAA7C98ABBB89A85
col30:   B6C7D79AC6876C9AECCB7F99BCABBCDAFBCDDDDEFABBDC8CABEDAFCABDCABDCABBBA8D9D9B5A8B44
col31:   B77CA9A8BD8BBECBECCC7EAE9A7AABEBDBDEBFCB89BD9AABCEEEAD9CCDDEE8A97B8B9AC9CD6A9668
col32:   A8BADB999676B9B7BDCAE8ECBB97DEBDFECEBCDCDD997DA78CBADCDBABB398C9DDC9A275C697B897
col33:   C87ABA78C6CB8BFCAAC8CFDCCFBFEFECABDBDEEEABFB8ABBF7ABABBEEFEC9ECADFACD9E96A6A9874
col34:   9BA9A9696BEB888BF99DCFDECCBAEB9CACFDCBA9CFCCDBE8BB7ACCCDDFFB9BB8C8AB9877578886C4
col35:   AE8AA9BEBECD78A99EAAACBCCD8DCA69DECBBDAECDDECDF9CAEDA8DBEDECDFC9CA7C9886D7591BDA
col36:   C9B4CDAA99BDABC7EACCFBFCDEA9CCCABDAFDFCCCFBDCEB7DD9ECCBBBAE5BBBA7CFA693B5759CA46
col37:   59B9B9C5998CB9A8B7BCA7EECCFDB9BF9FADFEDDBAECBCB98B9FCBEBBC9CEB9C9B8BAD9BBDB8979B
col38:   BC8C88C9CB9EEBB97A7DBABEBABDCEDCCBE9CBDBEBBAADFB9EB9CF98CCA8BBFAAED9889B4BBA8468
col39:   9ADDBBCD8DDADAAB9AEDDCCCFCDBFDCAFFCF8CFB9CDACBD9E8EEB8EB8EB9D8AAFDCBD8B9BA8E9734
col40:   C89CA9BBB5B9F96DECAC7ACFFB79CDCCBD9CCFC7CFBCED8CDAA8CDDCCAFBBACE9BB7CCCECCB5B79A
col41:   6B66B7AAA7AE9BAFCF96DBBEDBDEABFBEEDCBCECBCCFDBBCECAEF99FC87AC9CDA9C7A68CE6AA9788
col42:   8CA6A9EE8CCABBB999B9A7BDDFFADDBAEBCCDC9EBBBDB9EFBFD9C8ACC96BB8ADC8DA978928F7AFC9
col43:   B76C973CADBADB8ADDBFDDBCBBEDDA7CFCBBDCCBEECB9CCABFA9BCACB7EABEBAAA9DDEAC77A89AAD
col44:   A695BC869C97CA9ADC87BB87AADFAAFDFE88CCFAECDDCC8ECF8FB8BAEBBFCBB8BBFBA88B97A78A85
col45:   A695F59EAACBDBAFDBE8EAFCFBAD89ECC8FCDBFBAABE9CB9CECDBBBCCBEDCC7EDEA9B48B98746588
col46:   C779A899BCC88989ACBEADFBCBDD9A9FBDCABFCFFFCCBA68CFEABFFB9BDCBCAD7BCBB8D8A99A7D96
col47:   A78A68BDBA9A79BABFD87DB8D8EDCCEDBEDC9DC9BBFDAEF8CBE9CDCE8EDFDDCBBACA8A8A9A876398
col48:   7A9CB7899ADEACADC7AA7B876CBDA9CBDB9B99A9ACABCDCCACCCDD7CCDCCDAA69AB7687C7789B956
col49:   B3AA8B9898B99ABBBAD8D9C6DAFCB6AEEBBAD9CDCC9D99CCDACD8FF9A8BEEE9ACA7BD9936B55ABBA
col50:   C949BB88988CACCCBABDF9DF9FEBCE99EAFADEDFCC7AFDDE8DCCDEBEEC7C96CB9B8DBDF7CB3C8BA6
col51:   A355A87757749885AA599DC68D6B9E8B8BBACA9A87CA7A8B69B6CBBA9FABBC88365775A9A69535A6
ROC:     BPix_BmI_SEC8_LYR3_LDR22F_MOD3_ROC4
col00:   94968D9899AD693999956489CA989A58837C548D778538877A789ABBBAB8A86549A8877B43744935
col01:   ADC6C778BBCA7EB9BCEA75CC99799A96AEBBA79AAA5CFABA976BDB88EC758C8C859A787925179625
col02:   9757B689A9695D7BF8B99596BB497A9BB6B48785ABC477DCAB669A8A99A6CE488A5AB334546777A1
col03:   A8487889C8887878ABC89AB85DC98DADBAB8BDABE89D98ACC8DA99C9B6A8A9AA99A5478B72777733
col04:   A67898A5BA99C6AA7795C7C9CCA755AAD78CCABCBDAA8C6C987C9859AE6BA8894A8977B9D3886976
col05:   B8597B7AAB4C99A57C968A89C99A6C95AD9C967993ABBB58B6B5A87869986BB8349AA648D8677265
col06:   8798BCB8A8998CACA8DA9B7D7A7A6CADC28C9B56A8595D87E9B9CDC5BB83A69667829874D8782342
col07:   375B9AAB9A59C9ABA9996D86B6B7AA8C8BBCA9FBC9BCAA97AAC7A4CD6AC458BA8B879855A4969B1A
col08:   854A97B43B27C8CD7A6BBC898988997AD85EDCD9C6C776EAA7B9C7B779A6ACA77896775128354256
col09:   A4CCAB9B867ADB9C9B9984A8AADA7BADBAD9B7B87DBC8BA8F7EAE4B8BAAAE9B83BD68A293C579825
col10:   ABA79D9BA9BA87DA6B98A7DBA6BAA798B9A97CBBC994B9D9E8A6C6A9B5A97BCBA997ABB59B56B515
col11:   76358A875898878D9BA7BC65984BC8BB7A57ABCABCBDC8A98A5B867DA989796A97AD585697795364
col12:   288A8A3959B547695B7779B6BC6CDCC98869CB7D6E9789879B9BBE8AD6BBCC347838A677E2673788
col13:   888636D99A9B9A9A877D9C7679EBDFC9977D8A898B9A9A7B6A67F668779597667397BA672A683798
col14:   5A699555D9889879CB48BA7B9DB799878C79DA789AD9C6B9BBAAA8898A7798669968B53644BB6651
col15:   96AA6A77A6887874697B77AAD87BDA999C5A9ABCCB88BBA9DCE989B7BA688D9A598DCC965A79B623
col16:   97B97BAC889B55783BAAADA96977D74979BD9AD7BC6A8B77CCAD64ACD6AAA77868C3475597A94993
col17:   B696376A979B58A7D65A7B7E4BA78AB989984978BCB9596A5A6BAA6AE86BA99997758A7989934642
col18:   5B6CABA638768B689B96477989AB9A9D8EACA578CAD78DD8CFBA78B9A88C8C688B8C8478891A8441
col19:   B857869C687A9B9B6498B76AD9A98BB8DB99B99B7BEBD62DDAE58C9C779A8A8A66C7988885965596
col20:   B78676C869CA97388879AA9A88579798B77BAD8BE9B7C79A69D3888B7B949D48A7687355BA776664
col21:   A8A9D8576986B8AA8B96A79B98788B9897C9DB7F96DCAB78C9BAA95898D9C9DB8B776BA5556A7621
col22:   97989747BB75685A99885753D87B96CBCF9A7AAC7BBB8C93979978A879B6BC783798546999432771
col23:   988A8F8A986BA8977D4A97A89A99CCB989C8AA798DC8C9974B999578AB776C7995989888A7275529
col24:   C49A75B67865485D5A78B8B4CCB279EBB88A939CC987796B6A7BBA8796B57779C769BA9685874816
col25:   9743CA69AAB99B77DD8CB997ABDC9BB989BB98ABFE8B799A8848BA98FA97F99EB969AD6B74444893
col26:   6AB9AA8DBC6798B88D6ECCCC7ADAD98DA89C9CFDE87CCCCFDDC99BFACACC9A5976D9DB57AB7A7A65
col27:   A99967CC98CBBBCEACB7C87AECA699BBD6B8ECBA8BBC99ECC9CBCACACDAAC8B9AB9A8E5A69967997
col28:   6A9A6BAA7779858ABB99B8AB78A978CCB6D9CCBBBBDBFBBAAE9D77EDCAC998AADE7AFBA9C7DA5864
col29:   C8977ABCBD97CC6B8B6A9BC9CC9978A8C8DCEC99AAADACAAAB8CDE5C87ACBAA9BD8ABF9AB6CA6372
col30:   97995A8AAC988DBABCA8DBAAC984BDE9DC7ABDBBFDA9DB88DDAD8BBDEBCC98BFDB999BE6AE579A54
col31:   F787B678C858A7B6BFAAB6CD897AAB9AA9FBC9FABAAAE8E9BCA989B8DCAB99BDEC9697557A5AA936
col32:   9689CED8BB5BD68CB97ACDC7CD6BCC9ADDC9CAC9FDDBBEC9A897BB8774C7DBEBCB69ABC899657C63
col33:   9FBADC97CC8C867CACBCB6EB9599797BE8AEC9CBDADBBFAACBDBCAACDEA5DD6C8DA96EAB85786984
col34:   BB9CB8E897AB79C7D969DB6ADF8BFBFFBE99C677999D76888ACA99EADB999CD997678B66B8F67762
col35:   8996B9CA6A799B5BBBA9A8BEB8DCB7BB8BD8CFBCBBCFBEECCBD77BCCDAA9ECEC86A5A76D959994A9
col36:   599ABDC7A9B68CEBA98BAA99B99AE98DCFDBBCFF7FAEEB99BAB79C7F8FDCB9E8BAC99895585B572B
col37:   E98AEB89AC8BAAC7ACE8A9DD8AB8BDCDB6EB9ABEEDDD86BBACD9EDFEEDAF9B99D5CB8A79879BA626
col38:   A8DAAFCB76DECDD8BDE9B9AADCAD8BEBCEEBBCBD99CBEDBAADCAF9BCADEBDC8A77FCE35B5AA888AA
col39:   994ACDABBA98BC7CAB6A8DBCCCBAFACBAECD8ACCBCF9F9FEB8FDFFDEBDEAB7BCD9DBCA78A7495776
col40:   A59A8DB87BADC678EAAB96DAABDCCB68BFACFDBEDDDFCDD6ECDDCBBABCAAAF97AC899BA56989A872
col41:   7A9BD8FA5B69BB7C7AB7ADEE9D9AEBE8F6ED8EC7B6EAFA89CCBEDA89AABCABC59CC6A8BAA8F55D77
col42:   B59A876988BBACF8799AC999DCBDAEE4DBEC9B6E9A99BCDDDAC99BD6ACCBDFE999D9AB9CD9BD8757
col43:   D9ABAC8D887C87C7C9C9FBDEA69ECB8AFD8CCFE7DBCC99EECEDA9D9FBCDDBC78BAB9D99867757774
col44:   8DC89CBD7D88CC8AAB9B8CCFED7FBDDC9EDEFA99CCCABCEC7DFBACD88ABCBE87777988A996A77765
col45:   859ABBD698BABAC9A9C86C9DCDC9A6BBFF97FB8BEEEA9CCED98D899CCD9AA7DBAFA9A298889D6582
col46:   7BB5C8488AB783D9D69C9CC99B6AAC6DDE9C8ECBD7FDCE9CAF9ADA9DCABDFDDB877678E87775A674
col47:   AB9B9EACAAA9F89DB6F9CCBCACBEBAA99A9AD9E99C9FCBBCBDACBDCFAA7D8BAC7AA689898ABB7A96
col48:   A8CBA979DAB399DBDBBAC88CCBA5C9BBEADACDFAE88849DEA89BA97CA9ABDCC98B9798AA98AC9986
col49:   B7A7C9989DB7C9CCD6D77BD7ABBEBEEC7EDBBDDCEA89AB88DDEFDA9AD9FF77DAC7C9689B68A6674B
col50:   9ADBBA96978BEB7C9DEAFD9CE9DED9FAACCCCD9EAB8CAABEADCC995ACCF8995B77B8A98BAB959959
col51:   67769C785ABACC789B56A5A6689D8BA958C877C96EB9A8378754B87D9D85A7AB8C46799939239618
ROC:     BPix_BmI_SEC8_LYR3_LDR22F_MOD3_ROC5
col00:   58175797759595A379479A6AA7B44785A985678897AA6899A499518969365673C56878758579B687
col01:   7996AA796A859688659489ACB977A77668CA8C4A9A8788B9AE9D4AA9C9BCB7A8A767BAB856675487
col02:   358578978A9B9B778658A9A9B955C5CDA489A9997A8D96A7A98677998A7766C6C6689869979A78B7
col03:   3767A57588548856856AA7BCA87AB57AB76C8B9C8B5AAAB794B744C38B79CB7997B88A858768A7B7
col04:   85877578966A785A688D388A4976AAC98B8676BAB8B95CAD77CA797AAA98BDC7A869975AA9794778
col05:   7358B46A557974ACBB58C9687A8899CA886BC6AE88A9C5A6A87688AD889C486566867986BA878987
col06:   5656869877558445ACA9AA8798D76BB3997D5A7AC8978D98A88B899576E98C989688996B88898654
col07:   7238922796767C789A29886688BC59BCC1987AAD99DBB9CA98B8C9ACAABEAAB2896989B9579A7463
col08:   96B5787BA5686BA488C967AB839A9BA5C9BE8979697DA89C98DC8A89A8955A8958B6A8CAA77B2729
col09:   577366846A676978ACA647A37B9A88AAB9C9B5C58C6BACA1779AB796948869BA6578B78775966689
col10:   58388B9A8BA77C67A8DB97A8D8996BAB977B98A7BB89858A9C79AF4ABBC36A2A86AB6AAC83874985
col11:   68359785886A84B98B8A9CCA7B787B789BD7B788C9A5B9ADBC9993A7B657B958788886BC9C58296A
col12:   6265D6989B66589CAAB989699B88BB8D7479C7AC9B9A78ABACFC588B84A9B9A768BA879B8936BB77
col13:   7A369A454B67A477A88A8677C48ABA89D6857C7BC957BC5A96A8B798877B7BA3A75A8DC8785757C9
col14:   67AEB94789788AB98AA8BEB8D4A8769A5B8B9B98BAACBEBC9999B6E89A96A77B46A78C978C593C78
col15:   97757638A656C7A96796A86B9DBCBBB7AC99D787B7AE7897B9A9898458AAA79AAA9879AC78687485
col16:   9598D9878884AAD8B9A89B9A98699C88AA9C9CABCAC97CE8AA86AAAAAAA8A9A578E5AAB9E6B67CA5
col17:   764775A973A788779994B9B49587C885C9BA877CD993859A5C9BC8ACCB85DAAC7AA948A66AB69772
col18:   4459B747785B97AB7B8ABA7458A7A8A97876A99875B6A8B5F9DA49ACA78B99668B8BB7AC8A39976E
col19:   557987AA6AA5B86ED589958AB2C89BA9B9D95D78AC8D9BDA18BBBDBA6BAB86A9A799AA956985AA87
col20:   9977A98788738CBAB787AC69AAA6B679B99D9986C66ACBD9A88AB9B7CC8A9AC6F57A68C6D8678B4A
col21:   95798987776985955C788B788DACA6895AAB8ADA885AA9A789597B9BDB9B987A8965A888978853A6
col22:   4656599D5A9786977DD979886AACA8CCA74A9CA7DFDB8A9899AA9B97AD7797898A65C7A8A8778899
col23:   36A7623868988766C9A896998887A998AD5B897BBBA77B878B78ABCBD7A788879688ABB798677A77
col24:   B79465997B6647C46C85AA97BDC976AABDAACA9CABA8CAFCA7CBBC8C8786A9AAA9A6A9749AB96A77
col25:   86A779C7A8888B8897A8B687986AB9A7A8978BA948B9978BDFC88DA9AC8AAB79876AB9BCACC78787
col26:   A387D9888658E7CACBADCAC9BEDBB78ABBBA48B9F7CAA987CCB7A879DB9B6AF988CA77A7AC898CAB
col27:   7378B759BB7967A89A5AB89AAEB9BBA6D88C7ABFAA7CBACAEA6CABCE787E97C9699A5AD8B38C56CA
col28:   5678A68C89E99BCBADA9DB6ED999AC7CBD9D8C87B889BB9CCA999BFBAE7BCAA98ACC97A9B78B9A79
col29:   A9CBB79BC86DAA6C88BC8AB8AFAAAAAB8A8DBB3ADBAA8AD8ACEDD88ACD988CBABBAAE7CBBCB9BCAC
col30:   8B9988B69EBA88D8859B889C7AACCCAD9CBAAB9A98C6CE8CEA7AD9AD7B8D97889ACABAABBB7F7987
col31:   C799A79BA75BA99B99ACAB8AB6CA9DACCA9B9E9ACDDABBFA8CD89BDD9CFCCBE9AA7A7CCB9D8A94BE
col32:   7A98789F94A8BAFDAFBB8BE8B95EAABEC9BCCEC9D9BCDDBCBCBCAC99DBDCAC8DC9BDCA6AA9CDDD9D
col33:   6788C7BAE796ACCC6B5FB8CBBA9CD8ABC7B9D9ED9CDDBA9ACCBDDBBBAAA7D9AAD7CEBA7CAACA8879
col34:   887DA79AA8BBBB8DDF8A69ACEBECCEDDA8A7AAC9EDCEFFCAFFDAEBABB9BDDDDCCFB8C998BBBAE8BA
col35:   893B88BC978D87BA9BACBDFBB9E8B7DE9CBDC89CFC99F9DEB9CBDACCCBB8BB7DAB8CCBE8C7E97A7B
col36:   B7969AB4AD9DEBCA89BABCF8BCBCCDCEBCB98BBAC8A9DFDDCDADFCBECCAADB9EFE89CC9BB9B6A9A9
col37:   C8B9988A78B98C98B89BDDEA9BBAAC9BC7D99DACCEDDCEABCABDBC9CEAFDD9DCBBEE9CBB9BA7A6D8
col38:   AA88A8CBBDBC777CBCFCADAABCCBA9BACDB88C9FB9AC8BADDEBCEABDBC97F8ECBF7AAACDBCBFC9BC
col39:   766A9A7B7787C8CDABABC7CAAEBEACDDBCCECB97EBCDBBC9CA8BDCA9CB8E7EAA8B9CADC9BECC68C7
col40:   77B89AABB89ACBE8BDBBAC8BB6CADCA7AD8FBE7F79FBDDB8DEDBCBFDECDFCCD8FEAEACDEA8969CCD
col41:   6A89DB8C89ABC7AEACACEAABBBB89C9EBDB6B99CC9CAFDF9DBDBFEBAEFDCB9CBB7BBDAF9ECBCBCDA
col42:   BA9687BBABAEAABFCCDBBADA9CBDA9BDBBCAEF9DBEDCFDADBECB8CCAB9BBB9DBCD8BD9979D89BAC9
col43:   986CB9D9DCAABBBED5CC9BDAADBDCACD9BBBEA8CBAFCADD9DBCCDDBFBEDB8ADDBEBECFDBE997BACB
col44:   8A775B8EC7BB8A69BBD9CD9CCCF9ABFBFE9FECDEBAAEABEECBEEACDCEBCCEDDDDDEEAEBADE9DBCBD
col45:   9CAA98BD89CC9AABCCEADD99DBBCD9BCCEEABBACB9BCBEBBD8DBDB79BAACD5CAFCCBAD9B7799DC9A
col46:   99BBBBBC5ACBCBACAB9CCFCEB7DEB8A9DDCCBDBECFBCDEBCABCCDBAFB8DBECDBEEAEFDBEEFCB8BBB
col47:   A89A89B8B8ADC8AACBCFBBBBE7BA9C5BBFADDCBFAEBCBABDEEECCADEEBBBBE9AFDCBCEACBEBB6ABC
col48:   89AA9E6AB6C89BCBB9C9BEBCA9ECAACBCE9ACDEC9EACCBC8AFCECFF7AABBCDBAAADB8ABCB9BDF9BA
col49:   D869BACADADBCD78D969AB8B8BFDCEFADEF8CECAA9BADADEBEAEBAFBE9EDBFE88EAACCDFDA8CAECC
col50:   8B9B9CB8ABDD97DBECCBECCBCDDDAADEADBBECFCFCCEBDAECBDDB7BEEAEDBC6B7DED78CACD6DDADC
col51:   9678A9979A8AAABAC9DAA6A79D799BDCC9AB899ABB9DA7CC9CABBAE88CDBC8B9AA8BEA8C99CCB898
ROC:     BPix_BmI_SEC8_LYR3_LDR22F_MOD3_ROC6
col00:   943273945727CBC86661B859AA9D35B9473975ABD6A9A597967C67BA57D696948D1A97768B6B6496
col01:   984AA45B9AB39BBBBB85AA8C7C9D89AAB978DA986BB99BE7A8C5DBCDA6A5B3CB9BB8BFA15AABA5A9
col02:   9355B77A9A9C77CABCC9A99A7CB95C47B9B8677ABC97DCCB8A6BABC6A7B758CA5E8D88DDCA8793AA
col03:   517A6C89E978999D6BC988B8AA9CD8ADBC8DE98B99B8B7CBE7ECB7B96567D98599C997698E7A989A
col04:   736388976997A8B879DA77C9D6A8379AACB7ABA97A77DECA8EAC8B6DBFADAC95BD9776DCA7DA9AAC
col05:   8439949B989E6DAC67858D7AA6B7B8A66BA98BEA99E7ABDFBBAC9EACAA98BCB8BA9AD8B965689C67
col06:   7839BB7B6897B4C7AC9ACC9B9859C7C8A6C6AB6879B9FDD9D9C797ADC875CAA6A6F66C5975ADE97B
col07:   46757484A6875985BAC4999A799AA9BBDD8CB99CC99DA897578A8B44A89A98BECE88DB58FA854F88
col08:   ABB37B15B88B6C65C6A79C896977AB876A9197B798DA767876C78AB88DAABB58A737987A4C85CBB7
col09:   4AB48679983A75A987B99A3CABBAAB8989BBD76A9B98DBBEFD9CD77789AFBA5AABC88B7BEAC8A4A2
col10:   95AA88987A6F4E3891BBE6A9D7B98B9B89CC99998789B8EBCCABC8C4D89C43C77C9B917583949D6C
col11:   65A55C466BA875AC78CB6BA6B8568ABAB8BAA78798BAC97A9ABBBBAA9EBABAD6CB788468BB6A96C8
col12:   7265A98C767B584966687CAF88A86B68ABF9B7BADA98BA5AEC7CB856DAB378BB9E57CD748BBA7794
col13:   96765527538888977ADA7DD978CAC98696AACADCF87CD7C98EBC7BA8787FC9988BA9A7CAB9B6AA94
col14:   8557AB68A739D8A766B54AA98E7845A589B6768BA6BC8DB9B7A375A46DAA96865EB45BA9D389BA92
col15:   4345ACB847E9BAA8DA78887747869EA7B63DA7ABB868699AD7EEAB55ACA6A98A8B9BA8B84FCB6699
col16:   994779BA59988BB87CA7886BAAD88585B7AE8FBEAC55E98EB9A89C387D69CA989A4578816576BB73
col17:   7553663467889A9955875498B8AABB99C8A6A9C95D87EACE7AA9B9C96844BF877758C8D1C5BC6848
col18:   4C8695B668595F68A6BABEFB69A3B97BB7349B5DBA4739AA9BA3D8A86749386AA996C8D788B3A8C4
col19:   754B7C8276764CA97CC5566C86A58ACA9449999DE99D8F8B8CE59BDB9BACCB9B5D5A7A8269927C93
col20:   75975779A7A787389CA782CBA69E4A788C9C8A88888D89AD89E677B986D77BB99A99B684684B8696
col21:   736C849789494857669D9598CBCB8A98BB9B87D5AAB78ABA8ABCABF79AB9B87B64B9B8967BAA9688
col22:   56A4B623DA55C877267AC926CB7A7A69CA8AA9D9659FCBB5B75DCED55A947BC6799656B579A78851
col23:   7261674A9A66B677AA65A6897CC77598878587B7CBBBD77167BB3AB8A9BDA3A9ECD37577AAC6B9C7
col24:   49819878B4B599B58B98548BBB969768B7BBA568EDC79A88779DDA979F798797DB98977A72DC7477
col25:   5A6D772B8B5D4757B6DB957DCC486998C798D6B99ED89B88B6CBACA99A798849B6A6D57C6767B9BA
col26:   AA596C38A9C6CA569D89DABADDE9BB9BD9C5898EBD99D89BBAAEDAA3BD6EAC7CE78FBBCA99CA8B78
col27:   9478AB778999AAC6B65AEDA799CCE7989CB99CE7B9778FACB9BEAABECECACBBC76CB6789A88CBACA
col28:   A848A8AAAC789D7957BBAD9BC8ABBEBBCCF58CADBAA9A9BABBBBCBFECAACFC99ED9AC687B5C9C695
col29:   6E59C9A8D9C7CBA49BBABAE6BB6CCAA9BCC6ABAAA88A859FF8CA9E8BDA78FCB485E5D9CBAC4CB98A
col30:   89AA5A79789495986BA4D7CCD8B668E8BC8C6BA5B36B7B97B99FA9BAB4DDC7D98979FB79778AD8B6
col31:   8797B8AC7995AC9AA9A7DABD89CA68BB88AADA788DAB578D8DCB7E98E7EFE99B5785DAF67C997AF9
col32:   98C958B659B75BA4E97EDA888CADABFCA67DDAB9BBBD999BBBAB9DEBE6EDB99BA79BB9B98BAA9F79
col33:   CC96AB8AA6D7CC8E9CCADFBBF9BCA99B9AAE77CA8EE5DC8ADFDBDAE8C6DB6B7A6BACFB7ABF8CF9D8
col34:   4AAC7A7AA5B96C663A9A7E8C95D67ABAD9E7DEB8B949BB9DEADFB98B6CFBAEBDCAABDAB39AB69897
col35:   99B7AAB9AB9598E78CBFB8CA997DEBDFFF9DFC6B88BB8DB99F8DEAB88D9AE9DBB9B4EEBCCDBCCECB
col36:   B6B9497CDBA978AF7CF9D7CDAE7BBCCCEADA8CCCCBD99ACD879CDCCBECBA9B8FB8ADB58BB998998A
col37:   A97559EBB99C8EE66BBAD999587A8EBBFBC9DBB8BA69E89A8FDABDF68DBC89BCB986E3A5BBDAC8D6
col38:   9657979389959BCA9CDA96C8BEEB9BFBC597DA79A9A7BBC98FCEDC7ECCDFCD95AA899C79AB9CA7E7
col39:   A78756AA8976A8AA58A9B9BC9DAE9788BECBFB7F8ADCBADDCCCB6FDFADDCCDA9DD8EA5EBAB7DCA8B
col40:   A9BD786AE899DB9A69758BD9CC8FAB9BBDF9B977CECACDDEE8BFC9F9B5AAAD6BFBDEA7979DB85AB2
col41:   9A88ACD789A385B8CDA885BE9EB7BABCFACCC9D6BBBBC6B7BCB7AC9AC99C7BAC98D9BAE798B7F89A
col42:   86956588FA8ACA5C69BEA5DDBA997BCAF9FEBBBDABCAF9AE9BF7D5CEEAEDFDAAABA4AAEAF9A8C796
col43:   7A67EBDCAAD9B79DE39AAA8DD8CC87C79AEAB8A5DFC9BD6DADADBF9BFB77DB9FDA7E9DC5C5C86A9A
col44:   7766CCCDA8B5AA7AA9BC7DDBB8DE79BCCDDB9ACC9B8AD799DB9FD7DFBFEEECCBBBCDD8E79AACE75A
col45:   6A66ABAA8B56CB6FC8CAA8AFA8CABD8BDDF8FDDDEEAFB79DA988C6C88CDFD7D88A9E99BB7A9D9BCC
col46:   6689C6D399C9BCB69EBCD7CAADAD7DBDCACEB56F7B9ACAEBACDAC9C89ADC9BFDFBCAFD6C9CBEA6C5
col47:   7B6AA68A9AB55CAA978E9A9BBABBD9B7CEC97BDB9ED9EFAC9FA9C9E6A9A7BF9DFB99A6C8FD99AC76
col48:   95899D89B97ABACB798CDA969A86F8AADA67CCAEB8C98CAB9DFF3D9EAC9BEABB9E9BFD8AC6888B98
col49:   6B6876A796B99A8ACBB6996ACD8F7C797DDC8ACE879B9CC9EDADA67C9FD8AEBC94AA6DDCBDA7BCD6
col50:   A9D289C8A94ABB9ECCBABFAFCAFACD9BAADBA49B9B6AABABCBD97CFFD7C7C8A7CF88CBAAEB7EC678
col51:   537A43415569A8C68674A797AA8B67BB6A84A77C5AB75985864DBACA97A996796899A5B9336A6ABA
ROC:     BPix_BmI_SEC8_LYR3_LDR22F_MOD3_ROC7
col00:   5A9475A544846B54665894727599653659548A667667646875C585A5888374692817474236376755
col01:   8576787776697A7A898679D996779BC98B8EDB9897A895B59BA8498AA2B95B87B562797653B86A56
col02:   89897A65A3777878499277968A77999D5C7929C7A868AA877789C77779688CC6A6378493689985B5
col03:   96687B5C67749D76A779688A9888BA8BBB997B699C5A9A9B6AB489448A36AC697AA79BA6748A8564
col04:   55567594E8A8A99C9ABB7B879AAAA8CAB779A77789BDBBC8958A6CD9A7CBA9963439A77B46A87715
col05:   42C5A754A7B29536A8A8A8679ABCA2A9C9DC889C986EB5B69A9776982AA979A865BBA8D665465836
col06:   888C78486B673BA8749BBC68CB588659C77B8B9999969758AC9774446C767A76C88848B5BC679666
col07:   C9B7AA8779989788A779BCBAC6ADCEBBDF6BBCD89B8BA7B7A89B9977ACB87B98967B785A56689578
col08:   8A767899A565B7874A99AA3AA87A855B9C6D78BA69BDA8A99CA688799A47999A9A8797699A285A35
col09:   9A3C98759988BD9C9699B869D99AEB99D74F99E99BAA4B689DBC68A6B8BAA78AD9778588B75B9669
col10:   773D88759777A6BC987A7C98A9C678879CBA9D67D96AACDA958B6C799986A77946A5A78991653146
col11:   478C8A965A87CB879BBE95BB9DC7BCCBD8AC7779AB99BA6BAA9599BA479C8399A767A88788955794
col12:   8B73579777AA598A5792B8A77AC88BB789B99CA9B6A9CBA77B97D7864ABC7995454BA56867666916
col13:   A8668577BAD679A78A769AAC68CC688B5BD68999A7CBACABADC9B56D38BC8BA7DAB9747A85781537
col14:   6A8769AAA7D9488864B865BAB68A7AE9A9CAC7788CABAE7A9D97BB96798398C7A85A6A74A5778A97
col15:   669767A85A86975AB9A8CC7ABA58C86E5CBC96C6A89DCB678F68594B68A59A597A476CB7A531886A
col16:   89D8889C7966789CABAA9C8AA8D8999989C9A7B8A6D5BA747A76887D998A7968958A858777495696
col17:   575988A4BC796DA89E75B8978BAB9BAB7B899888A9795AA4B98786678997788C9A969A8534879344
col18:   62A57698B787C87AB895979A9A875969BACAB89A9AA889A6BA8849C57A96968549974CA768698666
col19:   BA9BC9BC957CB9BABB8A697A769ABD5DC9BBC998AA9DA6AC8ABBD9BC677761736C75A6697557C544
col20:   767849287A87C7AB896798B93A87894BBA8BBAB9B9B77BDACBC99877C67BC79A9399794691878713
col21:   47A46A6AA7968AA97CAA9947C99ABAC9C9BDADCBDAA88BA9A78888A8857C8A9895586B9889668945
col22:   91578A7B827A6AB97C78B8B98FCAA8B78BBC8CA799ACAAAAB9798AA86BB9AA66B86A7858684C6563
col23:   48BB9797987B8848AA78B7AA4998B59BB7AABCA679CAB98B8C7ACCDBA68998667979746279675444
col24:   55587487A7A798BBA73AC7CAC9E7DA98B95AB9A6CA9DB99C88987B96A58C9686775479685A679544
col25:   B9A7A789C888C8C79CACA8CDA89785BCA8C9877BBB499CDA7CD657ACB7DC7B8CA86986CA9A775355
col26:   AB9795987796B9A86BAAEAD5BDBA99CB99FEDC6BCAEECBCC896B5A97EBD9A9ABA9588868BD7C8465
col27:   9A998BACB886B97BADFEA7C79AA9AABDBB8CECBBECAF8AAE9B9AADABBA7ABA77BB98B88AA7575B86
col28:   C8B598DCADA897877ACA9BED965D97DFAB8BBC6A8DAA99CF9DADDB9BADADA9AB69CD8B998756A6A5
col29:   E876BAAAABA7C7D78ACDC9ACAA9C8ADCBE9BF9D99CBB9F9ABBC8DBCEC97CB9B9A77ADB6B6C368864
col30:   FDB9A958DD5A99CBBAA97B96CBDAEFAADBCABDCFD988CC9BBBFFC8ADB889FE858AB9A78BA788A988
col31:   FAC8BBBED8ABA89C58BEBCAA9CAABB9BBACBCBEFCBBDCEB9ED98F5B9BAAB8BB8AACC8BAA8E785989
col32:   FD6BABFABC99CFDBDBFDCD9EE8EFBBCEE9DDBCBEB9FE7BFFED9BBEAA6ACACFB9BC88B8B8C9997777
col33:   B97BB99BBB8BEDAE977DADCA9ADBACAC8ABAADE9EE9C9A9BCDBBDBAB9B9DC9ADC8BACBBA87AB8849
col34:   FCA8BA8B6A9DCFBCFA97DD88BD68BEBE6FBCCCCCCACBDCAABECCE89DEDAFCBABB7CAB7A7759879D6
col35:   FCAACCBBABCBD8D8AADBDD99CDFDB9BCA9BEDBDAFEBCAE9A9CCBED8DA98A7E888B89B5D8B968A6A9
col36:   59D9BA937768BCB88CA9C7EB9A8CAC9FA7AC8ACCFC8EADFCECBAAEB8C8B89C989BBB7CA8C79AD878
col37:   F9EBBA86E78B99FCBCBDBABCCBFCEFFCDFCA9AB8BBFBD9D9CD8A789FDC9B9BCCCC9BACFCC8977ABA
col38:   FABA88CBDC9889EA9CAFB99B6BDDBAAABBCACDABC6EDFDFFC8CA9F8BDADCBCACCA6D8B97898CB595
col39:   F9AE9BB9D8A999CBCCFBCBFDB9AF9D9FCFCFDDFB9CCCCFCBC9AACCE5AB79AE99AF9B8C9AD4968A58
col40:   F9CCDD86995ADAECAC8CBECAFC9C6FFDBA9FADADE9BCEBBFCE8A9DFB99BADAECADCAB9AAA86B8988
col41:   F9C7988E89FDAED8ADCDCFADBCAADCBDBFBDECDBAFCDBCBBA9C8BECACEAD8B9F7FB9AF7AB6C9AACA
col42:   B97B89B9CB8CEB9AEEAAEBAECBAECCBF9ECD9CEABBDCCDCFFDCAC9BC5ADD89998B9ABC78AC767ADA
col43:   FABBBBEBFBF8E7D9CCDFF9FE9FDEDAFCFDDBDFDFEF9FEFDABFEEECBBFCEAEBEDCA8DEBCA9DBABC66
col44:   7B7A5AA69ABDBCCEDB8CFDEABE8FFBCFAFCC8D9FBD5EBB9CC9ABAC8DCD9AACABBAAC8B86BB887D8A
col45:   6FA89CDCB899DEFDC89CFDCBB9BDBBCCDDDABADEE98DCEE7A8CEFDAABBAF98DA9A9BAA76C7CBAEB5
col46:   CADADFAF89B9B9CDEDDB9CBC9CECBDBDADEFBEB9CCAF9EAA9DD9ECEDFBEB6BBD6BAAB7767BA79C79
col47:   EFDD5CDACB97ADFB8ABCCA9BFDABA9D9BCACCAEA7CFCECBAEAADECEADB6FDAACDECAC68988D884B8
col48:   F88DABDBCA9DCC97B8CDD9EDBCFBBAEECDCFBEBADCCBCAACFFCAD79F6BEDEBEDCCCB896588796888
col49:   FFABC6CFBEBD5ACCACBDBCAAF8BEEBE9B9CF9EFDFCCFCDCEBE8B9E79AAA9BBFDE7AA88B8B9BDD999
col50:   ABBBACC8BB8BDEEEAAED8CDBDCFDE9DB9BBEFEED8DEC8CCAE7CCEC96AA8DC9DBADD79A5A8CAEEA6B
col51:   88B7683899A8899B8B896D6C9BAA9D9A9AFBB999C998BB8AE8A9A979CCABFD8B68869A66798677B8
ROC:     BPix_BmI_SEC8_LYR3_LDR22F_MOD3_ROC8
col00:   FF4445765A8367555387988796683783966589C466A46776596B43A949864974757B434141684521
col01:   A87B5789A7875A6CBB58776A67C8669C769AAA6AA7676B6BBC8A59ABC7A8BBA86A479B8571574781
col02:   F9965679B766959A68A8A7AAA6CC7C7C66976934897C689988A87BAD76897A8B2636593499412864
col03:   F8579668A67699493922A689989879A88A9CA989A8C9589A8DE678599774AA7846554C9565653668
col04:   F7797BB8648AAB498D5AA6997B9AA999CA7DBA898AB8D87C777A6B66798A294A9A966778879929A6
col05:   65879758A98B68A87AA6A7A88A9BB9BAB8AB8B999858C99A598B679AA6829A675986498166365752
col06:   7BB6D9488988B859A5A87A5C857C584B9678D8B9ACDBAE65BA67889797989B9B786B989257892243
col07:   F98689A46889688B45776AA9B87467AAB8A6C87A8ACBB9ACA6E8988A8D6C89B64B6996CA95B94638
col08:   5577696BA8877BA8696A59A72A77ABADC7BC879D6AAA889B6B4B6A79948AE5957682866778159755
col09:   82A794BB67984BB25259AA7B8BB79BAABD8BAB7C861C867926A5937B8886788D9977C4946A8A8681
col10:   8649729A9749659675E3B88D6978778589CAAA38C6CB6675787B675CB9A79A975A8A4A6AA58695A6
col11:   D29CB1B8A7B846D7648958BAB8AD995B7A69DAA87AD8AB677797988A97A9985BA677175865737823
col12:   786A6AB756B8D8B78A6A689677B87A8A958C79798AB7988B977D59A8BA75D7782915959673422152
col13:   8568A8BA589879AA9B9AB759D998CCABDB8CB89B89A699AA8C8E7BD49A689966B68978A966953652
col14:   BAB497A6B788A58869AAA6757EDB89867AA6966D6C9AA89968BA5CC99899CA9A6CA767847758A736
col15:   77589387A6795BBC99D77586A9A3775AC66E959CB8AAE579595947D87AD9C6D59954596767534554
col16:   A967A87A78897B488577777ABB965BB8969AA7CB8896774B5B8669A94C9A9AB6696A869357228325
col17:   D85897AA7ABBA8968D6BCB48B9848ABB9B6CC78AB7BBA95B6B36AA8964B76B98719868A956355565
col18:   77A38966B78745759687867987888967DA694B87AA8ABA747784B38A8A8A6929A646369544876359
col19:   8DC697A85266B7695895867AAB89898ACE4C8ABAAB78A9ADBA69DB6BACAABB788A7C969B69747221
col20:   A858868585C6B177966666A7BDA9AA96C88ABCBC6895776B589897896AB4A8678BD7673954466378
col21:   F4695AA8978D667967AAC78B7E78AA898A87BD691998997C77786985BA9B97C9978998BC86656547
col22:   FE754B97765CB55AB9898676B78CAE9B7B9ABA8ACD768D89CAB8455789B5C6979A978C5757A79268
col23:   799996C3868A8A967B8AA7B56596A7BCA787B9A88C88889A5A87A773BA87B48C996B687663456686
col24:   B7A8949C686A7889879AB7C995CC55CBA7FB68CBB694BC98859B678B9CB68779D667588954474572
col25:   78A977A8B8A7D8C569CA8D8BBA95BAA7BC88BA587D7978BDCCCC95C79CCB799A8798855764776327
col26:   9ABA999A56799BEA898CDAAA8D8B6AC99B9BD8AADCB7A8DBC99AC9BFDA9A97AC85BA6471A6793375
col27:   F8987AA768886A8BDB56E49C79A98C8ACDD8BDABB9DEB8A9AA594B87CB6BC88CB9B4AB8765948253
col28:   BC78B857A8A69A8CB98DC4BCB8AA9BABDACDE87CDABDBA9BBDC8BBBA9CFBAE7CDAB8CBAA48983587
col29:   D9AABB8A9AAABD8BAD9ACB8BB74BAA9B6DBFAA7E8968BCBBEFDFACCABA88A8ABCE8C87D65AA97933
col30:   7AD6A78AAA6CA18B7DBA676498DAAA9BBCBFABBCDBB9598ACB9C899DBA789ADAEB978C8498589835
col31:   ABBEB999CCCEE64CAC7BACBC9AAEDDFDC9AC9FDACDDC899CDCEB465CD79BD6A999CDDB79BA6C6A84
col32:   B6BBDCCCD896B898BDABE8BE7CEC97BD9ACBDDA7C9ACCCB9BBBDA84AABA4B68CABC8876E68ABA68A
col33:   BD9C9B8866C9AEA8ABCD88B9DBECBB9ABCCFB9FE99A9BC9AECD8A7B8FADBE986A897D877A6BAA878
col34:   AB97BB8D59FB4C996D8BAD9D8B6DE99DCDEBFBABACEFBCDDDB9BCD9D6ADC9AAB99A999AB5C76A266
col35:   CB6B9CDACB8D7CBDA8DB87AA8D6AACBBCFDCACEABADE96E9CBEB8DDACDE89C8AAB986A8A99A866B1
col36:   A6B699A9DDBABF6C8E7BBE9A87EDB8EDBB9BAEB5DEBADE86CBCDBC99B86C8FAAB88C8F7A4BA987A3
col37:   9C8B89BDC9BAAD8ACD9E9AC8CA9FDDBCFDAADAA9CB9CE9F9D9EA79BDBFADBCE7CB9BB98A799A9578
col38:   AC9A8EA9A78CF7BEAADDABAD9EBCBC7DD9DBCCBADCDBCCF9ECB7BC9DCBAA9B7CBAE8CA9C6A79A8B4
col39:   B88A987BCA8FABEBAA97BB8ADE7BDADDCDAC78AC6B8DCCDBA9B9C9C9C9A8A9DAABBD9B89CAD859AA
col40:   4AADCA6DDCB5C9BCC9CDAD9CCACEBBAABBCDAF8BDAEA7CEAFBE9ECB99CCD9C86A9C8EB97DCB6AA81
col41:   DACCAB59AAA8DBBEEAAAECAC9FFCACCDED7FEB8CAEFDFD97CFDBDFEEBDDEA9FC9B79BDA899D69886
col42:   8A9AAADB9A9DEBB79C9DD9C8BEDABAEFDECDFBCFEEECCDC8BB8ADCBDAB9BFC8CDB8CA799658278A8
col43:   DBAAADBBACDCAED7FA8CCBCDCFCACDD7CFBAE9DFFBCFADEDDDDA8DEC8AB98EDAEBFEBBF898B9B886
col44:   DD8FCC9F9ACABAACA9DEBC7B9EBEDA8BEDBCBAECAFA8BF7BCCDCB98CCEBCED8BDF79A8AEB7AAA787
col45:   FFBCBA779BCA7D7CAF9BEABABABBCFCFBFADFEECCCEDB8CCBADAE8BED8FFEACACFCCDA7DB88DB545
col46:   E9AABBCB4BCEDB7DDBCCDCDDBEBADBC9BFBFCCEEDACEFC98D99ABAFEDACDADA9BB699BB79CA89586
col47:   9BBB9DDCB8A9CCABEBAE6BCAAFAAFBF9CD89BCCCD9EDCAEED8ECBA9BB9AEBCD9C7DC8776A59B1EA8
col48:   CFBEABBCC9E9CFCA8BB9BEACD9CFBD9ABDDBBAAACEDDB9A9CAEA9AB9FEE9BA97ACABB96DAA9669E7
col49:   CB99ACD9C9DCBDECBDBDAFFEDDFCA9C9ABFFBBFDBBFDDCCE7CBACFEDFDBADCCABEACBBB989B8847C
col50:   DAFCA5BC9D8A9ABCA7BDBD5A8EE8B8DCC8FFC99FCBDEC9CCA8BA7CFBCACCCEAAEBA7898C45C96A56
col51:   899AA78BDD9B979FAB7CBD6AAE99ABBC99CE99BCFBACBCCF9CAC6B5CEBB54B78779799BE59648457
ROC:     BPix_BmI_SEC8_LYR3_LDR22F_MOD3_ROC9
col00:   5554558544855333B379439278897767B8637495679768653675742698989497569946BB745A6C85
col01:   34A5BCA9A469767B5778679979A57A998888998CB99977B68635C99B88B9576578CB99AB9DAA96BA
col02:   4835A9889A9439877A46875967778AA9787AA7AA87CA898777AC873B5898B7A469587E76B5845A63
col03:   383488B6C77768464691678B9785A96A8986A7879AABA7669CB86679E6896A8AB969A569ABA89978
col04:   65B276A478A9795889886687999854BAD9798ACB7558947B788AB68B777A8988A5A64685898956A8
col05:   567A87594745B566981125895AA9B858C7879C98A699B7A887567C9689B6B9B8B75798B957A78A76
col06:   48B979797A9A9D59728467476698744BAC9877788A9A487996658B76A48779986978D495A5478371
col07:   77A994A99BAC76A698BC79957AB8DAC5A978A8959A7B7C869C7896A9A6DA7CABC65699798969A5B6
col08:   67967877BA89967B5A7C669B799BBDA67898BA9589BB878E959A7B87AC86C7CAA799868896767B96
col09:   87746CB7856846AAA96B999AA568EA9C88896A37A8AC86A998A5B879B8A67889578B78BA7AA5862B
col10:   56596987367697AD8553859977D996BA966D9B46A976D7ACDCB8969A7CBAA9BC6898C5C786A5A982
col11:   56B75B78965889579B8B86BB8EB6AAD5597ACA8974D7BB4676B4B89976A7969BAAB698A988857A66
col12:   88A84819A885855B77B7B9586AB6987CC889D6BA48BBAB7789AD767C98CA879B5A979869B75876B9
col13:   7B68A9B587BB5A6986369BA99BAA888E8AA8DA869DCACA8837AC88975CEA8CAA88957CA95AA76487
col14:   38399969A77439879A9C7CC38AB98A87ADFBB9669C9989C57A578989D9D76A7BDBA66C6988D687AA
col15:   6597858A89A5A87B856A5B876896DEB6A6B9BAB6E8AD9BC56C786A7A899AB98695B9768BAB8C6937
col16:   88879667A9A9685569AA6AAD6787896ACC99DBA9994DAD99BB88B6689F79A7AB8999889946784898
col17:   56867757947687579AAB78A498CBA495A7DA7979C8CB8BC88BC7AA777CB4DB9B9863A89A9A8699B9
col18:   8477244ACA89869599C787A798AAA66A58A7B97C69A9BBA996CCA949B877AC3BB9C95AAA68B87769
col19:   579BAB999B8A8757B7A7CA69CB7A98A87849CBB7B967B9BC9C7BAAD97998D99BA96699AA498CB658
col20:   A385769B9ABBBB7A7B6378A9989A6A969AC97A999B8CA8959AA68BAC6CC8E89B8A787D7BB8977577
col21:   866968947798869A9ABC99E7A887A9D5CBB8CEB78BDFAC88DEBB98BAB9BAACC9775994ABAD989B69
col22:   7955369A6696B6E685946A45CCB79ABDBAEDB99CC98697A8A8EBBAA6898C85D584B999C8BD8AB665
col23:   3A78786D4688943669C5B6A59A97DA895B8B9669AB6BA75B979A59CBB7B79989B59779B677A69673
col24:   74877858AB8A9A9A94AAADB7BA979ECAB98A98999C9B9A8A988A8A5876BB879AA895B7A5C95896AB
col25:   6487788C8C8599B5C8B8C68CC69B85A9A8DB9BBA99BC8ECAAB988AB4C899AA99BD9BDCBD8598BB9B
col26:   A9AAAA99654BCAB8B8B6B9837ABA4C87A8EC997CBB9AEADA9A8BBDCACBAADCC88DCA89C979A6AB94
col27:   77799A79CABACBBA6AAA88CA96DE5C47A7B9B9BDCC69BBBCA9DA89AC889B8EBDEAB9B87C88B9ACB9
col28:   887AA77C8D9AB98CBA85E7DD7AA8CBC9CDC8ABF98AD9ACAB8E9AFD9ACAAA8EBFBC6C9B8CC9A99D77
col29:   758889BA9AA99C987AAA8ADBBAB9979AFCBCBDCBE8ACBCFECCABBD9A9DCABDDE8AC8BBDCD6DA9979
col30:   B95B8BCC6A9D8DD8497CBACBB9B9BADAABAABD8AD9CDBA6BCCA5AB788AB5AAA89BFBAAAEAA9A9AAC
col31:   C5EA7B9A9B77E9CA9ACDF5BAFCD7BCBBCBDB9EBBCDEBCACDE7DFECABDBE8BAB9EC9CB9BBCAA7CC8C
col32:   8C87B98DEAB9AEAC8BC89CDECB997DEDBBADA99B8DBBFCC99AA7CBC9CBDCBDBDCBCBC9E884AA5CD9
col33:   96A98A878999DB8BAABBA87DFACBCACFBDECEFDABCCDAAAEFABB9CB9CDF8AC9A9ACFBCBCFCA7BBCD
col34:   BBDBB99888C8A9ABD8DFBCD9DCABFAD8AAA9A9ACCCCCBCBEEEBFC9B8AACBADEBBFAEE8B9E9AA9899
col35:   8F8E9AE9899ACA86ACABAF8BDB9C9FABCCCBE8CCCBDECFFADEF8DBABB9D9F99C9CBDCBC8AF9FAACD
col36:   A9CCBBA8C7A9CBC997ABA89BBDFAEB9CFDFBCDFDCCAE8B9BB7BA9AEBBCBCEBD8ABCB68DACABBACBB
col37:   88B9986C99C8AB98CCB9FABDABAECCFEFCECDEBCCBABB8DECABBBBCCBDAACAC8ABC9CDBADC9ADADB
col38:   97B9C789A9AABCB9DC9AEB89CBAA9BC9ACCBFBEEEABAFDCE8DCEBFB8D89BFEECBECDBA7ABCB8A9A9
col39:   ABB79A799A59CCAC9CAA8CDCBDDCCBABEEDCFDA9DABA8DBBCDBDBBBDFDA8CABAD8AB8DA9C8BA9FD9
col40:   97D9CCD9DBA6B8FCDBDBDBABCFCF9CAADDEFDBAADBDCBBCBBFBAC7BCBCCAD9BAABABDAFCEDD8FCCA
col41:   7979BCBA6DCA8DDD7DCCE8E8B6FCADFBCDDAEFFC7DB9CBAF96CFDCADFCECF7B9BBC7CBAC9BDFEBDC
col42:   B98DEA9CACAE8AC9A9CDFCBCBBBCA8AC9C9DEEE9CD9EA9EFABEC9DB6C8EACFAEADD78AAFC8EAA8BA
col43:   C7BBBCB9BAFCC8FABCBBCBFCCFEAFAEADFCCEEEDE6ADFFEEDCCBCBCADAFCDEA6ECAECAFC9BCC9DCA
col44:   97B969FAC8BBDDBFCA7EABBB9ECDBAFDDDCCBBDEADEDCABCAACBD9C9FD9EFBCACADABBBCEBEBAACE
col45:   3B89EB9E9BAAD7DA8A7BAFBAEA9BCAB9D89CC9ACBCFDDBAC9CBDCBDD9CCD9CFBFDCDEDDCEDCCCC8C
col46:   E8AFC9C8D78EAA9EBCADB9DCAAEBEDFBDFCDC9CFDDD98BAEBEEACAEADDDBDBDCDEADAC7ADDCCC9FA
col47:   D8A988BA99ABAAD9AA98FADCBEBDEBB5CBCFBDCBEAC8FDAEBCDDBAAEBCDDEAFDDCAABBCDDF9CDCC9
col48:   8478BCDB968A8BCAACDCB9D8ADDCACFEBDABFDFEFDEB8FBB9DDB8ACA799D8CCABAEBDBBDC9BB9BCB
col49:   A7ACBA9ABC9D9DDCCB9BAECDA9BEEAEBCEEFEEDCCDAEDEFCC9ADBCAAEDABDBF8DE9DBECEBB7DDFC9
col50:   ACBB9BBECC99CBDAAEDEC9CAE98C8DDDECEADBBBFDDDBDA9ECCACDABC9DBECDFF9ABF7ACBD98CCF9
col51:   6694C56AAE89AB9B89B7B89AA8EC7AB87CA8EBA6CCCDCDEA8A9A9CDACF9DEADCCBA6BBACA5AAB8B7
ROC:     BPix_BmI_SEC8_LYR3_LDR22F_MOD3_ROC10
col00:   675B4A84695884C9586BD98B69769A37B893699B978CB98896896653AA8639756B86856573254A25
col01:   D9889488AADC96AA77A99C8BACBC89B9B9BDCBCBB689C98A698B75C89678699A7E8A564766575796
col02:   98566886977956A884A6895877A68AAA8AB88A6B7A999AC899774CA979889A79659593A378669687
col03:   895BA79988BBA8D9D874C7AB98B99AD999B78A8A7BD88889BB84AB9B88B9A8ACABB97A5696878778
col04:   79AA786C8B67968887A8A8CA6ABB97999898D7998A8AC9BDCAAAC6A998A686868A48878994657786
col05:   B96876A86AB8A7BC66AACCA89AAAC9CCB992B6B8BCAA7998BBBB767A85B83D88CA96B96657455684
col06:   A65A8B8645799797CBA997AA8B9C59A9A79699B86788989ADA9A8C997C8B5BC979A97767A7635447
col07:   99A77B69A667AE76B9ABABC8C788A9CBAB89D7AAAA9D9999868A57A7A7C9A696CCD89766876A7869
col08:   73BA746575AA98AC97A9AB97996B899CB69C95C6BC6AAB57AB89989B787BBB487BA869A538846583
col09:   84C999B785EB8B9768BB98CC9ADCC8A87E99799C89AC8AAA9C888DA8AC89A8979897989797846544
col10:   97AAA764975B8569A8B68A9D8497CCA8BBD8A8BA9A7AAA67BA6696CA88D88BA88BB886B669469BA1
col11:   799767768B8CC7A7A8C968BBB9768C9A9AEBAAA9B99A87B889ABAA89C7CC8A77A9B5869AA888B945
col12:   89888B9537AACB6B787959789B98AC98C9DB66A988AAAA96797879B6A9999B686998A79857684567
col13:   7B6879B7CA79799CA7798AAA9B9AB98DADCCACA9B8C9BBBB8897AA7CA8B9C9AA9639C8878C7787A2
col14:   C9A77798997987AA9C6997AC9AA8B98BB79B999A9A9C5B8B9BA8A8A9C7B8578A885A678998A65573
col15:   997BBA7B7AAA7B86B9C75A868AB89BCACCB9AAA8C9AFBA9AB9779DCA859AA9B678A86676977794A8
col16:   A8AC86855A959998CAA8BBCBB9C8BBACAAB9ADADBAD697A8AA8A9B8A7AA9B9AA788B87A9B9667899
col17:   BA796A8BB996D9BA8BB99A88A56BB8C8998C8898AACAC8ACF7B7D89A4AAE89998A99A5696B784723
col18:   7988898999C8696A99A8AE96B897A7AB987BB9AD8CBA78B3A9D97BABA8669CA97A692A799989A4A6
col19:   A699A9A8C76C79ABB999A8B7CD8B58CBBB89AA999CBB8B78A99889BAA869869887AAA86B898667B7
col20:   998499667959B859668686A8A96C98969BBA879C7AA8B8ABD9B3697A9889A49B6A597768A4A74595
col21:   688AA98699B9B99897B6BDAAF8ACBDBB977D79A8BB9976CBB9BD87B89A9BA7788BB959AA27959784
col22:   8777C95499959BA9A87A9B8A8A6C9A6ADB8ACAAB39B877888989AC96978687BC777B9657A76A7645
col23:   EB9A7957777A8B88B6A79ABB87778B5AAAADB77B8A9A988989B8AB9C8A99AAA6CD8B94A586949767
col24:   CCA838877A77A9C879A986B8A998AA7BAC9DAA8AABA7867AAC95B89A8A88B99BDB97988A78788786
col25:   998BA879AA6A8C6A9A5DB8A87998DCDADC998B687BADA98CCD999A9999B6BAF8558987696A877457
col26:   A99779B8A8B8A999BA9B6CCFCA9CCABC8CCDB9AB9AA8B8ACA59C887CBD8B6BAB9785BABBA9867764
col27:   99988CA487DAA9A9A7BB89FB888AAEC8FB97D8C9ACBCAAB8B9BABB8CD99A99B9D5A798778879D6AA
col28:   CA899ABC88AC9CA9BDCDBB9999AC9A89BAEAB8BB6CBCA9A88ABCB99AEB6C997B8B8AF87BB776C882
col29:   96A99BD88BB7B9DABACDC8BBABE9CA8DCA9B9EB86B99ABA7CC8ABBBBAEA7BCBA8977A8878BA6897A
col30:   899CDB797ABA97A999C9DCACDAE8A9BACAAACBC9BCB9DBA8A7948BCAADAB99ABAA89CB9C7A8B8B93
col31:   A79889B8A9B5BC9A99DC87BB96DBCFDF9BBCACDBBD9BD8B9BCCCABCBAAD7AABAA83A8AA886889856
col32:   7A998DB698DAC7AAA9CEAAC98DFCCB9BCFE8A8BDCAC9ADACBA9AAB88B89AAAB7947D999A99AB8A96
col33:   8A9CAAA8CDD88DBAC77ECEADBEACC988AAEBDCEEC999ADC89B86AACBBDBBBAB78D6B9AA9BCB98B8B
col34:   7ACCAAA99ABD8DAA8B699ACAFADCCDDFCBECAA8ABBC9BAB9D887BAAACC7AABFBC69797AB96BAA586
col35:   A97CD9895BBBCCCDCBBBA88ADBC8ECCCCC9EC9CABAB7AB79CADDBCBAC9ABAB8CAC9CC96889B96DA8
col36:   CBAAA8CBBBAC897AB9ACE5AEBDCAAEB8B9CABDC9ADDDBAB87ACC9A9BBF98BDAAA99AA787A8B98695
col37:   9B9AA897AAAA9DDA9BC9ECC99ADA9CCBAAFABDAC9DCDAFAF9BCA8A8CDBC8CBA8D9BCCA9AC7C6A5A8
col38:   C7C89BCB9BA97ACACABA9CCFDBCDB8CABCCFBBCDBAEB8BA99CABB9CAC88FD7CB99D8A77AC979AAAC
col39:   AACA99DC8C8AACA9DCCACB9BCD9989CCAB8C9CB9BCADE8EBCAAAACCC9BAB9BEABA8EA9AA8789BA66
col40:   88ACBA9C7AB99B98DBCBAB8BCCBCCBBBAD9CAEDAAEAAFB6A7B8A8BCEBA97BAA8CE9BB878C799BA8C
col41:   B396A9C8949BDB99AACADBBAAACBBDCDBBBAC9AC9ABBEEC8BBEAACCEBBD9BBBCAAC88C779A49747A
col42:   C8CAACA9B9F9B9BE9BBA9BC8AAECB9D97BAD7BABB7DB9ABBA9A95BAABE99A7EBBA89A9AABCA89767
col43:   AA7CDB968AC9BBCBBFDCACCCDBD8AAD8CCD8DDBBBACB99CAEAD8BCDAE9ECB9ACCA8B9988B7A9779A
col44:   AA76BB8BA7A8DB7ABC9AAB7D9CA89ADACBDBCCB9CCCC9ECBAACCEAABAAADBCAC9BBA7AC8C89BC469
col45:   CBBB8AE7E9D7789CDACBBAB99BBDC8BCA9ABEADCDCBBACCA9D9DBBCC7D9CBCB8A999697B9587B77C
col46:   88C99A9BB9B98A8ADBC7C99ACD8BBCCDABCCBCDDA98BCD97B98CBE9ACBBD99BAD688ABCB98864688
col47:   7A99F6DC779BA9ACB7ADBC9BCCEACE899BCCAADACAFADC9B9DB7DBBA87ACBBBCB8BBAB99987A67A6
col48:   9AA9C5A77CBBC979C967A8A99BA8E9AECCAB7AB8CABACACAC9A999D9BEBBDA9CAD5C9AA7AAA99866
col49:   A899AEEDC7A989BAABDC8CB89A9DACDBADA9CDEBDBDB97BBAABDAC8DABBB78B8C76C7B68978688A9
col50:   9CD9BD9ADB8A7BA7ABB9ACAABC8698CBADBB9C9BA99AAD9DAB89B9A8E9B689BBA9EA9B8BA8567874
col51:   7788957B99988CB7AC8B968BABA8A86BBCA7B8BA85AAAB65AB58B67CA7CABBA9889679A882375982
ROC:     BPix_BmI_SEC8_LYR3_LDR22F_MOD3_ROC11
col00:   1252413879524A726566576548747CAD622979359491AA5A4136555B6A6A677A5561365485355511
col01:   67D988A578A588C86AA977C5ABBA973B769AC869A9A879894A8A867A78A7B8C3AA732C1596566225
col02:   4786A38AA899AA979B657A883879678495FA88AA768B75858DB6BA99C96EDD72AB74A52286544A36
col03:   296AA787A56A976B869B8B9A9D66A789BAB968A9DE999B7794C7B7B88A78C9676C6B897345744355
col04:   7A94969B7B7698979ACA89785D7A859CB76B697369964D5B9A79586A7587B66AC475359862B77A53
col05:   78A47688356889AB746AB99BAA798D87B78AB68959A37876E9786B5987779B489A95645A64793752
col06:   B766896A689B48389E6AC6599AD89B8CE598BAA8896977E989A7A7B957B977CACB48B76253231283
col07:   77A6A96C6B5A895AACD7CE949BAC9B9A999AC6AB8C66BBAA69B497AAB979A36A989A983364963886
col08:   856779857B888897C858AC868E5CDB8669A9ACCC6A5AC68686A67CA77BABAD3A3963777479858276
col09:   488966F587D99677C8A7BC8EDD9B6A996EE766D9968ABB986A6BC7A68E8CBA4A94A688777B463884
col10:   78773775698A99C98669777859F87ABADC7A766B998DC99DDB6896B76BAC7A7988756D3563487557
col11:   567978357A6997946C7688AD6B69868B689A996A8A87B7848D9C97CA7978BAAE69779A5B44794867
col12:   AA897A57D3775664A58AB7B9898ABB9DC9C7C73B67B89A9AA482B47AA6C997A85977597467463879
col13:   9687D69A8A58B5DC4CC7C8BB9DB897DCA9ABAABA9A785776F8D9AC9CAA98BCB86E95978989775638
col14:   B4A795A578735995C578A7E89B99A689996B78C96AA8786ADA789A8949CC973752CA547676358452
col15:   767936819688778668A78A9CA97ADCEBBCBABBCA677C6CCA8ADBC99C9B9B8579785669A737937381
col16:   849977BBCA8C78657589E959AA86AA68EC5EC659689C8A78D59BAA8C6CAB8F2B86C6754995A95375
col17:   7DB6CA798897775B799D6CC987CD79B9A97C7A6BBA859D786BB58B6BB7987AB78C81A54691838386
col18:   72986567687A9B6E77497AA77A938BC9978C986B68397D998786979BDACAFB6C47867B9566943635
col19:   85C897A9BA9BA89B7C967C99AA7C6D797C8A89CB895AABBBCCA8B97CCDBD9A8BBB95AA6459544823
col20:   794899BAB4C3664A86599B57A8877A9A96CCC86C6B9AC86A69A8667DAB99A69E66658675A558B451
col21:   59BB68867A88AD376B88BA4ABABBAAC5BB7BA8D69769AB48B6A85BB8BB8B9B688A5B8796544A5762
col22:   7577975D9CB68C877A6B787B6A677897AB6BBD2A6A89C79BD9E6776EB6978663AB68956A98545C64
col23:   6A88D97666A96B967C89AB9ACC95BC5A9A88BC4887B8CA788A7A8599AA7889B6A6C42A5658356836
col24:   657B8664B587A8995895D9975C9A6BC7CCAC7879C486A6568ABAA7B9AB67BCA956B599874A668845
col25:   65D6979ABB5A9AB7D76A7CC78AACCC9A7C8B8B78958589ECAAC7995799EBE57ABA596B5997778696
col26:   7469A9B59BB8787DDAA99CA9BB9DEAA9AAC9DB89E8C6BD9A9784AADBABC8B6A9B98B9AA889668985
col27:   C7B7AB98E98A76BAB748C889F8B97FECEE869D999A88BABBBDBCCADBC6C86AC8B929887875665448
col28:   879AA8F9AC965879CAACE8DC8C8BF99EEADD9ABE8C6F9887A75A7C9AAC9D9AAAAA78954847968854
col29:   96B8C6C99ED9C7AD7987EAEBDC88DDA8C9AFAE98AB6AA7BECBA89799C7BB9DC7B88B798967A97751
col30:   9D988998999A79BCD739BCAA88ADCB99DCAA88DA8B9A88B8CCC9BC9E9FAB89BAA96B79C6C15C725D
col31:   ECA97E54B9CBACCB9A9DCCE9EEACC8CAB96CDB9CB999798389A9E9C98FEAAA8E997AB9DCC839AB6B
col32:   96B8EFAEDACAACDA7B9B87ACD9B9A7BCEB9BB9BF9BAB8B8DF6AC5A9BCABADBB99DA6956A9B269396
col33:   8CBC9BBB7A8C8ABE599BE9ADACBFCBDDBDE7F9B7D9CBB8A9A8BD89CC8CCC79CB7EAC8C696A9678B6
col34:   C99CA6CCDB8BBEEB7DABB9B7BF9CBB96EFDCCBBCBBE9BABBB78D9BA99EEDA9878A8A9666955CC95B
col35:   C9EBDC97979999E8BBDCC7D9BB9EEAB9ABFFBCB8CDE9BFCEFCCABFCDAF6DFCCFAAA976A9C9377928
col36:   77DBEAA45699D899BB9CCBAF8F87CACDADBECACCDDEB7AFAD7BEFB7BABE8AE886FD7B9789B983764
col37:   9EBDDCBBA99B89CA9DADBEAD7CBA9DE8DACAC8DBEE98EBB98DE9ACEA7BEBEADA6ABBE7ADA8986789
col38:   E89F9CCB979EBCABF8CCA8D78BBBA88F9E9E9EEC9E8BCAD9BBAFCFD9DB8D8E9CA7A9B7AB6777C7B7
col39:   CDBAAEB6BB988FA9D9AADF96DFABAF8D9C4AADFC7BCADDCBCCEE8BDACBE9BB5AA8DFAA9A888A4889
col40:   DB7FBBCA89EEAEAAB8AADEBEBF9FDBADCEEBAF99AA97CA977F9AACAA7F7FAD8CC5EABA6EB95A9B83
col41:   CC7DFEDCC6DA98BCBBCF9A9B9CC8DC8DCEBDAFEDCBAEAFCB7886DEEDEDFE9B97DBD89CE89BA77AC2
col42:   B97DDA8BDABBCABCEFC98AAD5EBCDBA9DA86BE9CADFA9CC8BAFCDB7CABBDBAC9AEAC9B89B699AC96
col43:   DCBDAE8CAAC7ECACCF9ACFCE7FDFDCEDCECFDACD9E9FAABFCECFDAEBF9FCEFBF7BDFB9DC9849AC27
col44:   BE6C9FBAB898BDADCDDBEAFCEDADCDEE87CFAFBEDAFFCAE8BFBADF8DBCCAE89B6DAB97568B9A6A8A
col45:   CA6AACD99BAF6DE7D788B9CDCFCC6F6EBD8CFFBB9FEBBC9BF8CFCBECCC6B9EB9D98DFCB7AA768578
col46:   B9ABAD88DAEBAFECAAABEBE9AEABCDAFDBEFADCAFCC9EBE9C7CFBEBDABCDDCF8EAEDB9C97AB8A96C
col47:   DA9FA6D8BB9DADBECAACBFBEDDBEEECF9DBBDDDFD7FEDC8B9BCBE89BEFBEDD68DAABCFA89B79D87A
col48:   BC9CCBCDBDA98AA88BCCAACCACDBD9CFDCCEA9AE6AAB99DEDBBD9EDABFBBFD9A74BCBBB98D7D1D67
col49:   A9BCACCBDFA88FDBBCDDEF9D9CC7BBFFFB9FEFEDDACFBBDDED9FBCBCCCEBABAB89ABADB9BD89BACA
col50:   BEB7BEEC9CCAA9D98CBDBBDADFBC9AFEACBCDADBABCDC9C9AFCA98CDCFD9CBAAB98EA9A98ABBB672
col51:   A8A9A8BCA78ABC99A54A5A988ABBAAFABDEA9AAB797DDA98A8B5899AE3B8CD8696967785AA858595
ROC:     BPix_BmI_SEC8_LYR3_LDR22F_MOD3_ROC12
col00:   F6BA9658CAB9C7BA7CBA5A6C7BDE88CEA889EBCAD8AAA88A7C798C8B54C857985584469966855685
col01:   98C789D9BB6CAAD6CADB6ACDC8DD78DEFBCF99A8CBB87BCB7ECC6ABBCD9CA8AB999A68B77696B655
col02:   B9689BC9BE7C88B9A8B8AA67CA8B78D9BD8AECCDBB9DC5DACC87F9987C9C7BB7FA75A9417586B257
col03:   A88D5AA9799997CCCDCACCF5CCA99F9DBCB9B9DEF9A8DEB8B89ABB9CBA98BBBB986968A8887D98A7
col04:   4BA7A8BCAAABA7988A698D9E9B9E8ABAABCA9CBCFBABB9E7986DDBAFBC9B7886CD7687C896848879
col05:   938BC998DB8E9AB8CBDA9B9988FBBAA7EDB8DAEBC9D9ACC98C98BF9C9A8B4E71E889B995ABA96765
col06:   8AA2EECDABBAAEBADB9B9CCECEBCBAADC8DC7DDAAAEE9B9AD8BC88B8DAA9A9EB79688CA89B488979
col07:   CEF797C87B58869CBC99B9DFCC8CA9D8A78CEC9EFCE9CAAA8E79CAAA899BBAA7AA6789A677597854
col08:   9B4497998687BAA6C69ABC8BDB89FFA99BAA7ED9AABCCDC77C79BA9CBB8B68C7A89BF6477AE5C576
col09:   97AB63A8B9AAADBC7C8BBAACDBDCAAA8AED8CDCCC9DBAA8CA89C6C7E9BDBB8977D9E827B46955564
col10:   9BBDB995A98EB6DC89B9C9A5CCAB9E76BDCDDA66B7ABAAB7AB589AB3A778DBB6AB66B7668A967481
col11:   7D88A78579A6CAA86FD9DB9AAE7BD8699DCCABC88CA9BCC9BA89BBD98AA97AABA887B67A26797444
col12:   8A89A8696B9689B8698DA9BBB7BBC6ABA9FDADA9B7BBA9E9EB685C5EABFD9E8898688986A6AA86B9
col13:   447C9EFACA6A768BA5A8899A9CACCB7B8898CEBD97CBAABDCA88CDACCC7AAA886BE75987B899737A
col14:   646D8A979699999D59A5AA7ECBBBA65AAA99AC8BBDB8ABC9BDBFA5B7B79AB4CDA9A27A8464A49481
col15:   73537CAAD9CBD6DC7ADAC78AAB9EAEA8ACDBC6BBEBB8BA8B7A8C89C79CB897C666CB35B856A77556
col16:   6BCAA768DF7B9DA8DACDCCA7C989CCAABBB9B998E9B8BF9E9A9B66BAD6DA77C88859677795567881
col17:   687669BBD877D9C89B8ABBB9BCC7987E9AFA77DD8C9A7A996D97AEDBBA9B8F7D78D88BD77B97B515
col18:   C25879CC88AC56AD9E8DB767E99896DBCBDCC7AAAAB89AE95DEBB6A9B4A9AA8CAA96C495526AB363
col19:   6A4CDBA78896D89EAA78BC6BC9B8FCC8998F9BBCA9B98C9ADB8DDCB9DABAAEDB88EB856A9979A477
col20:   9879B88889ABB787972C79ECA6CBC9BE9A77C9ACA9C8CB6AEAA7D89B667D8A866763748B41955789
col21:   B869CB3B8AB78F7EBC76AB9BE5CA89999C9EAC9DCAAD6CAF6A8ABAADADBAC79BBCA8B9798655A776
col22:   C6AA9CA9977759BEBDCD8C89BABBC879AC9BD88D8A8D677DCAACAC799BBCB99A95667AC8A8873686
col23:   7B5A9B597B6C9B6878D779DBBA8D7BE7C89B7AAD77CCC5D99967C79BBDAA99C999776347B897A866
col24:   C87A9C856DAB8A49898C6B99AC98C99DDB6B86A88C7B8A77AA8DDAF876CADAAA9A9A6B8A79784777
col25:   9B977798ACAD798AB768889A89BD47D9A79ACCAA7DCB9ABBB78CAB988C9B6A9DC88A8A96A4956587
col26:   97DC68CF88B9EA979BB9A8B8B8B9AB5CE88CEC89D8AAB9BB9CA9BBECCAA9CA9ABE7998ABBA2A4955
col27:   7BB8BACE8A97C7AF48CDCABBD66DA99B9DC5DDEBFED7E7DB9BAC988CC7DBBB87FB8B6DA98D5D87AA
col28:   B6CBAABDB9BC97AACFBDCBFA9EBAADFFABADCF9ADED8CDB9AFCB9E8EF8A8CBCD98A9B8B867AB2685
col29:   99B7B9CA798BA9A7C9B7C98ADD69DCD9A8BB9ADFA9DD88B7BCCDC99ACB5CCC8C6755BE7C7A766997
col30:   9B8B7C87AC989A9F5EB8CDEBCB8C8A8DCCBCEDAB7D9D89A86C6CCBBFD9CC599A9B99F979789D6982
col31:   9BAB8989D78BBED899DCBD7B9CCCEAA999CBB898CB78ECDA8ECDB9FCAA9CB8C6EDFBAC9BB5497874
col32:   A79DAC9B9BE9CAA5BAFBDCA6B8AAC8DB79B7BBDABBADBC98FCDADBFAA8AAACBCC6A69C99B73A7944
col33:   8D3ADAB6ABBEC8BF8BCC77CCDBBC7AE8EEA9EDA6AB8AEABBBCBDBE9CAFAAEB89BECB7F8987A76368
col34:   A76BFC8B5AB6CBB7B8CACDBFDEABBACEDA8DDD8F8DD89BDCEEE9ACAB9C96C8FA89B5A888A5A9A2B6
col35:   8A8B9985BBB9CBBF8C7BCCDEEADAEEAFCDBCA9CFC8EBEDABBD89D8ED88ADA8F799B7E6EA797B7A77
col36:   ABCB8ADB7BECA9AFCCDFBBCADFA99AB9A8C9BDBDAEDCDFBF9A9CBBCBAEBFA8A7BA7DAAA976797A57
col37:   DCCCBCBB9ADB97CD6ADFDCCDCDAACFBCBF8BC8FEB89A7BCDDCCDCCCBDADA7CDABACC79978BA87969
col38:   A9AC99ADBA8FC9EDDABBBDEABADDCDD8999FDD9CFDBB8BEFAADEBAB9FD5BB6D989BA9BBBB86CCAA5
col39:   D7B9A69C6DECA6A8BB7BBDAF6FBDDBAEDD9CCAFBDC7CABA6CBD8AC9DBDCCBAFE6DC89BCA5AA9BB29
col40:   9C98FE8CFBCECB9F8CB89E9BF9CCFCC87CB9BC8C9C7C9B8ADF988998BC7BDA5CB7489A5A9897AB99
col41:   B87A89CB69EAD7C8DDCCAB8FCCD9FBCBEA8BAC8BCDAEBBB9EC98BA9ADD9ADDBCBBB888997A69B975
col42:   BA779A8A8C888FBDFBDCAC7BDFAFFEC8D9AFCBDF8BDEF9E7A8ACB9DC86CBB1B6CA9B9A9568B9596B
col43:   9BDABAEBE9CC9BCA9CA9C8BDFBA8ABAEBCCDBDABB9CFFBBDBAD9EBBD7C8DDC9ECA89CB6AD775A9A5
col44:   8CCA6A7ADDAABAA8B9CA8ADACFDFDBEAEDDBEEFCCBEDEEBEBFA8A9A99FECBCBBCA76A7AB69B6AC79
col45:   B7C879E5DCA8FBABB899CDDDEBF9DDE8CBCBDD6AA9FBBAC9BDDBCBDDC8EACCABAAB58784AAC77979
col46:   BC8F5C5C57E9FBB9ABDA8FA7ACEDEB9BE9CEBEBBB9DDAAAEB7BAC996EBACCA98899889AACA9B8A97
col47:   9E7BF6A8C9BAACCAECC8E7FB9BCAC7EC8ABB8EBCB9EC97FBB9CEA9D7DDA689C6B95C9A88556D89B9
col48:   98AC36B7A79AAB97ABAF7BCFCFDCCBABAA9EACA8CBEA5B8B9B7CDBC8C8CEBA99D7994D79A9B787B3
col49:   BAB9965DDC979C8ADC99AECAA7ACB6ABFAFEC9FEB87DCAE9DACDBBBBBB9BF5BAB877867D96B79A99
col50:   A9FFB7EDDBBB97CDCA697DBA98F98BA9AD9BBDACDA9B9CAF88DABC9B8DEAFB8CE8C68B9ABC9CC69A
col51:   85D9678875A697686C6B8B9A99D8B9DBF97995BBCB9D9736946AA87B888C74848587776A9567B233
ROC:     BPix_BmI_SEC8_LYR3_LDR22F_MOD3_ROC13
col00:   597AB87988C49A678AE7DA9DA9889567AEBCA997A8A6989888B9B62A7777A855835975973654A467
col01:   9878A996979DBC6C7AA5C7A89B689CE9AABC7CF8E88BBDDCABB96DACAD78EAA6D68868689B788647
col02:   B857D8B67A8CA7A896799BAAD69CA9AADB67999B9DBC898ABAA89A9A78777D8A8864769936688678
col03:   BD8AA8CA898A97A7AACAAAB7AAAA79BB8AABAACAA8677CB9AE8757ADCAA54668BAC89354AB477C98
col04:   8696C57979887B9C89A78ACBD69AB9BC68AA99D7CA89AAB8BB97CAB5ABA9A786888976985599AAB5
col05:   967C876698777BB79BBCA9A6BCA5EAC8BBBA8989C9878DC9A56694A88695B8C87A56388395A75268
col06:   785C8A6AA998B8A9C699A999B7C69BABACB83AACFA9ACCC89B9B5C7B47BBB99B89679964666776A5
col07:   7998BB9A8AC9BABC89569BC7DBCACB9A88BBD6AACAADAAABE898A78A899B7B89679C7B9586884655
col08:   9997A3D798B9A5AC968B98AA8ACAABB79883BAAAC9DBACD68AA874C58A8C86998589728C65574675
col09:   79C6677BD9988BA8B95BB8B6BB9A885D8CDA9C7B97C9A776CCA8BA7BAAA85898755B698B8743AB57
col10:   CB887947CC2A5D89C8C88CA6DB986679CA992AA9AB89DAAB8ABA7777EB8B98985B989A8899789648
col11:   669A76B29ADAAB66ADC868AF9D9DA7DAD9B9D9B9DBAB49ADD98BC9B87997B6688879D64837785566
col12:   A59B699467ABC678AA97EBCC99A99DAC7884AB6AB6BA7CCD68478B676988C8679A79673837359762
col13:   CA86D879CA8969C7BBCCBBBBAC7ECA87CE8ABCD8C7B778B7BA7CB97B6AA979989C677A9798576793
col14:   B8899CAB78B68AB8B5B8C88AA8CB9B9ACAAAA9C8CA999EBB8B8C4A98BAAA9B7847BB7C8497358999
col15:   8794AC7A998A928BCC97C7AA8AA76A8CAFC8BA8BBC79CB9A989D87595AC958AC599789876A783766
col16:   8CA8975988A688AC79ABB88BA9AA8DCCCA9A9286A99A988BBAAA86BBA867A789776695CC74477777
col17:   8B8AAA8B97735999A658BB86977C8AA69DA877888C9B9B8A8E6A6AAA8BC79B9B9855D9565A889675
col18:   89589697727BBC987377876ACBA9A6EBA8AAAC57C8B8C8AACE87C8BA7A8995A96896A8A754DB6656
col19:   DA894998B99BA9AB98B998B7AA5B69989B9A97AB895CCA9ECABB6A88CC9A6B89DA8A5A8716794753
col20:   B7B9A8AADCBA98ABCBC9789A9479AA7BCA6BACAA79B9558AAC8D7894D6777A7889957A79677568A5
col21:   984C98AAABAB9AAB96DBBC8C9898884A989ABABA8688A66ABDC9DA8AABA757B87785A57796798573
col22:   88B778968AC888A5CA39EB8F5899B89D9B8CEF88CA9C96BB9B7C78D86B99988A57A6997848A58888
col23:   9B6A8B66B7696A9C87A8A9BA3C99A7A89AD8B3DA9B77DAAB7AAB8B6C98A9787A56B6979866685875
col24:   7858B9679DA87CB8AAB7CBBBC5B79EA6889D99CEA89C7CA79DA8CBA89DB9BBB697686579C97B753A
col25:   B59B7BDC6ACCA998BCADD6BAAE5CCCA9D9BB7AD7DBAC9C78D9B9786C9A8B9BBDA9876B796887A2B5
col26:   A75ADCAEC7DCFC99D5DAAFD7DDBA9A9EBBFACAAC9DACCCA4B789A87BABB99CA67A8ABA9998659698
col27:   69B868A8B6CBA99AC9D9C9E9CDCA8A8CD799ADA99CCBBBACA99BDBABC6A969A89588986998989866
col28:   8B7BC79AD8CA759CABBBCCDCEC9A9BB6CEE8ECD8AAD9A89C8BE77CEC8FCB8D6ABA96AA866A968A74
col29:   99BBAA9CC96D998DEBCCB8FA9D9ACA99AFB9CC99ACDC8C9FDBB8BECDCC77BB97BAA5555776786767
col30:   CC9F9B989BA8EBBCFAC9A9BA89AABBB9A8D999CC68DBC9BC6DDBADCDDC997A4B88C96858C4A98A88
col31:   5CCA9C95ACE9CD7C7C9DEBD89AC9ECCEAFB8B99BCABBCEC9ECECCADAD7C968B7AD97AA8547C8A856
col32:   BC9C9F9A6FCCA89CAC9ADBB8FCA8CBFC9EABB9BCD98ACBBBFB7BCCFC89BACBD9D9878CB755D88889
col33:   AC79A879BA999CDDA8ACDD89DE8C98CBEDEED9ABC9F979BBC8CCBCBB9CDA949765A79D9783893B85
col34:   BCCBC9AC9BA9BC9EBAADB9C89CDADBDADB9BCE8FDBB8ACB7CEBDBCACB9D9DA6BC9AC6C67977487B7
col35:   BECBC9DDA87EE7BA4FD8ADEABDDDCCCCCCABACACCBEE8FC799BCCCCA7EA9DB89A8C9A779598B6967
col36:   A8BAAACE89EBA988989CCBCBCB98D99CCAFDC8FBDCDBDBA98ABCCBBB9A7D98B68877F9787A685A49
col37:   F89ACBAA4B99FAA9BCCCCDADAE9E8BC9ABB9BBBFEFBD99C9CEAEFEBBAD77CAB95B85ABAAAB8C8847
col38:   BC8A9B9BA7DCF99DCBB9DCD7CDADAFDEDEA7AADBDABDEBAC89AC9CABBEDDC76BBF9AACCA8CB9BB66
col39:   B9CA9B9DBDBFB98ECCDCACBEBCEBD99D9C9999DCCCCBDDADACC9ADCAACCCBFB6CB8A9C66A9ABA897
col40:   B9CAAC9A6CABC8CAA9AFC79EBAEEAEEBD96BBCBEBDBABBABBDB8DCEB9BA8DCABD8BA989A8BAA7674
col41:   ECB9CBBD8ECDCC8A9BBBCACDAFA7DBCAE8D97CDCBCC9E9FEAA9EC8A8BCCCCEBBABC8CBA898988889
col42:   9EB9FCAA8C9B8A9BAA98BDB97ABA9A89AC7CA9BABEDEC99DCDAEACAB9B9C8CA789B7AB8689485D77
col43:   EA5CCCBCCCE9AFBBC9AFFDD9CFBECCDE9ECD8B9ADABCFCBDEACDFB7DEBFC988BDCABAAB9839B9567
col44:   CBDEABAA8E8CFDAF5CFAFCD9CE8DCCC8CCAACB9ADCCEED9CBAC99DEEDF5A9BB9AAAA8C95C7777987
col45:   BC89BBDDBD9888BABBA7EEBABC7DD8BB9EDFCB9BCDEC99BAAB9CAB9DA7BCEEC7A8A958AD978B9797
col46:   CBAC8A7AA9DCDC98BACDCCB9EA9FDCADD7BECCB9DABEBC9998ACFCADAACA9AA98C9B78BAB3A28655
col47:   B8BAAA99DCFACC8C99CFBAFCCAF9CABDCDCAAFE9FDCBDDBB4BBDA796DABE99A7986AA7699D798B86
col48:   9AD98ABCD7DB9ACDCBADAAF8CBF8CDC8BDCDAAFD8DCD8CD8B7BD7BABACBA7A8C88895AA9858ABA7B
col49:   6BADAC7ABB8EACCDFE9B9AB9FC7DDEDAED9AA9BFFBFBBCEFFFF89ECADABB9CDCA8C9D8BCBC785887
col50:   ADDCF99BA8BB8CA79B8CF8ACDACAADBFDB9BCA999FDDD68BEAC9DDCBDDE9BB98B9BA7A769B4AB697
col51:   CB795989EA666BCB8CCC989CC699BBADC798B9CC9B6B8B8EB96BD8AC9B8A99CA87A787366BB67555
ROC:     BPix_BmI_SEC8_LYR3_LDR22F_MOD3_ROC14
col00:   941971AF5A5D864B87A76A6C648976858749C96B846C628AC69A828AB78A759979AB8999759937B1
col01:   94A9AAE88657B8A96898A8A878BCCB8A98CCAA566699DA98929976D51AAA8CAA9ABB9A88C7C75B7B
col02:   5726C9877566B87C8A79A59C4487D6D89928689A997997779779A9B99C83C7A6B68F9979CDD578B8
col03:   982A167A75F3A56CFB8A897E54CCC8A5B789ACCDCC58897ADB97AA79D8B5C97CADBAAAB996A86A98
col04:   A6A674877B674A779ABCAAFB97C996DB7B97F9A8C89EBD5A8BBBBD7B999D78DBA7CDBBA8D7AB8BE8
col05:   5B65A7B7C43778784BB99A66869DCBA7CFB997B796CBCF974BD6BD89A8A6AAA73A878EABE597AC8A
col06:   25765896B8779A8A6ACB9AC8888C85D957AA95D95A799ABAD6C6BA997A789898B7F678BA869ABAB8
col07:   86A9579D94881578A6BB8457A6ABCA9BA6598689C3663996B969AAA686A877B6896CAC6BAB97A879
col08:   A35475958698B787DBB96759799EA8B6A9F7D8CC87789966ACA24D5C399AE7BAA682DA7B68AC59A5
col09:   38679B7895C9B94673E982BAFD977A9887A8AADCAAB8EB4BC8DA9ABBA9B9BB5ACAC8D9AB898F87B9
col10:   A44876AA67389A5896697897B9A8A66586F9CBB79ABD98F999596AA9A9C78D6A9A589AB7C6CA77AB
col11:   425987555A79786858C89A5777B97C85AA55AAE7A937A6CBCA9AC9E395B9A593B8B8DBB538AAD758
col12:   B67A9B86C79B9DABC5687A73B789A99CBC6BB9ABA8EBBA88B96898E9D7DCC7C8789688787D86857A
col13:   74587584B6B9A7762756A9969BB56AB7C9A7899BACDA689D698CCBA9CABEE7BBDCB7AA7B8CAD5A58
col14:   1974C656786D89B6524BC669BC6BB5997D4BA9DA54BAB8AAB69AA789879E5AA9ADC67C9688983D8A
col15:   A566A963979488799A7B868456B5A8C86B98D9B88A7F928398C6A997C896BD74ABA8D9797A78AC57
col16:   34E8888988A66C78897896884B89CB8A98E97A99B6BCBBD7689A9A8C9ACC4BEB9AADB8BAA87A9A67
col17:   6677985A73C59838D77685EB86696B79FED98ADABCC78A46D7A686845A95999D8D7592F87BA7ABC1
col18:   3298762A4B78BB7A788797888BDBC88BABCB79DBABBBC8DCB89C9BA885A75DC8869498696669B95A
col19:   C758515996499819594AC67957A8728967D9BBAA7BB998695AB679B9937A8DA99778CAC78CACBB89
col20:   8327A8A7ABB68539BC569CD58788CAC96CB3D9ACA796ADCB96C8FB75C8AB86976A598A3AC283A784
col21:   8878956486B7A49C9C5AC9687AEB945A97C5AEDCABC967CAA8DAB8CA89A59788ADCDB9696AB9DB59
col22:   666397A37BAC98A9949ADA9AE99B6DB58789996EA9BD78BBD886A685867AA5A849A8BAA6C8A66657
col23:   89697386AF787967AA4797468B79997BDCB8DBACB898769A87845B78AD46B7879588A7789A684797
col24:   25666A69989786B669B5BB87AA98249B9E7DB99BE58B6787A8987AA678B9AB7CA8A66658856EC983
col25:   68ACA8A989DA98799A9AAABA778678BACDB9A8A89B999F7B99A6CC55AE66B5A9CB498D8887B8498A
col26:   74BC99BBACDA5968DBBDDAB999A889C9ABA9BCE89AC98CD8FABCD9BCD89BDCBBBBB9C7A9DF7DDA6B
col27:   A9BA77969A58D8A9BEF9DB7BD95AB8ABC9ABEF7BABA7B88BFDD9AA886BB9CD9AD797F99BBE5899C5
col28:   6B956996D6B5B59A9D9BA8B578BAADDCCBE8AB8DCDBAEACAD98E89BAA798ABEAA98DBBA9FDBAE779
col29:   698B7976AB5DE89BBA894AA697C99ABAC7BCCA7A99AFAD89BAC9BC977BDCCABC5FDB7666BA88B7C5
col30:   7468A889966B78E8FBBAAEFAFCDBB8A9A99BFBD889AB7D9E8DBBB8A9FDAAD69ACCBADABB96BC9B88
col31:   876E7587A99AAC8ACFC95CAE9FCBCAB9F9A7EBED8CDC9AA999B8EABDDACB5969D9A8B6D8DBBCCAE9
col32:   5A2996C654686999B99DCEAAF8CDAAEBBAE97ED7CDA987FAC98BD97AAFA8AB5CBB97CAA9A4ABC5A8
col33:   7A888A9B99BAF9DD9AE9BAABA9DBC7EA9DEFD9ADD99A9BB8DCB7A7FBDDABAB9D697AD4C9BBCD6895
col34:   A838DAADB88ACA9A8B399ADCECFBBFF97A9BABAADAB8AA8EE78B4C6ABA8CCD9DBDD7DB9CA3CF5BC6
col35:   859AADAAADABC9B56A875DFFA7D96AFBA8AFADFD7E6E7978A9C9DBBBC6AB8757F99ECEBBBB8CADB7
col36:   A8A7C888A8C8D9AD9EA8989BDA89C99CE99CBCBCADABADDABDCEBF9BF89B8AAC88EBCBA874C98A97
col37:   79A8995BC9CAA69BC8E8D6B8BCB9CABCDADFEDADA9FC9ABBBAB88A89A69EEBC8BACBBBDCFEC8A9B8
col38:   9E898ADB9887C858BEDFB9B98BDCBB5B9E9ADD8EFCDBFFFFF8B9D6ADBBBB9D5EDA699DBBDD79CA75
col39:   7886DC98DBA7AAEC6C6B99A9EBBBBECCB6FBADED878C89C9F8C8C89CC9AE8CDA894CABAC89CA5BB9
col40:   B47C59ECCCD9FACA897A79FCBAE7C7AAAB9A99CAE9B9AD7B66CBA9AADBABAAC9BCFBBA9ABB6D9EA7
col41:   49B9B8989C689D9BBC9FA9A6C7FDB8F8CB9F99C6B9EBCCAAD7DADECBA7FEE7A69CAC9CEF6BAA9AB9
col42:   76AACA7BC9CDC9CAABCE98AECB9AADEB7BDADCDFCE89EEAD9BE8FC8AC9A9FFFC9C8CA7F56AB88B6A
col43:   9986B9BCB4D9EC8BE5C9C8EDD8D8DBACBDFABFAEC8BAAABDCFBE9B9BF9BFF9AD9CA9DC6FC868B58A
col44:   6B7ADEEAB8D786A36C99777BABCCEB9BFABFF9CDFBE9B999C9A5BCACDBA9AB8DEA77F8DAC9B88AB6
col45:   5C87C6F9DC99799CCD9CC9BBB9DFC97FACABEB9ABA88869BBB98CBBF97669D7486A6FD8ACC7CD6B7
col46:   7AE999A5986ACEA8ABACB9AACFAAB79B94ABAADCB8CAE8BBABEC6AADA8ACDBFF6AA7A3888CBCA7BA
col47:   5A98E9AACC7BFBDD87BACD89AEE9DFDA99CAEB8BCBFCAE8FF9BC8B8AD7D87EC97A6AF687B89896A9
col48:   59CAB999A6D7BCDC79B7D9EA6ECFCC9EAEC9CADCBF868B88DABC9CEBC9CB7E9CC9D99AB9ABAEADC9
col49:   6667B9D6ABE9DAB88F99AB8D9FEBC6CBBFC6BACDD6F8E958BD7ADAE9C98B929D75B7AB78B83AA9C7
col50:   6A9A98CAB9A9887CAD99A9B9EAFC68CC8DBCECDBCCCCCD8BDBF788ABBBB9DA76CAACBC5A7BD8D9AC
col51:   763449A769959A98749CB6F6B7AB988BA787C84B48AC8AC79B97854A75B98CBCB4AA897AD9793687
ROC:     BPix_BmI_SEC8_LYR3_LDR22F_MOD3_ROC15
col00:   99611689937A585852847765A7CA867664624B98C676899768887796D4A1B8844858597776754752
col01:   8329679AB87A9B95A775A799967B9899A896856A859A9A666C5D89866AA3BB7E78A7B88565875649
col02:   8476644A9878599AC7C7897AA68699A96B69B585A9BBBB792B9AAB5B7857787A934ABC7A88C96B57
col03:   562278868A3AA89766ABC9875D8B687AC6847C67DF6689839455999B76BA9699576268876A747595
col04:   654989B9585A6799767BB9A5698C6A5758B98AA66A58C79CC7856AB3A9BA97BD6597C888856AB879
col05:   A8AA884758A47A68996849D696A89688A98997885B9996A886C778B8589A56998666AC76AA4698B6
col06:   2469898A878D7B997DB77C6BBB5655CC9789AA8895995988B977B87AA9AA6B4398566896AB799A49
col07:   586776BA9B68A988A769A8C78A7778758AAFA998B867BDA899CA79895A9A688B7CA267A97769AB49
col08:   86993AB978777969CA84A7685CDD8AAB6B69BBD88D779979B8DA7A9899978A7D89AABE987987B697
col09:   7354B648A7E58B97998A88B593B799B84B7A7A6A78B69696B9968898B7DA83AA9A877DA559665759
col10:   85578C66975947868B68DB98797ACC8BBA8ACB7AD598C8A6868968778468B6584977A889898967BA
col11:   62CC88B86787371B8B6B9BBCAEA68778B79BC558ADB6B5847779BAEAA9679A8A97A89858B98B9626
col12:   824496566695BCA599767CD5867C47A9A98A877CABCC798A886F868B6AA67935A6AA47A9887D8A87
col13:   16477699B5689B59BAA6699AB99979658A8D6BA547D9B9AB9B9B9B9A888BA8756A9A49A9A6959896
col14:   74A898A6A7A8977898AA7B77AABA86ACB96B889DA7B9BBCB5B88A8ABAB955C9B88976C7989C97784
col15:   75766BA6A94794C6895389C85A87F7BA79C6B678989488B6B989957779889557C895887A88B98893
col16:   98C578888AE49BAA78877489849998B77A898A8BBAA9BBA58A7696B8A68DA778787978A7B8879798
col17:   999A87687C84A78BD6A83999C9D9B8798B7CBAABA8799A5BBB6B7868C67576A7CA86886786A79677
col18:   65764A664A759896699B65B9966A566B97B598A5A58978A886B968AA3B98875A8796988BB7699BB6
col19:   86776B888C7B56679D99E9B5D48BB8A7A7B7BD9B968B998C997A98D6589A98BAC9869B7978879978
col20:   797466BB8C8658B998C79AB9AA7CD9688AA9AB8D8B89A6CABDB7899C77E96988776BA499B76788BC
col21:   7758B59CA8768A959BAA99977BB688859C8A78A886C99B8DA9A6A9AB975B996969BA885A9AB78989
col22:   75958B7598AA976996979997A92A46B78A6DE6AA7B6AADCAC8BAAB979B769BA769A88B88EAA99887
col23:   9867AB676AA6787A99A886ABC99CB967CA7CA9A6A99B9A87969C79ABC5A68BDB597AA6696AB96966
col24:   87B7A85769AA9B8AB7AA9A68948998D99BACBBA7C9CD778A99BDA7B9659BAD97B9789A9EA678997A
col25:   66699876D7B7995CB9A9C986A76D98B69A97B596AE8DB9A888A9877BCCBAC6C988987ADCAA77B8EA
col26:   795ABBAB9899999AC69C7BB9987BBC7ECDAFCECABAA9EACDB6BB9EE8BAADAAB8CADCBABB9B98AA89
col27:   79A79999AB6A88797BC8ACBC978A9989BF9B5F9B9C98AAB6DADB9DDB56ABAB6BCBBAB6A8AA6B67A4
col28:   988B6BCBCC88B975EA989BBCDC97BEECF8EBBADCA999B8A9D4DBCABA99AB999DBA9B7CC66A9B9CAA
col29:   897B96B8C96D48ABD8CABDB7A9C9B779998E89EAFACCBCA9BBD9CA9C6E6C668CDCADDE9BB8EAC879
col30:   7AB5987CCB9AA8EA8AF9BAACAAC9BA7CDD9DC9FCADAAC7A7DCBA9DCB8D87BBA9D9EFB8EBB9DAF6AB
col31:   77967DCDB777EB99AA9E679D6E9BBEAD99DDCA8C9ABEBCBC8ECD879ABCBAC8AC9DBBAA9CCCDCBB8F
col32:   74AAACCBBCB9D96BBBAC769BBCF7B8DCBAB9BBBCADCAC8BBDBBAF9ECBBA8ABCDADBCFACAB8CCABEE
col33:   9A5DC9CD7CDAA867C9BBD9FDC79878E9889ACCD8A996CCABCBCACCBEE9989DADDEFEBCBFE8AF97EA
col34:   78C8CBEAABC76AD5B899C9BBF7DCD79C6BCE8BB9DC9ECDCACBCCDCFDACFEDBDEFFACCEABEACEEBC8
col35:   7AA5AB9A76AABE6D5BBE9CBEDCAACCA8BB7ED7D9BEF9CDBCCB7ADDBBA7BEDB9CA8CECDDCF7978B99
col36:   697AADA7DBBBC9BA6A799CBB9B9F8CFCA98BF8C6CCBFB8CDBDC9EDAABBA9DABCFDBDBAB799EABFFB
col37:   4779CA8AD8C9BA9AD7BF99CA8ABCCEDCCBBAFADBECBCE9DBAEDCAEEE9ECADDA9FDFDC7A8E95ACDA9
col38:   C885DB8ADAC9CB8C9CBCCAAACACBFDABB8CC9DC9CE7ADFDF5BDEECBEBDCC9BFAECEDD99DEDCA9EBB
col39:   8B989E7F8DCEA9AAAB8CBADFCCDABECB9CB8E8BCADACE9D9BECDEA9C98BBDB8EA8EAC89DC8A8B9DB
col40:   A75DAC8CD788F96DB99AEDBBCDACAFDC8BAEC5BDCDFD9C97FED9ADD9DDFFF7DFD9C5FADEDEDBC9EC
col41:   99A9CABA889AACDA8B8EFECB8CDCAFCCADB9AAC9EDDDBFFB9AC8AFFCCDBBC6AD9ED9E9AABC9BDBAA
col42:   8A98B6DAB9C7B7CFDC9ADFBBA7CAE8CEAEABDBACAE8F8ACBADFC8DDBECC8BBBDDAE8DCCCBCBE8ACB
col43:   E97DA9CBBCBAFACFAA7BBBDFDBBFFDF9CDEEDFB9B8BACFEFCCDBBFBBBCF8CDDDBADDDAFDFCBADBEA
col44:   DBEBDBBDBACFAAAEBDDA89CDACCCED7EEBCAACC8DCBCDCECDD9CCCFFCBBFFADFFDFABCEBBEC59AE9
col45:   9A6BCBCBEDEADCE9BAAABA9DAAD6CBABDCCE9BF8AEB8BCCEA9ADEEADEAFFAC9EAADBA89FCFADFBAC
col46:   9ABAAA9A788A8AD9A9BB9F9ABCBAEEDBDDDFDEFBBED8CBFBECAD9E8B9BDE98FFEEDACD9B8BBBCBEC
col47:   FBBCA9ABC9C9EAC77BECEDDEABCD9CEEBDC8A8DCEFDCADFBDBBEEA9ABDEA8BCBC9CDFECCFFCEBB99
col48:   7BAB89FBDBCC99CBAE8ED8AA8CFC7CDBEFFCCCAA9BFFDEBCDCEFCF5D7AADCABDEFDCEB7DBCEAFDCD
col49:   69895DBAC8CAAAB9DACCAEDDCEACCBAE8EDDBCACACAFBBFCF9A8ABBFDBBAFDCEFBBACFFAFACC9A9B
col50:   B98EDCDCC6D8A9AECDBCECFACCAFCFFEDEADCDDEBFEBBFDFDFDBADFDA99CDBDCDDADFDDCDE98A8DE
col51:   7556A9D9AB6CAB979B99D7696CAB9A9ADDBC8ECB5A679B8BB9CBB7C95A768B67EC78ACBBAEC8ACA8
