ROC:     BPix_BpO_SEC5_LYR4_LDR18F_MOD3_ROC0
col00:   856A77768677655AA8A9D76897BAB68A7EC5C8C784A9C57997E78894B977897CB6A6F5854776B386
col01:   7D8792C8A6F997986A796BCDDB9B9B8AAACAB99CAEBB88AAD9CEBDADAA7CBA8A979878AEB85A7794
col02:   748AC94B8C7BB779879AAA9B68C89AAA7DDEDBACCB999CA7989C9C4A85999B83758997AB787AB9A3
col03:   9A48989E9A3888AC8B98ACAC898EA6BA7F996EAE9DA7ACAADB98989A6A5C5F6A7C86B77889A858A6
col04:   4AA7C9988686D8847697BAB8B99886899BCE8CDC78C787AAA6D665CAB797697577BC6C779B778659
col05:   DB9A685C9C7C5EA98C67A8C88BACBBD9AEB8AADA8E9CA98A78AD9F9EBB77AA9C74B5CABA9377879A
col06:   B7A9B79A85C688678C98BCB9EAEA9EE7FB6BBFADAB9BAB38EB7987BAD698B9995779DBAB67935445
col07:   867A77569B5AACFA69AAC8B8AB7879AB9ABEFCAA9854E9FBD9ADBEAA59A9DA6AC8998999B5665697
col08:   6C59A9996BBAA85BAA79A98EA998AABEE7E8D8BD76AB86A7B98A9ACABB6FE75879A85C89A7784A88
col09:   9B577BAA8B6AB74DDAEEADAADB78CBA9AAC8EBAAAB8DAD9B77A98AFBD9EAAC99B88CA45BB6BA8985
col10:   69599888B9866EAE9DEBA5BABBBA9E6EAC8AB8BC97889B88C6AC6C5EBD8EC8BC67A886989C572744
col11:   798A7AA79937678A7DA8689A7988A4CADECCCADBAC9CB8A886B8EA9BD9CBC88C6AA569C887876C73
col12:   E96499A5B5AD866888A5B798A6B9789B77B9CC9CAB9AB96BD8C8AAD99CB5D69C86BB6BB7C6865A98
col13:   2B75567BA7869B7A9E8788DA97B8796BAC6B89A8DAEC9A8C6CACEBDD9D689D48C997964878AA7894
col14:   5599689C54798B98D59A88AC95A88EAA9AAA8AAA9AA8CC98933EAA9EA858CA649DA6CAC7C9658497
col15:   A697678B9A64669C9CD9DB86AABA9B97CD9CB7DBABC97AAABCA9DC85BACA9CBD9A96BA5DA4AB86A5
col16:   B98897AAA4585C676B988CEBAC89BCA986D8CB8D87A997D6BAC79CCBBAC6B5E9BAABB3B98A946777
col17:   8974776A8958787A8BA76AB679CAAA96CACBAC7C8A8AB8CB8C49ADC9B9A31A979795A388A5739D97
col18:   98A5B6B76B4B7968B77AD89A997BB88D4975AD999CB84A7A8B2F7CFB8A94A77CA756579795696A65
col19:   297889C9A89C6CCDD59AA99BB87AA9DBBA988DE99CAC9A9B7AEAEC9BA9F858FB9D9C96C7B836C878
col20:   8684B59557888A6796985A96A889CC9BE8A897F7B9A8AA7BD9889DF887BAB85B6B69C88665A36738
col21:   576C756CC87BCA86A8B9C9A9C75B89AB7A87BA96DBD7AD7DBCAEADDCD8C7A7866BB96D78A79C9862
col22:   A778C88856199C2CAB8A777D9668AEACA69D7B7BA7B9ABA78A8ACDCCD6969966A9A98698AB74A467
col23:   87657954A8848BB7779ACB886B7A7BC7CC97C89BACDC97DC6BC978F9A7987CAD88E6AA5996A85596
col24:   9ABD5698AB99996777776B796A4BA67595D6FC69B7B6ABB799AB878C987CE96B577A977B87768138
col25:   57A8B89AA8C9DAA574C8D8B97B8CA8CAA68899AD8EDAB869988DCA47DA59BDB986A8A95C6499C874
col26:   C8A7899BB8A9768CEBADDA9BAF9ADADDABAA665ADEFBDDD8DFBABCB7BAEEDFC5BDACCBAAA65A9864
col27:   F89BBCCACACD8C7C688BAC7B8AEADCBABECCAD99F89C8DCDCC9ACBCBCADACB9CAA7BAA899789896B
col28:   837B8CAAB9CABBCBDE7A8CDBA99BAD9F9A7BB9CBCCBCF97D999DEDCD9AD89E78E9B9C7A4A4999968
col29:   C79B7AA89AA9E97B7ABDBCC79A88A87DA8B6B9ACCABB9F9DBBBA7CBBABCAEAA5986BA7AAC7C8E966
col30:   996C9CABAACBAA3969C988CC9C6DEC8ACE9A7B9D9FBFBFED7CDDACACCFD87DD7AB8A7F7668A5C843
col31:   7A6AB69BCCBA7BDAACBA7DFCC9CB7ECCEBC9FACBCAB9E9ECBDAB8CACC7A8FA8EE4BCB9CACAC79778
col32:   ACC9BC7BAA986B8BC8FB95EDCAA9ADDBA8BADF7F9DBBDBDFAABAACBA8BB9CB9D8A9CBAB68A9ACAA8
col33:   8A9947B97CA9B697A9B6BFBE88ECEB8DCBBD9F8ECDE8AFFEB76A5BC8BCFFFA9A8CCC79FB78A8AB34
col34:   6ACABABFA99CADBDCCBDF9AEA76CECBDB8BACCC79ABF9BDCDB9EEEDC99CD9BBBCCAC998C67EBAC65
col35:   D66C8D7A78ECDBC9D9E69EAB9CD8DF97EEBDB9DC7CADCCB9EBAECCDEBFEDE87CAB9BB66B9AB8AF75
col36:   7798A7AB7DDA7CACEECABBBAF9BAEBC8BCCFFB8FDCECDB8CBBBBFAC8BA9AEDB9ACCE68C8988998BA
col37:   BCA9C7CA89ACAAC9ABCC9B9BB97CBAABDFDADCBCD9ED9CAEC9FECFD7CBB9DCCCACBBCCAA4CAAABA6
col38:   B9CADEA9C969DA9ABCFC4CCDC59C9BCCEAF9ECDCC7EBCDEBDA8BDCE8AEBADABC7CCBFEAA9AA96B59
col39:   DCA8974BEDCABB89ACBC9DBDD8CBCDBDEAAAFBDECCC9DFCCCCA9FABEDBEABA8DD99B8BDDC9C9CA84
col40:   D87786A8DAB899CBDDFBB97FBCCDFE7DAFCCFBD8BADCAD9A9CAAECBDFC9ABAD9D7D68CFBECA79AC7
col41:   87A69F79D8C9DDCAC9CECCC9BD69AC8C67BBCB8BDCDE7DAD8DBA97B7CB9DA77BBDE5BCADAB89C998
col42:   88A99A9BB978D9B997D6BEE9AC8D7BCBFFFFDB9FBCCCB9FED7DDE8CBDDBDDBCE8A8A9CEBAAA7986F
col43:   F99AB7BA999697A9AA9DFD9ACCAD9BEACBBBE6BDCECEFC8DA7E9BFBECEA9CCC9ACAAF9D98A8869DC
col44:   6A5AAB899CBA89E7ABBCCACCECFAE9C8DEBCECADECCBB77CB9C9DEBFDDABFACAA68C7E7DAB7AA5C7
col45:   997DD89BEAAC8EC99EDCAA9BDE97FDBBBCBC8B78FADAECECDABEACBA9ECBDA7D9AAACC8979CEC985
col46:   648AB7B89DDA898A97ADECCEC9A8BCDDBCEBA9CBC99A78DAFCFD86DACBFBBABA9A9DD9CC99A78875
col47:   7DAB8D89DC8D8DE4A8A98C98A98ACC9CEDADADCBEA9BD8DBD8C7D6DFDABDAB99DBAEE5828BC76A77
col48:   55CD9BBCAA897AC8AAF757DACBDBB9C8C9FC6FBC8FEA9CABBDA89F85BBFAAAD9E99D7846A7A1E988
col49:   469D9EB9C83DBBD9AC9B8DBCADDE9B79EE997C7FBCFBCBEFDDFCB8EAFFAF8CBB9CB8A998A979A5C7
col50:   BC696BBC87B79A68EA9BCDC8C97DDCCC9CABCDDEEA7EB9A8B679FAEBEBBC9BCB8A879AA48D98BCC7
col51:   628485CD867887AB78ACA796C9BABB9EA79B8CCFDC78BCB8889C899B948CDA968266A78B93992675
ROC:     BPix_BpO_SEC5_LYR4_LDR18F_MOD3_ROC1
col00:   9FA68378577AC79697EC68C6696B98B75886A39775667548779D86C979D684698BA9939666693325
col01:   3B87A99A96C86D9A7DA88A9776CA5CC79CD8AA9ACAB686D4AB74B767B9DA7A999877BA5D64E97C69
col02:   A7979BA8A94CBB7668CB7F8A8A6BBBA66E77CEB9DDB7CEAAD5569E9B6A99789779599FA48B788E8A
col03:   7AC8966A6885B7B9AB956DAAA9EC9ACBADB2ADA59A6577889ACD3C77E6A44DB8B78CA756A7858AB8
col04:   97A7949749887C498A86C9978AAC8BA7C9ACB9E9B46BDEDCD39EA5BB5ABCA78FE9F6896AAE568967
col05:   7999A6A768B99896AA68B8B8DDABA99AA88C9CB99BCD768998B6ABA697C7CA93738A694AAA6B67A7
col06:   5937575AD7A984A57AC99A5C85887978A6ABCD97B73B7C6BA8A7D7BBCC5EBA67BCA26C6689B7A765
col07:   6C5A95A4D757999997A8B9A9CFC9F6DCDBDD7A7AC8F9D79CA5EA587BD59ABC9A9886AAA6DB8CA77A
col08:   4665B64875875A967C3EB7A99B99BCB8ABD8CC89BABDDC687BBB578CAC7A99BF6D76CB9B89986647
col09:   5797998955899A6CA89C77A8868899E8BB97DA9AC7B6B8AC979C579BCAA66C899A47A869575B4593
col10:   766998885B8A78764E78799AE9997BCB8C7AA77678CE4C89B6ACA5D9BAC7DA87657AA7A5C9779D65
col11:   95688988788ABBDDAB98B7CBBE8E9DDB496CAABB8B79B9CCBB987FDC898BBA88C87B7789466B4999
col12:   567676B49891BA7786AB99AADA999DA73999B55A9B7BF6B9969479FA6B97B6CDA87A6685649918C9
col13:   C785BA96A3B97D66A459D87B97B8BAA8BC878BDA9A9989A9AF992CCB98EE6C6C7FA86B85F988D9C8
col14:   AB628983757769D48938E9B7AAB85C86BA98A8BC7C779C8A619EAA87BDCA9BB96AA9979C7C394797
col15:   863653A96959565C6AA9C799BBA4F885BB8CC6CA65BA69C7ADADBAE688BBA8A9AB9B6BA855A76757
col16:   7646247F438C86AB8A69DCACB6DD98BBED8A8BCB19939BADB47C8A59C7CE8A86BAB4AB76BB6796A6
col17:   68DA778A9E79E9C8C4785EC6798CDABA8679C988D85BCBB8AE8B879D67A8785BBA5BC69A78788787
col18:   AB865596A4786BAA8AEADAC8CAC8AB4DA9BB7CBAFA9A98F8A59B8ABC88E7BAA95A9B79B6C75A3459
col19:   86ACC93C888AA9C9DAAAC99B9D8ABBB68B67ABB9997A68CD75EA98C78DADEB6BA2B74AB766C74B43
col20:   644A2A67575C9ACBC8AB9B9C8C5E96A968B959B8BEC6BFD25C578CBEA754BECC86668B8A2B298778
col21:   A8A657A9B797A95378B9885DA79847B7ADDAA7A9AC97BCAA7AA79D79646AAC84D64998EAA2779954
col22:   7DB697A75B7D65CD9687B996AA67A4B989BE88C5759AEA66D4CB4AA7CEB85C76D4B648A656839779
col23:   6B241556447B9849346958989C9B89A85BDB5AB696D798C9A38B7B79D98AABA8BC4794897497A62B
col24:   8618987A765957839B88B97BABA9995A6CD98C7ACBCC7B7B69B867BD4C79BD939B96C28777659821
col25:   47769AA6759A7988A98D75A79DCAA7EBCCBD6EE9596897B9BACBB983AA899C647DB4968423B97633
col26:   7AA99AC8796868DB889AB9DB79D89B8C88B8CCD88D9A9AAA9787A9BBDBABBE869AA9A8AABA9965A9
col27:   698888687B6D5974599898DA8695CBE9A8A86ABAB7BD978A77B99BBC699D7A8A4A5DCD7A9BA98979
col28:   787968B799A479778BBAA89D7CEBDCC6BAC65AA8FFCA9EECA8EAB995985AB8DDA8E8D9E9999989CC
col29:   8B66B69DB9C9CA9AAA79AADBFB7A3BAAEEAA87DCE88AA6DA9DDABE7FFAAD8DA6F9886BB7DB86A899
col30:   7C583A8699965B878ABACB8EC9DA7B9AAB9D899DBFC9ECCBA6AC8AB6A7A98CA52D7D8C99A99C5966
col31:   5849ACD47A7D8BFB97A8AD9E898CCAEABAA99C4B9CB9D9CDCDA9A5CBBAE8CDAAA8B79A59BBF97839
col32:   BAC4CECA8B689A96EBBBACDDABF8DBBADCCFACA8DDABDBDAE6BDDCDE9BBEDBFAC9B6ACBCAAA78E84
col33:   8B5BB878998B5B7AE9AADCCD89AAAD78A86CCCC9F8AFDABAB9CB9BFFC7986897ACCD8C9895A9776B
col34:   76983B7776D8CBDB89BA9AA8BAAA8BA9C9ECEDBDABB9EFCAB897CB5BC9AAA4BEAC9AC989ACB49BC8
col35:   6B88A67BD68DA67CD7C96EC5BB9B77ABAACABBBE8CFBDCC9A9AD6FEECFAEACA7BBADB9ACA96989AA
col36:   CB569A949B679876CB8ACBCE9B9CB9D96DC7CBD6CCEDBFAC7AB7BBC9E9BFADB96DA7C9CCB5A8B88A
col37:   768C5676D89CFAF9CBABBFCDFFEBBCBBDCA8C9DD9BDCAC7BD8BDC8C8AADACD8B79ACF79B7BD99A78
col38:   5ABAA9A78BBA7CB79E9C99DCDAE89CFCC9DFBBEACCBDFAC4FBCDFEB9BEEEAAE9DA9ABD615C96AB49
col39:   693C7889CBCBB99998BA7BBA4EFC9D8EC79AABBDA9CD9BEB9F8ABC9ECF989F86A5B8AC77EBB9A7AA
col40:   BAC97C9BB8BCC5BAF87ACDBBCAC7AFABBCBCFBEAED7B8CB5CBAFCBFC7AACFA7E99ECC98958C66CAA
col41:   99D889B9CABACAB89A9AECA997B9FCBD9B9CAEE9ABEC7868B89FCDCD9E3D8CC87AC79E88CBD85C89
col42:   196AEFDA9A774AAA8A6BCC89E9CCCDB9BBDD9BEEFA38CCA97CBB9F77CACDE98BDA84EAABB958C6B7
col43:   7AB6C7F988998CB9FDAEDAEDDBAEBBEDEAB97CAADA9CCEBCDDBBFFCEBD8BA96A869BB9A7CBA9CED6
col44:   B8C987DBA67AD97BCD7DD99EACEE9FCEBB99ECA7E8AA7FBB6E9EFAACF9CCBBBF9998556AD9798AD2
col45:   858A47A85DD56FA6779AD9DC8DBBCB887EFD9B58FFEA7FAA9B78AC97DC979AAABDEAAA5BAA879867
col46:   547B489B8A79E8BABEBC9BBCCA6F9DABCDBBFB9E6DB5ABCDEBAF89B95A88B99DBACDA6ECC5664B78
col47:   63C87B7BBEB56D69B8A5B87E9FACCEAB9E6DADCECEBACEBDAC8EA9FFBDEDB98AB9896FB4B8878896
col48:   5C886BC644C84B9B8BA9DDCFCAE979BACC68DFD9CAB99F69CA89DDD8AB77FBB9E7BBDD9AC8D799CA
col49:   AC7B9B9A568BF8A7A7938BEB7DC9BE9ADBBAACEAFA9FE9CA8FBBEBCB8FBB78CDBBBB7677BBD7AA99
col50:   697A9CE9C889A9DB8DB67A7CC6CFCCEF8ABB9DFDA8EA8FDEDAB7CCCBADCDCB4BC754C999CADA58AA
col51:   78F36676C5328679A92BA889B5A78AD8F6A5B94D2AD84CD95AA836AC77A96D88B98C987778379FF2
ROC:     BPix_BpO_SEC5_LYR4_LDR18F_MOD3_ROC2
col00:   9959689D76445A886577799A9C3A865BCAA9C96ABA27778CA99C6A89A6677D495585694DB8959976
col01:   A3B48A798799969AABBB9A899A8B9EAF8AAABE87BDBDA77ACB6ABA4A77C8CB9D7A467CB88976C994
col02:   8C788A795A1D9BDBCABA89A98ABCA999ECC7CC9CFBBC7ACB9ACABDC976BAAA9787CA68B7BAA76776
col03:   678BBC54A9BAA8B7D9E7D79B5BABA6B8FF7EBAFECA6EA9B785A9AFCEAABBABA9CB699FCBD7589997
col04:   87C9995BB967E8DC98CE6B8A8BBBCC88AAEDCABD8C9DBD7ADBDE97DC9B98FCCEC579DA77667B699A
col05:   A9789A879834EB8CF7BBDB8C769D879A7B9B8DBAD8BB84B5EABA6B7A9CF8A7697787C9A67C3513E5
col06:   83D9BC88847666776CBC7A7CDA5A88988D9E6BAC9A995CAB9D9BFAB9789ACC69A79ABF87BC7C4478
col07:   6AD939455A667AAC9CECACACF9AAEFB8C8A9AD9AAB79D9BD8A8BD9DC96889C7B9767A7997EBA7896
col08:   5A44CA5859596597B88596C5A9994CA8668CBBED8CC59AA7BCBA788B969AABAD7A7DB95948799653
col09:   8877798A889C487DCBBACB8B5A9CA8AB8BB85AA9CD9887CBB68DB7EA88AB78987B59D89AA4ABB894
col10:   95956A98999798C8A8C88D987B8ACA8FEA9BAB9CDCBD77D7ADCD6D7C99D8B877EC99867AD669844B
col11:   976555A789B979BB7799A7A9B8ADA6BDA89E7ABD957BD868DAAA9976B7A983B6988A998399A64595
col12:   6629A87898C7AC7A8D577797BB86A37B6BBDAD7848AAB7647DC7A9C7B56AE97B8686B569C7798777
col13:   3AAA897657EC76B69AA8B8FEA7A997BB8B69ACBA8A9CDA6BA75A6BB7D8BC9A89A642A7AD8558AA86
col14:   92B877A64CC7AAC6A9CB98A8A5B87BA76E9A59B6CC69A4BBAC87C779C97C6F976B7BD6896AA74B4A
col15:   78669778768AA656A8B44776DCB76797F867AB6CFD9AC9B8AE778C9FD9B99BA54C45E96C7C6A9766
col16:   7A7A7A356B6945CA7FC7EB7B97BBE96998989B69AFBC8F8C9EBAADBC6BC5FC6A4CB9A56C69558898
col17:   5A788577663997BB6B88BB79989A96C8A46ED6A78777CBAACA747CBDCC97CB7687D76B726A758A55
col18:   66686C5787E67865B688C9C587B6DD9EA8BDB4D7A99746C9A9AD8A79C6988ABAA986578DBA7877D7
col19:   AB8C667AB8A56A9795B6CCA7757869789969788B7AAE696878BA7B9699A689DB6A89C7A577868985
col20:   A7A65799878A6976766A88A59B57BD57FBA9CC7CD95ACB6B39EBCA8AA68D9A685977E7376A252572
col21:   9687856A669A9AAA68AA3A77B9BC95E999C799CA8CBA7A8ACB94BBDB99A79AC56AB8EC5A8D88A654
col22:   971837478967A6595697888B98B8C8AA69B8D5DA89ED66BA98AAA889AB6BA9ACCA4A9A798A7A8695
col23:   4744A13995A9B99684A6789B86BB9C87689CCAFC4ADC8779CAA7A39B9EA7AC7D7C897488974B4C81
col24:   65646785879477688A98CC758BAB7C79C99CB6CA8A8FB955CB88B8B6B9B99849D6A978487A26A387
col25:   575A5398936D876B5A96B8A5D36AA566779B67A48758BBBA9A77993359DA9589E8D979C3684A29BA
col26:   4A688AC94BD8BF8BA8FCC8A99BCDC6EBEBB695FFABDC77B9ABBAB9B8BCDFACB9BA899898A9879673
col27:   6989598A87A8CC99979B7AFA9B8C5A7A96A987ABCC98D5CA8BDD9CEBBAC6BCA8B96BA888889A77C9
col28:   5885749AA47A9CC77B758B5BA9BB8FE9BADC598BBABA99ECC7BABB8EA75E8FB999BABEA68ABBD6A2
col29:   B878374CA945788A9596989B89ABD59C8A9B89FCA985C9A9B99868E6B8ADC8AD787C79769A897D59
col30:   78A4987CEC588CADF7C7B9DBAAA98977CCBADAC9869DAA9D89B5DB59FCBBEBCAC677878A89DEB9C7
col31:   889DAA65999687A999A8AEDCE77B9EA8AFEBEACA8CC9B798A6DAFDC8A9BAADADC6B875B8AD997886
col32:   A85879CBBC7C575789CBAAFBBEDAADA97ACC797BDB9A9ACEDF8F8D7DEBCECCBD5BCDF7EAA899A9A2
col33:   2689788C85A96776AA9B884AAAB8BAD9BAC87E8BC9BECC9689EBDAAFBD88CC88ABBCC54DC69AC976
col34:   B847ADAB9696AA56CAA4CBBCDAA87D67899B7CCADA9ADAA78CCCAAD8F7AABC9CD9B8BC67888BB79A
col35:   9484A68997B976A8D77BBC79FCE8FB88875D7D9B7AAA859C8A8A9ADACECBA97B6C87C9888BBA997A
col36:   A5AAACB6287A3A9AB8847B6847779B9CDBB9BCBCBEB5E8BB7AE949CD8998A8CA79B789757A5A8646
col37:   4B5678A63A3D4CD87798889A47B9789A9FA88D99A98E89A8B89CBE9CFCBB9769AD89DAAAA98898A7
col38:   88977977788B5A69FE798A9DBEB9D98B9DCCFBB7AECBBCBCAB98AB8CABB9EA6DE8C5B9B98AC89AAA
col39:   69AE55AAAB8A6A9869799AFA9BB99D887F8ABD98BAA7DD7F64C7DB8ADADE99A788ADBAA9A689B875
col40:   7C7A5A9ADA6AAA69CF479DE7C89A8CBABBAC9CBAAB9CBAF98879FEAB98EC9E8CAEBC8B8BD97AA767
col41:   69B575A8C64B897CBCBF3C6D7789DDC98D8A98BCED98DAA6FBA9CDDDBBBDBAB88CB8B78E37A3A367
col42:   C8957A97CAC9BB778A45AA4D9AAACE78B9D98EB9CCBBECADCCAA5FABCBF8E996AC8AAA88D559979A
col43:   B88DBA9988AA756BA8996996ABEA5BB8BBDE59D7BAA87869C6BBE6D8DBADFABF85B8874AA7C89756
col44:   8DD8AA74799569AEAFA7FDAC8AEDCE8BB6ABCBDFD8EB7CADAA599BADCB6C97AEEEC1D88CB788CAA9
col45:   5A2DA89BAC8BC8CCC3ABAA76BB9A9CDD98C8B88CDBB7DA9CBBA8A8DB9FD87597ACB9BC9BBB889749
col46:   7997B99B66CCBB75BEABE699BDBBED8D9B6E9A8DABCBFD7CFDCA9BCAA69A6C9E8667A986937ABAB9
col47:   6B69BE5A776BCB5E7BAB8B7CCAB69E7CCABC8CCFD99DC6B8BAB5B889C99C9B788EBC875BBCB7C626
col48:   876986CC77B98A7BDC9B5CC8B7A6EB7BD9E6ECF88C8D8CC4BB98FA8DD5A59B286AD7BBCEB8888DB7
col49:   746577CB85A7BD9AC9B455F99E6A8AC8A8CB6A989CEA8BC6CCF8AA6997BB699DA9BAAA98564699C3
col50:   99AA677D9DA7A7AB977C99B8ECBCEED78A9A97BBBBD9999ADCBFDC9B88BA89CC9CBAE9B89A888AA5
col51:   7879778847A888664259AB3BA76A99B869C956BAA8C7589ABB6AA36CE83698659954567188A56984
ROC:     BPix_BpO_SEC5_LYR4_LDR18F_MOD3_ROC3
col00:   8398949867477887386684768389557A89779BA793768D9766785752932866755596866987757211
col01:   757C68775946A5AB5894A99A8B877C9AD99775886798BAAB8785B78C896B8CA7946A774A77717477
col02:   585558516725865B79C8669D8859598AA77989A9C7AC89BD89889BBA9B687A87647A488A74959459
col03:   B953667359B4457A63976AAAA79AAA9BC8B8B7796A978CB899AA88E959976996873A9989A27AA748
col04:   877595764858B898984A78A5A9A6A9C9BAAA98E7588768BC697895BB86BA7AD58DC7697955575997
col05:   67925794747875FA78B6478BA3B7C9676D7D6A9A87B9879C7769547C974778987CC7A78787536274
col06:   96A58566977D789B583C99859938BCB6878978C4969756A89B9A86699C957A94596767A775399663
col07:   B9B5B667BA677D789A7885AAA8C895A89C898D4AAAA75BCE8A749C6AB9A8B99CB9A78974494A4758
col08:   6762378698544448846786C985B5B89BBD9A5AA95C678A8AA69796BA7B99D989B83648CA997879A8
col09:   729359738877C9979B9799B8A697657D8DC8B984AA9699AC58A7689B6A989D89488A655476968755
col10:   767667858796B779787A897874C79BAB97976789AB987CBA799A89A8897788E7B68778992679B643
col11:   8778457556548B79A8BB86AA69B9897988769686A7977B5984986B89789B888AB697689AAC698577
col12:   797799B559977B988F6987A9CA9679D96B996CB55A98C65B87786BDA77B59B84779AC987A77B8B66
col13:   7B4A688B576589887AB7778C9C8CAB7C7AA8A89689AA7986B9B3B8ABCB7799876879B6943758885A
col14:   97636A7779663764AA868CACE9CA495AB8899BBA85789A97BBA9AA899AA9B96AA89B767A7C763B62
col15:   56258679897799898979A8998B7B88A9897687F8AAB799CB98A7487B97A459438B3786A4A957B866
col16:   7953A78A55A56E7ACA7997697A876AAA7AD7C89856CA89969D679569C5768B8C9A9CB695AA369997
col17:   147299C868785C6A8677B6A9B9499899BD7BB9C7B9A7ABAB9B6BA78B6A76777A89A7B68366884665
col18:   72877779396738784BB565759879786E9C698598ACBA86AA8738CA788697779977675A3785487366
col19:   68A86A68A79A65A878986C6D7ACC989B4BA9968A6A6BBAAB69C87687C68CB7BB8A79DB897A9966B5
col20:   776773A866BA8493A95899BA87A6A8534879FACB98D748C9BBB97BBB9BBB7A58A598898A638B5974
col21:   338C7854775969A9A7756669B897A88B98B89773B8C6A87B6799CAA7A9AA997A9669A65969A6A898
col22:   9B6376547D4998AB79C98659668796C66BAC78878BAC996A793877A88CC5BA5597A96379A6786565
col23:   A47866529C58489975748A6989B97853BA872A5884D39A797A7669886DA68A7646A86587B4A67777
col24:   531A566877669B4C9778BCBB978AA78BACA98AAC3B7ACA679789999A88BA86AAB687795869AD8767
col25:   A8659879C965B5937AC7A87D88967997A7858CAAC88A6B978BA97488A83997665A995693AB979397
col26:   48BB676A67688B5BA9B9B89DD9BB8C87B969CBA8AABC7847B84B857AEBC7B5C987ABCA67668A7934
col27:   B47B6AAA96B9B888D7887A69B9B9A86B996897BAB9B6ACD5A7BE985B87A87AA59774CABA3878876B
col28:   8B886559A7A97BAD9A8AB9A7ACADAB98A9685B6ACBBAB88A5DE79B9BDDA9CCA7B98C7ABCC9867B5C
col29:   9796A685857488B7C77AAA9BEA99BDEBA9B9BC78D9AECD8ABADCBC6CBC89DC4DBC8889987739C986
col30:   2558A79967775A5888ABA96868AAAADA8997DB7B7AAA9AB488BCBACCACCB8B786ABA87D6686AAB79
col31:   A4698C78ABD9689BA9D9AA6ECFACBB999ACCACD9CDD9AD8BAB97B98DEECAA9B88B678A79A4C88868
col32:   8C36AB5B96E5CAABBDBBA79D99A9C7BD99ACC8CAB67AC8ADACADF6A9DC9CABB8ABABC99C68A77B89
col33:   95799A78AE999469BCA95777CA6A6C7A99A7A9B8D9AB9ABA99BDCB9BADACB8B89C9D7B7B696B8247
col34:   88B964C899898B9B99997889CA99CBBCACADB797BEBE79C99DC7ADACA8AA9BBAC8AA995997677BA8
col35:   C56565AA8A87AAAAADADAFF5BACAEDB7B5A99AAB7CAA9EC8CB99CC7D8ACA9A6A6AAAAA99BCCBB68A
col36:   6C8997798688AACC76B8AB75999AABAC7897B9B8ABB8BBDD38A9AB6DBACBAD88C6AA7AB8A76C8982
col37:   986989D99A9A989BAA958DBBCCBDAA9AD79CADCCDCE5AA99ACC98BD7DAB7AB88A89689A996575696
col38:   89A8D7A78A99AAB8BBA968BAE8E99FA6FBA9BA8EE6D8AC75BDAC7DCA8CBBBDDB88BD699DABB8DA47
col39:   678A76A98C877AABBC97AAADBC89ACCADCB9FCEACABEB8BDAC8F97B99D78BCBA8586AC99B799AA57
col40:   6BADCAD996DA98ABBBA9B5B9BACABABBAD9ADD9A6BA9BC97A8BFDAF8BD8E8DAD6DC699AC9A778758
col41:   BCC7C7B88ADBCA9BAAAACBCDAD7EBCB9DBDAD797EABAA9BA9AC98B77CB9CC85AC9EBC787997DCBB8
col42:   8B89A79874A8997F9ECBBAA8BA9D8BC9AA98E88A999BAB9BBBCC9DDB988ED7CB9999AA7989864857
col43:   BA988C94C9898E9A796E999BBCFC89AEADADBCBDDABDCA8B9CCAE97ACA8BDA7BACE9EB78C6979B89
col44:   92689648B87998C97BCA78CCC68CBDDBD9C9EAB9D8DBBDCC9DCC8B8DF6ACB6B86C7A7B696B69ABBE
col45:   5A98AAAC89A757ABE9A89A9DB9AA9AABAEB98CC9BAEA9ABBC9ADABABBDB7A8AAA887CD78AB777BB9
col46:   978B89B6C997EEACBEBB98B95DCBFEAA9BAEED8B9B976AED89BBACCDBB9DFEAA6AB8A9A7989C97A9
col47:   C46BC7C9A9C93ADCB8C9BBB9D87BFFADBB9DC7F69CBCAAEAB89BBBCDDB99DCA588B9C8C86AB7EA77
col48:   BB8899B57ACA9BA9CBF9AD9ADCB4BC99AC8DFD9CA8CB7ABCBBCDDA7AAAD9ADC9A6A79AAE69C3AAAC
col49:   68DD89BA79C8A987B9CABDBBA8FABD9A99C9A9CC79E9EB6BBAA9CCBACAFEBAAACBDA97A8A78767A9
col50:   8B6886BC98AD7B9AEB69DC6B8CDBCAF88DC8CDAB99AC98CCBA9E9BDBEBAA8C995CB88A78999996C4
col51:   7519B69649634897376589A9C78799DA6679D8BB8678A85C9BBF8B9BA5D7C76D6897888983998867
ROC:     BPix_BpO_SEC5_LYR4_LDR18F_MOD3_ROC4
col00:   9666B63985A754668AB9A88A95B66864BCAA7C556AA69A7958685F77AA986BB6B7947584A3A75585
col01:   4376763C86A89278BAAC8964CDA699C6888C87C893C2A896BB7C48CC889B8968B7B499D9BB797A47
col02:   7A488744849B7C796CB6C799A47BCC98B957EA98BD5D6799889D8B9AD5AB748CACB5A84AA6598734
col03:   48A6D995A8756867B57C9A9A9A7D8999DB9D8BB9CABA7D789967729A99A9B658AD19A8D675B76584
col04:   6775C6887785AA9999B898CB85C87997ECACE4B97D9775C8899B7C678CAAA7D5A779597567B45996
col05:   593B786879BA29898668658A8CC7568D4678E95B9997F4AD6B9B879A8B98DABD586767DBA826BC88
col06:   9696387946757D677A87BCC8A998BAA8AD89798B5C9B1B98DBB498C6B9BC989BB8C56989EB987586
col07:   599998B77B887376BA989958899AE5A89B7C9A6EA63A8DDD968AB5C99AA4AD58696A69C7586C7991
col08:   A7657667765A7698C6A9975B8678BB66BAAA7974AA899CD9569C98868BAA987C97CA76738B4A6893
col09:   CC59767A98676C8889559A779C6ACA7A6D7DB98FDA9C97BA5CC957AAC9A999DB7A6BC46B8A497A5C
col10:   87988A87B568A87A9C9A9AD88ABB9CAAA8C99BC89CA9D6BC9AA8CAAC9CDAB8977678A97846AB7752
col11:   8677997825D78978B996A8A7769BDA5A589DB5A89888D9AC47A99BCAA8A6B98ABAA7C8566565A8A9
col12:   579AA796CCA67489679998777B7A9BB7DACD9BA75B5C78ABABCBBBB9BA865ABA87986A88A99E7945
col13:   6A5B985AA8D997A9E6A98EAA7D469A8B8A9598CCA9CB97AB899ABAC9AC8D7A7CBA7ACB789A686936
col14:   567AD9B8B95685BE6CA8D2A754A8ACCCFAAC86976ABBC986AB99AADBEB9C768999AAC5A886667949
col15:   68867D98776677988AB69A58589C7AAA8C9AFC7BBBB68A6ABA8CC88B9A3B97AB7DDB45999B688769
col16:   5B58A7A58898BB6B79A88A67689C899B9BDC99B97B98B989DD97B9A697A899B6C6978BA97CA599B1
col17:   656B666A58466C796CF9959A9A886C996A5DC8AA98CAAC9BCAADD8A88979AB97F9AC693848699366
col18:   965695B68B9B86A98955A9C9B8DBBAE9EBB98C9BDBBC8CABD795B6BABA95A79967699B5AA5737584
col19:   38B7A9468D7B498A996599A8C8F9A97C7B8BAE9B69ACCBDA5DC8B796B99B9765896878889A8A9996
col20:   A88ABBCB397796C9B88963B783B98AA87FCBAABCAAB8A7BCC7A79DB9CB73A76476A678977B693973
col21:   B585A7778E8A855B99A9B85BA99ADBB9A7A9C7CCBBB8BAADC68869AB8A99AABB9366974AF7A315C4
col22:   9A689838AAA7C996A8A89789DC84B9BABABC9DB6798B889CD9778A7AA97AA868BD99CA76B994986D
col23:   492497469979AB76D9899498BEE97C6BB7BABAAC5E99A78E9CC89AD8378BB7A9858AC6A26A999796
col24:   899789A3896889AB9B4C7BE77BBADBAD867BAB58BBB7DBDCCCE899A7B9B7F9AB93DA4A6B66986464
col25:   96A8A57949C77857B8BACC88CA968A9CEEB85CBEBD9EAABE68C7DCDA89BD8C5CC88B665C75665886
col26:   DBA98C8BC8A9D99A59CBDCAEACAEBAB89EECB8B9EC9D99BAC98BCDABCCB89EA685E9ED9BA998A9B8
col27:   B8A99677ABD7BAB9677995A8BF7E799439DCDBAAADC9BCCAB7DCA9DEBCD79BCACB78D8789774AB7B
col28:   D88AAEDCD7799D73AA69EBB99F9D9BACCDEA9FBFF98CA8F7AA68CC9BCCCBDABEABA69DF896BA2AE3
col29:   A9BB7A94966B9B99AB9DB8BAC9BABA88A99BB9CDB79DBBCDAB8AABAEC8D9EB6BC65DA59AA87C6B68
col30:   C89ABA8BBCCB896AA79CAAEDEBB7A7CAADC9DABBB8ECADDA9AFD9CEFC98CD97A8C7A9C6A9A4B8C9B
col31:   AA89AB93BAAFA9C9BCCBA9D8AED8FFDBBA99CEECF9DEAB8BBCF8DC8ACBC9A8BDD89BA8CD4A659796
col32:   97CDA9BEC98A9B7C9CBCBCBBBD7BBBABB86C879BDBBFDCABCBAFCDBEAA8BD79FB9EDA9D7B8B8B9B5
col33:   889CBBA997BF8BBE99BC79BBFBCBBCFCD9DAFCBCAF9DCCBEDB89D98DCCD9A9ABB69CC68B7B979CAA
col34:   A9D5A89AD9DACBBBBED9FB8BBB8FFEDD89BDFCFC8AACB5FBCECDECDCBDCBBBF9B9E875899BAD9A79
col35:   8B9A8AB89ACDACB8BFFFEBDCCFD9CEBCBB8BFCA8BAEF9EADAEBC7C7CCB9EFECEBEB8BDA57D99A5AA
col36:   B7A9A9898BBCDBABCD9BBDCCA89BCBBB4FA8CDAEEBABB6AADBD9BCACBBA8DABB9CDBDD9B7289B9BB
col37:   DA89A8ADDCAE98BADEBBDBB9B9FDCEFE9FFD7E7BBEBDAAAEA9CEABDCC9AFDC9BDDBCBB8FACBCC8DA
col38:   FDBAB8BAACDDCCECBFDABDDBDEACCEC9F9FDC9CBCEBEEFDBABEEDDCFFACC99E9CABAA7E989BDB9B9
col39:   8888289E99CD9DD5DE8BDBABBBA8BEEDCCE9EA7FBDBBC879D9EACA8CBCACBEBCACCCD8BAC59F8866
col40:   4B8DCFC899B8FCCDAEC9CEC9CECCCBACCFEEBDECFA9ECDECCECBBBFCF9DEC75AB9CD98A7ABAC97D8
col41:   99ADBAC9CEACCD8DADACBB9CFAB9CBFDDBBDD9BD9AECBBCAEBCBBBFFCDCDCEBFCAAAE9C38D89B87C
col42:   9AB9EADD7E99F8987EBADCCECEBFBD8EBCB8EE7BCA9FDBCDBBBCC8FCFCCD9EBC9DFC9AAB62AAA8B9
col43:   ACDEAA9ADAFCB9A7ACCCAC9D99ABCCBBF87FBCCCFC8BB8BFECFABFEBCDA7AEA9BFACDB77D9A999B8
col44:   98BB8ED999B4A85ADCE9CC89CBCFEEA9FCCE9CCBECBDA6EFFEBCEFFFA9ACE99FBAD8CCB8DAA79CC6
col45:   CADBC9E9AADB8F7CDDCB9F5BABFFFEFFFDFBCDD9DCDCA5FBCBEADB9DFCBCA989BCD9DB5EF6A7D9DB
col46:   CD99DDE8DABB8CDDC9DCCACBFABCEDFFBBFCCB9CBAADEEFABDCACC9BBCABCCAA9DB7C79A9A6A8AAB
col47:   6B859A6B597ACCC6B8ACBBCBBCCFCAEC7DEECCBADDDDDBABCD9EBFCDABBABD88D8986BC8B6C6B777
col48:   DA6DBCA9DBD9AD89AD9DAACCECEAFAFDCCBACCC7CBFECCDDADBAFCDCCDDADE89AFABFCA7BAADAC5C
col49:   C9BD98DEB7D96A99BDEDAADBDE95BCADCCD9DBBBC5ABDCDCDDEBEFAAAFDD79DADF7BB979BB989CA7
col50:   89A9AADC978AEDACEBC9CDBDACCCBDDEBDABDDCCCDEFCCBBBBEACCBBFFCA9BC8DDCA9ACBB7D68BA9
col51:   88B99C79998657CA9BB9886DA9C6C7ADA7B8BA6DFBAAABA9ABB87ABB89B97D6987BCA8A98B84A5AC
ROC:     BPix_BpO_SEC5_LYR4_LDR18F_MOD3_ROC5
col00:   8121532795777537851677989A6999596A27B33D665B6565A77748A779A9674B5AA8477476835861
col01:   488748A44725765723AABAA7E98797A388A87B89A979C6A6897A989ABAB999AB7A7B7A4B76876558
col02:   44586A79BBA8968446EBA67A686E78A96DACAB96B8C9979877B97B97CA99D6A958A7868548884939
col03:   6887A569C9397638CA959CA99DA6A6968AA9C88B597AABC969C9A898B6B5577B9B8AC6687A77A859
col04:   3964694767998775AAA9ABA837BDB8A9C968CA57885BADCBC9B99D96B8B4D38B5756A57BB155A993
col05:   85784A7AA688B3855898B8AC99BA86B6C7C6899A5CBC4D6AC968B57DBC8B9AA9A67B75B677832399
col06:   3147A945A66E887BC88B95777B7795749ABA7CB8ABA77C8B7687948C886CACA7B9A97768D868756A
col07:   657B5A8815C7A99B5A987BAE8A7B99A794D87EAE84D8B8B9CBB669B6D79BCCBA6A69759AB3BCD699
col08:   B97569878979768A787C6A5B94779A688979A888D96C7868A82AB59AC7CAB969CDB89898995A9337
col09:   7B4B6767884778667A959C977EA95CBAB9B99A988A558A99A796994AF1BA8A9B6999C8875E9B9768
col10:   A98889497AA6AA79776788BC8F9C6ACC8BB8C876AA8C9688A8B99BA699E81A645A267B8968A8A895
col11:   49478388934657B9A7939D7BAE8D6759A86CADA8778A8F99A9A9BC7C659B666B6C58B63896855936
col12:   85589395889578DB977A95ACB8ABA8BB99A98AA95BA9AB5DBC99B57BA5E893764EB79A346B884888
col13:   76A6B2998987BA5579696977D8A7AB9CBA8C9BEA7B88CBCA4AA8DCBAE88979C54B796B89953A766A
col14:   45D7AB697B88B77977D8CCD8CFA98A76797C9ABB9CE999A6C8C8BB7BDA7A57ACA86B7D86A55A2898
col15:   85297568D56657BCABD9498CBBB6A9FCC66886BBA98A9D757CA85A9C879C667C7A88A97186973771
col16:   9594A76846CA7689B9BABBACA76D88AAB99E9DAABB9AB9B8CBDA995CABB9AB8E786C5BC7C8A88A95
col17:   AB78687969B9B7928BB6AA995DBA89B7967BDAB9BE9A9F65B99CA5D9B8788887687A67CA95B46559
col18:   74666754988A668895B97B879A997BA99C9AA88C9BC7E7B9EC996B8C8CABAA77B74799AAA4389778
col19:   B95847BBB96A599B8587B79BBECC89D8CAA8799DBB9699C98EAD988A79DB89999A6B83C494796587
col20:   7797A98FB74BB7C8B8B3688B7B78EA76DB9BB7CB6DB8B987CC187AAD786889A8799A6A988998B8C6
col21:   8779781985A8886A69BB7798DAC9BCF87B89A9EB87DA9C99CB68888987B877689C897A866837467B
col22:   814991768AA8896BD799AA95BD9A6C8CB9BC79D888B97FAB9898C976596BC9B6CBCD9EA898A8A999
col23:   59494C477A8BAA95A8C63A7998B6BB667BA578998494AC989B9D987AB7B7CBC99979B674BB6C5868
col24:   66AAB92AA9569D58B9BACCB989EA993C99A896CC8A6B787BBAB97B998D98B7AB5A85B97995364264
col25:   7B599DABA7B7899C7AA68979BA6CCCB4DA8BCBADACEACDABCDD9AAD8E9BCA98B9698BB8CA9B85B86
col26:   AB85AD888A8B69B9AC87C9FBC76C9CAD9EB89BFBA6EDECD8C9BEA99878AAD9BDBBCABA97969A3A98
col27:   A6965789898B8BABAA89C5D987B8A8E7ABE9C89CFDAAA9CAB9C7CBA8BCB5DB8B899ACC7868A65758
col28:   978B5AC7C6E79BB8BAEBCFDBB9AFB999B7CF9D98B899EF9DACA8879AE7AABFDBE68A9DC878769665
col29:   58747795BB77A89BCBCCA8BAB7FAFDAD9AACDC9AACF6CEACBD9778BC8ECD79BABC88AD89A2AB8854
col30:   8797AB98C59798EA89BBCC979CDCB9ADADDEDAACABEB9DD9C8AA2CCDBC969C6ACD8D89ACB98A989B
col31:   9769BBA5BA467BCA988ADB7ABDBCD7AAECFFAFECECBCDD998CFFB799E99CDC8BCAB68BB8B992C999
col32:   B6AA88CAA6BAE9DE78EC7BAABBADC7DDC8BDAC79C9DA58F69FC9BC9CDC8DA9CCDA9B899D9989684C
col33:   D28ABDAE959AFB889BCB89ACAAAEBAACFEDC99CF9B9D8B9CCC9FBBD8FCDA89B99C949BC88A957B6A
col34:   A59B79BC98BCBBAAAAEE9AAEBD7FAEFDFEAC8EBADABBBAA9CE9EB99AD9BFABBCBB98AB699BCA8CA8
col35:   77CC94ACA7A787C8CCBEABBBFDEEFCDADEDCAABBADC9FBCBC9CAAA9ACADCEACEDCACCA757CD996CB
col36:   AA5689A7A5BB89CAB8C8D6D7C9E8FCBDBB7DB9ADEDCFBDBBCBAECA8E8CCB84C8897BBCD7B788768A
col37:   D779A78AACACAF7AABEBCBC9BBFCA5DDBFCDBFFBF5F8FCEBCDBF9BDEBB9D8BBC8DADBC8AB2999C9A
col38:   AD8BC7CAC7BABA9CACBF9AACAFEDFAEAEFBACCEDDBEBBDBBEDDD78BFC9BABFD5AFEDB7CBB797C6BC
col39:   BA89D984C9BBBE56B9DACBCBB99EA99BCE9ADDEEBFCBD9DEBCCCBAA988CBDEA9A6BEBF9499D8C847
col40:   9A8B9A7D8B5ACB9EAE9FFEAEEBE9ACBC9F9D9D89EBBBAECBCEEB9DEF89B9AC9A7CEABC9A69BB7989
col41:   B87C69ABAA89C79C8CDEACBF9A88CAFBFDCACEBFDFCBB6A9DDC8CBCFA69ACFCAD9C98AAB89A7A9F5
col42:   897A87A69ABCD9CD9B99F7E9B8ADCDCFC7DBAEBADABBECDBBAC9D88CABFC9BCDCBABCB8A67597968
col43:   D3BC58A397EBAA89BCABBBCFFDDDDFACADDCEFBBEBBCCDBCECABBCBBEEDECBBF8E7C9AD9E7BCBEDA
col44:   A9B8AF9CB7CDDDB8CBBD9BE9CBDBB9CBEBACAEA8DBFFEECBCB9CDAEB8D6A8CBEABCA86ABBAABAF98
col45:   7946DDC97EB8AB99B5BACAEFBBFBC6CACBDF9E9A7BBAB9FB8AACADEEDAEBBBCAC9C9B89C997B79C9
col46:   A99648EAB8CB9C9DEBAACAD9AEEAF99CBAAFDEAAEBCCFABBEDB9DADDF98BF9AADCAA8A9CB8BCA879
col47:   79686A999D89DBBADCAFB7DBCEEC9DEDFC9DAAFEFC79DFADAEAAD98CB99ADFBBADACFAEA9AAA8799
col48:   B6788899C88BABAE7CAFAACBBBFACB9DBEFCF9FED8DCC8ECD9E68CBC8F9CABCD9ACFCCACEAB8CC88
col49:   B8A997C846A8BB9C4B9DEBDCDDCCACDBBDCAF9EFDBBECBDDEFBACFEDEFDDBCBBD9CD9CBB89C998E9
col50:   6C869596CCAD7ADF5FCCCBFBE9ECB7CECDCEDEAABFBC9AA8DEEC9DABBEEA9FDABEECB7C95BBBC853
col51:   986A894998BD8795A7D6C8998AC9A6CBBFD8BB9BA8BD7CE7A7BBBB8CE89B797C97BC87AA9789A49A
ROC:     BPix_BpO_SEC5_LYR4_LDR18F_MOD3_ROC6
col00:   674753768957A699B8695998A7A7DA877B4CA786A98A6B8B978A9979B987B6559A758869972BA767
col01:   3575636454678267788B77988D9CB8B5967799A7AC7ABAC2677CAE8648B9776B64A6688755685973
col02:   637665948999C68996BAB75A7B9B9998BDD966CCB99AD799998B6BCDEC9DCF6C845BF76A66A985B9
col03:   A634499B768E76A4AF7C9BDD9798B6BD99C97AAEDAB88A8ACD7AACCB7AA6847948928624A6886958
col04:   1348C5AB9477689B78B788AA889CABB89AADCA9AAA8C5876BDAB7CC7AAC99DA96EB656768B8786B7
col05:   959666975686ABB7B997559787A88AA87CB746BB5575AC6ACBA898BBBDA77AA7667975653667CE24
col06:   992686887A586C769EAAA978A996B697BD9A58AA7B7969A8BACB99A67958B9AAB9A667548677A856
col07:   153957A487776A58886D89698BCCBCAEA879C587B999CA6DFB97DB89AEBA7C86A877867348595631
col08:   8955667A96979687A98C778C97C688587ACDCAF97CA9EAD8BB9CAB9A9BAAB7C866AA9A5A36557968
col09:   7656884857786757987696B99988B97AA86A9AAAABB798AD6D99C61A77CA6D5BAD377B688B8A76A3
col10:   6633537C87B6995BC8AB778ADAFAAB8D75B66C65E9EB99BCB3BBD778BCB79B79357B87AA8A65A9D6
col11:   878676563937A988D6B793E8A8BBC8A2BA86A769B87A8CBC8ED8B7BCC65D695CD89795B977C97824
col12:   699968578798A8399595C9928A9989BD8B59639C8BBD69B8798A88B7FD98A759A6A8886A99589747
col13:   9A8667795BB768687457BA8A997ABD5BC6C9BDC7BA9CE9C98BDD79C995B6A9ACA987ACA848B87957
col14:   568A8474CB8988658C67CDA965B7C8AAADFA9D98AA9B8A979CCBC57F6DBAA68ABAB8B469A6A81874
col15:   6777A59478A8767A8B65586899B99A9AB9AA5B7BBBB8DBCB6B6A9AAC7AA79D975CC79B796948B79A
col16:   5DA58654A78B8A96B9A9A8A6B9D8CC588B779B758BCBA98EC6AEC98B9B9CB8D988A8694AB9669D9B
col17:   18277A4B46A67898C69ADA7A489548F7999A49596988B7A7AA6D9BA6DBDC9A55C8C675892B867659
col18:   5835755757857499CAA6D9DAABA8856D897E9A99BA9B7AD49B9DE98C9CBB89B6CB59D6887779469A
col19:   678777677A69486B687797B68689BD68A8A87DAA869C9B9E7A648BABA7995ACB747C73AC3A197575
col20:   7665265556877AAB9A5AB9AB687CA9AA9DA8469B8D8A97889CC9B77659CC88987A57A88888259596
col21:   9549976B9B77AC8B399BAA3A9B7A93BB68CDB879B9876CE777C89679A69D687AB76ACB497A7886A5
col22:   89A2778974A98895968BA5C6CAC28884D8BBBAC99C7BA887ADCC746A98586AABA79CA5C5C66995B5
col23:   A8569A378A5636C978678ACC976B99ACDA667C6B6A7BA9AD97D68B57A6AB687CD6A88787527B6871
col24:   528265938A6A769A75C888A9C6B7BACB9DB679B679A7E9F5A9A565B39CA8A789878A485699E77475
col25:   61869849884C8AAA499989A6A7D8AD8A8CF98B689B95E8ECECBBBC9BB67985B796CBA99961AA8676
col26:   92B49C7A9798CA8DCACB9D98BA6B79FB9BBF9C8DCEACBCCBCABBB8DCC6A9BD7A6CB9DE79778657AB
col27:   A78979949A5AA8ABDAA9E69CCEFBBACB9997AA9E9CA9A8699BA87ABC9AC78CB4879ACA66A7A74BC2
col28:   C58B78BBA6BBD69ABB4ABEA7A8DBCEB887BAFAC9BFCCBCCAE7CCBCDA7B8ADC8DBC99EBB574A39494
col29:   96568799988A688B87AACCC678D9968C76B9DCBC7C9986F8CCA9A89BCACBBA8BBB9E7BD67878A9B7
col30:   B89856587976CC7E9CD8A99D8D88BDF99C8FCDD9FADAACBC9CBBDDA7DFADDD89E597865C67648686
col31:   777D7AE7A79FE7D45B8BC9BBCEAF9BCD8B7ABEA7EABDDDCA8ADDF8BB8B9697C69B9D8A87A6A67879
col32:   9A93A6854A8BD9B5B9BBACBAF9CFDD8E9CACCFCB9BC7EFCABAEBDBFFD766ACCCD87AD9A399A9C577
col33:   7A8689AB78B8B6AAADCBB8BCDDCADB99CCF8F3EFE7CBAF67ABAFABB9DFBACCCCBC69C5DBD876BA76
col34:   F68AA89AC9B9E787BAE8B95D8A6D7DEE9D9CBC6F6BDCADDAC9CCDDAD8A9A86CCD9699AABC76ADC89
col35:   A4B6BB9D867A9C87AB98B8CC9ED9C8AD8E8DEA6D9DBA7CABCFD8EE9BAA9AABC8976A799A7DB56C68
col36:   6C8878C8A7858BACF9C8B9BEBBBAF5CFAE9D97CADE9BD8CA9BB9BAFDBD6EBEAF1788D9AD8B977E9B
col37:   9A68A6938778EB9AACCA9F9AFBCFBDBBDADBD7ABADA9A7E9A9CDBAB98B9DC9CAC76C6B89DAA97655
col38:   C6DC8895CA9DAAAB9CADDBEEFDCCCCB9BE7BAC98BBBEFABFCC9ECFA9AECACDBBCEAB897DD99C8EAA
col39:   98A6999C8898AE9B88CABCBBAE99ECAA9C9CB8F5AE6DB9CDCA9E9FBCDAE99CB9667ABBD8DCBADAD6
col40:   6A89D67CAA7E994CB9C6BBE6E6FCECCEC99AB9ACFBA9E5989ABAB9B9AC8AEDAADCBABE7A9A97ACD6
col41:   7A599B697767987AA788CE9D7B78F9DEED89B97DDB9CBFDDFDAF5989C9D7B9CFD9C6DA8E8C7CBA8B
col42:   9995BF3A978AAAB7A9ABB8FCB9DCABBFDBDC9BCAABED98BCA9FED8ACCFBCE9A3BA5BC7A7B87855EC
col43:   59B9754995EAA7BD8EAC9EACEACFDDFC9A6AAD6ABA8DBAECABBBBBBEFC9A98C8CAAAE88A93FAA895
col44:   A7797BCEAA88BA7BCCCBCCBBCDABADCDFDEBCCDFADAC99ECBDDD98E7CC8EC9D9D9EAACFA9D6E7A4D
col45:   877A99ABADAA97997878BDCBCB8D8D9BCFCEDCBC9BEDA8B979E8FDCFC8E9ACB848DAF9DCC79A77C8
col46:   98B8B879CC66CABBBBDC8C8FFA8CA799AABBC9CC889ADC7CBAED89DBDCD9CBB9497BA8996796A996
col47:   6AB95BADAA59AAA5A9C7AB979ADF7FC9D8BD8DDEB9BC98EA7B9AABB8CCBFCAC6D77A9BBA67B9B8B3
col48:   47A898DA7788DECABADBCC99A8BFA6AEACCFBAEB9C7CBABFECD896CCCDAAC8959CDB7A9BAB88AA4B
col49:   789795799A8BB6538B7BCA7BC98A9DEFFABEAF798CACB9A9D99CAA895EE9CB6DB99F9ACA97B57A79
col50:   5857C6A88A869B96EACBCC8DAD9A99EFE9A7BEB9BFCABDDB9D97EF8AB9D99EF99A86DDC7C89DBB48
col51:   58638679942639A7C679B3494A5AA9999EAAB73A6A87BB79A6B98B983B79A596B775999884A7D743
ROC:     BPix_BpO_SEC5_LYR4_LDR18F_MOD3_ROC7
col00:   4C735A684367989B656CB76988AAB7699A6A787995696A6768D89D5947D7BB66368967A4B6586955
col01:   47A6C77657B9C966C89A9B978888BC8BBA78B7957A986ABCBAC8CC95DE8AE757BADB9ACB4B465AC9
col02:   A89B65883A3A57A85D6CD8D9A6988AA3AA867BADB38792979CCCA8DA8AC68AAA8D99789A657AB688
col03:   44886787B6D8BA67A89A5A76A89E58A778969A9A999A7A999AB8BDACAB68B8D839BA6B9676C75AD8
col04:   899AA6A8BB7785C9AD7A63C8C887BC9AD4B9B7B96FADACC9CDCBDC78B898CBAA978ABA64AB67A779
col05:   6554978875485A868B4958B6697A9B999A8CAD9C7886B8CC9B599B46BD69AC6B6869586A46898B78
col06:   7767758C779295B9696A8499CA6BDC9B8CD79A8F89CB9AAA9B6B768946DDACA4A88775B7A858A954
col07:   676948777A89B766B898EA78C895CAAD9C8A9AECB69B4E97BC9DB869ECBBB6AB7787DCC496765A98
col08:   66699669186C46498BBB6D9569888B9CAC6A7B879CDA8786A87C8A86BD99B98A9CAA9788559C48A8
col09:   55797668B95979878AD9BBA8EC69B86A8E79AA459ADCA84A999A98CBCAD88ADDABBC76A9C5A99857
col10:   3697639A695A7389ABABA878A57999E8A6B9F6A9999DC8DC6697C8A75C9CA9A678A7EB3899889A87
col11:   A989BC4837AAA8499B7A799976ECAE8AB7AC9967AA787B9AB69977CB7ACEA7B84B78CA49A99A5A64
col12:   88956845B7379A867BB85ABB999E7C88BCCAABBB8B97D8B7AACADCA99C86C895875CDDAAA87A9879
col13:   7976897998E87A9C79CEB8B99B9677CBC89B99CA99AA8B9A8C9B49A9BCB78A967DA79A89C96C9965
col14:   767388787AD28AB69898BAAA88B77A87E97AFD98DCEBD8DAC7ABAC8AC8BBE9B79A64799A939A9978
col15:   88AA679AA25B98B79C869998649CA8AB69BBBE9A7BBBAC9BAB8579B78DED588A72768699CC84A68B
col16:   7B97A868776897CAAA87DCA5E8C9ACD5D69A9B9BDE7B6ECDD9AA9ABBABAADC7AA9B7897AB8998667
col17:   8787AB56C6A96AA7998597A8CA86C868A96CBD9C767EA97DDD8A6BC8DA8BAAA8887795989529B865
col18:   688295788C9B789C9979A59AADC4A97BABAAACE9ACC9B5BFA9E77AC9B99B996C89657648A9799666
col19:   868C89A84A7B9B99A8A9A98B76C79D88C8DECAC997B6CD8A9EBA8BCABDA8C5989BA89777B7B55962
col20:   6859875489D5DA98B8C8A68A9A979A9EA69D97CB7CBBE979CA57A8CD799DC9ACA8A9A9A89999A658
col21:   A7AB94A9858BB789B7A936878B7C9C996879AE8BBDADB8A9CCA8A1B8BD8B897EAA884BA9B97465AB
col22:   9A4898787BB57AC867AC987ABAB879BAAACC8A9B866B9946859BA78877AA689BA7A99A9AEB968757
col23:   9A9B97B767378858C78AB8859CBA6B6AC667CBB7BABD69C8D9AAA795968569DB6CA989B8999A8A69
col24:   56988678A9A88B7C859B5B96D9DCC8A6889BDD76A99BB6C3BAC66B8C9BAB77AAA8797AB96746B596
col25:   A69A76999A59DAEBB9C8B8B9B9A899AAB4C69ACAAAAAA86DAECEACA9D989B997DD687AA67B98996A
col26:   A88E7CBA9D698DC69ABDE698A89BCDA9DB9A9A9EE9BB9BBABFD8ED699897AB89FB79AB9877B67D97
col27:   9BB9467875B88BAEBB58A8D9DB8789888A9D9BC9C8DC5789A96F99B69BA9D89BBA9B99A5C6B7BC8B
col28:   C998B7688C8BAA9DBEDF78BBACAD8CE79BD9EEDA7A9CDFBECC9CEDEECAD88C8BC89AC6CA8CBCCC99
col29:   AC5B968A9868997ADCC579B9C8DB9A89DAE8ADADB9BCCBA9BA9ABAADB9799B79C88AC9DAAC99877C
col30:   9886BA78A56ACAABCB676D69EBC6AAEABDECD7BCB9A69BA9AECAAC9EBA379BCE986DB8A4BBBB8BEA
col31:   B5BAAB7A88B899AAAD899ACBC9EECFBC9D9BDDB79DD6BFBE6BCDBDEBDDBBA86ADAC8B9BC98A889CB
col32:   78BC8AAC8CB6CBCA6DBD99ACECCDEBCCEDCAE9899D9DDDCDDBF97B99ADA8DD9A9BD89EB98AC6CA9B
col33:   87A599A9B58BFFBA7A888C9AB9ECCB87DFC99BB9CC7CAB89D8CABCA4D8BBAAACD8A88ACBA87A9CA7
col34:   AAE9AD9BBBCBAABB7ABA9A8CBBBEAADCFCB8AEDADFDECDDCEEDD8ADB8DF9EEAD8DAAEAB7DDC687BC
col35:   9BB9885BDF8889AAA97ECABCECDCC7BBFD9CEF6AFCCCDC87DAAFD9EE8EECBB7CCCBACC6C99CA8BAB
col36:   AA8A598A89BBB999BA9BCA9CAABDCBAFBBFA9C9BCDB9DAB88FADDEAACBDB9C98ABAAC8ACBCCC9ACA
col37:   BAACBABCE989BAC9BDACA9A9D7AAAB59BCABEC8CCBCBDABB9CCCDDE8FC5CC8BA98ABCCDA7C8ACB8B
col38:   8EB6E9C9DCAAADAB5ABCBAAD7FCBDCDCF8F9DAAECEDCCBCE7CCDCEDA89BE8B78DE9D9A8B9CC8BF75
col39:   98AA79BB8ACCB7CC988AB79AA8AEDDDDC6BDBEFDA9FCB698ACCCCFCC9EFF89BBAA99A8BAA8DCAD8A
col40:   EA9B49DAC8CAD9ADCBAD97CBBCDDDEABDDFEDADC7ECF8FDAFEBBEDDB9BA99DDEC9C9DC6ABC896E4B
col41:   DABCCBCABADA5DC9CAA8DAE9A9CFBB9DCCCCED9ADBC8DAFCDEAD9EDEFCBC9DDCD8DAED9AD9978979
col42:   C9DABDCBA8BBA8A9AA9DCD9D9AEFDEBCCFAADCCCDBFBDDDFCAEF9AEAACCBCFB9AD9BCAB8FD9CA7BD
col43:   896A9B9F788B89AAECBBBCECEABFADC8FAFDBEBDCEAEAADCEABEFCFCDBDFCDBB5A9EB9BDDB8EFDC9
col44:   CEBC8C7C8EBC8BCDABAABE6AFD8ADCEFFF8FEAFD9CACE9EEB9EEBCBCCCBCBEEBAECBA959897F9BD8
col45:   6CBABE8C8DBADA88DBC9EFEDADCEDFECB8BDCADBE9D8CCADCECBFFCCC9CD7DFE89EFCCB888891CA7
col46:   FB9BBAA9CCD57BCBAA9DECFEBF9CACCACFEDFAAFCBDC9CA79D6CEFFDBCFDEEC9DAEABE9BF4EE6EE8
col47:   9CDBD86CEA856C9D79CFBDB8CCC9CBF8CDDBAEDCABCDEBDEDEA9BDBD9DCFDDDEFBDCCAEA8AB7DBDB
col48:   AA66AABAAA7FB8C9ABAFEDABCCCECB79CBDBCBACCDC7DDBCDF9BE99CEFD7E9C9EA9A8B8AC6CA8CF9
col49:   6BACAD78CCE8ACD9C9787ADCBDACCCDCAACBAACC9C9BD9DACDAFCECFD9ADDEFBAFBABECEDBBB8C9D
col50:   99ACBC89BB9D999B8DBECCCDECDEDBBEFEEADFBBFCABDECACDFDBCE9B47CAAEECECCE79ACCD5CB79
col51:   B98C68B7879DA797A8AACBBD88A8DABFBE69B69CC89FEE8C9C8B289AAA9EB8BCAA89AB7ECCACA869
ROC:     BPix_BpO_SEC5_LYR4_LDR18F_MOD3_ROC8
col00:   9875AB8AA78AA7B398B8B95AD777A9A9BAA998D79D7B68BAD58B9AC69AB8A97AABA89957779AA35F
col01:   6B9C96976CA75A86949A8DB657CB7B96DD8AAABFDCA9C65C9B9AAAB76ACBC957C66A999A6B7BB6B7
col02:   9BA899278A7598DDC689CAB77AC8B77C6CC8AA9898A9986CD9B97DFC88CB4D4A84CA779A5AA6AC86
col03:   78873ABB729C96BC6AB778BC8EDB4A67A8ADA5CAC9ACDACAD89999AFBA67B74BACCBBAFD98997867
col04:   976A79B78B9BBCC5A97869C9AAC87B8C9CABCDB98C869C5897C8BB79CABAC8B9A8D47AB58987A798
col05:   8667865979B7989957A7A7AADA67499D5F88A6CDCC6F899B9AB25D876C98CD997E6596BAA77677A7
col06:   76897837B78C75AA966B6AF79A84979CFAA8D9BBFBAC7B7D9FABAB8BBAFB9B5679A7B568B6878AB7
col07:   95874B7157538889DA579A898B56EF4CD8CEAB87CA9AEEC4CA99B8C7BC9C7A9BC8FABA9C6869D6A7
col08:   8968677C8B7A768ABA867DDAA8996B7AA8AC879B9A89AA49CACDBB4AC767FB8A68779856787563BC
col09:   A9688755589F9959B8AB987BDDADF87D989B9988BBBAC99A7A8BAA98AAEBCA88CE99687D5A277892
col10:   57865987356DA86A78A6796AF776E8A9B8B9BABA89BBECB99A99CC79D687DEDC7BDAA7AA88BA467B
col11:   6B638664A679839B897C2E79A5BA8C69BABCB7AABCB8CACABDAA7A7AB59B7B955968A8A7973675BA
col12:   988373B978777C799A5786BCA8C98AA9C9AADBC79AD6FC868A8AD86CC58C8A9CA6F9E77766B75A85
col13:   97A8CA58345BBB7747B6E8BA8DD8B9B9D87BAADCD9ADAAAE899A8DFDAB8EAA9ABB9179898DE87A85
col14:   8A97985852A38B5AABAAB9B97C96C79C8EDBA8BBC8AADD7B7A97CCD9EC98ACBAC976997A9B79C786
col15:   B3794C5868699787AC6AA96C9BBB88CADB9BDCFBBBBBEB9A9EABD9ACBCBCBD798996788AA8596797
col16:   975849699B94AA695DCBB8A77C9B875CCBC98ABCBB8CB79FCABC9AAA7AC6E9C89C8A8A6B4C6798A4
col17:   68379BA9745A9989644AAA69AA76A9AC77B8F99BBACADA89BACAB8B8EC8A7C58C967A76A57689A67
col18:   6A7A98A7988758CAE9C8BBCAA8CD99B87A9DBC6EAC8B99BDDCCAD89BD9BBDA8CFBB5A95976A8B9AA
col19:   23954A3D795A977B83B98B35BACB8AC7B8CAEABAAA9C877B9AEACBACDC97BA8B7C8DB9B9A7997835
col20:   744B77577497998BCB57998DAB88AC969C8ABCA9BD9D9FBB9899C9ABA98AA999ABB5A679895666A6
col21:   5675837865AAAB88669A8BC84786CDE9DA98CADFAA88C9DABD7B9ACD999CA8B5ACB9A978886768A6
col22:   898869599B56577B67AA38899779EB9E6CBC8A8BC9AAEA8988857A87A7CA69D569DB6B83C6376942
col23:   422978358567B88A76BA8A859BA7BB58DBAA7D9B8BC878A8989EC9B8ABFDC3FDBC67A8889C9E8474
col24:   AAA794A6888DA798A9989C5DBB6AC989C9DEC69A79AE98A8B8D7AAA97ABB7B989799759AB6889786
col25:   8A88872457A996C7A8389BACCACBBA79C7ACDDA8BB9ACBBB9CDDDCB9ABC99F9BC978889868787565
col26:   A85B975C8CC85ABB7588ADCD976ABA8CCACBBCCDAADBCADEBFBDCADDA9CA99BABA6CA966C8AB6989
col27:   8857C76818A4659BA78D9B98C98778A98CDECAA8BCAC7A9D9C98FAF99CABB6BFDC89CCCA7DA99879
col28:   56BA85D598B557AAACB9CCC9CA99B9AAFBEBBD98ACAD8ACACAAAA9ACFCE8A9DABBB97B898A6B9854
col29:   5B787C8A9695A68B98C8868C9D7C4AADFF7A9998CAA7DC99FAFB98DDBCC9CDBDCA9F797B8A7979A6
col30:   69579976BB6799BAC7B8E77BE7A8D66DADA6DE9ACADDBAEDBCBBBBB9CC8CC7BBABB7AD897BB978B7
col31:   8856776C877D99CAB8FC9ACADADCAECAFEDA9CCBECDC8DBBCCDAD79FBBB8D7F9DFC89CDCCC9599AA
col32:   5AA998989987749AB73A9DA8AD86BBBDCDCAABD9DBAAEACDA8BC8DFBDC99AE98B5CACA9D9D989C97
col33:   8CA98896B867A698889D69FADEABBB8AB9DCDDE9DCEEBBE8BA9CAB9BADDB59B97D7897E7DB8EC916
col34:   88AA29B7697BAAA894FA5A9A9C9AADBABB9DBB9E97BECCC5EBFCEADC7DAEEBE8EBBCABBC7667A3B7
col35:   5A76584797A7689C5CAAC9FCC9BC9A899ACBCAB9CCCD9D5FCCBDDDFDD9BCACDFE9FC9A8ABBD668C8
col36:   9668C37AAD599A8A9ADEBC9BA79B9D9F9ED8CBCADEBCFB87AC8BBCAAA9CA68CFCC5BAED79B576557
col37:   A87DAA9B58C78BF8D976BCAA7CACA8DDDD9DDDE9CDBEBDBABCADBDB9BFCA9BBCBCABCB8A7C69E697
col38:   96B9E79B989988A9DADAADA9EE8BC869BCDDEEEBBDD9BDCBBCCBDDA8CCEBDCB8ABDCA97A89A67A8A
col39:   AC8979A97AC986CC9BBC9AC9BA68BABCFCDEDDBB9EAC7D8ADDFEDC9BBA8AE9DC999FEFBC8AA79A88
col40:   B89C98759CA79899988BE9AAE9AFADAB8BA7CACBBFBAFCBDEEBAF8F8BC95ABAC8CB8FABD8AD88DBD
col41:   B99667B974BABAA6ACD697ECCCCFA5C9FCBF8E8CFEABDA8CDA9BFBB9AC8CDE8BB97BAD8E77CA9C68
col42:   8A98786A8CB8CAA5ADABEB99AAAD879A7B8B8BECAE6AAACDD9BECBAD7DBADC9CEEEBAE98C9BBAC98
col43:   5A488A9978859D99AAA7ADCC9AAFA957BE9DCBEA9ACC89AACACACBBEDCA7C8B8979BD5A79B759857
col44:   87A85AB8999799ED9CB7EDBEB7CA89BABC99AFF9CE9DBECCEEAADEBCCBAADB8AA9A79CD8BBA9CABB
col45:   B7989797A6B6BA9D969C9CBABC8BCEECCC9B8EAEDDEF66AEEAC7BABECC7AE9AECADCFBA9AD99A9B6
col46:   E7BA896BC62A7659B6BAC9B7B895BBACA3BCA9BCADECCBD88C97FD7ABEBCDECA78B8CB78B9ABA8A6
col47:   B9A952F977A4998A7FAA66AF6AD9A7AD6AF88AA8DAECBED9DABAAAB9BFAAD8FA9DCBA9D5CC969A68
col48:   77DCA96689BC6A867CB38C96B79B8D89BAEDBE9EBD7CADAFB79BBAE8AD8ACADCA9C79CA7BC9A7C88
col49:   77A4A7CA8FAC9BBBBC6DAC966B69E7AAB7AB8999DCAE8B8CCADAAD9BAA977BC9E87BCA99B9D98AC6
col50:   8CBB869C9BBB7FD9AC9ABB8AABCD99FB9B997D8ADCDFAD9CBA8BACC7CE888AB8D695979DB95D6B85
col51:   989248558C877AB8A98AA6A987A68879D8DB676A8977AAB98869679795995A87A979B9A68A978B73
ROC:     BPix_BpO_SEC5_LYR4_LDR18F_MOD3_ROC9
col00:   735662A75658A48559A4595996B779A89774A8CB986A9D6555775598777768754565799884267127
col01:   8899495A66A68DB77A69B77ACB9BAEC7DC78776AAA8A4BADBC958B68A9AAC785758C6BAA96593634
col02:   97A775865B6888467D88DA6886BCEBABBB88A9A78B89C758A8AB59A6B9ABAAD8C6A56A5888364894
col03:   648797578A895678698F7BA6C4A8CBEBCA6B8669C7C799B59B476DCAAE89AC56DA3A85788795B897
col04:   C797788575A598DAA9A7B7AEA9C59DB89C7B8987768FDBAAAADBD79CE6B989C7E7AA876974888484
col05:   8779A7397879CA7D9AA866A88F5B9DC7DCA6BABB89799CDABF58969AA89A77CC58B89798A5746B65
col06:   BA5797C7695B7285B8989ABDA989B9BAC9AC988B5A7CA787BA67ABC6D758A9886498A5C658376783
col07:   397AD7B7A77767768BA9C8BAC89C99AA8898BCAD7BABCB6CDE9A55978B96B6AA98CBAB9B796B9B84
col08:   987A9169CA5B7988677A869DDDA98A9ABC9C86BB7A89A9B76636ACD9BA97ABB988554A877564A5B6
col09:   9968BA6AA85BB785ABA6BB7C89A8A6BA7999BBCBB68CBABB99A7879BBAC8C967B786C88A78753B7C
col10:   4A97B77BA5777ABB99A59B85B8BCBBCFD7D89BCF7AAA84DAB798AAA8B879AA9BA7B6BAC9568A8455
col11:   97589B6769A98BAA99C6AC88BB9A579A88A88BCBA4ABBDAA9BA8C88BDEA88D6787AA4B79B7887B69
col12:   D888864958797787CB48D7D89CACBBD9A8D9577CD8D9B558E6A9A89D8C69B9997867657B5B759B64
col13:   9E9774A857894CB9AAC88AC8CBBABC7CEAA7A9B9B6C7AAA9A8BCBBD76DD9AA798C6A78BA8987A977
col14:   48B6794889C4B7BB97F88BA9D8BBCC4C7E798CAC7B9C6BB79DBB7DA978A9989A9A7A88758A719896
col15:   95C67BC965A9A4A8B6886898BD66B8EAABEB9BBD878C98BD793C7B789A9685BEDAA8AC8578B86746
col16:   AB9646B75A98AA7D9A975AD9A9AD9BBC8B69AC89EBD8DA7A6B879847B7AAC9869A2A967787656692
col17:   7A675688D9C79C99C58EB8BEC6AC9979EA78B9B9B8A7B8BADB7E55B9668CAA49BAB77A99798656A6
col18:   555BC8B699978989A8793ACAD98BABAD798B9F69A7C9AABA787889AA99CBDA7997A6673679777596
col19:   A68B4A89B99CDCA97885989AAD9B8B8DFBB9B89B79BE988A8CAB899E6D88B7BCC94B679A55B54AB9
col20:   96596B66A39997A9C7A4E989BAC779C7BCA9889989C9C9D9AA95DCC77ACBB99DD7699CAB97397779
col21:   998A94B574A97C7A868A84CCAB588DA9BD6BAB96BA96A8CFABC9BBB6CC9AB988867A79B8A6B587A9
col22:   7154B97B9AAC7689CA88CDFAC8885BAACBDB65AEC79CA8FDDA9A5A9ACBACB88D3849A45368B66564
col23:   8A59686478BAB59BAF96EB9C8BC567D97846AC779AA8B89CBABB9997BC89987BA4A8377889917965
col24:   966B56A8A2ABDC89ABAB986B8AC76A89BC7A9769A97D7A8AAB7ACB988AB798E577C7D96895579855
col25:   9A6B8ABB7866B9AAADC9B9CD7A9CADDEB7EAF98F9B9A97A9C89AD988A8C7B69999798C6A86CC6986
col26:   BAC957A5789A5CDA8CA79C9C8D69ACBA7B9B9BCC9DAC7CCDB979EA7A7C8A7BB78BACA9A6B8585BA9
col27:   6886E8ADD88B795CAB68CDCCA8D8EAD997BDBFDBEDAB7B9FA8DBF96A9BCABA6B96A99698786D3CA7
col28:   6997CAEA99CA7CAEB9ADA9EAACBB9A8FABAA6A6BEA7B7BBBCB99AED798C89DBD779C7887B9D5A879
col29:   89A6CC7C6C9E984A9CA9A9C9BBFEDDB88EBBAB9CCA94A9AAB9BBE7D9BC98CAF94AA73A687AA9B7B9
col30:   394AB998999768EC9ABCBBBCBCAB8BDBA9D9BF89B8A9A98989E9989E987AD9AE8B9A75B8A79DCAC9
col31:   99BC887AAABBBB89BDCBFADDE9D9ABEF9BAFA78BDFFAB97CEA9BB7E9DEAAC8AACD76ADDD86899484
col32:   959849B6AD7AACBB977FDC99BEC9FA9CBCB89D8ADBBBCABA86BAAB8A9BC8B9A9BCC7786D664AA668
col33:   9A63697ABABA48BBCBCBC999A89BDDBDD9ABACD99A8FE8CAD89D88E8A8ACBADBA8AA775AA96839B2
col34:   89A7BACA6D7CDCDAC998EFBDBBAAA7BA9EBCDBDCEFCA98CAA8ACFA9BBCBEDD7F9D66D9AB88D3AA6A
col35:   D8898D995BCBB9BC9DA6B79CBCBEFECFDDDFECAFCBCFBDB9DD9FCAA5DAADCBCAD9AA85D7BBBBDA4A
col36:   86598B89A8CB8ED8CBBDDB6F9EBCDDADBB8E9CDACAFCA9ABBAEA9B77CAB87A7A79CB68B7B3798F67
col37:   8BC899CA7B9B79CCCCE8BACACCACBEDCBCC6BABEB9D999CEAEBDDDAAAFBDDBACA88BCA9CBBBC5EBA
col38:   AB9EABB7A8C99BCAAD59ACAAEECCDEECFDCBFFEBCB89DFBBFBEDCDBEFAAEA9DB889ABAC49C88B79C
col39:   888FA7556AB9CEEC9DEA9BEC9DDDCDCBEEF8DDDB9BBDFA9AEDDBB9CBBA8EBDCA8C96978AB99B88BD
col40:   B66BBD99C7D6D8B9EBE9AFDF6ABCCEFCADACBDB8EFDCCAAEABB9BACDCBCBBBC9AC6ACDDC9AC78A99
col41:   87BCCD67C88ABAACFAFCFD8FB9BEBAAAFEEDA9E9F89CEDFDFCAA7A9DFFEDDCCAFC988AC8BBB9A9A8
col42:   CA98BADABA8ABFE988CBBEBAD9DFBDEF8BC9DE79B9CADCA9FBB8A8E6EAB889CAC96A7AD8879BC8AA
col43:   F9996ABAAAEACECDDCCEEEFFB9AEBDCFCABCE8CFFBCFCEBFB9BCE7AF9FBA8CBCBDCCCBABCBACAAF9
col44:   9BADBACD7AA7ACDEB9FFFFBBABEDDFCEECF8CDF8FFADDBDBBDFCDDDFECEABECBC8ECC97BCADCBBBA
col45:   5DDDB58BAB9AB9E9FEDBFE9ACBFBD89CEDFECD99DECECE8B8ECA9C9D69FD9BAD98CAAC98BB7D7999
col46:   BB8AA7EFA5AB9CBC9BDEAEEFEB88DBD9CCFCBBF8BEDF8AFBB99D9FEFCD99ACAABAACFBC99CBBA796
col47:   AC5E9ADA9799BA9ABDBC8EEDDFFBCBCE9DD9ACAEE8FEC8DADCFBAEDCDCBDDC5CAADF989B7C699BE7
col48:   D8C88BC8BCCABBBC5CAAB8F9DAC9C8CDCFAFDE8BCEC8CDFBEECD9DDEBCFBBBBAB99BEB9BB97B7A99
col49:   DBAEB8BDCBFCAFC9BEFB9DBDBDCCCFDADBBFEDCCAECFEEBFACEBDDCBFAB8CCE899BDEC999DBA9989
col50:   DA89A9AAA8DCAA8EB9AAEBCDFAACBEDEDBEABFD55B977BA6BDEC89AE7C998DBD69B9A6BECABB87C7
col51:   87C7B8D98E2CBB7ACADB8B9DCD7EC9C6D9ECE97A98A8AA989C8786DEDA98A57D7999E9C8D7B85AF6
ROC:     BPix_BpO_SEC5_LYR4_LDR18F_MOD3_ROC10
col00:   568898BBBB6786B8759AAB36AB8ACA87EBA9CADBD9A7977D999876B8B67795878A9A868B8725988F
col01:   98A8B9768AA9B9A898899898AABABDB88899AC8BCAACCBAA999A5ABC9C757B79B49B5856C644C8B5
col02:   D995B53967A9B989C98A5CB99CBECA777B8A9F99DBE5AEE5358A77C97CC99689A9885B868936DA75
col03:   76BB4A73A858B9DB98AF7AEBBBCCACAFADE98DB9BCAEB6BAEBB857B8BB88CC96BA5879A45887C568
col04:   99939977795AAC78DBC98A69BC6BCAEDABBEB9BAD7DC798A86C89BEA9E89B8988C7489859899C8A8
col05:   AAA8B86ABBBACD988CC8AABAC99BAACE997B977A8D88A98B987A99C7749B7CAB59775A838337BA19
col06:   A699988CBC8B9CAD9989EADDBAA8697BAAEEABC9ACA9AA9896BEB799AFB7CABA78C7C7B997738578
col07:   77AB75AAA7D8B88BBEA988CCB8C978CDC7B9D9D99ABCC797DCA8A9AB5A98DAAB9869D6AC88494887
col08:   B96B989A876859EA9A88998BCACD879998CFCDAAB8896CBC97FBFA97B9DA988AA968659B99776A81
col09:   97C8A88C8888978A8CA89C9BCCACABB9DDAB7BBDAEBC988BBCD9AABAABC6BB6AA799A4AB6D987767
col10:   6A5A779A7A5BE98DB8B7A8D9ACC7BFA797B7B8DCAAC7AAEB6BF85CA79C86A5868867958548778752
col11:   67E468488CA988A66AA998A9CB8CCAA996A968ABBADCD998BB9D87B67B8999BA89CA7888B996559A
col12:   9989A9779689B8BC7BCBF9AA99BB98A988979AA778BAAACB96B9AD7697A868D8A8B9B885979B8C58
col13:   56568A8AB869798A978B899BA87CEAAC9DAD8AADEB7AEC8DADCC9C978C994BBBAB799567B9772B76
col14:   57589C5BA88CD77AA899979B6749A9A6A944BBA87A97A9984782EABDBC797A93734CA883A8275692
col15:   8948AA7F9BC9E78875AA8999B6869AC9973ACBB898D99999A79B9ECB669AADDAB498BA866A58CC75
col16:   483A99578A688B575A87AA79BF6587786A9C9C7DAAAFAAB8B8BCD9B6A7C7AA6878A5986B594866D6
col17:   5531A88988ABA8AAE9AA7B8CA9CA77B9689A799CB6C9C19967EAD798C696B88C983688718E36777A
col18:   57A169A8C395899999CA555AA886ABB89AD89AB97CB8DCDAA9DC759E85A6C96AA7979B3ACA497884
col19:   97B776CA8CA43969E4ABCBC98AAFBB77B896A6888BAA6C5ACAAC86BABA686D986A7A793A877C8698
col20:   A5B848B7BD99A2B5A6A857D7B6D79BB9699D67DFE88E67AB9A68A59A784664597B6BB5648859339A
col21:   8777A85179469B3A8B6967DBCA86999FD9BAAAC3CB7CCCCDA9AEDAAABBB89B6AB8768AB5679667B6
col22:   85C79C67A8DC8CDBB9B97D9A7A7D45BBBAA9ECBC99BA888DBA8B6989BB6885A667B878A85769499B
col23:   767D987B97AAD695796BBBA7C998B79CDACAD9B87B8AAB8CA8A9848AACAC6C899A997C78A56765A7
col24:   8869585775466EA9B57788ABA988DCDAC99999AB94BD9699977C9F869A88A5C6A8A7971769886876
col25:   58BA7798AAA97A86B77984CACAB75ABABAAB9C79BB9A79B8BAB847197D9987979DBCD99966AA8568
col26:   AB989A8B7A8ACCDA7ABCCC8AA9C8C6B6ADC89DDBBD9CA68C9B8B9968CBD9C9BA778867A79687979A
col27:   9789A759BBC9D8F78B77A898E48588CA889BEAAABAC7DDB9ADAC58D497BBB9888CABB799DB8A8666
col28:   9AC8E98C98BA8AACBF998ADDBD578DAC9CDDA8A9FEB5CCDCABCA7DCE9DE5AB7BA9B8C979B7AC8B67
col29:   68399947D9A6A99A878AE9C8CADA6AB9CBAABAFAACDCECC9B9A9DAE79A9C8B8BA929ABE99AB8BCA8
col30:   98A79859D8D99BBABCCAADDD8A9ABBCAE7B6E9BDCEDEAD98CC586C8CA898CA899EA9B3AA9A78AD87
col31:   97A878989887E77D8AD9B9F995BCABEB6F8B8DEFACC99BCB7BEACB9DC9AAD965EBD5E7BA9D9BACD9
col32:   B4777BAA9BDA6B79BE88BED9D9CAB9DC9BABD9FB9DAD99CBDBDDCBABB9A8C97A8888DC89A83A892A
col33:   8477BDBC8A8CD8CBAC96BCF7B8ABECCBAA8CBCCDCC9ADC7B7D9CDCCBAEA698999EAB68CC7BB9CC59
col34:   8AAAB9B89A7988BADEDA89C9BAFBAA7DDACFCCB9DC9EF89DC8BABBB5E9DCEA6AB99B8866F879A778
col35:   DB598A7B99B9AC87B8D9D59CBEACFFABBEACECCEBE8989A9BBDEFA5FADDAF9A9C5A9B879ECC78A7B
col36:   B8B9A98B7A9E85D9BBCCDE9ABA8ADCBBBC9BDBADBDABBDDEC9AA7A9BCBD88EBCACC49B9BA9AAB875
col37:   B89E58A88D7B5C7BCDBBADFEBBBCEBE7BCCBBCB8CDBE6CBBCAC7ADDABA9AABC9BBAABCD899D8C8E8
col38:   EC6BDCA798A8B98AFDBBBDA8F88FDC9BC7AB9BCAAA6DCB8DCAABCC9EBAE9C8C9ADECBDC9ABCAACAA
col39:   B76ABA9ACA9BDA8BDC977C9BCBCBCDFDACD7B9DED8BACBBA9F99DEDDCFDFBCDC788BBAD9E9AABBB1
col40:   78768CA7B8BEBD98ECEBBCBBECD9DEA9BEFABDDBDA9FFEB87EDDFDDAB976A7D9CDFADBACEA76B8D8
col41:   73699588CE689559C6FCA89DBD9396DBCCB8DC9CADEABA9AABDCCBE8AFCAAED999DDACCBA89C9AE8
col42:   A885C8AA9C988B888C9BD8CCACC8CAEDF98BDC9DBDAB9ABBA9DDB9B7BBAEDC56DCBB8AC8C897E754
col43:   8ADA9977A9BBA79997AFC9BACBDABB9BD7AEDAC9A99A9AACEAA99ADCCDCCACBFAC9FABDF8AB89A96
col44:   79AAE9699AB8CC8DE7EF9E9C8D5DDBDECCCAABCCEDBEEBBABCEDFCA987A7FFC8D1BAA8B9CB7DC888
col45:   BB93986DB8C9A7BBCEABAEBBFBCFF8CCBEADEA8BECA9C7AFBDBCB9EADDECAB8C9CDBB7BA6BBBB9BA
col46:   9B888F8A78B87EBBECCAEEAEFDCC7D9BAA9F7BA9CBBA9CD7A9BA9ACC7D7EBAB99D9CC884DBACCE76
col47:   A9BB78BADBB89D88CB9DEB96AACCF8CABDAEBAA99F88D8EBEACF7ABFB8B9CE6A7DA96BB7D997C769
col48:   A69ABC5CCDCAB79BFB8BBCCEEEFACAACAB9FA9B8A7BCCDCBCDDCCACA9CFBAC8CCBBEC8EB3517BA4D
col49:   9A598A99A8DCBBBCAAE9BBBBA8ADDABAD59BE8BAB8BAACBDD99E9DCACB9D7CC8B87C68AA778794A7
col50:   AB8A9CB5FCE9DCC7B9FD6AACBDACBF9ABBAFF6C7ED9CDDAB6BACCFDCACFCAB68EAACAAA79A9B9687
col51:   94858648A8AA8AB6B79B99BC98B9AAD99AC9CA8D8DBBE96CAA6AC389C78A897CA9A98379B4764577
ROC:     BPix_BpO_SEC5_LYR4_LDR18F_MOD3_ROC11
col00:   6893113516746664777463649983457775748ABB64A577486937A5C4297A7A5676697754A6736597
col01:   6675384A368A7A7757869798A88AB66B9895A7A7A9A79C7768689778997A6BC794A4978956946899
col02:   26864781956A347984757787B7A68BA778AA8B88664A9947289AA7ABB7A8A86858888795B45677A6
col03:   8564386997645848B557678988A9B7CD69AA869B4A587FCA9899888A99B6B3BA447CCA89ABA76B48
col04:   C3798966584794C9A29B58DBA9BBB98A7987889697A9798796C955B9796A88565A6988899A66565A
col05:   7657795638A474967AA94B9A65C77589B78B899976788864A6954A78A4776C68777677A4747A999A
col06:   45538485B8858A46DA57BA98B7688A6E7C66C8AA6647886AA8C69B9668BA7B85A7645459395797A6
col07:   736AB46969686ACAB88C689A7879AA9CA84B7A7996A7AAC88ACBA79BAAB9898796BB5A898987A73A
col08:   6723978A8389793779759866A6668699B7A8EB3847978A9A9C7679779F598778878B974BA8689677
col09:   66869899996699B79A98B665CA9BB9888B87A98AABBA9ADC8C6CBD39DBB5969A59999D6998C53988
col10:   A457697248B658773A965886B88A97D6BA8B55B7A969967A88897D9B9B6A986A777286BA78895976
col11:   7797498775848728BA98A8AA88599A97CAAA8CA57D78AA7AA49DCB8A8998A6AC8697876876889664
col12:   768496B52888456BA99888A6845589A8CAA99869AB7787AA8AA7A76899999976A6866A7A657767B5
col13:   B6767C7867A8A76997AA9A863A799AAD7AC94A988ECA789D7789DA9A896D6A9C969775469A695985
col14:   B788776659A8973B7A594B5C768A7847AA988A8C97664CC8ABBCB477738A9788BBA8996778675897
col15:   83748779A8889A77597BA7AACD6CB876F9BB89B7DC88658B9A697D9AB78BBC7AA968C5BA69966878
col16:   76947898767786767BA79B8BA9A7967ADB879BCBC9C69AAE8DC69A8CB9A99C6C7DB64777A5887B98
col17:   786A599B58889896696A64AAB8C7D89869A7BB58EF889AADC8FD6E899D6778868B979979B6A967AA
col18:   436A46B94539567A9C8585A887A89989A958A58A5898BA77897757AA8975789967769A987643569C
col19:   6565B747889BA8998A969585C99A9B7B9B98DCAAB8AA8998C68B8A8988C95B698879A68B78A779B6
col20:   99A9275CA77687767855795AB998CD98BBACFD887859D9989BCCA68CCA8998A86A788B84667694D8
col21:   69298A788DA966B8896784ABD8BC99B9856A7DEB6CC96B6398898A999B7E5AB4887798B7B797A685
col22:   A99B776BB9A78A5897A7A887CA9759AA9ACD97ADA9BCA99ABAACA9B7B9AC7C6CCC8A9B9778A8785B
col23:   786EA48867999BA9868869A96B989AAD7B7ABA8C89CA9B69AC8D99B89A9AB8DB7844578C6A7AB767
col24:   A287697C79A77576769C58C99969A9CD9C7BCBB7B67B9AB9ACB5AB69BA4AB9CC5978879A698B67B8
col25:   86866588D7697CA678AA49969BB89895DBEDCA7BA99BC5B9CBCC97ADCDAAB7A9AD6A9599C6AA5BB6
col26:   889B99B6BB799696CBDBA8AEAB9ABCCDA98BABAEDD8C9ADCDC8BDCD9BBA9AF7C7DACA78B88787789
col27:   8A498BB9C98B9B987B75A9AF8A8BDBD9B99BAAAB9ABE8B9CBFCECCA89C8CC8A899698AB88AA8BAA8
col28:   79BBC7BCC769C8BB8CBBFACBAEA7EAE9C9D9AB8ACEA7BA9CBB87BD8AABCC98BC7DC77B9AA4AB78C9
col29:   879898BABA8BBB8A99BABBDBA88BBAC9ABF89AC996A999C9DEB9BCB9DDA8AA799A6BABAA9AA87896
col30:   69C69B9AAD78B8ACC9A9DA8AABB9CA8B8BA96ADDABBABADDCD7ACBBBBDEB8DDCAE99EA787B9DC6A9
col31:   78AABA98B8BA87B9999CDCEFB9BCAAECD9DBC9ACCBEB7ADEC9AC6D9CECCD8B599BB9ACBA99A7AA76
col32:   599C888BC9899BDBCD9BD99DFD6BCEF88AA9CCB9BCABAA7AEBBDCCDBACACBEBBAC7BEB9CBAD8BC98
col33:   7BADAACC9ABBBABCBDCECDBFCC798ACECCBDDCCCB9AFBCDCDA89E8BADBDEAAAAAC78BAFC8AA9B69A
col34:   9BCDA98BC8AC7AAA8CAEA8BCFD799DCC7B9DCDACECCCBEBEBFDECAC9BDBA8A9CB8AC7CA96D7BC567
col35:   6AACBBBB98A8ABC9EBBD79E88BACACFAEDEB9CAEAACDFCCDD98ADEABAEDBBBBAECA9CDAB8B9C9A77
col36:   5B9CBD9AD78DCB8B9ACD999BACE9C8CC8CBFC8BBBEDC9FDAB8DEECBDBBACA9D9D8DBDABAC9BD8AEC
col37:   CBCBCBBAABB8B9DECED9CEDCDFCBBFBBFCCB89ECEDECABCEBBEA7FCACCBAEDBEDADCCEBCDC8D7CDA
col38:   9CFBC8EBA9AAAACEECACBAAAAB8BDBECA9DCFBDCBBABBEDEF9DCABD79FBEADBBCFCAB5ACDA8745CA
col39:   9A8E959BAAA8BC9A9FCEDCEECBBF8AEABBFDDACCFDCCACBFDDCBDCBAAB9DEABBDE7B9E5CAA8C6699
col40:   BFADE7CC9D6EDFDCBBCAAAB9B9C9EFDFCCACDDB9ECDD9CAEA7CDCFBDBC8FDBE6B8ACAB9B5D87A8CC
col41:   DADFAEFB8BB6CCBCAED9CC9ECDABBECDBCDCFFFDBBBBFDDDAECDCACA9B8B9CCAAB98F8B6D9BCEBEB
col42:   7B9ABA8BB9EA9BCBABFBDACCDFCA7ABBACDCDAAAEAECFCCDD8CABDABBCBCCC9ABBBEAC8CFCB89CB7
col43:   AD9C5A9B9BACDCCBBEDEDBEEBDEDCFACFDFFC7DAEF9CFEDEDDEECDEDEEDCDCFDADAECCBA6A9C9AEB
col44:   A89A8CAC8DD9A9979DBEC9C9FE899CBBACD9FCCFBEDADDFABF8FDDDBED99CCDBAE9AA6AAB6969A66
col45:   B99BC9DB89BFABB9AADEBDBBCE9FCBBDFB9BDDBDFDEBBACADDCEDBDCDCDCB9ABABCC9BCA7AAACBA7
col46:   BAA79DA8D98D9AAAADBAECCECBBEEFBCDBEBCDDDDABBAFCBCEC9ADBBF9AAABA9D9ECBB899AE9BC87
col47:   CEDDCB8BA9BABACDCFBFBCADBCDC9FBBAEDDDCFCDBEECEADDAFDFDCDDFBEBBECCACACABAD9BBD7F9
col48:   9BC8C8AEAF7CBACF8DEEBABCAEC9ADCDCAAEFC9DFEDED9BAFBDDCCDDDEBDABAC998BC9B9B89B9AB8
col49:   AAB9BB9F8DBCEDAEADCAEBABCBDCEDC8ECBDBDFCCADCEEFFCCFDFC8FDCDBABBCABCAA88BCCBDC9C9
col50:   BBADBC8979979CBDD7CACBEA8AFAAEBDCCFFBFDFCEADBEADE9BDF98CECFACB9CAABFA9C4B7789C9A
col51:   6DB86C999BCD87CBDCEE99CEEBDEBCDCEBB8BADCC9CBCCCAAD9C7EE9BCACCB79B9EE987A5B8A8B68
ROC:     BPix_BpO_SEC5_LYR4_LDR18F_MOD3_ROC12
col00:   487963463A9555977366765933749B6B8B9188CA77A5986CAA758A98B49668855824595978666384
col01:   35474459878D79BA88C74C4878BBAAB89C5886749AC8AB6A6637678867EA768586B9A44349456665
col02:   16739A98836788657576BA799A886A98A57CBC936887899699677768BA267599678B947777728565
col03:   774787786766786989977799B997C3788677969B7A8AAB97877BB758BA96A54A7A969A66798576A9
col04:   BD556594467658A68AA9888BC78D9B59BBD5CF7B8978A6B9A8B7B889B7A97A5CB7766C64844B55B7
col05:   9A7854765B4BA69988778A99AA586A47D888BBA57AA79799A69CABA597A8B658493A186737242858
col06:   768687965BA67668C666A8A9C8A77CCA9B6D86CCA78BD779B7B8BB78B6696897A888A65484A443B9
col07:   237884773A5A82689B7788C7B395BE7B999A8AA8DBCA896C7C39A89B986AAA388B8668778A827787
col08:   87B847C88468D59A75A848D97898B959AC9BB97999C9BA9A7763689A7476966398786159778687A8
col09:   6A57A6865CB668A778C8A9BB8939B77BAA9BACBBCC9D9DAE99CBBABB9DEA3A786879A768A4749577
col10:   5A8A5875818B9977A79B7847917A89A896479D8B9B9B79B5A987C9BA4A9A8779B8F9A8A69C994142
col11:   6356629BD9658AA5C7A94975CAEB5986AD889B6A6A88CAABDE96A8AAA89A698557B8A9B479642583
col12:   B84797475858582866B79A5C3A8BB98918A9A6B9BA887C5AD7C69AC693B9AC9AC7B679AAA56A5A42
col13:   6AA8981997985DBB67898D957876968677BCAAD79ACB89A9A999AA978939899B79A7448985A49654
col14:   5886946878A446984B78A6A9DA9AB977BCB977899BC5D777899EAA2CAAAB8487A59746C926647917
col15:   A42A68797A84876837AD9B48969C88799C897D699ACBAB99A979BC87C7588B89487A79985A465994
col16:   A696696B7B83984478E39CB6A79C3B6ADB6B7BBBB69AC79A5C7BA8BCC898AD8991658578D9865584
col17:   9757376C6955599896A6A7869D99A6A8A779BA98AC785AA975C8B765B5A9584C588256975B476684
col18:   596A88A764897B879A789C95A589AA9CA99C98B8867C6DABD7ACBA79B3D57654A551929699947369
col19:   85774857565B548BD66888AF995AA85779B9ACB9ABB5DB9C769A9BBC9C99B8848AAA867754877863
col20:   A756887919438C987ABC768997A5BBA87C99AD7C5A97878787999ABA7C4A7E6788A5C79A8C888B11
col21:   69859379B7B7C9A84288AE769CAC3D8898899886B98988C8BB969AA8B69B7C9C1CDA727897497BB6
col22:   C99A8387678586A97AE79598A8BA9797D69C99D8998BC6899A7498AB97A9A6C986698428C3545176
col23:   665388758856C974AABB8CB94AA5A9B8478B76A5684ACC9C798C989A7C798868CCA8C938B4A71684
col24:   74573799778885ABA9B8AB379A9AB6CABBC9C98ABDC6C9E96AAA7B8A8A7CCB87478D6A8A7B75B987
col25:   79948785BA92577996758C9BB9398CBACBBDA9A9A9D99C9DAB64AAA7AB9FAAB7E778648C49647766
col26:   7CBAAD79AA7BA8AE69AB8FB6BB9CCEBBABCA9A6DB9FCBC9DEAB9879B599BADC85AB8B7A798999787
col27:   BAAB763759A565A989AD8FACC776CAECCE98ABDA9DB7AA8CBAEBCDABBCC997A667BDA6AB9AE4346A
col28:   68B77C8B9AB8D949DDB7C79D97CEFC9BC8DF6BCDDEB8EAE898AADFBCCBCE6CADFC898B75C888AA67
col29:   79DB8A778A7D95E7ABC49F5ADA898A9AD6D8E8BAEEAACA8E7B7ADC89E9BC8B8BB76D5BA7D75AB888
col30:   EB86A7798C9D9DDB7EBDD799989A899CFE99A7C9CABAABC7ACDD989BBDB6BCAFF6AB8ACA58CA8DA8
col31:   C997C899BB5AAADCBDDACCBCCBB9DDDBAFDDBC9CDA9DBADCEDECCBDDAACAD6C98699ADDD7B9C969A
col32:   8899CDC8648AD8CA899EBAA989FAEDA798DCDBCACBCCAF97AA8FCBDA9CA78BDDAA9989B99C7AA9D9
col33:   996C88D6A998C9CC7E8A9B9BDACA9B9CFCEC9C7BAAEDAEBCAEECBA87EDA98785FEBDCCBAAAAAF899
col34:   A9A8BC7AC8CA9B8C8CDC989BEFA9BBC99CD9CCBAEBBBB9AEB7FAEBBBD9DCDAD8CBE89BAAB5AA57BB
col35:   B3A8B8D8ACBAC6AAA889BBCC95BCABAAACCC9AAAABB98BDDE6CCCBFDAFBC99DA7BECBC9BBB977AA7
col36:   9993BCAABC78AEDDC9D8DDBB7AAABC8EEC99CB9BBAC9AFEDC9C8C886DAFECBDBE8FAACB7975CA8BA
col37:   FAB9BAC68CFBE568B8ACACCCD7DBD99CA89AB9DBB8EDEBFB7B7D89BFD8CEBBD9A9CDCB9BDCA7B64A
col38:   CB7AAEBCB8CB9B7CA97BC9CCDBAFBE7BAEAB8FBDAACACA8DEBDBCDBFDD9D9FFC8C9BD9BADC7BAB7A
col39:   79978CA9AC6BACEECC95BBDFDCCABCAB9CBC8DBCAEBCE8CABBACA8AECABAADAB7AADD9AB889CB8BC
col40:   DEBAAE9BBA9C97CBFAAAC9B9DBFAA9CBDCF9EDCFECBCFD9D6EBCBFAEDDFABABEBEC79C8A9BBA8A95
col41:   CA7EB9C769A9AB9E97ADAACC77E86BCBA9DDCDA8C9D9AF9DABAAAB7DDA9FEBB5BC9CBDACA899CCA6
col42:   B9A6BBDBBDA7CCDABBAAFE9BA9ECD9CDDB9DAFDFBEDACBCBFC9DADACFE89DCBBCBAECAA9CA89B8D5
col43:   B7B759BA889AAA58998AAAB9B9FEFE7D8FBECB7CECABBBBEADAFDABED9CCABFCB8876A88EADA5D8B
col44:   9AA9ABECA9CCAADCBABCD8CCC8DDB8CBCF9FFDDCCBABDDFBBFCD9CCBBC7BA8C7C6CC5ABB9CA9B8DC
col45:   7BBB958AFAAA9AEEBEDABBCBCABEDED9ECCDCFBEFECECD8F9D8ACE79BADBADFB9A9DA7EBA99BAAD7
col46:   587D98979E8BCB8A5BCBBCAACA69BEABFC7DA9BEBACECAEBB99CAFC8B9BACDBCC989D8AC7CD8B99A
col47:   B79BCA9CDAABBDCB8AEDAEC8ABC8C99ED9DB9CBCEFACBD9DDBA3DCB8CCBBCEF5BD99BC8A99B89BA9
col48:   97CBAABB887AAD7BAFADDCE9CCBBF9DFE87DC5BAE9DC7BDA9ED9AADDCEBEB8FACDCCBABA9E9C79BA
col49:   AE89AB8ABCABA7BA9DFCAABD8F9D8DDBB7CCBAFDB8CEBE9FCFC89BDCA6A78F9AED7AFC88A6B97A89
col50:   ACCA9AC477CC8CD99BB9DBBEB797BBDEEBBACE6BBBC9CDDFC8CEEDEE9BE7CE7ACC9BCBC99D98CDA7
col51:   B8459869D8AA576B89987E8BAE9ACAAAB97AA8C99CBCA9DD7BEAADAC75DCCBC898689B9D8BA9BB98
ROC:     BPix_BpO_SEC5_LYR4_LDR18F_MOD3_ROC13
col00:   9674645687659797649877A6C836B7895A65978A8B6768A98798785859475856976A678558627F82
col01:   99656515D7A98A7A768695A98867BA7989AA989B96887E8CAB67CD6AE7B87B699BA99A7B557786A6
col02:   56964795949985876A5682B78BBD888A99A5BAB95BA6B98A56A8BB88978B67AA9D96686A9A845316
col03:   57CA78577795889644996B5BD7799889BA99A99688A67A8AA88B8C7858797A888967995378984247
col04:   667A5B96986B656B67A7887AC669BB99D5995A8A6B499776A8AB9A6A88A687969758797956467384
col05:   A56988868766BA4695C99897E486B5898B9988568B9C66D95AAC9A79CA7CA8785B66BBAB56597695
col06:   957667759669A6648565A7C49A77BCAB778A8B878A9799ACAB98A695995776748488B88755656488
col07:   789767796B358975987A9B9B8DA97BBA99CB8A8DBC898BF999D8996CA9B67A9AC4A9A79798AB7697
col08:   58A37876859B97798879A45787997B8B97BABA8AAB64A9ABB9AB68D96994756B7866A6A9859776C4
col09:   6A8598997C7885798998AB7AAA8B9A7987AB8897959C89A979979A9A77A8885977599C5896787876
col10:   89968A9766538A6546A9566A88B8D977A8FB9DBB69A8D96B8C7E67A8956BD97989BAAB79955564B7
col11:   A7A776967878857AB97B9A997D8D8BCC99A989787CC9B6879D87B799CD8BC7AD999AA99BBA444996
col12:   9937A5579767A794BBB79A68CBA696B9A9CB7879997AAB9AADAB877BACAC6C996C88A8899486A84B
col13:   48A267B9D697998686B989BABAAB8C9A8C89E9C8B9CB999CC96BD7AC87AB8AAB8AAB979877489879
col14:   8786649886B9A7BC97A86855B8A97BBB9988AAC7A8B8C8B9C88B6BBBD569AAC9AE679776B88A876B
col15:   A7C4A768D9867C86795989AA7C67BAAB6DA8A9954688B8998C598BADA7ABBACABA6A9A5894A6969A
col16:   8B689A885A968A8869AA989BCDA7B8B977898A88D9A7AA879B9B8AAD868948AC778A769B698B7799
col17:   7673A5A4277A7377499A9AACAB89A8B76ACD9ABEA5A78CBBCB9C89B9A9967AD48A99598D3C5B978B
col18:   997793746A887889C7B94AA89894D8A8B799ACAB969AAB4A8B988A7BAA9A988A488A994B8868AA6B
col19:   78BA968A6B979897BBAAFA8DAA98CB6BDDC9AC99CA7DAAC1BB9A89ABBCCE8BABCA6A99A99B75C8B8
col20:   46989A767A8757A7599869AC9998A8A5757BA8BA8A95BB92398871CBC7A9898B897769689A77896A
col21:   855799AB69A97B8CBA87C978587CBB98B8CA88BCDB7C799DBAC9DAEB89ABBC97C86A898896799767
col22:   27A5A677A8796766A789D9AD8985A8BABAABA888BBBCAB9DA79ABBACBDAB99A9A9DEAC9998557758
col23:   7729C9968A8AA8727DBB94B9D9999BAEC88AD989AB86A888ACBC6AAAD99A9A998979CA47B6858877
col24:   396777787687867776CB7886A7C8ACCCB88BB9A7B8A999AA98BBCACBAE9C89998B9573BA7C74B685
col25:   78668A79A877989ABC9899BBA7A8C9ECAAD99BCCF9C9DCF668D9BCBEBB6C9AAC959889B7A6977979
col26:   88A89A9B9B8A9A86EB9CCACDACBABBBFDAAADDCBD8C6CF9C9C8EC8B9D8B899BAAA98DA9DBABAA8A5
col27:   77AA97AB7A79D7FACC8DAA7CC98ED9ACEAABBEB9CC999ABD7C8D9AABBB7A7B88AD9597B8B988E8A7
col28:   C9958DBBAB8A8BCBBAAD8BA9AD9CBCDCDCDDBA8B6BB9BBED9CA89ECBADABC78E9CE99A9AA7866795
col29:   88998C4699BA8BB78C9EBAFAABCABBACFA8AEBC9AC999CBBA988AACB9EB8CA9B6C98DB969589C7AB
col30:   88B9C58997C98AA9A8BAACCD8BABC9CC7DDAE8D9A8EBABCABABCC9BE6A79A9B779A8A8988CD87CAA
col31:   7CCD7B99CB98B9BADCBDAC9DEBCA9DACAA9BCCCCCAABBEC997CC9CAADCDAAD99CECAB7A9AF899699
col32:   AA678AAABBBDEA7C9DBCAB9CDBDBADE9CCADCEBBB8BCBC9BCB9EB99DDDD9EA9D6BCCABDAC9996BAA
col33:   99CABB9A99AAA8B7ACBAADDADBAC8B8DCD7FBCBAAAEBB9A98ABCCBBDFCCAAABF9D8ACB9BBBAB99BA
col34:   7DBAAACA66CCBEBAD5ABABCC9CF99BBBCDEDCEBBCCEDCDDB8AABDCBBCCACB9DB789ACA9C9BB7BA5B
col35:   98BB79ADA7DADBEAC8FCD7C9EACFBBDABFCDEBDCBBB9ECBFCBBB98EDEAD9F9B9BD7BA9B98CBBA9BB
col36:   CB9C8A7A86CABA8FACC7CEBB999C8CCDE9ADBFABB79B9CCECDEFBACFBCDCFD98CC88DB8AA6BADA6A
col37:   DACBBABBABABCBACFAD9BE9BDDACCCBDCBBDFFCBEAFDBCBDACCBABADAEABBDCC7CAB9CDFAAB9A8FA
col38:   5B9B9B9AECAEF98BA8CBFACC9DC9CABEBFAEDFBBAEB9CBBBA9C8FAADDDA9BBCEAB6CCBABADAA8784
col39:   9BAA8BAABE8DA9CDBAC9EA8DBACCCCBDCDFABBCBEACFBA9AFCABBACDCAA8DB878ACDB6CC9C577CC8
col40:   ACAABAACBA89BDDBEEDDC98ABBCCEBCEDCD7DDFD9BABCDCFBB9ABB89CCACACDC8CA9BBEC798ADBBB
col41:   ABBAD9A8BBDCC9CBDDBDADCABEDCBFFADEEFCDA99CDE8DADD99BC9ECDBEEAB9BDABA8A9ACB98C77A
col42:   9BBACEB6ACBDCAAABABAAAECDBBDFBCD8CDCFABC8CDBCCBB8AA9CBBBDCCAA9ED8CDA8A9B9A86CAA9
col43:   CA7EBBCBBEABCC9BABFBCDBDDFFAAFDFEBCEFDFDDCECDDEDBFCC9ADFBCADCB9EADAB99C77E9A8BAA
col44:   4C97DBACA8EFCDABACDDE9BDC9DCDBBBCBCB9CFC8B8EE9BECADAA8BABDCFCBADDBBACC9A9D887B89
col45:   DACCAACBDAFCBBDDAEECCDCC9FFECADFBECA9AC8DBEBCCDCA9ADADAEDBCCDC9DBB9CEC98E7BDDC86
col46:   BADA9BCCCC9CCB9ECDEBCE9DDEFEEFEFDDCDBCDDDDDCDACAEBAB8EA9B8AEABBFCC9B96BA5C87A69A
col47:   DB88CB9BCB9ACBDD9CFAEABDF8DEABAFBCBCEBDCCBF7D9A9C99EABABDEADBBDCFBE9ACB9BB8BB9AA
col48:   76BACBD99DBCDCDBCDDCEB8ADAEDBB5BCCDAAADCEFED9BAEDCBBDDC6ECB9CACADCBBCBC9BA797ABB
col49:   BCB588BB9B7BCCB8CBBCBCFABC8BEFDFFCABDCFDDACAEDABCCB9ADEBDFADE9ECCACACCACA8BAECE9
col50:   9BACD9BBACCA9BAD9EFCABCBCDBDC9F8EFCCDACFBDCED8BBAFDBCDBFBBB69BDCBEF7AB9BBEE97DC9
col51:   D8A9A8AB9DB9B7DC97A79E7ABACDCDCB9CACAEA9B8D9BE8ADBBC899CBCAA8CB9DAB95BB99AACD98D
ROC:     BPix_BpO_SEC5_LYR4_LDR18F_MOD3_ROC14
col00:   966677B8A5E99CAC8BA9889586799559AABA9782A987C686A6B7489DA99B85685364687877392671
col01:   763486987CAB76AAABCD8BC8DB83A9F9ADA758A9D6DC2D77A7A6C7A6E95BF8899595899A6867ABC5
col02:   85889BCBF988685A69D6A97A47B99CBDA7AC879FAAFAC79AEC23899C877799894CAA9A66865D8975
col03:   874697A7BCCAA98597BC95C5C8A98ACCBCBDEDA5ABAC6B78AB7AB9869E9CBC79E8D948B8379683A4
col04:   77A76D6958AEA7C6CCA69C9C8B9759A989A6D78788BC96EC99C9B9AF64A8BCAB168CC4A75B17987A
col05:   543788897B7DF9ABFDDD8B78C989AD8BEBBEBA79BB689F9899E885897B89BCA578B79699958668AA
col06:   6A9A9AB769AAAAAB989AFBBAA987A7BBB9C8BAAAB87C9B78A85BB9AADB9C759D79B858BA5B6636A4
col07:   988979B7A7AB76ABAA97BBA9A5C9ADB99DCDD7C7AAA9CBC6BC889A98B7A987D59A99997649B68878
col08:   B54A7B876A4C5B998B769F6B7CBBBB7B6C999BB9A9DB9EC98D3CA7AB68A489988679685598464686
col09:   55B4985ACB7A59977BB7CA98A8A87DC999ACA4887DB9A9DDCE9AB9856CABADA7889ACA8958A36B86
col10:   6BA6897BC79B7A986BA7BA89A88998BC89B9AABC8A99CBA7BD9BDA989CB7BC8BBE964A656A597945
col11:   E7977B689B694DA69A77795AAB5F8FDD8B9898A88ADD5C8E77CBCAC7995A78EBA7A68CA98996A687
col12:   8648788755767A9B9A989B9B99B988AA7CBC7DBB9DCA99A898ABA858CA8B9BA88D8ABBD679998A66
col13:   877B887999C998B8769AB88A688AC8C98B9CEC99DCA59DCA7C8B67BAA99BABE8A8A7B8DB8578BC8A
col14:   968879DAB57C8CB6AA7C69689D9A9DBBC8A8C9F76AFCA4A7CA994B79C9B78C687A7A8AA766836878
col15:   5A775B7AAB75795C879CCB99AA9BDBBACA997C6DD97CD79CAB96CB36BFCCB4689739699669A468B7
col16:   449796BD7887AC77A5A989BB79A8AFC9D8B7AC8DFF78886BCD989F8A958B46AA78A8C8888356B5D6
col17:   2177897D7777A9A7856B89A9B576CB89989D988DBAAABCBAC8C648C798B69569DC997B8A44433567
col18:   83766779A7A5B999797CBE9989BDC7E8B999789CB97AAC9BABAB5CAA7B59B88B777C6C8AA6944799
col19:   983899AB986AB9BEBA77CDECCA6BF77BA89C68E7BB5CADAABADABA99688A8666858A678B83989186
col20:   3BA696274BCA7BA886B54ACD7899DB8A9969BBAA767CA78AAAB8755A998778BAA97C99895891956A
col21:   99975A8755ACAB89795BCA799999CD9CAA98AF995CBBB88B88959949DA3D8DA756A6B868A7A6CF91
col22:   D54878689A65995AB9CE89B989C77C8BA9BA9ABC6DBDBEEB83BA99AA9B45C6767679856988A64565
col23:   994A98BB691B877AA7BC7B8AB5B4A88C98AAB5D9989AC9E6987797698558798CB5A9BD86896866A7
col24:   86876689A56A7AB9CC9A9E8A9CC9AD8A9CA9AABA9B9CDBBABABDA77999F5976A86A797B87578886A
col25:   79659698A9968AAC6BB6C9BBDAB878D99B66A9DE689FA898D8C95A6AC9AD8AA89777B79843537994
col26:   6967AA6C2A67857BCC89AB8B6AB89CBA83C9AAC87CC96C7CECCEF9AA9BAA98ACC758D8B8A98C6285
col27:   CAAD9ABA89899BB7CD7BA7BCBFAABBC9FC9AD68CDAA8BBC8DAD7BECC9996DA9BA99DC89C76757A78
col28:   C89B7798ABD7AA9AACAB8EBAAC9BAA988DA6CDBABC9CCB8CA99FD8CEAEBAAAAABC99A9CB99C87679
col29:   8879E8ABD8EAABBB98978EABCBBC9E6FC8CCBAC8C889DFDACCAAB87ADBB89BCAE685A88B77A86D5A
col30:   CA67BB7BC997CB8AEAACBF7ACDCBA96BECCA7A89BAAACCCAFECF77BC9DDBC7964A98A6B9837B6B77
col31:   85A6779CBBCADCA8EFAF9FB7A9FBCEA8DA7DDEBB9CCEEFFBC8DCB9D9EB5C988BA799D5A6B66E6B97
col32:   747C8EB8ABAABBBDCBCAAAADDD89BDDDACBCCCDAABEAADBBF88A9DDBBBBBBC89AA9CA6BE87774B7C
col33:   DCC9A897C8BCACD88ACDE8CF9CBA99EBBCCEDBEDAA6C8BBAF99BC6CFCCF9ABBAD98B9BBBCEB8A689
col34:   C55B5C9CBD69AAFBA8BAC7ABFBBABEDCB9BBDF9CD7ADBBCDAFAF78ACE7DB7DE57A9B8CAB85F57657
col35:   B79B6B6A8CECEBCCCE899CBBBAD9CAEB8BDFE969AABAB99BEABBC43AB9BB9879D8B8A9A997B76779
col36:   B9D6BA96BB7CDD8CBADED9DDCECADDAAEE9CCBEECB9CDAA9D7D8ADA9C9BD98C998B98EC9953C8685
col37:   9ADAA9EBCB9A9DACAD8CDBADCFCDBEFBBCCFCBD89DBEEDAFCB9C9E9DB8CBEAECCBA9A88AA67DAA89
col38:   BB5998A7ADB9F8BDB8CBFA7BB8DADFBCCFBDFDCCCECBCCBDEEBEECCB78CAACB8AB7ABAB4A4997859
col39:   AAA8C5CBDB9CABDCCBACEDADA899AE9DEEADAC9B9CDFBCB9FB8A8CCB9B8CBFED89CBBBAA6B6AB696
col40:   9788AACA7A9BAC8CCBCBCA8BDAEDFCABAFC9DEFBC9ECEAECD76BDBB9A8BCBB9ABDBAEAAB86588CD8
col41:   BAE98688989BCBBD7CEB7C9AB99CBBCEBD9C9DEEDB8DBBAAAD9ADF88BBB99DB86DAD998995669777
col42:   9BCE3CCA6D8C89759ACCFBDBDD9CA9CACBDC9CEACC5ECAEFB6BAC9ABB9DABDBD78989A9A9694876B
col43:   5AB9CDB89ACAAB8CBBE9DC7CCD8DCB99CDABB9ADFED8DBC8BC9AEFCEDACB8CABCC86958AD7796B89
col44:   A8CBC9BE8B67D9DFC9C8FCBABFBDFDBD99EECBAB9B8CA9CACD8EFDECDCD98A9AB9AB995788B7C776
col45:   9D7C85CB99DC79ABFCBA9BCAC96DDFBD9AFEACCCCCAC76AFE5DE5ADDAEBAC8DBECE8CAC9978884A5
col46:   9BC98989D9BC7ACCCBB9D9CA99BFBEFB9CBBACFBDBCE8DC8E9D8AECBADD8BB8B9ACD5AB769689B66
col47:   BC498B9BDAAEDBADCBC7AD7AABCBADDD9B8EACAD9CABCE9BCFC9FAAABD9D46C9FE6CA9AA89ACC7D5
col48:   9BABCAA868B9AEA79CABB82BD88F8C89B9C99AD9EBDA9CDBAABACBE9CD8698C8868AB566967BAC66
col49:   8A9AA988BC88699BC9ACC7CD9B8FBDB7CBECCCAFDDBDAFEB9FBD96BCDC9CAE9D79A8C8B9A6C59976
col50:   9BCFADCC77AC6DAACDC9CA997F7AFDCBABA9CBABCBFA9D999A8B9BDCBE8CCB8C8AC6D87A948B9ADB
col51:   B99348A67C7988693A9976727CAB896CC9A7898785958CA967BABBABB999C898EA88797A177A8A66
ROC:     BPix_BpO_SEC5_LYR4_LDR18F_MOD3_ROC15
col00:   57C478566835893977A987A869E9BD6A5B3798A9567AB8CB6B4687C889B799496786586486836576
col01:   5979B7B9AA77AB689A976A6AA99AE8BD9BDBABBBCADB78B5BABCBA6997BBA96AD97BB586976A6969
col02:   887C5CA59C88684BC6898A95797BC9A9A8846A89799DA8C7C595A567B786B999783CD5AB599C7A75
col03:   578545A2859777A966A675C8BBCB87C988AAA599A5568A96EA9AB8C97ABAC6B899A59996A6966387
col04:   5A6767493B6B98674AC99B5B8D5879889D988A698CB9B7A79969774AAA9B97AAB779A97994289768
col05:   9376977497679A456C49B9977D9A98BB9D67AC6CDBB87B888BCB8A8A8978A768985A8995A9978A46
col06:   88883A757A85B9753AB7BAC9A77C78D9EC77AA99AF589A98A9BAAAA89769887859D9AC555A967758
col07:   668827BA7D99BAA858B8B889A8686DA9BA68998B8EBC98AAC5EB7BDB9BBCBBBBC8D97487BB4AAA62
col08:   9797646AB965566696935A7CBA88BAABA887B8D7A6A8698998AC76C5AAB56A86A87B7A5887638975
col09:   A8499D66B75AA5D99CABDA99ABB889BB8BAB878C998D8ABA7AA8B9C796A9689DAB5679D8AB6B87A7
col10:   85635478688886AC4995797CA99C88AC9B9F9A89CACAAB99AC675D9B65A89A69985A879858745597
col11:   617868BA886887566AA774CBBDAB6AB98BAAB899A9BE8B9A894ABA8A6BC875EB999888AA99A7A749
col12:   87868998A779799988A8598C8687EBAAA9A6AC799B9B97A5CE98B97978976AC86995AB8496969662
col13:   894656767D5B95AA8B987A8CB8B8CACB9AACB79CB99B7BDC8AB8A7AA8AA96ABA5CC8BAA9B86C6856
col14:   69A5597778B997A977585A99998887A89C9BB899A97B6A998BAA99A8CA3BC5A6976B7B6795865A72
col15:   98A7387898BA95BBA99A8268A96ABDA99AAA99A9987DAA8CB98A9B988A8E9BB878AB596689476688
col16:   59997A8898A98A9978ACA7BAA98A77A9ACBB8AA68D88A8998BA8ABAA9D6C887888C6586B85475A99
col17:   5736E57A647B979D8ABD8BC88AB9AAAAE97B9F77B99B9AAF9B8AD7CB7C7957B9BBB894E4BC999718
col18:   777789587965AA7A69A6AA8B87A98888B8A7A768ACBA8E97868C399997966987C995596879766525
col19:   47B78B4A987AC6BCBBCB8797B998BA69B9BADAACACC98B9D96CBC789698A997A74AC9759C8C8766C
col20:   4986581966899B99BB7BA9897AB59EA67A44ABAAB68B59AA8A7C98A978998396AC97888497B69A96
col21:   67966C35AA95697A5BAEB7ABAB9C6768D9B66A88989A3AB868678ABB87BEBA897C59749889BA7887
col22:   78A979766787B999BB99B995CA58D9988EA7A9A999BA78BC8A9B675A99F95B9A989B899678596559
col23:   689A47AA987CCA77B73AA67B9A9CAA86A79999BBDBC9998ACAAAABCA78799577C889A8898A785BA6
col24:   787998576A5AC9BA7A89E959C98899A9DA88B9AA999A9DB8B7BD7A8CCC9C7CA66A6B8DA999779A96
col25:   9A967AC4B89C998ABC7ABCAAC9A7DAB8F69C8BB9CEDD8988CBADBC9BB59A9A9AD7CC7A8B7D898A5C
col26:   A9898997A87B999CB9AADC9B7ABCBB9BBB98DDBB99ACA8798B9E9DA9AA5CB7A789998895CB8D6896
col27:   C789999B89958C8AD9D99C8A8B9CB7BBA8CCB7CCDBABADAFDDBAAC88CA9B8ABDB888CA9B898A6A6D
col28:   BA2AA8D98B888BCAAAC78D6BB99F79B69BE8BCCB89EBAB98D88CAB9EEC98796DAAA499A49899CB87
col29:   C8ABB58B79AB9AA8AD9DCBCEAB9BBE9ECBDFFFDA99B9AADAAAAEAACCC7BABAA6DB89789DC87A5AAA
col30:   9A996B89BBBDAA8CBB97BBDACF9B9DBB9AC9DAB8BCD9BBB79DA997B9BD8A59ABD978978A9B7776B7
col31:   9B988C9EA9AB9CACAAAAEA9BEC7BFAACDEEDFCDCAEBDCCDEDCE9AEAFAAC8BCE9C8A9ABDCBA4A8AB6
col32:   A7CA7E7C9A9AAACA99ABE9ACDBD9BBBC7BEBAAFCCCCBACEA9ABE79CFDBB6CBB9A67CAA88A979DA87
col33:   89C7ABBB8A68B89DB9EACC97BBCBCEDCEDEEACCFDDE6AEABA9ACAB7DBD9ECCAB98ABB8C779C9CA87
col34:   D8AB9AAA689D8BACCCBC8DBCBDB9DEAFC7BACD9EAAAAD9FBAAAB9CDCBDBADDBC9CBBAB9987A6ABAB
col35:   797CADCC9DECBAADFCB98DDFCEDDD9CADBFDAAADA9CBCCDDF9AFABABAC9F9DCAC9C8CCBB358DABAA
col36:   CCAEA998AB9BDABAC8BD9D89CCBBC9CEEBCCBABFDBEACDB7FD9CFDCC6CBCB8B4EB7ACAA9A6D9AB9A
col37:   9CBAAB9997CAAB9CAEBCBFD9DCCA8DEBECCEBAFDEDBEBDBDECCDCDCC97FDBD7DCECBEBB8ED97DA99
col38:   9ABCC8AE9BAAC9AABAAEFFEBB9FDA9ECBDCFBCECCADBFCBDCEBDAEACCDCB8BAA9C9BDB87897A7DE7
col39:   CCBCAAEDB9ABDAAC7DB9ABDECACACBECCBBEED9BABBD8CCBB9BBBDDECDADC99D9BAB9AACB7B5C6A7
col40:   98CE9CB8B8CCCCAAAB8DA8FFE9CDEBDEBBACBAFA8A9DCD9EDBDC9BDBBDE9B9E99EBA896AB8BF8CBA
col41:   9ADAA8DAC9BAA9CABCDEDAABFDB9CDB9A9BBBDAFA9DB9CBCAECDEB7AACBDCC9B8CBCBBBB89A8B79A
col42:   A7B888AF9ADCCBC9CFE7DDCBBBBCBACAEB9EFCB8BBDBDEFADCBBDDDEFCDCAA8D986DDB7ACBA8A6DA
col43:   FDCDCDE9CBCE9ACBCDAFCCDDCCDDCDEEECFDDCC9FBFEAAEDDC9CFCED9BBDBAEBCEBCBC6EAC97C9A9
col44:   9A9C9AAB9CCACBCDDBDBCDEDDBFCDACFDABAFFDFEDCDBECDDBFDEFBBCDCCDCB7CCACACAA8C7ECE79
col45:   8BCCA7BAAFFCAEF9A97A8BBAEA99BDCEE9BECEFDFDAE9BBFDBCCFADBCAAECB9DEEBA9B9B9BAC69A8
col46:   7ABAA8CCBA9FDCC9BBCCB9FFECCDDBCBBEDDDCFC9BBADBFCADCE9FDF9CBBEFAB68CCBF8BDCECB989
col47:   FCC9EBEBEBCDB98C9BACBDBCEDDBAAADBDDBDCA9DDDFCEDE9BDFCCACCAFABDECCBBCADEAB4BD99EB
col48:   9C8F8ACC9FCCABB9CFBCACC7CF96ADFFCCBEEBDCDAADD9EBDCBCEFBC9BAED9EC9CCEA58B9CBB7788
col49:   BBDE6C9DDCBBCD8CAEBECCCDACACEFDEDCCCFBFEEDDBFBEDFFEBFEDCBCABCCACDD8B98BCBDACBADA
col50:   ADB9ACCC8ACABDCBBDDAEDFFEAEFDAEEADAEDCCADCFEDBBBBCDEADBEEBACCD9CEBDCDCB9AABC5BAC
col51:   6C6BBBA7BBA87A8C9B9C9ACAAEAC97DADC8AACFDAAADBDA6AAA9D8CCDC99C8BBCCA9CBACCACDA77A
