ROC:	 BPix_BpO_SEC7_LYR3_LDR20F_MOD2_ROC0
col00:   b7898a888baaa7accd9679b8daa9aaac9d9be8a99caad8a8abdaaa9babbe9ab8debbdcaac9bcefb5
col01:   6b86a9968b9c89ebbaa5c9b7ababccbdcbecabb9acadafaccdb8babcbdadbabcddad99bdbbec9bea
col02:   97755c89a697acbcd89c49a9aaadac998aabaa999beabf8cbccbecd8c8beed8cd9adbacfbaaafacb
col03:   4aaa98b9859a9a8b9a999788cd6bc98ccbabcd7fcdbcfabbeabcbeaadbbdfcdfdcc9dbeaacbbdbbd
col04:   c7899cbca98aa8bcbb8a6ddcabc7cad96cacdac9cdd7dcbbfa9dacdcdddfefb9abbdbedcaeeccacd
col05:   96b8aa69c8aa79caba79bdba7a7899c9ad99bdbdc578abdaecdabcbcbceaadfceacc96efbffcaaad
col06:   77689b875998b987aab8cc6ab98bbb799daf9bbcfcbaacebd9a88f8999c88fbba8bd9bfbcb8bacaa
col07:   a8487989657a89aab79ab9cbcacc79dbcbc6cc9b7add9bbedeeefa7adcbadc99dcd9aa8ceaabdabd
col08:   67899579a989848698a6ebc989aa989c5be7bbcaabbecbdba898aabcabacdab8c9bcd9dbaeabaebc
col09:   98a2678889889b99d9b86b798b96cb8b7bcbdd9cabada7bbcdcddcadddcf9cbdbada9fd9bcbbdddb
col10:   596c86ab697aa9aa7796c7bcba9a9e8abac8aabad8ebaacbb9d9caac9bbddc8bdb9dfbccaeccadad
col11:   6984a89ba97849aa8bc997c9b8b9768887cba9b9b9caac9d79ebcaccf8d8abccebbabccc97ddcab7
col12:   4649898b88976987a7c87967a7899babbba9b8abe9bb9aabbabcd9dced89e89ddb9bdb99eaeefdc8
col13:   858945579a99a65a6a9b9c85988a9bac9ab8ead8b999b9a986989ace8dcaecddac9997bcbebccabb
col14:   775a56a6978a7957688584989b89898b88bcbaac99b6ac7ba7aabaa8cdb9aabcabdccad9a9bdeacb
col15:   8864867a97a57a874b7a9b97c8bd98979799abaab9cbacaa8b98cb79dca9a9bcbc9fccdbdf9abbab
col16:   85878889c799975aa7aa69a6b8aba99a49b6bb9b8dbadaabb8d8babbbabbc9ddead6d8bdc9bacaca
col17:   45b927738795467689656a899869ca979d9dcd77aa78cb7ce9a6b988b9af98a8d7bdec9cc9cade9a
col18:   a46868a65998bd9da88b3bf888b79b869ab968a9a9c758ec89dccbb8ababcabdbbb68cbcb99bc9ab
col19:   6466869945969a679748a9b99966c6c787a7a7b9b879bcc9b7aacdcacc9bb89bacafbb9dcdc99fd7
col20:   729796687958788985a899999894ac6979988789859ac9cabcbbabca98ac87d69baabfcaccba8979
col21:   65955377a786675762988a4b8a866f99ba689b98caacbaa9acaab9da99bdced6579abaaabec99bb9
col22:   5449656978aa1a799a79849979658b4b98879bbbaaa8b9b39a84bd989aac9eee9cb77aaadbcbaac9
col23:   866687547767687a74848478b69967977bb977997aa8da9a96b67dac8799b878cbc9bb999babbebb
col24:   6a6788767648437a79558959a87bac8979a59878bc8a78888889b76bab8c8b8cdba6cb98bb8be4bb
col25:   6545876589a7477578a47969a7a97c779a89866998d9bb8da8baa9cad989bbabb7bda79bc88cbb9a
col26:   975658796655599a5855cb8c68c59668e8b97998ec9addc9ad89ccec8e7a9ccdbed8bcadcb79c8ca
col27:   a467679467567387a87979a9c7976779c7aa7c7ad578d6cb6accbdd9dcadbcbd9a9cbac7cbb8eac9
col28:   7774b8a97697b86b9aaba47a8ba99a9accabc7d6c8abbbad9bdbdacab8babacba9bdbbcccacddd9b
col29:   366445595b878898966c9566b8a73aa998bbb89caabac8b699abcc778aab98caad9de99bbaaaacbc
col30:   7846b58865764888a9788aa8c7ab98c6ab66d9c86abaa8ac99ac998ec8ccbb999cddfbccbe7cbcaa
col31:   256566968e656ca55a89859a96989bb8cb96b9ab9c8a98ab9ccbabada77b899cbc8ba8db9db8acba
col32:   5889469876b49a78a797985acc6c98dadba8977b8a9fda8accc99b9789cbcc66b79bba9bbbcd9c9a
col33:   8744786878469a63a986979ba9aab586a79c6a79aa9bb9a98dbcbb79d7c8cbbdda9ce6d7bb89eb9a
col34:   66269698565997578659b7c75a6898978b4acbd7bca8b9dab5b9babddc9ddb9eb9adb6b8badbecca
col35:   9356844895865665aa986a794d76877b9dabd8a99cba8a989ab859a6ea6cd9b99c89af9ddcfdc8ba
col36:   188a55674738876a83867874a5a5b99c9dbaa9b78559ba7ca999a9ba7a88ba697dbcbcd9aacaca9b
col37:   6475697657879656877a98a897c677a989c9bab9a9aa87eb7b8ab9d9cb99beaccbcbc7dd9aaeb7da
col38:   558778789778c6a9a689a997b868988b8da87ba87c78b77ba8adab8bf8acbbbacdadb988edfabeca
col39:   a247695896886835a8c9b978785777a6ac8979e797a7ca9cbbba69bdbb9daccb2b6c9acb9bacbacd
col40:   52656545165744a455a88b829787acb7c9677bba677ab9cba958a8abb9b9bdcf99a7badaeadbdebb
col41:   65565296617967655b5b68789986b689999779a6786adda6b397addcb8a7d8795c886dababccabc8
col42:   67164674595667898246749595699bab88a9b7778d8985778b8b9ca8c6abeab5679c9decaea8bc8c
col43:   956177554b77764785756a559a672b9c68b99b88979cbc899bb969abb5da9d8baa9ce9899a9cccab
col44:   43564699688696973786896596888bbba95556caaca4b979c8887b88bc6bbcda8978af8a9fedcdbb
col45:   6268557685585755586666a9b57688698698a99acad7a9b6899acaa7a99ab5ba889898e99bda9986
col46:   45754734476954a98585699a6788a788887b8cac88679bcc89988baecadb98ac67c6bca8ca9abba9
col47:   632754a58652939656987888b85887774ba49ba4587aa6ab996c978999c988adba6568ba8ba8cba7
col48:   14745589469565868a86789598487a8b79786386ab789ca78b8ba4a8cba5a9879c569ac489a9baa8
col49:   5624657427b76612295778a599978a7357867949a9984985976984b87a679d78ab85b7788ba8a9e9
col50:   65286687479247558996697b879975774678987a679a9a9a76a799c77cbaaa5b6a85a97898c987a8
col51:   32464622531552366563317155514453214a5736584871698218694867b667796b66a6a3486aa756
ROC:	 BPix_BpO_SEC7_LYR3_LDR20F_MOD2_ROC1
col00:   5958295c978a6b6aa7c87488996b986b95695ab86aadb899a9ac39ab58667c48898959676ba56363
col01:   85c2a78a6a67e74468b55b778e8c6cac7cdc6a57b9a995b78a867a2c8afad78875d76b8abac77d96
col02:   7b9824be4a5397aaab8375b4698aba7d8999b8a7bdb3b56fb7cb67ca868e7c9ab8dfa6954bbb6d58
col03:   88597967974aab676788986e7c5a8b9a7a8c7a6b4ba96ccc976db6bab96b7b795b9cb5eccdacc766
col04:   8559675ad79d59729a6c8d7daaaba4bb8c9daccc98aa8fba775d96ddfa79bcbbca7b3de8ae97c997
col05:   3a34878c93897768678b79685c6d9da5a7988bc9ed8ba99b69cb87c7a48a9ae6a5b6b8b469969aa5
col06:   648575a9188647cc57b7bbc9d7a899a99a8b94ed77a8dab8879f98a7d9d8ae87875badaa6ab8cb7d
col07:   84a786676a2a88c86b7b5b77db588c875ad9b2ebd9fdca6bccc9b7bbab7b6a8b95a6c8866ed4ba5a
col08:   69767576799465b1457a9aa8587b79aa4bcab9b8989b8c66adcc6b49a49ba7a9ae3b565a78c69c95
col09:   47679c3b4649684a3386facea5c9996fdbab526bdadec8bf8bfd9b7b8767cdd87caedab89895d472
col10:   435b8576669b6739bdb5567356cb4a8977c8dd89b8bb9c8fbadd2d7aaabb8cbf74aa81c9b8a8c899
col11:   54525a596c74865767888957974597947d7d968ca9cad798cb77c6988bad498c9db8789bfa876736
col12:   3714a8e6356976a597a398ca9888c7d8b668a9977c4b98a88aa9a8aca4dabcaa7997849da98957b6
col13:   c564736657988877e56777f775aa8858bbecb89cd6babd789d9b87a8c56bc76998a6b4b766497563
col14:   96357a444314c969a2a674b8a9ab8558bcc76a867a9d6a88c7adc6b9b98b89897354b96a8a89d8d3
col15:   812286977771a9777297c87999999a97a79f89adb6c88dcc9b8b875c8dae9887c9a96a9856b4a597
col16:   67878b63421a989abb92a7369da75aa6ba8b98b8aa8cdbe9ad82aa78ea88ee6899789987ba869585
col17:   56947762163269765c99bb9a64c6e8a86b6aaab692b97adba795c77997a877789a978a9b7888a8b9
col18:   82529547a55a547f8528a5aca98aa9a996a87856a99fabbaa8789a47967ad89b7766866b986ccb6a
col19:   247478875874717648a794787855cab85b8a9c9bb7d99c9b8b77787c8da79cdca86c74be758cb997
col20:   52715836389955869b764898b847884577c88927794a4afa487bcae86559da4b78d719aa45b97b88
col21:   97794845468797a3a2955567c7d8aa9a3c9588b5d577cefca98998dbfbc899ce8b8faa8999d4aca7
col22:   96a6b566648578775488e7891be8a96cb7b9994758778a54aa995b4ccbcac2e449a938887f69d678
col23:   754a1598b2897777738775a769bf8559d59d9ab465ad96586acc7b77d787a9879ab8698a58898685
col24:   867874677769352785877b54c3ab895a8966998678c97d89b69b7ab86988758c26a9395d89894a94
col25:   143676869b7973856a3791aa5888698b68ab8888ca89b59ab2c63cb95adb98369e9876678fa73e56
col26:   7749a868a776779989c68a87c7dadb56c98bc989b8bcbc9d6b76a87aea9ed875dba9aaaab899aa67
col27:   39395894b88b6cf4a74793cb77c97899bbbc8bbbbebc8989aaa1d9a7ab68aadc7aaa87718bad568b
col28:   89b9a4a67382b77e788cf78a7c7cf9da897ab6ca688cedeaf7ccc6b8ababa887846ac98baa6cbbcd
col29:   d94759b2b366698eb96766bc7eb88ae779bc9799aba878bbbb88cdaa824c4b9b8a8963999b9bbad4
col30:   85c6ee835a88abace2889bea9bb84ca896a6ed79ae72d7999a99a86cce5d7a79ac9996bba9fc5eb8
col31:   55785b9aca336c8fda8877f28afddbcb86fa89ad9cba76bccfabcbccb7cbc9b8778cb99d9a9bdb7a
col32:   475a8738a655a97b9a8a7d95afbfaa8b9cab7dc7c98875b99bdc9cc89bfcc7b7b9ef5adbac7bc997
col33:   d77b86d95d9b7baa2cabfaaea97ea6bbb38afb8ba8fbbb9e85cc99fa9aeddd89bfa188c98fad7a97
col34:   78657577a57567976a5a798da9c8cacbde9b5a89b86b8ea9bdaaabbccf8cddd9def6cbaa6beceacc
col35:   576996aa958cce782b9db8b8be6ceeb9bc9d8b7987498dbd6bfaaca879cdcaca9eaba679e568aa6b
col36:   7978d596e99cc7893a5acf8ab697c88badfb85acdcce6cada8ba7c798bac9d9bc697bba8db7acd68
col37:   4a4958c9a7d8787ac8dbdbdbc5ccdecd8c8b96bab7a88d7acc979eecda8afab6bdd6774a996c6fb7
col38:   4937c98e939cacc6c96bdc96668bdd98dadb9ab9b8b9a8b9babedaa79d98fcaa88c5a8b6877bdda7
col39:   16a467787a7934cac9a8c2bb7bd8edec9aadbdea8949c9a58aa8f89698ed8c8bbcdcddc679aa86cc
col40:   7772886968b65776d8798ab98aacbdbbbc9cbe9888cfcbddb897bacacf6be6cca9a6ebcccbaecbd4
col41:   67ab8a848c8a9db7786aa95a6bdba9867ca69e7fe69ca76bcdd9ebdc5edaf8a6daaee96ba8c7677a
col42:   67a8c5a7d59b9ac9ab69a9aaea59c8dbcaa7c66f9f5cba9b96acfbbbd6a9a89ba6ab4a9cafbaddb7
col43:   58677ca76bd989f797fde3d7a7b7be9aaaa8c9bacdedab499ccdb7fb7a8bd9bbacbb7ec88ba9c7ec
col44:   4d759998917756a9d985fcaa9a8d987786d9798bc8dacab5ebaacb6b87bcfbceaedba8d2abbaa98a
col45:   73791c68977883af67abcb7bcb949acb75bbcf67caf68dbac9cbf689d8649aa8e7ceb9bab5d88bc8
col46:   b986677848bb66bb57a6d94bc8e9b65aa77d9eadabcc9a9aaca58afdd5a78d9b76b4efabbbc6ae8a
col47:   46766b9898b9a79a9d8c98994f99c79cb87abf7bc99deda9d889a6f574888dac999ca8ad78d99a76
col48:   8485578ab868b4dca9c7a93e87cd7a97eb9f6ba7ac8bba8beca8d97bb7a778f67b69b87aa877d8b8
col49:   37d58a77794a7b7686979c8a98bbb7ad96acdbadb872b98d6a5c6a5985c8ba6bfbbe7bb48c39a955
col50:   a3c345a9aa6a97a786cd8f73bc6cbbad7a7a9cb9e6989adeb8fbf9a7c9bbbaa9e98acc9abb9be69c
col51:   63617652265973686549649a1966b76be58aaad78a768ad66a84b686b8b88976d77e3556a28a5581
ROC:	 BPix_BpO_SEC7_LYR3_LDR20F_MOD2_ROC2
col00:   6886b1949783a26d6d855baa53a98b6ba89ac8a8892967656b4ab34885afaae2b76758697a8677d1
col01:   53576aa86677b75d43174c4ab65bd7cb6c22879ac857aa7692a6bd9bb9e4ee98c6a9bb869ba9ac69
col02:   4f77d9c645a7a77a949a98eca7967ba7ab4b7a9799cdc7ea978aa9a897d8299898c99caf7b7cfc84
col03:   5569777698ad59945c6cdad99b78d7dad8e8bb988ba8f6faab9ca77f5689a99a87997bf983796559
col04:   577bd88a5894897c3abc79cba88a8bc3ebb695b7cdcaad9d87d975a48b4d98af95a8996b9f9958a6
col05:   34616574535b368d556b697eac9768798bbc96a76ca9addae9cacde79aaade7c3a8bc6a8bbbaadb8
col06:   818878446d8879b6a966979b9c8aad79ec84d78e5bbcc5a764ea4289f9896966b99c9db65ba97597
col07:   873d7659b58b97abbb7ad7b7baa8b98bb7ac6c2aa759d5b764d976596c658bb7e6746475c7aab695
col08:   ab29758b7787c8569cecc56bd7abc9cdbad446e74eeba796c992b65576894aa75d7868c9d83bc887
col09:   7a725a6885a5aab76968d558acbaca679c9ebac67a6dd96d97d8967d8aa8bab98b5fd4877b398eb4
col10:   586a92b7a8986cbb648985a8774ca6799bdc9c785bfc9aa75599dae6d689c8ec97648cb1a78a73c5
col11:   a4b818798c59a9b9c7a96aa93f78867ae9588b898c5ca6b9c8aa657d9f994a9b83a7a5e2b59c9b88
col12:   6774364887a96a47d945a6ceea989bd9697ae968b5aa6ac9b8cbfc667bd7898abfd6a756aa6689b5
col13:   366654c7b185bc6b89b6a6d9b466c9a5c9fc7936697cd9e7bd6cab7ab9fa8a667879b66ca8aca8d7
col14:   47987a9477984c78785f93b58a86799a6cda87bb48a788b8add975697dcc58647486fab827dac557
col15:   6647b86561b6ee6b6b9aaa8ca7971725abaa76cb35c8c9ac7ac79a88e9c755f263a4ba69bb778795
col16:   4623d96755658ac18c8736887a42dab958edaac8b9cbbbd7bd389999ba3a82ca88d7ea685578e857
col17:   566b523475a49c4a868858b98767c777798aa868967cb767ab5b878b5b49ac59ccaac6a7466a7855
col18:   7337689aaac986da4a9caa99a977bb9db7a77ddf369968aa96a984db789c788b3c6d7b978bb4aab9
col19:   a8b531a853136baa585c4a348bad9897978b94895bab961d9429c8a855b936a878756c8599b9687a
col20:   64121285798461397b74ba869ad9aac668acac58793848775a68eb987799be3575b7a989d49dda55
col21:   939c95547596484a57687996a9dcbcab779a7ab6cb4a6dc55d986b66a7ca9948ba975ca53d89785a
col22:   3297e37a5747472554a9497ac6ae8c999b89a58854b7988648a3abb64a7db6c58a69d999ab67af58
col23:   586a669658c95a6cbb685bba75c868a89e984a595aada3d7777b67c59a9d863584bb8ab978dc7abb
col24:   4a48644539ca57a78788a6886d79a8aba9c9699bbbb96d7ac89797aa859937a9986ab6a78ab64b84
col25:   98a769985449167a998ab65bb97c3667bd98975a4a8cc75aaaa48866be561c9e67778b9b7a38a518
col26:   b59944a66795ae3ca9cbd8c886dbcbcbbbed98ab9be6a3cb6b9956caebb6969a7d79ca9b9daec4a5
col27:   59897b65949a65a89a68a7a9a99884cb6d9ada495f49ffd886a1e8acd9abdea7ac99a4c587d7a9c5
col28:   7cb7aa9a972baecb89efd78ecbccbad9cbfeadea7bfca8fdec9acbbad7cd8b996aa57b6bbaa9798e
col29:   b8d7178dc6ac7b98c56bacf8cc6aed56e4dfaeca9fa7a5e8c8b997da8b5ab9f8d969bd9aa56b6b9a
col30:   a879a8b49bd87787a82daac4a69ca76fe8da8bc78bbc8e9ada9bab6f994ceb996a9ace8c97a8cad9
col31:   95bc8ccbb9c89389aa79ba9cf77ed7f8faacaccbedadbfc89fabcaaa9aeb7aaaedace99f88cdb9a7
col32:   a588975dc9c9868eca9cddeebd3b966ffadebc8b98a8dacadaaecad599adf8baabbd9ddaafa6dbc9
col33:   96cab6a9fda2aa76c69c9999a7a3b878dcb9cda9adbfa77bafd87c89ce7bbabab9e78929778ac8b7
col34:   85a77b661abb55a7f77a8aec9dabbacec9fcca5fbccbcaf9998ecbbcd9cbdcc89ce8cdc9dcad5c8d
col35:   65ac99eb9c59b8e66c9c8b9488cbaea79aeee99ab9dabae8cdd9aae7b8b9bdeb7e9daad55b7d2b85
col36:   5a97ec8957876b96aac6398aadccc958ea89abeac7d678fbc9e9de9d8cb888a84cb8cebd5ebb48d4
col37:   96689e9a798bf5d8b5c65c697fc9aca99cbc7a7edce76cf9bb8c7fd957b798cbaa1c9dd7a56b89c4
col38:   896bdd79daebaccc8cda8beaabb8cafec6fa7e98edbca7ba9aa7bcbaaff8ebd999cee8f88baef9a5
col39:   98597484b8a7cbc8f5a7ad9ab5bdd86c856acc97ff7eb999b9afacb8cbacd967c7abb95b97cc9beb
col40:   856669a6797fb7d9d7dfbbc58bba8cbf58b9bde5eacc7f5aa5bcbabacec9bbaa8ad99ecbd7bb898d
col41:   78b87f9ca9b79ce96bbb9cf6fbce7f6ae7a58fbeb7a9ecc89b9cdba1887eb37acdc9bb9adda4a878
col42:   876699aa89ec5dd7e96279c5986999a7eb6facdeaa7979ae6cc78b9899cbfcddccd98d6ddcadc899
col43:   76c8aaf5a959ea99af6ac93bd9ed5669dad7b7c59cd7b78f7ca98d889caee9b8a47c58accc6c6ab6
col44:   58855d66b3a4b56a4a89f7eced9bdfa8ab68eaf8ccf9a7db99aa94cdac9b7899abdf68a9bda8edac
col45:   639599e8afb98ba9a79abb7dce8dbfdf9a989b7cad97c88aef9994897ca78988adbacfcbaa8f8d68
col46:   8c9adb9aa97835758a888d9cedca5caa88c9c8886b98bd9b9ae88cbbc8ab6bc9bb99987f98aca898
col47:   64a6c857a8d7ba78bbcaeb6dac6ecaa6ec6dabb979da7fea78ac7dcacba899959b97c957fe7ab695
col48:   d846ba8688769d85a79b7c6cec7ca585abcbeabbc6da999b8a7675aaa97abf88bb8989c7aaaa8f54
col49:   78c5379478bbb899c897b987b599d5ba9fa7bbcbc9a98cde8bbbac8a4d66a98ea8c74a9664c88534
col50:   9ad6a1a776e85d5cbaeba8abcbf898bb9ba8b99bfcd8b19ab9fdccbea4cd8cafab9daa9f9fb4b6e5
col51:   569995953775747656568ae49accfb8b7799a98337b7b678354aa687c589694a846a46cb666869b6
ROC:	 BPix_BpO_SEC7_LYR3_LDR20F_MOD2_ROC3
col00:   8586ca68cadbf8e9e8a9caa97a999ba45795a947a7b88ab88a75866968c46895398a649952876246
col01:   78dccb4aada789cf796997caaba9db678aa8e7bb46baaa766aa9c7b88977649d4846d54b86698926
col02:   98736c9597ceac7ba6aca94b99c7d68cb898ba9aa887b9ad9bc97a9789cada54ca4678b536755757
col03:   89b8cc76b77aa677a9d8bb9bbccbdb89b98c9cb7cb88877896aa9668c7589b5abbb97389b88ac855
col04:   abb8b8ba869b9888baa8cc9b9acd8bb8d7b86bb8dddf4b5b69b8989b68857997b7882ad885895867
col05:   e8c7cacb96bebe6a5bc76bfbb8d7abdebaabbb89c85a66c5ca9c859863a29a987633698979765568
col06:   597aeb9bc5caaa98b987af9878c6bac7ad88cca887aa7c68277b994c6785a89b88a288cada719447
col07:   69c78a486c9a9bc9899bb9ab799c9ca99869a9c9698c6996865679647c7d57867878a65455996855
col08:   c8b7799c87bba89e9a5d87c8b478adabb4ab69ba4656889aa78497c7976c9588a776698597868381
col09:   cdb77569898cc8b7addca6e7c966a7495cb76aba49a7a946bba9b67a4899ca977968a576856a3648
col10:   98bb9b9ac8e9a99a8d789c2b9a97b899a9ca8b89a87b7ab6a989a8bd83875b7488584956634bab67
col11:   4789b6c8ab68865c6b9dcbdc79aaa5a779a9c9ca94c8a97aa7878a89776b587a4b758b6482579597
col12:   afbbbab99acc9cbbdf9e75d2ba8cb6aea997abab878b7a699888b66a89979568665787a6789884a7
col13:   78acc7a989778665a68784878c799a6acd959a577aa4a7ad86a8e9985895bb86925a64d678898689
col14:   8ca9a88ca63666bac9988c8ac7b9a699a8a9696aacb797a8a798775b786679644cc6837566863445
col15:   9a9ba8e65878a573bc7bbb9a9ca9cb89a88ad9ca7897a557998aba65c75a888879c8599567a55672
col16:   5898dcabcba7cbc999757e798acbd97cc9cc8aa8ca8c5ba97867887693977596977963a8581a6697
col17:   a7a869b7d7a8a97986367997667989bdc75b7898889a667794353895439963985329559156c89531
col18:   a59998a96998b9ca7ba999897a67aa9898a5b5c99bc4b248982648b7979ab76994a557a764674566
col19:   a9a96a5dbb7a89696b787979a99c778878d37446c655bbba6a777881a7b5a8d4877894865554b782
col20:   996796887d975b966ca598759885ac8aaeb99788da88c766b8aa8745664989882464596547333945
col21:   88aaba7c7c67666b7cbb9bc7a9ba75a9d99a74578987ca69287666664a994589a755669795738845
col22:   ba7d7666ca898c8b68a78a7a99767cadb877c898a896699799ca7a9977956ab88983751965667566
col23:   85678b969998b77879c8948ca567787a98aa747486bb786984627586767658444885884715967754
col24:   8889547ed4788aa38a99aa589b47abbb8e888bad8a7a6c9786579858a995a566b5361478a5547883
col25:   69a664dd797eaa94a46899867a9777a94656ac688c99db38a77c8b96c399716a8373552a628a5155
col26:   988ba8a7c6ef8b89dcccb6a9a97ccf9a9cad766a99dbc7a7cca6aa6b87c299979f9a76d37689a356
col27:   c9a9bdc569a6c69aba5d9aa7c2987adbabdce9ab777ba8a87954758ac8687a768653696783862966
col28:   bea85bcdbeac9cadbaadaca9a9bbbb9fdeca9799afb5ea8a6a684667cb6d6a596b689567ac7aa7c3
col29:   9a9878a799b96bdbaed98969ab9b78ac9ac97a77a66abb9885a3988a6897a78597785a65a4997953
col30:   aeabb9b7a5989ecbb9d8b9aac9ba7d9ad49c7a9aacbaa8ad5c7f9898936bb399769839d944856497
col31:   8caab9ba97b77a9ace68bbaca96689bb79ba58989b9f19d98899b895999757869862b15855428454
col32:   e7dbfb98b9bab47ed7d88afdc8da5d8b88b79a9a8a97a7ba58aa995af7b7acba6a9886b45854a776
col33:   bb959a7c79acdabba568bba8de9bbc9db7a9c5bbab6979cb7394a588694778865c6981564674a976
col34:   b989a9bd9eabcdc8a9a9ba9d89aaf9797bc5b59ad8ac789b7adb9b8a7897965968a76786a9982277
col35:   5a8e888faa9aa8a8c8dc89c698cd8cb9abb996876b7a9743c98a86668c9679c77aa4996c767a6774
col36:   a989977caaa9d98a989787ad8bdbaa8d99bbab9ae9c8a787b8ba7e97a79a7667677bab846a34b474
col37:   c7bca49da9b65aa69cc9ca9bdca8adaabaacab876b87896839ab69739a9c892e96499a94b7638746
col38:   98bcdcaa99debeb4d887bdeca9daea9ac8d99a9bbbc9b9568cace9ca66c68677c67a866689587895
col39:   9c8cbec779979899b7caaabbd8787aadba976cbdebbdb7d79af8c9c7aa87773893a77956646958a3
col40:   bb79dcd698c89bcb5ba8b8bcaaf9fa7bc5ae987888b75ca99d89c9c8867a684b88986a8398979279
col41:   abddcab9a687b7d68aa7adb5b99bbdbc9a8978d7cbba86978db7b99a69968b57b596876327885641
col42:   caa885baca86c9ba8cadbcfd87a9aebaa99eaeb8b8ab698a9787b8ab8888984358b8955696719958
col43:   acb9cb9977c89b8ab7b9db87b9a7aa98e8a6db68aa756a68aada7986977867da57364a846a3765a2
col44:   adb85b9bbbcdb8bdccb98a849af9b8b99aaa7dc888cab96698bad64897667766b677898694786838
col45:   cb9898bcdc87d9dacc8c8abbba7aa6bd79a9bc7d749ba889488aa98997b6688283771b977a598475
col46:   8c6888cac67ce4abaa89a8c8caba5ca8b9d69b98ba478867999aaa98a789a3b56b85665873cb6574
col47:   fe5bdb8889c8cbb99c8b97d9c8859bbd6da9ada79b94699d78b76d35e6dc64764d466758895b9754
col48:   ae8bdb9bad89daa6c7f8b8b6ba7dc98aab6d97c8499778bb3a879897c66558548a69b54793569914
col49:   bddd97b7a9d79a9c78b85c977cc788aeaa69cc9abc7956e7b4ba7b629989cca3aa97396ab6219694
col50:   d6bbbaaaea6c98abfd8ac87cd9ab9aaa7bf7b7bb898987a2bb9a6a9a55586589a886a27558954946
col51:   b7a588aa3a8bb8a7c885888998c86c564881786a578677573589592687b6a77471a3239633975854
ROC:	 BPix_BpO_SEC7_LYR3_LDR20F_MOD2_ROC4
col00:   47493965773585633a2156775865bb8d355a6669777b859a686ac9ab6ad959a7986c8c669578ab89
col01:   34268674697665346585572775d86b8ca75b97c8a9998ab6cba87a9c9aaba94cb5c7bc898aabc8b7
col02:   38696661479a74a465978979b568cd8a469b86669aabbcaa7c698c9b99b9bc7bbadd988bc9cbeaba
col03:   53458b833793567557877788a76a659a8b9a9b8aea9a7a987c98b9b6798c78d979aab988d779a66d
col04:   8648974774486b883a46788a4b6a7978779b77598bc8aa7797c4c959a7a8a8cbabb949fa78ba8e97
col05:   85557773487a568ab787677285789ac9878ccb89b89da8a7e896b9c998a8ca5b8b69acab8b6e6ac8
col06:   585689748a7878b7788b788a6888d8bc7678c78a677db8cac7c99aaa656589a69cac89b9acaaa9cc
col07:   685565555b848846447a87854769867a8a864c996685778a9c5bcaaa9c9d9b94bb9a87aba69b98aa
col08:   5342457887785858a989595696677876a96c8c77ba8a8786999788c8b697b5adb79a8cbaa7b7ab87
col09:   452545a885598653628a3967ac5a9a9ad99c4958a978b9cccdba788be9bbbcbabb79ecbbb7ccf8b7
col10:   678794a5754137a8478677777599698cc36887aa9b7a67c6598b7a8798a5c6b95cc89acb7799a8da
col11:   26723835886863687a54692977898876b9b89396568759775697a8b45b9ab897838cb88bb8a794b7
col12:   46667d43727548496677699c49a2694697bb8a9a998a98b7788a997ad9687698c76a89da96d28b8d
col13:   88994635669677759787a7a8666789998448b6e676dbaa4769986895dba97a49aa87983a9bdcbb76
col14:   3619416986676657a886567938667897a9b8996a67669857a5599c58a97c398766ac78a658ac98b7
col15:   6145a1264745a87464964a7399a79e6ac974598a9a77978ad656788ca69a9d888abab95989a67849
col16:   2874669677988a84988bab98b7678aa66b687b78b6b79565ab79b18c87958b9b86998b789879b77b
col17:   7546699a577458876a4aa5644677ab4645795c859289aa67aa6459a473a97ea57a9897694b599962
col18:   954697662429769a386896795b8695995aab6a799954d649a899aa8785b6a66b7966776b83998989
col19:   5ab226388567769998789b9478749b84ab6679787777ae879869a9795859647c87798877b7669673
col20:   54765a796256239738436589378589ae8789946876786d5a47864887a36947bc59a69689b739c879
col21:   659866986596847979978b38964aa548a8caacc8647699c91b7879a9998735b5d6989485999996a4
col22:   256368467655868c9789566794b5a77279897686587b7398967895859679a7c77d88b986779a27b7
col23:   54966266463717d57782592899558a7584a97b94827878a64678878664b988369579558474375561
col24:   83755583779775a7a6686889b693488369796a298b97747b6658967858b87576952649399c767684
col25:   4289637496348785a79969e88147b8487b9557937765d7788485b867a6a58848889b9a9489768aa2
col26:   4678985688799b6865798b8697c99a7a3aa6b6b85687876aa7a87966a9c8a9b699a8b8a66a89c496
col27:   456776664b5687ab8a64789895496828e7da89a6429b956a699a899a5aa767c5a5168b6989888a64
col28:   469487ba785776c8bb586aab878cab77a97a5a9899aacc588aa89778cab7da77a77cc96997878668
col29:   794689799768bd758956c88a5a9b96bbb998969b36667ab958ac885879dab7b976a5787ab588c576
col30:   6869886b77b897879767bba79499969ca8a6a8c5ea698aea77ae88879aa9a8779799878a6c77688a
col31:   cb679a798ba9868ba7879babc52abba8979c98c973c998c7978a99e68a69c9999c67a93bb878846a
col32:   a6a8688763cac997b98c9a97a77c8a69c3dbbab9996c7da78a985a9bc8aaa878769575855a78a975
col33:   789676b8778bb68787c979ccab9a88aab96aaaca8a789c856b99a5a9a5a945a7997589bb86ca9587
col34:   978978856b99867689876a7a77ab8a97a99aaa98b7c8b8b99a9588aaa89c7946aaa9a8847c87978d
col35:   68997b89c9a8b6cb89ebea884b7c8a9c8eac4bbcc9bd8667aea99bb9abaa98779baaa799888a87a5
col36:   589a896ba8aa8f96a7d59b89aa69c89cb6ab997bbc9aaabceb8ba876afd86b8d595978899b59a7a8
col37:   aa5a49aa8955a99caaa8975884bbad7994cacbdaaa9cbe8aa8ba9b9b87f7686cb99694a667976557
col38:   688968796b9adca96bbab8eacd999ba9bddddb8a9b9aa98dcb99cdbac9a99f7984c6b8ac97b975a9
col39:   677755a8c959c9993a887b9778988bb88c9acbcbbaaabe9bca89baca7bb78b869bba399496aa8848
col40:   888a65b69d87dbab88c9c79a9689b99a79bc5ed8c9ada99ae9aabcacbacdac8d85787c9584979a45
col41:   6b757b669a79a297c6a9abab89c8d89dcadcacac69ec9da7b7d997fb9657aa887785a66a598aa974
col42:   27568b5aa9498ceb9ba5abca78ccf9c9aba99dddbca9aa8dbbe89aaba6aaa9ca698a5cbcb8799756
col43:   a6a5a69b79797967797a578aa6a899ba9eaa89ccdaa9c8b99cba7bae768c889c79897866a4a58954
col44:   54a598585759b9a899da899b969baacbbbcaab86a99fc9ccaabaaaa7b78c998dfcbdb7abac676a9a
col45:   6a32c4479bb686966bab9babaeba999bcadf8ba4c789c8aea7b9c868cd9da98689968987d8b49577
col46:   188677569a7888ac6996ebb99a9ab6abc6d98a7c9a5bb9696db8a8caeb96ac79cbba6a8897759a45
col47:   a57494a89998a88a9759eb9a98b7cbbbca9a8a9aa9aaa9b997b99786b7abcc7c9798c68b7bb96357
col48:   6a98677c87f8a69a7b98bbbcba9acabcb8dd8c869baec9bac9ba9a78b9b798d6db8ee4866a789468
col49:   6a9a5baa8646a9bacc876ba69799adabcabddaa9987bbea9abc8a9e878b97b9e797944ab79686878
col50:   6a8bb4ba6a389a9c9d777b89a9cbe7cdcecabbaca68baa9b9bbceb9bbbbb8ea9899a9a8bba984586
col51:   55325893635396574458756976b76886ab7cbcb79897779b736666786646a9475868a482978a6682
ROC:	 BPix_BpO_SEC7_LYR3_LDR20F_MOD2_ROC5
col00:   635357444977556453b56227348466228b958a9768779686a87ba78673486a87898867ab7d5584ad
col01:   723643544aac8859969579b67d688a55aa9c5878a7a6759c95ba93c87d5888a59a297c8a499c9ea4
col02:   6694538553866447796549998ca67396e567958ac86ac188a752c684a888ba56c6554da9a5778ba5
col03:   74269778855aa79a485c8aa2ad59899bb97643967636a864ab7597cbabaa9996466796779a8796a7
col04:   5185464564758648975d4761b3b7a8b9a979b7796a9a6daa6c875867bc7799877db9d78ca68c7a84
col05:   773875814566c897456754784896c5576839a896a78769367868c4d88a89666b79acf8987abdda98
col06:   29a886888762445889796893348666e77867a79c999b98899ba8a6e84899898669ba58a8928aa869
col07:   266957581627a8376656b44759869c7a7938e7987537677ca59e969db9998873cbcc88a6386788a3
col08:   455682216574624675876839678698588a79378a996aa389564ab58bc8a7bbaa58af9c99babc9999
col09:   8587726976763ab4a579669697678574d8a9a674d47385ba72a4a4b6e5b89999a67a6ba88cb58b75
col10:   44652231552483883845447936588b67c77d78da888898c98b857c96976798b88aaa69b49988bb88
col11:   951767515a83a9343668992958a69b767946577546847759c754ca3c3bb997566794987785798b59
col12:   45456766675c3469568187c689557c883665aa9c7a588576a9b7cad68698ca8356b45898859795a6
col13:   44452673728756327a65c547a3a9a46878a594947a6d77b886449a97a89bba8975a9883786669a97
col14:   13213925566368596a841878795b99488a596886185aa9864bf6d57559568e9c649bb9589a788c6a
col15:   57577487242635895857a8958859555967648baa7a7b758664c867886b86b75a5a99c4592586b6aa
col16:   767475367847ab7498bb656689987a8a75a8d85397a87699869b58a9a7a76979596c928a48acb7b5
col17:   95318148658654583249569a1867856565644968a9449b57bb8789aa7a766979c56576841ab77aa3
col18:   5535672846796666a9343c9775687c78363465aa6b6666d9b579aac799685aa35a679746b878c59a
col19:   3443288766675a75787986673956598b999a575a76999883a5ab788696a975a8ba8755bb79645853
col20:   16531538777537465632a5947855469976688666b5a985b715457c799b885989167d4b9555899778
col21:   47112154654767677433595816549789698b489b5bb748b67987a79aaaa386a88897747ca888a7d5
col22:   6346174747246695586136677874966b973a85b986a988677a5999b36975665b8b6b78976b888cbc
col23:   24972158a15954237758554648865b448871394594a699874589a9566b68a8345898ad9696b66466
col24:   47513374675566897542868a87996a968659aa85426c7b8ca6787ca3886a49ba6c749a65a7268b89
col25:   225554544661738493774a159739aba89956db898969a6756b97d87544b9887aa47c75a2ad5958a3
col26:   4a87363765a6d7586b684979b78794aba66898a6a56eab6b6a7868b7bb8b3668796998bcbb5b9796
col27:   345546687557689a6677a96759659656879795b99c89b7a827597b96a798e8bcaa5ab88a4698b8bb
col28:   7686658475976743568a6c9bc697c7966ba8b896c6ebcaab6899d67a7789dc978dc3add528c958f7
col29:   565874834768679b5b88a47798bb988b888ca698a85589cf789898a889da99ba6855ab77b9868aa9
col30:   652687297938788985d8a7a459c67a8a8c47c8ab9a9b69ab577c97d9cb6c7dbdda7a968bcabb9bb8
col31:   7787a7c26cb5889c686985d79d7bd96b59c7998c7f664a6c8c779db9987e99b8c897976a5aabad87
col32:   65658886b4957687a979999889a87b7d668b68b8b78b99a93ab4ba938c8a8bea6a6ab9b9ea9d8677
col33:   a764783799876698a589c79b69a77ac528a68979bda89e99b97d99bb887a59b99db958469aa976ad
col34:   4393869652a469b9b759a4a6788578a739aa8478a589abb8c896cbb84a9a9ca89a7ac686ed8a7a89
col35:   54c59768843956379a8848785e96da797aca7c6c95b883a77d9b858a65b9b97769aba7fadacbd889
col36:   b46c9888a69579918796b8bba799a7b92fa7978b56baa8ccc8f86b8ac9797d9997857babaa8a799a
col37:   477c9d86759a897788b88d787cb5bb7b878b3abe9676aa9ac8d9c7eb786a9bc9aa697a98a7869b88
col38:   397a55658a979c788999976378aab8f9b8c8dab8beaca583ab8acd7c9983ed8abb8979d8ac77ba96
col39:   955847619b9887a96588c687847ac9bdbbbcebbcd5896aa879babab6bad5b78aaa66bab896c4caba
col40:   ab4a4ac34c6b92b787b6e669ab79a989ac6b88a68a7ba97ca97cebd6867cbba8c9d9977cb7cdb8a6
col41:   6842b6b6a868179bb6959ba57bc9a968ca88be9876ba7ca8b6997b9e878f99a6a76b89b8b77ce684
col42:   977582aa845577b9a9586a9a46bc979cc7988aba8a99d6e85faa9b58b8b7f97d6cac69766988aac7
col43:   66835a88a68a98987567f8a858a49aa8dbbba8ccabcbaaaace7a74ab997bba8ac78b8599a9c767ac
col44:   78676b5868756c7699dabaeb49b9775b2777e7dae8bac89c3cb6b69a7a9abfa62698acaa9abce9cc
col45:   684c87757d778bc788bb9a96abcaa987a8bcbb9a96cbbb7579c78cc957aa996374868aa89567a7f5
col46:   45699a7ab958e9cdcab9aba8688c7ccb99a8ca79979a9c8bacbb99ba6a74975d8968cbe9d96b6799
col47:   b18759559f78157477a77bc868aaa8bc9abb9ba98b9fc97688999bca89d9b779a8987aca998c2867
col48:   451968647a5a967a987b888a67a74e6cb99b8ada6a4996d78599bbaaa98966999cb186b79dfaa7b6
col49:   2897656885dc9b7cb677c6d95a8c67e9a9bbbbb78a87c79997976783b56aab8767878896da39dba8
col50:   1a675e7b51aaa348b98a5aa889ae5cd78ad8b77979eaba99babc9a597ad79b638a98d8babaca98b7
col51:   13651877955c355527584816433468976764895699837545776798a535a9667899b9576445576775
ROC:	 BPix_BpO_SEC7_LYR3_LDR20F_MOD2_ROC6
col00:   795779bc45879a7695aada74a6a7885999966678b754a77a591a589a55a553578696b638ad875bab
col01:   34aa9b69baa69caadaa9b9c7877ab5a7d8a9699b85caaaac5968ba769a75a77a898b99dc7ba9ba4a
col02:   8773da54789ed6a988eb878ca7c89869a9ed9c8a7b979a9899fa8d7ab96abc8e2caad947998889a8
col03:   8979abc85a4db75babb5a85fdebc9889eaca8cacc9d9a85cd7cbb9a97b9a8aab799974a99992864a
col04:   6799677bc8a8c8ebb9b89ddc87a98d8a5c99ec8c9aacbf6cce7adc9b87858aaa96e7b7a9b79667b8
col05:   4c96787a9999e6b85bb777d568d8a9dcdaacb76b75a7e8b99a6c6bb99ab87e686cdaac99ba4869d8
col06:   7a8786a689b97a88ab87db8b9e9a969cfbfa77cb9beaeedc5796d9abbc8bd7c89d8d99895de66549
col07:   c8e6a5678679a7b963aab8a5b996caac8ba9babcabab7d6f99d7abc99ba69ecaaa589a8b6a8d7b63
col08:   865c5a47c67aa79ca79677c8a89bbafc4c89baaf4be9999d9b9a978878bbd9796a794bbdc88becb7
col09:   6167a787a7b5cd6679998bc9be9887cccb9baa9a767b7cba9ac699896bdeab9aabbda98aa99b9f7d
col10:   a8a9ca55bbb7869a898a7ab9fdbac68dcb9ad8abcbca88aa96597db85c9bccab799caa99277cd9b5
col11:   946796a7a9ba8a975c978e7bbd8cb74949a9adbc7879897e9a594c8989c8a9749f8cc969ab57d569
col12:   986589596c7a839a595879b8cbf8bad99bbc8cedc798bbb97a78cdbabca9c6ca67a9fbc878ad9776
col13:   5784a7a97b78daafa9289accac9dc7f7bbd5a88dcabb89ab78c896b68c78a58779d7bfd5d6aca891
col14:   775889ab9ba7b8b6899a646c97acd9e65a7c8ce5ba7b897a89baae5d569baba88679675c8a8cd97b
col15:   689767b792ad85a9ddca7e97a8aa86ba56aabac9cc69d757a8a8ca3999a9aab9b89968979bd8ac9b
col16:   97789a6688458b95959b6fbedca9dbd9a9887aeab8a9a877c71a768e9acacae3aab37d85396979a7
col17:   9b6c466b6897acaa6ccc77988c45d8cbc8f8d95989a779cbd88798bb3b8648c77b8988857a5697b5
col18:   b4856576c87979c8b89e87898a8dc956ca7bdd8f9988f4ec8bb669b7dca6bae957b8a3bccbb5a98a
col19:   7a976386263a939bb78c87daaa98ac96b9bbb8a9aca6c8f6d8a7acb87d8a6bc58997a8bae8b8b765
col20:   86899c9db7889bb6b686598ae98bd87f8b7b7a9b976786b7ac4899cda6a7ac68a578d789ab27c876
col21:   6238b9b56679bab7b8a88e87ee9cc67ab495daaa9988ac9bd9bd5bad68aeb7aca9a847ba9988f8b7
col22:   19a7858b78786899a7469da998cb787bab8e9abb8caabde76c99acb849caece8a3379ebce8878b67
col23:   969a996a57689688a7b988757a7c998aa78a25d8aab998bc7acb87ec9b5abab7b77757867775b9c2
col24:   8b478647699a9985b385bd9dd99a6958c7c7788ad9ea46af8997bacca999c56aba84769898b7b978
col25:   7673468678a7acb68b8b99bbb93ae7bbdc9bc9c4ac69aaae9beaa99bb6e99bb9aed779858b799b97
col26:   c7ab79bdeb9886a9bb7bbfaf9b866877dcbcc9bac9e8c99fa9fdb7ad8d76bebacec98a99d8dacc99
col27:   9218caaba849d6cdbdcacac5aea8a79fedebbaabbcccfb9c85bcbcf897dadaa976dbaeaaabba5aa7
col28:   b6b8a8b9c9b887878d979caba989dbdacbc7cfd9daea6beb68a69b8aca5b9b96af87ab7a8aa5a896
col29:   6757a6caa8b798eac7a986c8be9ceb8a8bccda898fad8db8acad8fafa6feb6dab79bca6a5aa98aa2
col30:   969b6679e687d9b89ab8aa9fde9fb9bcec6ce87aa7ecb9979bd5a9bacbad7a6cb89beca8c76fccc7
col31:   a68b857c89a8b8d6b8d78bed79bab9dbb9badcba7d89eac9c9dcde969abbceec7cbbcc8bbbbb86e9
col32:   a7a9b9a68d7a8a99edbbacbe8b48acb9ab9bbeb9edbaaaaedccc68a8b89d89caa8b87d6fc6efcb78
col33:   87a53997c8ae445b9ac65899a9acba7accb99a9ad89cbdeca99ac9ddade9eee8bbbb8bdb6b9cd8dc
col34:   989b857d3bc98eb97cd89caa9eac98cade9fcea9ce7efcf8bcbdffc8cbabef9cad5adbbf68cdc899
col35:   e785badc8ba89ab7b9d5ce4d7c96bb9cdc7978da989ca9dbec8da7a99e9c9afccdae9b99be9cfaf5
col36:   da5bd8bc9fc899accabcfbbbdcfadbfddd8cb9adcdbbbcdcfcebb9eecaefcb9ab65ecbc97aad89b7
col37:   75737adbba87889de8ad8ab6a9dd9dbecbbafb4f7badabf8bbac98ebbe7afc9cbaacedc7b9b9c9ec
col38:   b866caab9b4e9caca9d8e7caeccc99dcd9b8fabbefb97bc8bcb7be99afbcdf9cbfcedcebcff5ecce
col39:   6788bb787b8aa99b99cbe8eddb9ab6b89cd968dbc8acf8e9edbacd95acafa997fc97cb9976cbb797
col40:   a37b98d98b7ae9a79cdde9a8b9a999bfbcd989cb98ecfb59cebcbbc96a7de887cabdafadddcfafed
col41:   9997988b7c7cecb78b8c989aea8caa8ec9a7cc9edcb9dee8b64b9ad8bcbdcac67b7967ccbf7a6eac
col42:   ba99becab9a567e8bcaedb4bcccf89cc8dcee8c9bcedbc8efacdbfabbdbbdb8acc7febfccfebeebc
col43:   7b9a4afae9474dbba7b7b8d8a8ebaca6b9d9babdceae57c7c99ff9cdc899bfabfabbacdcfeffbbca
col44:   57cb9fb7baa9c97b9ab8975cce8fdec9bf6aad8afecd9dc7dddafdd7eabbbcfbc98aeaffacabdbca
col45:   ca66ab865cb8b98b8dfba7bbafbcdffbbccad98dd9c9ab9ccebf87e7facccffb6ecc98ffaa8cddca
col46:   c886acf8a9c9ebc9a77b8bcc7c9d988aa9ae69bdba75be796cde88c8bbafda8cbcaf57d7bce8aac9
col47:   a8aac6bb6b8cc7acbd7bba94ba6abc7b9bcbd6efcddb9aa7fbb6da9adbdb8f6ac8affa6cdaa6cdc8
col48:   f86737d5b7a7f6d88977dca6c896aabdf9daebc79c3bc7b88bbcaddcbccfac888ade6ead8cbdcf6b
col49:   8a87898985b6a79c6b9bab7a77bababf99d795dc5dcdbcecaaf7ba8babacfdcedba9cfdb5acbbe9f
col50:   e7d77d89fb9c8a598dbdcbcbbd9ba78968a8c9c99aa9dbb9ad7bbbdeca8afabdceccca8aeaaaaccc
col51:   63b865997875b98794799b59a375baac9a68947478da7fc67d3797b668a8998976969474a4b66dac
ROC:	 BPix_BpO_SEC7_LYR3_LDR20F_MOD2_ROC7
col00:   811212344344366584775a9738a79466666978866b69998b89a85967899a7a888986b7c69899a7b8
col01:   35774774265494767757958677296687a9568a9987b8685ab78a798a78a88a957caaabb6c987b989
col02:   35277446454678657378759839655a66479769897548878888798b89a779ba978a99b87b88a9bb88
col03:   641852443652757646844664774988768b7a588667c8996979bba7aa9a99aa5ba88875a6ab99ebaa
col04:   51547624377358525786487764687abab575c9976768979968c798998a89c8b886b999ab989bcb87
col05:   1223534324356368486786786478d896759965685697978dd685b797a767c9b89989a89ca9dadaaa
col06:   71558545854665633537579868947578874868aa87aca9cbba8b88c788c7cbbd668c9b9988aa988b
col07:   5438654247487544755666987567899c45573889887876c8779b559aaab9b76aa9888dbcc89899aa
col08:   51559633476882457679a64b979979458887a7a6a686b6aa5a88b7ac98c8878999cea889abbaa98a
col09:   64754562355477567a754548496887a82889858a78ba7899b99a6576ca78888b798cca8ababa9ab9
col10:   618753555375a646474a4375a46748895888739967b9898b99aa88a7896869b98798d9ac8b9aa9b9
col11:   754634343236666365255675685685a8685558b5a58a6879798cabaa98a86a7878ca8897c8aaa999
col12:   4264a5356784558464469775877692257b779697a67779aa89ba8878aa78abb79cbc8a9787a8a798
col13:   62533154a764668645766654876676a8775897795b9aa666b8888a8a8b5aa98ca9a9bab7b979aba8
col14:   51653524756564766667658458989938687676947a688aa8798ba898a7aa88869999a9a8abccbb9a
col15:   4523336655275336534786976696a357788999768aaa7889ba6787c8acb98986a89b8aa8b7a9bab8
col16:   257254425864944b84477b85896476878678688998aa9998ab8a8b87b5bb97a8a87998bca9987ba7
col17:   111135316221563446379746585494755869677a955bb99759ba96989a77aaa76999889ba9a78a88
col18:   3554314555534588525797269577785999698674b87aaa96697ca9797687cc8a7a7a99897589aa96
col19:   4123863366867957a682564975667555883998748a9599768bb8979486b9a796b8aa789b85baa888
col20:   462531638246726485556756664656665769b978a8875a85b76a78987a898aad7a988a7b79a9b9a6
col21:   45953746536664965684787247679595587687878a9774a775b9c8a58c97a89d88b88a8b9b998d9b
col22:   23431145636859555a7464736775644a695a8cb8778a877a897789aa899b867a689b9a999b97aca9
col23:   48124154a23736551594578876536a8546a45775698c7995987a7a8a8697a8a67688a6d967a99966
col24:   615452125544763446a84574777795765687888778a878988a697c7cb879978979988a4887ad999a
col25:   64524438455675583469558844289896787675a49abac98899899b88b8c8a79a6aaa89bcbbbbbbac
col26:   464687687735465575788937d669669a688888b88ab99a9b6baaba8ae7bbd9ccaeacc8acbaaadd8a
col27:   34257426588776765846776866779b4ca7a6a55a97abaaa98b68ab9aaaa8a9aa9baab9867acdb789
col28:   75286686797998756869799879955569a8b68998be97b69899899b6898e9b8a9bc799acabbadcb99
col29:   164645855667619896489575759976b8686a9ab968a9b8bab79c8b9c87a8bb9a89dbbacfcbabbbec
col30:   6265957665568688997397a557969777898899a8a9cc8bbdb7a969ca9ea98a8baab7ba9dadabbaca
col31:   8246857a78566645578a6897b93c876aa9b779a898989b87abaa98e878abaad8c8ad8cca98bcd98a
col32:   67658977a66566976796988c99b9869aaa897886a79ac8a9abca9e88cdadbc999c99bacbacbbceb8
col33:   6342767595a587757958a6679788987a9b76ba47bbcd9aabe69cb8c9b999bcba8dbbba9ca7c8bbb9
col34:   864375765557666877c789a7885a856ab897aaa7b7a798bdaa7b8abdbbb9ba89a98baaea8dbabb9b
col35:   585765945643678679687a4a8589867aa6aa8b789b9aaa889cdbb9cadd8bc9adabbcccbcdabbbb89
col36:   57849586676564764664774a9c7aa778a8a79a978c9a9898bc9e7999cc8bbaab99b9e9c98c9bc8a9
col37:   54586688568a65867558475a488599abaa7b7c6c8b87aca8ace8b9999c9a9bd8c888b9bcbae8bb9a
col38:   585685474758565ba7a878589778da7b76b96cacab8cabbbaabbb89babdaca9cbb89cbbac9b9b979
col39:   675665a65965567968799b7799685a997aa9ab9a9bca799c9a88baabb4a8dccccc8bbbc7c7bbacac
col40:   57568878887a686577964a878aa8a78a887a8b968caab9cb99da9ab8bbbcbb77dc9addb86abcccc9
col41:   78399468985886865588b79856aa8796a59dbb9888aba68ba8aabac9a98bcc8bc8a99baaadb8aa9a
col42:   5845666295757586b74a8689768aba78dba5a6b8b9a9c9aba899cba9d7fc68b99cbccbc89dbbdeaa
col43:   3555574864a348976699875947792879b9ab887abaaaac8bbba699ca8badca98bb8dd8aabc8ddaa8
col44:   885678956788784977579c8988a79966aa9ab977a88c9aaa9cbcdb8bb9a99ccaadbacbbaadc9acbd
col45:   66665178687297a79896975b9894a8797c8897ab6aa699babc69b999a7aaeadadcc8bb7adadaba9a
col46:   8489666a568869795a887799787797898ab9b7a89997bcb7ab8abcb7cba88bcadbbbc9cba99bbba9
col47:   578587878667b87775687786987ab987b89a5887aaeb999aa69aa8aebac999abbbb99ba9ababbc69
col48:   851758756584499873457789976c8b96cb9b889b9bcd988a7998b9b98b9ca8dbbaea96c9d9b9dbcd
col49:   55455a737768689857a558b799697797aa7c9abaab8bd9d8babaa8b9a98998adccbcabece9dcbcac
col50:   557987786565686664a898a789b89988bb898b76a8a897bd8889aba9889e79cc8ec98a698cb8accb
col51:   46331656738468765574947546477598297997d6a99977887784a988ba88d6796aa9aa6a6ac9bc6c
ROC:	 BPix_BpO_SEC7_LYR3_LDR20F_MOD2_ROC8
col00:   232153415184537693447678648993aa68467b6487ba6789a997996b89985786a88aa678b8db9b7d
col01:   4443961157565276594777487775b78a9699c785a875775b9668baa89b89babc88f8d989ad9a9b89
col02:   243373449565326867587a54587796874a6879cb8a9a9a9b8a9adb99bab9ba5aa7cb959cdccb8ca7
col03:   122155857756788762587785768496987a6688787798b7968a9aba96caa7997aa98a78999b98a9ab
col04:   44345737765764879a777666ab896a966886daa9b8a8a99a9a7a96a7999baacc9c97a7a7999bcbd8
col05:   412453445363544798798765687784bb99a7a9c785b6768d6999ba7e55cb7a9bcab7b7789b998c96
col06:   624355546336856a59856aa7b99996a78896786baa9aa7c879c798b9988b588a97c89b9bdcdc9abd
col07:   86763446646642667576589765766aa69589885ba897976769bc98b78a9b989c98aa88cbaba99c9a
col08:   6453646773444956754779a636766a78668ab9a898696bca9cb6c8aa5c5a99a67b78da9b7bb96bc9
col09:   236485354695576827859446676b99398a86c94789dc87ab7baaba7bacac8b66abadbac99ba7acaa
col10:   58445845735884489727769574774669c9759798986c66b5c9bbc788abaad8cba69bada89ad98b8a
col11:   4743515566563266445667839886897997777a7b7c8897bc99baba98aa5a69accc9989cba88a8cb9
col12:   31645855445145375864a55779ab87885b6a78a779abcb999ab797a8948b89c7ad9aa89988bcb79a
col13:   8154678385638455476554998669668b9596da7a8748caa88b68aab79c8b986aaacbba88c88bbcb5
col14:   763432694614754786887677685c957577a5b9587a977b975988ba99a8dab9a98a9c8a9bb97cbadb
col15:   513273764594844442654779789876a55668984a8b7469f9caabcab8a699b9b8a9c9a7a9bbb788cd
col16:   8541574626753527757a4245889db889a9999c9a97795995b7b887baaa9c9a6ba7d7b9ccbb9baae9
col17:   4556647563655473679a8a77b97b68668a7789699478b9a69979bbba6baabaa6bc9c9bc99c8ac7a8
col18:   54776398439a644766667678975697886885a6697c9b968b9899c99ba8cbc7acabdacabcb69bab9a
col19:   213674bb6556853857667853638a876a86aba87a9496a769a86979a899888bbb8aacaaa9989a8b68
col20:   5257655764865775689a375a24b687998869677788a98b97ba68bad99898aba78bb96996aa7bbacb
col21:   23666739554363684567a6425884a587a68a69779a8a8ac8cba988c8aaab6baaba6a9b79b99ea8ca
col22:   3353357535655459557989565859a89797898859697bbab8b8b7b9898caa677bcacbdaaaba9b99dc
col23:   2355258635735588467286977a9658897a78a8987a599aaa48aa999bcc9ad9c7c9aabcbc9aba9abb
col24:   4365654453556474666865a98795666887b667ba775aaa9aa7a97b79a7bab6cad9a76cb89898ab9b
col25:   1643564758484578569585779aa797696594c7be699c9986a786a7a99a7ad898a7887adb8bd9b9dc
col26:   7434646856677975a7a68697a8b8868498a9a989bb88bddaabcccab99cccccdc9ccaadbaeacbb9ea
col27:   677b748436854578246c6869a979a6ca7779bb9a9da8babba88a987b8a8a9cdaedbbb9cb9ab8edcb
col28:   875675478b994678877a678a5796eb794a998baccbabb889aa8aa98dccbbada9cbaa9acba9ddabab
col29:   68537a46767745258657965988699b859bba978abd9ba8baab7b9a9ad98bac9aca9caba87b999b97
col30:   5674364a5795a556889a5888a8a8cb979b7bbda8caabdb88a87bbadbabccc9b9bceb9c9ca8bdca9a
col31:   46979656958879a8888887987b7799878abcb98cdaacad9b9d9bd9ebbcfac89a8ddebbbaac9fdb95
col32:   684a7aa8556966798799b5aa8a998ab8b99ab9c8ac799a7cbbcbcc8bcabcf9abca98ae8d99aadbbb
col33:   424547789678757898b9879a7bb6a8b999d98b9c8bb8c9caba98cbabe9bd88dba9b8db9eadafabbc
col34:   67479859589997578a6b7b95989647b9aa99baaccbe699d9acbbadbbebcaacbbaaeecebb8bccbcd9
col35:   6a565789696aaaa7458aa9879989aabebbc78bbb9aabcaca9cdbbcaccacc7badcdab8ccdccc9edae
col36:   3745857967b788897a97a785a9bc97dabb99baad9c9ada9c6b9dcb9d9eaacdcedc9eb98dcad8bbbb
col37:   7164477a7c55875bab686b9aabda89db9babbbceaccccdd7b9b8aa7fbdbbbcdaacbdbde9bcabbcba
col38:   678546799543779b98777987d9798aacbc8ab87ea8ebc5cbbbebcdcbabecabdcbbbbbbcdcbecdedc
col39:   596778579889779a9777ca87889a9bd969b6b97c99fb9abbacabdccdebdc9addeebcddbd9debdbfc
col40:   87479653a889a98ba988ab8a8cb9a9abc898dabbcdbade9c7ad7acb8e9abcab7ebbdacdabccc9ebb
col41:   73584638977a68a7aaa8a8a68c9bd899a89ca8babbbad89bcbbaacbbb9cccdccacbabd8caabdcaab
col42:   773ba6876aaa88889ba599ac8abcd7ab5abcc99caaecd9eddc999ccb9c9ebcacfb9caebaeeadbccd
col43:   7439665659ba886799b7897b88acb9979aa8c69bb7c9bc7daaae9a9cb896ace9ccdbc9bbfabddabb
col44:   77875a76a6bba49946ba58bbaac5dc6a999dbccb9da9ba7decb799abbcc9dbdbcbbaba7bbeadbb7a
col45:   55726a897a858aa8bca845b98b88b7b98bb8bba998bbbbbcfba9bba89bbaae8dcaacbaa8dd9dbabd
col46:   48895679b8688a7888a96aa989998c89aa9aa9bbccbbe9cab9df8bcaac9cccbbddacace6bcabbabd
col47:   4ba8a9a7886a93559886b9d96aa98bd8ab9acdbdab8bcaac99d9aacb6cbcccfdabd99cc9f7daadae
col48:   67757a8a68677858999accaaabadcbb9bd9bd8aa8dcdbcacc9eaaa9ac7a9a9ccd79d7b9bbabdfcad
col49:   9667b786797899785aaabcd8b989c88ad8acacb7acac9bab9abcc869b8bbd9c8cc99adccb9abcfb9
col50:   6486aa779779b987aba7aba7a7ccd99afcbd8a8abddaca97badaaadcb8bc9cbbeb9fc99ddbcadbf9
col51:   17638568645598b858674b86898697697b97b869da69ba76b5a99e5aac896ba989a6997bacc9a9cc
ROC:	 BPix_BpO_SEC7_LYR3_LDR20F_MOD2_ROC9
col00:   812454685577886579659576856659bb49a5676a87ab79aa8aa9a78b99a7b8ba6b9bdbb88cc9998a
col01:   563b578846b49686996866968ab39eb4a85589b77c99998899c867c9db8baa66c8aad8ac867c8dd9
col02:   578963794952787879779b53baa6a58779b8c88c8bb6ca7c7da9d96a9bbce8a7ca9c9bb8eca8bc8e
col03:   367195696487969866a5ab58c5ab6a7acbd87d88ab9a879c87b86aaa8a8d9f68ec79e7ecba8caaca
col04:   69247743839555bd776887578aba6b7468ca89ba6dd987d77888ada9ebdbebbb99ccb8baca989dcb
col05:   367977b55658498566788e98969b9ba89998bab7889895d9d8caa9ca8b8afd9aac87d9da8aa99998
col06:   6367a38455586a7795797bc7a8798999698b8baaab6b99abaaabb8a8aabadab9ab889cb89caadc9d
col07:   7445676a488598488c865a6858b9559a8a9a8b8aab89c99a9ab9cb87baa8995c8baa9dcab9b6bebc
col08:   521566346798176897a6987888c37a999a91a997aaa977ad8ed68aaa1958cbcabfabeaa7aea798c7
col09:   3634763976a7917949795568daaaab8796888b7c7e9b99b7dbca7a8c9b8bbabbcb9abb7aea8cd8db
col10:   633675783769498c9968e69a769cc7a9f8985a9a9a99baa9877b8db8c7ccbb8daa98bad9aaca6b5c
col11:   43747677778a9785674495688769a9a9a8799a79989b79876c876ab698b6ac89ba788999b9baac8a
col12:   43354a3a689577b993369666999876897b87aaa3987ba9cc9ab89ab6a8c9b8d8bbacbb7b999cdbbb
col13:   247734836559876954a5656ab7a66abbacb779cbc77caaabacba5b8cba9cca78aba8b79d8979c9ab
col14:   683494a6858667667a3a6b88889a4999a8a78c9778bdc8a699cbbaa8ca8a58ba9c99a95eaa9ccab9
col15:   598655467a526988775d98a667a6ba789879c9ace9bc597a69aaaa87bdc8bb79b9a768aacd99dd8a
col16:   5988659667768769887876879a5637677b97b94ace38cedbc5bbaa7cacdcabbb88788a77e49ac8a7
col17:   815223674978687638955a7b667788666ab7969b698869aadd88acaa7b89a988a98ab979aa9c9a86
col18:   65153644894895574767897488aaa6b47786176b59b949a89997aab9bb88eaa9aa89b6aa8a98996a
col19:   577671182b5777a7679a685627767ac769c999aa9ae5ab879cbc99b98b9b598aa9a89b9b7db98b87
col20:   21588566945567542a489565985879638699986b8ba79be9aa6bcc9a7baa98b7999c9c8b77cad8e6
col21:   4956789376745846974678598a8a9589c599c9a79ba799b87bd9c9ba9ab88783b8cbb88795a7bab9
col22:   88846759646478736779486775989998bb9a58b8a586aabb8ac98ba5ab8c8995cbb99aaba9bd9ac9
col23:   756719836577859779897a889b97796c6769a8c76ba6688a8677d986cd769a7a6ea897989b5aabaa
col24:   697375369796747478649799897abb96ab8489669a87bc69aaa9984b7a75b8db988dd7899ca78a9c
col25:   544695244742756577767855749a9687c86a7598a847888699abb9a59c6cba8b57c887baaa9b6a86
col26:   849a5596b73362a74a988678879c999ab9899a89bc8aa8aabebabab7da8959a89ccacb8cba6dbd9d
col27:   29474b7a76b568c467c75695ad69b7bb5ccbc9c759a989d799c89798bcb999ba8aac8de7d898ac99
col28:   4698747968678989b7885b3739caacb779dbcbbfbc96cab89bcbbb89bcbbbbebbbae9accabb8aa98
col29:   34669b4455a26958659279689a9879a759aba99b98dc79a8988ca79ba8a9d6a85cbe7c8aadabb9a6
col30:   546858a96675a498577976a4aa8ddba9db68d978aab8c9c9cda9b8aabdbababa99a88aaaa89acdd9
col31:   654b6565ab553a8899a5bbaaa9aac9cacb98b6b8cbdabb87abbbbaab999bbcbaacc5de89a9af9dca
col32:   2745677b34c69988b79873db4ab98bbab8cdaae9ba99bbcd88879ab8badcc8ca9bc8beeeda879bc7
col33:   7688565985776b9686a9aa5a99caf8cc9c98aebbaaa97cbbd8b8a9bcadabca889c79abf9c89e98ca
col34:   86a6956a78aab9a768327ae99bc7a99ea9884a8a97a98abbb9ba8a7caebccc99cacbbc9acdbaccd8
col35:   6b66898c78757797798b49c7899ac8aca99996bb8d9dba8d9abbcbb99bba88babb9aab6b8aebdddc
col36:   54b678635898aa75da749c796899986abd8d8acaabd995cb6ca87aacddadaabb9abcb98ccd8d8cca
col37:   9435676765685479497ba98998b8a9abb99c7a6a7cdaa8ab7aabababdcebbecca7edbbb9ccaacedb
col38:   8687648aa5b8aab859cb6a6baac89ac9c7d9c699bbbc9d6b6cac97ade88dcca89bbd86b9fbbbcbd8
col39:   17437856678587ea9b6bc8bb68b96bbaa9f9be9a5b89d99bceaf6b9deb9facbc9bba5aaca8a97d9c
col40:   489647a4398566785a9aca7d9aa898c99ccea8fcc8ccbabbd7cbcddfbbdd8cbca9accbbbb5dcdbaa
col41:   3767559c762697c696779cc949c7bb77baeaa7aacaa9ab869cda9ab7daec6bacbaeccc79eca7bdcb
col42:   7586768b67955bc6976654b9ba9d84a6ddbbba8b58bc96aabcbdbd988cabbfcaccbfcea9bdbc7e9a
col43:   835229854555987ab7c87cb9b3abcb69abeb5abaca8ceedcaaacebdba97cbbcccea9a9cc9898ca9b
col44:   78646656c76a8786ba59b798abda77c8bb9f89aab8bc7ac99b7ccdabaaabbaadbc89efcdccbcd7d8
col45:   581465a6ab756977aa9a687ac98bcd7a87ae9abada9b9a99dadfa8af9898ca8abba9c59cb9d8ddcb
col46:   74a5834a67a58aa87a8778aba9a98995a7aba79898b96998aaaabdabcc9faa9badccbbd8afdb99bb
col47:   6563a7865285896ca87acbdb8c8b8a987a88d69b799cdcae79bfb9ad6ecba99bbaa8aab9a7b9dce9
col48:   7655445777ba9abac9b6969bba997b897aab464daad88c8bdebfdacb9cbc6cbebbdabcdcdbdcd99c
col49:   6746772a99a898a99896a7a979997b8ca8895a9a778cb8d9bab6aac9c8deddcdb99ca99cfaabce99
col50:   686395a67d55a78aa89a9658a786936bc7acb5899896a9eca899d999aee98bbbcb7baecba8d78b9c
col51:   24537472482a595157375875465476687837788a658a67877469865ab6a898cbd487677a4897ac98
ROC:	 BPix_BpO_SEC7_LYR3_LDR20F_MOD2_ROC10
col00:   6968a877877b57767b4967775aa9bb98a7a965a7b886c6b663959879827358976435327728126132
col01:   a668675b779d8db67cc75986a596695c757b9a66ad8898cdd6b9d8359867a4b66837b93866848954
col02:   777abbbab8a7c79dba97bab88782c5a96799747a67b5cdc98c9d93b6a96bb6855387a1448a446836
col03:   a9a9fb7bbba68ca799a89e8bc9aa89d9965666c875aa98ac939a5af597797a8b5794689ba4313951
col04:   999cfa9d6b87b6c85abe6b8bba9ba4dc99a978ac897ac7bf6546dc568b988685975757a77437879b
col05:   9dcb9baecaa9f8b884a7949a89f7b985ca985a796a9c774a76ba947a5755a788bc7998c81b643343
col06:   8da7c66b9accb9d9b8bacb8a738c9657ac84e9a8a888ebbab76774b369a6997a85266aa84514a445
col07:   7798987a75577bc4abcbab97c889cc9ac7586b6abb87d68aa6577b4595836a8a9a76963486931643
col08:   67a99a7545a978b98889ad8b9899fca898d898989ab99a9a678a6b35b694776356594c65d4653473
col09:   bbc67bbbeb998dfa5c79588a75c58cb69834bcb8a59777aa9cb8899ac368babaa8776776655a4336
col10:   8ac8a9a8964a6b7aa9b58b8b9ccb69b9bc8c74abbb6abba686987a97888b87453576265484438456
col11:   668998bb616b8a9568c5db6c4786988878796f5ccb9685b49775653b29c587725466573815589375
col12:   b77daa9ba896899999baa96da9c999c97f9aaefbc6ab658b8b8997477797b79757537e7674656486
col13:   75b5a8cb4bb67849b6b578a866bb78a96a9c95636a639689a4566b86585738676853232b86386655
col14:   96bac6dadbcf757876bc8886da9bbaaa9c19e759589b83888a7646b6c5965875698352684a678554
col15:   887669b9c9979c98a878c95767a8c8c674d8b93a83a4681565a8368466b466936a86489754838964
col16:   9a498aa8ada887b9b866bad598da766b9497ba54d959a798a996593ba5aa67769986137874588736
col17:   9eba9689a89bab6c488a448699d88b99a65b8c9964758b96a386b459845876485524354774517561
col18:   979ab695b96aba864c898a3978896b8758a987b975766988c45867839a5556973657636854836331
col19:   78bacbbba3895cb97aa6be78a8c98695b897a98b98973783b989ac89998549438784754658636747
col20:   795b58a988757798bb978878aad885758876a8786765997986992284574975948147a41255735946
col21:   b889776bbb8cb8c6e8767889b8c5689ba46bf73b8364c8a795b68a85645959854676635539856747
col22:   9fc9e8bbb97b6ca97879a97b69a78989c798676979bb5c6665aa9537379497896633978a45818345
col23:   568c8a67a6ba985d689586da9776cc87a8858999a76ab79578688443136553673593464167925163
col24:   79997ac9aad87a79888687e7479b9ab6b88969bb8d977b997787a57a97767762678336457186b512
col25:   75aa7ca78a97bb8cd966794b9b78a957c89957a6a9b9766ab7b379574d7667777587745678816458
col26:   8aa897da99b88bba78acbebab8bdd98cbab7cbdbab9b4669bcbdc7daf8a9b947766568669886a497
col27:   b67adeba998ad5c7e8999c5b8c69ba8bd8d66b99ca8aa9a999488989a7d847c54755677855259143
col28:   9aba7c7a9d9ac99ddc87da994bcab8a8cba79989b887abc8b8996948db37636a78b59c7715e56165
col29:   8737dbddbaa98abc6aab699b67a9b87a95b9a9aa65cba9abb8655588398ae5b66895462894594b72
col30:   bd99dc99c9a99ac8aca7ac96acbb9b58b7a9dcbceb99cabc7c887985897748a4b5a7a99675295267
col31:   9bb8779b9a6dbaa5ad8d88a9b98bcabac9cb798ba88bb99c7a7f84b6ab765ab965b677a696624656
col32:   c8ccdbdcada96b956abda989cb9ac898b7c99ab9b8acb6885e87bca7799a8a75a64986c633c8965a
col33:   77add9b7a9a8acccd8ccae8697a799f96e9a99b9a9c6897dc78896b7b8aaaa8c62a8479a7a549838
col34:   9993bac9b76eacb75bcb8babc7eb9bba6dcdc9b9aa88db79c7a6768c788796949a9737645aa7a945
col35:   8daeb88abbccab7cce7fa98c9c96a69bbda6987a99889a388a95779b98a8857778a18675837443b7
col36:   8aa98b978c7d5bcc89bbe6e9ab99da6dbb7ecaaa469b8b9d58a9da9b6bc977a9867459879952a266
col37:   e7c989acecc8a8c97aca7acfb799aaaaa7995adb889bcbacab8c69d8978c6a78a465ba4988a78876
col38:   e9cc9dbdccc89bcd8bde99ecd86c9cb9dabbaa8895ab68bbaab58ad99794c66889797a67d6a29685
col39:   bc8bc9cd7cccdc47dcc59ab6a98a9ca699cc699a9a63795aa9abb79ca8b6a96e9b56d9a699152aa6
col40:   a98cca8ad7cd7fb9dcacfbb8cfacbfaab9bc889caab7c9b87f7a9bab7aba7867d8babc7a899486a7
col41:   8766b8baf9a897dd785bdacb7bebd8a9caa9aabb7b9b97a8ab66c599856a756682a96aa578981488
col42:   8badcbb889cb89caaa7bdf77a7cf6dfb85d8b97ab6cc69e79b49ba79db4aab98776c77a5873997a6
col43:   cf9d9a5dbab98b37a9e7997ac89a98abbcbcbbb7877b9678866798a67d66adb5b68598667659169a
col44:   c7bdcad89bab9fca8ac5beb6aa9abb9ab5c6addc5bec9aaa98956786a9759bc87577a858a7aa25c8
col45:   9b9dbbcd7aebdaaf87ab7a67ba88ac8cb88979abca697a66779457b847879c6674b9a56277a75364
col46:   b8c997daedc7d9ba7cccaab8bad98cdd86eaeaaa9ddca87a8bba6cbd866777795aaaa8525aa57687
col47:   8a977be989baa96a87b6bbb39b9e78a8accbda89598b5c89b689ac9498895cb99855847997772872
col48:   acacbf7b3bdbb7aa97cabd8cd9b95b7d6ac9fb89aaba89bc97798585c4db19a77537974965a7aaa7
col49:   e79bd8798fcbbba6cdaba6ebad899ba3bbd76a5ac788d569a69574977a881699b846469748679846
col50:   bbcdea9bbb7c8dbc8ba9cdadaca9c7cad8d9ac6aa99ea9cb85abb95a966986647975586697a27775
col51:   7a47597b4b8649b97b7b78b67d8977b89797979ba98763964726376566734754926b544472517959
ROC:	 BPix_BpO_SEC7_LYR3_LDR20F_MOD2_ROC11
col00:   55688878687d5744c45784666664698a938966a6b785757ba36848959574a7784a51768648655681
col01:   9ac3584854b9c9b96978d216c54c55a68667a6679a79a975996a5469a964b9877a8a96396b78a679
col02:   677276877365ba779a866b87697746cb88897aa857aab4aaac7679987b8783887744967d64a86584
col03:   629879797992996a94a756a779a6979d7a76c7a9a96bacc9885d5a6a9767a86c69969f98a5a858b8
col04:   7646175ccba583aa56967587b698ac98ac99b5adc8b8ab79caa8a8a7cccae7c3c76776ca89989a76
col05:   64b985659b777975a5979395876878976478b995c9575a989ba5bc485986944a158982679c666888
col06:   6939a8acbc78968276968556978c93acc9875aa985888dac7a59a9857b8b9958794bbaa6688965b8
col07:   865797873546a758466777da7b46b7c98a566a489ca8b89aa7ccb59e45988994866468675996b887
col08:   a67896b7b648b4867566ab7587a8ca55586999bcb69998897889b9489887a96b94444ab6aba68cac
col09:   1348489797978768a966b86686998a7b5bb9859869eba6a858887c7e6689b8686548b594acba79d4
col10:   88a35566a2496795da5d458997867887d9a7bd79d979a9879697a5ab479a975a685a5ac74538da89
col11:   574653361a987569678aa9659788698967ba398999aa76395da6439b8999c6b88a84879a8b8797a6
col12:   6768b65a365645777797299d5739aab9b8a6c78a9a69888a7a7997868889a6a958bc78ca38bb4b93
col13:   889687884366999b79886799c6ba6c6a7aa4879798487558e8b9ea75558a97b76975a5a968576a68
col14:   db178a8945445878417477575897ab6a4a67c9c6da89a9b72b988998768458988a4879499a7b94ba
col15:   786649777854588cc949b658898588aa9c898d999c97bcca8dd8b399893bbac9689956da66a77a78
col16:   848679854a495759599c3c9b5aa29b9b8ad8c9986ba56bc577c9394b78bb999755b9835a69987988
col17:   1442652585b686586687ac8997a79999aca85674a84ba96895898567aaa6ed7483ac7367459b9488
col18:   576658829716659466888e6988ab7459db9aa5ad51c5986a996ba966a59985ba79b958b795a49ac7
col19:   657a87483562579474c7475a989799a98886af7b4869b7c68b99478765a99678a895a5599875a796
col20:   86217445b658a89a664b659aa47a79875a687a959986a4a68b457a786c66789a978b8849989ac6a4
col21:   9957b579b966675a877b657a9769b8699998a678c9a98a79876979b56aa8a899e6979aba8799d795
col22:   669758247863799269a559995a74c5698947c7c4a8a8673a678a65bc97f9a7886aaa7979786ba9a5
col23:   b5778777a797589b663559469885a85b4c8a48a473a954aad71ad4a789b7867688a8b79436e8c946
col24:   78c7a6aa7ca6693475379b997a9b8ad8b8a7aa959895898767ba6a98977a77ab9656543ba6899687
col25:   8a77a77ab9798558898aab76c346978b88789c679a66a7c9a999bc8997ccd48987a9e779ccb7a948
col26:   84aa98b8888e9587bf689a9aab9bcd988ab7aa9acfa99d87fa96d7cdb7796e89da7ca97baac89799
col27:   875648859dc7eb76899d98787ccb869b496b9958c5799aa8ca67a7cbbbc989798868d79797a6abba
col28:   69667c65a8546898888a9c79bb87bbaacabcdb6cab994b88c7cca8dcc9e9abac97f9ea7598abc8b7
col29:   5d685764e99785b7798697b88ab9b7bcc759575d8bcba56ae8cb696c879cd9b95b8b3bb8b6988b97
col30:   6a7768dd77988d6777ba7ab875bbdc8a9ab8ded98e8ab79b7cb7bd9b98b74aa67a9b38658dbc87ba
col31:   3572197617855b99c996aa96ab9b6797aca95db78f68aac97aa989addacebca6b898c69da5c99ae9
col32:   3a9da8ba8a5ba78775f6ddc9b9b9bb89a8c9cc7c8cbb97dba9c9899b9fbb7fbec9bbdc89b7777a3a
col33:   a8993995c655989b9a59bab88fccb8c8fa9ac5b9cadccd99ac8dcabcdd8bbaacc8999ac7aaaa8872
col34:   9889c45b8799eacb8b6cda96aaacb89bad59b9c6a9bd977faca97abab97c99a78db9e8dca8b8acaa
col35:   7b7aa689989b97c5368789bbc898c88a7ab7cefc8cc7784baece8b7ecba9879b9bada8a895aa9bb9
col36:   5a97bcad8a999557aca7887cdba99dbea8a5b8beeaca9adeaeb779cbb9b6879abcbb9cba9bcbbd78
col37:   883a9898688978a88bb8d8b888c4d6b9df8b8b89ad997dbbeb9adcd9db8bfeeba8be9de9898b79ca
col38:   cbcabbb8bb9bb7798c7b89a5968a88d77c9bbbd8bfc6d9dccdbbdabbc8edb799b8a795da8ac6a679
col39:   9b8a79a9a68cb6b8b9aa7ab89988a98c9bbddb8baf9ac6b8c9bbb9dedbbbdc6ac88889b9b5abeca7
col40:   8c888abb97c999aaabb7caadcabaac8d7aeb9cbabdb9bcbeccdcbc889cccc8dbaca9cafda9d7dcad
col41:   c89a6a887a7b89ba8b7589bae88a8ac89a7c98dfa9fef7dcc9bd9dbab8eaacbdba5f58b9abdbe597
col42:   3ac7ab6698ae87cb9aa6a9aae7a6cbea789c9b7d9acbb8ddcebb79bbdbcba7e9aab8c79aba8bcf8e
col43:   5b9c787abb559c8a789e68ed94b86adaeaf89b6bdc9acd9bd9baadcab98fadebf8a9ea97eabb6aec
col44:   88878abbb6b997989a8ba98aaaadbeac7b8ab7ace988bc88d9baddacdbfdaccacc9bac7fb9ff9fab
col45:   678688978bf8c988a9b97c9ac98faccca9ebdd7cbb9b7aa9f8bcb84899cdba78b8aa6c97c9a9ceb8
col46:   a665b58a8c76b77c98ab7b8a96caeaacc8a9d7ac9caab979c8e8fcdfcaf9f8cd9ebcddc98c7c6dfc
col47:   6a7b878986c777968aa47aaacdadaaf7b9c8dea48c89be8bfbd8b987b9caaba9cb766b9a6a6c9ad7
col48:   697897cb899aa89aa9b499bdccd97cde7bcacd997aedbba99e9eb9687dfaa8bbaa8d9a77cadfa788
col49:   8c99a489b8bcbbbc9ea792c87c9f5d9c56487a7988a7bbb9f895c9ccaabc9f9adbbbaebddc7889a8
col50:   4b9bb9977c73bb9cb99aa9bd6dbab89d8cdeab9dc8bcbb89ce9bdabc858dbdecbba9addc89cdd9ac
col51:   7776677766379b7174468e888c4788c58ba6679b95366977b588bec8d7986ca969666c4aa9a76bab
ROC:	 BPix_BpO_SEC7_LYR3_LDR20F_MOD2_ROC12
col00:   32936525587753a154959376495865864894868b898879597865b8b76675ba78847879b476788bc8
col01:   a68435676857827886488a9b869aaa837269498656d4b8c57c4b5c9495bbc3a98c497b595a567da8
col02:   672a86469798978317a645a52875adb479699497765a8c8ab6873b54b986c97787aa8599c9875975
col03:   43a895618843aa9a5668689a97787897789baaa997b88d7b47597a71c694b79ca9a3678b6a99a8d7
col04:   8684366247665842c4975882b47575c6644778bb89db59da75c48a9b5b69a599a597888789a55d87
col05:   66256895662a796da4725767898d6b7579769ba6865f7a6aca6b77bf89b78949cb9799ba94e67a9c
col06:   54496468845a65ac789398db589898ba88757b68ccb7ab877a8c85c998b797bc99c679797689ba54
col07:   7261856674947a7a866598688988896a9aa98b659585a8b7c985b88aba9678aa5ab7cbc659a7a7a9
col08:   7845369159665748b7772596356676946a9b646aa6b838b759a76899a77da9715a5992654188b998
col09:   755635b69b3878a9d7b9696bec6b96aca96cc56ae78a9959a9cc96b987a9e8dab8bbc5dbb9969a5c
col10:   87775b8665cb5b77a98a7a7475686a9998aaa6668a9c6a76d7b8bccb256b4cb6687b58ba9b7587a8
col11:   2576686a6667896a8891a6ab46a898b86b688a8b78aa999bbc97e99658b49a78799a888867aa6a76
col12:   2858a34a59472873a6915d98c848686b68a9a64dba5b797598bc1a2aa969b875a97cbb299ac8aa69
col13:   8686972a47886a5bb887aa698a999a77d5b8989ac695b8578a88986885b99aa66a7b7876b564ac99
col14:   8658335685944c686b951357a97a497ac3764767cb778679ba877ba9457da68799ab79898b6a379e
col15:   6697a679bb794a48aa8674a568abaab757b8a89aa9a97786a897ab574999cab89da5a6d77ab49b97
col16:   43366757169b8a9798a8698b6959895c77759bbb98a87bacb37b9ba7796aabc2569a2767993699ad
col17:   62725a47798279767a6a5a6176864678686a79bcb5878d96cea989a788858a646886878998895857
col18:   5346678489746c52549889a87ab49b9ba77e9cabab8a69aa9ab59d7b87897775b68cda5a76a3abc1
col19:   426555952661647acb1b858a5997b77b979a89cba9d886aa988e99597b8dfd48b7a56b355768b476
col20:   718578935a4565b7a3b779b875a7c678cb76c5656c7488e85549d8b99ba869a16b83874985789869
col21:   59a3647a7642d59655bc76855b6aa4aadc9bbabac89b998aa79d9a7888cab9cab9886ad75b8c38f8
col22:   95b66b65565ab857864a85c79889765a77bb4498cc7baa7a9ac5b566c7b8b588d6296bab74987478
col23:   355647685a58742276785c5796c58b68c96c8562978bb6698658cc39893677559697ce7454949b67
col24:   836538a7555679772a6869d9bd9a94b786469879b8ab56a647a49758239887b8a88881e994bc7856
col25:   73897978998a7777898989677a7877a64dab7b9bdb89aa7c7557bc6997a745babc6aa788d977ca97
col26:   721a79c4a55c56a9a9886bb7899c27897b8ccbf9c97c5a69a758eba5fd596d9cad9cce8cd7939a6b
col27:   a77a7a6b7a94957a8a9864bbb99ca5aaabd8ac869d88db9b9aa999a7b7dd98eabc68ba7796fcb899
col28:   793798a97bb67768a99a9f9cc7ea9c88b8d9bc8b9a87adb6bbb9e8b9badbcabc7ccc7e87b68d699b
col29:   5c94a596cbc469a9699baa8998ad8d89aafd8c9ccebcfaa9e5b5caaaa78ab7996abc64b6995b8b72
col30:   592285baab59944acb7abeccbdafb8f2b9ead7ccca9aab9bac7aceac79ec78baa3cef6b997bba899
col31:   438b8c389ba8a978b76887c9bda9a8cb6badacbbdabbbfc46779c88cada7a9bbca88bbb9e9abc9aa
col32:   6a9888c9746766b8b8865a78df99a8895da8acbb99e8b99db9ab7dabccac8a5875cbaaad998acca7
col33:   83ead86a879b8869fbb7d88998c7a9899fbec7baaa5bacf63cca6ba7abc88a9aa75b4a889d85fac9
col34:   7d85d9a6a967c67795498c9bcc89b78a5abc8fcc8ebdbbea8ab77cc9b9fcebaa5aa984cf9ec9bdab
col35:   aa9a79aab6779b53796b9ca95c887bddd9abf57abdbcbaabb6bc8c8cd9adfccaeaeb7beabecaaa7b
col36:   796c9a957986baab6a7cca9b67a7f8ca9bf9c7ccbaaa9fbcdab99e99bcabbcddad89aaa6f8abd999
col37:   7642b59789c8dabaddc898eb9a9d8a7a99aa9e9fafb7b98cfbcebedcaa6ff978da6ef6b9a857e98c
col38:   a7677ab9a5baa78b8c7cbeeaa89fd79ac95bcfdc978aabcca9c86bc8ba9ce98cebec8997eae7bda7
col39:   a695a9486b2a69a8c6b9a87c69ccadb7ebaa8b9d8bd9fab799bacca9c9e5aa8dd8a98cc69bd94bb9
col40:   3359aeb9a98a8c68ca8da8f7cabca9a98bcb9d6bcbb8698ebdf6ada8aac7ccacfacbc58ca8c95aa9
col41:   8b6959dbf895bacbb4c5bbfa8a7ddaaaaa7cca877bdebccdcbbdfec9c889c8ab9ba5ef79bd5ba8aa
col42:   577a88968a971cdfc99ea9ec86b9babba7c8c9ceb6899a9dcfbe97c9aab8b9e8a9b9cbdbed987894
col43:   89a8c6abcd8a3cbb58db6baaabbcccb857bccb8cfbbecbb6bd99bbaccbbba7cbdead8b9aaabbd656
col44:   668899aab986bb9b75c3b7989977d9cabdccc8f8b89eafdd54996689cdbfcdcaa99bd59cf9adb9f8
col45:   85b96aa88c959bd9e58fdabc9bb9c96dbaa9ac9d7f98ca9adbe6a98a7cba9978a67a99acbcb9b894
col46:   897c8b9b8895b98d4d9a9b97b9da8cab9b8abdbfadcfbbfd6fe76e99e9dc83ea8c7c7e8baf85adc6
col47:   ba8aa7cbb8ababb8cdc889dcbd977b7acfb8da9dba57cddca8a5ab9deb69eb79a5cb28d7d9ab6ea5
col48:   ba9889ab3978a9b8e8b89896dce99b8badea9abcbaba68ebbdb69cdc9acbbb9bcb9acaba49adc989
col49:   7bacc6acb8bcb5ac9a6c98babdcbfaac94bbbacc9a6b99cba7aaaf7abb7cb796a6d37687a9c99dbc
col50:   7b79a9488a8a99b7ca97eac98d7cdbecbfdc9badced99abcf9ad59cca4896aebaa6bcef6c88fb8aa
col51:   4889b584767866b95a669a49d87a99c597ac678bcda38ad9c93869b6b77999787867e698c64b8678
ROC:	 BPix_BpO_SEC7_LYR3_LDR20F_MOD2_ROC13
col00:   7a63735464567553614756a38988a78a7958799a7599bbaa98a79ac7ca6978a99a959da9a7b9ba98
col01:   4678949c5766b4887897888889b7988a9bda96b8a8899cb9b8add89d9cbc89bd9cbbacbd8abbbbbc
col02:   5356ba696a9977aa7188798986b8c9a8ac97cbcaab9addcdcbbbc899a8eda9dbbb9ebbbcabafbbdd
col03:   9568335898784968955b9acd88ca988b9c8bbc9ca9cbddb7aaabcbc9b9a9e7de9ccbadbcebabcebb
col04:   78678755655b7a765888a9ab79887a98bbb7bbba9d67ac9c98d9abbabccaaadcebbcb8eceab9eab9
col05:   87765a6669588287998287a8ac776b89aa87a8dca8baabaabc878abdaba99aaaeb8acbeccbcbdbbe
col06:   74a89555659775a783779aa8cbbc9acb9a88bbc7baccbdc8bb9bddd9ada89bb8d9becc9edbead7ac
col07:   526967ab7856a8a967765688aa9b996ab7b7db8b598859c8ab99cb8be9bdc9beca9e9cba89cfbdc9
col08:   7835798766885a86a8a58867ca8a99b9d878cacacc897cb8d76abaacccaad899ccd9a8bbceeaeac8
col09:   894b8828871a87998768868b38a7c8a89ac67acbca98b9b7b6dc8bbbd9aabbebac9bc7bab9dddccb
col10:   86747769974668a89869789889a98b89aa88a97c9998f9a88cbabcab9bcaed99bc8dfcbbabdbbc9b
col11:   5338678645657847a7575a88776a7ba79bbb987ea7aa79b9accbbafca8ca98d8aa9b7acbabcddb99
col12:   3b578868667576597696766979b88b87a8ba7b69a8679c89babdf99bbcec7adda99bee8abbcd9dc8
col13:   3462396566799779768866b85767699c9db8a9ba9898b89c8b5a5daa7b8c9bdbcccaacacb9bcccec
col14:   6185325688b378768576a755b7dbbba6baa8cb889894ba6ac8caa9caab859baba9bc9daecccdcfc9
col15:   556557979789587a7496978696c7aabcc8aa9887a88ad9db89abf8c87cbaa9bbd9cc9ca9b8addcda
col16:   4553a94845977689a66a89769c96b76ce5b496a8aaaabcaab6acb779cadd8cccaabc9dcaad89ecdb
col17:   78738767745497956987469a75a8898ccbb97b9998978a88ec7ab798aadbbbcbba89b8ac99dcccd9
col18:   918463769a756a687a588ac96b9c97368a96d6b69ad9a7a6d7c9bde8ab888bbc9edebccdcdbaeadb
col19:   65646595a675574978789aa87875dc88bd6b68bac9a6ab88abad9aeaba99b9998cfaceaff8cacae9
col20:   86936134648a47696b9944279768b8a99996a9aaacbbab9bbba99999a9c9ceea7bbc7be9bbc8cbb9
col21:   3765693757877657577585dc7a888d3887989ac79b9baa68a9b99c9aeaeaab9cbae8dbcbdc89eac9
col22:   55a8287596638a768bb799756aa98879aa66a87aca86ca68adb89a9dcb7bac898cbec9d8cd9bd9a6
col23:   457688697464952667674589b9877779aba88899965b5bcbf8eaaaa8ddddaaa99dcebabbebccacc9
col24:   5674564477558a878689468789a8a79a6bbb9968cca9a9ab766caa99cbbe9bb988be98bcfbcca8bb
col25:   7767881565599774a88aaa95c97a7689c894a7bbc8a976ea99c69bcbcbbbda9a9ecb9cecf9c8badc
col26:   4848686867865783bcb9a8b9898966aa8aabadadbba9aca9899cad98e7afbd4edbea9cdbcbddcbea
col27:   86769696849867b87a8a9a88b777aa7cb89dbcab899bcda9a9bc8d8cbbcadd99ecbcfcdeeceadccc
col28:   757785aa7bb6a569c8bbabba8caa79a96acce6cabecaccc9dccbcb8abbeccdcedebbec9afbdeefda
col29:   8727786b5676865a7885a9a8979b878e8e89998ba8cbdb8aa899dbddbbca9cdfaadddbeccd9abdcc
col30:   a66851686674e7a8763987b6ab979989c989b7bbdbbebbb9caddd999fcec8aebf8cebcbdcbeecabe
col31:   6266769568686a77789575aa87ac58abd8c77cb7c9c79a7bc98cbdc8cfbacebdfaacbcfcaeddc9dd
col32:   549787899939898496ab8967bb8b9a9dbcaa8ca98a9abbd9ddbec9b9cddfcdbbab8a9dffefbcfadc
col33:   5755878697868a8a4988b79b9ac7aaababa96bbbcaabcaaaebeecceaacdbfcbbcacecc7cedebf9bb
col34:   446276667757858a789aaacaa8b5a79b9acdadeacfa8ade8eccbc9c9edbda9cddfdddfdcbcdeeedd
col35:   9641457745698aba9ab7657978bb7a75a8aababace9da9ddbfbbac7ddcbcbadbcaa9ccacdde9feca
col36:   65a4b497455b67a87897caaa8897b6aab8da9aadc9edaabcacb8fabceecebaadc7bcacadecbadd9c
col37:   6924aa97677758ab98996ba69b6ca789a9a7bb699b99c9bb9cbfccdcecbcaabceecbadddacfaceee
col38:   795b8868594899686c9979a9899c8b898aa9c9cbdfbdcababecbadbfceabbefccaffacbfcaffaefc
col39:   6842776698557a9979a6a885886cb989b85d9aa9d88a9afbf9acc6dcdadacccaad96dbecbebebfcc
col40:   58969755a4975a97897b95b8788caac9ba8bbdd99b8c8b8e8b9bab8babbbbcecbadacdbeacffdbfc
col41:   667588746589b975986bb3999aa8898c97eb8ccad7cec8e7adb8abdcbbd9dbbbcdb9feccccddbadf
col42:   736596685556a7a59897589ab9baa87ca7babd8c9acecbabaa6bbb9acbad7cedc9dbca8bfbfdadfc
col43:   76585a97896782c8789999aa8a8a74cbcabba8addcdbcdcaac8becbb9abedddbacaebdceaaecdcca
col44:   6584a75867a986aa979879897aaacac9abb78dccd8cbbbbfab7dbcbeabfdacafdaee9eccafbddefc
col45:   9687754494754634a897764868b8ba889b7c9bdccbea88eca9ca98ccaeccaa9bbbf98cabebeabdde
col46:   9745a478a5585997c667a9638b999aa9b6d98dabaa8c98abcdbacec7b9becced9bbaaeecdfadfbb9
col47:   665668a7878885a5587a89b8d8a78a8aa8aa9bca9aa9d7dbc97d9bdbdabbcdd9d9bdbebccfcbd87c
col48:   8756577967627287b671a8998a98a9ab7a9a8cabacd9a9dcabadac9bdabdbbf9cccbcb9ebebbcfec
col49:   535574718a94a645777738ab66b87aa79979cabaa59bb7a99b8e8cccc7c8fd97abd8a8dacbabafba
col50:   8678559547a98768a9a5799798aacbaa7d899a9a9b8ba9a8889ca99ccdccd9aefe9caceaecb9dbfb
col51:   452286411368745373475556168859a96b9a9778999ae85b8848a85d7967a9998b99d78bc99abdd9
ROC:	 BPix_BpO_SEC7_LYR3_LDR20F_MOD2_ROC14
col00:   86251525478745477658777456996a78468b9949886ddaa9a8aa97aabd9b9b7ac7c7ccebb8eaa9ac
col01:   53425677745979788d6ab868789aaa6b77bd6ba986a69a7b9798aababc97aa7abdbbd7a9bcfccaa9
col02:   4347974757656466787ba9959ab88ba77888a88a8abc776bad67a8a9b9cb8b9b96b9dc9cdbc9e7c9
col03:   345476688536586279a5699a8a9ce9bb898c779d98a9aa7977aaa79a8baa87a6babba9c899abacbd
col04:   465336668496668894575aa3b6d9ebd986b898dabacadc9ad8a89afcab8b9a97a8ac8fbbadbbaaa6
col05:   8366177756583597c787795997ca9988ab6798c8b7a7cbaa977a89aa8cc99a9bcc95c9ecabacd9ca
col06:   3444649274557588758669b7a9a8c68a69b7acbc6a879bb8b88b9d588acabebaa9babbebbb9b979a
col07:   13777855853673755569b7aa789b876c678899aba9d899ba799abc99c9cc8abe9bcaa99ba88ab78a
col08:   4456655516829a788b666989b8b59ba87a78ac8999a7baa8cda88aabdaab9b8b5c88adcabca7ba89
col09:   358845867687a619a7766aa9a7ab987aaa7ba8aa89db8689a699b9788bbaf99bbbcb97bbdbab78b9
col10:   671575557566566588b875aaa8899a79ba9aca99ba8cb98b7a78599ba9b89abce9c996c89a7d99c7
col11:   3588552577767694777675a676a7b377c989bd99a7aa57ababc88baaaa66cbb9c9a99b99daaabc9b
col12:   643585667784a7889868986995ba99aa889ac9ab9a8c99b9aaa98c8b9ac9abbac7cbb79b7bacb889
col13:   2524635545646687779598887979b688e76bb777c89bc8d9797a6a9baabcb48987b9a6b9c7abdbc7
col14:   115662466667289839769689797776ab57b8878b7baba788ba78ba9cb998b9be6b9ca86acc87b7bb
col15:   856838765668587a579989a887a99aac988ea89bac66a9b8b6b9998bc8baa8bbda969abdaaa9d888
col16:   43516486767487776957a78636977a7b9a9a797b7739cbab9799aa9aab9a86a8a8dbab9aa7edcb79
col17:   434582537478988575999697595698a9698879d996756a6875a9a89a6878a9c8bbbbbaaa89b8b86a
col18:   745773666626544777a5b6798ba8d99aabb8aac9997ca98b6ac99bbbc9a9bcdabcabb9a8997b9ac8
col19:   53423857645593666aaa6765778797639ba98949a8adab8a98a9a97bcb9cb9abcba8bb8cbd6aa8aa
col20:   64642376624688b687a88a79b788ca857d7a95a79886a9a9c899bb8a8b8adcbd96a9bc8989cb8a89
col21:   3524356466527b766786899864766b89a76789b89cda9a88ab898a89caba8cc9aaa64b6acabab99b
col22:   364756447574575663665b8a7657b88a9a8b5b97ac989b8b9bdb9bb8b7bedbd9e689b9c9bcc7c9b9
col23:   5237584363854854b5749769a68569896da8888a9999a8ba8a878a9e9aa7bbbcba99a9aa9aaa979b
col24:   6359598246865949997777a846975a89a997d9c99b796b85c8677a899b7ba7acbbb5a79cbbbd8dcb
col25:   152453828454548989589586968b6cd8889bb9ba9b9aea9999cabbac699aaa9bacbaaaba89a98b9c
col26:   67857979aaa6757699967678bac9a8ab89ce997caa9ad9bca9c999bdbcccbc9accdcaacb9cdcbcab
col27:   765668686a956579b77858a38ababa978c9aa8aa89baabaabbbbaa9bac9c8cbcdebaaabbb9bbc9db
col28:   23486988288b958878aaa599baa8aaca98aab8cdbcaaabccacacd8aa8c999b9aaac9dac9aab6aade
col29:   564453988a56697687b75989b8b7a8ac9c97a99c79a8fba8bacaf9dcbcb9dfadcdfc8c8b9afcaa88
col30:   2365686a636a88597a7869adbc87da88a9dc9dccab98ccbdb8bcacabecbae9c8adb9dddbb9ccbbbd
col31:   7375764576a79a8879a9699a98b86bbca98a4997bdcc8cc9cabc9dccac9baeabccbaa9aaccc8aad9
col32:   62574765778959a5678a9788c6eb9babdddbabb9bc9dddcabbc9aacccbac9abacadbddbadcdbadaa
col33:   a666687966448cca86987989c889ac86bcababd7bb9ababccc87999b8bcdbb98b986dda7dfacdaac
col34:   6556896564788ab68aad7a99aba9a8bbbbcb9a8dcdacdeebbfcaabbab9cbbcccb9c9c9bbe9cbbbbc
col35:   8784b3696a997776a96aeba9aa89b96a8969ebbcbcbabbaaaabaeaaf9dbdccbbcaeacbeccbddd9bd
col36:   966877677a65869ab87b9a8acc9aaa8adada7cb9aebe8b9bcccdd7cc9ccafaadddbaccaaacdbbbbc
col37:   3587a6876666989a98ac9aaa78989a8abc99adb99db8ddbbbebad9caabbdcd8daacbb6cbebeababc
col38:   77c5aa95987999987aa8789bbadaab9ccbdcaabdbac9cbd9cb6deecabeaccaede9adac9fbeddacfe
col39:   5768d76494b67797869ac979ca9aa98abcacbaa9cacaccddb98ddacbebaba9cd9dcabdb8cb9cbccb
col40:   4886778765c88b89b674688999c9d9caa7a8badcc96bbdbabbdaf9dccaccbcdacbadeeaadaabbabc
col41:   656868998699569698a98968bcb5aa6a9ae99ca87abbb9bbbbccbb89cbaa9cd88beedacdcbbbe9dc
col42:   49956979a6748ba8ca756aaa76c9cc8cacecda7989abcbcdcdabddbdbccdedcdbebedadaab79cecf
col43:   6397a689a887da8899a8bbcbad8bc8899bdaacbd799a9ea9aad9d995cdbcd9babccaedf8ccddfefb
col44:   6687b8a976986a7989ba98c8b9bbd8ac9bcbdbcabb8bafccbdabdaecbcdddbdb9ebebb9ddccfedbb
col45:   7577895c6a654799589697889879bcaabbc999bccca6a87abb9accab9cccacbcdcad9acafbc9d8e9
col46:   73677a99aaa798aa8898bb8acbaaaaacddcbbaa9abcc8cd9dbedccabebadebadbdaadcdadc8bcbcf
col47:   66684a779ab9a85565a76b9aa79bcb7a96cda98aa7bcba9eabbcbdfabbbfacba9cd9cabdfbc8bedc
col48:   3856786a95a859b8a9989b8999899a7cabaaa98e9bebccacdb8bebeabbd9a6bacb8beaebeebbaebb
col49:   887487477977a79a689a899ababb698abaaaa99baab8eaacbf6aab7b8bacc9cbd9b9cacce8bbccbb
col50:   7687837977889a587a77b786ca9ba9ba8d69bbb9abfcb8aadbcbbecedceabbdbeebdbd9acd9ec9ea
col51:   5516575a4686996a6778c7998876c99988d988ab988968aa68cbaab9d9c99ab9cad9b9b6ba9edcc7
ROC:	 BPix_BpO_SEC7_LYR3_LDR20F_MOD2_ROC15
col00:   56a557356586636684835488293535657999489782695a6477436954756581654774537545166853
col01:   4576847c34998769b9465a98689784a625992486579975695847654875a667679764452725a73357
col02:   67988876776969665584a5976967889a368657a9787757547568a9885298478469b4559957953925
col03:   856999658b9696a546949b38699696877585898867876999689649868466798874635769485a6445
col04:   aa8a8488977897498899866c98536a679878a89aaa7894468a6877885a7895a98944434776333752
col05:   57796889689749999789876596bb6992986758477479785ba686788986a93638baa7475859867544
col06:   8585667886a657a8798597875764976997a974978a77897a59787a8a987865676757436588566441
col07:   97da8997a979697c75b7b9b86677768969ba79ab987aaa8466a8586585b877a95875574779658666
col08:   6568438a9688aa5b8a858b767a6bb38696a9b5886658ba9a7886996b99a86956536a474687585883
col09:   959688885c55877874798998687756879876a89a679699668a8b8bbb5ab995778b6a37a544969267
col10:   9666669c96478977b798957997669b756ab9ab8b998358aa66973458c86825a99689367548724585
col11:   66897a7658a679886657588a8788cb4a9a98946859b6b776b9ab749999b895786898783566317565
col12:   7797869794655b9887a76776969a9c78a97a8977a99777b64a797c87a97599a78768965877837545
col13:   96a878787b7778a7a78a5978ab995c6a67999aca7e8a8876d8777878799888a9a7899898ba945157
col14:   967976995a28789a45679768b868876989abd9858a866897aa9a897b9984967a85a6917875a92756
col15:   946a88658876a76b97866a76b78a6746dab4aa989b9aa8ba985988a7a93a77bca689685683456394
col16:   377bc7898955798879c66888987b6baca7999a768999b9c88a5b68a8979985a6b7677b6775975659
col17:   6a79978a687983a759777a88548b79a8aa3a7989978aa77967d67769b7a88856888c6658b658477a
col18:   964858b88a7686684453837a864788695939686a9757857859965877c7b754776878637977428852
col19:   887a5897ba866a797bc87967b68b7777a8868aba98895a8c5c987b78a86a5a8867aa673575798766
col20:   a766756667896767a69778a7a86b87ab9697749786bb89867676698a579a86696a55956685958855
col21:   8ac7a4645583498aab969988abb96887886cb977c9688b7b689ab787993638978674457486943a67
col22:   8ba889a5b687b7aa8aa7977957897aa9997d999997c8a8698798a9367baa87a95595669699682587
col23:   6cb75bb996a97879aaa778a79ab99aaaba996a6c64a88786aaa9a7679b47596868888449785a4545
col24:   5899666497a984663558ba699b36789aaaa889baa49986ab8b7996799486bb865998757758875685
col25:   8a8cb989846aa897ba9a87db899859a8b9597b99aa87ab69a97a87baaa7467786849879647768687
col26:   83a8a9879ea8ba68969bbb87bccdd696bc69b998f988ac99977b8abab7988e9abca777677968759a
col27:   787b9a597d6797b8a7aa7a9996a979ba9a9999cbaccc97a9b98a9bb9c7bc799d7879a98ab6967668
col28:   8b9967948a99a9ebd9bb9aca8a5ea78b89daabb7d8abb89aaa87cba8ab9bac7a8989989a897c7886
col29:   8a8c77caad9c9b996c7cba76bbb989a99898bbb9aaaca99b8889b899cbcb8b88b78a9c879b959962
col30:   95c9987aa9ca5ab6aa69a9b5966ca9b9ba8bbbc9a9ba97c6a69cbbbb8bbbdd8a8a77c78ba8a9a864
col31:   b9a59c88aaaaa9c79d9bbcfc9d88bbab5accacaadabc78bccab99caba7baacba9a99a49bba8a786a
col32:   ba98abba9b98b8ab9bdb998cdb8cb999aab88cf9cbcbabd79b9cb8aaa88ac9ccaaac79a5abd77776
col33:   79f6bcacc7ab799c7ae8babad97cabd9dbd98c59dc99a7bb9dbd97acabd99b87b5d4c9a89b98a9a5
col34:   a77788bbc9b9b66aa8a99acccbdcba8a9caa9ccaec8baedccb98ba9d78c9aa888a697b87d98a79b7
col35:   dab9ab8cb8a7d7b69cd9cada9aab8addaecabb9da9abc6dcce9bad959caabb87dc6ca7aa7b69b699
col36:   7899ababaa968a9ca9c8f9a88baaae9e7ae8ba9a8c5bddc899b86ebb7c69cca9ae9a8ba768bc6b66
col37:   998caab9cbca7badb9aca9d9a99cbcaddbabebc8eabbbcb99bcdbbbd8cf887adc7aba98aad98bac8
col38:   c9bbd8b8cb7bbdabbdccdabdbf7bc8cecda9cebcd9eadc8ac8cb9bbabbdcbac8aa7a96eadc6c7688
col39:   aadc6baaa8b89daaea9d6aa9caabaadb8a89f8bb8cabcddbe9cca9abda78acac787ba8eaca97c75c
col40:   f968ab9a999dcb8abcea9dcdca999ba8c89bbdeccc8bda99c9986cccbbbb8bdaba9cc7bdaa999d7a
col41:   9ababb979a8b78acddbabbabbdcbfc99db9bfecdfa7fabbdd9dbb8ccae889cdab79a899dadaa889b
col42:   a98acdd8cb989cf7ddaa6b89dcbcbcaa9aadaddbcbeda9a98acbaabc8b9eeacd8ccc9cbb8898b986
col43:   8ddccbbac9c9acecc9dcdc9bb99a9dcdabbac9aceeaebdc9afd99b7acbafaa99dcebecadccaaa8f6
col44:   cb9d989bac89aeb9bbbdebbbda78aa9eb99e98ccacccbb79fd9aadccdedeaec8bf9ac99d997db877
col45:   aca995adacbbc9d8bbdeabc77f9eacbcddbbecb9cdcfdcdbccccaccecbfb9dfdbcb7ebab79a9b789
col46:   9adaaab9ca9b9c8cbca9acbdbb9dbbaaffcbcbaaecbb9adfbbb9cced7bdddababbe6989aac9ca899
col47:   8bccc8cacbaba99bcfbbcbc9a9acaaddcccfceeaabfccdcbcba99dc8daaa8baae8968bedcaecab9a
col48:   97c7bcc96caa99aaeaf989ca9bbfcdecc9cdcbbbb9d9cdcc6aca9aae7baebaddbdb969d9cb9778a8
col49:   9ac56da9989c9ecbcdbcccbab8979d9cfcab9deadbaaaedecb9eafebbadcca8ca8aeaab7b9bb8aa7
col50:   8bcc99babcdabbbcbc9cadadddbc7ccaddfbc7cbbedbb7bfbbdcccdbcbc9accbeb9b9aac8deb9cbb
col51:   89a97c68ac9acc8c879898bad8ba7babef9ad9cb8ebaddca7cc8cacba6dbbb9bc65ab49a9879679a
