ROC:     BPix_BmI_SEC6_LYR3_LDR15F_MOD4_ROC0
col00:   569465575545777A96446966957885578947318361AA4AC5A9799659A66366457357361246252135
col01:   B8966684BA6B8BA659B5B4BB4B35AA99686B99BB9798D37998567BDBA94B686BB5B7A89449A32855
col02:   813683686ABB883956898CA95953CB78EAA8AB978C6A987969C39AC77387D685675A198678556652
col03:   88858ABA69B2899CA6CA77B59658AD99A796BAC9A5C7B476DA6A787B5C4AA878A48685A3A3485B73
col04:   548B485B9A6745C89CEA5DA6C668AEAA8BCA85BC9D3847A8A6B6A9B96BC39B79189A36678A3A7872
col05:   29828723BAA87687465AA76668AA7DC8A9CC7698599867A785A65AB65635AA9685A484757825A684
col06:   85877691A55969869A779787B67B989B6987878A9A8B99158A7A74A4C6626B8453B93B8468229771
col07:   CD5969639AA879C7C76976A87AD9BBA7AA9A9AAAB55BD9C8A9C8A5E9876A75AA876B98B6B9753378
col08:   C79879685778B5AC98B8877A57EB7BA8468A9CDB58B8A6879C857B87A898C583996B556753A15554
col09:   6B6B68A768688898B89999F8B8ABA799797895AC8AB8B88A59B86AAAC98A76497AAD6B655647A5A2
col10:   5A7A858BBA789878A79C48874BA97BC7A999BA99CAB677799A76A877B47DA537886A36968587B555
col11:   5C87A3B7A69997869A7637CCA9CBAF67BAFB8F494897577A599AAAA8AA8BB7A98A76529566655546
col12:   546875B5C4676778999B666CCBA98A388C7C77A775BCB8A76A4A645A8796CB38799B486539811662
col13:   5A5B185ABAA3995688AA87ADADAB89BBAEAB988A9BAA89B8985388BAC65597B9B987674768899574
col14:   5B6969B7975D8B7999ACC9B7E5BC8A68CD9583D8A9A9E66B78885969375898833966AA7987654286
col15:   58C87ABA494B6D779957796596D5779B8A7D9A5A6C99A57A8598AAA89E79999596B68847C7156866
col16:   67656859858766A98DC994B8A6987E87CB8A8EB76CA958C93A8D7687733917A8C25417935A378284
col17:   8A876A799688AB87E77DC7679A56A9ACBA9C8A27C47C9D699CAC88B899678C7726445A2568377611
col18:   87769215A9895C76849C479D4E87BBA8A696AA9A8C688A6D92A6775A9F9B5785654A917373558641
col19:   956965B778B37DA998A89BBBAFB97D88D99B7697DBCBB9A976AB9CBA9BA78AA975B5899477B76495
col20:   A737898993779A7B8A69B775BCAA89A9B8A87CC7A8ACCA676AA76579476DA96C7B49596B76654A24
col21:   77694999D48F85B59C68EA5A68A6CB8B97778AA996B967B7B9DC9D98989E68489366657585AB6849
col22:   78979869DD627687ABB8877B89DAABBC87C6CA6675669DC999964B9898838645C358743666747466
col23:   66B89A889D6877376D9B9AACD9A9A6DA6A889848AA77885959D69AA95878777A5796495868666158
col24:   65A6B9988D5A7949A785B7CD59F7BCAB9B3888BA5899899AA9AAB789877BBA765957548B63679595
col25:   86564BAA68BA89C89BB68D6DC7EAAC98B8C897DCC6DA798B587AA7A5AB9975DC9697377967764956
col26:   B96B5AA78A8979C9BC9D69C9C7BBD9A6DAB9ECDDBB8B798D9B8BFB3777B999498997A4A9BB774848
col27:   76458A7D899998C9A65BB9AA96DAADFAAE6BBCA8DCABA7DACC75BA9CB9996459A896679787296286
col28:   6A6B6C6BB9B96BDD88ABBB79D69ADBAAE8ACBEBADBBCA9BAABBB9A7A8AC96B99AD78846D79854756
col29:   8B69FBAABA89BC8A9BAB98AAA8AAE8AFBAAB977DA9E9BC59989E88CAC8DABA966DA458B7478AB582
col30:   ACC7A99C9CAACB9B8EBEA7B99B899ACEA6CD3AB7CB9B6DB88D9A6D79998B8855ABADA884B7739796
col31:   BBC9D9AC77BFBB8E9CB9BCBD9CCBCDDCBACBBBBA9FBCACF8AD8BC9DBC98BB76B8C7BBCB95757A688
col32:   9EB8B679BCB8D7BA9BDACD69979ACCCDEBBEECBABDCBAAC4BAC95CCCA57DAC8E68889AB7CA79ABD1
col33:   EB9A7DAC39C9D8AB88D69B8ECCAC8F9DDABBBDDA9AAEB9BDEC8AAC9A86A9C87C98AB899886638A45
col34:   D9D8BD8DABCC8BC979A8C996B79B9ADABEEAEC8CAB8BD8A698AAF9CD8B9A87C4A9B78B6967756B67
col35:   FD99768A8FBEB6BD89BEB9AAEA98BDCBB7BAA9E89BAEAF8ADACDDB8977DB76C6CAB58D47CAB777BC
col36:   BA78BE9C87A96CEA9B78ACA69CCBAA9B99EF8DA8D9ECBA9ACCBBA97AD67A8696EC91511B779895AA
col37:   BB777BBAEC9C95EDDB7CEBBEEEBDDDFFDCEAAA9AABADBCBEF9EADDD9BB88DB6C9A7BE46889755868
col38:   AABFEACACBBD9BBC8AC8BAFC9D7A9A9AFC99B89D69DFDD7CBEC7BFC8A7BE774D9C799A9C78C99878
col39:   8AFAAA9B8DADCBDAB9EADDADA899EC8CFBABF7AE9FDABA4B56CEFBAEB7E9B9B88C7D35D88AD86A93
col40:   9CC9E98CACABAE9CD98BCDCBBCABB9BCBBAD97AEFDA9AAA8AAB8ABDC5AEC99AA789BDB7988469566
col41:   CBB9DC78C8EBEEBDECBC9BCCBBB9AEEAAFDCC6DBB8DAFBDABAADD8ACCC76BFA7CD9BAA6B7F87DB47
col42:   4788BA94BBEACF9A9F67CBBCACBBCD9ADFBCBCBBFBABB8AACE9B9989889C4948AAA68AB864A88736
col43:   BCA6BD6CBCEEFDBCCA6FFCBCBDBC9FDEEEEBABC9BCECDB79B99F7BAF69AB9D79BDAC78CA68B999B3
col44:   F7AB8C9A7ABACB9A9CBB8DA8F9BA9DDC987D9B8ECCCFDDDCBEB99A99ADFA8D79A7C88A695A677883
col45:   C9DD7B99C5CE7CCBC9FB8BEBADAF56C7CCCCACDBF9CAE9AD98BAADBDD99F9DBACC7E868796DAA675
col46:   CF7DAA999B8BEAC7BC9F7CBBCB9EBCFBCBAAE8877CCCEEAA8CD97DC5DCFE5CD89C86AA99B98867AB
col47:   9AB8999CBCD8CEE99CCECDCB5FDCFACCDCDFEEE9AD9C8BC99A9FBBDB9DAA9DE79AB86AA998868787
col48:   7B8C9B7CCDCACAEBCCD96EFD88ACCD8C7DDC8A9DABAACB99CDCDCA8BA6EB8EA985868A95586A4966
col49:   CDADDAEFE9AB86C6FEDCBEECEEFFFACBFE99EBBADBE7BD7FD8A997CCEAAA9BDB8AC789BC98EA77C8
col50:   D7BA8CAAC8ECCBBABBB8DEC799DACC9CBDAFB8BCCDCD8FB9ACBBDE9CABB9CAA9BA96A73C96874786
col51:   88C7CB9D8AB7998A8CD6D6AFAAB9CB65BB98AA86EA78CCA76A689977A9876798A777589867381853
ROC:     BPix_BmI_SEC6_LYR3_LDR15F_MOD4_ROC1
col00:   59263868567735466657764434A8887A4666C856668788296865573986A78D655644739679444913
col01:   B6667858E69B8778AA45A8C7698A76B7CC98BC96A19C8894D9889959D975B57E7BA6B87A8749879C
col02:   31BC57617B66A8B4C79687B988CA8C849A699797761A7789898B8696997988959B966466AB593835
col03:   7779767457996A6767A6A89AA8B87AB99799B84B774495796988958561887594AB753ABA6A777386
col04:   94788BC59B3959985738AB6BAAAACB7B75889A979855B56A6978B899AA6997B5A64975B9777A8582
col05:   7B77659AC6AA8A997A8868A877A8A359798969A765BD95A78AC96C477ABB887764596DAB8774BB91
col06:   65666C66698498D96879BBB88A9ABB37A5CC4599A7669B9B9668789A7D8A988ACA678848638765A4
col07:   67AA88A6D87796A9A9CA67B989C93ACBEBBDBBB8998D9B89A5AB99899CE597A9A777CB98495AC717
col08:   95565CC6B8AA79AB6AB686A7676A78C9D9A9BEBDB96B7AA9987B7A79A9BB73B8596A959C59A9BA54
col09:   88A9741A8AC8A464B87CB677B7873A9AA6CD8A7AC89576678775A8C598B687889A8D977A88895794
col10:   6A85968A9B9848B67CBA8EA9A47675C88DDB8C5A88BA99A98B78A8CA658EAE97AA865629A5A47887
col11:   9488696E987C78897548A9B5BA7DCD9B79A59BC8B49A9AA789CA8A7CC3A497598478A96977678845
col12:   9B87779B9BA88971758A9AABB9BBBC79BDB789B8C6B4ABB99B96A96BCA27385A83B996DD879997B8
col13:   96C6C8769C9B997976B6D8B85B996F7BBEA979ABD7888CA99A58A5479C8CB8C798559A9C89468968
col14:   AC8766985BB8AA6BC6B76AA5AC8C67897AC8A8A996AB99B9CBAAF76BABA79589997B7A9BD6B86658
col15:   A9A65B97C893983A89958B9B999AB7BC8747794C57B9C8A59A88668A8BBA87B75784986737798E45
col16:   7A776A97C9789689A88AB9CDA9AAAD6898ACDB9AA79BACAAA6666CBB9948B9C887C6666B9A877874
col17:   73466673D56866B7AC779A999697A6A8A9AA8E6AB5ABDAAA769996DB7986BAC97C55878366A878B5
col18:   9A7278597549BB9BA6889398C9BFAC8A783ACBE8B9A89DA69D79987AB1688927BA67A94886678458
col19:   577788B8686C9979899B58B87B8357D9795A76EB78AACB7A99886A98D68B99858DBA8C97657579A9
col20:   67969B94497644A78789D9A5A69A7D99C777B588A58B89AA9BC9896E98797A9B7C55B9B79BC34985
col21:   75975567BBA9795AB9A96A79777B7DCACA967879AA8AABB9A8B8986AE69AB97977A8678AD9779958
col22:   484A5768C9A589B8798C8A9BC888778FABA696C8798C6A8BB999CE9EB9A9897567B96CEAC876C6C9
col23:   7682498988A75A4BC8798369A8CCAB58D74BCDDB869C779C8B98BEA98A8869CBC58B7DC9788498B8
col24:   A57985A5BB879AC6795779B675A76ABC78C99BA5A9B67A95898B86A7878928B6B79877B8E7967889
col25:   CA988AA9B9B6E977C5C97ABCEC68B9BC8AB898998ABB9A7D7FBC6BB7CEBA8CA94F66B8899B948567
col26:   666A8BA7A98A9B9F998BABE69AA99B7A8BB838AA8A3AA7B99BAE889AE99FA8C9DC8CCB79988DC79B
col27:   98A7A667CA6B7AB9CB5BAACA9B8998AB94ABC898CA9A6B9AD98B8CC89988AD9CEA76C9AC9ABB8985
col28:   679A99C78AB6BFC8B8AAB7AC68BB9AEACBDBB89B6F79B9A98BAAAA5BFDBCC88CACDB799BA97A8AD9
col29:   8486986AA99AAA88859CAAC9A9A9DBCABFDACCEB999C9DBECDBBAABABA7C999EAACBB8A56998B836
col30:   2AA3B5CBD9899D899CAACB988BE9CCF6EEC9B8CFBBBAB8EADADBCAA6AFABBAAB9BCF899C8999AB68
col31:   A79CCBB9999B9BBBABBDCCF57DAFDDD9ADD9DBCA9DA9BBAADDDFA8BCDB7DBAB8D89ACBDC9C99CA86
col32:   BBA799975B9BA99C7CA9F9CA9BAC9C6B98AD9CCC7DFACDC9998BCCB9EB8BEEB8C9CCAA9A8DDAA788
col33:   7695CBA79CFA8A696DBC9ABB7ACBDCBA9EBECAFB8AC9DFC99796C99DA9A7ABEA8BB7B67CC9A8CB87
col34:   CA79BA89CFDD9B68BBD8FF99DA9BE9FBABAABCB8BBDDCD9A9CDA8BAADC8BADA6AADBA97DCA5AAC77
col35:   D977AA8A8899E8CAECEABDAD8DBADBCCCBCCFDCDABD8DBBACFB9FAD7BAAADCEBAD88B688CCBBBAC9
col36:   B9D59A69A6E8ABBBA6E6EBACBC7AEBBC8BBBAC5ABE9CED89A9E9EACC9AACEC87EF9C9AB7A7EA9888
col37:   B777BB899DB7A8C9ADDEAC9FDB9FDFCFBCBCFDDCB89BC79AABBBC8ECDBACBCCA9BB7BDB6ABA8DA97
col38:   B85689A8B8B67CC8999ECCAE9B9FDAAF7BEBABD9CDCDCBCBBCDCEDC8ADD9ACB7B78EACBA7ABBCADE
col39:   7AB9DC589CA9EDCDA6D7E5BB7A9B9DD9AC6DF8ADCBAB97EBBC999CDAABCAC6ADC8A8D98BC9EBA88B
col40:   E687BD99FDDED9E8CB8DC8CA8CB8EA99B9CCCCEDCCDC9E86D7ABF9EB9CCEC9BCBBFCD9DDEDAD9AAA
col41:   DBABEC8ABDDCA8C9EBEECC9CFBCBAFABCADB9B7FAA9BCBC79EDDB89AC7BCBDDA9A97E9D7797BE9EB
col42:   239CAB887BDBCDA9AACBDA7ABAAA8ACAC8AFA7CDBCBB8BABA7BCC69BFBDBFCCBAB78CABBCEE899CA
col43:   9B87BDBB9ACBA977CAA796A9A8BCDC8EBCCCDABBBBEBDCFB8CC889AED8AACCEBBC7EC9CB8BBB996C
col44:   9A6AB5C8CBCB8AA8CDEFBEA9DBA9BAB9E7EC9AAF8CBED9DB7EFBEFBCDA9EAAA9ADFBFCE77B8A5A87
col45:   8979C869BD89CB9B9CDEDA98C8AB8EDB7DAED9DCCEDB6BB5AC9D8FBBBDAC99CDD8CAADACAAC7AEBD
col46:   79BAA7A6A6D66ABA9CCBE69BDDC7BDB88DB79E89ADFECDFADCAD94BDCDACBCDCC8BC9BACAACAC4AB
col47:   A8E9ABD9A657DB98DBCB9AABBDB8AAF9C7FCA6BACBBCD9EBBBC57BDABDDDB8ADAB8CD99EDACAABB9
col48:   CACB699ABAB6AC999CC99ADC8ABEDCEDAB5F75A969CBEDDEB9B9DDDBC7B8BB6FF8FCCAE9CBD79CAE
col49:   876ACBBDD9D9DBD79AC99C89EDCAFFCEC9BBADC8DEF98C89A9E9CBD9BCBF9A78CC99CEC8D8C7ACAA
col50:   665A977ABBD8C8A7898BAAB9C9BCBCCA9CBB89BBADFBC9ADFE7AAAAA6C88CA7CF9C9BDE9EEAC8CEA
col51:   848B63796978878A6648D88CA9B988ADB9AADADEC3999AB8888CCC8A867748C696B8A9BB8A7BC996
ROC:     BPix_BmI_SEC6_LYR3_LDR15F_MOD4_ROC2
col00:   83359B2B96A4777289579688DA7DB9A789B795997588887396A67B7AFA7798C9849AA77763989A67
col01:   A6A5A8B8464B72DAA9C8B7C8979A9FA8C78BB8BC89BA97E9AACAA88BBAAB9A9CAAAACA6AA8A898B8
col02:   A6987487575B98A9A688E799A9AC88F88BAFB6AABC9DA5D9D9A99ABC9C7A977A678A949A96B7BBB8
col03:   A18486B9C8896A997998AA98AAB7DCBC6CF79BAC8AEB9BA8A689A7A85AC6D8B85B9B8BDAAAA95A99
col04:   763A98AB9A9ABAAB8596ABCCAC49A67BE897D8BC7959BDD99A99CCCAC97B98777AB95ACA8AD78E69
col05:   868997AF6A69A9877CA9C9567A887BC8EA7B874BE78AD877986BCBB9BCD989B9BBF98DC9BAB78A89
col06:   A7C9859477768A96D6C8BB6869C9A9999C6BC9CB7BA9956AA8CB67ACBB7D8BCAA9B989B9CB8BCCB9
col07:   A5799376D6754A59877BBCB6A87CBAEBA9A7CCDADAAC6869AC7CC7CA5AA9D89BE76CB89A9C88BA9A
col08:   977966939776C4C685C997CDAAB8CBB8AABB97BD6EA4C8AA7A69B8D9C8B8994B98688976C57C8A8B
col09:   78418BC7497894C99A77ABC6BA7BC896BD9B7E9ACCBCABC5B6A78DA9A78AB9B8BA99AABA98BA4BAD
col10:   A997887988AA744AB97D677CB6CBDABABA8C4BFB99B7EDB9BBD79B56BBB8773EA8B769858C596C77
col11:   C587B86887A8A999497759B75D68B2A88BE9C8B6C95BC989A96998B99996BBFBB8BA8879ACACADDC
col12:   9C56C58455DA9897919C67AB9787A4AC877BCCBAA8BE57C7C896DC789BBC67687B957B8AB769EA98
col13:   87638994997CAA79788C89BA8A9ACBCDA6AA8C97FBB48B7969BB658BA976B6BB9BA86ADDFCAD8779
col14:   47B5884968346277699A575949AA74AB95BD9DBDAA598A9898ED9D87A7C867A7BAE977A6AA8A97B7
col15:   69A287AC9889B899B89F9CCA7C5988AD986A776AB7AC889AA8DCA9AF78A7DDB6BA579BB9C85958BB
col16:   757982A6D99CC6BA987A9ECA5B6AC99768B8C97B8BAB69A6B8B5A87B97D55BADB99CAC6CACC868D4
col17:   75474429536B9337AA58A7899E899BBAB7ACC88878457CD5C668A88A9CADBA77A36CACA9AD8C8B97
col18:   5555B485B34D767A689A89A8499B9A8EA998A7B7D8868C4B696747B9D2B9D77A799A878CAB997BA7
col19:   454B7C7678777765A8966C888AAAB7A995BA79797AB869EBA699BD49A8B89AA3DC68875888E94B78
col20:   4843A4979A8B763ADB5775BC49B796E9C7D997D78A5B889459969879976ABAAC46AA8A77B6599987
col21:   BA83879569AA95AABD8B7B9676AA89849AA6A959A768EBB8AAB3879788769B99D897EB897AB49A89
col22:   68779459399B77B6E5D859C583A9C897A797D8ABC999D6A9B6C6EA688A8A7897B995978462B8A683
col23:   517A8B5A356559999789BA89B7CB588B588658DCA8897697586AAA7985992989C777688B67C69A56
col24:   C66948512696673659584A6757A9998A74BA9975CD949C3AACA9F98795DBA8A567857A879796BA7A
col25:   357588B55A8723B74978A6B7448EB68BE3B7A56A8788956A53958AAA6AD79D8A98C697A874758CA6
col26:   39A78A6AA59687A898AC8B65B7A9AA58A8DB9B9A969B6BBACA79ACCA9BA7C48A76A577A9D8E69868
col27:   1A93969397EAD9D4AB9DC6A7A887875ADB8C698E98CA5889A9BA698B7EA6D8A9CA6D79AAA898C6DB
col28:   683855BB767ABCB86CC999789CD9DECC78BA996189ACCFAA99976A8BCAB8D9C9AC6ABA778DD7C94C
col29:   51BC766CAB9C469AB6736ACD58C8A45B89AEAED99CA6CB688998A996D6C889AD898ADAAA9B65A982
col30:   B565978A7D79B869CC7BA788936B7A8789BC89773B7AC868BF679B9AAC48A7A9798A796C788A6AC6
col31:   7C7787A49A4C8CC8CCDCA88BDD9CE6AADC7C8C77C7AC7CE96988AEB8BD767AA9ABA69CEB985A7998
col32:   7A6974789B8AA687BFAA7DB998BADAAA9BA9DE89896AFCBAD9CED8A66BA5BFBAA8C9899AA9A786AA
col33:   96896978C9B77A8A96EC9CB6A6DF8D9FCA8C8ABEA6ABA5D959C9DD9EA8EB9AAAEA97CB87B99B8983
col34:   858BAB8399CB57A9A99999D9833397ABDABBBB7AF897CC89CABCA99DA9ADBC9BCB89D8F8B8E7C9CA
col35:   797687B8CABCC866ACDC88777BDD76C998A9F88AB8CE891D799E8C89ABBC967AAE9B7AA9E599D675
col36:   6A666D89BBA7A9F59BAB9BD7B2A5BAB51A4B89A6B88ECBAA949A6EC9A888D87A5AB98C8A8BB9C8FB
col37:   5458859693B646B9A798A689AC9AB6C6A86BBBC89799BF7DE89FCB9DDD86BAB7A7AF8C99A596ACE9
col38:   9179A7A698C6176AA88489989CAA8ABDAD8C997AC9BB8D67CBDC6ABBA9ABA76ABAB96AAACC889DC7
col39:   968BD999D5578C97A6CA7AA85EA5B9CC68AABAD98964AACDABB9DA8A8D9DEA8FC94A56DF7ACAA8A4
col40:   AA7749F799997699676C7A2B78ABADFA8C487B7969B7CBBA9E87E97BFA9ACBB9C9BAA787AAA89849
col41:   66B7988C899CB7BBBD9A8BA86BB97B798CB67CBB9A9B86AA8A9789E7A8ABAC9BA9D7CCA9B7BBF897
col42:   CAB86B9B494A5B7BB9B996B75883BBAA9A9AB798CBC9986BCC36C88DD997687B99A7D7ABA3B99798
col43:   696D5767A6C9BA6C9C8AB8768D8DBB7C7AAAF8A59BC5B9D7DDBC9AAE98E9BCC9DAACB77A969CDAA7
col44:   79896769A9989B689BB5459DB78A9C6C77C8799989AD8AB99BDAAD69BBCAEBA9BFCADBB8B9A9EC8C
col45:   895657ACAA95BC466BD999795BAEBB7DD77899DB9BDBC777ECB9958B79CCACDFEEC998C86EBABAA5
col46:   74B4B97879C77AB3A6B95A7B898A77A6A998DBD9966777A9799A9B8C87C7AAB8A7ACBC99AACAA466
col47:   C9756ADCBBCCC19A99B9C586DCB7789B7679BADBCD9E897BD6A8B988ABBA97E669D8C7ACEE9BCA9C
col48:   5A999ABA86D76E8E8ACBC9B98BC779BAD887C6999CAC88B96CC96BBAB7C8A9ABAFA9C86DBA97F9A9
col49:   7775B6B866AAB8CCAADACBB59BBCC897898D7697998E779798DA88B99BAB9CABCBA69C8CEAB988B6
col50:   997967ACA9A7994EDBE79BFA8473CB8DAD5BDF87AACC88DCAAA89AAEEBEC8ED757AA5D86A898E998
col51:   24A9845ABA85767998334BB547BB74A89D6AA7997B9A7B78A29664A8757B636AE6B6699CB68789B7
ROC:     BPix_BmI_SEC6_LYR3_LDR15F_MOD4_ROC3
col00:   76536C883858B5B99A69A9593989ACCAEC9C9D58988BC77A68779BA7B47A3B975656A5645A593666
col01:   8878A89A7ABA99B9B8BCB7D99D97B9BABBAC5CDACC8C9B79BE9BBB999ACC89BCB67C6A995B988585
col02:   56A8896C8A579D9AAAA799766AC9DBC68ACCA565CBB98C8DABDCCABADDDBA79B99B878A995768853
col03:   D9A8B778595A89A99956C8D878AE9BDBCAA6B969AC8DC789A887C9AAD898DCCAAA898B9896BA7797
col04:   BC96A989456AFA7987798A97BAC588BCACB9BAAA9A7BC97E8D8B7B9A9B5CA5A87AA69AB957996764
col05:   7979A77B66A79AFCBAC9AA9CC89ACABAC76AC99C8B89DAABACBC9A9CC8AD879A99618D96889B9767
col06:   3A582889D5CB88BBA697BADA67A9889BBA89DCAD6B7BCA9A68C7B888D98A978A98B6A49759796AD9
col07:   A67ABABA67B6897AA8AA8CCDC9CBCABFC8ACDADB987DCCAAACABAAEAADAAAC9898757BA65AA56979
col08:   888C89879C88A9B8E9CB9D6AA99ACA799BCA8E88AB8879B8B996DA7E8B8ADB999CB767965B579AA5
col09:   8789AB77ACABB39698E869B8BA8CB8ABAAA9EA7CC99A796999B88A74C799B96A8A689B669B769589
col10:   8A7BD66995DC6AAC99BCABAC9CC9AF67ED5B9CCD9CDA9E9ACBBC99AB998A996A86CA899636888756
col11:   88B8BAC6A89B9AABBCBCBE9CACD8A7D79799BAD9A96AEA9B9A9FBBA7994B7DB6A67566889A1979B4
col12:   B678A95958ABB5576CAA8CAA9A68A9BAAF8D89BAA98BBB9B8CAAD998888C8EC967AA8B6A88767466
col13:   BA89788A6BAB68E89A9BA9665DA87CBDB98AB69CBC8CAAB897C99B9B9A9ABABA9DA99B6A68969677
col14:   9A69C8C5A4889AB978ACBBDA8BBAAB8AFDBEA9BB89DABC6D9BAD9ACB7AAC6878AB78776673585559
col15:   D6A39869959CA79B8B8DBA9AA77CAEBB879B9C9BA97EBC99968ABBAAABCD77A3B6969C6479867464
col16:   CD685795A8796A5AA99B9DBABBBA9AA99DAFCBFBBCA779E9F67BA997C799975AECAAB98449346828
col17:   C997BDA9687C6B9BBB8888A97B5C88D5BCA9B6599CAB8C6BA9AAA8AAA78A8C6777CC795844937785
col18:   5B7898AB9AAA9D78878A798AAB8CACC9CAD9BC8CA77CB9CA7BBA6A858D99A79C9B69497978727497
col19:   A8DB76B999BBCCD7BA9BA99ACBFB7DDCDD9AB899ADBAADCEADCCA9AFCBA8A8A96A88C5A4B96A8816
col20:   9A6CC78A47A954B6D75AB9A9BD848CB69AACB9B7BA79DC8B79BB9BAB788BBA69877C88767A989885
col21:   C6B87BB998768BA9C9CA69AA858568A9C9B78B9BEACA49A8B98AC6848A778BD69449857B57885561
col22:   6B79A889C675EB8A6BB89BD8C97BACCAF8BAADAD876797BA69ABAB8D999C898BB835587655846448
col23:   B59C59BB8A8768757AB977998C9697B4A9A9678BABB89B79AEBB9959A9686A9BA99DAB8277864566
col24:   398A36A98C956997B889B8B658996AEBAA8999C8C8ACB69BA8AA9C678C68498AAD576775474A6356
col25:   899AA4C9E9A6B99B79C8C6DB796A7DA88A7BCBAB89A89B8BBADBBABBA9C9CAA7969A95C73785A849
col26:   6C98C7BCBBC69A9ACCAACB99E8BADCABAADDDDAB79AAC7BBBBC6FCAA7DAA9D8888A96BB36BA9B8BA
col27:   7C89CABA9D47CCCECCBBCCABCAC998B7DC37CEFAC79A8BC8BBCB7B7BAB88A79B758AB7C7B999867A
col28:   9B9FB7DBB7847CB88D899F8DCF9AEBB9DBEC99DAAACCEBC769AB7C86B9AA8BAEAA98898A795998B7
col29:   A9987ABBAC9CBBBD7C998CEA96BE699FBE8BACBDA9BFBCBDDACBACD7C9A8BC6AA8A9888A96A87457
col30:   BDBAB8E9DCA6BACDBCD8ADAABCE7B8BBDB79C98B9B7BC9ACDC879B6C6CEA9879C997A6A99676A5A9
col31:   787CAA5BBD6A9AABCCBB8C97BCA9FDABFBABD999B8DBCBA998CA9CB9AC9EAA5ADDA94BC8CCCBAA86
col32:   AA9A7CDA8F9ACA9B9F8D8FA8FF8DC8BEECCBCCCEFBDEC9B99FAC7BC8AD5CB79AC8B9688DCAEAF758
col33:   9CAAA7DC7B6BBEBDA8B8DADDFEBCCECABCAFEC9CAAAB9DBDDEEBCEAA5ECBAE9D88B7AB74AB5AC87B
col34:   88AC9AEBAA9B9B9D4B89CAAB9C9C9DBDCABAE9CCBE5CBABA8AB79BDBD6878BDB6396BBAC99B5B98A
col35:   BABADD6989CCA7ABDBCFB9CB7AEB99EDDB9BADEC5ADCBB5B9C6ABFC9EB47B97CBCB7CCCAAA798AA7
col36:   BBACDABC69989BBBBB8CCFAAAB9F9CB9BBDCDC9DD5EAA6DE9CCAB8DBDA9A99ACB8CA837487BB4478
col37:   8EBFAAAA9D9BEACDEA899FDDCD9DCE9CFCBDFFC8BBB9CED9ADEBD8F78C88CF9EAAA77ABBAB9ABA85
col38:   9BCC9BFBDBECDFCBB9CEBBBABEDADDCB9E9CDE7B9CBC99CF8DBDBDB8BFA9BC8AF96B99897AC99888
col39:   CA8BBC9BBCCEA9EA7AAFACF999BAFADCDCAAFCBDB9DBDCC9C8ADC8EC98EAABABAC8BBD7EAB85EA95
col40:   CABDDBACCE9BBCBBD9ACBCCCBCD9C7ACFCEFB8BFCE898D9A9BC9BACCCACAADAFBDA9C37EAA768A94
col41:   AABA99CCEDCBCCDBDC8CDBDEBC8BBCD7BADAAC89CA6ADBC7AECABCAFBCDDAB8C9ACB5A6CA8AB888A
col42:   EEB98DDCABB9AD9CCDAD9AEBCBA9EBABBAFAB6FBBEDCBEBDBA9ACCD9BC78CBAEAC96B879A499CB8A
col43:   997FF9AFB9CCABDDCE8FDEDAEBCCF9BAACDDFBDDFDCCEADAFDEEBDADCBAEBABA6BC999BEAF7BB889
col44:   F8D8FB8ECDADBA8C8C9DFD8ABBCA7CACBAADF8D8FBBABDADEEBBC9A8CCCBFAAAAABABCE86778A8C9
col45:   AFAB9A8CDD9BCA9CBDDD98BCDCADDDFEF9DDBAADFCBD7CCAAB79AA88BACECBDACCC8CCA889A97897
col46:   9FBCBBBDFAEBEBCEFABDECEDBDACDA9EABDBADDEEACEADA9BCD78CBCDDBEC9C8CBE7C9B5D99A778A
col47:   9DBBC8CFDFCCACDEDBFCACDADBBCACF8DCBBDFECEEBB7BFBEEBAACD9FACDC888CC7ABB898C6CB89D
col48:   9B8BDD8DCD8FDDDEEABFBCFEAF7BDEDECCDAE9BDFA9ACFDA89CAEDBA8AAEBDBCC79C99A989CBA76A
col49:   E89D99EACB9BAAABDAA9DFFECCDFECE6ADBEDDCB9BCEBB8CDCFB9ABD8DC89ABACA9BB8DBE9B57A96
col50:   CBACEDEABBBDD8DBCBEEC9EE9ABAD7A9CADCA9CCCB6ACDDCACA99D9A9CB9DD7DDFAA9A97778A757B
col51:   C5E8B7A6C788DA9A897B6C77DCA7DC89BCABDCAA7A9BB988ECBA8B6687999AB7778B69A6899A2978
ROC:     BPix_BmI_SEC6_LYR3_LDR15F_MOD4_ROC4
col00:   612B85796483826754454498775767998A43586264A5673734458687678457645744756556276343
col01:   69878899786976A779957944B66B7A797A65A93877978679877528567877AB877478356966788753
col02:   97629A9588756738666559A3278967A7B7A88575966526265A676277A9AA54566551216768155263
col03:   C985689A96588CA76A797AB775AA67A496A6958577866766448967A6494696666564317667AC6733
col04:   88695859B58755A68A58C9558B8769A5D7695897B947655B768346586777B9955358943A44792522
col05:   75587A286A95ABB498678AB7B58C896899A4AAA646997687B68779555844668656A8786954476236
col06:   79984388787757497975973B79BB89696597757664469474947A4667785666595456A84958455233
col07:   76489559B6688B75787BA6467597B58B7864796769A58B4335725686673B89729746776651388665
col08:   46977366558578967898483A7987A677897587789749773A6477783653693758A764361713415635
col09:   4AA979887ABA58688978A77C58A678679A87999AA69873CAC9AB69339AA6296756994A8535696655
col10:   8789B8884A6B76885A67B948AC5ACC9A8778868876E16989B777B576468864666956456662555966
col11:   7897A76875A988479DC9BA548B85979977739877827A758287834548856A76A59A66945558384617
col12:   7778A77947888A6576B8664A6644CB968687699697653965B8585547A84428444582578541557554
col13:   79C8A67B4C8A979379A65957C95C9B946897ABA6A8F5626469CCAC85653748675518249643171544
col14:   385479658997897794988B78776966A88389C7AB8AA54936749B586787567554547865378176141A
col15:   687785CD7A9A9A9AD798B9B87BA7C68877B886976C87295978997866999693B85946AA4868736855
col16:   679869878B7B83A79967DA79A7A7967C9B7589BA9B9D6885789897D563985A574749156826763551
col17:   579B9365A897B7D88C879CB9885A7A9D6AA87A974A4478A38975A5484A8A256264635B7155163745
col18:   5896948A488D3A54869AA6796858A964556BA96699B7A97A7579A857B44776678857425791566211
col19:   C68965575977669888878CC3696A7BB8595678959A78A79A8676899A96794A3755885466A7927471
col20:   68C7858798374968468786B3A688AC776BA99A278B7739694487787858692695978128A656235552
col21:   BC7989A9898DAA5A77376976C7947BBBA7B6EC88695878B78CB989A38987835765647A6465534438
col22:   89456686A988BA8978C99782ED97676B6A49AA569987A94467895567AA7866277554528396351174
col23:   78A796763876998B793C88987889A5755ABC88679BBA97A9589C7698686548676356749555965615
col24:   96777589979BA9ACB5969A4A8B87888786C96C9BA6A88987B7B2979866678755A555941476595436
col25:   8C78876888A8846C8D79AC9BA677999A695CA7898E99A87C84C9BAA687998792779463A774552423
col26:   8B49AA4B9CC67AC889ACCBC68BABC897DBC8B79998B8A87886B9557AAAB358B78B87998858977757
col27:   A78B5EA98A86AAA9AAC899799878C8BBB98A899A976CCA5E89AAAA88DB7A96976879568756284994
col28:   9B8BAC89886BCAAB8D979C79A989AB979C879AAA8F58C9A8A9BA945AB8678788D6B66985C6993535
col29:   68DA8CBC6887C879AB6BC99CAB897A7CAE99979D89AA998797BA87868664A6A676698B867A667795
col30:   B6959A697987A94676B8BA99C997C9AAAC7BD9A93B9DB88AB8989994BA6B88995959755964846756
col31:   6ABCDAE8A8796999ACB6B8987B7BC9BA6BBCBACBD8BAB9BACA6CDA788DAAE97685688B8B88745866
col32:   4A95BAA8AB898AA9CAAB7CAAEB9DCCADCBB999B99799AA7977B296CA88A8AB6F796598B9678A4597
col33:   7B69BCB896C898687DABBC59CBADBDA9ABDCE6DDB989997DDBABCABA9BB9C6A996CBA6695789A565
col34:   9C6C8CB88AAC989798ADBDCEAA89A5DA9AEBC789A8B79948B88BAB99B77BA79B67666584B8747838
col35:   8CAC9689BAD79AA99ABBC7E9A9AD98BB8BBB9BA9F9A7A8B899A9699AC8B5996A4AD88A99C788B6D7
col36:   AD94A9AB986CA7A8BC8ABDA8F8DB6D999AAA8A9B96AAB499ABB649DCBB88A8AD3A8997C959879787
col37:   9CCC89CCB9AC777DC88CC9DA9ED6BAACBD9DB8DABCACEA7E9E7BABBAD5C9CB5BABABA7CE796A8978
col38:   6B998E8997CCB9A7A9B8AA89A898AABEAAF6E7A99A9BAAECDADA89AB879B79A849A867B68669B675
col39:   5889DB984AECA7BD99BB888DABB8AA99DC8AFDCBACEBD9B7ADABD89B9A9B89B7BA67A8EA689C7632
col40:   6B49A977A9CDAC9AA9DC98AAF99BC9B9CAB8BDEAABCB8BD87D9ACCCDCAA78886D77977546A6E8C97
col41:   AB3CB9AA8BCCDCC89C9968AA8CBA9AACDD9DBEDC9AECBDBB9ABBABAACBBAACBA7BBA58D59C9AA8AA
col42:   9BBADA9AAAAB9888A69BB9BACB9BD8CABE9C9CCA9A8D6CB9ADA9AACCACAA798B787994A5797893A6
col43:   A89A99B6CDB9D7BBDDACBBB9C9CDCBCDE9ACDDFA9B9CD7B8C8A8D8BADBAABCAC87C8AA8A89875658
col44:   D7C778BDBAA877A9B99B9C5B9CCFBCBC8A9ADCECAACAE9B6CAAABA8CC6888A5949ACDB5677659554
col45:   99BAB79B7988CC8ACBACDDB9ECFC7CDAF89DBCE9FD5EDDBECD9BB798ABBA9CBBC795A8DA778757D7
col46:   99C99B6A988A78CCCA95BBBBBC99BCABAC79BAECE8BA9BABAA8CBA8CB8CB3D9A96B9368A778AA793
col47:   79A9CC87B77DAA65DBCBFA6BF9ECAAFBCCDBBACBD9FDBEACBCBDDABCBAC9CA88EDBDA85888696ADA
col48:   8AB78AAA9CCCC7A98BC7DAD4CABAAE9CDABCF9DE9DD9CBBCCB99AABBB8BDB6B9897576C5DC85A594
col49:   DBC9899D9DE9AEA7ACA6989AAECB8C8ABAE9DC6BBECBD9CEC999ABBCACBEACA66B787CB8A988C8A6
col50:   BBB85BBA77AE9ACAA8C9E7D9AD97DCA9AC8CABDB79BDEA848BF9BABABDDBC9AA89448FAA787A9765
col51:   5AB788B6B9978998BAC847B7B4CA9BDDA987D9A7BCCBDA98C379BAABAA6596898897A74493767569
ROC:     BPix_BmI_SEC6_LYR3_LDR15F_MOD4_ROC5
col00:   5447371423867484854765428454795636624763562345386446472A554247648546465461295541
col01:   628636785679954685763B554967B67563835844A5A7A76435457868692439698755745765538192
col02:   358699655678387953478673987848377A2773577676A9A945775599572659436667A69676748543
col03:   835848C463628767685785845D48779864765778575BB7475966587A287864584717457597968443
col04:   3738655784767776A4749A9B797657635686887989A687264484C885844888585549657685368446
col05:   36686546454695757933A97366156D5789A26674876AA7884A777263567877759552478555944743
col06:   2725925A5999A46876B69A5965A56776A88798699663989493A5675A7926657B56A6387473362586
col07:   8565765769AB87865697477667A98488985978778A9885685649588763B47487AB7164685865A589
col08:   545676659458575B5796B8A9346C789876BA98499752A9654A787786966558675733796957659535
col09:   6475879A567346B9985B7549746789957678797689A6868A8837688739947767663362A65A3A4744
col10:   4165669957793686677686969898768796B9974B666687649A454999A55554479A79758466473257
col11:   6443486A77768448876659687598A7978A456487987456686A89936386819766579518686A8B9689
col12:   655658365667C7796897546368B97455558896988487A7A9585695586A7747455676484357786573
col13:   836585472765545965B5B974764769B8A844885856A66B69A8653674565777796655667847569254
col14:   76984547775567996775B399686A978855A9967668999C65A9666A69A729AB9658577A7677863471
col15:   75678887748C677545A974A57878496699B69BB96496A997853A8878527586968688691645245754
col16:   6389848698677A768577B769A9A7637746A767A777A749769789B467766894986445597577567627
col17:   525BA666A7B99719527C8887764A7895BB56C7A696888588C97AB666737855569965814954557813
col18:   6A76B4475BA776466BB4A464676366766779787B967A97B792878684696769786B7893677562B5A5
col19:   67664475B949875B96677896779A759698AA6599566A6848A67899A7C86974457789567446889565
col20:   85778576549655586678A6A85888977A6869A9699A8768A79578C7A556976366CB6675469B897668
col21:   85648A77655476379B588687866988AA7B989766B88A6A5AA76976574AB7A9738689483468846583
col22:   7665798886947597B547786677768A5576B8B6758D6A967C979DA667564774798636997895476875
col23:   65743976564456954BA899877877C98969A68C77A796586AB78C867AB5C85968665592A57A556533
col24:   88587C68668687676584947739A774839AA68877A86987C88639776C4759878799CC7C6656738788
col25:   AA665B998BB889B8BA99B9F6A86AA9AA8A867BB66A8B96B9687BB78C99977B88675B63989A959665
col26:   899B7478987ABC9A58AA98A9898A8498B9ACC8998A886CB78BC8988699A878B7AB7B989B88A8A788
col27:   68986778596A588996A8A86687A99AA8DBAB79798957996A6986A596AD9976597897A8C7478C6864
col28:   B485A89877769998C67CB987998C88BC9A9A9BA876BC987A998C8778D797A9A96A9A9898AAAAA946
col29:   895A788897AA8796BAC88D879B9BC9A976A988967A889A87A9567AA8D8A788AB88A9876699A49AB9
col30:   67A8BB99887588A7AAA68A987A9799EA69DA8BA8A98688AC98B99899A7A87A8B79A769B96BAC7969
col31:   8A8889C9A6D8CBB769CBACBA899859DA9B68C8C9BCA9B888CB8898B887B9DA7997B97A567DB867BB
col32:   AAAAAACC96D68A8AB6BBC7ACCDA88AAB6DBA9CAB97AC8C7D69AC979786B78C48A7A98877B688A9A8
col33:   7AA9B9AA58C9786B998CA8B87C98AA7B8CB9B6A9A9BAA78C8A9ACD856ABAB8C7B9A88BB9ACDABA94
col34:   984899A8CC8AAD8999E8BBB8794E9BCB8B97BBB6AA8B99AABDB8BDA9B5A9A968597A786896C5A89A
col35:   9ABBAEBA97C9AECF9BCBB9987CBBBAAECABFBAACABA98CB5A8A79A9B8ACA59AC58CB79A797B49779
col36:   9C8B87B896B8D6CCAAA988A98BA688A68B999999DE89C999ABA6CA6CC9C88885A7B688B97977C897
col37:   AC999BBDA5AB88ABEAB8EAA9FAAECCBAFAD8B8EC99A8BBABAEBBD8CA97BCA8B8BA8BAAA7A8468864
col38:   A9E9B8978A9A8B89A9E9E9B9AAEDBCECD9C9B99BEDCAC98BD9EBD778B9ACAADCB79C9B879AA6EFA8
col39:   9799B9C99A8ECC9AABAAB98A989CDDBD99CFDB9CBD8BCAA799AA889BB9889A8C86B89AAAB76BC7A9
col40:   999BCACB997B9ABBAB8CD89EBBDBABC7DAABCC9CCC9AAB9DB5DE6B9FDBACB9798AA48BEB78A8B8A8
col41:   BA9EA989989BABEC9BDAB989ABDBDE9BCECCFCBEA7CCCE79B99BAA9C4C798CAAAD9989C9ACBBC798
col42:   8AB9A99998B9ACDCBABCBDCCCBDCBDBBCBAACBBC9AAC9ADD9B9B8787B7AD9985CC9B9C989BF9A79A
col43:   A7EEAADBFBCCC99B8DCBCCECCABCCC99CBCBE9D8B9ED8CDDBCBBCDAA8BBBAB79A7A688A9CAEBD86A
col44:   89E9BBA79DA889CAEBAACABADBFEDBADABCBC8DDDCCBCAC9C9E89CC9CC8AAA6BA5A7B9BDB89ABA9A
col45:   9ACA8CB9BCC9B9AAA9ADABBBFDDBD9F9DAEECBE8BA8DB7CA98C7EEDCADB9BBC8ACAD9BA9EAC99BAA
col46:   CA9BADCADC8DBA8DBBAACC8EAB98DCBCCAFF9D8AEAAABAFCCB9789ACCBBB9DDBEABEBD778D7BACA9
col47:   8B6BCEA9EBCE9EADAADCDFC8CCEECAAEAFCADAADCCDBB99A7CACDCAAA99BCACCC9AFC8ACCDA7AD8A
col48:   C9ABBACDB9C9C9BDACCCBCC9AABEBDEDECAECACE9CCDCCCC89CABAAE99AAC9C99ABBDBBCDA9CABBB
col49:   9BFAAAABDDB9EBDE89BCAABCCDCCAD7FCDBADDBDBACDDADACCDADD9BACECFFECABB7ACAA8FEABDB9
col50:   B9C96BDADCDACCBDFCBF8FECDDBCCCDDCCBBCABCCCDCFD6ECAC8CDBB9EECBAAEBCCDF9C7BCA9A87A
col51:   5777D998B8C8A9AA7CCAD7A99AACC8DEBB9CD8BCBBE97A86DBAA9BACD8AD96BAFBAAB7BB7CA799C8
ROC:     BPix_BmI_SEC6_LYR3_LDR15F_MOD4_ROC6
col00:   1454537577364A957886B4426A998C7489C6B1588997387F86568346B7216736A6688A8349549375
col01:   B3A9B56746ABE4B7768858367868C7B77B768549767B9A77A695B868ABAA7C887A6946AA7735B768
col02:   8746A536556627859A899DA87837B46898765996686A9A64A59B98AC39A67437ACC7849B988A89C6
col03:   4797CCB6BA793A77969B77B6B8798A577D9B777A697C88AA999698AADBB8A7BA88BA659887486984
col04:   D993578497599689A7789A989C6A85AA8AABD9677794A5D78969AA993C4B1A8CA778547656989974
col05:   2444687968798AD79BA47A875CD678882865879BB9DA559BABE9B7CA589A99A585B5A9C57A776446
col06:   657345445879D6539869CAA947BBB9B8ABA8F5A8A88B869C97969998A68DA5AA25C9987A88679793
col07:   85434AA7B786B7975C78A9BAB94B887A6BBA8CC5B978A97699A9784B99689867C8C8BB9B554B6AA7
col08:   B79A77B5378897E66A77956A547999A57BB77CA87598777B76897B58589787565754A6A85797BAA5
col09:   9165876B9867AC868A89BA678989B7F9A878B8E797A796A9998A9AAA79BB7AAC967999A9A778468A
col10:   759A847677A75A6A744298B3969976FDD6977778B89E56BB7A7A786B9CABAB84D78967A544956786
col11:   456758888975886766677B8B6994885BD8B9A697756B986B899B979AA4D79C987D5A8BBB651CA879
col12:   25657439AAA4B3389BB677986959765639C9ABE98CA88989DD9669789C7672887A967A898B54974A
col13:   8166744775795999C86696D6BB894C935A58A9A8696BA888BE998A6A766889E87697A6558A7479A6
col14:   55B355BABAC7888AA89A7A7A649FAC78B959AD88C899C8E58DACC7885C94A98943996448D9867855
col15:   76A9B88639A589A687CA489B96BBA8989C78BB857B77B897CD5597846BB99C89A8698B596E688959
col16:   9935A4872A85C5586675767A796787AA7C89989B94B89779998A5868EBB74A8C79896B68487C8867
col17:   6868A58B55785B969789A56D967699678B97B988DAB5A896C9959966857BF9949A587588CDB6A693
col18:   63A68694BA7777284B7C6655A56BC69AD8BC6946787B8379B59AA6BAA78BC9886A5A6A699769B525
col19:   67475886864957848D979A589D9C77879B1B89A47B65C959A8BAAC9A85C98CBC67596A897CA89A81
col20:   4499937A5638937799777B586B789A7A47A5A964B697C9AA6ABD868576A9879AA98A4781675677D6
col21:   8567985A85466458A684C8A897C79667BAAB98855CA56C48B7A87AA698869676C3855BA99667A695
col22:   143518797196688B76C9A6A9AB6C28786986B8A785DB799278C697966ABD96B89854678676C58685
col23:   775888BAB687AC3AB7A669BA7A898876887A7CC97B7CBC77A9AE9BA7989818A898C7787699D76993
col24:   124A614A7984899A65A96B6AB87766B69879BB7677CA84CB8896A76A4A7638899A88C5695C6977A6
col25:   5679A59A559665A79685899B88CC99BCB79A684695879BC9B7AA9888B8CCA98DCA69A7449A6785B5
col26:   A9768D8876948A9A8ACA8BD7A8ACAAA9AB898999A89968B97A6B79A8BAB7BAAD7DC68B6978A7C9A7
col27:   977A7A969768C993D8A4BCBDBDCC7A87979778DD58A98ABA99B9AA96ABA8D99CA88BC5B8CBD88774
col28:   8662956CAA5ADA8C8587ACCBADBB8A77CC7D9BA876ABB7888A87A69A79DBDCC97A9AAB5B83996755
col29:   979C94EBD797BA85599675AD87CDDC59BAB998D869DBBAEBC6B979A8ABBBB939D79AA799BA8888A8
col30:   76178976BA63A868D7E59DDC9BBAC6859C7A8AAB77B9BB9AB9CA998ACAA9C8999AA9B697966BC8B9
col31:   BC69F688BBC7A9B999A8DC7D8EEB98ABC76D9B7DACBABAC9D7ABB7AACB7B8A9CBC8AA8B799D8999A
col32:   A785D79AA88679AAFE98D8BB8ADBDE9DCBCB88A898ACCD9C99C8A9CA88AAD8D77B8898C8A9BA9B59
col33:   B7C8CB6BAE3DE8A6B98CBB9FAAB778BCACFBB89ABABDAAAC9CCB9CC4CA9AAC8B79958CF6A8788B89
col34:   95AA9698985BC9A9C5847BBCD9BA7B9AA6C99DDA89F77B9DA687C8BA7BB9DCAA9AAB9758B7ABCA64
col35:   E76BBBA999EAB6CCE96BAD78B9CBFDC8CEBEC7A8CA9A8B68CCAAC7EBACAC899A68BCBC988AADA89B
col36:   A87BAA7B9BB998B7B7B94C99BF6B9CA8EBAAA9BC998C9ADC9AC75BA97A8FA9998ABBBACB89A89776
col37:   BB797A8587CBCBDEBA9BAB67ACCACBBBC69CFBC7DACBCBAAA8BD89C9DEEDCACDCF5BDCABB6C86BB8
col38:   C55FDB7B9AB98CE99A7B8B9BC7CBC8796EFBEC9EA8DBACBCBC4BDB99EEB8BEBAAAA8C6BCC95C4B88
col39:   E866B679BBC7ACACF73A99AACBAAE9B77BAEABCBDFB7B7ABEBAAB89DF9DCAB4A8C8A8B9C78556DAB
col40:   AA97A9BBA7A799C7AC9CEBB9ADB5C7F6BDBBAA9ECBAD8AB9DF6BB9C7CCFEA8898F779CD98BA9BBB6
col41:   839C6ABCCE6985DBBCEC979BBACBCAC7CDFEF8CAAE8B89B8DCAABBE8B5CCB8CB7A87BC899D67FCA8
col42:   A983DBB397AA9AC96BABCBEBCBDC876AA6BCBB9BD7A6E999BBDACC9A9CC87B9A9897B767A97AB7BA
col43:   78AAB9BA9B8BCBA9BBA5EAFABC8FD8AABEB899CC7DCDCDDBEBAAEDBB89D6AEDCCA87DCB6DB4ABAA9
col44:   AA5CB8C9D9EA88BBA8C799CCFCB9BBDA87CABBBCD88AEBCAB9787D9CBD79BBEACCD6CBAD8B9986B8
col45:   75B4DE89A8CBAB9ACCB99AA97FC8C9DEC9BBBAA7ADDC9ACE6DBA7DBB9BBBB7B7899C999C869DAA9D
col46:   5AA7C9BBBCABB5DA799669BE4CF9ABEEAED9EBA8B67E9C5AAB5D98F3CCB7ACC5685787B88AB4A9B6
col47:   57989897A8FCA9BA79C7FABBFF7CAA9DCC8CFAAD86DCAAA8CCF4CA9AABA77A7BCAF78DCC8EBCA9A8
col48:   8BAA88B49A9BFEE9994CA7A9BDBC8CD8ED7ACBBFF8ACCCAABFCC8DB9B77A8EDDC63E7BA8BD989B95
col49:   A58ACDB98A865C4BAEE9BA8CC8C9CDBBD46CBE887AA8B9CABBB596ABCECFDBAABD78EDD7BA8BC7B8
col50:   7ACB8957886FBACA87AC9BDBD7FAE7A9AD89888CEDB9CBDAEEBB9C9BDA8BA77F7AA89ABA7B899BAA
col51:   587789786898C97B7A85CB9DC8A779AB98A9A57967BBFB8A67D4EA475975987C897A66BE98A46A67
ROC:     BPix_BmI_SEC6_LYR3_LDR15F_MOD4_ROC7
col00:   48863577166552966666165A9A93B17788755866A84899A8973746886D7696C631796779A9632821
col01:   7C968A58C39649A689BA599B96CB629A768999A65468B998592CC67A897BAB87D4445955B5964B91
col02:   A8765988C58638676A77A7BB798B8889584A97594859659658755AA97B988A69A698B6B996793776
col03:   98589569A76899997886A799A9CAAAA88579BB78A74BA59CB7C5BB787B8B7896AA7455BCB8749573
col04:   686575883889938AA99A7BA8A879988A87DA76CAAA3BACDE6BA768C8978B88999BB7658767466653
col05:   6687849965C9A3AB9965856A76A6F7CB459AB9559A8A9888A4ACBA8D6BA799B39D75835977424144
col06:   A4846E79859789877266699B8A7A8A9B6AA4D8AEBF9877CB847A8B6D7B79D6A9ABA7A68678764254
col07:   A984786857877A9AB98A9AA9B975AB7D97BAB7D8AB8776678A5B6678696B59576C887C896B785876
col08:   6D4A6359C473DA2AA79D95A7D96A8D7CA76C5A499A986853A679766B983BA93798676888B825A717
col09:   9ABC589D79A466A6AB772559B78DC48B8D8BD979CCC8BBB8B9C46CA887B6B78799BBA77A85AB5933
col10:   A5A767598895AB59BCB89775B9C495A7AA5A7A8CBA3C93867BC9966B9BAA96B83B6A777555475646
col11:   A57B56A897B97758757B6B669AB7BB7A758BC79668AD9B86DB9AB7A97979886B7D5A655A41767581
col12:   A85448A62986BAA9D769A9673A7AB8DA7998788AB79799ABB99668787EC86A6B8488779669475623
col13:   7B6A58A298A9A8D98A95DB8B9C779B8A799ACAA8A998B78BBCAC696A6888D9AB8869C86688589555
col14:   645786B7749958854B46C6A99B68994A89B668967669AACAA8BBAC3A79D6A262A74925BA78335953
col15:   78489A8A4767BB69BC9A99955C9B9AB9BA8B87777B8A89ABC8AA7CB9BBA67A858688A777A7D776B8
col16:   3864498878989C64987A979B79977C98DBDB9A88DBAA79999679C9CAB5986A45B678836589458695
col17:   245626B53997997939A3B6458A6B98EBD9CBBA9C9BB6B97996A998687A5C65A74997A72588567994
col18:   668B5259368879646CA7998A6756B898B9A7896CA989AB984ACC7B86A898A5C96484776925189367
col19:   5667469A7C4847889795A7BADEABBC8995BCACAD6784A7ABBB97CB89B8BA879A6559B98BCA137734
col20:   7A4A58897868B5567AD8A9A59987AA77B77469C8DAD95898B87B9455AB76847566A36748B6884393
col21:   B7756D6878777AA8868B9C97B7AC8BA9BEB7AAABB8BA7E898A9AB8BB9C8795AEBA89894C64679482
col22:   75A78695297668596966C9C6B84B79969BB9BAA8B89AD9895B8578A956669C696875A66A977766A9
col23:   A86647464995BA7C555C49869769D89AA7E9949B967879DB87AB76B87A69A789B99447A471912932
col24:   85346A567882B599798BAD8A98975BA7BAB875B9C3A4D6EAB967A75CD9D8A95AA98C786766627A13
col25:   A66D88BB7A5A5984699E7EA9ACA9A8D6CA89597AB9A87BADA5899A8BB9967B696C487576558A6464
col26:   B1A8A88B67E797B8BA5C6798CC8A9CB99BD99B9CBE6A74BBB769A8DACCFB888CECB8777C558478C2
col27:   7B7A539A9887B9A56AB9CE6756BBCD997ADAABBB8A9A94BBA999CA8DDAAABA5898A6A9599857677A
col28:   489589977ACB9A7A8CB799DCCCB99BAA9C99B8CE98BD8B8B98CACBFBAD86767AB9A8A94589D64877
col29:   956756A86767D596A9C8ACA9AA9BB899CA9ACA7BAE9ACACAD9D67CACB98B87A9889F5796A8A8A997
col30:   58B786775989CA6B778BBA8CACCB9A697AA8B799CCD7DABB9F89B8CABF97AD4B988DA86AB9C92952
col31:   7974B3DA66B9BA9CA78BA8C8BBDFD9BD77ABEBB888CDACBA996BC8AE889DDA4ABD986C79C89869BC
col32:   86B777B79B966AB8567C8C87B8CC89ABA9A79AB9AB86BB9D9D767AB79DBBAAABA7D8798957B2B6B8
col33:   CAAABA69A99A9AA8BACB7EA97CED98DCAABE8EA8DC9DAACBCEBA9986DCF179EEA8D9586797997A95
col34:   985BA59699CBB8CB6B7767ABB79DF69AA9AADEEBA9C7BAC969F97E4DCAA7BBD9DABB8A5E88588985
col35:   99ABAA8B749C9789CBAE6F7AFADFDB9AB5FCA8BCB99CDCF998DAABFAACADBD99BDBBA87CC87C8667
col36:   586B7755465AA7787B8CC678EC7C8BBBECBDCCAD6799AAC9ADDAADAE96AAB8CD9AB8888CB878A951
col37:   946897788BC9BCB99EBB7BCCBB6F5CAC9F7A4BBABCABCCBDBD8ACAAB8A89A9C9C99CDAB58D989B39
col38:   5AA9ACB395E577C7B7969BC9BBBFCCFBD96CAF7A4AE88C9B9EF6BA9CDDCACEE8C889ABBC48799CA8
col39:   448988B989B9BFEEECDA8AD9E6BDCDABB7EBD9D97AC7CD7AD7EBADBACA9C4FBCCB8FB9CBA9788A9D
col40:   678BAF999B7CB977BBACC9BAA6EBCAD989CBBA87BCDD9AC78C6DCB9BABA49B9BC9BB5D867ABBCA97
col41:   9CA8E9BCED6CB8BA7A9ADAEF9A88BAED9ECCBBCADFDEE88CBF7AA8DBAACEBE7D49B99888E77C8A96
col42:   DA7BB669C895B88A56B95CAA978C8CAEDDC57CB998A7ACB89A8ABC8BC7AE6AFD7B8898987ABC896B
col43:   BE6A846A8AA9E7CABEDBCADE9E9DDDCBB8CEFDDBAC98BC9DBBC77CEFAACBA7ADF8B6978AB9699898
col44:   9A98776D8C6B86C799CAC98886BCABEC9FB7BAF8C9CFDA9CDA8ABBB8BB79CB5A9CAC9C889674A8A6
col45:   A97ABDA9B7FBA85B88BB98ADEB88BCDE8ADCCFDBBCECCEECCFDDDCABDBBACCDBCAAC979CAB9AA4BA
col46:   6A789AB78B969CC6ABAF97B8D89B86CCB9ACAFB8D7F9ECF9DD99BBCC8AE996AB776A9889B8A99666
col47:   97DC6A6C9BACCEDCBB9CBBD99DBAFAACAA9DCDACA9DABC9DEDB8C999BBBCC995DFDBCD975A47B882
col48:   95544AB78B4ADCCC7CD597CA89ABA99EC8EABDCDCBC9BB5FDEEDBAACFA8AA99798BDD5DBAB79FAA3
col49:   9B67BBC54E8AD8D9A46B9CCA7ACEAFAF8AADCECD799F8FCCAFC9CB7AAB7CB85CBACFC98A7B9B97B7
col50:   79A8787AA9BB6CB9C9AABDE86588C9BACBAAFFDBB9CC9EA59D998B789BB9E59A76A8B999CA997747
col51:   38978A86BC5786698B6956A967A698BB8A36AB9AB8A9CA967BCACA7698C799A894A5BB8B85767578
ROC:     BPix_BmI_SEC6_LYR3_LDR15F_MOD4_ROC8
col00:   253975A5893254974677A578A7898A6857AA68C8917A77B83578954757887596A946648869565946
col01:   A568BABB8A55BCB89B85BA99C6CA9E7CB978CC9A9BC968ACB768794D8B769789289AB69A944694B9
col02:   5C6788B6AA974976A7869A877696BA5D78A69987986BBBC667BDA97696698854A88999765A7B5887
col03:   876985DB87565B573D68C996669AC969B7A5A67B588899897996A99B79D695B498558776AD54B4D4
col04:   825BB889A9A8AA79874AC77B798748E9BDB4FBABAB88799A88AA77A9863DF766A9C87986D9887698
col05:   43569626886896977367977476BABA57958AAAC669A89999785F9898989587859C73A78D798CD657
col06:   88A74D87A64B8A9B875789BBA799BAABA9D8A85DA9787A9888C38C27877479A8844966C59B66BA97
col07:   96699AA9BBB9BEAA7998BC9DB8AAC877AF56BC7DA9777A7DE77B777DADC8B5BA9CA768A99A768985
col08:   6AB9B7C996B949867D79A84DA8867AC4B7CA9768DA778BBAA48C989B88E679CB89C88A36778BDD89
col09:   68468BA69C795AA879BD8B98BC969D848BA88C787CBE775B5795A974B5897BB9B9397867C6B85978
col10:   98C8858BA667687A88C9B7ECC58999D99CEB8B78C997CA99BAB78B88B5B77A9AA4CBC5A68595D8A6
col11:   677AE97973597A8C97ACC9A8AC8A95B7D76BB4AE99B9A777CB56B9D5B67BCCB9A869759AA97BA6B4
col12:   7698848897B5B57768787A8564B9BB67C9B8D8A86686A86A4CA4C8D586D9798B78CAB99869C88AB9
col13:   8773878A9C866BDA66969A4AABA9997BC927B78AD7777857AA98A89B76788CC677C99AA78BC788AB
col14:   766AA9A8869A7D8A976676897C795B69DC97CA687AC8C848A5A687B9CB8ACC7A98B67D6896998A99
col15:   78AB598C7A8D8C799986A663889DAAC6984A6A99748D67D5B98A8CD9BD668D7DB7789886876826D3
col16:   5677B667866ABA9D8C9A54DC5B6A7D78BABC9B8A7C7B896C869BC9BC7B6A597888AB5FA9D89AA6B8
col17:   87C96A299B97A83B98DBAAC77889D86A9CE8A9B8A66B5BCC8AA797AB5767898A978377D786BAA995
col18:   8A8978879C87D9B6AB6BBBB97AAA99C94BB99B98C87DAEA766D69658C7A59B9B7895B8A7779987A3
col19:   8AA6BB797A8ADAA8A85789CAAABC76ABAA7C8AABDA7A5A7B9DD99CBA96769CBA996998B988BA87BA
col20:   72887B76969EA9BA669B1ADC99ADC9CB67B7AABD9A9B9DB77C7A6BB67A98816B5A7799A68588CBA6
col21:   968A3B79799D94C8875A8B95996987BACCDBC9C9B88FAAA7AA99F6A8BABB786959789BC8AB879476
col22:   B5C7A49989A7B45859BB89FCDDA9AAC9AB7B9A78AC977C9CCCAA76C898859536B87884A8A7DDA889
col23:   97968A9B878A6948B5A887AD8CA699DBA3B7B699AC78DAC96A7AC68CA979BD9998A886888A6BBB89
col24:   7758A4696A8A55BBB88A57A2CC5488867AA8A9BC6A679CCC7ACBD7886DCAAB777C95679898776C6B
col25:   4B8A886B6E98D598DB87BBB9AA6CCCD9AEBCAAD8EAB6B999869A7BDB8A5CB7D97B95DB8BCA9AAA96
col26:   D8799A5BAFCC767B8BB98BAAC7DA68AACCABCCAAB9ADDB8ADCB6B6AAABC65AF9A8BBB9BC7B948AD3
col27:   9A4CAAD8AB86D94E9A99ABCBD79BD9CC7B8FBD9E8BC9DD8AA9BA8AD799E56BB7B7CBC88A797AA68C
col28:   A98ED679C4ABBAA7ABA9779BFABDCCCABEA48E7CCC99FB6CABDEA8ACDC9B8B8CA7ABCDBDECECDAEB
col29:   97748BB8997AD869BDF86BBDAAABECAF9C79B9CE99ACCBBCA89ABBBA68CAAACA9AAD976D6B7C7877
col30:   97C5D9E8887C9AABD89BCA8DA9BDCDFDAC9BBDF79C889BCAADACA79BADC99AAEC9DB79ACBBCA8BB8
col31:   76B79B9AC6B9A9BB79D99D896E9DDDAEC7CE9DCDF9FE8DDCBDBFAFF8CAB86ABABDDAECDD8AFBB8BC
col32:   9B8C8AE97D66ACCA78CCB8BB97CBCA9C8CBDCBFFBADABFCCC8BCADDAEAB8AF9DAFCAAD9DBCCA8CC9
col33:   8884DBA98DABC9ABBBCBCB9FDCFEA5ABCCACC7DAADCCF8EBBEDFBABBE6ADBB9C9B79B5CBCCECAAC9
col34:   96899AA9BB9FA2CDA99EAA9BAFDDD9ACDAEBCAEABF98CBFC9AFBCABABBEFDBBACA9CD9DCC89CADAB
col35:   DC78DA6A8CDC8BCCD9BDD6CEDAEBFFBBBCEA9C9BFBDEADC9AF9C8AAAFBBCFEA8987AE99EEC9DA7DB
col36:   889AAB9DCBE7AA8BAACAA8FCEC9ABBB9BA79DCACCC9D8BF7CEEB98ACCEDAEEAC78BABCCAFDA899A5
col37:   CA6AC98DB8ACBEA78BCABCCCBACAEB9BCBDCEAEFEDCCAB8CDB9DC7FFAE9BC9DB9AFADEAB5EBAACBA
col38:   BD8DA97AE9A87CBBD8CED8C7CDBB7CE9FCCDFDF9CCCD9BAAC9DEFA9BFBFEBEBDBBEDE6CBFEABDBC7
col39:   A78B7BDABADAADCBBBABA94AACD9CCACAB9FA9CCDFCDFD9F869BAAC8A9BCFFCB9EDCABECA7CB98CA
col40:   95BBCBCB7CC97B67FDB99B9A8EEBEEDDFBBEFCDDEADFACCBFCAFD7CBDE9ADDDABB88DECBFEACD9BB
col41:   C99ADA8A7FDB6A68B9ADCCDACBDEB9CDFEFDECCCB69DDF9A8E97B9C9ECBC9CAADDADDCECEB9EDC87
col42:   C9AB9AAB69A779F98A8CA8EDC8BDFBBCCCBCCDCD7CADCCBCCDBCA9EBE8C9CAAAEDDEC9CCEE94AEBE
col43:   D7BCCABAFA998F8EEDAFB97BBFC6AC9E7EED7D9ECDFBDAEDEEE99BFA9DA79AA9EBBBB8EBCA7A9DDC
col44:   ABC7B98CBACEBDCBB7BEFCFDFCCBACCDCAA8BCAECBCCFBCCBBC9FCD9D7CBB8BBDFA8BCADDDCCAABC
col45:   8B99ABCACCFCDA9DCAACFBB7BABCB9AD9BABC9EF9CB9DCE989BD7ADDB6BDBAB9DBB898C9AAB9FAF9
col46:   87D8CCDDBFA6BAD9D88DDBB9DDCCAAB9CDBDDDEAFEFA7AAD687BFCFDBACCBDAACDBBBCDACBBFBC9D
col47:   597C9B7BAA8CAD9CDFD9EBCBAA8BFEEDF8CEDF7BFDEEECDADBBDC998DACA7DFA799CFBCAA9CC89BB
col48:   A83998BB77C7DDAD98BBDB9AF9DACFCBEFFDFDCECCCCED9CCBF9EEACFACBCCF9CDBAAA8C9BFADAC8
col49:   8996C99AB9E7BCAEACBFCBBBABEBDCD8FA9DEEDD9CFDCEEBC8CFFEDDBA89BEE8D9DADCBB998AF9BB
col50:   99A986BA67E999ABEABECB9AAEBBBED99BC8DEDDECECCE9BCECEE9BDBADC9ADD9F7BFDCACDC8D9D7
col51:   5875699A99B9BAA6BC9AABBD9CFC88BCCBFABE9FCBBADA78DDA98CEC998AB99B595BECDBB7A9DBB7
ROC:     BPix_BmI_SEC6_LYR3_LDR15F_MOD4_ROC9
col00:   389974785689565647A58987617477497A6538987A888588517643817979B6597B33678264264645
col01:   9A9498A6A98C979B695A6636BC8BCBA8B6967E7A798A9A696F8685B8AA6A53696836A6B5769B5389
col02:   3BA93816B997867A899DC678AB8AC9DC68B99BB5BDB539845A597986847B6E739897944768467B6C
col03:   683849BDA9875B7447858A8FA9A68887A987CEC598968AA8AAC9C68C59A542D5A4578132C7AAD842
col04:   B7373858A869CAA59A9A8A7685CA87BABB8DA99E9A998899A9B687A9CC57EAC86A7868788A969216
col05:   6669A6BBD66799649C7F9795D88A88A7A356BC575F9A95DE9988AA98674B95C48CA623678698C835
col06:   78777836A56A7C89398A8B66A94BBC68A9B8BE9D78AA885CF5739DD349B4879744576735845C9433
col07:   8C3BC8A89A5999A777ABC5AB66A7984BA8E9DCBABEAA6A5758AE7DB6AA9D957DA5D765A65B9887C4
col08:   85D7C848353B67468987AA897989A76B7B979DAB3ECAB936A996C43A6C867BE455A466A656683374
col09:   CB999B9E65A76E587ABBB7A9B8C9A8A95A9A6AA4E638598BA8ABD766D775A7A86877489AA579B116
col10:   B8969869A9A78698D817A78487B8DA9A78C8AB8C976BBDAAA5BEBE887C7A8A916BB46A7564385452
col11:   48C547955B6318A994A8F9AB65AB8A9885ADE788B9AAE7868888AA95997B38C68AC93B94B57E4969
col12:   868885DA9829389586BB6B79689C9B79EB9CC559AC7A6C87A7868B58C6787C5AA89B722677196879
col13:   B676999D7B796F76A9669AB9AB6AB7B6A5A6CB8A5DD739B99D4AD79A9C69B9AA89767631A58B444A
col14:   B98688DA99B3777764AB9B7B5ABEC6D86D65EBA9C97CB98DDDE996C9F49699862CC6657636B79853
col15:   C8756998C965B79896B869DAA997A69A49AABAB798CBD6E65B85695DB989AA695D497BA597953295
col16:   5645887E886655B6987777BAA7B99BA8FB7A998E7A8B9C7C8CB79CA4B84E67266868889969674751
col17:   6A5649748B4BDB72886BB97BB7A7A68EB869A7C9A87C9B99AC58AC875477BAB49A38476AA9896666
col18:   A91945BAB6A6967978776A97EB88A989D88A7B8888CAAEA578BDB599AAAB6B8A584B795133568554
col19:   66C85989A66D8FBA98ABB868BC9CC49CA89BC97CB79B7B972A9AAA67B7D9BA68BA99871899586841
col20:   88CC775A1D87875BB8576957796857B4BA87677999D6CBBC17786488B6B99979648B867E748B9685
col21:   3278D7567D677278A888ACD87989ADA8899987D789B6CABCFA7BC8D5BB4A387B8CAAC9873A5B8866
col22:   6B57A4B88746A785B76B97A7986D9A9AADAAA5EC8699CC9C88AD9AB8666E67689A887899994AA732
col23:   5634AC757A5D394A78B58799799ACB37D8CBB9FBBE936BBAC9DB88BA59976887A674748B36448B51
col24:   6B684B8C5B878488AC8B99886ABC9CB59999B7C98A9BBA6A974A7797B8678AB94B5A65AA677A8558
col25:   CA9462949678279578468A97AD4B5898A98AC5869A998D9999C7BB8ACA98CC99B55CA94919A59867
col26:   29ABA5B67B8A98B9B8CDBF98DA7DE9BCCA6BBB8BC9A687ABABF7ACBFA8D9AB889A86798A799556C7
col27:   4B85CB678868C9CB87BABAAA8998B77A7D8CBB88EBCDBD7EE79E7AADC875AA99DBA386966A74766B
col28:   69AC8B76C69CEBB8AB96CFAECBAABBC8CB7ACCEB9BBA7C5C87CCBA8CCF9C8ACA7CB784A799F57A25
col29:   DDBA38AAEA76BAC58868B9CAAAC9BDACFC96D9CAEAACB88ABCCCADAEE7BDAAEAA5AAAA99B897B98C
col30:   79B6877D77A969BB7BBC8CBA9BBCA7AAC4AC7CCABCABEB9DACBE9DF9CC7DADAAA77A2CB98B597A57
col31:   7885A9D7CDDD8C9ACABADA7C79BB7C7CDACADBBFCA8DACCCDBDCDCAFBD9B9A9E89977BC87A857893
col32:   97BAD894298DADADAABA9CBDBC6CEB5DAC9BAC499D8D9DABAC7AD7CC87C9CD99CAE69ADCCA7956A6
col33:   9898A9C7BBC5C5B687A7D7AD7DF8D9DD9BECE8EEDFD9CBC5FFDF8ABBFD6DEC7A9A9B9886DBC4A6AB
col34:   8BB899689E8B799B9DBA9A8AF79AACFAEC9CBCEB5CECEAEAAB6CAD6DBAD869C9ABC796BD675B8A89
col35:   7889C7BCEBDBCBADE889AAACFFA89889D6EEABEBDB9BCAEB8DCDBDFACAFFEB7A8BAEA999EA8A8947
col36:   8939CAD5BA688B799ADAAFADFBBBBCBCBEE9EB7DC999CCA9BE9CD9CBF9A6C6CCCBC78B47AAABA779
col37:   488AFCCB99CBF88EA8A9BCCBEE9A6EAC9CFDDE9EDDDBDACB88ECDBA6FBCADF989CDCB9B996AA9A76
col38:   6BA87C67CC6BB8CFCACDCB9ACFFDAC76BBDCCCDADBAC9B9DBDF9BC7ADADDDADBE999BE8CA7D8A9A9
col39:   77CAB5776B7C798EABCDCE5CCCE9EEEC9ACCDDCD9BEB9D89987DAECC9CBB8A7EABD98BB977A6577A
col40:   A75BABCDFAED86C797BBBDAC8ACCC9DAEDDB8E9ECACF8CDD9AADBADE7ABDC8AFA99ECC99A5AD9D55
col41:   998A88FA769AF7D96FCD588DC87ADFDDDAACDCAEECECACED6CFBAAB9ECEDCBDA87D8D488B8EF583A
col42:   79CEEAABCB974AC9ABBBADDA9EBABC9CBAEEEBACFCCF7CD6D58E9A88BBCCDAF87899BD99CA9AC573
col43:   BD988D9BACCBDB9998FAF5DDECA9EDDFFDAEDCAEEFFDEEEDEDEDECAC8FADCDA69ECDD7EDA99AAEA4
col44:   AAA669B8FB8AB7BBBCBAEBFC9AECCFCBCCDEDBCFFED9ACCBCFDAAD6BEBBAB8DDC5ACBB86DE8AEA98
col45:   C68CC88CDCDF9DAC8BB8DB9CC9EB5E7FCBAA7CBBDAFEBDDADF7DBCABEDFCCDAB9C9E95A6D97AABD9
col46:   BD6CEAACDDABB87B9FBF8FCEACBCCA8BCEBEFCFDC8C9CE7DB69C5ACB9FAAB4CFE5B5BBBCCAC859B9
col47:   BBBB9CDAB5DA8A9BC9D8C7FDCFCA9FBECFDCA9B97DEDFEEBAEBEDCCFCDFDBDCDA7C9BACE8CC7FB9A
col48:   77CE8AAF9E5EAABB9A9ECFBC7CDFB7AA7D9B9FCCA888DFE878CCB97CCCEDEAE7D8995D9DF8C99A68
col49:   878BFBB7CF7DBFFFBEBFCAEACEFEAEFFDBFEC9BCDAFFFFCFEFFAEAEFEDBA68BCCB7DBCCBCF8CB754
col50:   7E7AD998A8B79CA6CDFF79DD8ECFDDBBAEAEE9ABFEFAFCEBB999CA6DBDDCD86DCB7CAA9AA9B79AC9
col51:   728B8CB87B8A5BA7C998869CDA58BA6AF7CAA9C9DEAAE9AC8BBCAE9885ACB8D956578A8ABAB46841
ROC:     BPix_BmI_SEC6_LYR3_LDR15F_MOD4_ROC10
col00:   52418648837464965A45978679875DD8CB578996D878B67CA587B988798767D85869776A6485B998
col01:   74B9FA895A8365A96DA8B96B7CD8F9ABDCB7A6DCB8CBD768AB7A6917D78AB6C5DBD48C84B987BB78
col02:   7558C49586828459ACA689A7DCC987984AC7A8C7B99787BBABBBA86A7A8AA7A9AD996589AC73A9C4
col03:   54996593A78CC495A78ABACDC7B89B6BDE99E9BCEBDC8D7B99ABC7BAAB8CB4A7A68BAA4DAC8D7AB8
col04:   254A84475EBCA88BBF6FDEDA7ABC4765FEE9ACCAABBBF9D9CAD6BBB669DCB9AD87B979A6C87897C9
col05:   886B899CAA95C89D9675BD863799CCBB97ABCBB9B769B3BA6DB788AB8AA9B5BA999EA96BB8DA49A8
col06:   8758A6D49ACAC8DB875AFBABBA7888B89DE8AB976ADDAAB98B9CA9AD8ABAB3BB899BD898B8A8B8C7
col07:   87AC4788D76728A8998799A76BB9799CDAADDCA827DB897B68AB7A9999B9BCAA86BA65BCDA6A49A9
col08:   87D6B3B943585589C6398AC7B7AF8F7EBB9A77A8C897E7BEA59B4B7B6A9ABDD46C4694C6B54A8AA9
col09:   35757775A48857B9BCCBA99BA9CE7BCD7BC68ACB87AC785CDB81DB489AAA89FC9CA67B66A59889B6
col10:   25794587B888879989B8B89ADF8CD7DA99CACBC99A4BA864C6A99BA8B9A99B679A97A79899ACAA98
col11:   675678C88D66429959AA9BB77A576C5B7CCBC7BA56C7ECC7695A8BB86A7A9AB77CB6768E9578AAB8
col12:   9B94784B786986788899EB748BCAC88C58BBAB9B74D78AA9C8A7EEA78AAABEB797A6B8BD94A8AAB5
col13:   7766888897555564769BAB7B89A9ABA67BB7BA69598D7AA6B687BC79ADA6AAAA7AAADB79A5ABB9A3
col14:   B8658442987684959888D477BDC7D8ACA7BB6D6C76B6AA7B5A5B88D9A8B8C96A6F8798874975ADDB
col15:   679AA9AA79B67AC7797969BBA9A7AD899CADC9E6AD69999553A6C7DC7A75C8778B97A89B8A75C988
col16:   8AB78A899657598AA97C68FB868E469CA9C7ADE98999C8CBB5C8999CBC7A9C6ACE879D9B54AD9776
col17:   747594A86888648AA8A73F7D679679A9B89B8BEA8A7987B8B87CA6CAEA8A8A79A53699749C777564
col18:   862766D71359AA8949B6A99DAAA8B8D97FD57C7DC996A79BD6A39668D8884998B7865B6772C7888B
col19:   745675638895678C88AC89C3A7D9FC978EEAB99B899BC6A7B6E899698AA97648756CC5FA78B499DA
col20:   B173E5A979865B5A775A6ACDBAC65764CC77997AA578758C8C3AC49B8B998379A3996BAA765579A5
col21:   78A78897787B7789877B4599BADA7ABA6B7DBAA7BF9AB679D69D66C96786688B9CAA56998C8B9A79
col22:   74A2864A678877C9C3559776A6B4E7785AD7CD7819C69598AD68A878DA9B5B5A95A777436BA57687
col23:   64B374778BABE889A875676989795AACBA89B8A63466796899B78679A987D8C545C89BB8797979B4
col24:   556972E67AA57847AD6AC888BA6C784C77988A78A7BD799678B458896B989A5569BB99B8B6BA7753
col25:   311A4736D786C6CA9AC8C86966979787A7DB65B896B579E97B9967AB7BD7A5C65E979AAA967A5B34
col26:   81B56D97B8BA9A7E68BCB988CD7E77CABCEBEE987AD9D878C7CCC9D88BD89CA59D8B38BDDD9AA8AD
col27:   A415B9AAA7E79F8DB76D7999BECABC79E99FDB7A6B9799D9677AC9D79C899B796CD69BE78AABB8B2
col28:   A698D97C66BA9AA9ABD96C6BAEA77A8996A9BB5C8CAC86BEAABD97A8C9AE8C7C58878DB88ECBB8C6
col29:   178A8B5795B7BA9BA9BEAE8DC7C9CACCDB9ADFCCA679B9B9BE9B89D59A493DABCAB7999C8877E977
col30:   AA46E468AA9BBDB97CA9FD87979DCACFA9BBBBA96785CBABBCAABBCBAC9C9B96C7F788CD7965DA7B
col31:   C588788A5CA89C69B7EABBB968BBAF88A2B4F7ABBCBFC98EABABBAC8CDBCCBA9B9ABABDACB89CCD8
col32:   979B667996DBB6BA5BBB7E8EB9EA9A6D9FB7DE9ED999BCAAACC99AE798D9D6A7A6B4989BB79C6659
col33:   789A8945B8AAADBA4AC7E9FF8FBCA7CEACDBFBCBA4DDBCF9AADBC6AAFB8AE569AA9BB74AAB856497
col34:   99A9AB6895B9BECCC7CAB5CBA7BDBCC9A9FCDCE7ADB98BBDB8BA999C96BE87C9A49D89A86DCBA6D8
col35:   867EB9B7D8D9BEA7B8EA8E7C88BBCF9EBC7E9CCABCB58BBB97CDBABA5CACBB977F8AA9AD8B99CA9D
col36:   776AE88B6F7BC79BBFBBD9BD7FBBFDC8E9B5DDDCDC9C69AAB9AB8D8DBDB69B899BABBBAAE89AA957
col37:   783BAAEC5D9DBC9DDCBEDCABDB7D7B7CC9FCFBDDAFBD8B58B9CB8A8CAC79ADB5DA9A77E9D7C899DC
col38:   B8A9FAAAC7A8699CAAA6B8DC9CEB9DEB97DABAB978BA9BDA99BBD9BFBA7DECBDA97A77C9997ECB9B
col39:   BCA9D6AAB96899B7D994E98CF9BABBFBBBEACBBD7C99DDBDB9BEDFBABB99AE8CB89DB8CAA8A6D988
col40:   B86B9CB8CBBF9CB9C8BF9AADCF99EBDCCFCAAEADCABC7FB78957ABDDCBABACDB6EB958C799CBEDAC
col41:   BDF6FC68CB8A8ACC9B97DBED9DBACF8ADB99FD9D78ADBDDBDA7CA9DAADDAE8B99B5B4FEAA6DCDA68
col42:   BA8788CC5C7EF7CB7CD8E899C8FACFE88CFBAC8EED86CD8B67BABCECDFBBD9CA8BADD9BCF8C9CBB8
col43:   B6C6FAE78CF6AC9BC8CCDA7F7CCC9CC6DEA6ACCBC99AFBEBCF9CEBFBA9BAEEEC86A5CBDBE59EAC99
col44:   7AC4DADCC87CAC9ABBBABBD8B92CCBE8C9FEF9FEEE69CDEC9BADDAF5B8EAAD9DBD688AB9AA9BB38C
col45:   748AC69D8D8BCBAFA9BADDB9CBBA6ADDC7CDAFCA8C9AFBDDE8CAABCCFDBDA6ECCCDB79EA6A8B7967
col46:   759EC4BA99D9A8BB6FC8D8CDF9BD9D9B9ADAB9DBBB8FBBC8D8AECECBEABABEE86C7B7AF9DCAAAB7A
col47:   8CA9F989B8A83FACCD8BD9C8BD9CFB7BCCFCBDFDDCBBAEAA98E9DABCEBB9ADE66C999ABDDAAA8EA8
col48:   99C57BBCB86CACECCCD6C8BADDDCAAD6CBCCC99BF8DFBCC7ACDCDAEC9BDE9AC858D99989BAC9F9B8
col49:   7967B9B7CBB96C95FCEDBBCFCB8ED8D7BB9EB9A8B695BA7BCCA9B6B9CC9B5497D77BDC887D8BBAA9
col50:   B7BCCAF7D8D999BB6D89CB8AAB89DFFBDCCFEF9C8BD8C79B69EC8CBBB7987B97DBEBCC9BBDB9998D
col51:   69A7E6665A9989B5888799A9F9AA8987899AA9757A87BBBAA9E9B85AB7B8ABAC9997ABA855754C69
ROC:     BPix_BmI_SEC6_LYR3_LDR15F_MOD4_ROC11
col00:   387A8618765367D768349165B6B39A677685A99766679489276653737BA27B475A61425683776393
col01:   866597A99674B358849879BB8EA98AAA7B9B9A9C8D94A888647B775884A987A8889955B7B9789556
col02:   569984363A2A58AB6A7C967786956979999BB7A8769A97A7C3A7864A83899863863A66B688CA9D78
col03:   584678A14ABA4789A2959985A7887665B6E6798FB969655798F57A6835789C933616A4876457877D
col04:   3565578888A871598A798987459BAAAA879C6694699B872B9573C58C749877A88374769A847AB976
col05:   666478798661448A6892C97997698995A569AA8667785BB6799AA5468AA86673879558367865694A
col06:   35667566768646A79679595B8A768797AAAA879BC8976788496A9989BA179B789868B97287A7799B
col07:   74876864A6B438739693B6CAA6BAA8B9C996389B9A69A9698CEAA9557AA6787A75A8797788858297
col08:   7AAA66894769877786797BBA84AB79A68998686B537C4A87789AD75349A4AAAC6B776B87689169B6
col09:   51A8457966773977A5B556D83A8668A99EC5BBA46AA387A5D585998A7C948C77A91C9539AAB68547
col10:   994BB757769547698676A5649C7863C988B88A789A8D889988BA77958959667956658783A64BB4A8
col11:   772B834A5C85362A6B87B83A94997AA58C7B566BC59A79B8C68CAAC99889B5898875579893667557
col12:   66321B63A8834B5866A168897A68A96C96799357FA8984ABA869AAB996A68947C96BD63674347735
col13:   367589731578584676849A49A45A989A8369AA597B648A48A7A89A89A4979788AA9BAAAA98966A76
col14:   5477A889D5668B6388B7A9885974B8B879A8AA67885AA995888A69889AC7E7896A86A799C6579868
col15:   868588A837788686998A788685A686C87A6A65A88ACBB97799B41769A987A99887B886A697527586
col16:   388955769937BC6975B5A8AE799B898597B5E578A65488B7678BA6787769BA979699989788BA6796
col17:   5987585594B6989789A2894B866677B9875987697769A7679584967867A79777456997A767646594
col18:   85749895788726A9886985A8B7C9B67C99956589884598CA6798678878B7A8758A387677787D4A63
col19:   637975B789975886B889887883B669AAA7A9B798999C78769587B9BB77A6959AA87375787AA8846A
col20:   7C6698636751C86AD7997A573589889A96666D87B55A77AB89766AD5A756B57A78A9865A77C7A9AA
col21:   98477875A5C894A76A4689B8B8AAA888A9CBB9797A98AC857797698789A7C978875589A4586578B8
col22:   56989AB586C93576B6A9A85859667AA6A96B9AC69A6C7A8A69A888BB768997689954978A65BAB989
col23:   757445A99C959886568AA6B6796A666975B8B956E6A87A4B779475B66577A49556886A8C85899848
col24:   7868696499579A4899A888A9ABBAA795B7659C96C8C86C997E8CC89B8B769A979A684A6566885656
col25:   786798786A96B957A2C96EBCE978BC76AA978A9848A9A7A887A677B7BA69AAC787A85798B65499A2
col26:   5476B8697479979A6B9888BB79887CBBC9A9BA8A9BCAB8AA998A91A8F999788B9695AA787978D699
col27:   9B86C86979D47789BA6AB6A6C7B9988B696D7698EBCBABE79A98B9C9A7998AA759A778B998C7CD7B
col28:   699969F79AA68987A9AAAABDCAAA9BBACF9CAEB979A9978BA988997A89A7D8CB9DAA749CAA787C98
col29:   8A8846ABB99A5A797AC7CA98ABD8BAAB89ABAB8BB9BACD9EDD8CB98999C9A68BABCA8A7857965CAB
col30:   99879AA497C9A4C897A88CEFABEC88B9ABCCBB9CCE59AE9988B9AB9CE88BA6CAC8A8A869D9BC9586
col31:   A975A68ADAAA98785ACACB98CBDA9AABCCACBA9D8B78CACB9BCC8AD7984CF8668DB6CC89CA67ABB8
col32:   56AA88998A898DAA98BB89AD8A8BCBACADFB8BDDCABDFBDCD8B77AAA9DD9BBBDCAD8D9ACBEB9F996
col33:   99A88A998A59C7CCBCABA7B99C7BE7ACBA99AE9ECA9AAA9A8D6D85E99CB89BCA8797AAC9AA9A5B8B
col34:   BB85B9BA87A9A8ACAB98ABC99AACDFBA9D966ABBC7DABCDAC8CAABEBBDDB5C9B998CB6BCA8DABCC7
col35:   8987AB869677D8ABFB8C99CB7A9CDADBBACD9ADABC7ACAC9BBBBB6CEBAA7C8BCA96B8768ADB88C9A
col36:   BBB8787BCE97B6FAAA88B9A9979EFABADBF9CBCC9CECDB7D9BEBACB999C886AACD9EAABA9A976AA5
col37:   C79CABCBAC9A9AEB466ACACCABBACBBFA9ECBDBC5FFB9BCBADADAAFABB8BA9A7AAEBCC6C9BBBDFAC
col38:   97A7AA7C6E8DC98A7B8ACCA99BBB7BA9CE9E9DDC99FE8CEBBCEBE7BA8DEBACB7DBB8B894BDBD9797
col39:   99AB9BB56A85A8B79A8CCC9B9ABADAABBAB9DCBCCBDAA9D978DA88BBDBC9ABA9BB8998E9A879B99D
col40:   96A6B7DB5BB6CC798ABBADB7EBCD9DCEEA69B9CACABEBDDD9CDCCBF9A78AADBBBBA5B7BC5FA998C8
col41:   AC6C4AAB98ABEDAAC8ABC9A879FCEDC8ADA9DB87CABCDBBBDBABDCE9ECCABC8EEB7C9A8BABB5E8CC
col42:   7AA9A9B869C9CB8CAACCC9AA8C8BEBDDD9D9F99BFA8BBAF7CF9ACCAADB9C9BAADDBEB97B5ABAEABA
col43:   A9CA8BA6FAB7BECBBDAADECEEBCD9CBBDD9B6B9BFCBAAB8BCBC7FBAFDAEEF9DEEDEC7FABD8A9CAB7
col44:   8AA85BFC9B77AAEC7AF5A9CD9A8BCABD6DAD9F9CDBDABFECDACEBCFCBBFACCECEB9ABFD8927ADBAB
col45:   86789BBB8B989BBBEACBEBADCA9BC69ACC8CB9C9DC999FE89AEBCE6D69FBB6ACCFAADFCBBDA7AD99
col46:   B7A9BABAACCABACBB7DAA89BCE9EE7BCCCC7EA9DACCCABABBCD699BCCAEDC8BBADD7CBB89B9BBA88
col47:   A99ECDBBB7A8ABB9BC79C9D6BCC8CBAEDABECB8EDCA97BDACE9EBCBC9CE8ABBBDDFABBA78D99AC68
col48:   769A6CB7CECAA3B7A9A7BC9CDD9BCA987A7CADD9DCF8EB8BBCDBDBA8BEED9ABBAB96D8B6FB9EACBA
col49:   475AA6A99A7CEDEA9EABB9CEDB6CAC88EBACEB9CDCDCCD4FCC9A89CDDADCBA998D8BDBCBD9B79AAC
col50:   C6B769D8EC899BAE96D8DDABAA9BADACBACBDBDA89EEDFD9C8BDCEDCAE5BBDCBAAB99CCBAA7CBA96
col51:   88C876986A769BB7B99898D9BA69EA9CCAABEC8A997CA78E899A9CCD9B9B9989ABCC9977998767D6
ROC:     BPix_BmI_SEC6_LYR3_LDR15F_MOD4_ROC12
col00:   7266758A884B84767788687CA9B977395B9A455C864AB88AF5C75967931C45867791257216678512
col01:   A5789B661BB86898BB9AACDC78BC8C98B6E9A7677BBA8F489A6695AB7AA6777CE9497D664367C475
col02:   A796AB299A1988789D6AB4A68CB69BCB998BB8CB8ABB8BCBDC67C86B97B586379A7B64A13565441B
col03:   79999889CC836A79A746A879C8A9AE94C1B67BFA3CB8686D7B7BB86ACA5B877A5A95629845625547
col04:   6ABBDA9AB89CB56AD7589597679BB8CA8EB78BBB86EACC6AB85BEB69AC5C9A788566735876934725
col05:   C5BC8D9F7ED7BD9997587BC4E89BBFCB8A9BE47DB5A5A68B5B57A8985448B91698B374AA85516264
col06:   7778ABAA8478578968497BCE6CB76CA7E9A3FA6BAA995E98A4A8AA6B9F5AEB69797B79675A786876
col07:   E75AB8BA8A78C87BD6979D8A9A8A8AC793A9BDCBCCA6EBCA96CCBAFC9558B8767675537475675645
col08:   C88866A7B754BAABDC888CABA249DAB79AB988A6988795CD78794A5C9999D9B93BA4648742566578
col09:   EC8BAA7BD5AEC65CA6A9AAB8B8B9FAF85BABD8B9FCC98CE7D79BBA8FCAB97A897A97885B95968242
col10:   91A6C7A9767A8C5BB6AAE7A9AAB8BC69AB49EC95B9BF6ABB8EBEA9A8CC8AC64A8A68555994B75431
col11:   B676C667AA9D8CB6B5AD9AECB959985C58777B947D55AEB748893774DB694A84A8771A4A63726744
col12:   7944BA684AAC7976852AAA9989A86A597B88ADA397A87BCE9AC786A5B7975D3A6536356B54672635
col13:   799A8E66B8688BB9ABA97DC76AB9CC999BB77E869D7598BCB8BA687957A88E5A69B428ABB15324A1
col14:   B7B9CCBC57B456A89A94B9A99A599BBA9CC9985977DB58779C9AB97C3B7968673A75775967789386
col15:   37714A7879BA87AFA767847C7AAB7CC59E8A898B999AAAC6AACE9CABBEAC758A7571A92488734876
col16:   A9D766577877643ABC8AA6BDE9D838CDCD676AC9D898B87B97997B6995BA9679AB74987695994843
col17:   3B7476719497645EBBCBAAAB887E3C998497ADB68A8B866AAB75B9898B78A9DA575937764B551766
col18:   D888345758A79949C5A69AA7848AAA69A98A7997AA9AAAA4E595A7B997CC7779AA8A684B76413322
col19:   779B7A9864A85997A9998B5AD867C7AECAF778C7B9EBDA7BCCC4696C7B988CA9A63942784A8616A2
col20:   4361583A96398496A7899B9989BB5687A5A8899BB7DD86778999BB3B983E9798C3A9D8797C6B5591
col21:   9687773AC78AD48B7676BC99C9AB8B767DDA698966767E7BB7A6AA8CA5AA796989A967A6696B4841
col22:   772789477C77D9969B6AA85A95A99AC8BB8C6B6677A919969B74ACA56868DA447984719A945134C6
col23:   759B8387B96A684899A8B5768A9BC9B7986D3AB78B8779A7B57A9699D9BCC9A5586A99C973193351
col24:   8B36877A793796869698E86A8B66984A88BB9835788B6A6D57596BA9A8E5487749899C5985576946
col25:   A8486E197C7AA7976978A7C756CBACBBA9A9B99B786ACCD955969A787B8B76A99965DA8755866261
col26:   775CCA9B9AB599A5B6FEBAA9AC89BBCB9A999CDA9CCBD5A8AD9B9A9AE9BE45BC96BB6A986A5A7583
col27:   E75566CBD8C9C7CCCA9AC778AA8CB87D8EDCFDDBACB69DDEACB9A7EBCCDB99A698A98AA6AB87B683
col28:   A8A88799DE6B59978D8379A7689B6CB9CDB7A7FAF9BBFA8CC99D89BC9F6DDB9BBC99986986A3A976
col29:   CC9BCC9ABBBC96AAA9E9BABEBBA796C8BAADCDEAC889A9BBF9ABABC5BFA6868EA49887998AAC7BA7
col30:   77A7B8ABB7A99CA679C98EBAAAD79FEBC98DAEDC9998AA99ADD9FDD9B8E7989AB9AC8767BB5889C7
col31:   E9A4CBDBC7CCC898A6B5DC98DCC96B7CCBACBCACAABE8CCAC79BEBDE5C99FA66877C6B9A67676981
col32:   8BBB77C8CC89DB799878FBCCE88EA9DD99C9EAFBD76BA7BBBDBDAC899E7BB87A6969579A74A6A644
col33:   DBABA9839C897F89CCD8A789FECDDEDDEAECDBBDDBEABEB6AEBB95CD9BDBAFCADBD62A59857679AD
col34:   3559A89ACB8ACBAAFEC9EACEB97C7CBDBEDC9EE9CC9999D7CBCFFBC6A8DCD8969B9BA8ED869336CA
col35:   BAF69BBBAD8ADC9D8988BBEDDABACC8DFDEDC9DCA99CDCB7C9CBC99BDBDA9A8B7B86AB86977A7928
col36:   38B55A879A9A68ACDCEDDA9A8CBCAABCDD7FFA88DCABE8D65ACADBDA7AC59CEAC79DAA7BA48D9996
col37:   ABB9B87BDD9BBAF8DFC8CDDEACCBA7BEAA8BDEBEFA9C6DCAB7AD9ABCC6A69B8BA65FA7ADAD846692
col38:   38559A8A9BD99BD6CB98B7BD98E8DB99DC7CDDBBECB9CAA7CAAAA879DBDAEC5A8ACCDABA4779C934
col39:   96CA7EEB8CB8CDAF9DBEBCF8DEC5B98BAF9DD9FDCBAEBCFEB88BACC6BCB8AB9D99948BA79A788AB9
col40:   A9D9AAFC9DEC77EE99DB99CEEDAA9ABA9BCCCCECDECFF9CAFABACC6BFE9DAAFBB97BC996A99BC8AA
col41:   ADBA6AACABB8A9AF9EB7CDD9CAABC9CEDDFBBBAABE9EF9CAACBCACAE7B8D7CAAB8ACB79DB9866A77
col42:   A8986C98BBB6ADBB8ECD8EBFBAAADE7ADABAABDD8D9BFBC8FDEBCEF9BAA8AB96EC9DCD7CCB7A1898
col43:   8CCCE8DAB8BDABCB698BAD9DD9CABDADBFAF9AAEEBBCFDC5CD9C99B897C77A659C89B688CACB8776
col44:   CCBDE8AD766B9C9BCAA79AB9CC7CFBEBADABCCEADD5BBAFB9CA9FD7ADECAD9B87D78A97CAB6A6676
col45:   CC97DFB8A7DCA7FEECCDE9DBA9CD6FDECDACDBCCFBBDFAADACFCCAABCBDACD9EEBD7A548929B85A5
col46:   AA7AC99A9A9CD987B7B9FCB99ACBABAA6B8E97D6FADCDCB99BDEB9CE7CC899B8FE99CA68B3898AB7
col47:   9A9CA88D99C978B9CCEF9B7DEA9FACCDBB9A9AAEBDAADDA9DFFAD9CD8CC8F7B7F99AA6A8D59668F4
col48:   6BAB986A8DCC898789ACDABECABCB6F9BDDCEAFDBB8EAF9ECFB99AE9ABA8BAA5DDB79B918BAC7CB7
col49:   ACC58AC8DCC9BADCBFDDAB9B9BA3ABECAC87DACCBBDACBCEDA3BA5687C8CFAE98E9C878998779F96
col50:   B898DB86A8BCCBBA79BF89D8AACD9C9EA9D7FD89BD8D8CFECBB9DB9CAD9B9EABF87C88BBCAC7E6CA
col51:   665969A3747AD5A988B9BACB6CBC97C8A24AA9799A77C67C6775A7B8FDF9CB7EAC97775899957A78
ROC:     BPix_BmI_SEC6_LYR3_LDR15F_MOD4_ROC13
col00:   68566297B9B4136874599966B96C4BD6443883957A86746A9B7A78269DCA5665743723B311461662
col01:   94C5C77977A7AA877C69A6BAAB8AA687EACC96D9BE96ABC9A6A87A9A8C348689B89854A772842923
col02:   578A949B7AA542B6878DBB4897AA75A7B78A9D68893BBC8A8A76BD8A4B58BA8788367A77454672A4
col03:   7A9A8B9AD8A679A9CC659B9A6D6997C69A884996CBBDBBD8797D987667587A9878656476B7876667
col04:   873E979A84A81A67AB9D489BA85C758EBDAAC6B768FD786C9C996BC78648845A6578586768A3A733
col05:   2B76853CDB8794B8E579BA98859BB6A5B96B8BAADA2599AB9858A96877B86558865A548663177A33
col06:   7658997BAA8979A9978ACBE976BBCA7D6B46AC7CBAB9A9F8C2869B889CBB84656A563C1776574643
col07:   8697688D17CC4D9E6A884D9EC559F788BADC6A989FAA9D893D877BA487AA9FA66A97AA76565A5764
col08:   487A837A68B19845A759B9957C7AE2888CA8E99C7AAB9C76B75786665883A445838965652A665551
col09:   7769777665E8CC86AA9898C6BBA69A8CDCA68ABCECDCB6C94C8AA7488B6998797C88B98675595597
col10:   36557877F645689BA957B699F879ABACBDB975585CADCB86579ACBC7C8858B898499163985555879
col11:   8B7A778B7D6AD7AB76977799C6CBCA9AA9CAA99964B87A7DB39596553AB9A96951B6B484B7791A73
col12:   86B4467E66A776BB997A755A17775FB9C6A98998AA7978A9998878AABE748965B7785694828E7553
col13:   64AB63A76685AB6A55BDA8B9BA7A969C895779899B596D7DAB849B6B968B8CA775957977449525A1
col14:   998795A54A9C79959A6C77D448C878AA66734BE8D9ADD6999999D9B3C869466768586A5625673696
col15:   B4B94ADA58A87B89F79B98788C8BBDBBBCF7B89B798AAEA8569789B7B47B7D5497999B53737346A3
col16:   79AB6295985A8AA95A6A5ADADA6987886B99688B8BD69CAAF5A95565256618778D36956667876538
col17:   34B58727998A89DA9A9998AC6A8CDB9877AA6EBCA7D876FC86A6396C667697B55418276769434B43
col18:   D4756D959494B5BA7C79AC6C7575E9A9DA799DB767A978696BC8794A669B6B5B4755A97665283658
col19:   39796C7D86C95A576CAA8BA59BD6B967CAD1A82B997A87689A7B78877C758638976A9955676A8448
col20:   9B75AB677877C764A79AD8ABE896A3C7999A69DBB6668CC3B997B9A8A777855A74965A3786334646
col21:   67777B9899C77999B56AA359CD47E89CB6B97A98B998858B5AC664B7BBDDA79CB559768BA6554C62
col22:   66789BAB679898A3C6BDB8A6D39B69CB8776ACBAAB987B9A97B6816A87378946985B822574664464
col23:   887CC496898847AA5EDAAA73B8BC988999E4A556C9A5988D84A894986B2966A58574845557775546
col24:   D86986788B96579E766785679C63988EA978B8956D8AA86C97766527778B89565AAA778367133422
col25:   7A51C679A84A8C8DAB887CB97CC87F87ED8AA56C988BD599A8AA7A6CC9885D6467C8976886547659
col26:   687B867B99BAB6969C89CBBB74A8FBAAFBBBCDBB8CA7E9ADAB96577497B9C57ADA8A9B676A856A81
col27:   6B697DB959CBCEA7D595B8C8F59A9A7EBCCD98AD8B696BFCB6B98BABAC9CCFB8A8967888D7579656
col28:   4C4A6FAB79488B5C99C5A9A69A8C9D7AABEDDA9B9CB98C8B8CA89957CFABAA98B6767B44767A9457
col29:   A37696ABA6AE74C6D88CC9AB9965ABED8BAAA9AEC9995E5ABA5B9989E9DCC8A5D2BC577AB7919565
col30:   865DA6778D978B8E9AD5ACF7B76C8998DADBC93FA77877AD7C8599B6C7ABBAAA866CAB5189752158
col31:   B9CB6A39D9B79AFA7CBBADD7B56ADEC7ACF8DC6CCBDAD97998AA9B8BD9DA76E6A388776AAB866A9A
col32:   677489B9CAB48B99B988BC9EE97A7EFAFAFDCDBC8577BAACD6DCC7AB8B4CCA5998967861A4BCA276
col33:   8BF598C998E79C9DFA8A88DBBB9BCA9DEBCBDFCAF9AD7FBB9ACD86678C9896AB57CBCA7ECA8AA823
col34:   87D9C9BBA8CBDCACBCBBA9DADCAA7D8AB6CE6ABD7A6AB898BBBBCB69CABB97B9F87D57948BC6C817
col35:   B9789CCC87758FDB79A9C8B5D8C99CE87C96AA38C7D8D7BFBE94E7C55AA63A8C57997A9846788776
col36:   6CA9DB7873C7749869BF8ACCE9C9A6CBAADB979AA9C9D589EDC89968978E7BAA9AFBBCD99A67C596
col37:   C977797E7BE6BDC9C9CBC7AC9CABA8FDE8FCCADBA9BFABDCAE89CE897D758AA9FDA772A586C6D893
col38:   EB9958EDAAB88CAADB9BCC98CCCCFDEDAADC6FCBCB7B9CDCC9BB7B7AB5EBBA998C79EA8BA8475DA8
col39:   97AD8BACA8CDC982FD9C7BCFEBAA5CCCB9C9ABEFEDAA897C989CA9CFEBAE9BBCAA6A89AB8965B874
col40:   45A69ACC5D9B5BECDB3A996E99AABEB9989ADC75BA7D9789DDCCA9BEF9FDE9A793AA5D58AB898A75
col41:   5E9EABC5A8ABB68A66ABD979FAC9ECFBBABFDB8BDFD6BCC7CB8CD59A8BFA987EBA88859AA99899C3
col42:   77667AAA9ACAB66E6BA797C9BFB6C9AC9AB88DEBBA4DBAA49CD7EAD968DC8F7A95695B68E5587665
col43:   AB9A7ABAC89DB9DB98DDC7AAEFFEDABABAAAA8CBDE7BD98BFCABCCB875FDAFBED97AACBA687A9995
col44:   D5A6AAC98868F7EEC9ACA7BC9BBBDAEB9BA9A8C9B87C79CCAEEA697CA99A99D99597AC77999A7BB7
col45:   CBA89A7B99EBCDA8C64ABFAFBBF7FCCCA9EDBBE7CA8BB9DDBDC9ACB8ADBADDABCD3CD79799B7A995
col46:   6C99A8BB98BB7B98E798DCA3A948EAA998A9F47EA98C39C7ACACA9DAF9ABBA7784A7A679A5795788
col47:   B97887ACE999CBCA9ABAE9FDEE8DDBABCAB9D9B79DBF8CCB7ECEB889B7EE7D98BD9BC597AAA2B6B8
col48:   BA87A96EA8CA98685BA9DBBA9FB8BB9DC859FBDDA8FB7A5AF58ACC8AD96A8798D889C6589629BA86
col49:   D999A8BED98A8BDB9ABCCCABBBCD69CC9ADADD9EC7E89BABCBFB99BABBBCB8BC8BBC769576777889
col50:   BA96A58C8BD7AF5D8AABADBB79CB35DEBBACD899B5AADBABADC54AB7DCBC9BD879A69988AAA84842
col51:   947A996637BA7A79A94867C8D9C68AA99792BBB894A9BB8FF8C9B738AB8553A8B82A674A46256674
ROC:     BPix_BmI_SEC6_LYR3_LDR15F_MOD4_ROC14
col00:   932776464A8858577A2A88D984DAB963A8468257F5AA938969A84458DC785B9ACA69A739665669AC
col01:   797564A75679C6857895C87B865BB8AB76C9988DB8DD9C9DB898CCA9C9AD685589EB75759AA9B9A3
col02:   25AA69796A869895699B9CB78A7A8554595A9B9AC96CA8C9578D8885B997AC999BA977A98AAC8875
col03:   7427BA98787588CBC786899BC49BD9D7A6B6A8989DEDB6A9BBF5ABB8DAA9C6A6DC99A79649AC8998
col04:   9377648896858968876C97A7927D9A967973CAD786B9B8ACE8788DB8A988E8BB879A956825669773
col05:   35579884AC3BA9A558DA998578CAB7AB9798FEC38A776B962DC868DA998C9A899C639C89A9595399
col06:   987458528254798CC9BB7A9DBA58CDBBAA8BBCAB88BBC899B8A86B87777AD8689EC87686667846D8
col07:   2736A67743A684875A69AAD89B6A578DCAAB9797BAA9B67AC88A9E7D676AA769A998877949ABFA97
col08:   57739A6668AC6679997C7867B79C6ABC95E78798C435CB5A76865468996966C787B9A8796CB786BA
col09:   5624A7799764A5A7A7B866974CD68D86CCAA78A7BABA7A9CA8DA9ADAE8BA6ADB76867799B9B6B659
col10:   68599677836B977F678678AB1BB5AAB58CAAA75A8CA8886AB98ACB7B356D6647A48B897AA6AA9A85
col11:   661D58529A4795965B97928969771698979F7ABC766A7585A8386CB59969934AB9AC75798986734B
col12:   3335698146B9C5658648958879C979A7AC8D7576AB9B88717A6C8A9678BA97597CA9A59A388D65A6
col13:   A658735A7766C75BA4AA65A8688A897DCA9BB6888677CC79677D66998A6797977578EDA865947887
col14:   63756119A5BA57655A5A6998B4CA57A878A9C99A897A86898D67799AAA5AAA89964A5DA876647A89
col15:   85725637A77789D978877AC8A97599A8A8598B7CCA9B5B8A88977888899A9467566A7BAA593C85AA
col16:   8863C647654775473F3D568C83544D879AEAA687B6DCBBB997A689B79979C9A657967A5756573A6A
col17:   89381289B4637352737693E539778C8DC6C36A4A4A96797A7BA7DA58679564A67958998669847665
col18:   26547B88484AA1A632FB6853A689785665659C7BA4B5C8B777B7689A65A795996A67ADA686793684
col19:   59978464B66854E688B36AA74BAC5A9A651FBE7A78BAC9D97943D8676967D84B499A98967A56A783
col20:   89349687623A5756848AA884A68AC89A9635A4A68C864976F26A896B8876974496916A241A147614
col21:   939347A7469CA3868584697A8B96BBA7A89588889C6457ABAAB558658977B777C87A5758AA4668B3
col22:   7664978967A82855897485A8674B7C89E6B7A6BD6C279A868867875677697338286687846873C689
col23:   645957477898878A764C789468AAA67C699753DB68C8F4578AA888A688795B9685754876787A5781
col24:   446559147E1834A778A7A37866669637AA7A86987B87779973BAB788676776568886653759A57973
col25:   779764598665654876BA4726699D8BA8C998B9477B7996767BB8BCA997A66B94BB5BA97769689956
col26:   2A7A5D9A5C57736AADD793A77CDCBBAF68AA6F777898A8AD58987957C5676973549964686747A369
col27:   96689789574A8958C9CB9C767A95B9CB97C8A88569AAA88BAB85C4BAAC5998A878785667B6797989
col28:   969537C6D557967645997CA79AEBA6AB7BAA98ABC98AD9AAE7BA5B5BF7C4A794888A5989948A7966
col29:   89954679A6A95ABCAFA7ABAAC4DA89BBF36A679C7B79ABBCE774B589AA82879C54BBA9A95A88BA79
col30:   6728799463C8897B7496B9B989A7AEBB97968A6AB5AAAECBA8B88ADC39896C9A4A7B8BA79665AB7B
col31:   7A7A46BBA89A86747791ABC8F9CCB88CD98BCB5AABCB7C3A7A88E6ACB76AD98A9875E87A595A9B85
col32:   8586799A319756A6A66988B8C959993B73ECBE9AA9B9676888893999979A69A6769B78E977DAA645
col33:   C9BA6789AC5739663D6FB9AC8A5DABBABDCBCA99B9AABCAFB7AA8CBCFC64A7CE57987C64A9994AAC
col34:   4D781C554AA482986A8679B897BB8B6799C7AB887A9CD8C7AAB49A87798AB687959CACAA9C9BAA6B
col35:   6A77989CB8A8A998B876B88DAECAABC9CCAB75BABDCD9B6DCCF58DA98F9B9CDB4657F6CC58587786
col36:   6688B3A8589796997A3BA76669B569A599F7698B6AF98988B87AD42BE9AFC688AA59A9C59678C849
col37:   A15779ACE97977567C89ABBA8C776F989874B9A8C8DF9CB888B8976A8459A5B8BAC7D57677A879C6
col38:   794686158781A88AAED957ADD8AC97E7DCD9B9AF7CD587BEEDADB6A98A99FD8662A7A99BB9BA9862
col39:   8AA56599A986A7BB897EB9BCCA8DC89FAAA897BBCA7BDBA56BBADE9888B3FA86889FB78C9B569C58
col40:   7997A5A77C8AC857D86FCA69D8C996C7CBCCCAC8CB9496DDA768AAAC88BA3AAA8A9B56AC7957657A
col41:   56A559C9BC686CB9976CDA7BBBE8FD9867B7AEC5D9A7CEC9BAA8C78AA97C7AEAB9AAA9BAA3B7BCA8
col42:   7AB888BB89956988959794994899AA799DA7FAA8B699ABBACA5BD98A9894A9857AC89955D7C8BB85
col43:   686B7769CAB48AE7784CDEB6C978E7BBACCCB7C6A5B7979CA9B9A9DBABA458D7AFBA56C59D979988
col44:   8576858C57787457E878AA97DB7C7D899DCBB95BAA95AAA8B7A7AC8886A58C58747766A6AAA39775
col45:   DC768988BCB95E8C989FA7989B9CCFC5A8E6CAC88AAAAC699987DBA899F8A8665574D988CBC37BAA
col46:   7688489AE99AA157FABC9B7AB9B9BB87A8C89B8B68A9A59AADA674A788689BB68C549159A67B588A
col47:   667ABBB4AA7B6E877BCCD9BAEBB9ABA9B937939D98AA9CDBCCA9C87AB987585A6779B9B7F8697A68
col48:   4DAA7765C76BC9A8AED9BAB793B6988B536998D8CA677C68928A9A873DCB787896AC8BC4AA29A558
col49:   7B99777C8A86C89AA7A87CB875B79A898D89C8BBCA686E6897A96F4A9A993BB51BB98D8D7898CB55
col50:   889B9A9598B48B79976A57A799CB888B99BBDB69C6C658B67CAB5CA6EC8ACAF7869737E239546CA4
col51:   6274B6548437667888C51875B75578A57898B277A3679779A7554859A7A5877265C1369548698486
ROC:     BPix_BmI_SEC6_LYR3_LDR15F_MOD4_ROC15
col00:   7581747734757288595668555A7196A58545387664637757954862616967373364254436B6674765
col01:   576A58673586879D8884C88974836789964486378887456885667566554787573466468879744688
col02:   66457747585482526886A8A788885577976699587886A8767586A35589776469855877954B555958
col03:   37A55948364476A8737759387D874699954885967695457552578497799865648695714B55462434
col04:   6938368AA2657683655AA566767989C7775C89848577639788464988678888759567687883858656
col05:   875487284A9A88767668A97866A7889961949794269765778B6A8A7A869777687916546767675448
col06:   7586659A667A838797B7775677A6A56AC58767868667668757855787776746968415343573456748
col07:   45A766B34377686AA68A957844A89896A2798677796A77878B896566585579766739984797542699
col08:   6627476575277874B6797989B995769C668686866977476AA8856834A38994974857964655768826
col09:   4699A4997A8964697796699AA6688877A8AAC8A3A8A88A8978787669A8A569868996387757975755
col10:   75B7866668874969957699A557CA759659B66788895776AA7B85579688A776A72878885864668674
col11:   87577678667977957586ABB69A7966A976585C876959D6685A48B7994B6A6A68558AA556A8676372
col12:   35667896988397C6A5B67A69BA8B679B865897878A88868888985959B6679A7968A4444774656355
col13:   65679666A75897B997997B597569A5ABB9A9779A999876B7BA969775B88C857A52A9776699652483
col14:   986A778A88A9956A68C7A6985A4989AB9A89A8CA758885A9866986AA78759A577876669757634666
col15:   489588886892737879968986796D75A8847989589883A989467999948B48C5A9A6898A6469766788
col16:   A69878C9AA879A8657859B95A774B79755A79968A9AB8AAAA6799898655546888865587887548768
col17:   7199589A9699796AB56C65A668B9A87A9B777AC966558BA9888477B8879A9A999667587767758467
col18:   46675A898787867577747DC4A77AB9C98A7B979876A98A8B9887BC9A6787858787869847A6248472
col19:   69858A8865A7675797979889A9A8BB8A88C9AA86A7B977BBC8689AAB5979867B7697D5AD85789698
col20:   9C667976B7A9694688A6896CB915A6DACAA8866779699AA9B69A99CB8559A7588879656988A676AA
col21:   68777B8A9985BAB588D76B65C8A8C5A9B999C99698A9899668798787AA8AB9A57974D65688887447
col22:   8ADA76A79999A7866A9A88895A999BA768ABB89BB8679AA9A6BA76979AC96A9779789679C4658795
col23:   9579A89A877A88A9A7A88A6878AC8B9897A9985977B6B99CA799B96787A9A89A675694A4889736A8
col24:   989A9DDBA58997AB59BA8856A6BAB98979AAC489A7AA6A4A8B8B98AA898898B6A76999966526686B
col25:   A4799B7B6B9BA9F98BAA9BC5A86798A98A8D8C8879AAAE7A97AA9AACA97BBA8BA9B5A6B879666AA7
col26:   77C98C57AB7868ABCDAB898999DB98BBDAAECAED9AA87A7BDA9C6A9C98BB9988987A849AAB9AB89A
col27:   77AA7BA8CABA9B99AA7C9B778A999CBCCDA669AAA98D89899A9B99979CBA7A6C858AAA9AA96899C9
col28:   B97BBA9C9CCBEC8CA98AAAABCCBB99AA9BB8BBCA8C9CCA78B6BEA9DCBB67AD579C7BAB8989BAA9B7
col29:   BBA78DC8B8AB8DACECBAABCAA5A9BDA7BAAABACAB8AD9ACDCBBAA5A7A9A8999B8ABBD58DA49AB878
col30:   B99C9AABAB6BEAA8DACA88A9CBCAABBCA59ABCAAC7BD9DD98A999C8DB9DACDBA9ABA7AB7B8AE98B9
col31:   B7AAABBCC7BEDC9DAC8C9DAA9DB8EBCCA9BDAFBDC9DEAEB9C9DB9B987AB9DA8BAADABCBEAA8BBB99
col32:   BCABCBAAB9C6C5DBA9CBCAD9CDCCDBDBA9CC8ADABDDBCBBBDCCBDBCBB8CCC9CB7B7BBAABCADBBBBC
col33:   B9CE9ADB9DBB9BBB9BADAACDCAA8BF9ACCDCB9AC9A8CA99A8ACDACABBADD9BC69CACBBCCCB97A7AB
col34:   AB9BDCACB8ECABAB9ACCE9BBEEFDDA9CBABCCDBCDFAA89CC8DDD8BBCCBCCACCABC99BBABA9A969B9
col35:   CB98F7BBCF9B8CBD9AAC9BBC99BCDABCAFCBC9ABD97BB8BEBCCACA9BCDFCC8B9ADAABB9C77CA7CB8
col36:   9DA9D8C89C9C9CCA8DBAABDABBCBFDEA9DBABEBAAB8FBDBB9ED9A7FACDEA6BACCABAB87A9CA9785A
col37:   8AA9C8BACBBEDCDFD9CBACCDAAB7ECDAEECEF9EBBAECBCEEBCBEBCEC7EACE8AABE8BAEACBCEBB9DB
col38:   88BAB89BEA6CD9AD8ECBD9DCADCBCCECDDDAEABFBCDBDD8BBCCDDCBDDCC8DBBBDEDDD9EDDB9DC8AA
col39:   995A8AAEC98D9CBEA8DB6CECBDCC8D9BEBC999EADBCCBCCBAA8ACADACBCAD9A9ADD9EBDAD79ABADB
col40:   BC98E9ECCA8E9CBDAADCCBCDC9CABDEACDCA9BCFCCBAE9D9D8CD9CAAA95ABECDACACDAADAABADBEC
col41:   AAAAABE88BEBBAD9DADBB9C8CDDBACBDCDB9FCC6CBCDCFACEADDCACC9DDBDCDEADDABCA8AAACC9CC
col42:   BBBCBBADAAC9C9AA9DC9CDCBDCBCEBBBE7ADABDCDBDBA9EBCCDDEEFB9DBDDCAE99CA867EC999BBA8
col43:   CCA8BCBB9CAAB8AB9BDAAFBFADBDEDFBDDDBCAFCBBFECEEECCBEEDCEDABBCAFBBCDABDDBDBF6CDCE
col44:   BD9ADAABBDBCD7CDCCA8DB9AADEDACAABBCCEBEBCADEEBBEBCD7B8BFBACA9ABCE8DDACAECCDE8DDC
col45:   BADDCB8A9DBA9D99DDE9C9AB7BFD9D8A9BBDDACCC9BCCFB9ABDAABADF9A9ABDDCBDCBDBCABB6ABC8
col46:   CABABC9BAFCCBBD9DDBBBDDDCECABCC8BB9EB9DEBCE8FBEDCBDCBAAECCD9DCBBACCEDCBAD9B8DB99
col47:   ABAA8BCBCDBBCBBEAACB9BCBADEECDDCAFDEEEDDFDBFBAAECBAABAECDADDBEC9AACBCBE7BBCAFBBB
col48:   BBEACB98ADC97F8CDBCABACAD8ABBACBECB7CAEBBFCCDDCCDDB9DDDBBFBDACFCACBCBBDBADBBB7B7
col49:   A8AA97CACBABECDCBBDECDDDBAACCCBFCDBFBCB9DDEEFBBAC8DDBFADBBCDE9C8FCD9C6ABADBACCAB
col50:   9A99EBADBBCBCCADC9ABDCC9EBCCEDCFABDCDDDCEDECCCDF9DCCDDBCADCB87BBCCCBECDCAFCBCBED
col51:   94BBB7CA98A7B9B9A9AABCBAC98A9AA9DCACBCBCACDC8AAAFCC9DCACDCB8DDCADA8BB99ABA6BB8BC
