ROC:     BPix_BpO_SEC4_LYR4_LDR16F_MOD3_ROC0
col00:   996A22A87B95556C9485767E6BD7A6998787B6D9C9B785A9EA7C8777CFA699B88B8C85A8A787C877
col01:   A87C36995878979B769BA6CD89C58B89CAA6B7D78BCFB87A98B9B9A785DACAD8A6CB78B976B999D9
col02:   8B75768A848187A749BBA9E6C7ABF998C68AA88BBAC8A7B7BB99B88DAA36948A5B8C78BA889BB678
col03:   779589689AB9B569899CACEA6ACF98C88BD88B7CC9C9BEC789BE9999C9CCA78ABBABC8498B6B998B
col04:   8BC7AACB7A766958B65886F7ABC99D9B9E5BAE87BB9A79989BDCBB9E5B8DCAA99AEA9C85CB5CCBBB
col05:   C98759B678797B6E9AB8D97866A88AAAA6BBBA88B7B88CCA8CA69BC88B9AB586A7A988D6B8B4A86A
col06:   A76668879878988B6889A8938DB988CEAA9EEABF6CAABBDAEAE7BDBB9C99BA97B872B575A76B8B79
col07:   998A987998988C9BA9AF8B94BB8B87DCAABAA88B7B8BE969999AD89AABA9C8997DD995BCBC778847
col08:   77B9BB1C688A97D8CC98A846DB7CDDD9EB89A9D7DE677FC7875AB78A999D8659DAAC585BB97C4AA9
col09:   ABA4C697B7D8A54699D979BCA675FDC7AACEE9B4EAA6D85AA8BAAAA8869BB8ACCDF9C8DAA8B979CC
col10:   836857858B5C866E7A886B9C9AB98CBB76DD8B6CACDBA8A7AE5A98AC8F9997CD976AE977C6698699
col11:   48565BA88C77378979B9C9A4BC7767D9E8A98BC9BA78B9898C98D99B669966A57C8B8A9688BB3966
col12:   C4A8A88C8F67B3884C4D9AAEBB5BACB6F8AA947899BE88B97B7B9A7A5BDC4C77997BCB9B857CC7BB
col13:   A769A9996C88279B89D8B5ABA989CCA9C9BBD5D7AAD9A88C7BC98BB8994CB4C5CEC6CAC9C697CC77
col14:   43E8459A66A7986AB887688C86998B8ECA9BD8B8B89AFBBC977ACB999ABC79A9CCBBBBA76BB7B1C8
col15:   7838B897567698A6B8B7898A9989C39D8C98BBC9B3EAFA6B9EA9B9ABA889FD5BBB636CB7C5B559BC
col16:   A59526A872B6BD549A8B8B76AB8A67A498A9BB8AAADB658AAB8B87986BBC6879A875AA39499CA995
col17:   395366A5F5AA9986C399D9C9CAAC99B9BCB8F97BBA6A87C7BCAB7996E48A59CB668998BAB5786966
col18:   6584599A6ACB964A798F87876884698B9658B88B579DCA98A98C8695984B999C587989CB365665AA
col19:   9725AA6A99B44898BA78E4B87B997CBA94A79DAB9ABB9ACB99DD77B94B6AAA88C8ABA8AA7AA78A85
col20:   5748671845957AB8AA877B3AA8FB7A7EB77999CD88AA97997A79588C48B8A78AA79AAB9847B89763
col21:   66679A984B7C6B865AB878A89B8BC59799E7A9E7C877C95499F9BBB99A8889E7D7DA9C667A7ABEBC
col22:   89467992375A5B8848A8998D896CA977779A97EC9ABBA7CAA4A66D797CADC79C799779979595A86D
col23:   3785A45697866545D9848B56CB888B9ADCBCAFD6A6B9B6CAD689C78A7A9998A98A989B8DB6777827
col24:   97D38C56AC7C4878A8A8BCC97C77B7897EF9A88A797797C5597A5CCAC89AF9AA88A667A8A7969B77
col25:   66757749AB67B997B8999889E8B6BB747B7A8D9988989BDFBC9BAB8ABFA8B878A599B6A79A95A969
col26:   8977AA98A7896C7B8B78AACAFF6F7F6EFA79C8AB9DD88DBAB9FD58A8CCADCE8C8ABCB98A6B7A777C
col27:   B9368CB7AECDB58C78F999CA89B69C9BAC9ACBAC9D8A67D7FBC4DCADACAB95C87AB7CBAD88BD9797
col28:   8D4AB55A787E79BBAB9CDCACCBEBD9BCB8CA8EDDD766A8AB99B999BBBC79CABABB68BC7A8A8C8C68
col29:   7867B79D5B6AB579AEA9E888BD99898CADB898BCACEF9AC8BBB9CBF594CA9A78A99C9BC98989C4B8
col30:   7987DBB768A95D995DAA7888D9DAD889D9BD78AC88ABACAA7E8948BE6BAEA9CA5C77799CB767D88C
col31:   3DF7C88DA9C978979689B96A8BB8BBD6AEDABCC4B9BDB8BCA9CACA7A7B6CE8B99CADBAAC9BBC7DC9
col32:   78F9B968998AB76DABCCA9CAA888BCCA9EE9BB89AB998B97DA9D855F598CEA8A9AA9EE8D7CAB55A9
col33:   9BA956CACDACD8B9EC9B789B7D9FD6B9F89A8BBCBABBB9878DCF88BB99BDBF98DB7E9BBBA688ABC9
col34:   897999BB69A999BA8A65C8AACABDC7A9B9F8CAA9D5BBEC7BEDBF9B99EB8B99BD989C9AAACB9787DF
col35:   7A87CAA6A47B7979A7DACB5DEA8AC8A6C9C9E88BDB77ADB7D9B8BE98FD4A9BAD8DCADBAA7DACA8AA
col36:   8BBDBAF8CBA5AA8AAA97C89AC97C99ACCCBB8BDE964A8A8BCAFCABBEAEBBAA9CCBB9F9AAADBD76BC
col37:   37B948B995B8ABB98ACA9A9FDEAC6CFA8BCA9FBD99FBDCDBFBDAEB9BAB99A98ACAA6C99CBA5EFBB9
col38:   968ACAA9A9746D85ACA8A5AC88CCCA99BFB99ECCCCEAD9AABABAC9CE99BD9EDE88BA86CD7A89DB89
col39:   9A8DDA57CA6E889A599CBA97BCDDAAAFACBADC9DCDB7DBBA3DCC9A99A8CBCDCAAA796CAA9DB998BB
col40:   CAC8879CF8A49687FAE6788FCBDCDCCCCEFECDB88CB9789CE9E5AA9BACDB99FC7A8BC8C2AB8B9BBC
col41:   8B9988DB69BA7DCDBCAD8BC97CAAAFADEABFBFAAEDA98D98E8998C87ACB7BEC7BD8BFC99D7EBAA8D
col42:   8988B8889BA99ECC87BCAA99CCA9EE9DF798A78B9B97DC98C9788ACEBBD99D9A7E75A65D9B98AE99
col43:   C98A8858B9C2E97ABFAABC7CDBB9BFB9CAFDA9EDCABCD6789B6EE7AA5CADDD97EB6BA8CECAC767CC
col44:   96ABAA8FBAB8A98ABBCBDBED9CCEEF99DBCCE8BA5AAC859EBC79B4BCB699DAAE8ADDF9F986797AB9
col45:   6997BA7CBACA8B9D98C79B9EABBACDBA5B8CDDDDE6D7C6B9C87DE7A98FBBEDB8B88FB78BD9A6AFA8
col46:   AB5A7867BEBFF5197BEAD8CECBB8DEACBCEAB79FA9AACACBC8CD7ACB97BAC9B899E74B99A9BA9ADB
col47:   99ABB99CC949AC6CABB7ACAFAACCB5BAB9BFAD9CD89DDBC798A9CABBEABCCF8EB6AEA99BDC9AAC5A
col48:   7968ABA8CA84679CCAADFC79BB7ABAF9B57CFAAA8E9BD9BBACA6CC8A7AC9E76B89B7E9ABABAFBDAC
col49:   8AA9D8C98965A9654BF58A7BBAA9AC7C9946B7DA7BD799999769CA46B65CC758C9BBAC88849B8BB6
col50:   6BA98B7DC6847C8AA99CBBA99BDFCC98CDEBB69CD7AAABD9C87BBAB9ACF988B989A889DBCF8988AC
col51:   7838D9CABB7678C3497A199498AB66BC7BB9F96E6B77CA5B5984ABB5A699857968769A8B5997599B
ROC:     BPix_BpO_SEC4_LYR4_LDR16F_MOD3_ROC1
col00:   75468155AA568797893BB8984D86AA74A5897A38F6A5A797447AC7897887693A7A81AD5888B67B88
col01:   966886B7BB7DA98A8CABAB99E4A7FEA8EEA7A7C5878DAAA86BA5AA7B7B9AA45587E59A9B9A9C958A
col02:   9697875974B77B558AD96AAAA9C669BCA87AA8F89998DA87C8A9996BCF5A9587893B77CD6C688DC6
col03:   27B889C57877A97768AA87A2A656BB9DD7897CEAB7BA8B7889B97EACB9A59998A8CACCE797BAA86B
col04:   A67887D86A8979A757B387575ACDAC7AF974899C799796BAD78F89899E899A279799CB8C9589878A
col05:   9D558A7C986787858E7BABBA9A97CA979BB85ABBDB799986D676665899978A57AAB572E68686B597
col06:   898A575889A866A96D7CA79A9997A97CC6BAC69DBAA9AAB9BB96B6ABE6C96A9989C6A8B9879B69D3
col07:   BC7681CAA9BCA9CB9D66BA7E9DE9DD8BCCC88ABDACC6A9B999985CB96CCBA98B5963B58498ABBD89
col08:   86565A59794C7AAAD973C95678D6ADC98497B8B9788DADD4B9557B4D99BC6787977CBB7A6D768BA4
col09:   AAB8D69A99789628A9AC8999D88AACA985A9EDAFC5AAF5D8E7999A6A88A97879C89DBACB738B8A86
col10:   78677BA494B149788967949B8B86C77CE9D78A86EAAC64CB96BCDC9FDA768B89DA888ACB3C68BCB6
col11:   8779B7677C67969CABD867BE9BDAB7888F99C5B5B8DCECAA88BCCCB6D8A8678AA8D66A89A7C88A9A
col12:   869B2A3357AA7A65987BD8A967D8C7ABA8B8998878AA96AFC798A888CADB6B9376A6AB4669AB5BB9
col13:   779787AC947ABBBCCC797878AA8C9AAA6CC89A979D88C37D8AA8B9CC7CD8EA3876799ABCA7BA5BC7
col14:   89649969956A6B48869CAABB59BB9BCFB8C8DAA5B4CA6BABB9D9AAB9B969FB999B6D7989DC799C64
col15:   B9785353577A89AE8B49BBA5AA685AAB79C89C68CB9CBBC3C1BB7F8A69A986B7685A969E86889974
col16:   8799995A9A7BA8BD6997D79AB97AC9B89D96BDAB88EB9A6AC7678B5AB778AAACB6B889DBB3BDAD89
col17:   68A724E88D97B69ACCA95699AA79CBB99A6C8CC7F8B68B89869BC8977CD99AC499C7BA959649AC88
col18:   334698AA77788D8A95B8996777BBAAA7B86A899EA97ACCE7CA8998ACA7C875B868BC7DE8896C9EC7
col19:   57A56B879B98B767C86AC899A956F9AA589EFB64BCBFAA97AD7B88A8DB69BC8AE4A89B87968C87A6
col20:   5AA6569B7B17887BBABA8A8A676B7E5BCA78CADBBEA9C66B69898BD8836CD6B9A69997CBD6BA9BB8
col21:   797767389C316788669B79AA85A79548D787ADC86B9CAA89989FBCD9455B899B5AAA867BAA7AA787
col22:   848797998987998C89A68699AA8967CAD998998A6ACE55B8B77CC9F8ABABA9BBDBAC8789B7885F93
col23:   77DB966557A7999C6976B98BC688B5C847BCBAC79DBA9EB8C69AD576A9A7ECD974988A8C9896BAB4
col24:   9A888AA9A7A7B576B896B88A98B9AC8A7BA749D8B9A9799D979766DC76EBA9998D8A7B97A79ABABB
col25:   8B776788A5A88BB69C9C679B9BADA978CFBE9898CAEDD99EA6C9EA9D9E9ABBB8BA9AAAAD9A84AA93
col26:   9696B6D8ABC95BCBC96B9A4BDBBBCECDCDBACA9CB88B8BABC9AACCBEBBB86FBBDB8CB9BBD9D99BFC
col27:   A8489A67AA68ACAA77F7994A58CCCC9A59BCA8AA8D9DFCC87DACE8F9CB895EAB8AA7DC9999A95B98
col28:   84675976CAE879C7A9BB69A7D989BCDBACE9CBD99ABA9EBFFD86AB99EDBBCD9CAE8EB889C8BAA9B7
col29:   9D9BF8AC6C9A9979ABCCCBB6BBDE8D9CACAADD9EBE95DAC98C89FBBECABA7798F8CACFA9ABD8BBB9
col30:   9858ACAC85BDA9CAAE7DBFA7BA959BAAADACDBACACFBDD9BF9976CC8899BB7ABBBB7789CA89BADBA
col31:   28C9C6A7DAA8EA9ADCAA777C7BB99ACEFAACAADFBEB8AAA7ABCCCDFEBCDBCC899ADEFBAC9B5E9AE8
col32:   788A9BAD89B7B4BDCE9EBFCABDBEFDDDBCC8BFABB96DDB9B8CF9ABDAE9ECBABAABCAD889B8F5BA86
col33:   698A99C77DFF77CBE8DBCB6CCCDA9BCBDFBD9A99CEEAB89CCB8A9CBABDCBBCCD9CCCD89C75ECEA9B
col34:   75365BDAABC8F8ABA8E97AF7DDEFCDBDAE7A98BCECB8DDBA8BDBBBBBAFBDBDBEAAAB8AB789ABDE8E
col35:   C788848E69B99AA7969CB89DBCCD99FAECBD8DBBFFAAEE9DE97DADA8BEDD8BDFB8A7BEAACD4B9C87
col36:   98D8B9697ED9F7B6BDBF9CDACDBCBDCCCBAFDC9DFD8CC54AA9EB9CE9EABF5EBAD9EAACD9DCAAC8E9
col37:   D75C78AC8CBCCADDAA9CCDCFFC8EBFCB9AECBDEFB9EDEBAA7DACABBDAA9EF76AC99DEDDDBBC7CACC
col38:   99A98C96ACADBD8AECACCB8BAFCE7FEDEEBFECC98BFC9EC9EB8AD8BDACAECCEAA7EC9EFDBBCBBAF9
col39:   A689DE45A9B97BBA9BCB8BAA8C9ECCE8ADADD8C98E8CC9FC86ACB8AABCCA898C6B9BFAB8CA8A928B
col40:   5B787DAD9B8EDCB4C9C8FBFE86FB99DEC9CBCC9CDE989BCA5D8CCDDD6AF98BAB8DBCBAD5E8DD9A97
col41:   98C9D899DDBAEBAEDC9D8FCF8FABACDCEAFCC7D8BC9EDECEDCFEF8DCE99A97BBABA6EBCFDA9FDBE6
col42:   98798A796EAA7E7A6D9BACDDD8CBADAA9AECAAACB7CCBBDA8CCB76DAAFAA8EF7ACDA6BEDBB8B9CBB
col43:   A9A9ACCDCCDFDC8DA9DD9ACCCCFBDBDFED9A7DBEEBCAF7CEDBBACDFBDDDADBADAAF5ACC9DF8CBDAC
col44:   6A869DA9D777BBEBA8C9BFECECDBCFBBCCCBFFABECAAFDDFBBFCBDBFCADDCBDACCCBBF7FBDC8A79A
col45:   ABBC998BE98ABCBCBFDCBB9EDCCC9BABEFDF99A8A9A9BFDB8AAABCFB8EFCECFCDBA9BB8BE9B799A9
col46:   95CBAD9A899AAA9DBBAB9F8EECBCFBFBBCBDB8CCEBACAABBBFCFC7ACCA9ECDCBBDFAC9ADFACC8CBB
col47:   9A5ABEC89D2AA9B9EFACECFBACE8BB9EB6BBAFBA9DAECBFBCECFF7B9EAAD8ECACD8CBD9ADDFEF7DA
col48:   A8C99BC9B948BE596CCEBE7CD7CB8AB9DEEDBAEA9CBCC89EB9F99ED7FBDBAFAAD8EACC8DABF9ACAB
col49:   B8DD799C6B9CAACC9B8CEFB9EBCDBABDECDADCDEBEFEE7AABCD9FDEFBFDDBBCEFCFFFBDF9BFCFBBB
col50:   8C99ACB5B3B8989AB9EDECC8C8CCEFCADABBCFFFCAAFBC99A5CAAFCBAECC7CAFEBBBE9CDF9C7FABC
col51:   A4A75DAA8ABA788699B9DCC9AAB9ABA7D9776ACCA9BC8B7CB989BA7A5A5CBA8D978EBDAB74BA97D7
ROC:     BPix_BpO_SEC4_LYR4_LDR16F_MOD3_ROC2
col00:   89785A87A866C4B7C5B899453989AAA86C686A69D8BA769BBA85BB9997AAC6BBA778A8B68899B8A7
col01:   CC5BC79698998A9E8AD89D78EA898BA87BB76AAA9969D9BE96A9B95EF9BCCADDAACCABD7BBEF9778
col02:   6AC6B5E65545A7B98DDA9A988AAEAAC6CEF8A88789C89AA9A6A89DBC9BA589597DABBE987C9AACA8
col03:   8BA76B9BA7A67897B9BBCB9D8BDA92A5DA6BA9ACBBAABC77BA7F9C95CCCABEF7B8FFADB98988D89C
col04:   9968EA9B7AB8867CCCBA8CDCCC98B5C9B8C8EDA88BA7C8C69AABBADAB8BBB98CA6C6BE96AAAA87DC
col05:   58B8BCB788D6C567AAABD8689997E7E5B8C8E8DB78DA98D9CD3CB87AB899CC8D6C79ABCEB8939A9A
col06:   388A89797A66777B57BCB9778ABBBCDB96A7598B9B9C6CA7FAABCA98C7CBDD9BB9DCACC9AD985BBA
col07:   B92BA967479663B3B977B49FBB9B9A5BCABADC6EAA9F9BA98CBA58F887CA48AF979BAEB97E89C8B9
col08:   55A9797596966D7998898DAC89AB8B684B89DDE4974AAA7BE9C86D6AAAB7B9B798CB699D75699AD8
col09:   844765CC7B8C7CC7BA9AB9C6BA7ADDDA7AEA99CA9A8C8C78AED98AA7DAC9ECBBBBA8C6DEC98866A7
col10:   8663857868496C88A9BB898A8E7AF5BDAAC87CBECC5C9D98ACBDC76375BEE9B9ADD465A97C6AC998
col11:   57A65AA876655A7F77A97C6C9AAB8EBABAB73BD58BDADAB75ED5AAC8EA9C9FA8A9A9BC678BD8478D
col12:   6789B4B9AB6A4B7AA9888DA9A8C6C787BB6DE9AD65AD9A9EAC9B69DF58AF89B98BAAAC7B97DCC7A7
col13:   6657AABB89599A498DBCAAA869B9BB89998FADBFEAC7B98B7CC8BC7EAC8B9DA698ABB85B8976AA64
col14:   68885477D987289B89AAB8A7898CABA6BBB79A6B8E8869BBB9C8B8BB4BB8DA888B65548B8F95B88D
col15:   74467A95BD814869EB99BAA8D99A7CABC9C89989CCD8B8C9CDACAD9BBABAACD77BAADBF6BBCCC786
col16:   463B9C9A8D9AB8A88CCA56989BCAAAB8ACC5BBC8A9C89ADC9ECCA9B9B6ADAB8CD9C64E8DC88CBAC9
col17:   4567A86795667776C878EBA4479CCAB6479B5BCAB9A875969B78858BBA69E9AA9AB79AA89D8CEAA4
col18:   5772459B869AB75CBA886C9AABBB6B93AAFB98996CAA9AC7B8D888D273B7D8AA7BC7AE99BC5A4BCA
col19:   83485BB56AE57C7C8CAE9C86A877ACA8ADEA6696B899B6A74CA9986D9DAE9B97FA4CA8D7C8CA6B66
col20:   28966885B874B9A66569A6C3BEB7C586CCA9AA9BB9F98B9898A9AF7D8C97DED6A38B6B8D55D6C9F9
col21:   953B599385858A8959A8D88CC88ACB9AAB869CB5BCA8B7A6C8BC7BA864B8EB79B9A6AC78B3B9DAC5
col22:   A7537AB6A24ABAC9B6CA97AD9AC7ABBB97CAD98CA7A7AAC688AA68A86CB9EAAACBBA4978A59A9C94
col23:   6498774988897689B398A76586B885AC56D9ADBD99B65CD774C77E79B6B98AC8BA8B857ABAA9BAAB
col24:   876947379A9765788A7B978B8B97AAA84BAABCEBCBB99AD99AAB7BB888B68AADB98D76BACB8AC888
col25:   A3978AD9EEA61A7A8B94799BACAB8B8B8B8D9C968CA88E999867749B8B996C99AA979AB9A8AAC7ED
col26:   5A9BEA7BC9769AACD9BBB8FBF98A9B9ACDC7DEC5DBABBBAF8C9A7BCBAA8C76BADCBCB7B8FAAACBA7
col27:   B9A9C769B999C89C88BBB686CAC7B8497ABDDCABA999DDFBD8CAB9AB9DAA99AABAB8FBEBA99A7CB8
col28:   959863AD8D6AAAAA6A99D8DFCD9BCD97ABAC9CEEBCCE8ADC8895CDCAFECBACB9ADFDA6A799AAF7DD
col29:   A45C75B889B5E88AAAF968BABE78B9CDCAA9AAE8EBBFB9B9BDD9C8CB8FCB9CC9DEB6898AA948A989
col30:   6787B95AD7AB8699A57EC7ECE9B6C87AAB9AFBDCFCE8ADC8BABCDBEDC7DCFEA66FCBCEAC8BA9DC48
col31:   76C968B66DA88AD8EBBABAC9ABC9B9DBC7CBC79B7DACFDC9EDBB999AAF9CAABB88B9C9FAD9BCB7E7
col32:   78A78C7BB4877A7A9A8ACE9AC9AADA6BC8B7CEC95AAA8D7EBBA9C9CA9BDEF9CDC9F8CB999BFBC9BA
col33:   79BB975B8B689BA7ABBDA9BE89CCBDEFAFA8FD989ACBB98CA7A99C9CAABB4BBCC5B89BA7BCF7AA7B
col34:   468795C8BA6C9DD8B6AB9DC8B8CADFAEACCDDCCABDCBD99AFDA9ECDFAE9C84C9D9BC85D9EDDCACBC
col35:   7175DCB6B9ABD78BCABB9B8CACCCCD9BEEEAA7CABADCDDC9CEBFCB9BBA9E7C7BA899FBEBBDDCA962
col36:   96AE979C89AB977AA99ABB988BCA99ACED9AACDAAAEBAC97DD9B3FAFE88AABC9BBDDCCFAAC958FBB
col37:   A49A9CF89B77CACA8A7BAA7CAC7DA7C9BDBE69BCEAF9AFDADCCF76CEF7EBACACB6A6BBD89CBFEAF8
col38:   8A699876B89B7B69AAB9EC9B7CA979DECCAAF7E8A9DCBCB9DACFCC88BCCCCBF8BDCEADFE98765CFB
col39:   B589CAC64BABB9AC88C789BFADDBAC7D787BFAE9CAB9C8FDD7B999ED58BAAFCBFB9AECB9BBBBEFAF
col40:   8778C99BB9AA76C96EBCDEB97CDBBCBEBCB8EC7ACD8CABDBCCA7BABBAB8BCBBBF988CBBADE98BB96
col41:   8677A9A7CACCDBA4C8B7BAE98CDCACAAD9DBDBCEFE78DFC79C8BFDC8BCF7D99CDCDCC9FD9CBE8B94
col42:   95537ACABBDC7CCBDD86AE87B9C6FCC99DAA9CCE9ECC89FA9AF6FA9B9CFE78BDCBCCD6BBAB8897A7
col43:   C87AB675A95A8B7B79CAC6EB8CAC9BBAE9DD9D8DFBFABDCC8EB7CCB98FF9FD5CC79AABB9C98D6EB8
col44:   56B98ADCAC69ACA5C7BCF7C76A8A8B8988A8C9E9BCB9C9DEFC5CD8FC6F9BABB9CC8DFF8EB98FCBA9
col45:   A5BA987F659C9A46899DA9B5A8A9DEC9FDBDBA7BBCBDC5D8A8CD87EC8DABFACBBAADAD7BFDFCAB99
col46:   887AB54B778F8C6DFABCC9CC6A9DADDE8AA9D9D76DCDA9ACFEC6CEDBBBF9AEDBE9DA9B9BCBBAFB9B
col47:   5A8677ADAA9977ADDA9C7698B97C8B9D7A9BF9CC3D8BC9998BCFAB9BDDAEDBC8BE7C8CE87EFBAA8D
col48:   8367D7879799AF599ABBEBEFCE8C7AD498DE8CA58BF8BDA98ADCFAABE7D4CCD98BD87F8C9EC8BDDA
col49:   59676AA79C6DB948ABE9BCCCFCEEB6B6AFD9EBB7EDA2D9CAA8B9BEE7BDC89C8C99C66DCDBACE5FDA
col50:   C6967657BB86A95EAA9AA9DAAA9CCD8DBCBD898C9B8ABCA8B69B7EAFB9D8BCA7BBC68DDA5778BC7A
col51:   93956973745B9C86976E95BC9BB79A9CC27999D987865957ACA8A668DAAB6858B2CAAAB7B6787AA7
ROC:     BPix_BpO_SEC4_LYR4_LDR16F_MOD3_ROC3
col00:   985555864464759265A5A86835969A952779787A475882325684327878746B843699615836177A95
col01:   867875A5776695A795889AAB76729C9C98BC9689B66897A599772449B79A8779A8A69A6AAB8B8877
col02:   66367A898A579889789596969D6778A864B78AB6C6A97795C859878786475A7AAA887988C8685AA9
col03:   64C47BB751C966E98984A468857B69598C9A74B6A37A7A8A6766A7E69A7A73A79A78678BA566C9B7
col04:   6276569878887847986997B88BA6AF7A9B6AE3656A9898558BB8C6A47A97779A77CA5C9A4688786B
col05:   155C3796B6818763D6A7878B66648C5658BB887966A9B77B65A8665673C87897749957AA7868AF94
col06:   666B792852897559B98D8967B8A6A49A638688647755A898A897AA89BB56ADB99A8A8B9753C85588
col07:   429B978A9AA99C9A79678A79A8979AD58BCA88BAA9ED6AA53A6B8769ADB99378E5BAA768E8A874A6
col08:   15369C76558967B5967989ABB58579A8AB89A5B9ACA4A6CC566E6CB477D966A8769A755CA58A57A7
col09:   23384467966578879AAA8A9BAAA6A767A698949B9888669E79B77A9B774A69AA987AC9957CA9AA78
col10:   6A84B678799397779B9ACCB67A758E56AAC6BA9EE84A5A79A7AA97AA9796AAE6C67CC9AC87795AB6
col11:   635166AB76866697735B888AB888AA998BA9B8598AA8A8BC8AA78877A6678ABAA9A78A6779789DA8
col12:   55A7748537669773A47987968797A8876B686658A6A699ABA8A6F7C76F7AC8D9B69D7967A976BA99
col13:   AA4A985A875AA6A57C6B7D7BA67A8BA8A9A9ABF6ABBC7579A84CBBA87A8C86AABCB44755B798AB78
col14:   6797B5399AB9A5A8BCC9A796697796A79B8888BA5798A896978D9976BABBDBA887B9DEBC8CA797A8
col15:   95A4777299976889749AA9979988A8B3A9BD9D99DA797CD788AB6879A9A59CAB9BAA8BB957964585
col16:   B96764978A9487C86578958B79BD89A678866B9BC88A87887B9B9DA97999DB9AB79ACA76A89289E8
col17:   959777AC56866A97A989BBB4899868667A75E6A8679AD57A96B7879589C996C6B9D66869B6D799AC
col18:   8578178A5979C85A994B87BA77D98A9BB8A6C7B6A8797C9B89AC756C36B5B998599A89F977999D8B
col19:   644587477B6799C97D9A6986B9C8B99A86ECBC869A8FA6BB8D77A7A9BA86BAC4CBA89BA9B9899ABA
col20:   A676492778C5889AA9667B96236ABCBA8A7D97867CC8A88995688A6CBEA7B8D9A9976777AA68B9DC
col21:   973559784A68B468A8997A647C99AA9C5A997C99C99CA8A6AA7AE8C949BABAF8CBBAC6798979A79E
col22:   887599B5A6969387889698B988A887B9A94C67B9BBF58996699BAC739BC8CB9ABCAACBAA9797EC46
col23:   658856839A86659568ABABA99696D8D5ADD7EDAB759AAA6C8978BAA78C675CB8C8A968C9A5AA898A
col24:   7578878997BB9779899789BB998A959FB9D775A89CAB9C6D77E9A7BB7A8BA9979B9DA7B9AD858977
col25:   88A9687588B9898B89CD9C5A8A86AAD7C9A9CACB8A9CEA9A8BCAB48FD89BACBAB5ABDBC7BB9C688C
col26:   5493ACBC7B9787A6977C6ABB9A77BED68B88DAC9ACBA89B4AAE9C7B6AAADBD6AA9BABBA68BE8AAB7
col27:   95775787698D9A9AC6AC76A99AAB79BCABBBD89E8C9CCC9E8A8ECC9BBDE69796BCDADECB987A9BC9
col28:   D7B9A7F8B97B95BDAAD7BAB7889BB99BACAABBE7BBCBC96A9BDCAABDFCDC9BD77D8D9BBCBBA9CDAA
col29:   C787B8A6B6EA7A9AAE8B7EBBBAA9CBABBDBCA9BCB98BD9CCEB9CCDCCBDA99AD9BEDCAB9FD9E99CA9
col30:   73799798B84D9387ABB7AAD9CB9EB9CBBDBEACDC9CDABB9C96E8DAAEBBDDCAC9E697B8B9CBAC5BAB
col31:   696AAAAC8BB9BB9867D989F769B8AB87ABBDA8ACA8EAD8BDBCBBECCAAECBDCBEDBABB78CCDFBCBBB
col32:   7AB9A88B84788659C9B9B3ADB67DCEFAD8AAFCADCBCEDACFCF8DC9B7E8BCCCCBB7DFBCC8A89BBB9C
col33:   B9C8E5B86666589A3BEC567ACEAA89DD8A9DAFA7ADBC9CA9AA8C9BCB8ACFFBB9DEB95BDCAACA9996
col34:   78A789B599DA6B99D9AACDD8DBC9AAA8FBBFFD6AFCEB969DBCC9CDACDBBABCABDAABCCCE8CEED9BB
col35:   8E76CC7C99A95B8A9AACAA9ABBBCCADFCCBFF9CCAFAEBCE9D8E9BEECA6EBDBC8B9AAA8C9CACAFFA8
col36:   897A67967CCBAC9B98BA39BA7DDBDA9A9A8AECCAEBE9CCD98F8CBDCCBCFCFAEAAACD9ABB9BBBBAC8
col37:   99939A8DCF87A4BDAC8BD9DABCDFBACD9EE989FCB99BAACDEFDAECDEB9DEDBAA9CDBDE8ADAB7BAAA
col38:   C9896BDABD8B8D96997DDBEDD9CA8CCBDD9EDDDADABCABBFBCABD8EB9BAFAFDBBD9DFB8AFFABABCA
col39:   995A668D8DABC9AD6B8A8EABBED9CC9E9A9BACEEFDDE9BFD999CA99E8ECBE9BCACAAEFCADFC9BBCE
col40:   9ABBC67DAEADB8EBBBA5A9EAF99EACFBD7CEBDEDAAAB9CBCFE9BFFDDBCFDAD9DFABCBFDDAABDBCA8
col41:   A887D6B9B768BA7AA8A9AA8CEAADACBCDDBBBBAD8EBD9DAB99DBDAEDDDAEDADEFBED98BCDBFEBCB9
col42:   A5799975996E66BAAB9BDCBBBFBBDBBBDC7BEADCAA7DBBEDECCAAAEC7FC7CEB9AECBB99B9BEBDDCD
col43:   62ABB6E88AADC999FEC89A84CC8AFDDDEDAEBFDBDDB9EBDEE99FFABCBFFEFFF9DEFDABB8DDCEEBCC
col44:   9B96D8989DDBBA7D8BDCDBEBBB8BBDD9E9ECACADFBECBDE7F8FEFBADAFF9B9ABC7CFB9CCAAEDDDFA
col45:   B48A9889B87D8BA9ABF8A9C99DDDDCDBBFDABABAF99EDAC9EF9BAADCB9DCECA9DAADFAA8CACAFADB
col46:   D55AAB7BCC87ACA9CDEB9DBBCAAFACB5DAA9BBCCBADD9DEEDFCCCDFAECDE8D9EDCAFDADC8DD9F7BA
col47:   79CABD998B988AAACCE8CAAB9CDCECAAEDA9A77CBDBCA98D9FCCDFDB7CDC7FCAE9869BC9CDACDBEA
col48:   679BDDAC8DB98C789DCDBA8AE7FBFB9CDADCC8ABAEEEBCBBBEBCCECDDAEC97CFEA9E8DECECAEBDEA
col49:   C6B7BBB4BBB86BC8C8CBE8B9BBECCDCDABDBADBE8B899CEDEFFEFECBDFACBCBDC9DA9BCC7C9BEEDC
col50:   98A79B9BE9CA9B95BABADBCCFEADDCDBBAB7B9FADBDCAFBABA8B9AC9EAAECBDFF7DBCCB9F87C9DE9
col51:   78659BD78668DBB5A8BA6C77E57DA7B5EA86CBAACA89CBABA9B8CC9EABCF8BA7C896B9CEAABB8CB8
ROC:     BPix_BpO_SEC4_LYR4_LDR16F_MOD3_ROC4
col00:   37413376163149778AB61962686A77398A63AA57A83C68577895B585795A994686B659A4595B587B
col01:   76968659748895455C57A688A99DC788786ACB77C8AB9959CAD9BAD9898F76BCB9C998CFCBD6A884
col02:   75356459737683586788AACB76B9C1BEBCBD77DF4BCB798ABBF9FDBEC9BA8A3CB5989BB8867B9CEA
col03:   755448987AB9658678BC575EB77999BB776ABAA8D69AC479DDA79A9BC88ACA8D9689CBDACBD9DA99
col04:   756735864BA877163787ABA7F9DA7BA67A86B79845B8B9A9BABAF8B9DB6F8A9BB2BCBBAA7C8C7BAC
col05:   439688B96BCC6A489466977D64B7596658B9BB9A97BF86988A7499B97C86AAEA95896E7B6B7B9B86
col06:   A833A73885971779799878D8A99A8D8C469B8CA8AA8679B994B788BAA88C999E9B87BC98D55BB8BB
col07:   1275494485C856C3C459C7B66B7BFCC8EA76B8B7684989D8BBCB8EB99348B79BA8B6EDFA9A9E5667
col08:   427478987975777759788895865976C99489E88AA8A5BAAC7CA97A7BA8BC849898698D99477B8A95
col09:   34524AA999C9879975C48CD997858D99FDCAA7BA6BCFADBA599DB9AD8E9CB766F68ABA89CAEE73AB
col10:   B5144A96487B33928BC488EA98988A9968E9B899E9AAB79CC6BABC9CAA9A99C89759B858998A9A79
col11:   2493457776458BC6A9A8789CBD5BD899AA69EAB68A9C868A99899BAB6B77D89D69BF897BCC67977A
col12:   328A525458758795CA999498A89A76868DB899878BC6987AC86A86FD988BA7B9B96B7A7D96758886
col13:   812A49675B8978548DD93C84D68BB8B988959AA8D59A9876A26B8B78ABB7ADABC6A6CAB6CE85CA96
col14:   744696787376485959869996638AB5C5AA79996ACAC8B9C9DFE79E77B9896A8956BA8C8BACAAF767
col15:   66946344687485A889565AA2DD8977F797897AB79E8AAADDA79C58C7B9AD9B9D9A26BB96BAD688BA
col16:   2829466B7B7176589796B8E3CA68978388979BABA8C99C67EA87B9A95A78C7BABBA967CE7B8989C8
col17:   4658459B96949386784A919EE69A6389BBB9748C9C66A7C95885B9C887C4A7998788CBAC9BB56852
col18:   16855557544696CA47696AB59B9DABC8CCDA98A5B8A85557476BE7AEAE6A79A979751AA4B698779A
col19:   6675557896A88537A39B6997BB989928AD8ADAA9FACA87DAD6BA77949CADBB7E8BFE8A5B9E885DA9
col20:   55567347548554684696D5AA6F9A45C8D2C96A98AC9785C477B77799D99A48D88B796B6D9C4B849A
col21:   2176178983629B89AA8D5A979AC88A78ABB8B85ADBCAECBB7AB98EC6BCE6BA5AB39A7BC85AADAB9C
col22:   5A72739673B456A2B88693889CA6C6C8BB842B9A7886C9B988AD999AC6888BB763F7D89AAD3AACAD
col23:   55A275812475375D75BAC95867898B59A8C8DAA8DC99778427A5BCB95BBC4ADBFC847C6B2A6566A7
col24:   884583378A19647BA85AA9B73CA8A69AAACACA6C96BA5BABC7BC787756FB8ABC8B94997B77887B8A
col25:   756762686768AA549D85DF679ABA7AD756DAA7D98B857BB9ABCA9B8AD5DBBCB99989594C79AB8B9B
col26:   A785887619BA94558AA48ACDA8EFA9DE9C8CFBFB79EDB9ACDAEAF888ECBADAD88CA78CD96AA7A9AC
col27:   96759BBA975866677797BCD79CBB7C9CC7EB9CCBC9CC99E958DDFDB959ABFC8CD85CD786CF8CBBB8
col28:   484836538BB8D38A85997AABAABD95ED68CBA9BDAADB8CBBDBFDC88DF99CC76C99BB77C8DBA9B698
col29:   56A94BB7C547BCD758D6AB5AAACBEB8A7CF9BE9CCB59C7796BC7D7DBBC9DEE7699AADC7C9979C6B7
col30:   5778A9C7B8C96D96A85A79A7B88ABCB98DB8BAE9AC8C7B797A9EBAE798DCAF74ABECA9AA8AF799DA
col31:   89767A6679998A97C796CAB8C68BEAD7988A9DE6A8E9CAEE9A98EECDCA95EDC7BDF99EA9C7B9BAD9
col32:   CCAC5B6A3C888DB86BB7C7EDCA7AD6BEEEDADBCBC9A8B8FB7B9BEBAFC6CC7D9F89DF97CA988A9CDB
col33:   665BA6964B8AA3CA86EBB678CDA7AC5CB8ADBDBB8AFE9ACECBCDBEFCDFABBD8BABBBBEC9CBC79CEB
col34:   B7BB79B979A76C76B4A6DBAA99C98869CB8BEEBB97C6F8BA98C9FE787AFAB8BE6BBCBAD99BEDC9E6
col35:   CA8857D3696F9A75AFBA8C7A998AB8A8BFDBAA8DAAA9977BDEADCF89DBD9A8ABDCD99CDA9CEE9ABA
col36:   A88A6968BC98B787DDBCDDC86BB8B7CCFF9A6A8AFBDCCAE9C68AEAEAEABEEAEC8AFC9D97FABAAAF6
col37:   66C799CBE8A9EDCEBDC9BC8DE6AAC7CDB85956A8C88DACCFEACCBCBD799AC8FDFFCED8BDCBCA78FB
col38:   66669B9DB6C8B9D9BB69BA98B9ADFFED8CFC9CBA99FBC9EBABDD9B8DABFABFAD99BC9999E9B9AAFD
col39:   7756B864997A8BAACB8DD9BB7B8AFFABBABCABDE8BAADCFC8A9AD6DEDC9CABC7CBCACEB7DDADAB9C
col40:   8AA4B8C6AA86DAB8BAF8D7DF67CBCADF9A989AD8DD9CAABEB9CBBFEBBB996BBEDFDC9EEAAB5AA68F
col41:   8766399498A5CBCC6796CBC9BFCDACC8FC9BDE9AEC99FEEBCBAC9E8979DB9AB69EAE99ABBBDA8AC9
col42:   AC42A69489FB98DB9B9798D9DEC9AD94C88579CCBCC9D9DBC6AED87CBFACAFEFD87FBDABDEAF8B97
col43:   967AA6BA8A9BBBBC9C9AA89BDABAEBD8CABDCDCD8ABADCCBD9AABBDAC87CBFBABAACCABDDADCCCC5
col44:   6177CBA78B9899C67F6A67AAD6A9DC9ADB9C9FAD9DAFBBECECADCF9AE8DBBCECAF78ECF9CD9C9DEC
col45:   787B9B97DA7698B4A6AEA8CD5FFD898CBCDDBB76AFAFEFCEBC6BEB7CBCB9D7B6EB99CFA8BF8D997E
col46:   59547DAC7588C68ABB6C87AD95BABEFAD7DAACBEA9FCFED8C9FACED5BCBFD7B6C9CBCC76FACFA8BB
col47:   BF59A6E86B6A6A79B7CF6DB89AEA8ADAB9F8DADB9DBBDE8D89CDBACD97FCCAFC9FAF9A9CBFBAC99A
col48:   5A57B768DA8A737DB9E8F89999D9A7E99C9BBBCDBDBCFBC9EDDBBABBCE97E8DBCBBBACEA68D9BABC
col49:   B47BEAB7887CAAC786E3ACABB3C7CCABBBF9EAAC8E98FB78DAD898DDDA8A8EDAB999ABACDBCBF8AD
col50:   FA974B7AB48988BD9CAACA9BFADBC9B7EC8CA79ABCF4CBBBBBABC9CFDFBFECBBEDBFE9C78A8A9DE6
col51:   854A956A9885775988B8B9A6778938DA98C478998697BE677A7CB9AAD6CB7BC8765B6D5C99CA8BAB
ROC:     BPix_BpO_SEC4_LYR4_LDR16F_MOD3_ROC5
col00:   1362675966563241A66697719474955789A687439577478846599777B87985677A3457A4675728A5
col01:   585776655A8658637A67A7486A8A98A5996777B8B98B9B7B9959A9986E64AA7897984977A7869B95
col02:   58281765A678248585A58B6676749AA696A68A66B8589A4B875B64A49A693A3A177A9777ECA6B9A5
col03:   685368797958787365658686B747B575857B78F49A6A8B77A697886FC88A88C9488A657B86C76777
col04:   357866953779716564B87787878868889279358898B6A6C6A7B868B6C86A869567777848967577B6
col05:   89668645752378987469665A598992698AC689A8687A98767768A589699A957985B6956949676A85
col06:   425238695485563998A5859B778735C7669976947A5A596767AA888879778BBA998989938799A6B6
col07:   74482A87A35488235A776788C6A6B9596C799C9AB687A8B68CB8CAB8A79AA8875C7A899B89699DA8
col08:   485447676797496AC6796A659BA8BAAC6CD8A786A9AB995698769958EACA887CB599C7A8A78A8792
col09:   5443158446983C7459777A76B9A8878DA967988C96BCC98A855B898C8A9CB8C99B97C9B98A789A99
col10:   47786475569B7557717BB96CB994AD68B87B87C98A8A989C79B7A9799A8977E9CCC8B9CAB786C6BA
col11:   8973894AA566774A69986B75D7B5AA7DB988BB7AAA897BA6A79746888BB86B8997587B899769B965
col12:   6787719A6786776488A9887588BB8B59D987A978A8A67978B9C9C9869BB9EB6A9886BB46589E8986
col13:   44B5399947A5B784A5976CA78989969BAAA699778A796B68B99AA9A88786AABB8A879579A979CACB
col14:   786666779BC47A96669B88A7697A8AA7BE9CA87A79AA8AA75995997ACB859C7688999A7B9AA79CA7
col15:   469542C88584B47749D3B7B7D88AACABB9AB999B8BA7A98989BB8BAB8699C5488C588687967A8B98
col16:   6673B5754A99886729A77D4959EACDB8B78AF96BC9AAA97698B9A6B7B8A8A9BB98CCA5A86AF8BD9A
col17:   74A59666999877474654A8A8899A78C68997A885C8CBA888B9AB6CD67BBBC8D98C78A887A6A37797
col18:   3183539658698657A5CC8B7898AAB4AA7C78974975B67988B93BCB79948B96AA99A98AB8A9589889
col19:   5C866B98A6376959AA83A9AA97ABA78ADABCCEDCAB9AABA77A6979896B98AA9C9F7AAB66B8EC8A8A
col20:   747787687B8588A7A797C7AB88AC898976A8D8966A7BA6B8A89477D9B876E9A69BBA8597ADB67C99
col21:   874968876B65D7889B978CABD75A89B979CA88CB7AA8AAE9779ACD8989BC8A99B7788DA85C8579C8
col22:   697958C768684485799989ACAD56AAAB67768AA7A9E68878A97ECBCA88C8A98C9AA8E8B9997A87C5
col23:   756738699486A3767A65B6C8AA9698AACAB86985A96C7CBB68AA8A8799B966BA98989AAAA76C777A
col24:   3546768D9668A36B98A9988B73B8FBB7C7B988C6C898A9BC9CAC7ADA47CADCCD87D8B96A9598AA98
col25:   559769CB97988B7A5BA7D7A9A78BACB6CCA88A9CAAA8BBDA6DB7879ACBBA8AB8AAC96E8A99A7BABD
col26:   5796D85879A6B88967988A6B9876A7897DBA9DEAA7BCB7BAB8C9AA7CDBA8CFBA8A8ACBCABEB7DCC7
col27:   89565AA67DB79B7CB688969B9BABEBDC83CA999977D9BBA6E7BFE7B9BA9ADA79C9485CB9BC89D99A
col28:   A79A6AAB99CBC8674BAABAAB98CABDA8FDBCE8A977A9CA9CAEABBA9B69CA8BAFDB9ACCCAAB8AB8C7
col29:   5999B777A7BCBB76BA8AB7C8AAB9DA89BD7B7DEB9C9CA9DEAEEC9ABCB6DCFBFABBAB6CCB99EBA9CA
col30:   4787896BAAB97978CD8689DB9AAA8CAE9AABA8CAACCACCACB9AAABFCE8AEDAAADA7DB98B86CACCAB
col31:   B998A99BBA896AABABBCCC3DC7A8E9ABCCDBEECCABAB96BDE8CF8BE79B69CAD9ACCAADC789BC9999
col32:   578888796A99AA9CB9E8B9C67CBCBABCE8D9CAB799BABDB89BBCBB8AAAEFCBE8AD7B9BBBADDB9BFD
col33:   68897AABCBC8B5CCDDAA7DBA8AA9AAC9ACDCD98BDB9CDC8BC6D9A9FCEBAAEBBECFECBAEDBEDBCCDC
col34:   66B9BCC98A8AA7B99ABD7DDCAC99DB7BADCEBFBBECF9DD7E9FCCDBABBDCACBBBFCDC9DCAECAD99BB
col35:   89BC79777BA97EBDABCCD99989AACF8BC9DADEEDBEDCBAFBE9E8C88AFBDCB9CFBFDDEBCCBDABADDD
col36:   6895A8987A8DBD99A69AC9C9DFADEBABCBCAEBB9BBCCCF99C89CFEDBAC9C9CCEFDDCCCBCBBBAF8BB
col37:   A98CCACBAA7BFC9ACBCAC8CBBCBBDD8BE9DDA8CDC9CCC7B9ADEAACDCD9DBADCFDACE9D9CBCACAABB
col38:   97A8BC8E89C775BA8A8CD8BBAECCC9BCAA7ECD9BBCFDCCFC9DDEE6BFCBACB9DBEBABBFF79BCF9CF9
col39:   9BB7BB959CBBB89AA8CA8ACEA9ECCEABB9BCBFBEB9BBBCBEB9CBCEEDDDEBFBFDCCDCADDBBECEBC9C
col40:   8AA8A79ABAB7BABB98AABDBBBD8DB8BBCBDDFFCCBBD8EADDFBEEBDBCFDBACECDCDACDCCE8AAB9FE9
col41:   89A9C598CA8C98AABBAFA9ACBDCBED9AEEDEC9BCFBBECDCCCBCDCDECDCFFCBCCCDEBE9AB9DA8BFAB
col42:   B86C9C9B8989A6C8AB9A6ABA9CCCED9CBC9CDBAACBBFEEEABBDCCDEBDBBB9BECFCCFFCDAFCF7DC7C
col43:   9B9989D9CCACAACAFCBADDECECCBDFCCDBE9EFBACBEE9BDCAFDCACCFEEAACBC99BADFCEDDDDCDDEB
col44:   A9B7A9CEBFCD88DD7CBC9D7CC9BBDCDAED9ECDBDFBDAFABBBBDDFBEFBC9FACBCCFAABD8DBB9DCEB9
col45:   A7AB88AA9EA8AEA9DECCC9CCCBDBEA97AABBB9EEDAC9E9BCBDDBCECAC9EFFBDBDBB99FBB9CECDCFA
col46:   9B78B88B9CCBCAD69AA8EAEABEADDDDEDFB8ACF99CCDEDAFBBCABDFEECABB8A99DBFBADDDCCBDC8B
col47:   9A9A8A89CB8F9CBB99C89AB8ABBFDCCBCBBDBCDCECCBFEAFAFECD9BCD9B9DCEBCADBFAEA8D7EAFBC
col48:   48BC98A798E8B66A7AAECAADBBD9ACD9D9AF8AADEFCBFCBDED8FDE9ECFADBFBEBDCCACCDBCBCCB9A
col49:   59BCABA89C9C9E9BBABCFBCBBAABDDFADABA9DEADBBBFBCBFCCDD6CEEDFBDFEDFDEBADADBB8C9DAB
col50:   A9DCA8CB8F7FB8AD9BBC9BCACEAAAEDBBAD9DEADE8FBAEEAFEDACDFFFDFDDECD6FCFCFBCAFBDBBFA
col51:   6A96B9CA88A998AA979CCCDA8D99DEDC9D9AF9BC8FEBCAB9BCCECD9B9CEDEC99ABAA98CCAC7C99F7
ROC:     BPix_BpO_SEC4_LYR4_LDR16F_MOD3_ROC6
col00:   2167458549672646779B863497988B6A8ACBAA945D86A999BCA9A84A499AB598BBA92B8866BA9989
col01:   569475777C6845A7789A8CAB9788EC97C9CC96ADC987E9A699889CC6BB9689ABF5C7698AADABC6B6
col02:   4937A86876569797876A6B95785767EDB798C8A7C8BACAC9ACB6CBAA5C886C99998A7B7A8B67A967
col03:   56584A89675595AB9C98CE9A65C86A9A89CB88A9BAB6AAD5C98BD989BBB685B5C8B9A5C588D8AA89
col04:   35776585A94847A2B9A6CDBA7BB6A898C9CEAB99DAAABBC5BA99B69A9BD977E8CAFDA98FDEABC5AA
col05:   343389695575A97576989C986C569A79A9AAF7DC99A6CDA88BC8BBA36A9BEA78B999BA97F99CBA9A
col06:   163256BDA889969ACCA96C8BAA999FAB9C989C94B7ACD7BCABD98A789B9B7C87CD9CBCEA48987BAB
col07:   7748639AB9A7A676CB55BB6869D79BFB8A89CB9AAD9C6CBCCB79EBABBEABB9FA7AA87CD794989A7C
col08:   3398C6AA46885C865D7ABAE787B9A8B89D8BEC998C39B878B7BC5DD68CB9D67B5C799A7AA8AABDCC
col09:   68A9C7159FA96469AD8ADA89C888B48CABAD7AAACDBC98BEDB9AAEAE9E4C8BB88CB9ACEB888A9BA7
col10:   26BA88795B9B6776B7A8BBB9A76DC9DA8C6A7D9898CC8BF998FD66BE9CAB9A9BC97A97DA8A9BC79A
col11:   1748537488A999A96A967CA9998BEABCBADCAC63A8797E57ABA99DBAAA7999C858BCB58D98988678
col12:   45A55687776BA8785C888BBBBAD9AE66897D9BC7ABBC99C5AB7CC9DC97BDAB4A5EB96C99A86DBA99
col13:   7325A753AABB4858ABDB57E998C99C79989AE9DC887BBC86A449CECECDB9BDF9A98CC696A7999C79
col14:   8579C97636A7567B765867AAA978BBCCAAA8ACCA9EBB97A5A88C9C99ACDAD8A99DA7A9BCD89CA5B6
col15:   975645CD6ACA89BCA8A7CC9F8B6B8B8AC8BC8AD7889C7DE9C769ABA799BAA8AC7A8A566AB8A56A7B
col16:   36B87858787AA689A999A8A99BBBCCB998DB989AB4669999EDAAAAA8CE9BA98CC98CBABBCA9AB996
col17:   476756BC36578895598975867BAC87A9A7C8A89BC42A69A86C997968E7BAEAB8A9A9AA8AABBA776A
col18:   296335B876366D757487D758868777B7A8DA6AAFBD9AD9BAAA9BB59899D984EE89B7AE998A99AB86
col19:   7157661C6988889977AA7889CA9999A98DD8CD88DCCB8AA7979AAACB87C86CBAAA789BA87A9C8897
col20:   52A6A8A7477757B9376B6A999957CDA9D7BA7CCE79B97A9B89BBDCBAB99ABB75E988B6AF6BCEA8BA
col21:   44869576A8B4ABA66A9ABA8BABB98DBC65B9CAED6B8CA6BD7CD89D9BAC99F4B9CAC99B9AB9C89AAB
col22:   367696887977665859A8BAA8DB879899AA8B98A6C8AB8B7BC988DDB8CAD78ACABD49CBBCAADB9689
col23:   6584A56998776797796A868CC6A885DA777B9AAEDABA86CD797DB75576A878A999C9BC96B9D66CC9
col24:   696896959F888C89A6A6AABA88DAB9D7A7B8CBCABA4A79DC67D7A998B9CAA98979F698A7C8F98CA6
col25:   54478AB85BA5688A8A9CB95CA9C7BDA9DBCAB98ABCE9B64A9A98DAC9B5AC88A9AB79ABA969ACB85B
col26:   7475A987DB9774A9B9D8A9BA9EB99CA8A9B8ECACC9BD9B9FBEC9BDB9DAAFABDB968DB98DB6ADBB5B
col27:   565B989A8BB85997AA49DAAC976C6B77CAC8B9FAC88B8D9BCBBA7ABCBABB9BC9B89CDEB8B98CDDD8
col28:   A29BA84954A9AD7BB8BACBABCAB9BA89DBCDDADBEB8CBCA9ACD8BCAAE9DB8EDC7DCAB9A98A8DCDCB
col29:   146DAB4695874A9BBC9AB9699DBBADEAE6C86A9B99EC868FBAEACAE9CCACA97CDCC999AABABBBBBE
col30:   78AA777F898B99BAB9C698E9BCEABBE96BF8CAA8C9ADB9FCB889BBBDB6A9EDFACDD8DCA7E8ABFCAD
col31:   67A8A9A676AB5BCBA78AADAABAAFAA9CBBDB9DEACFCBCE8EEBCAF9AB7EEE8C9A9BAB9BDECDBBAAA9
col32:   A59B89A6698CACB9CC9F89ABBBBA9AE9DF8CDCCBBABEDCA4BAACBBCDA9DAC8AFABCDBAB98AEAB5EB
col33:   57A98878AA969A6768B8B9AACBBBCABBAEDD9BEBCABADEE9C9DCC9EBEDBEBDC9FCA99C9ABCB686DB
col34:   B7ACB779C68B889DDCAC9F7E9C9BCBDAEBBB67EAEB99A7AEB8BDADDFCFCDBDBD9BECFFDCDE87AB9A
col35:   A68888AC98D56888B9CCAFC69ECBA89B8BBACD9DCDFCCDDCACDDCCDC9ADD8DCECB979C7AC9EC5789
col36:   A2A699979DBA67D78C5C989ACF78AEAAABCC99BEB5BC9ABFAD9C76BABDFE9C8FAECCFACBB7BBDBD7
col37:   9AA7B8AAB7AAAABA7AABCDAACAECADABADADA999BDCADFDAFCBBEAD6DDCDDB89F868EE8ADECCCA8C
col38:   A7558999C9CAA877B8B5DCA8BC8A9BD9CE7AAECCCBCBDDBEDAF8FEDA8A9ADFDACDCCDEBEC99CD9D7
col39:   7917BBBE6A6B7AAAABBEF7AD7898B9EDBBBF9FBACBCCDAB8BC9DFADACFDA8ECACABBDAAEFAA6CCC9
col40:   868BA788AB8978E997BEA8AAA68CB8E9ACB9ABB9FDB9C9FA8ADDBCBC9FDCBCBACDA7D9E9BBD8FDBC
col41:   C387D5C5B899756CAA9FFC9CBB99CFECAADBEDDB9B8DDDEEA7FED9F98ADDEAE8C8D9DD9CD8CDFB88
col42:   847B739EA5CB87B7C68BE99EBCABB5DCC9CBCBAED98BCA8FEEE9DCCCCBDCACAD9DDACDD9ADC7C7AE
col43:   8977BB8B9ABAB7BDACC98AA89BBBBD9FAC6FBDA9CDCAD7CEEAADDCEC8CBCCADAAEECDD7FD7ABBAB7
col44:   8B7B98D57AB57888759A85BC8AC9EBBA9E9FABACDCDC7DCBCBECBC9AD8FDD8DA799BFBAACACDABE9
col45:   97A6B9A7CBCA9CC7A999A6C7DCEDBDEB9B49BCDAC8CCF9B9CA8DBAACDECDD5AACACB9AABCB9CA7BB
col46:   ABB7857976CCA477ADC74E7CBDFB9BBBDAAAABEDDCFCBE9ECACBDBECBADAC9BCACBCDD99DB98DCBD
col47:   C88A9A39797CBD99ACECB89ABA8759BBBDABB9ABBADA9ADDEAC98CCDBDAF9AC99AFACCAEABDA8CD9
col48:   9ABBFC7ABCCA88DAABAAAA9A7BD9DB9CACA8C9BC9BFEB8BBCFEDFBEA9EFFBDAC6D97D9CDDD88AAAB
col49:   B8A9665C5CC9B5CBBD6DEBB9DCCDA5ACDBBBCCAEB6CCFCCCBCBD9CDAAC8ADECADEA8BAAFA98FCBCA
col50:   6598B69CBE8B866DA8FB5989C898A9A9FAA9BD8ABBCCBC8CFCBBDD9BEEACDAEC9DAEBCE99DDEC9FE
col51:   B4668498A6C7A359779997D9DD7D9DAA79B8A9AEBB88B58BB986989A68C58C9C6558ABD998C89AC7
ROC:     BPix_BpO_SEC4_LYR4_LDR16F_MOD3_ROC7
col00:   93869775AA5485A6A7ECA85A899D98598B68D9AD7C7B9A98BC7A78877A88B94CB56B5B7A96597971
col01:   9ABB9BAB9B9A88A85B8ABAC78CCBBAEBB669BE89FB8C8C8BCDAC779FBDA776777DB89DA88C81A9A3
col02:   A94A7B8BB689A4979BB8A9A9DA99A7A73A7BB8BAE8C8969E69AAD97A9BA57A618DB8B58AA7777864
col03:   BBFAD786A679B5997C78B9A999DADDAAB3D9BABAEBEAACB7ED5BB7D9ABE3BECADDAB899DC86BD779
col04:   98B66939A7898695ADABA7BD86BA97AD9CAAB98BBAAA9B96BCACDD69A9BBB2BD9B6C9B788BCA9485
col05:   84B8849585BB6CA89B77A6ABC6CF9EAB5A6C8CACAB8A9CADCBECC9BDBDF98BD886B968BE949383A9
col06:   4BB3A5FA6C7EB7958DB9B8B99BB9CA9ABABCBDE9AF7BBE8ADABED768AD88C47DDC89CCBBD48A6776
col07:   778968B7546D89DBDC9C97BBEE9BBA7BDC7BBAEBBB7F9AD75CA97FCA8F99BACB7A6867CA977A9959
col08:   66698BC877CAA78DAAD99798977BDBD8B88B975CBA7EAD9AB8D7E8D4DBBC6D875C6798B587585986
col09:   7AC6AA69AB7878A998BCBC5BC989CCCAADCCA78BBC8BAB9AB8BFA968D5D7A9C87B99D9AD8A897887
col10:   8BABBAD7D885995C887BD6DF7B9BCA8A6BC97A9A8DFC899FD98ACEABABCAB8AAD489A688A798C986
col11:   6A67A8386896488DA6A87A7ABB89C9D678BDC6BB6C8DCAC9B8F8AB9D89EE5A7CEB8A5AC664A9D9A4
col12:   68B848D898997775C6387BB37AE88CC6B8D97B7AA9C899A678A7AC9DAB9C9F9CAEC8AB9899C97867
col13:   A48958A5BB6CAE8CA95ACCEB96958EA8A99979ACC987CA9BBEAC9EB3BCAAB743ACDAAB9BA6D9BDA8
col14:   88AD49594B6965AB896B897C6BB89985B88BCEC9A9AA79DB8867A998B87DA97777CA98E7559A5691
col15:   587966AF996C8F899998BBA5AC96AC7CCDA8E8ECDD9AB89BEDABD9DEDBC8BC94D9597A57B798E6A8
col16:   59BA776959C58B9ACB9B99D9CBCEBCDD8CB5BFADD789AC8F8A6A9B8AB6C8FCA887AC8A8A96A8B586
col17:   ACA9649B6776994A9E9A789ABAAA6998BB7B79BBA68899BA9AAA74CAC7CAB8988ABA9A87996894C1
col18:   8C87B7A9DC7BC768ABAAA9A8C5E7DCC8C9CB79CECE6C799DA95ECACBA99ABD798A97D9DA4A899987
col19:   9A6C9CC595A799869B9CEDCF2EDCAD8B9ACC8CA9979BB9ADB8D9CCA8AA69ACB89E9B9BE78AB89626
col20:   AA66AB755A5884678A68A689B495A799B9DA3B898FC795EC9A87DBCAC698BCAA8999AB6969A7798A
col21:   8798899488AA99AAAB88C99AAD9BB9DCA8C6BC678CBA697D9FA9A9E7CDA9CA28AB6ACA7AEFCD7A5B
col22:   3B9A78A58897C6876AAA69ABADB86EABC9AA8CA9997A7985ACA99B8ABC9597CB646AA4C8CA58C894
col23:   7798A54D696869985DB69A8A79ECCFCDABB98B687A9D98B56896C9B5D57CE7A5B897A7873795C967
col24:   6665B3B8577AB88BCAA997B99AF96A97A7AEBAA9AB9D9F6ECC7B7A8BA9CD979DBAA669ABAABA8835
col25:   6B9C7A9B676856A979BABACBBA9AEB9F7CCA7F49A7887C7F8BCCCCA8C7996C587BB5479AA8847B76
col26:   CA97BA8BA99AEA97A9CB9AAB9D9EEDABDD8DAD9B7BAF9FCECBCADBCFEDBDDB8FBD6B9BAB59AA888A
col27:   99A5AA9C7A88B7AB88BB8AC8C98B7BA7AC9C7ACDCB9EB9EBABB698B7AA8D9FC9CDDAA9ACA9A8D8AA
col28:   6AD6BB6B7AB7CA8DA76BB8B97D9DBAA9AADEA8EBFFBA9ABFB6C9CDADDEAAEA8BA8A7D9A88AA9B8C8
col29:   69B49BD98AC7BCF5B9A8EBADD9BBCCFAAE8DB7C9D9CEEEBBD9AB5C9BCAEC8B9CB86B969F9A56B9BB
col30:   B698DADCA976B8BACE8ECECB99E9DDF9FAAABAAC5EB9FBDFB9BB8DDDEACCBC8C8AA889D8868DDF55
col31:   9BAB86993CB9BC8CBD9DCBE8BBBCFEDAEBBFACFABBD8B8BBECBBFCDDCFC6DBAA8DBBCBA9CADBBB96
col32:   95A9B86AD968BBADB7DBAECBAD97BCDB9C9BDFACDDB9BBFDC7AFBCCC9BBBEABB9BBEA9BABD68A7B8
col33:   ACBAABD5BD9C9CB97A7B7BCFEAB96DDCADBCEFBCFBBCBFA9D6AEDDBDAABCCBC8EBDF7EAE4CAF8BA8
col34:   DA7967C989A99AF8CC79DBA88DBBCCBCECCBCCCB9C99BDABDBAE99CCB9AFDBB9EBA9ADFBB89B989A
col35:   9A889EE888C9A7CB8AAC78B9F89EAC8EBDFFBDCB7E9CCCCBABECEBEDBCCBFAEC8FC87DBA9C98BE97
col36:   E69BC86EA79D8A89B4EB7DBA99BBEEDAC89B5FF9EDFDAA5ABB99BCA9BBEAB9B8FDCDA98C7AACCF63
col37:   AB88A9BAECAD9CBAECBEBACCFFCCB9FB7AADBC8FDBCEABA99D9DDFCDCFCDDCACE99DBFAC39B9C9AA
col38:   887AC8ABACBCDA79BC99EFBB88D8CFBABDEBDFCF4BAFCCEBDBDED88D9CCAEAD8FCFD7DF97AC99B94
col39:   999A4DDCCAABF997C8DD9F9AAA6B98BEBFBEEDFFDDAA8FECE598ACDD8ECBDFBB97DFA88868FAF8B9
col40:   A98AAAB4B99BA67B98AAAC9A9FDAAFBBA8CFBDEB9DDDDE8ADCA99DDCEDFABAE7BFEAC8E99BA89D7A
col41:   6B8ACB89AACD9B5BCC9BCDBBA9BBBBCCBFAEBC8BADEEACFDFA9CDBBC9E6AFEDAA789EDCAB7AB87D8
col42:   59ACCA7DADB8BDBA9A98AACAEDACCBBEFDCACEDBBABBEB9AFDCAB8CCFD79FFCDDDCDB5AABC7958CA
col43:   6A8AB9DEBAA88B87C99FBBEB99DB9B8DF7B9CDEEEEDECBDF99DF9BDBFFECEEADDDE9BEAC9999A898
col44:   6994CB6BCC79DB9C68DDDBFBDD7CB8DDCCDBBC9FBAFEDADEBBBBC8ECABCAEEEBAAAA8ABABCB9CE96
col45:   A989E5AA9BCAA9ACECDDABBAE8AABA99ADBDEEECA6ACAB9B9BBFCC4CD9FCDADBEECE9ABDDAD89BDB
col46:   A4AC68DADA9EA8BACCD98F5BADFCDAADDACBBBDDDBCCBCDDACACE9ECCDECFF9CFBCCAA9B7A8589A7
col47:   99AD878CC8EFBF9B8DC8EABB89DBBEEA9CEFC9FB99BECCBAEEDBF9C89CBCCECBE9EAAADBBCA9ACF9
col48:   9997ABAC9CB997BC687A9BE6D8DDDBFCECBFBB9E9B6EABAADEB8B999DCBBFBAABC7A9BDEAAD9CBB9
col49:   99BAACDD8B47B6C79D9B96DDE7BDBB8CFCACFBFEC9CBBFCDCFDDFB88AD6ACC9F8DBBDCCFD8CDBAA8
col50:   4A65B49CBFB5B9ADBEBCFCBE8DFBFDEEDDDF8CFCDDFDAABCCDAC9B7CCD9DDDC98CBBC8A5A8F7BAD6
col51:   A68588767CEB97DCCECCE79A8A867ABBC99C59B8A9B796BF89DAA5DB687B99BCC7C37986C668FAB8
ROC:     BPix_BpO_SEC4_LYR4_LDR16F_MOD3_ROC8
col00:   956745799667755A8649557868B66A7A897958B767686678959BA7784A9AA677B7A5A8679B774366
col01:   9657887A7AB7B3967A7A6BB65AAB8D6CCFC86975B6CA79BCE89A7B88989978A8AB949A99892B4B7B
col02:   885546749A89867956A6A78BA97BBAAA896DCFB97ACD99697A499BA8CA7948A894A57989866968A3
col03:   A87896867565669987BAB9B89ABC8998AB7996B75BA8AB786AAB9A77B89489996C696B896A7B5645
col04:   46847775518769778675A758AB9967F6B68A87A9CD98AA7CBA46D7A8BA87D8487A98756B6A565A78
col05:   985798A8A8878648A48778558A99C94954A698867B978A97B7A97F799A88BA886969835959478896
col06:   75895538297687995898C68786C7979B979A9BB7864DD5C99E699B6EB979A86D97687A539A1666A5
col07:   69BC59465BB9B38A6BA8D798AC887A996AD6C7A8CB98B9B8B6DDA9D579BAC99AC8B5AAAC98A85885
col08:   7469875445676569775A79AB96AB8887778E86CC7D6A89678AC9D86886E9CA7A8394895978689795
col09:   76497966BB87C88AC78AB95BAA7939398A84C9C669A9887D6E7DAB99B86A5AA6BA876C9597666588
col10:   8769977794686569367999C997B999D6CD74697C6C6755B96CBA68AD6669697A9C7877B6A5889A74
col11:   96579A558A68836C77AD877866A6BACA67A95AB69A859CCAE887B7BB4796BCDA76A8675677997A87
col12:   626777A67956849596949898BD6869598C56776C9C389869BA7699A8A9AB9658A78A78778AB62999
col13:   3636A77B98694784AC8AB7A9799AB99AC9A8869ACEDC97E9B8AAAB86777669588A7BB778BC686787
col14:   88576798667459CA58979C8A7BAA97C78A7C8A9DB9A87BC6A89A9D6C9977658999BA66947A698779
col15:   9A9986B3568A8C96B76779C979AA888976A87B99BBAC788AACBC99A6A2AC9C785798B67597A66672
col16:   A5746996A67A96589B286869B998AC44669995B1CA56E98DA768898897AA76B48B98678A6757778C
col17:   4A678795A76AB8779C87A9C6BD83A9856D939C59B8675765C9896869B56899A58679673789788515
col18:   7682875497B8676698877655BAA787CB89758B595C9777CBA8AA9CABAA9BA9C666BA88885B495664
col19:   7987789C8A588A878D8AA5A66A67885BA8DAEB9975F9BBAA67B9C987AB7A988BBAA69AA5B45B67AA
col20:   666598434276973B767A8698B98696595A9859BA989BA787A97D85D996B6B81377667577A779B348
col21:   1858A844A88859A55B756777876889BAA798B9696B9955CBDA99A9BCB99AA87896A8769967847D68
col22:   26568764876676A5C8AA84A7699A4997A97AAA68A6A9B4AA6FB7A79C76B8B69BA6B69896A55A8984
col23:   577894648856784B9878766959D667C89895859998796A9D9C7EB4C5CC9B7D8596A4778736A87546
col24:   9763678593697787889847A49A8983877797899988E8EB74A89D97DA68F5BA554698394566638554
col25:   78987B8BA9A59B878985AABBC8CBE6878A7BAB7B57BA6E9CC7DB77DDC8DA6A6677688669778875A6
col26:   B796A85356C898759A8CACC7A9B7D876998ACAA99BCDD9BCC9BEB8879BCAA5B7C58D9788976C8889
col27:   8669B7698878AA7A7A78AC5F79A8BAB9BCA98BB87AD7968A659C9969C99BAB9B94A79B787E87BD66
col28:   974A6A995C7B77966DAC8AC889948C8CB7749B97BC2B977A6B88B7C956ADA6AA99C7ACA7A79B297A
col29:   A8968A5B9974A9B69AAC677BA8AEBCC9A7C8BD9DACA687E8BA9ABBA7579AAA9939BB77A6DBD9A957
col30:   6779487987C57B6A79ACA99A888AABB99B9AB5BF99CA9BCBCBCBB8A999AB9C947679998CC9D96A66
col31:   86869557A455B99ABC7D8A77C96B8AC888BB9CABCCBDA688DF99B79B999BAC97A9899ABAB66AA8A7
col32:   8A3B5DCAB77DBB7C98A9988B69984AE7E99A79ACBBBD9AE9ACA98BEDA89BCD9BACA6777A78B76979
col33:   B6956579B96A8789899BAA6A99BE78879DAA88A9DC8BCABB9AAAACCCA689CDB27AA9A968A78A78A6
col34:   8B459A9A7B7CCB79BA7D88B97A9CAAB8A9BB99BBEBCE9BCCEABB7E69AAB9FAADADAA9C6BD893B798
col35:   DA85A6A8888DC8CAACA698BBCBA9D6AEBFAA6EC7685ABA8D9B98EAC89DBBAC9B9BDCBA4AE7CCD9BA
col36:   7898A886478C68CA79B988CB84C6B998B9A69CCB7C7BC8CC8ACC85BABC6A8BADFBA999B8A97AAA36
col37:   54A7848678876D6ABAB99A97BF9889CCB8CAAACB7CAA9AC8CCACBAAC88A9BAAADACB9896C7976C78
col38:   9579987997ABBB5698598E8BCF7D9CAFABBCAACBBAAE9EBA6F9B8BDA899D89BCBABD86879589B69A
col39:   58A77C88995C98A8BCDB89679BC87DB678ABDADCB99CAA7BAE9BFDDCBADACAACEBC8AA6C6A79BCA8
col40:   687E7757BB73A8A597BA5A7CAA9A9BABE8BC69EAC888ECAEA998B99DAB69888A7A89988BA9B76595
col41:   6C88569B5CD9AD8C6CB679B8ADCEDDACD7DB9EBCBA6BEB6B999AE999F99C8C7788AA9979AE898C66
col42:   5579482AA66A7788C8D896AE9A5BABBBD99AAEF6AAC9C79BAA7AA9BABB9CA5ABCCBBCA87F796A999
col43:   9568AA65BCA9BAB89C88786C9AD9A9B797CB9B9DEABDA8CEEDF8A9DDB8CBDCACEA7C4999CB9CD9B7
col44:   B8A9D7C8AB89ACA5AA8AAAACA98AAEDE7ACDA98B9A9AEBDADB9ACA8DBBA8BAA8A9EB7C9B8A98A88A
col45:   BA7C967889A99B54BABAAB9A688AB89C9FBBD99A99C9CCF9BEADEB8AB9B7D76CEDACB9CAA6FA2C68
col46:   8AC567A9A8BB88C6A9AD7D9ABC997CD8A8B8D8BA9BA9CBC9CA8A9A9B7B7C68ACF96A8796A8B59EB8
col47:   A6A6C89C98CBBB75A9AA988CCF9E9CBA98BA8CBD9C85CACAB9BCB8BBAABA8A8C8A9B8A88D5AEB6DB
col48:   9A7987A7487A8B6CB8B96BC9C88A7CC6CBBCCAB9ACE88D7A97489BBBBD9BA98BA59C778C587CBD89
col49:   99897A7A889BAA778AC7A78E799C7DCBB89DD789DC788D8BEBBCD7BD6C8CBB9CDB7ABA98A97B7B64
col50:   7A7778C66B739CAA65469C99C99BEF8BDC9B99BAB7C9FAACBDBAAB6CB979BC8DA857F7A7AB7A9A9B
col51:   856B9993478696AB65778557797AA9A78A79BBAC4A8767DDBA8B4C9A7358BC798A5C795669267979
ROC:     BPix_BpO_SEC4_LYR4_LDR16F_MOD3_ROC9
col00:   734A6589968BB788B88B87869DAACAC876D9A877596CF5BCABCA67BCCA875C66BA8BB87C88A78986
col01:   686C688B9B77847AAB88DBACC9D7B877BAA9AABCB8A6ACEA77ACCA9ABCAB9AD989C9BA7D99C79969
col02:   8696896A668CAB839A5ABB8BB96D9A688848ACD99C7ACD99AA86767BB78CC9A767998A94899AC667
col03:   A899A36979589BA88B978D9CBBA98ABBBBA8C979B89ABBBACCDA99B7B6E9BEB79AE98799986999B4
col04:   788888A97A6B8862CA5AA98888AB889AD7C97AAB79AD8CBCC98ACEB99AB8CABA8AB74CD8748B8A68
col05:   A756889557AAF67C9BBDAAC87A89B9C8BE8A9BBAB97B89AB946EB8ACBD96A7CB8CD79F7AA98B9BB8
col06:   7A7A69A88BAAC86C69AAFA6ADAB99BCBD87ABCA98FBDBCBDA88B98C9ABD86BE9AAB8BA9ACE69B788
col07:   7673B98C4798AA99A255AAAFCA76A8C9CABBCB69998AABC9C87CD8DA9CC8BCBA7B899888AD4AC9A5
col08:   9589B96B9B7797857A9B6CAA9AB8DAAC69A997A97AAC69FAE6BAABFAD8B9CCB8A578A85AAB88A794
col09:   6AC6765968AA967CAA9A9AABCACA98D96CBBC9D8EB878CCAD98D8A9A9BA9CAEBABBAC8B7A866CCB8
col10:   788875629A889979998ACB88AA997DB5CB9E8998ACC7D97CA8BAA7DA9B99C7B8AC8899776CACB6A8
col11:   366598E868AA3AA75C98CAB9B6CCAA9BC987BBBA5E9C8B8A8C77D7B69999B889A699DA7CC6C78999
col12:   847735789A5878599688CA9CD89BCAAB57C99DC9BC67BBBAD6AB8CBBAD7ACA8CA8A9956BD7AB3A77
col13:   AB756ADB6699AB78848A7949A9CD9C9A8ACDBA79CCBDAB777BAA8ABD9899ACC9AEC7C87D99B7D99A
col14:   35679C9B77699B9756BABDAB5A9988ABB9CA9B9DACDC9DC8D6BA9A99995ABAAA8BB89AD689A9AC86
col15:   9775579977B79A98B778B788897A69CFCCBAB6BAC6C77ACBA8A777C8C8ABCB99DCBC496A9798986A
col16:   374CA8C78A968A6D7A975988BAAA7A7AAE6A9DBBB97B7BB879DA7ADC9ADABB88ABA969A7AB8BCA76
col17:   15457757975477866976D7799B6A999C48988B9F8A8CCA98A9F89BD8BFA9979B9C7A8CB7A66A7678
col18:   6973768B79648578597B98A9875C997C5BB9ACBABABB69B7B988C89BA9F9CBA7CB8C6BB889977878
col19:   8576968586B5697B89ABDC6B95BB898B8758CBA9AB968BB688BDB79EDA6A6B7ACB8AA9AB62898894
col20:   6863569568369777C576997C77AB56B6BC89B789B89CA8ABA97B8C9BAA7EDBD7DAE99A88C8474689
col21:   977A95367D994679C59CB7898898BABAA9B6C4C7CB79ACAB798999F8A6A93C99C59D7A2AAA7B9E9B
col22:   7769C7CA79587867B979AB77AA937B8879C9B4CAA98BA8B69877C9BDE8D8466787B9B97CB9BCB987
col23:   4679855674639879F5B98BB97A6A8C9BACD8C7CCACA77A87D9C6EA9DAAA9BBACC9878D87ACAABA96
col24:   13957C9AC2B75479987BA67AAAA8ABA9A99E8ABA9659A69B99CA57AD8C758C8869BC788AA6976564
col25:   768266B4598A9793A865CB8CABBAAA675B94CA89BCB68F9C8A98DBA76BA8EA6CCD997A79DA999C96
col26:   799658689AAA787B9BDCBCABA9A9AAB89DAB9B9DCAEDBA8B8BCADBACDBB78AB9AE78BB9AB9767B9B
col27:   578738588788B5CBA97AC5B97889ABA6CBB8ABACBCAA9EDC7BAE69E8C999BA9CECA7A7B9BB59BA85
col28:   947957A8A646D777987C8ABA97C7B9C9BDD5D7BCBB9B8D99CA7C889CF4BDAB8A7C77B678ABA7A7A9
col29:   5489775958AC769965B9CA649AEBB5ABAAFC7BAAEA8AC99BBA99987ACBABCD9999A9A9AA986B8CA7
col30:   95477687B9699C88A8A85BB8A9B77ABB77AB7DD9EBBD8BBCBD9C7A98ADEA7FBAB959C988A899776A
col31:   66B99BA7779A6AB78979AC9B9C7BB9CAC7C9CABEB99DA98BBC8BCEAA9C8BDC9BA9B6BB99BB997A66
col32:   57574974BAA4EB5BB866C6ADA8BBA9ABCECC8B9A7EBA89A9DEFB79BDBCFBEAA86BB7C8BAC6A6BA9A
col33:   A7A8B377C7599A87BACB7BAB9DC9CC897979B9987CA9ABACFDEA7D7FACAABA9ADBDADCBD8F8C98AB
col34:   3A936B98A78D45B8BBE77C7DBDC9BAC3BEA9BABAAAC8BCCBCECADADC88DAFA68B8C897D9879966A7
col35:   869AA3CB688A989EB7B479ABCC7DFAB7DD7BD59A8DDA99897E9CCC9FABDCDCC99C846B7A8BA9CDD9
col36:   68857798B7AA996CA8BAA7AAA7CAC6BCCDB9FBC9DCAEAC9BADE94DCCC9ADEDBA8AA89697CCA9B898
col37:   BB5969C6EC999AA7B9DB68ACBAE7DDEABCDCAC7EDABB9CD69DDCCBCABECDEEABB98B9C9CE9E8BA78
col38:   A767CAB9DB6B9CC95BBDAE8CADD97CBA9EBB9DAEBCAFCFEABDCAEBBB9AAB9BBB8EECFEC86BDE9B9B
col39:   887BA7599879C69AA98D4AAA9697DCCABDAC9A8B9DCBFABADBAD9CB6B9A79BAAADBACBC9BBA9BBA6
col40:   944568888C9BCCC8DBF36BCDD9A699BBDCEDC9CCD99ABCA9E9BECAACBECCA9BBED9AA9B957798AD5
col41:   6156649A496C7BABCB98A6787B68AA7AD8BDACBCB7DFABCDEAACBB97DDE9BB8FA8BB8ABB6A96C8B8
col42:   694A8B88DDAAA3AB9A896A98AB7A99A9DB9ABBBBA8AADDBDA89ABCABAD79D8CC9A99DDB8B8BB99B5
col43:   99486A8AB6B98DBAACAA8AACBBB9B8BBBAAAAACF9CCCEBEE9A9BAD9E98A6CBBB9D8CFB7DA76C9875
col44:   A91A278B597848A89AABACA9A9C8A7BBDDBCCAA7DC9BABD9DEAEBAAADCEA7ADCA7888AABA98C9994
col45:   836ACAA297A9798E999858B7EA9D7AC9DBD8CBEBBEBBCA9E8AFACB98C889897BA88B7AD8988A99C8
col46:   7A794AA79B9AB984B978F8998AC69B7AAACBC8CB8AB6BB98A7A9D999DAAAEBBDE98B8BCDABCC96A9
col47:   58657A99587779D6598C8B7DB6A698ECDC6AB8A4CCEEBCCCCADDAFEAEBECCCDCE9CACA78A9EFA9C7
col48:   6645A9BB893859BEA97B5B7A76999BB9CC9BD9CB3B9DBC69CD9ACCADBB9CCADAB9AC8B9C8C7A8AA6
col49:   365A59AA98B8AB538865DE996C79A8A8B9ACBD8798B8B99AB9CB87AE99BB8B89EBBEAB8489881A88
col50:   A9AB66977A8DAA77C7768B9A8CBE89B998CCABCCDCC9997B7DABBCAD8C7BDFCD9D8894DAB9BACEA9
col51:   7559785B799616696B268777B9AC577A979F9A69BAD5AA968789A9CCB78698AC8973A96A8A6BB957
ROC:     BPix_BpO_SEC4_LYR4_LDR16F_MOD3_ROC10
col00:   7559687B946A76C6954B8767694588B58B673898DB9D68AB987A5986D58C77A78A9674B986785895
col01:   5895487A57A86A8B3A885C76A7977A9CA68C9698ABAA7CABF996B99B7BC9BAB8CC998CF6B8A8C66A
col02:   379992745A6C86859976895A8BC799A589879687857C588AAA96A9CBA788C8995B95899866D79897
col03:   B769C6C8B6AA49E7773646998685969ABCB6B8BBBB99CBB99C8DB8D8DF978E97AAE7A976AA4B7857
col04:   66645A95286679895577A989859BA8DB85CA8998BF968D9DA9946AA4ABA9497E9697695A8787A98C
col05:   856788B68B9A6C596D7859BB68AAA8B8D57599A59A9CAA9B8A999CB6D7765ACAA6B9A76B9859978A
col06:   65AA767756836578577A8A67CA77CBB9BB7979798969E78A696A77BC8C8969E8DBA2B999A5BA9987
col07:   778AA8BD849A779A9C5A7A8A95ABBACBDAAAA889C95AA6CCADD88BC8DC7CA88C996997A798AC9986
col08:   83B9A4875827869867767B7887D89C8AA8ACAF986997689DBAB9DB47B88BC875A99C97B766C89A97
col09:   A9686785679CAAB87C999BC8A8969687576A5BAE55B598BBDCA9A6AA99CB9988EF8DA8B8BC8A9693
col10:   698977A6B97BA88579A968897BA9779A895A797B9BAD9C9AACAC6BCAAEA9468BA9C6693B8AA978A7
col11:   63988C6999867AA98677A97979D99CA77B6A87BBAA8A888A5674A8BAC8CE7A99DBACA7AAC6C6AAA9
col12:   64657845667877AC5BA755B7644D77A99BABBCB8E8AB9698C54A75A969B89B66BC8A9C7688A7ABD9
col13:   864457B486B7A6676CB7898B8B9AA9EB9CC5CC679AEB89A9C8A8DB7DEDCBA9A8EA9CA8997B9988DB
col14:   75AB968438C9A2AAAAC878AAEA86C899C779A9A49DAA7BD76AFBABE9D7EBD9BB877936B8A99BA987
col15:   496963453884AB899C9857A58737C7AAB76DDBDBCBBAB79C9D888A98C7CAA694FB89A9857D96974B
col16:   79BA968598896A77988B8C9D7A87999A9AB7B85ACABACBBABC888A6BAB67B9A89A758B68C76B5C88
col17:   C147485B69756BA89FA9B8786779EA8A9B77886BC6CF879CBBBC85BC9BA9A7A97A8B89978BC9CA87
col18:   45798886B7B7AAAB88797ABD5669B7CC6A99AB8A97BCB9B8866B587A7CD6889BBAB8A8ACA84859A6
col19:   77C8A9766765989856CA8DC9ACC88D7BAC98A76785A948AAB9CA87998BDBB99AC8A8978A78B85C98
col20:   3366378AA79AD66A888A58A4B98998AA979CABC8E98AD9DCCCA7B7A9DA5A9999C7986AF688A866B8
col21:   9696C8776689CA9CA9986685AC858987AB7BBCA96A9997997B9C7D68DAA8A948CDAA8AAA999BBDA5
col22:   473489497A39A397888B56897967A9C59686A88DAA96B54E78986B97B6AF7B99A49A7A77A89AB486
col23:   574287C79757AB2A978A7A997C6C7DBB8887EB7C76AF66B58B3C9A87ADA98CAAC698896888885945
col24:   234489678C95789869697A87987C49BC6978992A9A888AA597A8979997788ABE7CCCDAA8B86A9668
col25:   5948A98A7794A59AB8AB89B7DAAA8BB7898EDC9DCDBC9AA6BABB79AC7BB67DA7CCADBA9CA9A19B85
col26:   64A9CAA8A7B88B49899C7B7689CCB8A9D89FA6ADB997BCBAAEABC8AB8CC8AD9998AABADBC8CB9AA7
col27:   68588A997748B7776A96A8CB9BC999EBA988BCDCAC7AADBABB689ADADCAABD9A9B98ECBAAB87DA69
col28:   9767A79B996B999AAB89AAB88ADDADB99A5BCBBDD8BEDA7CAAAADACEACA9ABAA8ABCAAAA84DA97D7
col29:   6786D9B8AC9A7789BB6776755E8B9AE8BEDBF9CD8ACAEDA9D6A9889BDF9BE7C9BAABCBA89D8ABD7D
col30:   58A98487CB98879BCA9979AADABD8C96B9BDDBD9EACACABBAA9E9BCBBDEC99DD8AABA7A89A78ABEA
col31:   8796C65B39C6A5977A987BABBCCDD99CAFAF8AABFFDAD999BADDC98BD9B8FCECFBBA89B8E889BDAC
col32:   87B797AF3B4988C9CB99B697CACBC88B7AC9CD9899ACDDCDDACDDE79A8ED9DB9988AFEBB8BA9BB7B
col33:   B8AC7887C676BB88B96BC9CBC8BBA789BFAECEDA969DCB9BBF6A6DAAAAFD8DCBC9ED8BAA9D999BC2
col34:   85386C8A8B8499DBDA8A9B78AB9E98FB8CBCACFDDCBDCAD8958ADADCC7BCCD9DD9EBAECEB99B9C99
col35:   C8A78595E86C9DCC9CC8ABE9C8B9D8D8ABC7C9BCD9DBBABDCCDBCCBDACEBBCCC9ACAFA8D9DBAAAA9
col36:   BB96BB6A98CC99989D9BAE967ABAC969DB8BCBABEBCCFBCB9ABB9B9FBD94A9BAB8A7ACA7C8ABCBBA
col37:   776CB76BADBB997988A9DBDAA9B7A9BFACCDBCFDBC9CDDFB9BCBA7EBFC9CDB9ECA9A9CABC7A89AC5
col38:   AA9CAACA8BA8BF8C9796A9B9C8C79B9BDCBBB8D9EAD9CC9A9FDCBCC9EBDCEB96BF98CB9D6CDAADC9
col39:   7B9A99B8A7688795ABA9AB9BB88CBACEDDEDC9A9B8CB8EDB88BBF97FCABC9DA7C89B9DBEDF79A88B
col40:   789A578975AABB8CB96AEB8C9FF8FBFCEBA5BFEBA9CDBACBD9BCDDC8DEEFDADDDAADCABADB9DC8BA
col41:   B93A886A98875CEAAC8FBCBBE9ACEBBBBDDDACDCBCFAAEFABEADDDBDA9CBEDFBED8A99CAA9F587CC
col42:   5C687A9CD9BA95CA7A6ADBCABA6CB7D9CCBDEAEAB7EADADC67DCCACCBC8DAABB985CEDDAAB999B78
col43:   BA9D7BA8BD9BBCCBCBBE9BC9EABCBBAADDAACCEAAC8FA5DDCCEDDEBDDCDCCD9FB9CCCBAFDEADBCE8
col44:   9796BC8CB997CA889B9E7D896ACAA9BBBABBCEE9EBCE998DBDDCBCAEEBDCDADD87FDCCC7CABBAD79
col45:   9876788BBC9B5AB7889BA8BADAB9BFBD9CDDABB69FADDCA9ECACCDC8CBBF7BC9ABCCA8B97B9D8E95
col46:   9A9B5C65B9666ABCBABA8ADEDBAC978CCDE998CADC9FDDC8FAD99AFCCD9B9EACCCBEEDCF58A99BA9
col47:   9EAF7B8E7EBB7BDBDADDCCBBBFB8BEBAAC8F8CE9ABBD9AAFECB8BCFBECFAECABBCBB99BD94BDBDDB
col48:   8A68ABA99D6CA89C9AA9ACBA8C88AACDCCCBAA88CBB5D9C8ED9FBA8CDC9E8CACB799BA6A9D8CBDBA
col49:   6DA8D79A8DACBAABCCB9C8BDBA9DB99E8DFEFC9FDBFFCDAEB4EABACDDFD9CDBBCCDADDC9CEC868EB
col50:   7C79998CBD6CCE89C6BBDBAC7C8DC98E5CBBCDBA8ECDCDDECE7CA9ACDC9BBFAF7BE99ABBBDAC986C
col51:   698777A3BA9D4C65467A69AA8B85BCCB9975A9E8A999A76B99BFCC79ACB5A897C999A798B698B7DA
ROC:     BPix_BpO_SEC4_LYR4_LDR16F_MOD3_ROC11
col00:   7B4776525C86A357845764A9387AA585BD7777B6AB9878C9B977C7ACB799B868AADB582D58364A98
col01:   42827B976855AA9A856A93AA786C8D7ABDB5ACDD7996B659DB9CA9A6A7DA8BAB5766A78EA4B96678
col02:   97765944495997A8587A417D7AA678976BA8B96DBAA899BA48AC7C98EA5A87A39759E795D8684AA6
col03:   892474697A77878869A86AA68ABC8BA3ABDA3BB687BB8C87C89696CC7D9CEA88CB8268965B64D9A7
col04:   66739B639B758897E85C87CAAA63C3A17B6D9AA78CCB998AC7EA9887EBC7A9D9D49875967A8679C5
col05:   6397357B684889B35C865986BAB7BB88A89D9BC795CA4D864E9B7774A796CD88CB8259B9B976A486
col06:   A6B6A97995B8689AC9A7ADAC98AC995DC98CB72DE868D5A8D8B89DAB9DA899CCFBCAB7696AAB6A83
col07:   2956748BC864B866AA669997B8B7D78A5F68A8CC959C69A896C9E9CAA99BCCAA98B7CC1CFA85A8CD
col08:   841B6987368553754AD7A2CD9AB985779FBB8C4C87C7EAA987957588658AA8F47D8EB6658AD67885
col09:   459AB6876A3A85994C94278895DB89835979CCBBACBD8DB8CACCC87FB9FABD575B9BA8CA8BB73757
col10:   43A99617467488C68647D674ECDBDD9AC7849A94AC877B9C7B77E9F9B69B785BCD5479F596791797
col11:   69833A83AB91C8679599676963B98CAD6AAD589ACEC9BC99AA577CA998A6BDC76489A558A9CA4588
col12:   7B5517C4717B59888AC9E75735C9CCCBBC9BA7B8D7ACB797C9964779A9FACB9B9D9BBBAC7A46AB83
col13:   A48874B67DC8B87C77967C9798D8A4788BCB78859BAA77BCEAC77BADB9C898B88B8BD8B7BB974B89
col14:   A9465897868B648A6776C6C66A9A877ACB7CCB6A3989A57C59869B8EAC87B68D7693764B9639799C
col15:   84246784677B85B58856F87A9989AB9A8D8B869A7A689CBEACAB9A7FCEB89A88AA989BAB6CB866B3
col16:   32A7A237A982558333D9EA56995B8952E6589BBBEC4746DC8998C9BB8888A6997AFC5AA58D446373
col17:   5453C569A61B59A58987A72A48386A78CAB587A899A7995A7F899DA87B9AC98B68435C8AA336696A
col18:   5B7894A746633A967576D9968A9B6A6964E8C7A8C786CCA975686A96BE8A8DA4FBE976A86B5D1575
col19:   65A63975A7532A65BB73659C884AC956BA55BBAAC6CB88895FAAB8C7A8B9B4777A7C8A69C9AC6655
col20:   55887524961658367596694C98AC489C9B5877C975A7C8AB6D883789598C485ABD4B6574B899957A
col21:   66899B9899872CBA9486A857855987A398899B99879677EBDACAACE66BAA8B64E8C9B89986968634
col22:   3168A6CAA987A3976787994C7296E9A7956AA9A449C8D28C9B8AA877A97751FBB977AB278575784D
col23:   775617BC2A59896699928B5BB77BD5F6B782A8D8859AC88CD8FFA8B8A688F68B9AB4B469839B4854
col24:   874C848545A77B7B5874AC7AC78E9CB65BBABA7387C6ABCCBB679BBAB31526B86A9B9A7C5A976794
col25:   4554797688B47B6991C4B8AABF788CB859988AA88A8878FE76AC5B79A7A8A8BE885B6658AC8B6871
col26:   6F682AACABD7BB4B2A9A7D9FAABBDCBCCBDDBBBDA7FFA8F6EBED9ECBFD98ADBB69A76B9B87599ABC
col27:   48597779659BE785A65BF7D98B7F7C6A758A89A7D9CECCEBE99A9ED9968B95968A96B8BC69ACC87A
col28:   57A395A74A989BECE9A7ABACB9988EDADAE979CB9DAFF9FDCDB8EB7EAC98B779CCD8ABBC6AA93876
col29:   8764688C67418B8BA5A99A789B99DA95CBDABBA66C58D8BAB9BBCCED9FFBE87ECF69EC9BBA9A6BB9
col30:   7669898979688A9FE7ACB77FBEC7FF999FD6A9FA7AAFA88CBDB8BDBFEF8EAFB89BC77CDB7B7B99AA
col31:   B7898A8A9B87988FC857479BB9C99AA88DBDDDA8ACEF7EE79DFDFCC9DBF6B77A8D77F797A6FBCC92
col32:   836748D55699B85AB96CDA8A7BBAD89F6B9D9B9ADBCC8BADBDE7C8FB9CAC7EC8B79994799A9B9A75
col33:   95988A99756689BBADB848BB9BAFCAA9886CB9CB9AEF9B9978BB74F9ACAFBABC8ACD6BFFBAC66DA7
col34:   A59BACA4AB65AE9A4B36CBC8CA97AABECC9A9A8ADD8CC9CDD57FE9B8C5C789AB986789B736B82A78
col35:   759787A7BB3BA77C9ABF78B89ABC789BCADB7B88BFAD49E8BEBABCCEE9AFBCBA89A999ECF5875657
col36:   7987A99BBA789E68849FEAB6E9AC5B7C9FDDCFDBEEFDBDFADF5AD9BACDCAD79F9DA8C96AA8A7C4A4
col37:   D8B7CB6857797CA6A9B79977DB8DDFAEECB9CBB9BBEDCBEC8C8CCF7CECDAAA76EAAB9EEC77DA69A7
col38:   57C978BB7AB6B6C5AEC9AAE9CEB899EABDBB8BFECACCFFFF98DDD68ABFCCA99CDD89BBCCBBC8AAA8
col39:   9C6889699DAABC98A999BA9CEEE7FFDB7C7AB98DAA7B9FBDEB86899BBBABF88EAEA897AD959B98A7
col40:   895BBAD8988A7744EA9889BCFD8DEDBFAFBBCBABC8EB5BBCF9C88EA9AAC7BA8CBC9EA9FCA8A6AA98
col41:   99D9B888BC66BC678D7589CC7BB7CDA997A9FDC9BACCFC6DDD999AAAA9B8D89A9A8C8CAAFB969FAA
col42:   A59A5A7848368B878CCBACA69697C9AA9A9A8BDBDEE9DE7CCFAB9B9DBD6ABCEBD9BCCBACAC8D84BB
col43:   4A739A698A15AA8B94DA8C8D6CBADACDB9B8F5ADEDCCBAAC7DCA5A6EE3C89B9B7ADDC798BB8BD687
col44:   99688ABD8ACC98AAA515BBA9EC99BBDCA799EFACA96A9DCE6C9FECBDFFBBFDDBC58B95DBE4B8B9D6
col45:   8A68B9C9BD9587874A7CA8DD89BC99FF886DD877BAC8CAAFBB9EB7FF8ABCAAA9CCDDBB9EC9C9A9C8
col46:   99BAECB7A89A67ABDA9ACBA799C99A9EFF97C6E7AA69C999BFBD8C4BCF7BE4ACBBDEDA9A9CAA7955
col47:   99A8979E768A8DC895A97A7BC95885DDDCC99FC89DAEF9C95C8A89FBDCBBBE9BBC8AADBB7A994995
col48:   7F74A7AA5C8C9638B83A9DAA7BA7DFC588AACDCFA8DCBDDEDCBC9B98E86CADB87D7D79949286A7C6
col49:   97A5C6A68E5A84BAC8BB68D77CACBBB9788967FAEADDB99DD9BBB9A6CE9688BBCBCDAA7C8ABD66B5
col50:   479B7ABA558BDACA48A8ADEBA8E9CDCFBCAC6EDCBCBBCBECB9CAA7A9B8CCCB7ABABAB9A6D6597BB8
col51:   65469BA761457387896C89BBE86B7A47A4788D9CA67B8C8CDB7A6958876A886BA9688B52499664B5
ROC:     BPix_BpO_SEC4_LYR4_LDR16F_MOD3_ROC12
col00:   4283726476556A9572534757A4847A16489A5383964778845AB681784766A646384769B369912363
col01:   5768A44A697844ACD99A78C5AC788693965A8A899B3878CB74C7AA8975887A5A8788976C597A4766
col02:   5D3798566A48869A8565895458587B5A75B76A95B8A56D5A5755975556ACBA6495588B83928598A8
col03:   71676B789D571A7A797759A4778B8A7CA677AE6BB87987C98D8BA999EB729A53C679353677437786
col04:   443866B8AC988A695A795987B9CC9F79969C386C498983B7AB8979CC7B45598878BD579688B3AB84
col05:   75513A669A755949992BC9A877CE9C86A57C8A5988A498B98685D987BC898997A68B69367755858B
col06:   A232B86868685A4AB5A8B45997E88DAAB17A7B7ACB66AD5B885C76D437A76A72C865958486898576
col07:   8A9691976C9CA55488A7C9A789599AABC9AB8B87CADD7DA67D54B8AA58A97C68379F93A898377977
col08:   966A8A6D64878BAC5A28C8A88652A6888787CB888B89B79969B6776A8D9573C7B285DB5884E93766
col09:   582598788A9984587857EDAAC9F8CC89B99DA6D9786BA9BD38AA798C789A995C689795993478CB63
col10:   97987A1337974899DCDA6875579AB8ABA8BAA8ABBF9ADCD75A7C5DEC8976895CABA757A595748659
col11:   4577937952BB9795669E98997CD6978979A94CBDCB99A89B69947AAD92B98657989BA86959884585
col12:   AA87858266C88859698A6AAA9AB88899896D8BA9C9A97B69BC9B89CB8657878489467AC7869649C5
col13:   545975895BA5E699D9CB7BBBB7988A8B7A7DB88ABC96BA9AA8B9AABB6A98B7499388656D9777E735
col14:   89857998B55745928ABBA8982C58A89979BC7796898BAB897BB8899AB98C6845AA888A562BB59665
col15:   651272764995A58ACA9AACACA7AC887FCC889A9DD6B79ABCBAB7DC8387995675A8B5CB3685479629
col16:   4286789468378BAB6758ABB8A6CA7A9AEDCA68889ABB78C766B9D4696ABB877BA784445B53A86AB8
col17:   7776A886B59459B78A996B4B6769C86CA8A8999B7AB7A7CB3C6667BBC8A5B5868965BAB957866AA5
col18:   755266A48B9584B59888D9CD785BCC6D8998667D8B68AAB89AB589CCC78E989A969D886795B79798
col19:   567766E4A75699478B74BACA8CB29598EC87779A899C6BB9B99ABAA787AB6A6A6799875887694881
col20:   65965F6689B8885B8B9BA4B999478B977AA8EA694896778AA7879665B7C38A76496A6AE7A9995C67
col21:   6789679AC9BAA6A4A9F99CB676A6339AB9A966B99BA6CAC695EB87A9BB5869595B47B59286AB8897
col22:   83889A75876969A87C6BA97BBBB96A9C9729D378C9A69996A858A7E9D49AB936497887AA6DB87489
col23:   A78667AB9667A57B589CAA9767989BC98A4A77B56BBD7A8A9799B88E9C877AB94965BA4856B66A88
col24:   3A2448667976678365857B46CA8A8695966DB7BD79A8BC96DB7C987A86857BFC589A77568BA75679
col25:   947589A698967B8985C6CB9BBB7CD8EB7899BC8A977A8FA79C6C8BD96BA5A8CF9B6979B7BA6AF338
col26:   A8998B5A7A8CB7BDD8EABB96B59BADA8BD9A9CAA9D9B8977DDC9ADCC66CDCC7948966C88B798AA97
col27:   9D888C5BB73489B7CCC799AC7CAA698E6B6D98D99A9CDC8CCBAACACAAA996A87BF9B8AA6B768A787
col28:   B7ABB8AA67BB869F8B9EB9DCBACBDABABCA8A7CD7CCAB98CCBBA7CFBDDDC8EC9AA7C989DA559B5C9
col29:   A888A7CA885899FAD58BEBBBBAAEA9BCCBABAB88EDCB6BC9B9BAB889B66DAABB899CCB7CAAD8A9DA
col30:   98C8ABAC9AAA5C7AF85A8CAE6BABD89BBBCBCC89DBC876A8ABCBC89A9A8CBCA89D98C758A97DB488
col31:   B88D99A89D7A678B9CDAA997FCACBD8BDDDDCAD9ABCEEC9CEBDA8C6BCACAA96AAC8D8FDB8875BE9D
col32:   299AC4AAADB78BBB6C6FB8599BBCAAA9DBEAEDC7AADCFC96CAECF99D8D89AD9EDFB96D986A8D8768
col33:   BD4879A37EAD88A87CCDD9CBD6FAEBEBBEFDBC779A89BBCAA7AC85BCC97BCDB6DD8AA689B78BD97C
col34:   B8BABACB99BAAC8BADBBB8DB9BEADBDB8DFB6BD8988ADADACB8E78A8AAB8E97CCAAB97CDAAAE97A7
col35:   6A98B9BA8CCA7B8C3EAD98BDC9CB5F9BEEEDBEA9CC9BDCBACEADAB8BDBDAEEBEB8ACAA7A8C8E9BB6
col36:   8A7D9BAF999A6E9CCCC68BDC9BCAE98BB8CEDC7EACC9BDDAD8ACA99D9BCCB9A9ADB88688C99678B3
col37:   9B5268C7D7B88DDADCCD7AB87ABB7DF9CBABFDD8DD79EB9CCC6A9CBCD9EBABE9BDADB6ECAE8BB586
col38:   7BCBEA6F8B9A8FB798FD7BCCFDAEF9FC49AFBF7D8CAA9EB8DD6CC88ADC7ABCAACABB896A9CA94878
col39:   89958D6BBB798BCBC8BCDAE8CACD7BFEF8FBBCBDDAEDC9A8CAC5AD9B6ADFA8BC7D898DA99BEC99BA
col40:   C679C5A9CA9ABBBA8A8E68DADCCADDFCCDEADDBBAADFD9BBC79999F7FAFDEA4BA8CDC99CBA6C8BBA
col41:   A998ABAC8BA9CB8D9CEBABCAEBBCEFEADBBB9C7FFBDA9DDDFACBBCCBBDADBDD98AA6BABB9BA69DAF
col42:   A78F9989AD9BECCBB9DCA87B8CFACBBCCAEDDDB9FBFCAC98BDDEAA9C7ACDEA98BC9BD85BC8B7A9A9
col43:   94E8DDBB7DDB6CABEBB8D7FE8DBADFBEDA8DBED7DCEFFCEFBABED97BCFBDDDA9EBDCCFDDADCD9A96
col44:   86D9CCCBACAABBDC9898FDDBBE9FFDABEB8FD9EBCDAEAACACDABDCCDCDBAACDAACDD9ABAAC8A8BC4
col45:   B2CB799B82BABAA9978FBFE9CADCDCDBDFBAF9BBADCABECADBCC8CFC9ED458D99C99D8B5CB86DB88
col46:   D9D5B7CCCC99BBC9CC76ABF8FDBCCEEF75EF9CAADADEBFEE9DAC6AAFDBFA8A9D6AE9B8EB7A4BECB9
col47:   8B8DAAACA7AA8D9ACDABD98AACAC8BF9A8EBBB8CF9CFFDEAABD7EA9FCFE99D9FE9EEBCC9F7FAC8CD
col48:   C7B9A88E87DAB8CC997C9ECDBDAD9BFCFBDDCEB9DCFA9AAE9DCACCAFFBCDDDEBC8FC8C9879A7DB6A
col49:   ACAAA69C7EBADA9BAFFCFDDBDFCE6FEDFDB7DEBDEBDBAAADFCCBABDBD8CDEEBC9BEA8BACDB96ACA5
col50:   BACE7AABF99A7B9C98E8EE8C8ADD7D8D8EDDDEDFBCBD99BEBA6D8B9CDBBB8EBCCABAB8EED9BF9BA5
col51:   9B9B6BCB848965BADC999FBA79FBBA4A6AB9EDACB9AAEBC8CF8CA7AC8AC889E8CAD96AAB868799C9
ROC:     BPix_BpO_SEC4_LYR4_LDR16F_MOD3_ROC13
col00:   152B3166349786E38459668BA66569A9B868997BAAAB8AA75267AD9B9A7A9B77AB736192669796A1
col01:   6646883B86963657878847788AB5CA99AB7B58D6684989A99D5C9AA8A686899A98A9B97566E6B469
col02:   38A79848A887C7C698589A9775B7B77988AB898777798D5999D9F6AABE85D4B48D78595998768686
col03:   9B9C979677578179877A889649AABA6FDCAEC88E75CF7D97CA9379BB4B896AAC665A985B9AAA9873
col04:   69574AAAA59B5AA898759C89558988978F9B6574E98EB7BAD96997997B6AB8C5BD7A47D49B8937C6
col05:   8987C867993895B779BA7786487FCB76A8B7998D9B66975CD8BCA77B9F898886988993458AA2B9AA
col06:   66568877A9955587B89C88BA9AADB9B89C99BADB99989AB9978589B99CB586B9A67A797789966A43
col07:   87679484A8C9917858979789C8786D594A7B98A869BC577A5A9BCC65D699A8829A69E4AA966E9967
col08:   7A59A7599697449863785C777846D8978EBF799A97AA87869A7A9779566755946489957AA7458A7C
col09:   918368456792A6B489C676B687AAFA96DA88BBACAD6CC5C9DAACB8B8B897B59587CA8C87898B7246
col10:   8762675BB755679A975A69B3757986A8A89397AAB948A7B9AC895698888797739575866968A65864
col11:   45B7495539559B53C795BB5987B5976BB79A88A885CB646AF9699ACD788A98565526899599975445
col12:   69782475B68AA7599B779B7889797A85A79B8B5589C9A89AAB56B5BD989977667BA5777964A9378A
col13:   5A6B2781598759669BA854C68C8BA795DC8BA575DBE9717F6BBB5379CE79AD8559467C9759A64AB6
col14:   1666969A663B7347668276B59AAE768845779D72A9B58DA7C97997B68A89B686BA777485667AB677
col15:   334566571885996A863958B5D5B85A9A7BAC7BBB8998CA6BB8DC5BBA789EAAB8C99859C799A37859
col16:   3A866957167589A9A5A851789AA7B8BBC8BBBCAE565EB6BCC59EA83BBC7B8A99B6C779B58A59469A
col17:   6846467A986569CE57797686558897677885A896C798DABBD88DCD7A667C975CAA49B974746A5957
col18:   787ACB9B568867288843788AA975799D88B7C888ABF8B83DA6C88955A75BDE87B9AB7BABC6696848
col19:   79CC2445B7773565B7A97D5E8C89A7AB676CEB4AA98A8D8B8E86A7CA99E99B58B76EBA4798737867
col20:   78584589D67699A77C68AA95A667D79A6A48999889984BCB86C59A78B77959C38B687CAA869B8995
col21:   97A37687654C7798BAC87BE678A4A9A769B9B99A6D4688A7966AB6679CBD98799CB779989A4995A7
col22:   A8C6662A5C15989C88896A8CCCA897A5A678CACAA8CA6DDBAA8A7CAFEA789797879A929A9937886C
col23:   5597B78547771988866476ABA8AD4CA67A88E692888A4BBA94AFAA97996968CC9A97AAA77A888657
col24:   655931698BB94798A8C6A89AD59B87CE9AB7359787A78AD8CAD8A7674A8C919ACC97A68A778549A8
col25:   98A7AA7999C38556B5788ABA9CB58A9996A9BC997858B59ED589689A8ABC7BD97A98987CD8894D77
col26:   8B676B65B9A7C987C78C8CB8738BC98A8DCFED97BE9CADA97DC97B5967AACADABCA779D7A9977DAA
col27:   89777ACA541878BDA887C98798C9B7D8ADC5BE947EF599A8C899C9BBA6566777A8AB78A6BBAAE58A
col28:   AA58777B88C86D7C7999FAACCB99ABC5AB9CEA95968AD8B6ADBAACDDDCAF8C87DB87CAAB94878A9C
col29:   384A599A977AAAAEB74C58A9DBB89C887BBAE7A9ABB4BD4E9BBD6AECECDBCBA96DB9ABA65DBBAA5B
col30:   454772866ABB8B6DB99C99AABBA57879CCBC88A8DFACAC9CE8888BADAB897BDBCAAE7A9BBC897B59
col31:   A6AAD6C8A665ABC78689D999E9B8BCA9AA7C7987CCC8A9CAD94FE99997AABBC68CAA7F8AB7A7AC98
col32:   B4A8E78A798BAAA9CF8B77D9AF6CC9CC9ABBD8A6AC9CA998E8ABCC9A9A7BAB9CABCAA89B68779D77
col33:   94B5C7A6CD7DCAA5D7A8AEB79BACCCFACDCBAD7AE88AAFCCBC49BFFC89AEDCDCBBC7BEAC9A7E8969
col34:   56897ADA89ACD977DAB9B9BEDBBB8CCC9ACAABE9EE97ACDA6BB9BC9EBF9CBDC8BC9F3C9A5695497A
col35:   97A76BE957A7AB5A6D9BC77AC887B8AAA9EBDC9ADA9BBACBEC7C78BB789E8DBEEBC9BA79CAAAB875
col36:   947B98AA7AB9A9A89BEBBCD6C9EEBACDBAECD97EF98EB6CABDA8E7C8E9FB878BDCC89FBEBD88C868
col37:   69A87B98F8CBBD756AF76A9CBDDACDBBDDCAEBADADDDFCBBF9DDDCFFBC9DB6EF8B9BEDBB68996886
col38:   666777778BAB9AECBBAAD897CDCDCBDAEECDFAFFCDCACDA8BABBB89FCBECC88BD9AB5AB7F98DA9BA
col39:   795C7C5A9FCE5DB5C79A7AD9EEBCADDB99DD8BDBB8B9ACFCB98E9CBBAD7AEBBB6C8ECCDB8AAC9CDB
col40:   376B5ABC8888AAA9F898BACC889DDC8CF7CFDDCBAACCCCF7EDF9BADFCDFACAADD9FC9ABAAD7A7C88
col41:   CBC8A7A888B7B65B99BFEAB82AFFFDCE8DDC9D6B9CB9BBC79B89B6AEAD99B9CDAC9E8A8EAD4A8798
col42:   B6978BA9DA5DEA97ABABAA7C7E6ADBABAEB88BCBBCAABF9A89CBCBFC9ACAA87BDBA7FBC6EA96ACD5
col43:   ADCA957A9CDBC9A99597BBF89ADFECBCFEDFCADAB9FAAABB8CADF5CDCBB8CB8ED99BDFCA97DA87B6
col44:   A88A9A5D6B6ACD8A6EB7B8EBECEBDAB97BC9F5FACCBAD899AB99D9CBAA5DDBA8CA8CBACAA8ACA967
col45:   CE698AC9B6A8B786CA899AE8A5DCDC9BCD998B8CD8DBBFECFFBBBDABC78F8E6EFB98A779D98C9897
col46:   78868ACF8C6ABA9CBBCB99CCB8B78BE9A9CCABBECBFCFCBBBDCC98CDECAD9BBAC98DC9B9C979E7B9
col47:   8B79998899EA89899EBF7CCD5CCDAAFB97EAA9F8BEDCDAAB7DBAB669EB6875DCDA9DD85CE96C77D7
col48:   86964987CCCCFC9DA98CDB7FCDB99AFACB899F999CDCC9AC9C9BD7EBCFBC996D9DA89897E9559F8A
col49:   98969899B6978CCDC9BBC8EB9CD89AB88D9BBCBDDBAFAACACFFBD59CFCB7BEBF3A8EBD7BA6B979B8
col50:   749A8A78DB9D76992C9BBECDABDCABEE99EFCBEDCC9D7BD7BC7CFB7CFAABB7AD7E9CFABB8659C98B
col51:   565BA4A9BCAB59A98778898AD99CE77BB5C8B7B9B957A7799896B97B863C6969B787A87A879966B8
ROC:     BPix_BpO_SEC4_LYR4_LDR16F_MOD3_ROC14
col00:   6336657458A784168628A966AB779A978A7A279978B4C81458664777775658A964AB587653376754
col01:   73664759644C7A668BCA9CAC7B98989A78B9B9AA967CA98D6BBD797A998A5886577687B88746888C
col02:   358A94946865A8568869A777758CA5B686998898C77A8896A3575E78AC3879946AC8B666B4762A66
col03:   52A998756875C1A7A668C96B8DA64A77786B499A9989CC7D9B97953BB65CBC5A77758AA557677A97
col04:   346625191B9788773C5ABD497A86765AD579558BA97A766A98376AF8E989ABA778787757C5687437
col05:   783298B8786955979B95E648C67E679A9A89A7987A864A586A799BCD89664A69C9438799A7876771
col06:   A6444679788886BA18593A84B67ACC69A6EBB9678848B799BA76B558567BD5827B8C6C3788C75D5A
col07:   85878A8A6987787896666577A68B8A8AB98C698BA87B96D9CB964428AAB59999867759B6896B76B5
col08:   7866471AA547A63CBD94AACD89CC9A5C9699C7CBA66BDC6C86B88B4CA69B7EE57747AA6EA47AB6A9
col09:   815B75677877D7657867B56C88B75B888F8BC7A98ABCAD9DD98C7B6B9A886759D9C8B39896A65A38
col10:   A9683877A6888C8847C647BB597B6AA8FC8ABAACA5AAA68C988DA8BA9A6D6D9679F3B7B5744A9756
col11:   71C943984768966676BA86487C7AAAA8B7896B9ADAB9479CC8785C8B96F53668AA8789647975736D
col12:   77377A866743487A4B8229C99979BA88A589888BA938AEA8896398DD879999B9A7196B24AC647B73
col13:   76863485649193798B7CBB69BAB8579885869B8B5889A999A4887887B8787847A694A939AC96B955
col14:   729594464999789D98CB6BBEAAC87EDA68E57DB9AAC89A8659999F6B77BA5A6B6688568999867999
col15:   D97872A683765B86A688EA66C3B9A99EBA6A97D7ADA8A39BCBBA8B36CDD66856588A9B99B68B3BAA
col16:   295ABB8137B667A57EF3B67B7887ABA74C89AD8B6876D657899DBAC87695CD978B8D667855677A58
col17:   9569AB6A678B8854B8CB8A9796B99A79A9BB989BC88CBACDA719A9CA9A5977C9777697868A86A247
col18:   772843781759977C764AC69CA787A8B797D76A9CB98B6F8996AB88BBAAB68B49B67AA7787746964A
col19:   87898A8A76B39CD9A8996B88CBDD6C9BB6C989BCB9B4A8BAAE9AAAB987EC997BC8D8AAA9B9762F59
col20:   396B7AA884597689A73A77788AA95B987A7D69869BCF7AA599959BAB5776669B78ACA688A9497993
col21:   B8648966B39B788779A378959A8C59868B95489889BA9CB86A8CC77B9887D96A777848867B857884
col22:   78A76B86686899676C68B7B97B5A966B987A6A9E8968ACB5B6D65AA58B978BB89E6A895BAA487656
col23:   7582658646A66386ABA68A6A9A9A777C62B7ACBD9A9ABB7D7AB9B8BC68BBA84986A994B693493AC9
col24:   64888593C685787C87ABBCB7CC57478779997C798BA9B88AA85777789889698A8B86786CA9739988
col25:   97998B89A94DD9CCC987778C7B99B5BBABAC9B896CACBCC87B89B8BADBB9986B86BC87CA8C72695C
col26:   AB88A85675DCA97C4B9DE9698D6A9F5DAAAF9AEA887BBCC98BEDCA7C88C9477CB8FBF8DBB9BA7AB7
col27:   C79A9BAA74449677AA88BB6779BC7CB9B9BCA6B9A8A8789AA776CAFBDBEFBBB889C8A8B7B6BA8B4A
col28:   AA76578C1A77B68B4CADABBCEECA9BCBCDA9ACEA69EADEAAEDAFAAC96CEBAA7CAFA9788FC9E68999
col29:   6987C7C9B59789659DDA9EDCADDBCADB9ACC9BE6DEDB7AC9DCBA8B9BDBBDC7DB99639BB7AB264BB7
col30:   B7A677B6A6788C7789DB898ABACBAFB26A8ACA78C9A8CB8DBC8EB967B9BAB6BE98B7B2876A69B469
col31:   3B9BAC88AAB98ADBBB8C998BCCC9A6BCB499DBA99E7FABBAB8AEB8ECCFE9C77F98A998599C58965C
col32:   87A69C89B5B9CE9C89B98BA99EF7A9CC8AF9BCBA6BCC9CEFA99ECEDB7CAA9D7C8BA8639CAB59BCC8
col33:   959CC86669A838B89DBCD98B9B9DB9AC8EA7BBD9AA68BFFBCBE9BFCD8DFAB9B69ACD8977C897986A
col34:   77CA489767CAC7CACDDBBBEA9ACFDA7CCBBCBCADCC6BA9CACCEFCACCCEDBBE99E85E7B8BB9889B58
col35:   6778A96587779CBD7CCB899DB9C8CDCB98CB8BB9CABABCEADC9BFBECDA8F8C98C8A999C88A87BAA8
col36:   AB5C899AA99A8B9B6CC9C8A8A8A99A9D8BA89D7ADB9EADB75A6D9ACE98FBA98C88EBE8B8ABC7DA89
col37:   DD8D759A69BEB7DBE76AAC8BDD9AC589BA89ABD7FEFDABBAA879CC5B5DAB8AF75D87EDBDA9DBC8B7
col38:   C8999B66D98CC85AEB7FBE7DBCD989876ED8CFCD9ABFEC95DEADFD7BDBAEDCBCB9CACD9C8AF9CB8A
col39:   EA98EA99B5788AC897577DC9D5898CFBCA88F9FF7A9DBC8FABB99BDEE8BF8FAC85C6A88B8BBA7B9B
col40:   76AC9DDDBCB9AE9A7DE799CCBBBACBCAFAEBCFFEBDAEAFBB9DDCECACCEAE6DFCCA7DDCD89E8FA884
col41:   6A957CA9DDBB8BC7BBAC9DF9DC4CCAB9AADD9BC8ED9CD9CDDBEDB7EFEAEBDCDD99CEFCDCB8BF6A88
col42:   B84EDADDB669798ABFBBA7BCADB7898A8BCCA8A8DDBC6ACBCADDAAEEF898AAAB7BB5B887886AB8A9
col43:   78EF6E9CAB77BE7EAC8DB8C9AABFDBCCD7DB9BBFC9C9CEBFC8BFDCCDFDDCEBAA9ACC77AADD8CAACE
col44:   BEC895CFDBAB8635CDBACACCD9DBCDAEB9BCBD76CDAAB9CAEE77ADAD8B8BBFDBCC7A9ACAA6ACDA47
col45:   48668AA88A8DCBECBADF7DC889CFB99DEDBAABADDBAADEDC9BCBD9DFAFEBF9ABBACBBBEDBA7BA7A9
col46:   889388A6B8D79CCBC96ECCDABFBDD5CC9A8CAAF9AFEAECB8CBA65CDEC8EA89C89A9DBF99A69C86DA
col47:   5FA9BAF6BD9CAACA679CD8CEBCACEB7AADDCCBBBF8CDEBEFFAAACA9DACDFCDBCAB8BCA67AABBDABC
col48:   89BDEC888B9CE7E88A6AFBDDBADDDAC9BDC8B7EACDB999DECBEADDCCED9ECF9BBAEC9DA7FCCA5ACC
col49:   BB6DBB898FBABBA8EB8B9CCECBFCCEB2BFAC9FECCCB9BBE8B89AB8CFFEBBAFBAC89CAA97A9CC8CBE
col50:   ACBA8A697B6B7B9ACD97ADBDEDCBBAADCDBFECCABEBCFEDABBB9FDABAFBE9ECFCA98CC6F9CDAAB5B
col51:   6757497C788A799A88BD9656DAA6BCCBA669B799B66A697BCCD8BD8AA877B7BA3AB556BA98956687
ROC:     BPix_BpO_SEC4_LYR4_LDR16F_MOD3_ROC15
col00:   3545847619597658797B83967B98657B888C57767365525A74668B47C79A9647B855874255664696
col01:   556B943ABC6AA588B863C94C98AA5B988A9968BBCB8AB87878AA87DA9B89B78B7A6989ABB63A658B
col02:   66B76475388895684766674B937A7AA69A8B8A5689898A98B66A6869A5878688947A9A858A576B79
col03:   78A9765A485672688A8DAACB75467BA99ABB9A7A7CB5688564999887D9989DDB79BA89996587A687
col04:   97B5477A8799A5985765A6BA9A9C6AC5899699799B79B789796A79CAB6887B39996B687877596864
col05:   6776479385578978A97659BAA5788A93959CA77794B88AA58AC8A95ABA98AA8AAB5D677689988548
col06:   86632688368775876A9A5BA7765A7AA8C67CAB98B879A6B58A998B99DAA99956885567459373B6A9
col07:   7888798875AB858A997A8799899B856AB98783989967BAACBBAABC6AD9AB798979E8966768657879
col08:   77759A3974976988774C89859D67C927A6A777B8B98B6AAB499DA9966DA9886DB58995396556C696
col09:   886648786788AC56866C6AAC678DABA9998BB9A4DBBA98CA9C9587868AAA95676589997B76957B87
col10:   785777587A978577996B6A68AA6BA88997AAB959689A8778A778CA6BA8A87CB9976D586958989576
col11:   5575B586798B59AA8592CB97B6A6BE94A8796ABC967BA994ACBBC769CBC76B9A9867A987957D8787
col12:   75885A48B6374948A867A698BC6B6695F9986CB9BAAA9A7BC8B866BC679C898AA8C797BA67B79774
col13:   967989357587BA57A679A5BCA879797ADA69EAA89C43798D79ACAA9AAAAE65988A79ABA6A5AAA966
col14:   6898B668866A5678649B5B989AA98A875A86C88DABBBBA5685BA6AFB8798B9A97684AAA565AA975A
col15:   7891747B7B89AB9778575898B7B69AD66C666689988D87CACA9989D998B76787C93895977B865667
col16:   774686688C868576786485A869987D6AAAA7CADBAA9B87B8A99E9AB8693BB9ABB8BABB895F7AA95A
col17:   3B838862775679658BA85A9CAA8C9886C8B78E8A5975BC7DA79899B8897867E779694B67B7A96339
col18:   536727796857BAB4DA6789889BC77D959A9ACCCA7988B88A5988597777597DAA7AA9A6787874674A
col19:   65AA78C9237B6779A97886A96969C8DB8BAD8CA82CC67C8BCBAABB97A799C89CA5B76BA7A6686575
col20:   8557676C85C84A555569A9979BC8B58A7B9A6479A66A899C8E8DB679C98B9B96688878A858588869
col21:   92899698777B554A77C8B85BA6BAB8ACB89CC9B9AD9C88ABD8CC999AB96C8AA8678B7C5686A7C797
col22:   685797B87485AA89A7A8A79A9878BC7D99B789ACBAC6988686BCAB988BAB8D897BBADB5A966897A7
col23:   778A5A877854789A985ADA838B98AADA9A6CC7778AAC8AADBAF949788EB688A96878A66B84677485
col24:   7978A896886848866A899B8CA6A6BD96D6AAB876A9ABBA8A7A8BB98D56AC768A888B99ABB6578846
col25:   453A95A787578A9A88659B9B48BBDE89AB89AABBA9A8B898DBBBC9A987AA9789AA68A9C8989686A9
col26:   87AAA96976A868C88A9B9C78BBDCAA9ACCBA79CDDBCBDBADACA7ABBABBAA9C8ABFD9B7AA7E999A78
col27:   6986789E73B795AA77C2598998BACAA8AC9C8AABB8CB68B69BBC9B98CEBBAABAC9B899B8DAA9698A
col28:   6B8B58B99A998ACE7AA9AAABD9AAB9ABE9DBEABD7B989DE8CCBDABBE9CEADA8866BBACF9B7BE96CA
col29:   9D9969998C5578CAA8AB77BBABAAA9A8BBBBBCCCBBBC9A7CCBB9CAABABBCCDCDB9BABA9769899788
col30:   9A979A8BAA88BCCA98788A9ACBB9CEAABC8BC99DCA9DBCCDAB6CBBDFBCFBB8B8CDA9BBAAA875C669
col31:   7ABAD8DA89A98CAC7BEAAC98BE87B999ABFE9AABC9ACAAADBCDE6EBABFBDA8B9DAA7CBCA7ABBB8A6
col32:   9A9AD9A89BA4A9AB7CBCCBAACADCADBCDCABD97DCDADBBE89DB97DCCCBACBBD8998A89AA97AB8B9B
col33:   766B98A979C7ACC8AD9ADBAACCDBB9D9B868C6EEEC79DCBAABBDCDCEA97CBA98EADBBECA4A485AB6
col34:   98BB889AA6A4C6779B9BA8EBC66F8BC7CCACCB8BAD9BDADDDEABEBBBADFDDABCAA7AA6E68BAD8BBB
col35:   DAAA8A99B7CABBBD98DBCADBBCABBEABA99CACCB9A48DD99BACBCCABBBCCACACBCBD9787A9998999
col36:   69BBB7E99779BCBDAAAC9866AB9CC89BDDCBEC69BABDCDBAED8BCAC9CECED98AA883AA98CA8B9B97
col37:   AC9F88BBCCBB8B7C9CBCAC7AD8DBABEC99C8EBECB8CAEDDCEDAEBDDBBEBDDCEECDAB7A98A6F9C887
col38:   ACA9BBABECB8CA7BA9ACB9AEDCACDDFADACFFACCDCDBBACBABFCCADBCA8BABACADBAAB8CCCBB8B97
col39:   9999B6AB99A7BC99BC98A96BB9BB86A8B9BFA9ACC9FB9BDBAAF88AACDEACCAAFEB9CEEB97E9BCA99
col40:   DBCB9AB8ABBC99E6AFAAEBB998CCECDFDAECABBBBACBD7C8DCBF7A9DBEEBCBAACBBAA99A9CC8ADB9
col41:   87CD8B9BAAAAAE8A9FDAADCBC8AEDFFDCCDACDCDDBDAAFC9FDEBE9CDDDDBBBCABEDDAF6CB99BBAAC
col42:   B79ABBAA8B98BC88BBBBD99BC9BB8AFFCE88BDBD9CBF9CDA8ACDBACFBDAAFCFDABAABB99B77FB957
col43:   DCEEFDCBFD9CC9BFBA7CABCBDABBCDDCEBEFEBCDB9EBBDBAD8CADBBEEDCFC989EC9DCCCCAAA9DBA7
col44:   B8BABDADB89A97A79CBC9CCBBBFCEADBCCFBAB9CDBCBCBAEDFB9DDBCEC9DDDC8AEBCA97DFB899CCA
col45:   A9BB7AABBEBCAFFFACADB89CD89BAA8FBBCDDEBBCB9ACCD8ED8EB9D8FCEEDD7CCCC9DE8C8CB6AAA8
col46:   BA8CCBB9ABEBDA8CB98DA8DDBCCAFA9BC9FCC9AB9ABCCCAADC9DDABDCBBCEC9ABDBB7BDC7DAC776A
col47:   BCC79ACBDD8BBBED8CEBEDE9BDDFDEDBECCF9DACDF9B8FFACC9EAAAFFCBCC9F9AC8DBBBACADCED99
col48:   CC7DBD9BC9A8AABC99ABDBABDD9EFDCD9EBADFEFF7BBECCE9DFADCE8DFCC9ABABBCA9BAAACA69DBC
col49:   CDCCBCBC8AC9CE8BDCFADEDDCCFCAEAE9CA9CECDC79EFECEAE9F9BADBFACA9CECBC8B9CC88A8BD99
col50:   BCEBBD9B947CB9BB6BEBFDFABADBCF89CCDCDB7DCCCDCECEBD57BBDADEBFCDBA9B5CEAB99C9ABABD
col51:   AC7A79B77B8899A98AA89999DD89898CCAADDCBCAA989AD9C59A9BAF55A9A96C9988A68B9E88B8B6
