ROC:	 BPix_BmI_SEC8_LYR1_LDR6F_MOD1_ROC0
col00:   bbceabb8acefedceceffbddfeeeaffffffceefcdcefaffffedffcdfffeecfafedfffcffffffefdff
col01:   c7577a68784a98988a9c9b97878ba7cbc99bb6abb99dbd9cacccc8aaeba87bcabbdb6edb9bf99cee
col02:   968449ba527a7d78b788a699b9889cbaba58bcba8a78db9deadbdc9bbbbcb9d89988baacccebcdbc
col03:   d678767585568698a7799bb8ca9a7c8ba8a88c99ae7ba9cbc7bd9b9ccdd6bcbdbbcadcebabcbcace
col04:   a974876689a8aa688878aac668b8cab5b98accc998989eabbcbc7bb9a9aeb9a7cbcbc99abcdf8ccf
col05:   a18846379bcb94b7b88a766b9d8cd9b99cbb9abbcb7d8ba9acaaacbbfd8ca9bcabdadca9cecb8bcf
col06:   c955788a889b689c777a6a9b58977bdb89a9adacacbc98baacb8eaeadd99cbecacab8cab89abbcbf
col07:   b69b64796956898a6b7ba8caabb9a9bab9886cda9caabe6acadda9bbdedabbbebaab989dbbc8d9ef
col08:   c6458586685aa5786998679878a7abb7ab9b9a9b9bbe9bbc69bc9bbabbecdbadb9c98a7fba49aa7f
col09:   b557479977b576879a77a7b8978b779d7b7a87ab9ac8b88abacc9c9b9abbb9b9a9b8c9c9cda8dacf
col10:   96589b9448455999a67a98976aea7a9eab6b8a7dcbcbad9aabbb9798aeae6b99ccc9bbbabfab99bf
col11:   f7789b67797567a9986ba887b86baaac7ccadbbba999a88ccbd7dbeac7a8e8bb9adb99bfaabba9ae
col12:   c67476a56a856968cb9b98aaaa9bbbb8baa9db7bbbad999cd8abbbe9dccc88abac9abaaa9acddccf
col13:   c9698a89887a998979aaaaa87a69a9c8b79aada999bbdba9bbabcdbabc7eabbabbde8d6bbdab9bbf
col14:   b595698687a53a875b6959979a778997aba999c98b9aab9b9dbcebadcbc89aaac9bbcb9baba9cebb
col15:   b9878a8b868773899999e99a9d89a8bb89bcccb8c7eaacebbc9cbcdac9bb7beeaddad9d9b9bcab9a
col16:   d487a6698769659777578788a9ba9aab99bb9caa7dbc8bd89d98ddaaaacbea9aaaadbb8799bbd6bf
col17:   a868677518757676c9a9a9cba899a979785c9dcbbd9c9eadb9eda7bbbbbcccdbddcc7bbab9cabdbf
col18:   98658a76556887a8989a9a6aab8a96a88b87a6d998c8aadcda899bbccabccabaa9ca999ac78b899f
col19:   c674777c78886976a9a787aa989c6a6aba998898abbbfcb6bacab9b9ac9ae9ba8ddddacbdb9c79cb
col20:   d867777967498978b89678789abb788bcb9bc7abdadc7c9dbb9da88bbcdcdcccf99ccacb9aacbaae
col21:   c6687793a9898789b9a9ba8baba7bbcb9a7b9cbcacac6bcaaf9eeb9a99dbdaebcda7cce99bccbbef
col22:   b96656b8858678788a88979aca8b9788ba7a87ad7aa6b9baaedcbcbdcac9abb9cbbebebbbca7d8cf
col23:   c77689756975786a96898aaeb879aabba8989bfcd9ca9b99c88a9dc7c9eda9abccaac9ebcdd9e9af
col24:   a79779b548999869ab89aaab76acb9a6b8cbbd9d8ebab8ba8a8cddc8bacdcd9cecbc9bdabaabfcbf
col25:   e586667b75794a79767bba9997ab7ab9bbcabaabdbdbc6bda9ca9b9ccfeccacaaaddbabcdecb9caf
col26:   a576587797988b67887b89ac9babbb9ba9bb889c9bcfa99cba69d8aa69fab9bbb9acc9f6aa8777ee
col27:   e58793787875aa97abaaa9cde99dabbca8aaeabcdbbdc79b9b9eb9acbec5cba6bbabac9dcbf9ccaf
col28:   c78a96897ac776b96999bbcaacbbb9bacdb9c89bcc99b8b9a9cadb8ce8ec9dbcbbdcbbde9b9ebecd
col29:   997a9a8986a587cbaa7b9989cbab9bb9dadcda99cecbdcb8abdbc9ccdeccbbacdccbeab8ac98bb8f
col30:   db9656ab998a89868bc7b8a99aedeebaeddcdaddcbfedcdcddc88bccabdc98bbabaab9bdbcbe9acf
col31:   d76797987799aa977b8da9beb8bbab9aaba9babaababb9cc9a9cbbaa8dc9dc98babaceacddacbbbf
col32:   b488aa55a89669a989ebd98caefbaac9ccaacbdb99a9e6abaac9cac9b98abadcbb8fa8fac7b9c9bc
col33:   c6876689ba777889bac9b8ac8cbabbca88dcfadacbfb999cdacacaddb9bcdcabba7da9788cedcddf
col34:   f77b9a49b7cc8988a9caacc8ba9baaba9acbcaa7ab9abdec9abfdbc9bec8aabcacbcaac6bbacebaf
col35:   d7478c8797997968d78c89bda99cacba997cacc8cabbcdad9bd8bcbb9acbccbbca9b9bacbdab9bcd
col36:   b979bc8898d688ca9b8b9aa7a8aaad8dabbcbbccaccbfbbbabccbcbfcbcdccb8b9ce9aaaaac9f9df
col37:   c7a6987888bababc99babccab79ccbbbb9baeebccd9acbba8bba9b88bcccbcfdeadfcaea9eb8dfbc
col38:   8779889a588ab8aaaba7cd89caa88dadd9c8b9baddcaaaebab98cdccacdd9babdecadcbeaccdbaef
col39:   b9a97acba8bbc89ba7b98b89abb987bccb7bbbcd9bdd8aecffbecd8bbcadedcedaddedb9beebaecf
col40:   d7688ab8797bbacac7cb8aa9bb7dda9bacabdaecbcc9da9d9b9ae8cbbaddab9eaccda9df99bdbfcf
col41:   dca998988b6779aa9aabecc8ddadbb9a9baa99cdddcc9cdbbce9b79ce7b9bcbbddbd9bdeecacaecd
col42:   a6b66876a9798c7bca9ccbbbbadd9bafb7acbac69bdaabdcdacbdb9ddcaebcbb9ffecec9ccadcdff
col43:   bb89a8a99cab7a877ca8bab88abbcd9aacce7daacfebcdcbbfdacdcdcfbba8ebdbbaafedb9cbbc8f
col44:   d798d79b98997798b998cb8bab9bbaaacabcbcacc9bbb97dbabcbbbadd9aae8acbbdea9a9bca8aac
col45:   c8a7b87c885b66b99bcbabbb5cbdcbccd89bc9a9cbbabb9caba9cacbbaaebbfadbbbdbac6bbbfaaf
col46:   e98776a79998779c98ccb8c8ba9bba9bcaa9acbcfcbacced9cc9bddfcccdbaccddecbbbcacabdbdf
col47:   d75b78a885aab9ac8c8aa8b8c9b7abcce88acde9bddbacdfcaccebdad5fbed8baabdedbcbc9cbbbf
col48:   e8788b69998cac9da9c8a66b8ccdba848bddac9a9d9facccb9eeeccdc9b9cbccddacadabacaadcbf
col49:   c68bac97786b8a888dabaabc8aa99bddbc998baebbbdbcdcedfeccccecaca6bd69abc89cbdcedc9e
col50:   cb48ba9a9aa869b6c87b9b6bd88ba9baacabbcfaaa8baeaab8db9caddaaaadbd98c979edacc9cdcf
col51:   caf9ceddbcdddbff9dbfedffedefdfefffceffffeffffdfffefffffefffffcffeefffffffffffdff
ROC:	 BPix_BmI_SEC8_LYR1_LDR6F_MOD1_ROC1
col00:   ace7d9cfccc9ef9ebcf9bfcadfddfffdffffecedffcc6dedffdeffadbdfebdaebfecfadbcadcdab8
col01:   eb78585868b57487b4a89b9bb977cbbcb8bd9bba9599bba59b6bac8b8ab898b78ab49978669a746a
col02:   985648676667b844995977787abb78ba39899bca8d78866cbbb98b9cb998b6b89ba3aca796796989
col03:   d765759898859b96b96a7b784ba6ac8989a9b57b77d74b8b669d7ba9b7d8ce9a85ac79a86a8268bf
col04:   b753387566665758b9db89b9a78a9a8acbb9998adab9a8b9aad89a29a9a46b8997b82678b777849c
col05:   b577c5599a7989587c51b99bb8bcb7979c88a9998bca789b88dea9d689b78b8977915bb5db75569b
col06:   9979984975567a787b687b773b95a6a99cc996b6b7bbc78b9cb89d94b9d6898bb7989777b979987b
col07:   c8966486a96da998968ca8aa98a7ddbbabd98dc8bb8bbb7999ac8abbb997abb899a9b79dc6a678b9
col08:   f86b686a6c7777c89567938b8879dc886d98cbddbacab6b8767bd688c9c76a999b5d8677ab9988ac
col09:   e96748834a859b659b787ba9b96ba99887a99a5c6a7ab86987d8b88c778997a55978aa8699b5857d
col10:   e97669754a86786b686c9998ba8eca9caa6aa9b9769b87aaab6fd7cbade96b6b5978494b947c776b
col11:   a689784587969b5b9adc8ab67b79b8ba9aebcebcaa878bbd896a589b577a95a69376979a7685567a
col12:   e5864679875b69698776ba9a6b3a8ab7cbbcbabaaa8da6babaaaa6a867689a689898583bba37677d
col13:   c588848a5457877cc888cc9babb6995c98b7a7d7ba8c4867a9abc89bc8b8b9c59bc678879788b68d
col14:   c9696b8787979767aaba7779a87b79aa9de7ac9ba8a878bb598bbb6b9d7a8ca6b89c779cb6b7354b
col15:   b97949b8f376d87899698a8998cbcbdc898bc6ba9bacb8b997bcaaa9877787898879874976ba387e
col16:   f944528a48967886658a997a8889aaeb9bcc9b9bc99e89b7c9996b968a9988999ab487746a37718e
col17:   f965b6b6666b6776a8ac8aaababbccbbcdbda77bccabb99986bbb9c9977889ad9c88b794678aa76b
col18:   d547665968686757989d9af9769569694a7cbd8856baac7a5859795a77778948859895b877a7a587
col19:   d839859867797999a7ba7ac8a9be7dc9abc3bb99bbbb9db8ababa979ba9765cb98b888559b85a8bb
col20:   a9a87787977aa5a577a88c677cc99bbdb89adbac8d99a77bbb9a8bbb89a986c9ca66b6bd97a6b68c
col21:   a777a99997994b9a95ca9cbfc8b8abab8aaebcfabbcaa8abab8a79a678798bca87a588899a98838b
col22:   b75697868ac959899b79aba84b9aeaabbb99b998dc9bb99b79bb8abbaca6b657ba6875a5b494845d
col23:   b789b94eaca78abbbab998b6899bb89ac778a9ac8ac6abe7caacaf8cab697b8c9aab9b66d9d8676b
col24:   c77576689877878899a89b95bbbaceb88aaca9b9bd898a899ab89b9778ca7a99aab9bc999775994c
col25:   ca9798b7cbcc998bbad9b8c79abbdaebc98cb8ccb88c798a99bad9cb8a8b7ad99accba9697cb797e
col26:   db8978b9a9ab987db8a87b7aabac8bd889c88c988b7c9977aac67bdbd9897b8c8ad9988cd867a66d
col27:   e9bab88a888abbcaacca7bbbbdcdcba7ccbc9bba97bd6beb9a9bc8bdb98ccb89d98e9b9c599a9c4c
col28:   f8bb9aab7aabad8aabb9e6bb9da4a9db9a8b9abd66bad97aa7a9ccccb9c9ce6cb77c98c8897a947a
col29:   f8baacdbbbb87b9aab9d8aabbbb8bebda7aabdba6d8abab8a679b8dc8bd8a9e6acaba98bb9b9b98c
col30:   fb9daaa697bbb9c8c6ba97bc89cca7bdd889cddd97a9bdd9b8acab9baa9d9bdcbaa9bba9966ab7cb
col31:   f9ab6b9bbaadec9bfabdd99d7cd9edbbbe9bb9dbccc947fadbb85bcac98bce9a8b8dc9ae98b9bd7a
col32:   d958bbc7a8b7ebc99886abeaabbdb899abb7c8bcd789b7d99bdbfbaba8beab8a9cec7ab98b78bb9f
col33:   f9cc78aada86c9baacac9a8dbcbbdb8aabde9bababccb97b98d9d79dababaca98aa7cbcaa6af88ac
col34:   bc96879b987999baab998aa7bb7bc9bdb89ad977ecbccfbabbea89b9aecbcb8d99bab68b7baabbbc
col35:   fb8aaa9b9baa9adb6b6c89bbdbdabbbb9ebb7a9bdbe9e7caa8a9eb9ccbec9b6a988abe89cad6a87b
col36:   fbcb797b89c78b9badab96bb98cb99fcaa8ea9bbbbdaecceb99aacacbcbc7d989ac9abccecac686e
col37:   fcbdccd9ca99ac89979db9acbbb9bcdaab8c8a8abaa8cacda9cdbbcca9cdcaaae9fc9eebb9cd7baf
col38:   c8ba8ade7b888b8babcc9bccdaedda799ab97c9bcadab8aeecaabdc8cbbccb58adadacabaa7a8d6d
col39:   f7968cb7babdadfacaa9daecc8a9dccaaabc8bac79cfecbccbbadcbcaa98ba8f9aabb9b7bbc8a9ce
col40:   dabb8bae7bbbdb5aac8dba999ab9a8fdac7abcccdad8b7ab8cce99bdb99ccabbbd9cabadb7aaa7ba
col41:   fc8aacabb89b9b9eaceabbfcaccbb5bbabbcbccdaceaa6b8d8ead7a9d9b9a9c5d8dbc8c9fbc876bd
col42:   faaaab88bd7a9dbbbbbbcdbaa88ddabb996bcd8ca9acac97ebecfd9cd8a998a98aca9a89c6aaba8d
col43:   ecbda5bbbccbccdcc9cbc9cac9bbbdaebccfdac7ade9acbb9dc9ccebabbbadacb9a78aca9ab7868d
col44:   f9bfbbdbbdbbe99e8a98bb9eaeabbccdcbbbbbdabacc988ac9aacbdbc9dcccbb779cacba9a89a6ab
col45:   fbb8cdb9ddbddbbbcbac9b8dbcebea9bcdcebbedcbca97dda9cabd9dcbcdb9c8a9bb97698cba8abf
col46:   fddbdae9babbc9b9edbca8bbbb8ddabbc9dfccdebd9ebca9abdaedcbdcb99ab8b9bcba9daca6896b
col47:   fb99cac9bdedcbcdccabd9dddcceaf7cbebb9dabbad88a9baefeb9ae7aee9d9bacb99db5c9bdaa76
col48:   d7a96aacdbbdabcdafbccdaac698e8bcdeeecadbcb9aae6bb9dbbbd76dbd9cbba7cba99d9cabb9ad
col49:   f4b5daccdda8daceefcbcb9bbc9dcc9bdccbbbc847bccfceacedbe8dd9ebc7bd8c9c8ab9b9d78a5d
col50:   ab77a6bbdcecebbccbbb9babbbc9dbbc9bdcce6b8ccbdacbbcb8b78bfbcb6bdaacaba8cc7bb9a8af
col51:   dddfedffeddffdcdffffffffdffeffcffffdfffffffdfdfffedfffdefedfdeafefdfbefedffdcdff
ROC:	 BPix_BmI_SEC8_LYR1_LDR6F_MOD1_ROC2
col00:   a967adca97ab6abecbdcdfefa9ee9effefeefdddb9fcafffecedfdfdffecbffffcdeffedaeffffdf
col01:   d498876675799a7489938a98e99c959c7a5d96ab9a9c89ebafd9b979ab9ab99ac99c4b8a88fcfabf
col02:   a795578656778561757979487b9969a9aa8994cb989ac6abb3ca9da69c98a8ba9ac99aaacedaabef
col03:   d597596a2488899a9c68868b67babbb998da99b586987aaac99667c9aec88aa9aaeaad9cabcaa7cf
col04:   a973486a778678a8a8b8aa86668a89ac8caaab77a7c97bb8977bcbaacaaacd7cc4a8c59fc6789b7c
col05:   8b5a85a9b6955747a759586b99bce8aac9396dacaa8896a7a8cbb779babaabba4b8bbd8aab9bbdbf
col06:   a5846677677564a658887599d89f64a959c9ac98c756b7aaa7585a88a898cba8dc957bad777c68bf
col07:   a66699475a886988a9bb2947a82ca786a9a88698aaab67b98879a9abccb3ac98a89cacccdcbcfe5e
col08:   c75765793b389878a8a68b8898cc7ac87ab7b4ca997c8898b9a99a87bc79b8d8ce8b999acccc7daf
col09:   f78666ac9b6a958898b69786899caefbb768aa8bc8b7b7999bba9d9a6dad998e7bcceca9e8aebeff
col10:   a67686356347928a878ab7a689b7ddaa97b9a7a68678ab879d78b49bcbacfabaad99bab9cbccccbf
col11:   e886956878447478667ad8a8a58b9c89c99aa8a778b94ab98bbee8b99ddcc9bea8b9eb9bb8acccac
col12:   a5548368755578939677a99bab86a9b89a77aa9698c6a7799a9bc5d9a9ba9899cacbba8bb8baa9ff
col13:   b6658159846946686c8a9a7b9a8ad99c75da8c758b7879d69b7a95eaa9fabd6e77b8cac7dacacc6f
col14:   d6666663689d367a697c97aca89c7cc7679d79644c779a8b8997abdd9db889d97bd79ad3ba7beadf
col15:   62684a578a577c69775ca7c7cc9a9a7bd8daba8b7b9aa9588a988adbaccb89eacaaab9fbb89c99bf
col16:   a549878b96997a6a568983b9699897b868ab969a66a69caa9dab8ac6daddaa8cbad6896cea8aacbf
col17:   b6567866657b756a6498c899ca978a8a9b6c8995d89967aba798badcbab6ac87cc9b88ca78eacabf
col18:   9567765283675776ab989c78b85b76c99a5b6a58a9ab697ccab9aaa9bbbdc985cacb6da5bcaab7ae
col19:   a6458739b978975c8a9c7668599ca9bb58bc867a8da7db6bc97bbc9bdbe9d7b9dcaabd9fcfb9bbdf
col20:   7684524a877648867588875689b87cbbbe8599c9b9aa9d7aa96fdba9efcdb97bad9ad9dcfb9ac8bf
col21:   b74587867d88da9d758689786a8b89baaa295eca99aa9daeabc98fbeda99fabb7baaa7899bb9ccbf
col22:   f95655684a96a977658976827a777e6b869cbb9a97ababdbba7bce8bfcb79a9ac8bbcab7bb6769cc
col23:   d8477778b26c7988a7a77749bb89977b9b6bdac76cc7979a9bccda99ccbcbe8a89dcce7a9babdfaf
col24:   c85b66999485a78856a77a96c966baaa76997b76d58da9bcddacaa9bbebdc8e8df7babbaa7b6b8bf
col25:   eba989895798b8b93786679c89bba77bbeb8a9aa8c88aacdcabbdbcecbbafcab9cdecbc9baedebbf
col26:   c68b8c84c6658768b88867b987aca8dd68bfac8d988a96a6bbffccebb8cfbfeddbe9bb9c7fbcab8f
col27:   885695a7a495577a887669bbebcca8b87a6cc8bd8fcd5acd8a7ddd8dbccd6bbbaffbbcbbcfaafbbf
col28:   d4977777b99c79896583e9a9bc9d87988b667b7ac8bcbb99ccb9bcbdfa7d8dcedd9bdaaa9ace7bcf
col29:   e37a478bb59b7c6a8aabbcaabd97ddf99acb8bba98b6deb8ffedbecddcbdcadccb9fb9dbaddcadcf
col30:   9968816b58b565aad86887b75ba499d897bd888a98edccbc998c9dacd8bcb986cecdbaaccbbbe8bf
col31:   b7469536b699986969998acddcd9bbbc99d9abca6aebcb98cbedaaeacdafcdfcbceceacc9ba9bbef
col32:   96574176686978793889aa76bacac4bdac76be7aaffda9bcabcccbcfccc9addccbdb9bacbcce8dff
col33:   77645989667767488a97aaafaaa8a8bda8c9c7bcab7bacb7e86faaeaccccddebbdfbbbdcbeedbcaf
col34:   e33932a9aa9a7489aa4998a7bbdaa7cdc98b99cbcadae8dacdcfbbccf9aaae97cb9cdbbbbb9cc9ef
col35:   c6897752699b54b8bca8a454cda9fbd8c9c59bbd7aa9dddcb9eb6beb8aaafdc9aceccfcdcba9febf
col36:   b66a5796776a77677a88aa8c9b99ace9abadcaa88dac8abbe9cc7ab87abdadeabab9c8abcccbccdf
col37:   e659589888aca87b989b79dcbc8ca68b7a7b897abd9c9ca8bfdaab9ac8ddaecdefdacb8befbbbbff
col38:   85768697988a894679779379aaaa5e9bbad8bfdc39bbddc9c9ea97abbaceadbdbabcebecaacdceaf
col39:   c26889782c8645989a9c8688aab9c89c9e89bcacfbfa8fbabdbd9bfa989cb98abccb9aaccdcadfdf
col40:   989a6a5957a7bc4a769a879c8987eb799bb9b7caddd7bdcbbec879df98dbfacecffbebafc9ccbbcf
col41:   777718b769a5878688979468bac583a6aacbbba789e999edcbaa99cfbbf8dacfcaeafddacad9f9ff
col42:   c747363aa4a865878b898c888c8a6689acbcaaddba9b99ccbbb6cecfddbcaabd8bcaebfcdcfcbcdf
col43:   74844868574588958758b9997996a8898c8aeac897abb6cbbcccb8caddadc5f8fdfecc9cbdcecbaf
col44:   f2865637a498b968666a8897899caa898baa9b98b7ccadebdc9bbbdc7a6df5dd78ddddccaacbfddf
col45:   d5365475159385788586d99a7a97a8ba699a69da987b9bcdcbcadbac8ecbff9ddbccadfbdccaaeef
col46:   e4367658788985766a6979a48799b86ab9c8aaf7a497adc89bddbf8dcdb8bc5abb9bbeedcf9ccedf
col47:   b76462996867264948bbaa7d476a88aa9999a87c8988aeceb9bdbebcf8897abbacfadedddebcffff
col48:   7664756948547893796a8479db9889a7ab98699a6d99dc8b9c9cdaacc876b9fc7d8cfdfacad9ebef
col49:   a813924939987584778c689abab9ac8b8b8cb69b6b997b9bcadd9acdcadce89cfacb9abedbfdcfef
col50:   9354367872a766767864a5aa9b989ca997a8c5c8aa4b9a8aaacfab7ac8b9cdb6abbccacec9aacdcf
col51:   8868b8c69eaf99bcabada9efdeefecffbdfeefdcffedfdefaffeedfffafcdffefffffefffeffffbf
ROC:	 BPix_BmI_SEC8_LYR1_LDR6F_MOD1_ROC3
col00:   eadb99dababd6beccd7fbcffbfffff9effdffeffefcefeffeffffcffeffffbfecfffbeffbddcbb9a
col01:   7675785bda449667b6c8969cab987a94a7a8b69bb8acbb89baa89befb86c8a9cdcec798c6486c5bf
col02:   e5787677986b885897575aab9cb7adb58cd99cc9846b9b76a9aa8cccec7cd7a87bcc9679f75768be
col03:   8988673b8684b85695b8aa99979abcb7c5aa988ca8add5a6cbcbaabb79acacbb9bca8b98766c9a6f
col04:   ca96656577a29889a88a79ca7a99b8b787ab9759a97cb7bc5cc7c7cafc8c9c88c96775c696959a8c
col05:   a4996678a7bc7978367897a994ad6ca66abcbc6a767ba9cacbabdcc989cc899b98986dc9b599b29f
col06:   956888673888396548aa878b899a8648b88bf5a7c7b7b9ab98adf7afd9b99c668c88b97d896ba776
col07:   f55aa368c65988aaa89aca658b8f9ea8999ac9d9a998dacedc8ecdec8dd9aabb8acd5c6dfce777bb
col08:   c76645658b596bad996488d46d8a88c89a8a99d9a7ede979a9d8be8caaa696bcb8a96aa8aab7988b
col09:   f597b9455aa6394a7aa6877b9598bb6c88aea8ea8ad7a5badb9cbf9aaac9c8a48a892b9b79cbab9e
col10:   d6798989987976b79aaacd7b888acdae9f9bdac85cfbcdfeaafdbbcf9f889a8379c7c8aa9c687db9
col11:   84867a68757598498ca8b9a98c87ab99adba8b7aa6c9bb6a9ccd9aaa8af5899c66cb79d8b9a59b9e
col12:   c8674686a98778a84987c949b9cc8fa5acd6879aaaa6dca8ecc898a5ebd98aaa787a36b7bc989a4f
col13:   a6676864a7326795c9998bab8a977cbabcebcb9ed7b8ba6ba8ecdcbbeabb9c8b8da96babbb695bfd
col14:   d685786556a85a67888c779785abdd8587baba76cbc8babb89b9e4a7abe7b8eaaa9b998898d89a8f
col15:   ba59764443999ca68c989cce7baadbdb9e87badcc8dbcc78a5cbad8c77ad7e688999e78889768b7e
col16:   87867879a9838677ad7bbb86ac7b9accc89bfbcd898dcb6a7c8babbebcac68a98c8977c79668a9cb
col17:   e4a7359678cb9aa9bd968bbac83cbcaccdbcc9dcaaeba9ccdaeed8cb975aab99c7dacb85b899a98a
col18:   ba668268859846568997976b7689a8ea88878cda7aa86f6db7aad9bbd2b7b6a89e98a8a597947d58
col19:   d816676769a979677d86649b5b8bafbbcec8edaaacdfbb99989fe96bd4a9adaaa9aa7fb79399b77c
col20:   c45577a76a5b89c6a799abd97cdaa9b7bb76caaebdcccbaac6dec8dcd89a57a9c5a7dbab8c9c45ae
col21:   ea8666a54aa95a9b869cea8baacadb9accc8889cebddc8b9a99e9e7a99bb99bcbb79b9897ac8979f
col22:   d6485868797cc676a85c9aaaa79a7cbbd88b7cc7cee7adf86accebc8bd8d7aabadb97996a4cbabbf
col23:   c9b9686b899db8abd9c73b8abba9b8ca9b9cfb9abd9becebfbddafedbcdb998bd3caa9acd9fddb4f
col24:   b8ab976a5bb6589dc849a8a899adcdacaadb8acac9bb7daae9cc9a898b9dbc5f8a79cd5c9ca6b79c
col25:   b58a777a9a8887bcda899bcbc9bc9beedbaa88a8a9ccca5acb9ab9b8ac8aaaafbade7da69d6aad8f
col26:   d77958b979579c98a79a9bd8a8b96bbcc8c9c99acb9eecd9db6996bb89b9a86efacde97cac7d988f
col27:   aab765b728a8afcbbf76ab986ae5d89cb9dbcca8898c8cca4897deacac89cdea8abeccac88989cab
col28:   d8bd7bb8a86a777ea885acb8ddf89c9adcdabac9badbacb595d8afbbd9bb6c8fdebdfa8e966c8f8f
col29:   f68ab3aaadbeddccb7bc9baecbdabbfcfba8da9cdbd8accdedebca9dda9ddfedbecedf89ccac9bae
col30:   d48f897a98ad8a6c6868cbda59bcadc9ddcacdf9b9fe9bfcfa8a99a99abdceddba7abdeda8c5dc9f
col31:   fc9bd69aabd89bccf9b679bccf8cdaadbbeed9e8add9bea7edbeeccdffebedbba9bdcbfda7badcff
col32:   f74a779ac9cb89a5aa8ec79fadb9ebefffdfacceabbfbbfcb6fcce9fcc89fdacfedbadcfcddcff9e
col33:   faa78868ec7cacbbbeadb9acdbaefdcddfdb67acbcafe8bd8bbdbdaeddda9cbdecddcdaec6e8dbcc
col34:   d6786877798696a8faacab9ecadb8fedbfbbfa78be9adb97dcce8be9bffaebbbbeecbaffcccdfbef
col35:   f88ac7776bbbb5aabb9c9a999d9fbb9a8bebebb9bef9cdde9dbabbccc9bb9acbbebbaf9c98ad8c7b
col36:   f99b7a87ba4887677a96b9dcbcc8be7acbadfbbbeceada69efcbbfbfdcdbdfa8adccdc9ffb8ba9af
col37:   fa99a8e9998ba98b68c99cccb9bb6c9bbddbd8d99bbebdbfc9e9dfeaddcc6ae6ccd8ccdcbcdce99d
col38:   e9644bdb89987a9c9baabb79ab878ad7b5beac9cadda7dbbfdfdbea9abdb9afbfe8ba9ff9cdfb89e
col39:   eb996b8a7b9a9ccb8bcbabcbbeadeac8acbeeebbadadbcecddcdfceeebbfcfbcb9cecc9fcdbbaecf
col40:   eb6b79588ad5a979b9869adb7bfabad7acccbedfab9dfd7ebbcf8ddadfcd9caa7bccbbbbafb9b9cf
col41:   cbc898ccbccaa9da774bbdbb9aabab8c78c9ebeeffabdacdbcefcebcfcdccfabaccc7d9deaebcdcf
col42:   ca77bc87d8cd9b9bebd86ad7bbcccbddccabcdcd8ca8aeffceffacdaca9bfcbaccafbffed9c97cfc
col43:   daccbaabcbbb8cbcccd97aaeaadefb9cbefadfa9cdedfcecafdcbc9eaababbbca9bdbdceceb9bdcf
col44:   ccdbcbabcca9aceacdbd7aebbeceafbadb99affc9c9dadbcbbdccedfecccccfe984dbef9ddc89dcf
col45:   9bdbb89aaacbbc999cdeafec7bdecbcb8bfae9edaebcdbcbfbb9feabbacaf9e9d9bb9ba7ffa9caaf
col46:   f88bb9eb8ccdcc878abbddeacbbccbcefcacffcddeabf6ffdbcdbceccfd9cccbe9ebdcede99fd7cc
col47:   f7b88cbbc969adafd6aecacfecda9aaebbefeebe9adbdfcba97dbbcaba9bbb9dedfb9bdbffebcadd
col48:   aaa72889bac8daa9f9acbbcbdbe94a8add9bcbba9ec8cfbbabbc9dceccfd98a9bdcac98bdcea99cf
col49:   f9aab7ab9abba8ca9bcfbfa999d7aaebc9fbba89c79cdbddfefaedcefacfbdacab9ebdeecbfcb8cc
col50:   8b8a979da9ad9cfbcccc998be98ddbae78abbda9ec4cccc6fe7adc9bddedcbdc88cad9a9cacbcc7f
col51:   f9cbdedfbffbfffbcffffcffcbefedafffffdbffdfeffbfffeffffefffcfffefeffffdfdfffefff8
ROC:	 BPix_BmI_SEC8_LYR1_LDR6F_MOD1_ROC12
col00:   adb8dddcbecde9efcfccbde8c9ffe7dcdbfe9dadcebafcffebcdcfefcffeffcfe9cedffcfeffbfaf
col01:   879d8876ab4728966a5849abbc8baedbb76f769778a87799df8a8a78dbc5da89a7c697458a36679e
col02:   81b7a8a979bc58aa6b88b88aa688895c69abf8aab9978aca78daacca87aba67b8b75a7aaaa336bae
col03:   aa989797c57a9aa65ac977c4ab84377688bacaa7bb6bac88267cc6879e7d978ac9a5988d26aa779f
col04:   a79bbba897a68bb498ce7669bdc9b48cabad967e9ba76b468ce48aaab9c9ec76b29b686aa559c77f
col05:   eacbdcba97885858aa758999bfbaa87db828f4bac5a59a58ca9dc5fc6dd6d8c7c99aa498e8af7aad
col06:   d75468979a7578a789a98e7656eab88cabca7b8c6cc47887776868b7ab6e9d68f969c85a586ac71b
col07:   96b398398a893899957da95aa8de88bae7b8bbb9c96775799a685f76caa8bdc7cfb594d9ff5b98bf
col08:   d84cebb297b97a799b89696cc97b7aaf87fb998cb99897a598e8786da89c8bbabcb776a9adbb675b
col09:   da59897a799a989b7a9b58c9bc7e85cdabc7ba8abe68a97abc8e16ca7e65aea79888ab9a97db54ac
col10:   c89788866c85769eab7d388bb47bdb97dca5acbb8b76697e89c8a79968cdf8cabcbb9abcc6af5c9d
col11:   f6daa99a889ab97a8997ba798a9aceb89aa8fb8896bb8b66d9c4ca8aa9eba7b9dae4dab89ab883ab
col12:   d867c68988a9a69b8757b48abb99dcd9777bb86a9955669a89948d79aad99baa3594fa858b845a68
col13:   b7a9989dd9576d74c98ba58789c8c89a7ed8aca6acaab99bc7bebba8a6786aba7ab3997c8a468aea
col14:   e97b87565893757aa5cab8a9b9c898ba9dc987a63bd1a697aa8c9abbbea7b5bbafa7948c98c974da
col15:   ca9a85594aab7be39899b59b68b6a8aa77cbabc679ac56a78aa79b82ba98dce6e987a988d8798a9a
col16:   b7aa67b75ca8678ac369e5b66c9d8a89699b9a7e54ac58a567aca5adbcb7bbc98b7ab9ccc76a999f
col17:   c8cba684a6adb4ac5bcaaa6a9ccca4aa35d89dbaa4bcbc8e8bbc7bb7dd7ba8fcc79dbc9ce9bc9b9e
col18:   a4779487c96a9a98679d768bcbc8ab743c9d999a886b6b8c68edbda796a8bdb9928778bccba8858b
col19:   949a98784269989a8ba9ab9a8bd997cb7a68bd93b959a89ab99abbabc8aeb8abe888a764bcbbaaaf
col20:   c857898bb5abda89958a8983686ab8aab883669759e478886aaedc9baa9ddc79bddd8a9ea7a57a6f
col21:   db9864c959b6cb7dbb8c5a5869a6698d7a8c9a796bb9fc99c48fcfd6f899bcecc987b77bdbaaad9d
col22:   f78867766779aa486d7a889ab746cbcaa9ba7a8b99d7ce7b8abcceceadc9b7fab8b5b87b8ab77b9f
col23:   9a55b8dd79ba5a9bdbaa887e2c9699a6b88ad799c6b988ea6b6cda7bdac9accb9cdac9b981d959ab
col24:   e357cfc6cc8876c9a9e8bcd8a7a9baa88a7acaaf8888bbbcabb6ebab9aa7a697877beaacac98abce
col25:   767aad1ba9a94b59679dacb9ccb85aa789cc56ebf9bbcb6bbabddfc9bac6a9b8eaabb6cccdb5a76f
col26:   9a9aab58697f6a8e5b84b86ab9cb7ae9b9b88b979a57a9d969bbccbb9b79eaab4b8ada8489acc99e
col27:   fac9988c868ab4cb698a8aa87dce975999c8999a9aa4d775ddbfbda877d7cac6ed9a88bfe6bc9bde
col28:   d7c59c7b96ba69696ba89d9e9ba6acec6c79bacdacb7c9b9b9a8cbd8ba8c9fe7b9cbfb89dbae7a9d
col29:   d7aa86a9ab89d8a69889a8abc7cacaa9db89c8cd9b8eb6af9cdeedbffcfcbceccdecfdcaccbd97ef
col30:   a975aaa8b67b568b97987c89d4a8faa79aa9b8e9c88ba8eae9aedbabddc9abd9ccd7ace98bbc4bce
col31:   f679987a951abcf939a99ae9bc9afbcfdc9bca7abb9cdccbcadfffeecbce8bcb8bcbffacfdddccde
col32:   e7a9a8879877b745f98d787abbdc7dccabbe8cda9aabbbb9c9bbdfcced89b7b7af9aba98faaacece
col33:   d68b57ca4b88a83a6e98ec74aa87bc8ae798bdcab99daceb9aaacbecbafede89de9cdacf9987fdcf
col34:   a8958c4d68f6ab88c7a7a8ab6fe5c9ab7eab7bdf598f78b5d9bcabebecc8c9ba88a898c7dbab8ea9
col35:   b2a77797d95668ab9a9a9d9999cdb9baaaba69dcabbaccdb8b9fb89bc8eacfdc9dcecdfcdcebdddf
col36:   fa547b38787989ab79c577cb9bcfc986967a9cbcc787ba98cb7fcbbaa7f9acfbaaa38ae9a79bdc5d
col37:   f79b749a997a5cba8c98fa9e6ac8aae5b99b7b989eab7ddcce99fcdbcccba7aa99ceffadd79c9dee
col38:   c7a8b45594a56eac897676e8cbaadfdb6abac7ba89a7f97abbc8cc7d9ac8cdbcfc8bbabda9ae88ad
col39:   f398592a85678d7a6ac9b9ba9adbc99aeaaac58c7da59caddbdefbcc87cc8ccbaaecaff8acfbddbf
col40:   fa477e79aca97c9956a7a9bad48fedccbdb9ddaae78aaacb78b79dc8a7e899bfdcdb7ccdcdfa889f
col41:   f93c9878b9b69bba9bb9a7f9ce9adac9bbb98abeda9a99edbb9ecbdccbcfbcff9a8bacbcbf9fceef
col42:   eca37b9e67c9b89a78bbca986c98b8abaeb768addbedcb8bb8c89cd9a9aab879b5ac6e6fcbcefbbe
col43:   a687766a5da5a78b73bab9a98b768da7a9adecbedfeb8bcfabd4cddccdfcbdbfc6bbdefdedcebddf
col44:   f9b7aa8579967559a87a99c89c96a6cadc6cca79fba9c9aacbbd9ec7a7becedacafdf997fb989abf
col45:   e659a457687895dca9b9ac6a5b69fcd87889f8cccbdafeedccccec9edd8eecebaf8bd49778dcebcf
col46:   c2397978547a5dc94c59b78776dcca7da9bd99bb9cbabcf9ecfee7cec8abfc6ad7bafecbe9bccabf
col47:   d6989688a8c76a88799d9d9cc867c6ad9cbbadddbfbdbbcbefbccdecac7afecdc9bbbadf9ccdb9de
col48:   a5a65778569979b597a98a478abac7bb7c9a8b5b7dcbcb88ed8eb49e9ad9dddfbc8cdaac9a8a8aef
col49:   b349a7698b6769baa896b65cdc9c9dbe8a9b9cc9f9aecccdd8dbc9debcadcabacacefdfcbbd6bbff
col50:   b61a85a976b87c6a598cbab6a849a6de9acbababa9968eb88b9f6ccecd9fbc99799e75caea6ebbbf
col51:   acac8aac9a8cdacd9fedfccfeffefdccfffffffbcfeacefffffffeffdfdfbffeffedccfffffffffe
ROC:	 BPix_BmI_SEC8_LYR1_LDR6F_MOD1_ROC13
col00:   dccfdefcfffffffeffdfbffffcbfefdceedbefebdffbfbefccfbefdeeccafffebaf6dcedfbdafdfc
col01:   b7699697abb38c7aca98ba3cceba9bba66ae8dbcadbb6aabf488b6b9a78a6c7ba6c7999776785a5e
col02:   da5949688da89c98b9cba8ec7ceebc95cf8c8c78d478b5985fbcdb6b8a966b95ac5dcb9a9afbfa99
col03:   f7c6c7d68cbc99aba7b9a87ab98a88aeb898fb86c6bc7789db6ad88b9aa8bc888669e8deb7cb68fa
col04:   d389a8cb397bd76997a8cb9d8edad6798a7b8a97baddcabb8d8b75aa5ab88dbeab878768a8acaf8d
col05:   d96cd668b68c5b6bc977ad9a789f9b9997bd8dd6aa78aba9cdcac888c36479b6cdec987bb87679ad
col06:   f9bdb8c87ea88c7a9b7a65ba9aaacdb746a9bfcb97b79799b9cd8afd99aa769669abc8b7b6bdba9e
col07:   e85689afeaabdab67c57a58acdcbbda9abbadb86dc8aa79a9b87adba8f7d5992b2eacd97a877696f
col08:   ecb98d56ac8aa86cab5ccda98edcfbc99b6ad9babc9bd7b59cacbdac9bdbd93eb788c77db6c8579f
col09:   a7797b6aa9688ccf99b79cd988eaa9998caec59dea8aa699e6ca696958ac7b8676a677596a728bdf
col10:   f57979ba79977baea88794b899cd6cc989dfba6c697bc8bcbb9fcad8777cc798a6bb8ad8b7a9aabc
col11:   d9a9aacbd7a9ccebc7b9c7997db9b9abd9bb7aac7a77b7c9c78afdc797c6dfba85995779348ad8aa
col12:   dc87b77b98bb9d887edc87bc6acab7898ab8a9ab7aa8b797677c8c9795ced7b5a5888b667bc9999f
col13:   b978aa499c9bc968ae7ac8b89bdb9b8baab7a8b85cba47fb9aebbe9da79aaaa2c8f5246a79a8daba
col14:   c55b8d7bb6a654766b4a88aec99caca8c96da897ad8d8a6543aaa96d8ec9855a669cfc76678a74cb
col15:   e4a8a8955678d987b589c8b8cff8db7487b7d59b99afcabab7ec8cbbbd7cadc8848bd997787a9578
col16:   bb7ab4c5749969c6aa6d7d8bb879b9cd7a9ca6eb88e874ba9d8e7fbe6d8bd9a87a98c8996a28b76c
col17:   c574a5dabaa78dcaca78b9a78c4acdf9d9ad9bde7abdd9c8da5b78faa8bda8ce986986db6a89676d
col18:   d6ac6785798cac86ab5aadd969f8dbac8bb987fdaca8b9d8aaaab78c99b9a7a5878b39c66a7b9b9f
col19:   dba9ba867c76789a6d889d9bcbadedaacda7ca87dba87b9dda9fab87bdb798badabcbd57da55688c
col20:   fb8984c7c9cb8a3b98bb2b4bbacbf7a8bb9c587b96b99b979c8de789b8af54da8aebaa88baa98b3f
col21:   d98767ca8aa7acbd6afa8cc8becfc7ab8986fdbbc9ca3da7ba8b98bda99bca97a88cb57a98adb787
col22:   f9a9c9558c79ad74b8cc887e7aad7ff969baa89c9a6eba7a79989cb98579d8bcd9c7b9d9c69ebbaa
col23:   f9588aea7a87bcaa9acadb6ba99e9bbabbcf8cd99aaaf8cdab8edf9b7cd99bbabcb899c9998a779a
col24:   e48a8899d58a46b9aa6a5bccabb7868beaac9888db8ca5b9d8ea9c88d89dbcdb7b58a89b85b579be
col25:   e87698a9676dbd868d8ed9bccfbc9c68abae5d98ab9ba6c9676d48adfb89878c7ab7ec7a9e74ab6e
col26:   c5abbb7889ddbec88a8ba88abacbd8ce799acbc6b9d8bdadaddaceb8c7e6baac84c7aaaacaa5c66d
col27:   f9779b9bbb9a9bacbadddcb8acfbb9897e6beaccfdbabadcdcbacdaeeb9ba7787a8ab5c8bbe5cbcd
col28:   e9b8a7aaacd7a9aa8e996eafbc9caca968a7a88afedbd9bcfdbadca7daddccaadcccc4c8b9a858ba
col29:   d9aad97ec978b98aadabcb9c8cceea8aeadedbcbbdea9fb7ab96bd9a6cf9aeac9baa979f7bcc476f
col30:   fa9799a9998ac8cacc9abeabafdcdcccecbf9dcff9d9aad9a9d6acb8aeab7a7dd7bbdcbbcaa5799b
col31:   d9c97abd59caaacdb9ebabdd7cbfdde9fccccaccceaef88d7c9bb9cfa9b9688b7ee8eb58ce9b57a9
col32:   eb8b4b9976cd79d7bfddcceece9e989befacbeccfafda9acc7abaeddaaaa8beba9accabad668b9ce
col33:   f9b98b3ab9aabcbdbb7d9bcdfcb8a9c98e98becd9adc79bc9fb9bb96a9badada9bda6ae9aac9dabf
col34:   e966bbeacfb7e89bc7bfdbdeeabeeabccb8bba7dd8cdb8a89baaa9bb97c9cac96cb68ccd99bd897e
col35:   dabdbe7b788debaca9bcccc9fc8b9c9949eebfec7b589b8ed4eedacac898f7ecbda7997c57786ccc
col36:   fa8d7aba967db96c7d9f8dffbbba8aabdbabb6cebccddcc96beebf57a5febb7de979d6a9be9daa8a
col37:   bbaa9b7d987cbecc8decccde9ad79bb9c99cb8cab9eaedceafdac9bded9dabccaaaacfc8abbb97aa
col38:   a68258eba8cddeaf9aad9dccbb9af9e7cbbfcdacca9d7ba9bda8e7dc9b8aaab8bd8ba7ba5a569bab
col39:   fc9ac88cacbcadccdf8ac8baba8e89d9aaaccaeadab9da7cedfc8eddbbfad9cfabdab895a9eb9cae
col40:   eb7dad7ca7aabc9f99b8abac7a78dd7a8dea9cbfceaa8ebca6adcd7cb9c9499bb9cecd79db99b5ad
col41:   ea877a9aaadd9a79e9edceeccfadeb7ddefbfcd9dafeeacbcb8bde9b8bebd9dd7cfba9aac8ab8cac
col42:   f88c78989bdb9acdb8d8ca9ccbfcb8e77dddb9f8dbcaaaac8cfb9d8b97996db9cac7bebbf669a7fb
col43:   dd78b3a8bcb8b9e9bb5ab9bfdfcdaeb7cde8a8bedc9ab89aa7cdbaccfccd6b7babb9ab79bc78c5bc
col44:   d89b979acb4cb48ebf88dfddedcd8ad8dca8aaaadd8bbacdac8a77b9ce9ab8c9dcdaaf978bd5abea
col45:   cbc9758b98959ccfb8b8aecbcebba9dca6fbeadecdbf8db69b9cb9cf9e9c9a9c9c8bcf87bd9d47ad
col46:   e7a99889a96797aafa98edbccddbc9ba9e7abacacadd6ad99cfa9ecbde9bcc98fbb9b8dca7abab9a
col47:   cb8768ab5eeaab88a9bab7b99beeac8da8cc99cda58dcac8869dac9d96dc69c79e8bb6c99a589acb
col48:   bbbb8c7978bbdab99fac9b9a6eb89eca8daaf9ff8c9ccfaeffafdadababa9bcbeb59bb6cccca779f
col49:   f8abb89a9496bb9dab9adaaacdabd8d8fc9bcadecbfadaccaaca9dbdb6cbcacae6caacd8c89b998f
col50:   f6b68998889d69bcd5cfbd7cbdddcb9c8889dacaacdd7b7c7b5beffbc7e6aaaadbb9caaabd77aaaf
col51:   fce9efefbfcffdfadfcffffaeeffffefffffeedffdfdefffffffffffdfffdfccffffffffcfd9eefa
ROC:	 BPix_BmI_SEC8_LYR1_LDR6F_MOD1_ROC14
col00:   c9d997dc9b9bbdfbbedaab8fadffccdbceeeaeffeee9cfdffffdfbcffffeeffedffeffdfdfffdbfd
col01:   c897727284977a6b77cb6b8b978987b9986b968c77987bcebaadaa7b8784abaf8ca9b8cc9a9ca9bf
col02:   6377574446373566779a4a8a3b8d7978a4aca97c9699a9798a8c8786ab9abb9d9db997879c6d7b5d
col03:   c6775668a98779a86968aa78855cc99b796846cc9dabccae697c7c9ba5b9ccbe98cdcc79f9caa79e
col04:   a6843864a76a7b786e69696697aacbaa9487a5aa977abbbaa9ad99b9c59bb98cbcee999b59ab999f
col05:   961265764989886778c8966c6aa649b865a9a999c9a96476b9cac8dce9bb9be6f8ebb9ccbec9987f
col06:   c535725766a97798a759c7d99a9b5857ac98d688a99da9b998a99abcf6a79e9ba8ccbbccdcdcc79e
col07:   a575658a49778c666b898aa788ae99bd8cacb7a9aca7c458addeda8cc9aa8a9bbbcbd5bac988bbae
col08:   917767957a63999966865686788bbb7a997c6ac79bddab8badb5aad7acbbc999fb85aacbb5e8998f
col09:   c285a6237a73a767a996c779ab97ab777a9bbbe6bdaaa9cadb79cbaa9c97bda78c97cdcb5cbcbcbf
col10:   e6585376656567a886f999bdf4b66baa9bc99ebbbaf879a599986baa8b58b7ba9bbccbbbc889bdde
col11:   aa86977749656768b9558868769998ba8c8bcbdd9d7b79daaedba9cd99bbdccaadcbba998e9adbdf
col12:   d1648589834ac6686a7a8798ad9b889bcba9d88aa7ac7ac5aadab8bc6daeda7dacaa8dce85bb9c9f
col13:   a76aa8871896938b6486b87bdca6aaba9dc9b8af99b88cac8acdecdcad87bab9ad8cebd8ba8ed8af
col14:   846a986769776778238897b9dba79c6988daacba9aa59b6879abdcaac9a79dbaea98cab96a999bdf
col15:   b7476864a85699a8798957699999888b9c8b899c7adcc65badbaaabeaaadc8ca3da6a9d8becc8bab
col16:   e5a4646883965799585988886a4aa695baa7799c7b7caaa969cc76aebab89ea79d6ca8aa8eb7959b
col17:   965936676799b757c7ba8aa77976b7ba4cb7ab58c9b7a9bbcd8a98bdfbbcfb99cbf9dbd9b9ea9cbf
col18:   a967443a66a82a786949b74eaa99da6baa7d7cbc8bbabceb8b7e87bbacbccbbb98bcd89ad995b4af
col19:   e7877565a85b7b999858989798a9df9889dfc9a8dbcdbbd98a9b9bc9869aadcbb9acdbb8ac8a9bac
col20:   7879758587976c3a69788bb7a8ac5b687d7c99aba6c9c7a9bb7aa6c9cda8977cb9f9bcb798dccbcf
col21:   e55588ac587699a95ba7b8f8bbb998bdaaaba95aa7bb8b8a75ebadc9799978bad9bbacaa8859ebbf
col22:   c777664376547899c9578bb796a9a984a9d8caa89ccda7b8a98d89ac7adcbaa796ab89b999a987ba
col23:   956967679675899c745babbcb8ba8e9798c9897aaabc8bec8baaddec9b9a8acd9c75a66abbdcdfdf
col24:   b6c47878a97674a89a5a9aaa87c589c8d96ac8de8a9b695d9ba99fcd9a89d99c96988aacfcaec7af
col25:   9658988544c759879ca986999ceaaaa87e88bb9aadb9989b9cbeec9bcaed9a8bd7c9ba8dcbaef9cc
col26:   c62756767779aac8a8a7dada78a9cac6a6c98b9ceda98cd887bdb9c9c68a9b9cd89c9b9dab99dbbc
col27:   a44956aa898c7766b9a5c9cbdba9a6999b8a88cc8aeae9ebdc9d89fefdddeafcd9abb6eba9abba8f
col28:   a557ba9a978a95ab589cb79f9cbcb7a8d7ccbb8eb7bd9aac998b9bbccabcabadacecb9bcc7a6aced
col29:   d685ab74597895e78f9aaa7abe89edbecadab8cb8ab7dabbccc9a99dccabb89cdbcdaa8bdaa679ef
col30:   d99ab9acc89c8899b8a8aca88cbeacceccdabecdeaaadb9d8bcaadedacabbfcdbedcbabdad69b7df
col31:   a879a869b8949a87c9ad99cb9dbabcbebebd9ba8cdcaced9cb9da9d9aebfc8bd9dbc7acaaeae9fcb
col32:   f6a7877b97898a69aca79aaf9acfbcbb8dd69ccc8cbc93a8bba9cbfac8dbb7c9cbd9a8d8ba9ea99f
col33:   c8676756a86ac8a978a9cac7ebcacba9abacba6ababaaaaddbccc7b9a7bcbccc7bcdcbadabfaa7ef
col34:   d74aa965b7ab9ab99bbc9cabbace8ebcdcadeaadbb9dabede79caf6dcbd8bccfbc9ebcebaaea8a6f
col35:   a6575c8a7e97548cacbb9dadd8999c8ccdacfeea86dbaabdadfd9eddbac9a9cbfdbdcbd9978babae
col36:   a74a9d896ab7af6987698d8dbbcb8b68ab9ac8ccc9bdbbb9cb96dbbeddccac8bd88bddc8bce89b9f
col37:   e879989ac567cbdde99ad9aaa9aa98acdccdebddbba8dccb79ebc9d9cbacd8bcd8e9bacbbdbc8baf
col38:   e83666ca596897b9b79a89a977a99b9cb9aaafbaaacbcabdbdba9da9ec79dcd5a9bcec8bb9adbbcf
col39:   d98b576a68bb7aca9bc97ea888bca8caa9a8bcddaba9cbcdb9ceac8aebec7bc9baa9f9d9bccababf
col40:   8899ba798a8b98d88899aacbc6bcbdc6c9e9acafcbcbddfbbd6daeabdcfcbc9baadadce9a8f9ccdd
col41:   f7b688695799889cc67a95cccdafbcb8bb8acccdaeccacedcbbdbc8ac869ddbdcabedbaedeaccfaf
col42:   cb9776b6647c7777ed99bb7d9b9ec9badfdaeddee9cbc9dfdbbbcbbdcfbcce99cacdfcdf99edf79d
col43:   f9aa797b878996aabbbaaa994b9b9bbaabbca7dcbcdc9ddeadccaeddcae9edbddafcdade9dddbcaf
col44:   fc58b9857869ba896c9999cc8b99dbce9cce7978ddf9baecfbabe9bbc8cccfb9fadcd99e8bcee99e
col45:   9975c6a76cba8ab7acb9aabcb7cacc9ccacc8abfb9dcab8bdaefbbbcdcb9c8defb8ecdd6ec7cfbdb
col46:   fc887669664a8ab969ccbd9bbdad8bdfba8fcb9adb8cddbbdbfcdebadeccccdefcbccbccfecbdb9e
col47:   d687ca88a8797cc9a87acd89886a7dade9dcafcdfcabafdfbbfcfecfdaac9bb8eb79edbeaaba78ff
col48:   a959aa9427985aab6dbc999a8c7b9bbdbc9bbbcaceaddaebefadefe9bcd9adcba9cdeaeababc9aaf
col49:   e7a96b77877a7bc98b78aaa9eb8ca5b9ecabbcfbba9cdcddd7fdbdf9bafd6abaab8cfcdbdd9cde8f
col50:   897ca6d9568aa968a678bb7abd6da969f9dfeaa9cdaccddacea9dadcb9eacba8b87caecbd9adccaf
col51:   fcaacdceaaabfecedffbedffbfedfeffffffdfffbffffffffffffefffeffefeffdfdfeffffffffff
ROC:	 BPix_BmI_SEC8_LYR1_LDR6F_MOD1_ROC15
col00:   d9be889dbcfcc78aa8de99bfedaffcf9fcdcdfb8cdfdffffefffcf9fbfdffc8af9fdbcbffbbcb766
col01:   b144536966117656b7a9db872579f5b97b8abadb9889b78be399a97eb86a8cad98885bbd3185a3ab
col02:   f666864468546969776a8d6a7acb6abaa989798ac9d87bd68aaa9a9a97caa557ac9697c746737479
col03:   944b69697da5b9c98b5866b8e7cd9e9bc59ab98aacd9d799eb9d9b9a7a9aac75ccb9757378aaa756
col04:   d7754635679a927458bb5e9abc85798a7e87aa93989b7aab897b989687cb6889c78b5892658b694a
col05:   9359c737967876cad59ab7ce7b9b76eb8bddca6a8d98b896898ceaf89ab9968dbdbc78fa9485a588
col06:   9456897768967a65bb5a889a68cd7d7b69cca8ba886d9b9c7c99c75e76c7bf8f1dbcdcab8a36746f
col07:   fab29997c9a878ba8abc96d867498cbdacba9b9bb897cbcbbbfc9aeff898bacb78ceabdabea9866d
col08:   cb55b9a63967368b98ba8a889d8e8a98bcbb96abada6ac7acbaac79a5b7888bbac864be7c79766a9
col09:   9675a7a89ba593bbbaa98eae68ea38a97b9bdb89beb87986cc8d8bf7cb996486ca848a975b8c9a5e
col10:   d47a2895689429ad99caa66aa8b9a95bea8ebcddbcab97bfb7e8b89a584c46ae6b499a999a86939b
col11:   8b95699c64879698bc7a4997876aba79d885d7a8b9c789d866a9758cb98d9746bb43e755e867735b
col12:   a768568863598b34a486aaa8a9897ae89bc8acbe9ca9a9bae56d8457a78e7a85b7a9778b84b7879b
col13:   71555769986919777b9dbab9bf8dcbc8a9b7bdc699c5a6948bbc88956e9ab6a58ab787cfa23738aa
col14:   8666497578d6586ac7877a78899ab8ffc8be8dada67aab6963cb798ea9879a69b864cc896697a76e
col15:   a7771499a759aac3b9a7c8dbad89ba7eba8eeccdb9c6bdca98caaa685bd77c46f77a89952757597c
col16:   c965aa18a66796776aab59895a6b7cfa78bef95e9bcb97b9b8c7ca96c9f85b7c89a872659526362f
col17:   95a6a978976a7e7d6ac698798aadceaafdc89bcda9ac78bba8aa9abca9b869a69d99bc984b8634a8
col18:   95185b8545696875899bb4d6d87b5beaab7ac7ca4b86b98cbb88dba8949686835863b7494885884b
col19:   bc67b9b89b979986798a8babab979daeba66abda7ca7888ccbbbbb8f9b69869bc2586b666ca28788
col20:   d835496798b55a8ab85a5dab58b89eaadbdbe9bca9dcd9de8b8999bb662abb99799ab18c98c7547f
col21:   fa56aa8ca4a86783678b9f9bbc9888b98defab9bcfadfcacba8b69e63b89ac6a578739a46aa8534b
col22:   d725b9576987ab2c698b9c96b66cfbcb7898aacfa7c99aba979dba7698888ac59722aa8aa6d5778d
col23:   946979c9bb46b8b968a97d696b7aaa8cbcddabd9aabbe8a865a8cba671acb8489aa8495c695473de
col24:   d97849655958a4b79989bad7c999ab94b6bab99cbae79698b999c8aa9a7c8a59879a95ac3999669a
col25:   e39a5986b7982da979aaabbeadadca797bb6b7bdcf99d9d568c8da9b9bb9c7667eadcb6c6b65538f
col26:   b6485667b57bb36b9cb99a86b98498b7a78ec4bdb8cd77b99b8ac7b78eeb7a659d99d7875a6c699b
col27:   d9bba8a89a8a9ddd9af79bea9cabc38ba7b7ba77a977a98becdc89ce88ddb88e77f7cd996ac9878d
col28:   feaac6abcbb9cdd89b6ddcbb8bcbc9a7fbbdbac9b8a987a997c8bc9994d5988dabcadabbc9a7ad4b
col29:   f3bbcac6a87ebdbaa99bac8cb9affb97da8aad8c889aed3c986b5c8c9b8bec8998bbbdea95ceb4b8
col30:   f59b8eebaae67cc7c9a89a9b767c9ba92fb87cd5698dc59b96dc7e8ca9ec6c87e86c8ac787997a5e
col31:   ea889869c38ba6bcecaa96a98aad9abaaebafb9a8b876aa5c7fa7bdbdb8f79b9aadbe988b99a889b
col32:   da5969baa8acab98a9daaa8c6dabcca8895aabb9a76dba6fb5a5ccf9ec65aa8ab9778c5b87a4fc8a
col33:   c8e8a858ab85dc89868dc8b9aeccba4abc79dad9bca9cab8bac95aa6dc9b9aefea9ea8b8bacd897e
col34:   d88799babb998bdbbbee9a8cbcaaa79c7e886879ddcca7b8b8c5a9bcda8faadf9dc8789ac98bdd6f
col35:   ff872489299caca678aaa5b99cda297adf87a4a96cac7c68dbcddd5eeaa89a94a68ac9cca9a9a28e
col36:   fac5766aba4bba999cec787abcae9b7bfca988def8ec898b9dee8db7ca979ae88b9c5b7eb8babb7e
col37:   f78db78bb6cdbaacabadddeb896979ab8dbbdda8da8fcbbb8fca99ecebbe849cfccc5cdafcafefab
col38:   c989cbaaa9cb998bb8cd878bcb89decad8a888bec8ddc9dfcde8cccdab9caddba8c7cdcaaac8c3ae
col39:   f7a8bc9caba8ba6d9b78a96c8daeaabfbcdc8fcfcbdcd9aabcbcebbd9cedb47c697c9dac9798e87b
col40:   e8aa69b898acca6ebc7aae786d9bbbba7aee69b7ced9a88aaa9ba7cac99d89a6b5c8b6d89798d77d
col41:   c9acbb87988aface6bdbfd8adb7fcabc9a9c89fafb9cefdbba9fdac8fcdaab8ccbdcedfeac9b4def
col42:   dc8a96c8dbbaadebd7ac36fdd59bed8a9caa67d9dac6c7af898b9bb9d8d9c9e197baffc8caa7aa9a
col43:   fa9bb9beaefafdca9ae999ccb99a9accedea387dae78ffedbcbbce7fcf8b99eabd6c9ac9ebca9a5f
col44:   fdba8cff7a9abcacbee6bd8ac5d9b9bbbaa68d8cb78cac99a8bbbcedbfaa98eba9ecb9aaaba93a7a
col45:   e6b8d8abdb8bd99bb9aa8acd8eaba99a9add98e8a7ecea9affbbdabbbbdbf977ce4fcaa7bc646b8f
col46:   d9acdaa7a6fab9acaaca9ba7cfcba97eaeaffef7fddea5bcabdbdbcd7988757ca763aae9db8c779e
col47:   f9babaaf7dbbfbf9aaeaaacd99cbcada99cb9c59dbedbeba6cbfb9b9aa9a9feba7e5d89d7c886d89
col48:   cc78d97778dacbbd99d7bdbccbca99b9cbac9bc9847797987cbe8afab4ac68ccad966854acfa2b69
col49:   b9b8abceabe979dbbac8fc79d8acdeabcbcdbc9ebfc9afdaffd9adddfceccc7a5bc9a8999969c95b
col50:   e8a67ab659d9caadaaa8cc7cbc98b977fd8fcbbc99b78facbdaececbfbca89cfb9a8ab48d38f899d
col51:   aeaecfadffefbfdedfbebffcfffffffdb9fcdfcffefefdffffecffdfffffafefdfc8f8afc8fffeaf
