ROC:     BPix_BpI_SEC4_LYR2_LDR6F_MOD3_ROC0
col00:   49475373754775225669479A6B56698BC568A8E4789C968483B8A8789BA8857B36577878B8779AA6
col01:   95856875A75678876B4994CA6A767A87A98BFD8A9685AC8B8AA9A557AB9C889A6999C79C8D968368
col02:   548846547777A97284BA5AB59AAB9A9B779B949BBB788BEB89778CCA5A89BC7ABB9BA5997C89688A
col03:   8B9C7996398649CCCBA888889C9B8D9D8996AAAA8AA7C9B9B79A6EABAA9AA6CAB5BCAADAB5A8AC98
col04:   186378B654596A796B4A89989B38BA797A88BDA57AAF6ACBA79A97A6EC868BBCA9668A9A98888CB7
col05:   777A7A67468797C89687998497C5C669AB8A9A867BEDCCA966B9BBBC77AA3B9959C958AB9AAA4769
col06:   77561559658977AA98425437B989A7DAA6B775978B98B85A84777859797BCC8A8B75A69BA6787998
col07:   867D6B65B9A8A881B99A68BEA899D987A9BACADDCEF89A9AB6C9BB9B799ABA5CC8DEA856CB97BABC
col08:   3587B87AA969898B6585ABCB899A9BB799787B7CBA5D5BB798C9C8AD699AA8769CB9AABDA879869B
col09:   74898668B886B997B8B98A9979ADAA869BADFBB9B78DC7BA7BC8B6D68BBBC6ACAC6B698BC8BA8767
col10:   66777719787A9652788C7788A4A78B99CB99A8B58B788798CCDA797B968A8B68AAA68CCA596A988A
col11:   875A97876C874B9966A998AACBBDAA98CCB9AA9A8AC9D9BACAB6BA68D89ABBA9EA87AD789BA994C6
col12:   44659A8773789988787758666B8A9A66B95D8997BAAA7C7B5A8CB7BABCA89D789DAA9B865CBAB4A7
col13:   B6A69697665D95C7586D869A778A8ABDBB8DA87BBA687BBBCB9B69FA8BBBC99987B777AB8E77C8DA
col14:   67638267927A3A77745895997A788B8CA778B8C8A6BC8CAB89B9AA9ADCA8A7CDB967A97756A7C358
col15:   57459817785C99C89BBAC8FBCA9BBABC47BAC8ACA9A9A98A7BAACA8C666DCB9A6A87C989E79AB894
col16:   5C778896BB789A9B49689AA7A88B7BAAAA76866BADA96B6997897DB9AC8898A6DC698AB777D88A5B
col17:   8A986869895973B7A6B787897AB9ABBE989CC7CBBCB99696E87DAAAAB868A99BB87A7B8DEE8DBBC7
col18:   7AA884B9488998686A8A754A89A7AED88AA7AC9BC5689C66884D7C6DBA896875C9AD8AAAC59A97A9
col19:   75598BAB88C6AAABCACA9AB9B9B79ADAAB8BA6BEBDDFD9CBB7CBD7ADCDC99B59C6BBCAA99A6D8767
col20:   645686B687774786583779C9C69A448CBAADA99B897C97959D8DEB577A9ACA8D98C96BB6AA3BCC86
col21:   5137B477B989A8ABB7BB6B9A87B638C5A7A8BA7B98C89B7D8BCBDA9A99D9A88C8BABBCBB9B67A9C9
col22:   9886A94774A8B6EC49A57757988987BB4B88BDBBC89DA8BB8BA8C889A897885AA89C8897976B9A75
col23:   8786445D8759955BBA7A859BDB999ABABC95D9C9D7B698C8EFADAD9BAA75BC86C9ACBA8889798864
col24:   898A85795749A699B9CB59A958A7BA87BAC98B5796BCABA8899F7868CBD9ADCA8C7AAA6979998887
col25:   56BC7887B266A9987B8B7AC98AEBA7CE699C89BEECCA96EB6D97C9CCABDADDA98D9AABABD975BB97
col26:   A88B56C9878B9BABAB79C994BCBB8ABC7AB5A99BBFD97AFAA8BB7C9AEFAACB9D9CECDBEACC9A99CA
col27:   8799B9669A877976BADEE8FCBB996B8C8DBBF9CEBCCAAF9EAABA9BDA7ADDDED8BCADA9FB5DEDD9F7
col28:   5789A7D984A8568BA9B8B9BBCCCCCBC7DC7CCDB6BB8D9AACBD8A9CC5EACABDCDBD89799B9ADAB8AA
col29:   99BA7D986C9CF897BB9BC8C7ABCB9C8AD9BBCB96CA9E5E5ACAD97A9BCDD85FAD8C79AEA9FFB6AABA
col30:   8AC768679847B8597898B8CCD989BBACB8BCCF7A9D68B78AD8BFDCD8B9E7BCE8B8898DCAB9BAB66B
col31:   9B59A5B757F7A97BA9AAECB98ABCF9ABCDCB9FE9CCCDBEEBD8ECDBABFBCCDACEDCBBF89CDAE7BB96
col32:   79ACB74A97BE9BA9B7C9EB9DCCBC8FF9DEDDBBDE7FB8A9ABFBC9FAECFAFFDCA6BECB8CCADAF9B8D7
col33:   98ABDC88969CB65DCCC89B9A99F7AB9ACEEADDCCBC99DCCCFBBEADF8C99AB7DAAE6DCA9AAA99BDD9
col34:   89AAA9849978D89AB9CCB978CA9ADBAC8BA9CBBEACDACEABDBB8ABECC8CD8C9C9CDDBBAAAAC9DB88
col35:   A897B8B88C9DBBB8DBD899DBDA8ADEAADAD9AFCA8CC7BBACCDDFCA78A9D89AAACEEBFCABC99B9CC9
col36:   876CABCA9BAC888AFA79B6B9ACEA6CE6DBDDFDDFBE9CBAEFDB9CC8CECD9CEB7BA97DBBC988A9C869
col37:   A8699ADA9C9ACC98AFAABBCCCACD98EBBDBDBCEDAAAEB6CA6DCACADCDABCCC9A6BABBB99ADA9D8C9
col38:   8C97AB97BBAAA9BAA89ABAADDEB8DD8DFAB9B8F9DCCCCBDADDD97DA9DC8CBD9DACACA8CCEC9DBB8A
col39:   AC99AAD9796D6AAA9AFCFCCEFBCCCBBBBC98ABBFEBEDBFBADFFBBB99FCBAB9E79AC8ADAFD889C889
col40:   689BA8ACBBAB7BA6B78A9BAA6BCBC9DCACB9BBDA8999BFFB9BEACDBE7C9FBE98ACDBD9CA9BAB9C9B
col41:   BA88C79A8995D9A8CADBBBE8ADDA988F8FBEDDCDAEBDEDEF7BCBD8F9BCBCCFBCAC97CDD9AB9CABB8
col42:   D9899CBA99BBA99A69B8ABE89ABCB9BEADB8EECACEBAFCCECEACECDFDFDB9C9DFCCBCDCCBD9C9ECC
col43:   98D8B9BAD5ABCCCEBCEFFDA9DDEECFBFFAEFFEFDDFCDFBDD9AAB7EDFBCDADCEFC9FBEDC9EA8ADAD8
col44:   BA7C96B999BBA8A9C8CCC9B7D9DADAB9BDEDEBBC8DCDAFDBFCCBED8C7E99FBCFD9C7ACB9B98DCA9A
col45:   8BCA88A8D9BBB6FA88BB789CBFADEDBDFADEDCDCD9ADCDBAABCB98CECBD8FCCDABDDDDEA7AB99ABA
col46:   4A9ED889D7C8B8A69BAACDA9FCACAAABCFDFB9ADCF9CCADCC9ABBAFDFEBFECBAB8CB9DC9DECB97C8
col47:   99CA9AACBA7BBBBDECDADDACCBB7BFADDB9EC9FBEBCCACDAE9CEBEFBDDCADFB99B8B8EB8BADAABD9
col48:   CBB98DDA879A9DC49DB98ABBCABABCEDCEC99FCCEB7D8CB7EBB9AB9BEDCCA896A7D99FAB9A93AAC9
col49:   B98BCB9DB9AAE8CCCCEEEACFCFCF9FEBDDEAFBCBFFBDDEBBCE9CCBFDBEEEBCFBCCACDDBEEBDC9CF5
col50:   A89B98C58A99DABC8DFEC79BBC9DDFBBD9EADCEBBACDEBAABBEAA9AAECEF8D9BFBDA96C4CDA6BABC
col51:   79859BBAA96CC978CB89CE9BC9AAEDBE9D9CDADABAEABBBB977B99D9AB6BA9B8FADBADBBBC98DA8A
ROC:     BPix_BpI_SEC4_LYR2_LDR6F_MOD3_ROC1
col00:   55256955361335159164C55875B741695C782C345568486A6986168247643656E576936116E37646
col01:   478875759865C8898BB89A67B9959C78A79995676CAA7686BA76886568756A5B484678778585849A
col02:   778734A67AB7A566835B7867C6876956577848D7A3B94584D7A8A874665898A64668B75883A74766
col03:   7763845954956CA589C77BC8CB69A997618A8A617884478AC59D965779565AB9897A87A88A194786
col04:   594659799598459B4677557B7952B6789B7AA968A79896C66D77889997867457799258648A8B99B7
col05:   364A655686A59AE574385978AAD56B594A84A879978BB5A8839A98C9DB8688858C7A679786A88857
col06:   4757735BBA59E876767977694897779CAB7C98B56AB9AB77B6788566A64985799778653A89986697
col07:   48585A8CB895466AD68BBC99964AD69C8CDAB95A9A5948687AA68A9AB99677A98AA989A6A61A86B8
col08:   777B77365987AD8657398677A78C8A937A9842B8C67765967656D9C788A2A79978B9A7578C987973
col09:   8A5997727AB899C5AD6BA563574A7C9ACABA65BD8B799947956987A7B99787A6A7998888447A7689
col10:   57863A77A87786A57967B987A9B8A8AB5899AC7668749C979997BA869A8497CA58837768B7876374
col11:   79956C848856AB786B6BA769B99A9698AAC8966A6768DC79865BD9A958EC79769A66DAA599959988
col12:   654C6656856798793CC9489C848C96896A9AD5676A89A8C78768638A97998B9A7A7B99C875985955
col13:   6A6A385B787B5AAA8976C88A739A9A5E9975FB7AA98ABC96AB85A88B78C7C7BA5A68A955A24A6A97
col14:   793A58986C88B9558A887577D767A7CADC7AAAB698439DAAC489992B779CCAC4A8AA789489569757
col15:   9599286A75BABB9A77489DC69B7849B7899597BDA5595C8A9955A9DB9AA476859679A77955974866
col16:   B8669A75887CC7B868A988876AA768ABAD96A8864CB598BA5675887889939876755967C575B9B883
col17:   983875238878779877987DBB898AA5975C7ABA899A95A8A74898899A9B998BB58866C7A59399A866
col18:   63795688957699874998AB978647B8B86988A8736588A4A9776B86A4576A987955A3886747898637
col19:   76B2A6AA8B7A769AA79ABB7BB7C8AAA96976A865AD8AD89A7BB79A9B6DBA989CB4BA899A67C85A86
col20:   9324675E88B9C89766B894879697BED768B573AAE75B8B6A567689C8BD9E97AEAAA68EC775A556C8
col21:   8A9499C7886858A876782CD878CAA7D49BA59A7B8893769BA6AC6D979B899678CBC76CB79645A77B
col22:   797766889B8A7D8789528A89A976BAC56CD8DA8B78A68AC496A9C8977567A899986479F887768B57
col23:   898B958AB6658957B866B8DC8CB8C5999B9C6C6B7B8558647A8CAADB95978867755656663588AA95
col24:   4385A6763ECA7BC4B99AC788A5B7989BEBB8A68AA9D65BB79B74867AABB77B677AC7D887878889A7
col25:   9A88678C996568AB94ABAABAA7B896A86C86ABAB7B989A9BACDBC76C98ECA9AB8B9DABA7598C6954
col26:   C763999BECBACCFB7ACBBA98CCE59C8BCDBC8888EBA6AABCC9F5DBDBBBADCB6CBBABA8B8CDC39B49
col27:   B9A5A546BBDAA88BAAFABEA99AB8ABDB9EA66BC678ABA79C97B89AC9A3A89E7786AC89AB99E6C7E9
col28:   C76B68E6AB8BB95BA9C98EDDA9B9B97A9C9ACD8ABABB7DAD8A8BCBABD7AA888B8C9ABABCCB897BFA
col29:   5AA788A898ECA88ED8CDCC9CB8CDDDA68ECCFA9A9A8CDDBBFBCB9DA8AC98C7D88CED776BB9BADCEB
col30:   AC5BBA985A6AAAAD878B7DA9D8AAD96CEDCBB8ABC8D8C6CA89BB5B9AA8A6CC97DA98A99A84BBABDA
col31:   9CCABBCD88CFCAAE9FDCA8EAD4DCDBAEDDDE6EDBACFEEBB79F58C899EBE7EEDA98FBFBA7EB9EACC6
col32:   A9AA7C9BDE9CC7D6DC9FB8AFCA98BCFED99EDCCE9DC8B89D9DCBDFE9AFD8BA9998C89BC9BAB7CDBB
col33:   7D66C9B99AB9B8A76BBABEAEADAAAFBAAC7ABACAE89789FC7AAAEBBA8CEC68F9A7CAC9BCCD8CABDC
col34:   B797C99EFBBB85BAAB85EBABACC6E9988A9BAEAEA9C8F7BDA87A8AA6D9DCAB8FFE9BD49967A987DC
col35:   DA9B9C8CCCD9AA8BEE9DEE8DB9CD9DBCFCDCF8C9BA9DA9C8ECDB99ABDD9B9CDB696D9AACDEEBAA66
col36:   B7D89B9ABAB8ADBBFDCC7E8AACD5DDCCBBBCCCC98DCCBB7C9E99AC8C98894D9CABDAAABD7DA9B779
col37:   77FDDCBABBDADCA9E6DAEAEABCAACC8ECBD8EE6A9BACCECFC9E9BD8DACEABCA9D7ACBBCB8C7CEF79
col38:   C69E6AE96ACCBCD699A9D8FFABAEFBBCEDBFDABFDCDAFB97EFEA9C9FBBCABDABBD8CDB9ADECADCCF
col39:   B7ABBDF8C7A8BCAEBDBDADBBADBAEADCCFDCB8AFDFDDFCCCDDBBEDBCC9FDCBDE99887C9DABCBF9AA
col40:   896ABDD8CBDAFCCA7DBCCDBFBAB9CDBADE9FB99BB8CDFBCDBEBC8CCE9CBBDD998FACE9A99EDABFFB
col41:   AC8B9BB87AFCA9AECDEFBFCCBFBBEEEEF9CC9EDEBB89CC9EBBEABDCDACAAFBBCBCC6B8D9A8DCACDD
col42:   9BC6ACAEAECDC96B99CEDEDD8DBCD9AB8CCCACDBEACB99BAA7C8ADCADCFEBD8CBAFAB7CD8C9BA8FA
col43:   AA79BFCECAAF4DAFAAB7FDBABBADFEBECF99EDCFCFBEE9F9BCEAFBDFF9DFBCFCCDCBBAFAFDFF97BC
col44:   B9BE99EFACBDCAE9C9E7B69F9AFC6DEEDAFCE8DDDEA9EB9CDCBADFAEEE8BDBBFCDDDCFD9ABCCCCBD
col45:   CAB9AECD8BA9CD9C99DFE8ABCDF9FC7ECCADFDBDA8BAF8E8CABEFCCCBCFDCCD9FDDDBCBCD9CCDDA6
col46:   ACCFAABDD8BBACBDDBACBFCFFCFDFBCCABEDBAD9ADCDBCCDFDD9FABEECAAEB8E9A9ABAACE8ABAB9B
col47:   DAB6BEDBB9DCDDCBD9BDDECBAADCDFEF8DFAADCFDFFCCFFDCECBEDABFBFDD9BABCEFEACCEB7DABCB
col48:   988CB8DE9BC89DDEBCC8FEF7BB9FDC9CFCC8FDFBCCEDBD8DDBD99BCFBFBDDAEBEDFDFADA88DCB7ED
col49:   D8D9CDBDEFDDCCEBE89DDC9CFAEADBAFCCCCCEBFBFFBBBFFCADAAAFDDABA6DECC8EBFC9EDDCFCDCB
col50:   BBDDAB6BD99ADD8CDBADFBC8DBC9CFFEDBF8FDD89FAEBFCFAEDCCDCC99F9FE9EA9DABA9D7FAAB8BA
col51:   BAEABC9DCDBAF7BBEEAAA8C7D6ACDE9DACCCC8BBAAD999F97CADEA88DEB989EA9AB7C7BABBDB9CA5
ROC:     BPix_BpI_SEC4_LYR2_LDR6F_MOD3_ROC2
col00:   57895274527656388978468891788555A86C6657B897569966857358586748736694A5734A487765
col01:   7287D966347CB96875B76BA846BAA558B99EB87AA9897A7A959757A7B7898A897C27766965547B86
col02:   251398747748448574777769686A5576CA6A5B7C85A9D697A8A654695B1A7A6899977A6833695546
col03:   37357678776B6A75944475748AA79898BA96A966BA96B98B898976899C858777A6667575878A6748
col04:   66762A836478A4647786678A78786CA999498D989E87BAB488A98A9B68A9478779166A8A6D559961
col05:   45455759418433849A1999889A9BA9BB46678689B5C98B5B9B66766E6A67AA9A9668828668676AA5
col06:   64775875974734677563761A9877579BA9869A8559976958B67678385A797A492A67858589627999
col07:   745479958B56775676A8878B59B497ABDB9ACC876AA9DAB98A977AC6B69B78ACAA67755689766665
col08:   7757675443887A3A7765875C72966689CA8CA9B7854B7B5CB8567A79AAC6B979BAA6AA9897759341
col09:   37474688787974BB6C93C997B3698C3777A8A968BBBAB5A48599B68AD95996879A798AC7D8385785
col10:   2677C76A57574988A84B878C87883C6A799A86DB5786A9A795867A7996B9A94A76587A66A3977777
col11:   66476854985A76864977B5868979769CB9A9B6B5A9CAA9DA6C4498A69849B6AA6986897A6936885B
col12:   3A47997773462485577B35787A8668769AA7A97578699786A9AC6A895987778774B95DA726979634
col13:   6645A9899739795598658789799F6BB658A8B98A78D8689A5CB7AB2B999BB5596A75A595C9BAA884
col14:   5188667AA87573597345A79964D856898C99D89D8A977A9A67B887976AB98767A967677A77847679
col15:   56518964686658587AB65C87AA5F267A987CAD6AB9AA95786449558847886687A5885A86D5573886
col16:   756438574564988D348674967969B68975A96989A96B779B88D5A97956797765AA78A8C977759464
col17:   537947887C557779BA8A466CA8876988688A979B888B699BB9965695785A5B2A63B8739567755663
col18:   15455451B1C7579566A9639477A9558586877A4698A68E99A58965368A9797835978A766A6658A13
col19:   8496567978967648C887BA8A893876786C7B3786469998ABBAA68A99A78B8A795A968B89C96E9696
col20:   54296623755594697B7A56A78C56967B8B76AAB77966AB897B7989698A595A89587A6A667955B7B8
col21:   3464A77899845737C68B564897886D6789A7A6A979AB9CC7CA6B997799B787A968558A968B6988B7
col22:   365A65A7769679697997A8763866656843B969AB8797A788AAA3856B6A99677994B98A77A6979577
col23:   65875B8568183555588747AC777589996A77D38777878CB95AAB987A67A6CB58A8983585A681536A
col24:   56454679B87B5688565B58984AA8A95A8765866A96A98B78C6877878B9749B657CA7A4A798146B32
col25:   565558679C6AC4A9BBBA74989AB878B97AAAC69B99A95C7AB78C899B7799C7C7AEBC79A98D268556
col26:   8A4869566C4AA698AA799D495BDA99AA8DAAAD9EC995AAA9B97F97989AABBABAAD9849ABA7698A67
col27:   B357969BA96A86697C69B949B879BB8C8CB6DEBBAB8B9A98EB98CABBF7AA977897A6799964676996
col28:   9C696599A869788CA88697BD59B9CA9A856ACCAC89CBBB988DBAA7A9AAA8C9A8D5BA7C9A98696885
col29:   9896C37996878ADB978AB7A9998C98B4B9DCCBDCBCDBCE9B988F8CCFBACDA99B7AAD3CAE3A9A69B7
col30:   657867468A588A6757AAC98D898AADB7BAB7DBBC759BAECDEBAB986D8DBABA8879997A9B77988788
col31:   1A3BD96AB97FA58C8AACBDAB9B8DCBBBDAC9DFCEDCEADCDDAAABB8BDDDABEAAA96DABC88A68B6B9A
col32:   59873589B6C9A6CAA99A5AABDCAABD9ABABEAFACCCCCADBFCDACDB8CFAACBBECCAAAAA77E66A9A8A
col33:   789AA9D85B6AC9B56ACC9BD5DEAB8A9AAB89D8DCBEAE7B9D9BCCCBDBD9B9CBC9BAC8AC9CC89A9B9C
col34:   749489ACCA97AAB99A8C9D5AB9857CABCA9BBB9DDA9C9FABE8BCC9CDC999CB9BD8947CA9DACCB667
col35:   AA8B77689AA8DBA8B9CAB96ABDCBB96CBCBACBBABCBC97EFCE9C8BC8CDD9CBABBDCE89887C99BAD8
col36:   757C68647B977AB9CA97ABA7BACCCE9B9CC8BDA9ACEBDCAAABCFFCCCBBBBB9CCEF8AAC88AA97AD98
col37:   99C96698B8A7B9ADCABE9BABE898DFFDCCCDCCFBADAFECABCADFCADABDFA9CEBDAAABDB899CAEBBB
col38:   88B8EC979A7A76BC88C9CAD98AB9BBEBB9DCBCBCC9ACCD9C9DAC9BDDAADBDCBC8D9BAABBDA8D9ADA
col39:   4C8AAA8B79A8977DAD999ABAABACF9ADC9EDADCDDC997DAECBBBADBFAABADCABFEDCAE8BC99CF9C9
col40:   97C7C88BCFD97AABDDC7DDFA9BBB9D6BAACDABCE8DD9EBFA9BEC8D9BFCDEBDC9BABCC9DBBA9C9BC9
col41:   7B89C9AAABDCBDC9BACDDAECCD7ACF9BBA9BA98CDBD9EFFECDBECEDA9CBDDEEDCFBC9ADB8BBB9BEC
col42:   AB9C88B88ABCA9C7C8A7BCE8B9CDCAADE8A9EFD7D7DCECECBD6EFAAF8E9CB8A9DD9BB77BBED8BEA9
col43:   C9AB8F9BAACCE9DCFCAAC9ADCBCECF9B9DDBCEDBCDBCDECCFDDFBECDCDBEDDCBAAFFDDDC9CDABAB7
col44:   98B97ADAB9AB6ABBBBD9DB7ADACDE99DDFEBCAECFC9AEDBCBDDFBFBFEFCDEBAFBBBDAEDA6DAA69C9
col45:   B78CBDDCBA5DCEAFEB99EA9CD99ED7BCCCBB6C9BABCEDECDDF9FCDCACA9FABDCCFABEDD9EBDF9AA7
col46:   97CD9AB7ABECACB98AACA898C99EEB9BDD79FAAABCBEB99978A8DCE9FDB8BCADE9CDCD89AB9DCBD9
col47:   7A8DCCDCEEACACDBCCAB9CFA9FE8BBBDCDBDECAFCDDCDADCCADBDCEDEBBDFFDBC8CFAFB8DBFCDC98
col48:   9CACACE999BCB9AAB8C96CBACDC9BCC6AAB6888ADCDCFCCBCEFEBECDAABBFE8CDFBDBFD9ACCFBACB
col49:   EA998B8AECBCAACD7BEDDF9AADCEDEFCACACCDDBF7C9BCDBBECC9CBDCACDCECFC9C8ADDEDDCEF9AA
col50:   65D9BDACC9B9EBBEA748ADBCE7FEDECEBBDDCDCDBA9DDDDCFBBCEFFCF6CEDCDDADD8CE9CECBDA9CD
col51:   8C9BA998BA6888BD97CA88A78EA8C968AEACBBACDC8D7DBDC79AB9CFCBC9ADB8ACAB9C9896A8BC79
ROC:     BPix_BpI_SEC4_LYR2_LDR6F_MOD3_ROC3
col00:   513557715467A59348A88A669797555899563A8636C797489797A872948997466867B5B845795575
col01:   61457954876697C797774B7A66C448A88BBA9976A8D98BAAA89A869AC7BF697B75ACA9979E8646C9
col02:   897468574885578987A6A768979A969A87A48A63C66A7B96A666B89667688B885B7B988B68A7788B
col03:   6974787A4973668A96B9ACAC579786899867A66779969A997A98A89A9B89789BA68955C66C878BAA
col04:   79694789787647888469989769AADA9B9A69AAAC68B9C598966996A669B6EB5968C776B75869B876
col05:   521767954A9B838896577B89858B6C974B8A89C9B56CB9B99BA8558A9A8A9479667688B5999A4BB5
col06:   9488A655814668A6C4A37669695A688BAA5A9A9C668B87A8C9B87856B9987BB695C788A9A98CAA7A
col07:   168195295B88A9B9BDBA587A6B6A8779989BB693A77A79797A9BA99469CA889C878D9A94A8AC8A97
col08:   333668572796789946857A797677889A68A9994AC78B8B9AC497785818752A84788796683A5B8269
col09:   575697AA8AA66B5687A7B9B855A7D84B9A966C97AC78C888B9D999B5CA8B7BAC8B898AACC9B79669
col10:   2C35AB95989597864C999A889464794BC97589AC7B6BB799ABACA89A6A8A8AAA4B997A89B6879694
col11:   5566688C9989758A966487B99779899A69AAB877BA69C99A7D97693776A7BC999B7AA79BAA7B999B
col12:   4585955574799B872877499748A576C98BA8666AA875B87896A9DAABB5AD48B789879779A97A98B5
col13:   484988A6496A78976796889864887688B6988A9B966A96ABA9A9C698867699D996C76B6AAC966666
col14:   845433638B3568A98A888C6979A78B69AC556ABBC9CB889A959AA88BA88969AA9B887688A97CA6A4
col15:   96757A2887A7A9665A9899B6BBB6D99B999C8A8B8998B99DA698A97AD9859C9867CBB68B6499A76A
col16:   B55785559B6477697698886B97999599B79AB8787AA9C79BAD7A9B6B79AAABA9796699BB78649787
col17:   416677A788AA85A7897A8AA876A4A8C7AC9C7DA5B9A99865996AC86A96789AA758CD97AAAB5B67B7
col18:   7746955562A456A1B378A7D7A8BA89B988989B789BCAAA8B97865A9B874687A89C84B898AB7A8898
col19:   7795839B75A75B966799CB4B8579758287B776878ABA588A7AD89A79A58C6AC9979A999549899A7A
col20:   58859497A8B38996AC8CBB39679885A998F8E99A47938CA8A7767676727AA99A9986894879A69566
col21:   6678B869CA7B973AA9699BBCA989A5B8BA999796B82B59AD886BBA4B8A88A8AC7699A5C8CA688A99
col22:   3683799BB888548CABC658668778A98ACBCB8788A99EA5B853969A768CBCA7B87B997A8969B9AB97
col23:   9655677886876B99B5DB8B956999B787779B5AB7A96BB6999CBA6879C85BA79B67797A8A9A9AB6BB
col24:   776448767ACA86474997C98AAC99C4E787696A79599CACA879CA696B7CAA6AB66A468887A6B98985
col25:   895A27969398C88A98875889BA8567B57ABACCC899EC9937F7B8AAA8CA9788B59A98AAA79C99C9CB
col26:   9686895C7E9889889AA96989A9A5ABCEDBA8667BAAA8D8BAAC8AB8A8CC9CDABA78BBAA8AA8A9A999
col27:   67A685BB9878AA9B9A7AB8B9DC499DBB5A899ABB9BAB9C99CCACB8CBBBA9A8BC8FBB9ACDAA9B8C9A
col28:   8A966B97CA7B9BBD77AA789488CD7E6DD98A7B96BA9BA9ADAABCA9FB69BA9BAA9CBAD9ACCC899ABA
col29:   6486E7776ACB9759CDB6DBBA89C9FB9998FED7687AEBBCAC9BBABF9AB9ABBCD5A9ABACAAC9ACCB9B
col30:   A9697AC74B76DAC897899A999E8DACAC899AAAB759C8AAB8BEA9C89AB9CDBBB5BF989D8A79ABEBA9
col31:   9CAA9B6A9A667BCA6AEAACBDB8B9BCC9CCAAC8B9DADFEAEAD8EBBBF7BA9ABB8ACCCA87B568DBAC98
col32:   7AD7A7A9A79ACAC7A94ABA96B99BBD7779EBDBBDCB9ADAAB8ACBCA8CC899CB8CDCB6ADB8DCD96BD6
col33:   A877ACE88C9AB59999D9A9CBDAB7DC7DBECAEDCBAB7ACDBABAABAAC78CE9FDDBCACACCC7BC8D6CAC
col34:   A58A8A5AA9B58B3DA899E8FF9B9DEC7CCA99DCCDB9C8CAB7BD9ABB67C9CBC97BCAED8AC7A9C9C89A
col35:   A8857957ACBB8ABADCEDCA9E7ACCC9AA9BAA89BCCDAA5BACC8ADCC8C9DF9EAFEC9A8BC8A9AD9789F
col36:   BA87AA9B6A94AD7CB9B9DDCBB8BC7DCCEF8CEDBCBCDBB9AB6B7BA9DCF9A9BCABDCACA88DACA89ACA
col37:   B897796BAAA7EBCC8C9B7B8CEEC9CA9CFABBBCACCAC6CBBCEAEBDCBBEDAEBACDDABCAC9DB9DBCC9E
col38:   9AA9C9AEB7ABC97CC8AE9BB9ACABCECCB9DCBB9DCBFB9BD99EC97E96AC9DDABBB8CA9A99CCE9AAD6
col39:   97959A78DA6E9CCCA9DCCB8DDDBBDD9BC7DCCDDDCCEDCCA99ABECDEFBBBA9CBCBDDCE8ACF8EBE99B
col40:   B47677A9C8B99A9B59EA99BBA8CD9DEBA9BACAAFE9DCB7DC899BFCC8EDEBBCCDAB3CB9ABB9BE9BAA
col41:   849DB7A7CBAADEAA8CBB9ACBB8CBABA99ABC9ABAE9DCABECEF99BCA5ECBDBEBA7D9EADBCB8CBDCCC
col42:   89889ABA94868CA98BCB7CA9B998ACBBFA9AFBDBCA99BAABE9B9BCBB7BF7BDBBDCCBCBBCC9BAB8AB
col43:   B8BCAAB688CCCD8ABB9AD9CCC99AFDDBAE8ABBDAAE9BAFBDAB9FDAD99C8EDDBACFDBCCAC9CBBE7B9
col44:   966695DCB9A7CCF5FDCA9A8CDABB9A9A7D9BBDACCCCC9D9FFCBBCFC9ECCB8FDAB7CACAAD69CD9ACA
col45:   8A8C99C9DC89A9A7ACCAACC7B9EFFAADCCCB8AB8B9ADBBBDBAEADBBDBCC9BDBACCBA68BBCBDAC6BD
col46:   4A889BADB59AA77D8AACCBCC9A8ECCB8BBDC8DEBCACBFDBBAA8E8ECBAB9CBADBDD86DCB7BCADA9ED
col47:   5BDB8C7C9E7AA9AB99EAAAC8AECDB8CAAADCBCADBBDEDCCC77D8ECDDDACFCFBAD9CDA9CCA9CD8AA8
col48:   997B989986B9DC8D98DDC979BDBDACF8CBCECBEBC8ECDBDCB8BBC7CBA9DEE8BB8ACBCB8AAACC8D9B
col49:   7998DCA98DACAFAEDB9AABBBABB8BEC9BD9C8BFCDCBBE69D9CBADDCED8B9C8B9CAAECA8E8BBCACBA
col50:   98799896BCCBBB8B8BCA89CBA8CCA6C88DDC9BABEFABCBD798FC8BDABCBFC7CAFADBCBACBC9BD8E4
col51:   7847999B688A89E78DB49BAB7A9BA9B9BE9B7C89AAB9A9AABB7DABBAB8DBC8A8ACCAA86B88B994D8
ROC:     BPix_BpI_SEC4_LYR2_LDR6F_MOD3_ROC4
col00:   678A989BB966255CB7EA65269C92975CBCA39795567A689968B9B778A8DB777389987A37B7C79889
col01:   77CBA98E978DFEF8C5BCB89C7BA9BEB9BB76FF7EACBAAEB999CC9C699EBB7CBB7AA69AA68ABE6A87
col02:   59CCABA9AB87BDD7596B99AEDCAB9CBB89637779A79BDC9C7AC7C99A79A6847995F1796979B899AB
col03:   3BC78A968DEBDCC98BEBCBA98A8CECEBB99979B8BB97798E89BBF8D989A8BEEB87BDC7D97B899EBA
col04:   85C6BB987DBBABACB9BD9B8CCCCECBFA99A688A7A8AC99D8BBBF75BCCBB6886763ABA89CA5D85BCA
col05:   49BB9FA9BAB8A89377C7A8EB86A9E9E97EADBFC9E89CB8CDBC8EDBBD987AAA8ABDD8AC8A7B6B989B
col06:   C846CB79B6AC9AACCC99B8D8C8CB9EACADCA8B9AA77AA9BBB7CCBDAAA6BBA5B678C88AA858B87C87
col07:   596586C7AA99A796ACC99C99D7AA8DCBABA9BA89A9A9BCBEB87CECE9B5CB7C9CCE5CCA9AE77ABABD
col08:   67388A7599B496AAC875B8A97AA8BAAAC7C64CB6D78BA969A89C98CCAFA689B576A88A88C5B639B4
col09:   5ABBB7FFAA99ACFAFD87CBCB98C96C7AB7BA9F7CCAFD9CA99A9FDBC5AA9A86AC9CD8BAC98B788AA9
col10:   675C899699B7BB7AAA7BAB97C69BDAA8E9BC9AEDADABADC98C9DDB8B7C7D79CB9ABC378B84786B6C
col11:   6735C664DA5865BF69A9AB8C9B99FBC887DACD9C8BAFD9DAACCB99B779BC97A578A79697DB7887A6
col12:   8B77B5F7C79887B9AAA9A76AA8ADC96CD8B6DD8998BCC89BB88BCB7875AB857BD8B9A8BAB9BA8997
col13:   26B17AD7ACB7A3A8BACBDBB69DA73DA9B7DD8BEBBDA9BEFADCADCA6BBC87ABCE9B98AA9B9999CCBA
col14:   6797988D48A9B977CBB87975BBC7FACFAA9B8F7BCDA796BCD9A5B897789DA985A898785B855896A6
col15:   5666BBC774927C99EAC89C9B3E8CCA9CC9799BC88689A9D9FAABED9EAD9BC6AA8C69C69A89ABB8D9
col16:   89778656B67C776BCA7A89C539D57CCEAAAAC8AB98BBBDAE8998DCD4A9968A998B55B79986B48A55
col17:   532568AB675764A77F89A978788AE897BABC997999C8DD78C7A6AC9ACBFA988E779BBA999B387F77
col18:   4549B66829898464E369CB8C94ACABBBAABB6BA5D998A9FB9596CADA6BC6CB9A89978B6ABBA69757
col19:   585668A679EBDB7CB93989CCAD5ABC8A9A9B8AAAA78789B6A7A9A89A98CA8A9CCE8B58575C483D99
col20:   966AA99E549865ACA86CBA66E9C7A87BA95A5AF597779CD799B39B5A7B9A84695372B67A733A97D3
col21:   8967B58AADD3788B999B996C96E98B3BB5B75788C5E84AAEC78D7989A9A76766ADAB9CD4C8D55939
col22:   3AA5969A958A956BAB68A9D9A567B88CAAA4EA9A8BA895596A97D6635EA68897C77C659897836497
col23:   65775779D8AAE897DCA7C66DCAD768C9D6C9C8BAC9A8B8AA82FB8D98778AB6A91DD996A779688769
col24:   7789B748879697696B9568EA7DADB87BA7C69938AD694897B8979BAA8ACDBCA58787D7C9A7B78A87
col25:   4A47C245347786B66AC98996CC89895C97B7D8BC57A598ECB7B7BCFAC4A5899EAE6EA869898D5C88
col26:   8C966788E967E5ABB5DBD76B4DB8DCA5ABCACABB5A68BCAB9A8ACA89F95BB97BB4B8BA79BAC8BDB7
col27:   66936CC7BBF988999A3CEDEAFDFABC6AC7BACACCAC9BA778BA7AC9AAA7898B7D8BDCF6CFD5CDD5DC
col28:   BC768AAB8A7CCAEB9ABDE89AAEF9AAECF9AFBADF9B2DC8ACB9BE7AED8B9A7D4C96ABAAB9CA9A8B99
col29:   9A8B9A784AA9B68E59E8E79AC9ECC87C9BAD87ABAE8D9CDBFFBAC6A79AC88A89B7A67A797C97CD37
col30:   568CC977888CA7AAC6B895A8A59B75BB99AB7875D9C8BD89FA788DB8BAB6B99BA3787CA978A56C67
col31:   A5A8A498A9787797BBCCDC8CCFBFA7D7F9FA9CAAD5BCADADCEB7BACEEBF9AA8DAA58BC77AA8AACB6
col32:   4177395A9CAA98D58AD9AC78A89899EE9ABAA95BE99AF8ACD99696CEA9898D996C79AC9C6899ACAB
col33:   5683CB859C9AAA88BAFC6E6C9CC8ADDEB7DBC8A9D9AD986CECCC6CACED9DDBCBBBAAAF9B9CABD9A9
col34:   69A56A8C46B7AAF77BCCD8B8A97AD9BBB8BACB9ACBECAAC9ABB8A78ADCC5BADDDB879D836AA88C6A
col35:   BC8958667586C797A7BB8ECDBFC8889DCBD97AA779A988ED7EDB8DFCBAB9B7CBC49D999F87C98B54
col36:   899AE59798BA8A7A5589BB9569AD9DAEBAB999A8ABBA769DD98EDAC99B86BAAFCA7CABB7B7DBFAAA
col37:   8B48AA94E8A9999AA9ABB5EAACB8ABDCBB89B48A7EB6C96CC6ECCDAE99FB8ECB8BA7B8CB6CCC8CB5
col38:   67A6CB9A8987BBDA8C8DDB99987C87BEAAD498A778D9BF989A9BCFF8AB98CAEABDBA4988C7BECAB9
col39:   A586BB796CAA9BA8AC89FBAC9CCBCF68DB7CB8B7598696A79789B5ADAD5CCCD9C9CCF49CBC4C9ADC
col40:   995A78AA7EBB8BA8987DF9EB89D8A77F9BAB57B79CDA897C8D699ECCC67987E6A8B95BAC84A89A88
col41:   687988C9B78A6CC6AAD8F56CA95F9BC86CADBCEC79ABCA9BA5ADC9F8B67C99CECBD8DCBEA9BCBA89
col42:   893A954ABABA9758AB6797ACD55BB8A7CE9C8AAA559BFAD9A9CDCAA8B6BCF686CD95977C59B85A8A
col43:   6A67397898B7A9DBAAC9C8CDAFBA79A79F7C79F8FDAECCCBA9DEC8DA8AB9F7EC99A8CCBBABA7ED9B
col44:   8688C8C798B9F6A8986D6AA7CC787C6DF9A689CB79C8B857B68CABB9D978BBFA999777CCAB9898C9
col45:   3957784D997B857B89F7B889857C9A68DCDA6AB5A8E6AFDA8FDBB7FCA99CDCA7D89CCAC6BAB8DADC
col46:   3566866777C5556D699CD99BAA9ABB9A9CC64895969A779C78DBD8B54E9CA579E294C9ADC8D44598
col47:   8895A88689B7CAA887768AE89F94A38CA98A5B6989AC76664A97ADC9AAC6CDA85B9A96AE789EABC6
col48:   777584772736376AA668AD78897AD76A6F79728B6A7B65B5A8A9D8A496CAC5699498AA6BCCC86A55
col49:   56B5C668A6A574876AA6B9AAABC886997E77AABAB9D99AF88D87C77CB7B8EEBB6687AC79988AF365
col50:   83A487A9BC725B66758BB9A89895A89CA955CC966A58B8F6AA9D7C99D8A7DC78CFB664CDB8F89892
col51:   51118A7867367576236A169629747648582A597AA66944588286B975BA764365845BA8BA66777566
ROC:     BPix_BpI_SEC4_LYR2_LDR6F_MOD3_ROC5
col00:   75AA83356866C3BC858BD6A875A17998AAA8495B786B4585956C9C6C7AD875AB46AAB75A57A7BA9A
col01:   FC96B94989B89ABBA9B7FAC6DDBB9DCA9BD997678E997D5A89B9C89CAF6B9BA8AAA82A5B689A99DA
col02:   755CC779A2C686799A7A888AA87A6D77D9BDBEC9B5888B88B8B9BCBC698CDA88B6E8A468DB789B56
col03:   3997A8AB5DBA88EBE7DDCCDBAC7C87B8DB879B9DBCCAA6CFC546FC89F5CCACF95A6834A73A698C75
col04:   7D71A28B49A495B978D79C98C8A7B8678786AC7BE8B7B5DFA7AA87BB955ACB878EA877CBB9AA6AC5
col05:   72898378497BC77CFAA8CBC8DEA68E89ABBBF8B899A948AA7EEFCCC97AFBB8D53E79CC8CABB389A7
col06:   7A959C88F879C4BBA3D93AAAD9A67B9B9AC6787ED899A6ABD7567B5BCC9CABCE69A5AB6B694A6AA5
col07:   5A9476F93D67999B796A79B9D678EB9DA9B857999ABA9E7AABABBBDAECDF9AFC9C6A979989AA9EAB
col08:   C8998D679BCB844DCD48B77A57BB56BC5D9B9B7F3574AEB89A775BF7A9BC9B9DBA7B9B7DCC49A865
col09:   5D5698B68EAA7ABCBDACC87BCD789BD8BDD7AEF798FBB8ACB78A8F9BECB9E9A8ABCAB966B5BADBCB
col10:   94AC7769AA97ADC49CAB6AAA5A5B7ACC89997BB997AB9A97857968C4E97BCE9A56AD87BB7C999A79
col11:   5B5799579B917A6E66BB7A74AABAA9BEBAB6CE7998879B8DCB5C79A9AAC7C79B98E7A4AB9AD5B984
col12:   7868437284987CC7EB6A7D997BF65BB6B99A97D9A8DD8B9C7B989D688DA7BB5B876B789BCA7DBAC4
col13:   D3B596B65AA6A7A8B8ABC7AAB8CDBDCDA9386B98CBCDCCAE7E9C7A7D98C9FA9AABBBCA9A989D6A86
col14:   A55A487A87769754868A699C99A76883ABAA97BA7798DA94966A9DB7D996A5A896D9AAC55997B977
col15:   6AA9BB9AC789AAB8A8FBC979E7AAB5DB9A956AA769CA8C9B577A976CA6AFA86AB8BBC7AEACB58CC2
col16:   89936787B8CD9B9B995776E8AC67BB9A7898A998A778B789D887AC6898C9BB6C879B5A8A79A88876
col17:   895669A7B66BA79A7BBB389885A88B9C5998A8696698A9CFB4A87456279B5898B956ABBB2B8A67B5
col18:   85769BD77878B87677C5B77B89E8A788A9D5A9A4786968A598BD65B5C6B78769977BAC7D99876874
col19:   75887596CBA8989A96A7AB462B8BC8DEFBA696ABC78767AA9B5CCBAACACC8DD75A98986DA787A6A8
col20:   145635C9C561A79C7A6D998AA56889578A79DA6A8C99698978B89DFAA9A44CEC8D25A49576979A87
col21:   4877A969C77B99BC5C8B5B879BE679C8AD7879AABB689A7E9E9D8978A869B896AACD57959AA7A927
col22:   26AA7266A765676A998A776889D786885887ABBB496B3D6B8B9FBD7A7CBA9DBA6687679A8CDC6877
col23:   57576E75688A44CBA7697D45AA788AA9C58949587A9AC989DBABB69B969D67A955A48ACA8B77C474
col24:   746545A56885979558968426B77776A8B8ABBA98577AD58CABC6E7A68C788D7B99745C44A9778878
col25:   7A44536459B579ACC486999AB6AA8A6AB8A9C87C9D98EE9B79A6BADD7C68FB939697837957875746
col26:   6964F999C9A89A9CC666BACD896D5D999894AB899BA88B95BBE9CA6CDADDA777D5B6ABB7B87AB997
col27:   C98858989BACB59DA663D6AA96EA9AA6D9856BE79979BDD7ED89ED88F77CAA779A95ABD87BBCACB7
col28:   988C656A5879598897E5886DA96E8CEB86D89CA597BDBAEDAA8B9ACB8AA9B5C5B887ACCCDC7754B4
col29:   A7669BAB89BA55B6B9AEE9FAFAB9CCACD7A9BEF88A7BCB7A74E6DCA5C7A89FBB9AA99B8B8A9CBAD6
col30:   7A979BB75B99BDDAA697F8C5A9CABA98B6ACBFCCF6877B9BB8DDB9C9ECD9F8DC7ADD66B9B7DF9B98
col31:   65AA8D5775D8A799CE7FCDADCBACCA9AD9ADBACEABBCB9EAA8A8EB9BDDABCBED99FCADCBCA9EF8CB
col32:   BA8499E99D67F9B6BD9FAB8DF989A99CDFDC767CBAAEEDE9B76FABADB87B6A9C89FA6D75A785C58E
col33:   D888979677799DEC7BA8BF9BCDF8E859FBC59BAEBCAD6B7BAECF8FD9DFDD7C9ACCCACB889BAB7999
col34:   8A84BA788C69B9AA9AB8CAA7AB7AECACABBACE78FB7BCAE8AB7A99FB95B7CE7CBBB98BBA79BD89BA
col35:   6AF95577984B288EE7877CE9BA97EBDDACCCEBDEA7A89EDACB9DAACBBE8DB8BA9B659CC9CBC9AA39
col36:   5775B8776C7DBACEB9BFF84CCD8E77DAD987AAB9BDFCB97ACCB4A787FCAAB788AB9AAD89BA9FEB4C
col37:   A7B77AC7998D9ACC7BF9ECD9CDB9CDBBCFDFDFECADE9DCAAD9C9FFFEA99FBA9ED87B99BC8BBC9B98
col38:   5776C9D7976BAA9CDFDDCAE88DDCCC9EFD7BAF85FACBCE67B6CA9D8CCBBCCBDB8CCA89DE9A9CACDA
col39:   B6B869779AB6B98BCC7DACC789ABCCDBFFEBA7C78D89FBB76CBCCDA6DC8B8ABA9BEE8C989CDCBEDB
col40:   6667697489998646CC7A88DC8B78E598BDDDDABB7ACBD9A8D9AA7C98FB97D8A9BD59DDCAAA6A5BC8
col41:   755C5B6B6DC586ABDD278E7DADDB99FCCAFC9DDCB7ABCCADEF9FBDE7EB99CEDDB7DBEDFFE88D89CB
col42:   B8999D9B87579AC8988AABB98BAB7CECC7DBA8ACBBC9FABCF86AC5B8BEDE589F9BBBCDFA69894AD6
col43:   D557765789A79798CBCEB9CBE99C79B9BB9DBCCBC9ACC9BC8D9AEEEAABB8B89CC7CBBB99BA8F8769
col44:   B583B65B88A97DB996BD39D97A967DCB97BCB8DFEEB5CDBBCA7BDD8A92CCCE857AAAC7F78E5A7D9A
col45:   25B88FB86C6E78A79ABF6B9AAB6DFE8BECDDEC8B6CDDBE9B8CDCA999DAADC7FCB67AABBDBABE95A8
col46:   95C968BED64BAEA98879A99AB899988A9AB85BD59A6EBCA89AADA7BAEECBD9DCD8C76A7ADAA97999
col47:   B5872569ACAABB9BFB759BB9A9A99ABDCBC8BBDDCCCF99E797DDC99CADACDB8888ACBA7AC9A7BE9B
col48:   886A67673A789788B8AB9BAD8988BC6EABBBDFE9DCFC8DCDBB9FCCA87EE7D8B9CD7CB9DA7AC88668
col49:   977A57189943EC6777BF9BBFFDCCBAE9BBB9DD769FE8CAEBECC9A998BA7994D9878E988CA887BC59
col50:   A786AA99749AB25EB8789CB99D9D56AACAFA99CD9889DCB9FBAB7BB7CBBAD6ECB6F977B9AAAA5C55
col51:   115971461B689669318A3894B67A6A975A779B6E8C9946B18596B8976D657B6BA789C3CA95349986
ROC:     BPix_BpI_SEC4_LYR2_LDR6F_MOD3_ROC6
col00:   7473866654576A9A55356838AB8787B768786987788776776C84888859B5A796986B7A85756879A5
col01:   67573652765797869B797A89786A6AC95ECCA976575699679ADAA6AAA498BDB779B5CD58697879B6
col02:   8643673966B485894A6B7A69C49A87B696B89B98A97AC5CBB896DBB79CB9A939C9AC97B9B9997548
col03:   9644886886AA5B849ACA85796597678897B998698679BBB968A97AA7A977AD89F8D74C999AAAB967
col04:   647666658A7696477C85B489988A99BB7A9C9A6BAA9BE54CC9D9AB99A8ACCB97A9AEBAEBB9667BB6
col05:   66876479CCA49B3895AC8769776968A88A9887AB7979A686BA7CAB69DB9C58DBAB5BC27BA8AC6884
col06:   84767575598A3585563BC9A9A8B9B97A9A7A6C7765A6BBA86DBA5966D888CAC3DC8A594AB8B97B7A
col07:   558476775949D5A827AC6CB689A89BBAB9BAA69B896B7A6799B9E87999D8CA99C78A88BAA6C66E88
col08:   916B649948589566567B8968586A4A79A98CAB5A89979B88EA782579AAAD6C78D88AA6B649596B94
col09:   288888766588BBA569859A86AA7A98AC99A87A984AAACAFADAA66A6BED8AC76ABAA8B9A7B62A6A78
col10:   369A7886C43788938995AAA598A9C87A97A4BA38789A68877B6AAAA9ABBDDBAB9978CA9A988659C8
col11:   974576887376587A94688794765ABB996C76986DCABB9697499895CDC78899BB8AAC65AAB7864659
col12:   454778A87A76691978B9ACA9A647AB5989ACA76A9A7596889C869A9AA7D9B856899A6978996A7773
col13:   77556876A58A94B4577888B7B6BCB97A89AA66B7788E9ADEDB9A7DBBE97A89EA9975AAC5A9978785
col14:   9593A559A866276A8C6397A68CC9A8787ABA6987BEBADB7889BAAD879689DA798A96B7B89A978B96
col15:   7974677769579618B4BB89A46AAA66ACCBB9C8998BBEA9B89AB97AD8BBDAAE87A8DA997C9A9B6CA6
col16:   98682A883757B8EC6867C65889C7BAAB89C6AB9AC7A99B9BAB996B8CC9B97E69CA6775AC9D867396
col17:   47686826BB7887A9A8387AAB9968697D5DB7ACB96C9DBAB76AA9A9697BD8C6C7B78A7D6C56AC74A6
col18:   968787898AC659776B9786BB86A489C99844ECB6B98E7A89BC89DA7CBCBAB6BAA8AA78D9CA6B59A9
col19:   69484B56688998875669B998B6C98A5D9CB76F896779B9C7D7CAECCABBBAB96A9B8888B8C89CB796
col20:   69662866B8877B9A78A999759D88CAA9988AA754D9999C9A9B885BA9EDDAB79A97996BB9B6848997
col21:   33687688C76797A7BB9898B9A87ABB87BB8CB9D6BA76ACBADA998BAB99FA8868CC85BBB8B7AA87B7
col22:   87678A844B77786A857A78ACA6A9A9D9847AABB8988A874987BC9B7C97C9BA7F967768AD997B58BA
col23:   7944B48749898A58898747778A7AAB89797CCCA7A7C9BBCA869D9B9CA8EC9F7AACA9DDA969A9A792
col24:   538457599A788B97A9547A656AB86C8AABA8972A789CAA4D6A999DCBA96C7C89A87A88979BA6877A
col25:   53AA69836A3B988CA9C88BBC59DBCB6CDA8BCB7BDB9BAECCAB9D77BAC9DAABBCB8CAB85BAB896985
col26:   96777676B679CAB99989A8BACC57AACA6DEBA8989BBB69ACBCCA979EBAE9AADA6DAABDB98C998943
col27:   773DA79AD87BB8B77A6BBA8C9BA9AA9ACEBCCBCC8CCEECBC9ABD9BECCEECFCADAAAAA8979A699AB3
col28:   686AAB772A99C9A9CDB6BAAD9CBCAA9CCCCB7DA7FA6AD7CDECADACBDBCB999BAAC9DAE9DB77ADE98
col29:   677A97988A78BA9A9C999ADACD8C8DA8CC9BBCBA8AFEFAAA9DBBCDACCDFDBB7DDDA997ADEA6CDA89
col30:   8787B89B99C97A88CB9889BBB9DADDBABBBDA8CCCAAB979DE7BACBABBEECAACCBEBBECAD9ECA8CA9
col31:   A69D88AB797AD6A89B6D9DBEEEABB9AABBCCFDDDBBDBDABCBEDBCFBAD9BACDEDDDBABDCCCB8B8CAA
col32:   78BBA579CBA7A8BBB989C9D9BAB9898FDBFCCCDADCADEEC99BBADCD89CD78B9CACDA98EDC9BDBC94
col33:   7ABCBBA97A8B98CBCEACCCACA9DBCBEBBDB98ABCACCED9CCCEABBCFDFCFDFCCEDCDABFCBCBBCEBFB
col34:   CA7878AC999976999C8EBADBBDADAAC56ABFCBCCCABAA98FEEC9BBCAEC9BCCD9D7CA7BBCACB7FBAD
col35:   4DAA7DAC7E89BB8EB97C7AABA89DCEFDCCFFBCBFAEEC88BDFECD9AA9DDDCECACEDABEEACD9CBC8C6
col36:   6A23A9A98CBA9B7EEC8BCCCECFEACEFEDACC7CEDEAB94D9DC9CCC9AAABBFBA9BFFC98C9BDFBBCBD5
col37:   A8BDBC9CB7BBAC8B8E9DDC7BAEA9AEBD9AADDBAEDA8FCCDCBBADEDCFDCBBDABCAA99ED9CBCB9FBCA
col38:   B97D8A9DCEA9B9EDFABB896ECBEBEBF9DAACBE9F7CEEBD9BCDDECCDDCEFCCFBAE9DDCCB6CFBBDB9C
col39:   7799C987BBBBDDADA7DCDBADCAE7DA9CCBBABBDFBFEFEDCFDDEBCFABDFAAFB9C9DFC8BCEDAAF79CB
col40:   B9DC9887B47BBBDAB7CBC8AEABDC98BCAEBBBBCD9AE9DCADCFABCC9ACBDECBBEECCDB7E9ADCBB999
col41:   B99C9DCB8BED8AFAAACDBAAABCDAE8DFBBBAD9CEEBDFBFBEBDCFCED7FE8DCFABDDFCA99DCBECBDF6
col42:   777C9B79A984C6A99ADA8BADCDBEC9BADABBEBABDDCBADE99ECCAECEDCBE7CCABC7DBDDCC8CEDB8C
col43:   AA8CB8A9B948AEABDFBABCACAFBF988CA9ACAADECBACEC9EBEB9FBEDE8CDADD7D7FFECBCC9CDBC7A
col44:   79BC9A8DAD8BADABC99BACCBDCA9EDCDABDDCEFDACCD8CCDD9BABA9DECEDDB9CBBAEEFFDBBCDA778
col45:   98B989DB4DC8BF8A5ABBC9DBBDECDB7A99DFDECCACBAADCDDFFCBDBAD9ECDDBFBFFE6B8CDC9DA898
col46:   96878AA89BCAA87ABBAC7C98D9DBBDBCCCBDCFBCACFBFDBDCBFC8CACEE9ADCBEBECE9DE89D6C9FCB
col47:   B98CB8796CBAAABFAFBDBCAABADB7DFBDCBEB9BBCACDECFBABDADEFBFDEEDBBDBDDCDEFCBAD9D6DD
col48:   899779999CBC9CB8CCBBE9A8ADADDA4B9DDDCCFFEBAC9EB9CCAFDDFCACEACBBAFCBCBCDAEDBBC98A
col49:   8EAA7A8ABCBBBBBABDBB9BACBCDAFABDDBFBC9DDBDFCDCBCBCAEC9CDFEEFFFBDCDCD7F9AABBD9AED
col50:   BA9B7B9B59DAAA9A88BD99BAFAADBACCDEA9DDFEFFDECCDCDECE9AACCECCBECC9DBC8EDDC9ABBBAA
col51:   AA9999668297958A9A7A888B7B9DAAEB7A9DAB9B7BDB89ECD8D9CB9BDDABDEB8CCE99CBBBA8B9894
ROC:     BPix_BpI_SEC4_LYR2_LDR6F_MOD3_ROC7
col00:   129435548735A53646278744227A56A8477566896578A366885A389965A6A2717255933675454626
col01:   59788279751864C97686A78A8C8848788AA9BBCAA8A8978A5A948A979765758987A79675C6898876
col02:   7618887818555B863468A6878757CC9868788BA9699A9BCC999AC6765B6944A89B89865E2666776B
col03:   6C35763556892796764B699775A88A8B988C56BA4C7597598A7CBD8A87AE7AB76A6879A76A76E56A
col04:   5454664587753C7383695747B558897B9B789D9B988D89AA776CA7B8A6A987BCB4B887976AC5A35A
col05:   294455765A36916A44877774988B68D78934985798889789799477B496B8887B8488673718757273
col06:   793775388B68867868669786AA4B883788767859987A6568B947679B6859A6994B65566578A88668
col07:   879371A7557339B7A559A5DB274B7D8577A87ACABABACAABCB997AB5987A97AC899856689A975D68
col08:   635626851A6557769569794A878A97D9957A7B9BAA2884A6978C7A49C985666B8775CA97887A6535
col09:   9449A44A9917C8A79C19A69B89A79BAD6AAA7A794AA8AF68C97AB7687A9B88798978BB975A878A85
col10:   45654478668946749297ABC8A66CD65DEB766988718A8A98B896795AC8693B7A88728749688A8B86
col11:   7445A4A8B789A3578968676CA4649ABAD87AAC989A69788AD7AA7678AB78B7A6698777167A998C88
col12:   77696956956CB57B6B4976734AA5187A487889986AA66A699A6C93776AA87989998953AC9BC98A94
col13:   17843636869AA4A734A937A599AB9C9496BB798B9B77ADCCC7869B7C8B9975A7C878B68B795A8B87
col14:   788676A759858666596869959C49A8ACA7B99696BD89B499B4979A788987886AA586B97EA5A6CA72
col15:   774388744695987758B48995B67CAA9878BC779B7B76B89759587B67997889799AAA888759567837
col16:   8356578B7695B6B23B638775DAC96D7789A74A79DA6ADCCBA8A95C787B78995C99556B5BA47A96C5
col17:   686778867767C7C87B78AA5B887C8CA687C8B295A99B8A678AAC76C9695A97AB9A7A55999475585A
col18:   8649A95877873757A64466565A9E88AB49594C58BB999AB798A9979CA9586759A9B849655895BA94
col19:   5956486A777B87898678C965B9A879A678CC7AC8B8A8B87C6A9A9CAB9BA9765B8A6BD647C6598566
col20:   557557735936A376749A558CC9BD98B689999D9676756BA69A99A9D86986A898785AB6C878358999
col21:   3A355995774888A89AAB9376B7AAB8A89B8A58B8748B8A7889799988BA78B949ABC877679688758A
col22:   4625986867655375755477489777969796C86C58BD9A49887BC6889AB5884AB9BA8D986C9A7697A4
col23:   674857657A5658CB956C6BC8A977696B895877BA68C9956748A54B89B887989A85647969A7774943
col24:   6697459A858163A37C7B7A467A8992C5A887B986B6A6A3A799976B86CAAB395A8957695E89489666
col25:   88656A698632958C66A7AA9897A6B75E59A9955A88BC6B8D88B7A687BE5498B889A798AA8C59B74A
col26:   A87A9C987677B799979DA7BB988CCBFBBACBD9BA88C88CC96B998AA8AE599993988B9958ABAB8846
col27:   7557985D9A6B8AB79B789AC8B8B5C9AAC9B98B9E9AB98987BFD6EBB48CCD89AB7B89ABBB9B9A8998
col28:   588AA7974965A8554A989DAAA8A86BBB89AE8C97ABAC9ACDAC8D7BCBAAB687867BC9BAAC88968B43
col29:   B863775A9685A6B5AAD67CA8BAAACDAAA8CA9C8A98F9CADA7A9A8868CAA97A59A79CA66CA8AA8C98
col30:   27598B869779999CBAC9C6DB5CB8C9D9BC6ACABA79A7BB799ABB9B97EAC7A97B8A8A8C89559A7B76
col31:   58A95866B9AB87AB88AD889B8BBBAABFCACBCDD9BBCA9DACA9AA9AB8CBA9ABBCA78B8C57D9AAAB96
col32:   9799898798779BDBCC7888AC879985EB98BAB86CCCCABE88CF7BCD9AAAA7BACBBBA99A8A9968A775
col33:   BC768A6B788AABABCDC98CB87BB67EB89BADB8C9869FFAABC9B7FDC889DC7988BB9AAABC9AB79777
col34:   8166A9A7979895C858A8BBB8C958C9BDA98A8A8D98BCACBCB8CBEC9ADDACDBCCA7BBA949DA9BA77A
col35:   59987CA6AC87A9975C7BB8BD9A9BDCA7BE7A9AB8D99B8C7BCD5BD9A5C89CB8B9BDCDB7768B687CB7
col36:   5639C78E3CA755CCA7777BA9BBD999A98AEBC8A5BA9A82D77CFBC7AD8BFB7AA68E9BB99D982BB966
col37:   9959959ACA8AA687C88BCAB99DAA7ACA8999A98AACECE9CD98FCFC99FD9978BECBCABCA989DC9C98
col38:   B9689BBB59CC7A8B9B98B5AEABECBBC7CE7DAA7DACDB9AADBDE87BAD88CAF9BDAB8A895A98C8BAC7
col39:   7B6BB8469A58ABA7AAAAD987DCBC9BBCB99C9BBC9B7CBD8BBCA58A7CBCBACD3ACB6D9A8A69D76A88
col40:   ACB5897C565D87AB9BB6C888CAEBE9DBBA9AC8BD9BB999CB898E9CACB8D9C9B9AB57AEB89ABAC9CA
col41:   5A789999B797EC8BC788ABB99EACCFAADBFAACCBA6DED9BCADECAB7CCA6AEBAABAB8BAB8BA6AC9C7
col42:   89946B977C777ACB5BBFAAAAA8ACAB7CCB99CCABF8DAB9ABD9FAABB9E97ECC97DA6A9A4A9695AE9B
col43:   69889BAAA7DCAE9B7BBB499AEEBABBFACECEC9B6C9EDAFCDCCCBB9FCEDCC9C8FBCBFEB6B79D6BCAB
col44:   9CD6999A87ACB9CDBD9CDCCB9AC57ECBA9CDBBFCCCACADA889BA9BC967CAC9CEAA7B5CB9C7B8C867
col45:   83AE3A8BDAB8B9A469BC86AB6799B8BBBBB7BDCBAB6BDC9CADBEB9DFA6CBBC6C5ACAABA8C8AD8B8A
col46:   6897969AC9B9979A78AAB9C8B76A8CDBFD59CC79BB998AA9A9BADAC6CD78949AE87DEDC9C8A8CBC8
col47:   768DAB9B9A9B8A9DAC8AE6BACACDDDCCCACD7E7BE9CAD9ECACB8D7AEACA9B7E9A8AEABA97AAE8A7A
col48:   A95AA78A66B56D9E8CAA9AA9B77BEBDBC99ACDC7BCA799D9C6EA8CA8DEE9B9EBAB87AAA9B898E989
col49:   7B65AB77955B799BCF887BCD7CBACDDCAD9AECBFC8DB9BDCBCDEBECB7B8ACBA89B97CA8CDB6899BA
col50:   69754B99A67B988AAB8DA8C8CCC8DC99ADBBFC9DEB7BCDBCBA9A9B7BAEACCC8BA96997AD8CC9A97A
col51:   97876A59A479A64858B7AB99695CCD87BA879A8BAABAA8ADA8ACA88BBC89B6B8AB3A8678BB957686
ROC:     BPix_BpI_SEC4_LYR2_LDR6F_MOD3_ROC8
col00:   7DA1925842A4B3779C6B747B5AB84AA94BA66C69BBBA7869A2C979A5C9656555B5A6669367464CD5
col01:   259859897798AB9998AA97D8BAA85BD9D7B79A7AAB8CC8996996356B9977B56B49768D6CBA68A8DC
col02:   6699C6777898B583A97CB8AB9B86988CBAD898896689B478AAB9E9978695B752BCCA889B8799F587
col03:   6A568B27842A96695867CBC3AE8C4887B4BC96BC89B8BCB7C97EBBBA8857FBA897BBC75794B98386
col04:   7564797D998A4C55D88989ABC8BABD9C7DAC8ABB89D85A84BA53B9CACAA6E88AA5B7C39498986A75
col05:   568A44D48A995784B97ABB37A46975ABCBD77788ABA978C9B6699A97687BAD87784979A7D5C75472
col06:   2669669A3AA665C6799AABC7958BA7B9A85D6ABA8458B99985579A69596A7BDC78CA956AA88CAC65
col07:   A36B33AB79B9A68758A77B57CE8797CB6BDA69679B98976A5AECCA8DA7BBB9A6DBB5ABAAB78AB5A7
col08:   5374A558D38CAB78899A57B6D977D7B88A5BE4B7668D656EB896D8AB987E974827C979A94865A9A6
col09:   7B7745A56476487999B58FAB57A5AAB9BD8B9AB77DA7B788A7E997AA8A9BCC69C69947799B4B96A9
col10:   B8678C654BC86999639CAF9DA6CAAEAA9DAAF98B5A8BBB8B997ACACA9A66B9AB96A98CDCCCB6895A
col11:   867A757A8BAAAA98586AE58A97776CB596AA9578DEC89A6996F95A98C55798B9BF96A68C9D87B787
col12:   93598565758CA5759257A5A6ACA68A9EC8A86867BA7A88AAA98CBBA9C3A7988A98DBA67AB982D994
col13:   75956AA69997587ACB39AC7CC8C8AF7A9DBECA79CFA786A888C987BBC7A8D7EB669A889DA9A7AA36
col14:   B375763984977865385A9AB74FC78B98799979996ACA86997DB7CCBA6D75A79BD9995D97A9B69B52
col15:   1675757B6B7869795ABD989D5D98A9BCC999798BC5DBA9B8B7B4C8984867A9BA79B4849949B5BD9B
col16:   66B7B9888442377B895898B8CCCB65BEAA7DCD96A837BA86F7EB9BDBA99D8B7889894AA49B785776
col17:   7357A6C8B6AC8479BA4BBB545997889B8A5C9786A7D597B6B79AC5ADB788CDB745877DA79B7799B3
col18:   983776A6678494867487898B8A97A8CEEBDA9A8E879AB8CA76C9AAB8878AA46789AA5A6A7579A848
col19:   49B99AB8AB6A98998A8F698DBC88AB7B9AA899F86CCC9D879994CA9C9C8866AABACB867978958878
col20:   17676778797A38A75CA676A9B99873BE7697FDC6AAC7D8C99B9DDAC6A6B68AAB956BC7CA66B78C87
col21:   69B135988469959B84ACA78AC787B77CB9A787B8F89AC977CA9AAA78A978B98A7CA68778175819AB
col22:   6866B7C77BB87A357968AC9C679B9AD9BB7A8ABAA898849B5894A779C9789D578A57CAB67BB97C57
col23:   57736A975898CC87AB868799B9DACC968A97A9586AA87AA6AA7B69C7CCC9AA96AB8D576777673B99
col24:   658CB775688C895E88AB9755C74A9C9BB5C97778F8AAA97D76AC77495BAD3A59B174BCCA97387B99
col25:   89876B578A8CB7B858B89DA7BAB89BABCC9BAA968AD6A9B9E7ABBC8BA9B99ADFAAC979E97BA896B1
col26:   9586A7AB9DC7E4DBFE8BFBECADADDDCCCE89A5ABCABCCA9D5ECEB1ABEBB7B5AA94BCDCC8D57A78ED
col27:   892A6A9748CCC66799F7D8A9AF66D8B8BBD8CB96887694C8989A8C8B8DBAEF9CAB889B97A859B747
col28:   B457699BA9975DBB9CBDBDECAA7EEECCEDABD5A989DCAA7DAD9BC874BD6CB9898B9CDACCA98CBDDB
col29:   8986BBA8BAB95ACA9C99BAAE7ADCBFFBC89CDEC95BCF6CAAA88CCA88BCCB99BB7DC8999C876FB99B
col30:   CA1AB5AAABEED2B88C6A9CADDFDCCDD9ABEAD9ACDCC9A9BFC965CBAD8AAB78D6FA89C8DCFCA98DD6
col31:   8DCB78CCCAAD99D8CA9DDFE99A7B7CACCEC5ECEC69BEEDCDAC8FFFCEC8DFC9EAFBA9CCBD8ADD99EA
col32:   8A79BA79AB69A9BBA93BDCFC8FCDBCBDCCE9DB8BEBC8FCCBBACEA6CCECABA8AB788CE88AACBDBCAA
col33:   7AB2BAFC8BC9BA7BCD6C99AA9A9EB9DBDCCDCCA9AA8C6997EBB9FABC9FD6AFB8AFBE98D4ECD5B9B8
col34:   7976A6D9AA9E9A99CBAFDE9AAABAE7BCBDDACC98AACCB7F7EB899F8CDAEABA7A88ADF9FCCCDBACDB
col35:   ABB9F8BC9BAFB9B4B48AA9C7DB7FBDEC7BBCFA9BCC9BCFEDBACBFC99CCCCABE8CBCBBCCCA88AAA8B
col36:   B867BE3B8AA48C3CDAB77BB9DCD5D5C9DCDDDA7ACAD8EECABCAB99BCADC9ACAA8AB7AD8CBB8A8BD9
col37:   A89BCFA98BBCDBFBEA8EDDF8BABCCBB7CDA8DCDBF9FEFFDEBCF9ACCBCD9FEEDDDC9DAC9A89A7D9F9
col38:   58A6AC9C3CF798D5A6DFFCAAB7EAD66C9E98AE9ECDCADBCDFD9BAEF7DDDBF99A27DDFEE9C8FAA8AA
col39:   8868C8CDEDA97C67FB57CBB8BAACDB88CEFDE9CBFBE9EBCCBD798DAF69CCDBCBBAC9C8D8CAC99699
col40:   CC8BC9C9AE7DB8E9C7B69F8ECB5A7EBB7ADC9B7EBBCCCBDACDB7AD9BD89CAACCCB99AFAFACC9D99B
col41:   4A6CAA879CDACDDCDC9CBCED9DD9EFCEADC6BFCADEE8FFBAE989D9C9EACCEBCCA8DBD7B8BDCAD8BE
col42:   56766699C87CAC9B8E9BABCFDD9DCDCDC8B7DCEDCDEBBBEBC8CAABBCEBFCACEEF7CAECCDBCCDAB9B
col43:   C6A7CC6CCB9BEAACEBBBABCBABCDCBCCECF8FBFDFEBABEDFCEABFF9CDFDFF8CDADEBF5BEB9CCBF8A
col44:   B75AA8FD97BDB9D8BA9EE9E9DC89BCBDEFDBBACABE7CABDCA88CE8BFE8EDC7FDCCDCFCDBDDC9DEDD
col45:   77A78CBBAC6B7D9AABCA9CBA8FBFCAD7DABD9C89F9ACEEABAB995BECEBEEEDAFCA8FEABEABFCBAD9
col46:   9B8A8A89BBF8FDCD87EBAF6FDDFCAB86B8C9D8CCDFCADBBEBCACCCFDBCAFEADA7C9F5BD7CBCBFEA9
col47:   77A9ABAABDAA9AA9B7DF9BEB9A9BADFBD77AFD9BCF8DAACE9AABFCDB9EBAFAFEBADDBD9EBCBC9598
col48:   9D9A89B9DA9DBD9AB8D9FDFCBD9BBABFBFB99A9DCABC9B9CCFEFA9DABDBADFCBDBBCFCC9DCCE88ED
col49:   5A8AA6CA9BB9ECD8FCEC99AE7BFFBBFEBAFDCCCADCDFF9BC7CEFFFF99FB8FECEFDEEBDCC8987CCA7
col50:   6587B9EFBCB9CAC9F8DCF7CBAA9D5AA8BBEBABEEBAFA69BBCDB8D9B8DBE7CCF9FD77FBCACDCCBA8B
col51:   764AA4B9899984BD49CA896B58BC87A7FBB9CADA97A7CDBD6E8186595CBA9D99C8B75B8ADC8C87AC
ROC:     BPix_BpI_SEC4_LYR2_LDR6F_MOD3_ROC9
col00:   465BA4985999477A98D78A858AAA6979A4A59A68AAB96848ACB8AD9AAA84B89997AA89B985768C87
col01:   A927A4AA77C98AA98ACBA9D998DB9AD9ECABD879A9BDABAABBABA6EA9A88DCA9DAB6CB89D6AABF7C
col02:   786BA9AB8A9C8B8968BCA6A8C9DA99CAB9BCE9B997799979A7DC9999AD9BCB89C997A5A942C688AA
col03:   867999889AC7697589CB77B9CADB7FC899CAD7A9BBC9BC978BDE6BD8CBCDAE9FDAA79D8CDA9CA9AB
col04:   996887A9889C8ADAF3BBCB67BC8CEC899ACA998A9DAA7B9798DC7CCCDCA5C9A9BECBABAA9DB8D77A
col05:   68498AA8C7BABB9A8ABA97FEA5AC9CC8ADD9F9AF99BD5E798D8BEA8BA8A9E9A97BEC8ACA9857A988
col06:   A395395A5CC8B8BBA7C89CB967A69CB7ACCA9DAE98B985AC69CC9CBCDB97AAAA899AC7AB76AA994A
col07:   9B8A89C89B9BA7C86CA9A395C9C79C89EB99C888BBCA7AABF9FA99A6D67A9CB9CA8EFB6AB999898A
col08:   6A59A9BA989A8ABBA75AACCBC6B9AA76998B897AACBCCC88CD8AB57BC9BBB96DA8CBA9ABCB66C889
col09:   A96AABA86AA6B8D6A6AAAECDCAB6C9B9D8CE6DDAC9AA7CCD789BB7CB99D9B9C7DBFCEC6B889978CA
col10:   89B68A3B977BA6A579DC98B99FA7C4CDCA697AC6DBAA7D6B8DB887BB8DBA98DA8A87BA7ADBB99869
col11:   87B8677758C69965959C99B9BB879AB8D8999988BCA7CD9B768A89DCBADCD9EC87BC889AE97D8A79
col12:   6929ABA9C7A7BB5A6768A759B659ECBACD8ABABAAFBFBB6999BDB9ACFCBCA788D99998CCA7AD97BB
col13:   3B98A7696569A7798886A6C696D789CA899CB7BCBBEAABA9D7BAABEDA8E99A9E9CA8B889A7B98995
col14:   3963A7BC9D6BB9AA898CBA7B96CA9AA8BCC98DAAB9BA9AAC9BCB9896E7C7B8AA8A9C8BBA68BAAB69
col15:   A66396A7899BA79A9CD99BAAEAAE9BAD5658CAAA6E9C99CEB8C8BBB9B9ABD7A76BABBBBBD889BEC7
col16:   74D9A9698C966965AA6D96D9B79AAB589BAAE9A68599B999CFF9DC9BC6B798BB9BC86CA594C997B4
col17:   486B88BA7A99984A5B86A8BD89C8B7D8C9EFABAA8CC8DABC8A799DBA677B9BCE7FA9E4A86888AB88
col18:   6677AAB5A8A86C7B89AA9F7ACA9BA8CBCDB8AA8B8D99999B88A76BDB9C4B8CB794C8ABC9EBD6AA9C
col19:   88A79887799ADA9BB8B6ED9CD88DC6A89CCCEEC6CEBAB87ABC9B7C6EB8ABAC86A9C5CEFA9A5BB999
col20:   37765A6586999AB9568BD69B9C7CDA8C6CABB87FCD89A7BB9A76A7AC97A9D9EDC96589975D8A87B6
col21:   7A99789A759D3C8AA965EAC8985D89AD784BB9EABCD7B8C9EDF9B9CA98BCAD9AA8D986AC698CAEF9
col22:   A854B68B699997B669889B8C879BEDAD9DB8C8AB99BAAABAA48D9AA687B894BA6ACD68B99BB6A9BA
col23:   883759777D6D7898BB99A963A8ABCBAAADC6ACB9CABCB9D9D88ACB897A7B6F999789B475A8E68A5A
col24:   44A73794957AB98779895BA8CD789C7B97B8B969EB4A79CDA99BE778B8E6C6D89CCAAE4794C99999
col25:   39CB5388BB69BACA895ABDCA8AA98C988E7CB9BF5ABAA79BA889AA78EAADAAA4CBB86A7B7B97CBC7
col26:   89ABC6B89CC99CA6AA99C9B7CC9EB89CE8AC99C8EE77C9DCACEBEC9CDABAE78BE88BCBED9DB7CCA9
col27:   46AA4AA68D69B5CAB8FB9BDEDBD7CA89B86BC79D8C7ADABF99EA8ABC7BCB9C48A7BAED87AB997A6B
col28:   9CBB7CC9B9D7AEC7C86AD6ACBAEC9D95B7BB89DDCADAC89BABB6EF5BB9E7A99BA6B7ACDCBD88BAB8
col29:   6AB87ABA83EB9CEDEAADAACCB9ECBFCDACAACDBC9C9BBBA997DCCA9B9CB88E796BC8C9ABB8ABEDBA
col30:   8AC87AABB7C9B858E9AB9CBBADEDCEBB7C8799ACBADAEBE8BAC6E9BABA7877A988D7DBD9CABBE87A
col31:   986AABA8CDFB5AA68ACDBADABBEB8CBFC9B9B9CB8BBEC999ACBBEDBBACDA62BCAEC9ABF878BBFB8B
col32:   7AAAD6698A99B7ED98B9FDFCCBBC89ACC9BE99FDE8C9AC65B69AB9BB997C9CB9C69D7BCACBC9AAEA
col33:   CBA7C3C99BABBAEBE999C8889DDBFDDBBBFDCBCEB9EDAEDDDBEBA88AC9BCCFADAC983DD7BAEEDCE6
col34:   7AAD66AEBAA9C97A8B9CBAA8FA9CC8FCACBAFACCDBDB9BDDCFCB9BADBE9D7CEBC8C6DAAE6AA9CED9
col35:   95A8A9ADBB8B97DA8A79BCFF9AA99DEECDD9785AFEDAABE9BCBCEEC99ACFFDCCCCA63BBCBDCBCCAC
col36:   7A9B87B7B7E8CACA5B99D7FAADBBDB7C8CFDB8B8B9B9DCCAAACDFBCE99CFEBA9FCD5ABE8EAF7D96A
col37:   AAAAAF9ACEDCB9D7B9DCCCDDAC8A9E8D9DDBDCBDF8AD9D8AA9BBFDFFDA7AC7BBBB8DAFA9CFAEC899
col38:   ABCA4A77DDDAD89AD7DB999AEDBFBEDDE9BBB89ABDB9A899DFD9DCD7AADBFBCA88E6CE7DADBC85C6
col39:   4D9B98BAADF8DCBAABAB9ACCFFAB9EABEDEAAEEEDDCDBD8BAEB9BC6AC99B8ABDB9ABAEAAA9ADAFBB
col40:   C79B9BACCF96ECD98A9CAEEFAEAAAAFAEBDBC9B7CA99FCCCCDBB9D8BBD9FBFEC7BAC8BAB9AECFADC
col41:   A8895B9A58BB8BC986CCEDACDCFD9AF98CDDFCCC9FDECFECBC9CEBAB759FC6CF6CFB8EB69B8CFCD7
col42:   69B966BDD7BBCBC896EA99BFD98BC7A9DBCC998AAB8BBDEB8AEBABDC9BDD8ACB5A9C99E7AB8876DC
col43:   DCCACA96BDB67BBFEBAA7CFCBDACDAAAAC8EBECC9ABCBDA97BCCB9AB9ADAD97DC8CC998B9AD8BAEA
col44:   9ACA8B97ABCA9CA8A8CCBAAA988C99CBD9BEABBDC8ACBA7A9B4BACCB9CA88DEBC9B7DCBBBBB8B89C
col45:   6A77CAF9CB98C9DDAE99EDB8CCA988FDD7ABDCDCEFDECACAEEBABBCB7BEAADABB7C9DCEABAEDD77C
col46:   AB9AEAC9D98BC99CC88FCAD5EAD5D9DA9A68CB7AFBBADBC6DDCBDBBD8CBDBBC8AEDABDDABCAFBA9A
col47:   A6B8AB78A8AB9CAD9D8D95ACDFDBB5E7CA9DBC9CCDCC9D8BC9DAADABB8EB7AA8A9DBAAC9C8D99898
col48:   8AC788AAB8B997B68ABCCACDECEB8ABFAA89C9BBB76DBDADCBADEBB7BFBBCAEEAADA89CBBAAC99AA
col49:   9839997A7C8B99EC9A9A7AD7979DD9DCD93CCCB88AE9BDEB99BBD8ABD9DBBA99B9FFCAC6BBD98DA7
col50:   B7A4A9B89BB89AAF8CDDDCA6BB9DFDBBA8B8BF86BE9BCB9CABCDBEC89EADBBCFAAECCC998A89ABBA
col51:   96958A78997AA7A8A6A7685884977D88A789B658A796AA83B7CAE789CB6AAA68CC9C34399CAA677A
ROC:     BPix_BpI_SEC4_LYR2_LDR6F_MOD3_ROC10
col00:   1875384A65B695B98668DA5686756877969488368CA56776B46C866C35C5D976975DB97B767C65C4
col01:   641777674A49A9EDA84B796BB57AA8978A5EB4C569A8A69729E9CCCB8CA5BDDDEFAB9CA768789584
col02:   7867567BA76A96565A29927ABDA98C7995C6CCCBD9C8795D6A868B6BD85A98D96DBAED97AA299B14
col03:   A48486798B3977797B676B7CB876ADA9857B77B9A69778B7B6779B868F88C9BEE9DB88CAC7FA818A
col04:   68358A37A95596657877A8B6A8D8C917895C9AA8D38A8C7898A66885AA88756B9CAB8BA776C78563
col05:   85A2B5834AB85C8AC9758D869AA8CB8B78ABBCAB9DD889E869B8A99684AAC7796AA6F768E8CA8988
col06:   7277C746965AB589B7B68AAB99789594A996A98A7C699AAB9B6DBBBAAB769C6B55C95A8474A99897
col07:   57B686A7545D6AD8A7C3BBC7A87C9A9858B8A9B895B8DA7AA7999AE9A847BA849BB7A5CBDB586DA6
col08:   1746DAA86786A6667A4D7C9845EAB65A3AA598B6977C67AB86D9A37767C9E9666ABB7599B9BC9883
col09:   8BC81B695768C7E7A8A5B977D98A89A9DA9CA58A8CBC88B48C88C86F88999A7D9ADACD8DB98B7685
col10:   97486C8C7A399C776BB35586AE9BADE7BBAA999569A988BBAAB6AAD68BC4C5C947D9943596A88757
col11:   346939A97789559B749869479BB9C98968E897967ADABDAA76B9DAB9DB9677BB95C7B6BBAA969CA7
col12:   A9477A37767937654A83695A9AF98699D66866BC899CA8D355C8A98A7F5C8C8A7B4894B98AB86595
col13:   6975C9877B88C776A38886698ADA8AC89BBBFB9DBE9BBC88DB7DACCD8ADA8BA9998B775BBFE8D99B
col14:   6438898CE76AA4846C65379B799CBB6697AB98A68CE65A6B6465B47BD7A95B9656AAE79A5A75A978
col15:   52739663AADAA889C87A9C95B69BCADBCDE49AB66CAC6AAAA77B8CA73A7A68EC8787DB6AB7B8D6D7
col16:   8445AB9776499F7A74A59578CE93F589A777CBCA6896A795D89CB9CC67A89ABABAA979969799A6B7
col17:   5619888B8688937CB7698C58888DC7B5A9B48AC5C9E94AC96C8BAA7A6A7899C888C8AEA88B566796
col18:   48B7583BC8B749BC88ABD8A88BBB7796D7AAA9CA8AB6A67A746AD9B768ABA87C6B776C89AA995ABA
col19:   94A97649A88A7855AC49999AC99A3B5C8A9A98568B9FE87887BAB85A9E7CBA9AA97FEAAA7A8AB886
col20:   34A467A5AA798B79A7ACA8A8C787A7E6A768987C779C977F9789698955A9988A97A886A8C7577B98
col21:   A697575DA67677C99A1977588AD9D894AFD939B5BB69BBA5C8977CA6BCCE99A99A97A6B98BCB95B6
col22:   951493677BA85A97997B9B8CB87AA989EA9A8BDC96C3798A7899C3878B9A9AAB5C88C9BA9353AB69
col23:   85988848A85B796877599B9698B97D797C5B85A6A2889DB9B9B9BC888A96CDCC3CA5BCA98AB5C969
col24:   47378A962A887B787865A5A9A9CAB6D9AB987B973C77D6B7998AA483CABCA897AAC7887C76A9B798
col25:   35511B7ABB1967A779AC7B969B896BA948DBC47BBB87D8969BAD98B7BC9B88ACB955AD9998AAB8C7
col26:   464A99A864998BA995ACBB795AD875CA95A89CACFC99877ABBB9A9D97E98A798ADBBABE7DA9A9EB8
col27:   55789C8BA6958B87ABDBABABA958AAB9AB8C8B9AAABF88CCACBB78BCBDA88DC9EB9A9AE7987B58F7
col28:   7537C779986A7AAC7A795BAAECCAE98A9FACCCC9D8AA7BDDC87B7CFADDA59DDCB95AAECB97D7B8CB
col29:   B6C7BDE78768B5A865958ABABDBCFA9DACBD9AE979CEE9BC9ABBCCE9BABEBB8DD6BDCB9DC6B9694A
col30:   B58B886D9A789899D5B6C6C9BE98EDBADDDEAB9E97B9BDFA9B8CBCDB6BB79BB8BBAACAB9D8DC9CA7
col31:   D885798978C969978A9B7B9FFDD8C8F9CF89CAEB9CE8DE6DCBAC9CD6CABFAFBCB79CAFDB8BBAC6E6
col32:   7D875B86CCB58A6A9977ADCB76A7B65CB9A4BEFDAEBC86AEADAC7CCFF8BAAC8ECDAAFFCD99A99EEB
col33:   AD87ECD8A6859DA888CA99C7DDCDF8499FCBBAACBF89ADB9CB9BEEAABDDABFB7ADF87AFCDA9ADCCB
col34:   B9874BDCB89DA4AABC989BE9CD8AC8A9F8C9DBE8ECADDBE7CCCD8C7AC89DBD8CAAA6ACCCB8BBE8BA
col35:   C99AACDAFAAAC8A87AF8DE6BBDF8A99FECDAB8E9D8AAECAECADB8BDCCBA87D9B7B987CAEA7FBADEE
col36:   59D29F5AE79CB8C978CB9FBDCB9FA9ADCBD88ABADCB8BEBBEA9D8CEBBCFBCD99BCAC79899CB58887
col37:   96DB79ABFCDBEBCC87CCBEB9BBABBDCECBC98F7C9D8EBFCBCB89C5BBBEBFEBDADA8C7DD9D6AFFDAC
col38:   7B99EADD59D8CCEDB7C8C7D8DABB9BFBCBEAFCDBDEBECEFAB9BFFAFEC8AB9CFBFDAC9A9988CD9D9B
col39:   7B97CAD9FBBA8B6ADEBBFFBADAC8EAF7EAFFABAEBBCBFACCF9ABC8B8A7A73EFD5BCAC9C9CA9DCDBB
col40:   86ACC9AA8C9ADA5B6CC99BBAABBADCAFBEBF7FAC99DEBBD6A8DFCBDBF9ACEACBC8BBB5AEBC8BAC58
col41:   99954BF887C98D7ACCA8CA9E7EACDFBFDBABFCFACDCED84CFBFDCEBDBAACDCFCDA6F9DBFAA79A2AE
col42:   CAAA9C8AB6AB9BBECA8CC9989C9AEAEDE8A6CBBAEAABC89DEB67E9ECFDCEEFFEACBAABEDA5BCBA9B
col43:   8B8DA8CD99DAB99ADFE6CAEAECDBC7A9FADBF9DE9AFAA9CFEFEBBDCDABFEFBBD7FADACBFE8BEC9D4
col44:   AAAA99ABB9FA965C9A9E7ADDD9E9EDDBDFDCFD9986C7D9AAFDFF8FFB9CAA9DBCABC7BAD9D9CC9CBA
col45:   7C9A96AFDDC6B8C999CAB6EEFBBFECBEADFBDCDAB7EAB69BA9CDEACDCBF5ECBA6BEAC9AC9BFAAB77
col46:   89B7AD8CDCC7ABB9AC9CEDABADECEDEC7ABB9CCC7D9ACDCBCCFF9EB9FAE8BCEBDDB6FBEDEB9CDCDA
col47:   A68AEC88BABD857CDF89F7CE9BEBFEADABDCEB9C8ABAFCCBBCBEDEC9DFCAED8CDAA7CCD7AABB8BFD
col48:   9B9BB396B78887AECAADBDAB8BE9F98997DCCEB778C4DBBEBBA7CDD6CCADACB9CDEBADCEE9EF8AAA
col49:   99BDBBAB19C3A8C688CB9BDAC9ABCABDFBFBFCDBBDCA7CDFBDB7AD9FCEA9D79B9A9E9AB9CCDEB87A
col50:   895C8C787C7B7A5BCECFAA69CBCCF68ECEDCEBFBCFDDCADCBCFCE978DDFAFB2EFC5CDFDCEA6A99F7
col51:   5A939B7AB8A9AAB849AAA49A686F7AB99998C5AB63A7B898BC9656E79BA9B8C74BBD8C837A7AC967
ROC:     BPix_BpI_SEC4_LYR2_LDR6F_MOD3_ROC11
col00:   467684A6966A395957859786574977AD88978881797B8A97AB7AB1B7556787769675574884758887
col01:   875858887C899AABA586AB7D99C6AB79A7B77AA55668BAA7AA67879B6888B9C9BCCA87AA778AA9E5
col02:   69487AA78567C9697A859BC8A9B7BC5869AA6A969B7BC77A78996B788568A59AA4A5CBA7A5767946
col03:   63734479876AA8688B667AAB63976ECB7AB5D72DBB68C6A79995A5DAF7DA7D9399AA996897A7C966
col04:   8746A55B476995D9C84A99AAC7DAA8487CA7887889B64769798896B9C9AA67C9C58A7ADB7587AA95
col05:   A887858986857B76B5B69988AC7BADDCA68BA89A77BB8C5B9B66A87B78ACD9884AA659676A9C976A
col06:   5985679B4479594985879688BD79ECC4BCC9B8AB85B9A9C99B79784C8B7ABE7CA97C96889465BB97
col07:   67A878799898C9989AAABC8C8D8B59ABBB7E77DAA9B854AEAAC679A9C9D86999989A89799A6EB777
col08:   93A9A6986AA88A89B87859668774E6C978959BBDA5B7D77C5977A8B7799B99AC88CAAAA78989D786
col09:   96B9B688A67697875379BA86BA6B7CD9BAD9A788AAAD6A8669869AB696CC89EDCD9A8AB8A78CA765
col10:   7266499AB7B8597E5A34979AA9CBA7F6A97888574798876378B9C8A87B7768B53B8C74956465B451
col11:   39684789D9A9967DABB768BAAA4999C7D9BB7556BFBB878AA98899C9885FAADBBDB9788A889B8A89
col12:   19798894657BA8A82557C5928C9C8D8B987ACA48CC8C79B8B696AC9879B9A999A879FC8A669B6837
col13:   553787A9CAA5697B26899A897B3B7AEAC5AABCAADA89AB8CB8628A8A9AA9ACA9E8969B8A9986B796
col14:   9B77879C65987B95BA787678A9868793CBC8B9FD86A979E9AC8BA8968CA8B9A97A69ACA779B98847
col15:   4766B69C65BAC98669467895C9A98AFCDCB997D9995B8649A8ADCB76A7BB4AABAB63AAAB69969CA3
col16:   3B7698CA978486A5B8DCAC798AD7A98C779BBBB9969675A59BB67A9A7AC99D649978B8ABA9CA9737
col17:   947D79B85894B99C89B7A998CE86A9DDA8A9D687AA99B68BA7C5847AB757B867669CB7A695575B73
col18:   9366987566A7B84C5A88876C9B8AA817E89AABA9A8BD77B87786CBCAB8C9678A67CA59E7C5CA7874
col19:   88A78777D677756AA878A9A9DBA974ECDA6896969969CBC6ABB6E7D8CB4866EB7D698965B89B9A86
col20:   599D67C88A98BA29857987C3E9877588ABC9C8BA8B9C7DFABCA88AAA7B9DAA878849B9CA66B7787B
col21:   C9647ADD58B68A7677B9B5B896B7A98BACAA88B667BDDDBCBB6B879389ABB7A8B894968A68B8A9B9
col22:   24546674C387A589A879B8C75AA4DBCBBAA86977D99A8A6988789A96B8A885B7C989A768AAB878B7
col23:   88AA69C69A9A777D4A999BA778759B7CCC9BB9C9C4B4A7A9ABA8BB7D756AB857B6A8AC4A9D98A959
col24:   668475859478A9A9577648A799496C98AC8D99AC897BEA8AABDB6689B7A6659BC267D8936B647BA7
col25:   889A9B4B79897BCAD7DBFB98FA4CBCE9D9AAC6AA6978A98797CBBA8C8C5D89459E63EDE7C48C6998
col26:   66697B8658778ADB397B9898CEB79BBDDBBBBCDDBBAE99C7BCAAE869A7987CD7AB9AB8AAA7BA94B8
col27:   75998A5B8BB4AAD6B898BBDFDAC9A99CD7CE9BDEAB8DB8CACCCDB8EB696CAACDC88ABDBAB9BCB976
col28:   9187ACCC9A98B9B9D9AAC8B67B7997BCDCDFADBBED88A6AFCAE69B7BEAB9EDC9D6899B78998FB9AA
col29:   9A9AC78988CBBA88ECCCAEFDBCB9EBCDEB9ABCE9ACB8EFCCABDBFCFC9DFDDFBAAADCABCA99EBB988
col30:   BBDAFA6A76BEA7EAB899D7EDBA7F87C6AC9CDBDBCEA48B8D79FECCA9AA98CACBEBA988B9AAACFCAC
col31:   8A99BA8B7B9A7B9A9AAAEDDCCBEB9CBB9F8AC9CC7BAB99BFDCAACCCCCCF9DA6E9C7DE7D75878C9BC
col32:   77E87B68CB97D9B978ACDC9CB9D8CE78CE9BBBE8FBADEBEDDCC9BBACABBEE99AECAD88F9BCEBCC6B
col33:   A76AB898C889ACD7DB85CBD9EBAFD9FEA8BABD6CBABAFACB88CBDBB698C9FDBCAF9CBBBCCCC8CA8B
col34:   6DAB7AA8AA9B89BB89BB9F8ECFFABBCB98CECB8ABBDFAACB88EBCBBBAECDDFABC9EA889CD8FABB76
col35:   B799A9AAEBADC8DC9AD8FBAC989CDBBC8BAAAFFBCAEAEFCD7FD8D7FA9EC99DEDABCCC7ADA9ADBDCB
col36:   5CC5BBA9ABB9ABBAAAAA899BD7ECBAABDCD8CBDCA9FDAABCAAEA8B8D6DBECFCBAA59A7BECC8DE9B6
col37:   AB999ABACFAEDC97AABBDBEABDDAEAEAEEEDDF9FBDC8F88DCEB9EC9BEBACD99CA99D8BDAEC9AE9DB
col38:   AC8998FCF9BBB8CA9B97AE99DAABCEFCCAEDEA9CDC9EACAACADAEAD6DECBACDBEFDC9DA6CBAFA9CC
col39:   99C8BCD6FC98CDB9BCEBD8AEDCCDCFEF9899E9EC9BCACBE99ACBAEBFDCDBBAAE867AAFEDCE8BCCFE
col40:   47A66CACA9BCB47C8EAEB9CBB8FBB9ACB9EAAFDFCBEECBBB9CDECBCEFAA8ACACDBDDFDAEA7BCDAD9
col41:   ABDAABCB9AD9FABD99DBD8CBA9FCECBB9AFDFDFCDDDFCDFDADACCCDBEDDDB7CDBEBDCDBFEDA9DAFB
col42:   76CB8BB9D97ACAE8DBADBDBFBC8AA67D8BCCEAD9ADB7BC8BCBCBCFEBCCFDBFDAEAFBBC8BBAFBBBFC
col43:   8DD8DDDAEBEB9BBDBBBBECECADEC9BB7EFCDCCD8ADDBDADAACCBBBCCFDCACDBCEBDFDBDBECEEDA9D
col44:   C9DBFDE969A9BBEACBB9D57DA8EEBB88EAB9CDCDABAAFBECACCC8E8CEBE9EA9DBDCBB8F9DCEBAAFB
col45:   6BC6BB9B98CE8DCE69BEFEE8CBE9FA99C9DDCEDF98E9AECACDBC9AEEFAC8CFC9CE9C9ACCEAD8DA9B
col46:   647AD99AD989DEC9ACBDABCDEACBEBAABD9BCABCBCD9EDEAAECAFEA7FD9BCFEAABBAABBAABEEA96F
col47:   AABBAC48CDB99BC9E8EDD7DDCD8BECBFADBEBDABABDDE9ACFEDFDDDCC5ACEFECEFEBABDBB5CAFA8A
col48:   837A989B989AA6678EFACBDABDBE8DBE9BAAC99CD98CD8CCBDEFABE8AFD999DFCDFDFDFBDFECFBCB
col49:   BC8BDACADDEDBBBCDFCCB8BDECE8C89CEA9F8ECECC9CDE8DDBACDBECCAEF8D8CFAB9DAACBE9AFEEB
col50:   99DBCA8A9D9ABBEA8A8CBCBECCE98FACB9CCECD8DEB7DDDFDDEBBB87FCDEBFB9EDBEBBECB9BDD89B
col51:   4AA68A6B7DC8CF99789CA57FDB86AFCD7EAA6AC9C9EAE9AAAAE7AC9EEC9CBABDBAC6CF79BAAAA7EC
ROC:     BPix_BpI_SEC4_LYR2_LDR6F_MOD3_ROC12
col00:   7427743278B651B55A8A69666965869776A6B663A985A858897A6648647869896578678B64838975
col01:   996898D9416664BA86A776BA859CA85AAA7BA89699559A88A67B78858798C88BB488A767AB9596A5
col02:   8585348B7A88AB634A67587B9888879D978C69B4485BB3778D676989BC688B9888B6A9859797B999
col03:   6445985B96A45566A6A6579687A9CAC8A876BB686998778A9ABA998BAAC9C2A7988AA898778999A7
col04:   5845546894A57A7786C78559B89B9B8C7B667A6698B7BB87889A7A89999976B9D88CBCB7A6967856
col05:   817946696898637888477A89BCAB8C846C987678A8A6AB77789C9958C2989967988998858664B997
col06:   44858763788878896578788D98B9CAA8B69C868A97696B98A98A884896ABC9C8DA8B6B5B5A858787
col07:   A5667C867A76B7A8AABA74D8A98B6636798D579B988BA6887BBDBABB87BAAD8889ABD56BB8857A99
col08:   5978896B994657996898A8A876B8B998CB87477799BA98A997B7AC68A9888AC8A96C986799A58A65
col09:   984A86797898A59898A5987A89ACDBA8AA86679AB59D7AA7D588689AA9AD8679849AB89A98A87657
col10:   775585948AA98A83B6855AABB6AA788AB88977AACADA4889BA95C75B9989886755936977BC767877
col11:   C76838A865A78A58BBB9CBA765A79BABCC99899BB9BCAB889C8ACA889788A6938A9BA8787879A8A7
col12:   778698574B79A8B8A3B597A67C9BAB84CBCABA978B9A8ACA6AB78787BA68A3C99795979588898876
col13:   64598A885A98AA869A76768A98BC8667BA7788E9DB8998C8B8C79B6A7AC8DBB96B97669F68B7ADA6
col14:   636A7B6A8AA774B69655779A47568D8AA99B9878DE777ACA858888C999DABC575CCAA988A968A8A5
col15:   B634747768864487BBD88A77BBD967F9A79C796B758A5C999CAAAB88977C97C788AD997A968998A7
col16:   28A6896B87A6AA5859789ACBBC5798688A8CAA99B9968BA97A88DA9A99878B78D747AA9969678A69
col17:   886A8B76C78BD74A99869788757BA688A97AB9599A9D99A77B9C79A9AA5ACAA875A596A685887963
col18:   867AA7643AA875967B8977C5B877AA8A96B65ABD5B7AC898A9B99A9795BB87BD98BC9C99769589DC
col19:   2A878AC86AB6759A86DA8D8789B894C4CAB79A6A67849D6AA9A79F89BAA79687588B988867E9567A
col20:   6D6694947B9868D658786658D75A9995758C898CA5C9C76BB75C896BCC7C69CCBC89A77A869585B7
col21:   85766A8B9586B77BAAA779AA78DBB9B58B95B9A99D9C98668C69F7C9AA9BA4A898BA786C979E9E67
col22:   95C6958D8979B889847AB69A6B8687B8B8A6B9D8895A79A9BB99A98759F775ABBA85758A46979A86
col23:   88489A6776C875478B879A8A7A7A86B957B8C7BB7AC7B8A7CA9BABB88A8888873A8B8A9B8699BBB7
col24:   86979684BB789558886B98849B9A9779C6D998B8CD9AA9B8CBB885ABDA99A65978B5A88CB83A98C7
col25:   88C5D889789BB968AC6ABAD599C5BA8A98B88888C7C9AC989BDAA9D8B8BC6A67BBAB85A8BDA6D9A9
col26:   D79A7968C886975AB9CA9EB9ADCCBDCEAD9CCC899CABCDBBCC89ADCCEABABABBC89DA878ACA888A7
col27:   6874ADC7A8868B79D7A699BB8BBC99BA7BBBCBCBA9CAAC9DADAA9A88879BCAAE9A8A97A8DB9BD768
col28:   9A597787CD9BCCD98C6A9BACBBBCABBDBBBDBAAAEC9CA7CCBF68C9E7D8D9CBBDE9AADCDAA79A75A6
col29:   96DB7A97AC88CA9A7D88ABC9DCBAABACA78AA8BB8CCFCE9C8ED9BDDF8ECCFCCCA8AACC99CCD859B9
col30:   898898BB8FACCB8B7C99B479DC9ADAB9BCCC9B8DC9DD9B9DFA9DDCAB9DAC5AA8B9A7EB9BAAAAB8FA
col31:   B7CB9ADA99A9999A9A9FABFBAEACAEAACFDBAAA9FA8AABFCC9BBECCC99DAE8BECCD7CBEDD9BA8A8B
col32:   8B78AED9AA9A8BBDBBCAA9DBBBC9CBCAECADA9EDABA9EBBCDBCB98CC5CAFD8DB979A68D99B9DC9D9
col33:   A8CAC8C9ABD8D9AD7ABDA8DADFCBB8ADAB8AACDBCAAEFECDDAAEFEE7C7A9ABCABCA6BCECDBA99ADA
col34:   A99A96AEA9978A8ECCADDCBDCBA9EBBCDFBDDAACCDDDCCDD88CCFAFDDACCDABACEAECB9CBEB9DBDC
col35:   9BB8B89999A89BEBBBBE899B8DEA97CBAA9B8AA9AA6DCBDF9A6ADBAC9CD8C9AADACCABB999CAFE7B
col36:   776EBA6DDCC9DC9BBF7DAAEBCCABA7D7ECEBDCBB9C98DDBC89A9BDECC9B9BBADBEA8DDEBADBBAAEC
col37:   8B999B7BED9FA99ABA8B9CCA9C8AABBBCB9EEED9E9B9ADCBBDEFACEBDACBBCAC9FCE8CFECACDEAE7
col38:   AD7DDC8B58A7AAAB9DBDBBCECCCFEFCDFAABADCABDCDDABDBDBCEBCCC9BCCECBADBACC8BDAEA9BDA
col39:   BB58ACABCCA8CBB9A99DD9AB9CB9ABBAACCAD8D9CCDDBBCCFCDFCAD9BACBFEFACBDDB6CBAEA8DA6A
col40:   D7CBBB8AEBBA96A7AA8DAACC9DBAACAF9C99CFBDAACBFDDCBDACADEBBECB98CF9DA8BD987DABCCAA
col41:   69CBC5BABAEEECAACBCDEBCAABF89F9ECCACECAAC8BAFC9CABBBDDDC7BFCBEEDEDDBCDE8BD98EE7C
col42:   97539597ADAAE9DCBABBAADBED9DCFBBE9EA9E9BACACCACABD8DA7A9CADA8DDDABABCEC6DCBCADBA
col43:   99B9BAABFCBBC9BACFCFDBDFBD9BB6AFBFDBABDAD9EDDDED9BDBBBACBBFBAEDADDECAA9B9BFBADCB
col44:   ACAD9ADDAC9FCFC8CFA9DCCFFEFEBDFDEADDABFEDCFDF9EFFFADBCA9DDCCCAEBE8CDACBC8CC8C9C9
col45:   99B98BCCDBBBBACBCBB99BB8DBDEBBBDDBBCBAB98DDDECFEF9E8DDEBECFCADBCBFAAFBAC8DBDBCA5
col46:   7B88E89FBEDCCFC9CB8DBABAABEBBCDAACDECDAFDDD8ECDEAFDDAFFCCBAEF7DBDCFE9CBCDDCBC9A7
col47:   FA99ABBCABDCAADAEDECCDFDDBDFCF7CAFEDACBBAEFBBDCDDAF9F6AE9DDCBFDDCD8ACBBBBEBCFFDD
col48:   A9DA9A6ACCACBCEAAFE9DECAEEBCCDAFDCFFFCBACBECBF9EEDCCBCAEFBEAFABCAADBCCBDBEDBC7C7
col49:   9797C99D9CBDABEAFEDBFDFCCCAAAEEFFD9BDECBCCDCBDDCACDF8C9DFEABCDC8FDDFFBAEECBCDDAA
col50:   CCABCAE9DBCAC8ECDEEAABCCDCDADED9FEB9DAFFEEACBBCDBEA9D6AC9BEBEAA98CBCDA9EEBCED89C
col51:   599ABDFBA8356FB99A8BBBBB99DABCB7BB78AC9D9DCBADABA99ABCBBCCAC9DAB8BAB87BAAB99AC6D
ROC:     BPix_BpI_SEC4_LYR2_LDR6F_MOD3_ROC13
col00:   489576A6A5697498AC9B6B88C9AAC896B6A6AA79569A6768755A8858CC648A6787A778598A554994
col01:   89989AA788E6B99B9B99A88B7CAAEC997D858EAB9BB69ACBF6BA99ACCBBAB76978BAD78DBBB69B98
col02:   B9795B6CCAA96A7AA98579B79AEAA8D89B9B98AD98A8BBC8D7A9CC599C8DA7E889DA996CAB6C7966
col03:   979AAC9DB7AA999AAFCA79B695DA9999BCBAACAADCBC8BEAACECABBCCDA9A785A9A8CA8888B9B974
col04:   987B87699DB897A97AB9C9AECBBBDACEB9BC9EA89DA5CC87FA9E8C9B7CACC97C8BBA877C8C8AA9A9
col05:   C6D99C979A88B88CD7B9C7BD9A7C7AAC8869DD9A8B99D8AAB9B887CDC7A87D96B8BA9898EEB99AB8
col06:   6C9E9366BC96B6BCA6BD5C7CC996DCBCBDCEC9DDB997A7D898BBA9BC97C9AC6688989C7B97AA986E
col07:   56CAB8DA9C8E8AAB5DACC8CDCAB9AB8EB9CA99DA7E9EA9DA9ACCE98DCD8A6EB7AB9ABD898A98ABAA
col08:   7A6D76A98B89B79BE68C9DA898AC998AB8B888AC88B9777CACAC9B9DE758CAAA6A7888A98A877873
col09:   B8BDB9BBB9898BCBC7899BEAA89CA8DADCBB8FEA7BB7B9CABB8DE8EAA7AADEA8BBBBADBC8A797588
col10:   7B88F5C9E9C799BAA9669C9CB8D658787AEAC99A9BAA9D899D99687CA99A9EC79B97669A6C949599
col11:   7AAA984988C99CCAB9BAD448988AAD9C9CA6AB76C8BCA9AB9999AB4BE7BC589C7A99A978ACB6BAAA
col12:   7C799A775ACB8989E78BB99B6ABD8B8B48DB93AAAAA99968A8887ABB6CA9AA89799AACA7A88AC8A5
col13:   8878C98C8BD9CD5DAABA988A9AE99BCB7E78BADBDCE8C77ABB78A7D9799A7A6A779BCE969BD4A989
col14:   B569F788758BC8B45AA2897B7BA6DB959A8C96B7AB897A9D9AAC867BC998797BACA8A86B8BBB6B96
col15:   885C5B7998AA96CC976C97BB9A569BE9ACC9AD7A4999B996FBAB9B9C999BDBB7647678B7BB5B7578
col16:   8B68A788965BB979A68A9995A9998AD899BB8B59AAAB7ABEACAAAA678BE9A997B9578B97A8888865
col17:   9C9859C99A7678CAAC7BB86A896C7AABAA9C5A7B7989998A48ABB58CAA67CA8888B888989C4AB7BA
col18:   9C9A84AB87A979A7AB69B89C7A9C6999A67DBBCC78B9997ADBBAC6B9C97A9AB598898799BCBFA85B
col19:   59C938A9B6CB6B89BAC7B67DD9C9AB589D7AAAA6AD6A868DBA96AB8AA9DC9BA67B76CD8E7846599B
col20:   8499839A3C9DB27C84B5B85C8BDB9589787B8997CD9C78C5A47789B7ACA88967B93CAA76A988C95A
col21:   A9A8ABB7BDAB98A78AD8C6B6A9A9C8C8AA96C5CFA9BCACCC8AB99B9EAC889AB8CCB6BABAA868AD77
col22:   8A7BB884AB899ACA8976888D7B8A7BB5E9AB8878898878ADABB7CA8C95B98C94AB6CCA98A8785796
col23:   A9787967867AA8B67ACCCACEA8AAAC9ABA7CA5AAA948A8D978BBAA8BBAEBB98768968995A7B859B6
col24:   98959B8958D9B8A697797AA9BB9969DA99B7EB795ABBB8AE87C86B9985D9989959A69876478A5773
col25:   266855AE7C98899A99A885BE89AC9ACAC8878DC4A8BBAA9AA88ABCABC9F8A6A96C79998A7A93AA86
col26:   88B8A9BAB8BAACAEA99BB89BDAE7CCCDF9AA9BD9B7CAFCD7AD9AB7ABFBAC9AA7AAAB8779B6A89A75
col27:   9A99CDBB6ACBCDDE9EA99B9BCA74ABADCE7EB86DA7597ACADCD7CF9CBAC7DAACCACEAB9BCC88B894
col28:   C976BCCAAC7896797BA6CECECACA9BEB7ACCCEFCC98CD79B7EBBCDEB8DAB6BABAA9ACAA6B79977C7
col29:   9B78B8A6956CABC7EA78CBAABDCEBDCEACA796ADB9BBCDA9DDFDF8DADCE875A9A89A999A7B9DAA97
col30:   3C99AC8A59B8DCA9BCC8C9BCECABB89A99898BC89C999CBAE999B79BDBD76A8EDBAB9B6CD59DC9AB
col31:   AAA868AAC7ACBAAC9C7CBCBFABF8B9DC8CBACBA7E9EE98ABABAC9A8CF9AEFDA88ACBBCC9CB8CA7CA
col32:   C6AA79BC8BAA99BAABACBBDD9BADCBB79ACDB9C9D89DA9A9C97EBC99CCACBCAB9BC9DBDAACA77966
col33:   8CCAB7ACB5979BFAC89A8BAFCEABCBB9D9CBFCC7BDBBC8BDCBBCAFA7CEEC8B87D7BDCB8688DD8A6A
col34:   7B89B26A88A9CBA98BC8889FF7CADDFE8BB68C8DFC7AA9E89DBA998FDDFCB7CD88AB7F9AA788A4CC
col35:   B9A6C899E9BC68BAF869C7CBBBDFB9B9BBCE5CDAF9FDACBACBBEE99EDCAB9DCAADDBBAD989ACAB97
col36:   BCC799A99CBBA9AA68AD9B99BC8EBAB855DCC9EFAFB6A9DCB9D7A99EBC8B8686CAC99E6B7759BCCA
col37:   CA988ACB9FBA9A6BFD7BA9B9DCEBBEABCD87DCBBA97ABBAFABCBBBFC8DB7DA77BCC8DCAC9DBA9C97
col38:   A698BBADABB68CAC4CA789ABAECDBFAADDCBCBBFFAD8CACB878C7BACFACAC9CAA9A9B68BE69A7A68
col39:   8BA9AA865B7AAA9A7BADAA9FB8EA6EB9C79CCAEDBCECFDDCBAC8BDE8B7879ADB9BE66BD7BAAA9569
col40:   97689B76AB6A97E997CDEFA79AECDE5DABD9EDDDCA5CBBD9AAAE8DC7DFCA7A7AFA97CBF9BD9D9777
col41:   889A994C978B798EBB8788EA9A9AAA87DCBBDDE9BAAEACACC7ABD9ADDADCCC9EAD9B9BC6FD799AA7
col42:   2A882C6ACDCB8EA8AA98BABC9C3CC8A98DDE8DBDBAABCBB9EDD8ED97AA8CDEA88C78AD9BB9DDBDB3
col43:   889B99CD9FB9A8A4DCBB7D7BEEBBEADB6AC98FAADC799C9ADBCBADA9A9ADD99ACD7B9CCDCBBA79BE
col44:   8D69987578EBD98BBC7D7EEEBEABBDA7B8B7FBDABDDDDDBF9D9CB8AAFDABBA7BEC9CCA9DC9EBCC98
col45:   697BCCDCAAB7AC877EAAAFCC7BCCCCDDB9DBCAA8AECB6E7DACAEC9EB6DACB7CB6DCBA987B9CDCC9B
col46:   C879689BA8BB5ACDEAC6CBC79DCBD899B9BCACA7B8CA5BB7EB9C8EDA9BE8ED998ABED89AD8DABA8A
col47:   E9C869DD96CA8A5AADAAAFCBEC9ECABA99ACD89CFCC9E9DC77ADCBAEAD79B8B8ACCABB9A9698CEB3
col48:   69BA9A9B9768987BAB8BD99788BAB68BCAAEE89B9F9BDD9EA8C9CCBFBBAAB7BBCDC97B7B9E8C9C97
col49:   48C85A66B9A7CC999989D96ADBCE99DB89D9DD8A59FCDADB9C87F9FAB98AAAB79EDA9FBCB897C5A8
col50:   AAA52BCB7ADBA7CB99B9EDCBDEBEC99C6BA98999AFBDAEBBAAAABBE6CACEC5B9CA8AEBA97A9B9DC8
col51:   566A79864A487A36AA798AA89C7767AB746AA98C9AB679998BA7C57A9A97766C5D99687679877894
ROC:     BPix_BpI_SEC4_LYR2_LDR6F_MOD3_ROC14
col00:   9574445526A9B37369478977739428957468967DC781929AA8B884BB8379837266685B965596A931
col01:   8365485999597AA88C87BA669BA98A79AC8D6EAAA99999F8CBC8A69CBC988A75AAD779C65957A365
col02:   56544758576797564C6ACE9877CB898B757799BAA9B99B8B9B4AC5866977398B64B895789996B756
col03:   55777876749377A667665A8BBC885AA9999BB78F87696D6AB8987848BABABB89B6A6CB88AAAA9A53
col04:   456396B1A75788589769579BA637BA9C9A689BA7CCC6E8BC96679BBAA7D4789B7B98AAC876B6CA49
col05:   257773B798488BB76B6999888A89A6CA589BE87D9AA79AE9CB5999989B95A797727597A8767B9858
col06:   4738748A6288816A87C75A99797A67B798AD6596AB9B8978A985677A99A89877B85986697B794787
col07:   956695BB67B8EA479AA869A7B98C59A87A99A99C899B98955BAE9BCB98BB87898D8A87756899CA76
col08:   4784A8587555156787456A9A779B8A9789AD8C97AAB57A58698CAB8A8B5B98C8B7C9588A78979874
col09:   996B7A897986B87879A7C69978ACD68947CA686C978A7BEABA86A946CA78A96B8A787598988C9746
col10:   536366373677667667A689A8A688A94ABCD96946BA946BC9899FDA85C99A988A99A6AD7796959666
col11:   78A736679B8D9B36A8D87B8469A4739AACA9A88BB76B76C937984A6B794997679B846B89A48A6795
col12:   7667B98698792467567596A997AB786AC88A9688B9AAE77889C98A959B7BC7B8589777BA7B69C767
col13:   586773749594988998A999997CA69CAB678BBBC8BB6C6DA98A99BAA9ABA7BA9ABA88A77974ACB6A6
col14:   5837A37467749983AAA7B93A84BCB7866C8B8898B7A9BC7976A98988AC798DCBCA8C7839B5498895
col15:   38498854283776C9B4C699BA66B98B83478B89B9CBA8A7D8C697B8E789BC9ACA868579A87A777A5B
col16:   556974659B7957696879B97687CABAA58594A8A88B999A967B9477976CB99B89C9BB86B847BBC876
col17:   2988656843B7D7565894959BD879A9896367C747A7ABAA77A6C6D78A811A7998AC5156A84A578966
col18:   426649686577C88586648867AC94A98A777DB4B677896A9588C9788A999582C99869A8AA6A694A78
col19:   98A68459539998967738868798AB59ABAA76D79CA5AB89D887BA786CA89BC59CB578CAA87B89A879
col20:   7365555367AC868759BA88A9B96A48E9C97A8ABBA93968BB7B6B9A9AC779CAC75A98A8779683D799
col21:   A6816848456A8A57A8374798988568B7BA8A96A7CAB798AA487BAB83678B9685775AAC99CB8989A3
col22:   55AB6458A64696AA677677678B7B4969D888E97C87B2CC785A78A776AAB9AC7D58DA774958268459
col23:   7747757A6A8685884B56D67789799BC5999A97A294AB797AC98787B28A77797898CAA87AA8577775
col24:   743A7687B5668D79964A99A475D97C8B785AC9BABA9688A98986848779798999D77BAA9699C67A67
col25:   317A7C67A68998689BDB3BBAF7A9BDC9C889CB6B6C88C779C8B87A9B5687BAA8789979BA8999A988
col26:   AA7A4B5AB7A69CA79A8CB888AAD9988AB8BBBAA8B9AABAB87678CBB9898AA9B9C98ABABAA9B8A4B9
col27:   B8B9B7D68BCB8ABAA98979B4ABDCDA7D9AB79A7CB83AB79789DCA6CAA6B5BCA9A9A7AB7B96A74C9A
col28:   8A94A88695C77D8BAAB8967BBDAC998C998BBCBACB8979BAB77C9598B9CACA8BE8AA9DBBAD599B96
col29:   A4A795CA7758BBB9BC8A88B9C9EB8B7798AABD9A68BD9ABB8AB96AAA9AC89A9A6A8BE8899A7DCCBA
col30:   A6615B95BA86CB7D99CCA7BBC3B5C7778BB898CADCB9FA979BABD6CA8A59A9AADAAAA68DA89A9978
col31:   649598A987EC8C99969C9A9ECBCBDD9CEAAEB8CCBA9BA9CBA578DCCBB3BA9DEEA96B8CCAC85B3FAA
col32:   4B6869AA9A8AA975A96A8EB7ACBCC9E9C6896CC9A5BBDAA89B9DC7CB8BA79B7AB88C9AABCBCAF9C8
col33:   54B989D9A6B9A6ECB79DD87CB4BB7BBDBCAEA47BAAB9DBE6A9EBE77ACB9EACB9DA89DDA87BBECA9A
col34:   65D664898AB5968CD9BB97BDA598A89CFAAA7C67B6A89B9CD79AD9A7C77E9B889AAC8DB6B69A5EB7
col35:   8DAA7E6BACC8A5B977C9CB9DAADA9EADEB86BDB9CBB8B6BBDCBCCA989CCBDC9EAACCAA86A9CCBB68
col36:   98BA8A4889AC97D899E96A96BCACDBCDDAF979CAB8B9BB8C98DEB85B9ACBA66A7C7BC8DB69C8687C
col37:   78C9CA9C8C7A5EABBA878FDBA9DEDBDC7ADEBAA98BEC9CBBCBCCCB9BCCA8AB8AD9E89C989C9AABC6
col38:   687779B8BB69C93FEBCCABAEBECBC9AAE98E9AD69D7ACBCCEEAB79CDE9ACFC958A6DD9BBABBB98BB
col39:   A857C9D77AAB8CBAB8B769C8FCBAB9C6AC99CABABA959FCA9C988D9B8AB8C7BDAA89DBDB89AACDDB
col40:   78A999889B7AADC8AA9BCA9988DD9BC999ABEAEBAB99CBA9A9A8B8BC6889CCDABDC798E9ACB8AAD8
col41:   ABBAC8996CABCEFACAAB9DDBAC9ACACFBDC7ECB9CEDDEFCBFBDCED8AABCBCF9ECFF9DEBCD889E9DD
col42:   978C54BAA9ABA9FB869AC7B7EABBBBCBAAA9ACFDE7A97C8ABDCBC88DECA8BBB797AB8BABACB7ACB8
col43:   897A6A9BD88DEBA788DBCCBBFB8CB97BAA9AACCCAFB979879FC9ADD9AB9C997BD9ACCC88DBFC97DC
col44:   C7CACBBA89AAAA9DD887B4DBAACCBDBC7A9BE9ADEB8CBA9AA989ABAA7BBBABD6CC9B8AB88B8B9BF8
col45:   89B89889A8C9888AAA99ADCBDCD8ADBEDF88B8ACCB97B8ABCBDDAE59CBCE7BCAAD9BA8CEE7B787BB
col46:   86998A8FD67CAAAABBCBAFCD7CDADC9E7C9CCE899A77EB87BBAC96AC9CAABDBB999ACEDC8E8DEBBA
col47:   77AB99DBCAAAAD9D9D8BCCA4A9DACE97C8FBDCEDDDCDBE9BBFEBD9DEA7598C9BF8BA88C9CB9DBBD7
col48:   4869C758AA8B7A7BE9BA9F8AE6DCD9A8EE9AACDEA99DCAB6B99CACBDE79CB7DCB5D9B6DDBABEABBA
col49:   9D599B9B9ACE9B9CFBEBCCEDAADAAECC8EA9B96C7FDE9EB98BB8BBC988A797BACADDAD9CE8C9D7A5
col50:   B9A986B9DAA66BDBB9E9BECCBAACAAAAB9BBECDBDCDDCACA7DDAB86C89D9CD79BE9CCDCAC9C98BC6
col51:   669B839B6B689B8A7ABBF86B9CF98967CB998CCB7CBBA99D996B8CB8C749BD6998C5ACC7AD89AB6B
ROC:     BPix_BpI_SEC4_LYR2_LDR6F_MOD3_ROC15
col00:   58997A179A67889A42558AEB638EAA89CB1B66CA9C67A687ADBBB5E6EAB984A598D95CE678734CC8
col01:   4366236D75C5ADB93C58BA89BBAACACAAB9BFBCCCD9CCB9BFC69D99DA8989B7A9AA776497C178A98
col02:   499D657897D987B8D9A6C8765BCA86BA6A8BA688BDD97B9989CBAD999A145A989AAA89B7567B7A3A
col03:   6286B6AD68974AB89BA3B7BA8BBA9FBCCD79CECC9898CDC9B6FAAB8DCBCCE6CC8ADB9ACAFB9955AA
col04:   86582B77C79B8DAA9CAD98ADA9C8DBAB93C8E99D7BACBCAABDACBA998B5C65B9BE98F99B6A7A8AB7
col05:   B262947899495988C9B656CD78EBF95BC99D9A879AAECBBC48E7E9DB73BECBBB789BB9AEB979AA66
col06:   5B7998A398ABB7933E7E9E8B8FCAC85DBCCB79899DBC9AFBF5BDBC9DA7DBAC7CA6ABDADEBA998A92
col07:   87BCD79A9C98CD96EA8685696C9BA9BBCCB5DDDCCCFDAEB78D988EB88AB6EE886A7B6AA7A949584C
col08:   5A78B86B66A559E787EB8887B999C9AE6E8C67A986E6B6D8BA98BA9BDBD7A7A8CA8AA98ACB8966A8
col09:   B8946796D9DF98C89989BAD9D79EBB9B9AAC8BD8CE9CEDFADDF8CA8DFBA9ED9ACBDCBC9998B98585
col10:   44677969CA7997CCA69B8BB8BAD7868AA88799AADBBAD98FD9A7EAEBBFC79AEBDCFCC794B7C89997
col11:   8A687979C8A99DBD8D69A9BAF8CBD9E7C7CD8AABEABAB748CCBDA99798DAFF889DF7AA6A95967898
col12:   774754977D77777BD69AA6B898A8A878DCDEA8A97899BD7B89FCFA4F887EFBCB598FAB86A7D87C27
col13:   6A2A966EBD99BA7976994BAAA5B97EA9A6ABBACF7CE99939CCCDABE8DCE8B7CA9A72A9ABBE86B789
col14:   7C89699A57A369467A9CBBEC98BDABA9AC9DB89ABCAD5AAABA95BE9ABCA5BCCAD9A4887BA8995779
col15:   66A65B8C7B92F6BE8A99AA6B9B5DCB9BAA9A9C9BB6E9BBBD8A99C899C9AADABB98F67AC6FB7B858B
col16:   A7B6C76A61DB8BC6A9B7C9ACBDAAB58AABDDB6AD768ADCD5C9CC899D8BB8A88ABC6ADA988D9A5989
col17:   6983A5B6A488A595F568774AF9AA7A78CBC49AA9989BBBC85AA8A87CB7EA8B779AC79AB296C3475A
col18:   A173CC879883A9C776CC5C96888A78AA9599A5BB87A5A9EB7B878BBC7ABAC79C997AD955A5A89818
col19:   9889865463899A8E56A7889AABCC8AA8BB66CAC68B79EB9CEBEBAF9FBADE9ACDAB8967EAAA2BD48A
col20:   638635454448A6958BA6BBAB8A69678995BBAB7D8CBC7868999AA6DDC8CAB897A8A68C79E96B9566
col21:   43A75997A53A47578C78D5A8AA5868789C998BBDB9A756BCAC8AB6A86B7C9AABBABC9F9685995974
col22:   7465C85B587C5874658A84B78749AC98E8B372A7C87A96E8788CA787CDD4AA5A97978A9BBB6698A6
col23:   3856935697985A8BBA75BAD588AD85CA99C8ABDB98AAFB7A88CBC7CAABC5BD888BCA8A78A8B83759
col24:   8A5877D977B989CA989BB9876669A6B8A8A66D69696D78AB6AC7ABAC7A77B7897ABA4BA7659539A5
col25:   7B786BB9665695A8CF9C87388B77936AACCED6B7ABD99878AD88AA6C5EBAA569CF7D988C18D89965
col26:   69B6B99CA8D4ACB7A49929BAA7ABBAABCCF5AEC9BC8C858A7E89DF8E9A8BDD9CEFC7EA7E8E8BAB86
col27:   9A5799D69A9AD9A9CCABAC999C9BFAC9CCC8BBBCECBDBC9D8BBF9C8895BCA9D6AE8BB998AA9CDD8A
col28:   586A4A9889B7B56AEA757B5A4BD8CC9BCDBDC9D9DDAB869D6DD9BCEDCFCABADFA9AADBCABBCAABC3
col29:   A62564647578B4D99CA6B989DFCBCBC9FCE97BBCDE88BCDD9ABB9DBCABB7CA9EBDBA93CF8998CC56
col30:   77799C477699D377CAF9BB8A6F8CCE6CCDCA8DDAA7F87BCABBBEA98EDEDAAEA4B97A696C89879D96
col31:   C664DD78DB8ABB9BBF8FBD97D9C97BFADE4DD8FBBF8CD8B8BCC9DDDBEC9DBEEDDBBAAA58B9D8BD59
col32:   C8CB694A69AEB4ABDBBFA689CCAEC9E9FDFBA9CAACCCBAFBD9AAF94BCBD9DB7BB9AAAD86A79A77A8
col33:   6789937A998BAE67C8BECD8D8D8DB99ACCB99FEEE88ACFDD79FEAC8EF9EECDF8E8DB88CCCCCA7DA6
col34:   9AA597A5D98ABCBDBBA6C8A78D9A8D94BBAD99F8ECBE7B9A5CBCB7AEBA9DCAABAD8CCCBCBC8AB867
col35:   B9D38756E7898B896ADA9B99BB58AECF8ABBEFDBADA97CED9DCFED8CCC9CBDACAC7FBABBDB97B8F7
col36:   7A578B98BF8BCCA6C8E9885A98DDA6A5CACFBC87FDB8CBEAEB8F8CBDCC5C9C8BBA9DBBB99BBFEE77
col37:   9795C87A9C789C77CD7BCC57EEBABCEAA6BD99DB5CBAE887DBCD7BCBFDE9CB9CA8EBCCD8DAA8B8CA
col38:   5B949CAC79CDCB5E956D7B98E9DFACCED879FAAC8CAA7ECAC75BCAFAF99FDDA6E88A9C8BCFA9AC88
col39:   5993DEE57A9A76EC9BEC9C8DC69CF9FE979AC979FEAEBBCCEBBFE8BEFFABCDF9BCFBBDAA9B969DB9
col40:   6A7599AC57CA5FB9BDBB7CCD6B76BFD73897ACABA6F9ED8CBABEC6BCDB9ABDCDDC9FA7AABD7CB8B8
col41:   8A7ADB878EECA689E8FC9FEAAE988BEDAA97E9BCE9FBCBDDA77CB9A9E7FAFD9CDABDA9ED9DE7ABBA
col42:   A694477B966FCA5FABBCEC8C79B9EB879CFE9CEBFE8DE9A85DBB88DADBDDB9BE8AFAA8E8EBDA9ACC
col43:   D957E56E8DABA994AACE9BBBB979B79EEB9E99EFF8ABFAEA7C79EC889FBDB9AAF9BCBBE899DAB9AA
col44:   918B177AB7D9778C6BDB88FCBC7AABDAC8DE98EE96BBAD8D5EBADCCA9B7D7CBCDBA5CF79CCB9AA99
col45:   A479794CD76A8E99CBDA6BBAB9FC6F8CEBDDE89FD9EF9DBCC39DBCB9EDA8EBEAACDFCF7D879BDCCC
col46:   68996978697BC9468AE6678D7DAE98CDE97DFBCFABADD46CEA7BEA7BCDCCA6FB6DA88AD4938A8CA9
col47:   7BAC79BBADBCB68A7A7BC8C9AE7DC7ADAB8CBAD4DD9BAAFFFFBE7AA6CCBD9AC9BCB578EFCBEA6DD8
col48:   67862699A9A795CD7B697BBBFDA8875AAF9D8C5B9A88EACBA9ABAA8A7BC7ED4D7D9B8A88DC7AAEB7
col49:   BA5C8496899D9FCCD8BCCF8BB9C99A868D8C9BCABBEB9AABCC6EBFAD8DBDEFBBFCBCCFB9B7E879B9
col50:   758694698AAA56B99879DA69B9AB6C9D8C8B5FA98C899CBDAC9C8BCB8EAAC99BBB8BABE6C9AC9A7C
col51:   6517716185287473C8B83199875689C26985B78498B8B8BE999D947DAB677CAAA6A998857B5A5A92
