ROC:     BPix_BmI_SEC2_LYR3_LDR5F_MOD3_ROC0
col00:   52336366954516544222529756889548A66B94688876AC6764988756589B779A9596C666C7998B78
col01:   65555866A4795885382697977CA6AA959ABA8BA898B67A8696B76BB696BBBACCADC8A688DB86EBEB
col02:   434686775A5678887453777796589B79678B67865B9B74688678B7B9BDA879B9AA78DB5B6BA6A8AC
col03:   66A7591A91728839A49448859A6888797B598DB89A5A68999AB997998AA77B79BABBA8A8A9A8BA8C
col04:   4833787683696983759478896652869A779436C93687786A9A4B6579B59D98AA699B7BC9A9B8CBD7
col05:   533534383978769354989799974768A9A94AA96A98DABEBAAAE84999A98BBBBA67BA956BA58C88C8
col06:   564584748827654988856836A6867798578638BAA78AAA767B9CA9D8ACAA99AB99ABB8B9976AAAC6
col07:   9665959755A3A682437B57669686B6BB8AA8BBAAB69697DEC9CB98A99C7A9A8BBAB67A9B9CBABBB6
col08:   537125643643867858685787964656A868A6989AD98988A769BB5A9BBC87AB8DB7CAAAAAAC83687D
col09:   3344258765935276774473B755A699785BAA97A9A9A977CAB9CDBBBDD79EADACB699BBD8BA977B9C
col10:   5332378827574743A5674675977495268947B88A569779ACB578789598CC87C9ACBB9CA9CCBAAB9C
col11:   3241347565849B9376645A647979C99A799BB66999B7A9A6A99889DB899FCC68ADF79BAAAA799DAC
col12:   645463545A39565583877755686886346B99A799B76B6A886DA79EAD79A99AC6A9A9BC68AAA86BA8
col13:   956463673B94697588878B6B588897A5A9797A76BB989D6AAD8D9BB9AA99ABBAA9CA8DAB8CBBBBCB
col14:   517157365553A66847766779779A697A7995BA8BA896A75B1BA6A888BAAB9BACC9ABCA8A89DAA8A7
col15:   7948B125337477697863A79A6996CCA6762AB4C9B6976B99C5C77CC489ABB99ABC88A8E8889E8998
col16:   226744934573C7166A669956775665BCA6997799A8A9BDB998896B67C6B9BCB78B9AB87576BAAB86
col17:   3155174515835A77796667796998A97889A9E69898B79AAAAAA89C67ABB8ACAAC9D7B9A5DBC968AB
col18:   34255546856536684558778357597979A68887B959BB6A69B8A89558B7A8978A98B779CA9AB9F8B7
col19:   63598174936647768996768AAC5A5867A8B989977D9999C776AAB7A69A79BAD7BACCCB9ADAA9AD8C
col20:   278447965385457738B545596D56878776A58A79AAEBAB88C59869A9CA87999DC97A79B9D8A7D685
col21:   5155135766938369475574A756769BA46B776B96A89AC94AAA8A589B9D488C87B99ACDDBA8BBC9AB
col22:   558459575655748887B4C66867646A46697666A89698A989A8C7CAA95895879997665BA9A9CBA998
col23:   62563567586827756555689597795A759A5AA975787AB9BB9C7C8A988AB69CB75B7B6B4DC5A8AC98
col24:   52437437718163747445D87765649969639AA597BA7877977B59B799A7BB8A77C8B7A89966B7AA9B
col25:   6769647A956679788A5A92788669ACA7C6AB8CB87BBAB8CBB69AAAA9B7ABDBB9E99BCBBBC8BA9DCA
col26:   551697386859585847AB75A7898A89BAD897A57AEA47B9A9B9C999CA7A9CC8B988C9AAC8B9BBCEA8
col27:   5A737356747AB2568977B875974B9C9B8DB8C49B9BB99BC8999E9AD6A9CB89AABC7BBD9AEA9CDD9C
col28:   A28377686B637B85665C9AE68778A89AA6A99799ABCB79E7C89BB9CCAB9CA887FD8AADCC899AFDDA
col29:   1712668238B5466943AA988C6586787B69799857C989A9AC9BBA9BBDAEACDB6C7AFBA5C9CCADDCE7
col30:   7423836578866736775784688997A89B66ACB9A9A7DABC9BB5B7B9A8A8D9BB9B998E9EABCBCC99DA
col31:   865A44575B6448668AC8AA78795B99C7AFCEBC8CBBBC68E9AC999BD99AEBDDDAAA8CCCEABBBCDAAD
col32:   65535484AB787688B5A66BB9A7A78AA5BA3999999AB9D7A9B98997CB8AEDCAABAB9BD97AADD99D8C
col33:   68658288987988788B8BA65B855AA8B8ACB6A8A9A8B99AAABAAC7A8A9EABB9EC5ADDC9A9FBAFBED9
col34:   646842B666599786A65468996BC9679B8899FA79C6CBBC8B8B6698ABBC7DEBA9A69ABDCCBBCAAAAA
col35:   5525CC4A567998A566988B8A87B99BA7C987C9BCBCDA9ADCA999BACCCCD9DCAA8DAC8BB8BCFBCAC9
col36:   3567CB8796998AA5887AC99A64987696BEAA8B988BABC8A99AF7889BB8E97BC77EBEABAACACCCCCF
col37:   387E47A8876BB596645A5BAB6799899997BCB9B8B99A9ACDCCD9A98AABDA9BABEC8FBDCDAFCCCA9C
col38:   5777AA7899356999866696B98869A94E7798DBCCCA8AA5B8E9DB9AEE9AABA8DDDABDABCABCACBE9B
col39:   455B793579956BD5899AC9B4AD99A78BA97B9E6BACCAEE7CCCABACC99BDBDCB9ACA9CBABBBBA9CED
col40:   B677647784866863877B5BB8996AABABA98789AD9A9E7DEDCBAAACDAFBCBCCE9CC9AF9CDFCEDEECB
col41:   459397777A984C76B459ADAB57B8A986AA99A6B98CCA9BAC7D8BDDA9B8ECEACCCEDAABDC8FEEBBDB
col42:   543978848DA8A975A87889A8888997CA99A7B99B889499EBB9B97C8B9EAAAAFCFD9BFABADC9CFBEA
col43:   8888587CCB77AA657674A7469B98DAC8D8A8A97AB9BCDFBDDACCCD9C9BEAEABDABCCDBDC9EACBAFB
col44:   62355582867599AA6695A6A789DD87CB8C98B9CEAA7BDBB7AAD7B78ADBCDABAD9BFBBBBDDEADDFBF
col45:   6645677668898567779A59C4A987BC886DABCC6CA888ABECBEAB997BDECBBFECDD8ECBECDA8BAEDD
col46:   547578856537465AC48AD99BC7A8AB599C9C8A9B9AB9CCE8ABACDACC8CBBACAB9EEDBCDD7ADBCFA8
col47:   89689A62986879549168A86A99EAA8EA98DBDAC9B9EEADBDCC9EFA9BA8CCB9D8DBDCCBCBFFCDCADA
col48:   7294878852B666A49B896B9A977A7BAB789B9A7A4B7DADCC9CACCDD98ECCDABAAAF9C9ADAB9DFDCC
col49:   768273895A75859C5682898978CAACD87AD8A8CAB88AEDBD9CABBADBBEBCBCCCBAAF9E9B9BCCCEEA
col50:   76758788B8A696659597A97A863C8BBACD7CCCEABABABC97B7CBBABAFDACDD8BDADBCDBDCB9ACCFB
col51:   272447A575916B7897565875A749787B9B78D98B9BBBBD8BBA9BA9979B7CABC9CBC6EBCAB9A9CAE7
ROC:     BPix_BmI_SEC2_LYR3_LDR5F_MOD3_ROC1
col00:   1215556635853673633643952596671797755455245A4541435753634216467A6478754712355453
col01:   6536C8847474955A3B7359525A56654678287977A593A84A72566877794745834351BB6686695879
col02:   75272174267484684129679586937572B7A989378454787778778585A6767497569595642966C768
col03:   67425A75A544B3467829936683AA988498756C937687787BAA988686845472B76359547AB586848B
col04:   552763A89644949789B4879793585357A868859655867BAB7996194264A6619C4A683847877A6B57
col05:   4634287483CDAA879399B957565488976953B4B53395699466395487AC6A897885848343877787C3
col06:   3A9343666973544B89C5675A8976238863B75477579598346788484A476275847757626B79857576
col07:   82358A2586A8669AB5976B57676745C2BBAB8B85976679A9B8779C4699A8998978C47A893676CA98
col08:   66665417555517758C8494798A87B6378454B39986C5B9998CB48777AA969994887C9A6895867B57
col09:   5373543873717C98788477757645878C7CA8625B86B976796A888448A45776376B3395B977C49826
col10:   5696788879776675666887796689AA57B789788984A89894A697A789B74747774697647A48578955
col11:   6478B73747589437C6839BA596A68A87766488576578964C75D55468687A7659A66454A49386CC87
col12:   647284454AA97557A26A36976587D857778897A8468CC7776BA57B64A7A47886B669968958899867
col13:   645348869699488888AA64B67A2776A658899957779992A9A563AB8A8575758868593ABE7AC78B75
col14:   731643355885AA8B5665748AAAA646E59AA6B67998A7A776469A87853C986A65488866666496889E
col15:   8948746674787774532878AC5A8A589AB977B78967796A8787A88B99478A9A77368573C3A76AC8D9
col16:   B5774774589276368655B976772B9586D7A889A64496717864895B9746898796698988578766D9A7
col17:   65475673653647818757678776A56C78972ABA969789C6879B46B8B8A94556A7698B3556BA864688
col18:   517635635A57A8947A45698365A55A99477B9876A4A6B59766569B86A96275B8A99657B4B5489859
col19:   6B885745989A7573858A567499C58967B96BC386C9968967798C6A7B97587C4A69B8698B9A867992
col20:   2293567575867944568AA58746B547A5B88739AA8C7879868585B68BA7B6A87979465C57858589B8
col21:   54A674B975D88767745976B975A76723B6A67C9BCBC689897B9668A78C859A8AADBD7A889888A8AA
col22:   65647698979A86797666977A4BAB85D8A9648B78A73D588869B857965CCAA8785679848587876CB8
col23:   8777A862947A55BDB8A86799B7688ACA736C99898B87C7776B4888A96298756BAD6698A3B9A8887A
col24:   A278745846675A56858A6AAA9BBB57A879C497388397877A896A5ADBD98883B79A978987BBAC7B69
col25:   78596686A787A9A8A77867868939BB98B8C8BA78BB79CA87969869AA575BC98879BAC9A8A9E89A96
col26:   87486979C97AA886E69D4B9A8479A88CB979A6B5A9AABA4A778988E989BDCA78AABA8CB469FD9C96
col27:   679CBCB8C8A9789B8ABA69ABCC9DB9DAD8B98E8C5D58AEBD8A7AAA6BBABCAAA88C959579A7ABA88D
col28:   6895887BA7588599BA59AAE687D98888DC7A8B6A8AABA99A7AA67CCBBAB9AE9A6A97CBAB78B9DCA8
col29:   B7B59A9A88A9E88877A95AB7C98A979CC8BBCF7BA6899AB8A97AACD9DBB8BDA776BA88C8CB8BCAB7
col30:   A559A986697CB78CA67B7AA8DBBABA89BBBCA898B85DBAC5B7D9E799A6AC7AEAA9C9BB8C9A969996
col31:   B87A96888879BDA9878AADACBADDEC8AAA9AA99DEACFB9AC8BBEA8BA9DD8D8AACDA79ECA9CBC9BF7
col32:   678778DD988FDF5A5A68A98A8FCA8C98BACD9DAD7ADABDB6BFC9CAAB98999A8889B7CC9BEABFBCC9
col33:   46769BA8875A9ABB6A8C99AA9DBAB799DBCA97BDC9ABBDABCBAAC7C98CDCCAADBFBA75AADBDABACE
col34:   69CB7589B76AA9AAFAD97CA9FCA8AECCC9FC8ADDCEDCDA9BADBBAA8C9EBFA8ED9CACCC87D8898DAA
col35:   B996D93A9AAA799DF8B7ED8BDD9BAADB9AB7C99CCC99EBBCBEB8899BA9BABC8BBD9B8A9B8A8FD9E6
col36:   69A688A79AD597ABAC7F3ACBBBB9C9BB98CDDD7CD98E9FBA8CC8FAB7BCCD96C9CBA8A86BDBDCAAB8
col37:   587D88B9ADB7AEBD968FBCACDBC8C8B9BBADBDDD8CCFC8AEA9CBAB6AFA9CADDAF4BBBCABDDB8D9CC
col38:   8ACAAB97A6C985A8A8A6C7EBD7DCA769CBCACDDE79A6ECC99BA9AD8B9ABBB9DCBEDCBAE19FCEE997
col39:   AA398EBAC99C7BAB8BA8D89C9DAC9ABBCBBB97BABDBDABDDAFC8B8BC99CCBBECA7BECCBAC88DDA89
col40:   9BC5BDBBD7998ADAD7A9EBA7BCADBFAFCC96BC7AD7C89C8E7CBCBDDAAB99DA9999DBDB8B68DDC8B8
col41:   C8D7CCCA6BC8BDCECA99ABCCDBC9DB9BFACA9BCCDFBCEECCDBDFCECE99BAABFBCDDDCBD79BE9BADC
col42:   B5B8AAD89AABDDABBECAB8D969AAAFEDCAABCBBEBCBD8BCAFCBBC7EA7AABA9EC9C9CCDCAE8CD8DCB
col43:   BCBBFCDF8EFC9DFEB8BEE9CDBFDCEDADF9FDCDBBBEEAFFFECDFABAADBCDDFCFACE9FDBFCCDDACCDD
col44:   C9BB8999B9B9CBD996B7FDDDAAFEAAB89F8CCFCDDCDEFDCCCBDCCA8DCA9DCC7B98CEEDDBD9CDEBEA
col45:   998AA5FBBBB9B9A9CCAB7C7FEBDCB9DEE9BCDBDDFABB9DE8BCC9CDACEFCCABE9FEBBD9CDBEECBDC7
col46:   98A697BB8BBDBCC9CDAB9CDADBBC8DA8ADCCCCBA9BF8BCB8EEDCD9BBA7EDAACAACBFDBADBBCACFCA
col47:   BC7D9CCDB9E9ECDCEFCCEAAFDFD6EDCEDFBFF8AEAEBCFCC9FDCEEDDEBFFDBCEEC7BAFFEEEBADFD9F
col48:   B8A569BCA9BA88FB9A8CDD9DC8FDB9CDF9EFDDDABADFBDDBDBBDCCFD77CEFEFFCBBCCDBCCAFAEEDC
col49:   7A9BCDCCB888BFD7BCDFABFEEACD9D8ABDBDCCAEABFFFDBDCBEBBBDFDDFDFAEDCEBADCEEDECCFFDC
col50:   B68CA6BAABEBA9BACABEADCFCFFEDEBDCCC98BFBAF9BEFDDDBBCDCFCECAFECEBDDEA9BE8BAEFBFDD
col51:   C6167B9F79ABBAA795E9998BCFC9DBD9AAABA9B9C8DBBDD9DCCCAABB9BEDA9B9A8C8AA9CCB7B9FC8
ROC:     BPix_BmI_SEC2_LYR3_LDR5F_MOD3_ROC2
col00:   1344547B483573587498A34578475897BB9B7846777565CA66677748557758479695A853BA866669
col01:   847ABA69459448B9877BB78ABA9D6769888A9AEACFF9BBB78856A875A76A5989586ADABA55B96977
col02:   98B767785371A7977D6757AC77878BAA6459C7CB8859D8BA499487969A888869954279774556A977
col03:   624986A9A687468847899787A99B876BB49AC7C8858CB8DA7AABC59BC5767A35D9B948C95A966B47
col04:   4B766869DA76866486999B796A79ABC8A96B77799A997599788BAAA784899B4755A4879879694686
col05:   656946768989656558A7D777866A9B99BABA9E88A5A8BC9AAAB9BC7BB5B75798C776596876CA8AA4
col06:   676948583787B694689469C59AA787B7AC99BC8A55B89497A7795B697984A467BB8657BA965877C6
col07:   98894A659756976BB993BBD7A8CA698969C9ABAC4BA8AA459995995A663B9C89AD94C7A85944CB87
col08:   986748547A9769B9C27AC67A6A5668746A5A898CAAA886CA76B9B28979BC8854636AB4A686BA6AA7
col09:   9848A93A56A59899B9B988989A598BAA9BAEADDAB5A8779799BA894698C6A3989868A687776D9936
col10:   6675671A865858A89B59CA79C69BAB7BDCAA784AAAC8A8A987789AAB4B9679979B7979C76955565A
col11:   8B84A957B7C7A487968B887AB5886D9CA788BA98ABCDCA8B6AB68A9BA6D9897B6886AB759A8AA6D6
col12:   7456A97C57898779789689786666ABB78AA598869BA5998A98B9B68887798DA498CA8677B3668577
col13:   3A766A868B998A68768A698A78788B678A9DB9AB7BB7BB986688A87978A57849A6B887AA6A978797
col14:   5866B53A8797AB57A67AA9BC98DAB7AA7C76B97AB8C8D869967AB99B8B999B7BA6BB72676895A7C5
col15:   B548957977A95C7855CC5BC8799679D99ACB8998695ABB9975CCB78787AAAB8A8CA7B8B6776576A7
col16:   88975967A76989553877798B5B6998677BBBC8BA8A9C7589A9C7B7B99887A9A44B7976BBA9BAB7CD
col17:   B699B68893498A8988A99AB9B7BEBEC8A977C7866C98A857597B9D76A79968A6589942A8999A8A74
col18:   769477867A9A8979AC88796CC995797AC55C78CB85C84897778899896848CB97B9A8789AA7CB76B9
col19:   9995A5883C87B96BB89A8BC978B867BBBB8789A7D669ACCA88ABB9B99BBCC7AA95C96A7877B1A8AB
col20:   93C97982699B37AB66A9B8A4B7B798D87587B98C7C9AC494799AB89A88A6CD8998BA66A596898973
col21:   49DB87A77BA8AA8988ABA98BE9659FB6B9CC9D9AAA7B9BB67D8AA9C999867BC78977D65FD4A987C8
col22:   577A985789899A868A8F772A989BA89A9AD8D88798999AB79C9BDB68595A86A9AACA9AB983678BC6
col23:   8675728A868866437B77C99977B9A8A8B66A77BDAC8C89CA89AA9AEABCCBABA68A95A98977A6A6AA
col24:   76998858777958B3A6ACC9B8A9C77876BAABC7A988CB8AB799BB8AA8C9ADB8BB598C75A67A869975
col25:   9883AB8798A6A79B6676C98ADC8B9E9989BAB4AACAA68C99AB9CA9A8AABBCD9AA98A7DDA8A9489AB
col26:   A88B8869B9D7AA9ABA9AAAA9AB9CCABCADD8CBA7DBBCBB779BAAA799BCA9979ACB9DA6D9AEEBBB9A
col27:   A69799BB5998A6998A8D98A899C8BBB9AAB5A9A9CDBADAFE5CCB95BE976AA6E8ABA9A8BA7A8C7794
col28:   BA9898987B68AAEB9A8CC9E5B9EC9B8DBBDDABACDADBDB9AAEC96CAC89EAED89C8CAA9A997989CC6
col29:   B8989C9A98995BCD9D8FD9B8AECDDF6CAEDBAA7A7FBDEDBDAC9CF87C588FAB9C7CBDA88BCA9CBBBC
col30:   95799B7BAAB8A998BBDACB9BA9B797789CC5BDAC79CC89BFAEA8AADBBEDADDC9ABDB9B9ACBAB98C8
col31:   9A98BAAC76A8A986A98D9ECCB8A8BC89DBAAACC8EA99AD98CDADA9B8BFD7DA9AE9D39C9C9E9A9C78
col32:   96A889ACA99C9A99DC9FBCF888DCFCAEBDCAB9DBAC9FABE9CDE8B8EC9FDE9ABBBDAD99CAC89BEBAB
col33:   FCB7AA6CAA88BACA79ABC8989BDABBDBAACAAD8BBBAEBFACEBBCBBACB9ABAD9ABAEACEB7C8FAACAC
col34:   A9C97A8B89ADA9DB89B9DABB9CCBBACBFEB8CCFDEA8CBBDDCABCB8B9CCAABECDCBBADD9A989B7CAB
col35:   EAB8ABAC8DEC8BEC9DABAAEBAADDDE9B9AEDC9EBBCB9CDABADEBF8DB9DBCFFBBCB9B9CEBBB5D9CCB
col36:   BB5BB99A8CA7885D856A98CAA8ABB9D7AD9FADB7FBBABBB7ABD7989A67CEB8E7CB89CBFEEFA5A89A
col37:   CCDBBB898BE9A78BBC7BABFAC9EA9CDCDADBAACCDCBA8CDACDBCACE8ACED7FDBFDAABDDD79ABAFD9
col38:   B8CEBABB6DADDBA96DCD9DDDCBCCFCCDDCCA9BCBAD8CBCBCDDCDBCDDDCA9B8CC9ADDBCACBCAECDBB
col39:   CA799B9969CDDBBAECFCCFCB79DF98BAC7FCEA98DBCCAE9CEBDFDAB9CAEBDB9CDBA8CACCDB67EBAA
col40:   A6A8AA9ADAB7BCCC8B99BBFAAA8DAB8ADFDDACACACABB9BC8EBBFBBCBC9C989CDBC9DB7BBAFAEFCE
col41:   8BC8CAEBB9B7BAA5EBCCE9ABCCE8FB9CBDEB9BAAADBEFDFDBEECD98CCDBCDCDE8DCC8C7CBFC7BBBD
col42:   DBA997B7C497AB9ABBBAEACBBAAB8AC9CFD9CDB89E7B9ED8DBD8EEECAABFCEDBABFACCCAA7DF5BAA
col43:   A899BDAE9AA8BBBDBEFCB9CFCDBFBDDCAEFFDD9ABEEFBCD9EFDDCDBACFFCF89EDEDDDAEDCFDB9B9C
col44:   A9779BB8A8C6CABCDBE9BECACBCCCCB8BCDADCFECBBDAEAAC9FEC9EFF98CEDFAFBDB8BADCAADBDED
col45:   969C7CD9BED9BBACAB9A9DBADBBE8FDB99DBD9CDBEDDDCBBA9DDCDDCABBFE9DBCE99BCD99AAA9AA9
col46:   7B97ECB8D89BC9AC9ABBBDC8CB7DEDDCCECACDFFBEECEAFCFDCBAAEECBBBEFB9CDACDDADBABC9DFE
col47:   9ABC99AAD8CC89E9FCB6CCBCABBDFA8ACCECC9CBEDCBFEDBDDDDC899DEDACFEAFBDDDBBBEDAC8DB8
col48:   A6AABAACACB7D9AB8FBCCBAECBBFBADC9FDBF8ACED78BCFC9EEEBCBB7ABC9BABBBECE9AACDBACA8C
col49:   6BA8DA7E8C89EECAABCABCADBCAEAEDDDFFEEDCEEEECEDF8EFA9CBCFB9DFFDBCFDCEACAFDBCBDCEC
col50:   AB9CBB98BD8AA889DEA9EBBAAD9B8CADCAB9A7FBDAB7EEBCEFEDEADEBACBBCA9FCAABBD9A9C9C7BA
col51:   6B878CB7AB73CABA6BAACDB78ABCBC6BADBBC88C9AD9C9C8AAF7BCEACEACCADD9A7AAF78DA9A9998
ROC:     BPix_BmI_SEC2_LYR3_LDR5F_MOD3_ROC3
col00:   5544492545544833864687867447295548A592362B65768668955868644794557764739587684537
col01:   516486776775888983754773589799698A8997776465975A3837B5957A4657A899B8697B78587574
col02:   B48965756AB75966A67497861D97597979896865A88565A5A578887547989B61994466898566A777
col03:   5775598834A6366AB6757A978748889988768A997897766B6497B87586659A8AB7576896657C4976
col04:   7624887A86655876647647B8856877A78835688976A79854A7A95597A787876A975546A6D6889774
col05:   669B467A584866A877679964C79756A878996895785779B8B7667747A68A279B767A938887957467
col06:   646699966B6557595B68AA969B768778656A97A6756978368929957858986857A775655145647896
col07:   687866676787967588869756898767B959569A6984A849997A765BA993A7898889AD99A968599AA3
col08:   878998698866A78A5B86777859755676698A88177996767977986BBA849766676748648B85988577
col09:   895593486671597A92A6B975765C67688769A8A8789966AA6658A788A546A3876581BAB8769A8A88
col10:   6846B55668877A9798887487A86666BA496767366797AA58A5C8546B594B87584986589768A57987
col11:   898694B67987A69657A9A899555A77789A9A669B5766A8789B9AA87B979889AC5789767ADA45698A
col12:   A678767667778A8A459A4886568987A77A669985B775A563974758A87A7647A977C7A88259A53646
col13:   8798745699A68CE8A97A958A765B9B5965776B478B6788B8A67AB655B86C67A9B6A7588648556B66
col14:   76875888987676778B8C4A85675C5766A98A7886A797A7A6A9CABD9996F8A96496977C97A5666679
col15:   67888B7B49747667755967986898AA557769767A799BA869999B98A57889AA78566999789B8698AA
col16:   7547A852A7796A43698778796A99A6ABA76A778699A97669678B78C8867788BB988A996679997A76
col17:   96999A36776829785858B89AA863A86BAA7674C7D6A76AA79597A98885CA5BB9574988BA66556769
col18:   87656687976495D6A774965A7B6A9747A988A7C97688B8586745AC587695B33B6A66BCD56A676597
col19:   7787684A7B897BB92498BAA88A9C96489BB7779696B59897BA7A96AAAA99AAD8B9896A289AC8A866
col20:   85696C7B8796778774AB5986A7B79BA8BB879A5C76A677AA97877787777669678987C68377798677
col21:   AA9589A579848874684975A98A9A6A4B67A98AAB9B97787C77AAC886A78AA778A6857B5488949857
col22:   55888867AA88A8C7E8887B97A9888987A9976587589BCABBA3937695AA9AA869897588857C659656
col23:   87B9A975478887859757B849688879A9B689A7D695A89A68ABD788B9AAA477756979968A869A6588
col24:   57547577C87568847B4866997AAB88958CA998B4B998778B8CBA78975B987877CBD839C7648A85A4
col25:   A6979BB89789A7B8B69B9A9B7799D95E8A8BA97BBB5BB795998857BA8DD999C9A699C7B8789A6953
col26:   B89A9697AA99B9B89BA85A7B77BBDAB88A8BACA99B99A9CB9678B5B98A97999A8B8C89A9B7998785
col27:   887B48699A756AB877C9DAB8BA8BBAE9779979889EDB8C8CCB98CBC6B8FA8B687999A8BD97B79979
col28:   C9B8A687A986CCBC84B9799AAAC89C85B89AAC6BDCBB5AABA6A894B896BCCA9B8ACA98A7A9998894
col29:   9D99A67AA9B9878A69679789A999C79BBC9AAADABBBA9CAACE9AA5BBECAB8A6AA8B6CC8C7BB6B8A9
col30:   6A3A887CABA689B8B489E88C9ABCBDE8AA8CAD988CCD9ED9C9EBD5BDAADBBC8CE9DE7BBB9A7AC9D6
col31:   9A89BAB9BDBAABCBA95BBB8899BDE9B9AB8BCABBAAEADACBDBCDBACDAABACBBA9BBCB7B98BBECC98
col32:   97ABBBCDCAABAAB97CECE78CADCABCEAFAB8DDABE9CBACCCCBDBBBC9BBBED98BBDD9898B9898A5CB
col33:   ABB6979EAAA9CACCCAA789ABB899B879AFCDB6CA879DAC9DDD99C6CA8D6E9997DC79B1CDCEBEAAE6
col34:   BC9FCC68A8D9DACCBBBBC999BCCBBBBA9CEBAD7BFEABBBBAACD8BABC899B79BD984A9AA9A9BA9BA5
col35:   989ACCAB98A9CCBB8ACCACCBAC9FB9BBDDCCEBD98B9C97AB8CAABBFAD7BD9C9D9B9BAAB8AFBA9EFB
col36:   A7B6CA98A8AD79ABAA899C9AEEEAC9CCCCCC9DAADFBA898BBABC97BA67D6ABCD5FABA79B9CC8CDA9
col37:   C979DAFCD9BCA99CC8BAECDBDBCBBEFCBCCDEBABFDEDB9DB9CAA9BADBACCDEC99998DABABDEA9DA9
col38:   89B97EBB9978ABA8BAABFEFD9BBDCCD8CB9CEBAEAEDABBCDCB9AE99ABBD8AC9D9CCADAC9D9C9CCCA
col39:   98CCEABA8CCBCBDCB9B9EDCACBBBDCCDBECBADACEB9AEBBBC9DCB8AADCAEC99CBB99BDD96BB8C8B9
col40:   BBA9CCABAD8EEC9A998DCE7CACA79AAD8CCCABBBDBCDDBFCFACBB99ACEDCCABBBDBBCC7CCCDBDE99
col41:   8BADE7BDADCDDFBBDEBAA98DABFFBDABD79DAECDBDDAB8FBE9CD8CFABADDCECFB8CDCDB9CA9878C8
col42:   CB9BC99BEDDBBAD9CFDC5DCDBCCB9BBDCDA9DBCDB8ECD99B9AACACDAACEC9ABD8D9CAB8AB7DDDAED
col43:   9ABBBCCDBDBFFEDCFBBCCEFCCCFFBCDCEDDEABBCEC5CECCCAAEACEEBCDEACD8B9CCDAFDABAD9AA9C
col44:   7BB9CB5EAB8B9BDDAC9FFBCBBBD9ADCDE9DBDCE9DBE9CFEFCECDFABEFAABBADC7FBFDBDADAC96DE8
col45:   BDA9ECAAABBBEAB9BC9988DBBDCADACDCDBCCEAABBCEE9EEEBCB99DBABFACACEDB5DCBB8AC7BCC6D
col46:   DC8BB8BBAACBFCCCADCC9C8CBCCEFBECBD7DBDEC9ABDB86AEE9CD9CACBCAB8BBDFA8ADBBEB99B7AB
col47:   B9D7ADFDDACDAFCDABCCECABABEDFFDAABFEFEEFBDFDE9CDACCFDCDCDDDFCDA88FCFEFDBFC9B8ADB
col48:   C97AFC9AAACBABCC9DA9DCDCCCBAECAABCBEFADDA9DDC9AA7EDFCF7BAABDBAA9AEBEEE798EAC8AAA
col49:   DABBCADCCF9DBCAECCCABB9EFBCCDFDBFBCECADCEBBFFFDEAEFCDDEDACFDCCBCCABBBB9DADFBAEC8
col50:   8DB89CCBEDBEFB8DA8CDBACEBBCDCCABECAFEBCDDCACE8CCCDAF9AFECBECDBAACACFDFDCE8DCDC89
col51:   D8ABACCAA88AABABBADABBACAABD99C9DDADAFCBCDA5B9BACAA75B99999DBACA5CBA98DE978B8A98
ROC:     BPix_BmI_SEC2_LYR3_LDR5F_MOD3_ROC4
col00:   385466838669747765735A7761858758854356733453665387567521262424856134255335137552
col01:   788966879868CA574739A776A7697567A56276786793368976793676598556834628641539644675
col02:   5769938B98787B5B786C99788456967463588656976BA3667653463569814657817256855A227451
col03:   87BA8A7755643E7A79747A68B799AB84888866B7655A65598946A566663885585756466B54433755
col04:   8599298A66668B98A7A7A57A4A9966477739A7544A76393389998154343982768681569854533674
col05:   9938A589A789C6B58A98868697778B87765A879674754876646A9666886656963566457674435754
col06:   A68A7C896573C559C97B765878A5774B678A7766A8588554646769364A6684B37431484681725654
col07:   747C9877C96868A78A99D8A689C998777AA89796A9896987978A56557958A5668766285A56625675
col08:   A6A89976A66778779877A568BA9A88855A898BA98398684A4848676BA55998748354449853253812
col09:   9798A7A778936996A77C86C748999885A7698766AA9B988477669875785856656794796972454553
col10:   999887866855857BDB6AC4BBC67769671B69A9AB8792A65876796888778497854254177446456756
col11:   88ADB479B7986C97898867A5789A9999484776869644BABB67A82535876764569836BA6856746886
col12:   638A7A89C86885969AA8A9699799879988AC5A78A6947969A879856C548868667A96545627627572
col13:   8699957898598687BC79A8DA969F78A8886A997A97AA78867B79868586A8B66C74735686A4689717
col14:   77B789588967C476B8B8A8C8B7897D5AB8CAA67A9749A88578A6547657678648668864866574A426
col15:   C9889BA98868987B69C8998CCB96B7867847C84686599B6768996B6896A788995648975674B55883
col16:   A659AC76A9858C9C6A59998BD68A9B79BA57BA76A787676898557668668588579461635779B6825A
col17:   45A58AAC6678A599DAAA7D988A898A797A8953A7457A7475789557A844776797667556679A358374
col18:   7696697AB54A98C9999A87B9987A8788889987688759486A969678B7366467748675558985856756
col19:   A9A979A898A99A9887D77AA8C8A6A998B99969B8887A97A9BBB76A6A995AAA974983757798A968A5
col20:   BA68A886B6B899C9987A9A698A4B7AB848A889A6B7688377A69A5797998873692539769575545344
col21:   C9A6B8579C78C8A986578778A797BA9B98AAB97A984A49B69ACCAA8855B8A6667994676996745486
col22:   999BB955B9B9A8A9AAD8786C9598B59B9A66A789C8AA779C8AA7A95899A898C66376A66765477A81
col23:   768B8769AA885A97869B8BD6DC87BAAB7AA787ABA69A88B7869589878767B566B8777838649894A2
col24:   98A9CBABB7AA59A886AA96A9ABB84986879685BBA9BB7A8A879A868B878985267589867496546739
col25:   AABBCBC9B97A9879A99A8BBECABB67887589A888DB9B9897BBA9A5993779879AC4B567B95C667D97
col26:   ACBBCBEDC6BACC69C8A9EC9DDCBAA97AB89CBBD969DAABBCA7AAAA78B8AA6BA9984587A7B98596B5
col27:   ABA39BB9A9A8C98AAB9A9BD8989878AE78AAC9BD9BBACD8AAA6AB979A9A9A8C6968AA47565A788A7
col28:   BAAA9BC8AA99BBCABB9AE9FABCA9BBCB9AAE89C8A7C9AB8A9ABABB787CC89998A98CB7A69BA89A76
col29:   8BCBACBCBCA999B88CB9CBACAE8A79DDC9AABFB8E99A5DD9DEDAAC5BCAB87A8BCBA86C67A8C96789
col30:   CACA8CB9A6EAB9AB96AB699D88A9DAACAAC9AACADA6BB7BABAB98A77B9D56BA5AABB778967A79871
col31:   CEBD9DB98D9BBCABBBCBA9ACA99CCDA99ABC89A8BBAAAAB9D89D98989CCC6A998A9AA9BA99C99A97
col32:   ABDC89AB9BAD68AAECDA8C8D9CBCCDDA9DCAD8C8BDBEA98AA6C8B9CA9ABA9BCC7A9BBBBCA598B6A7
col33:   DB7BCBADCAD898DAAADDACE9FABBABDCACAABBCADA8CBC9AB9B7BEB979B6C688DB7CA96A9A66888A
col34:   BBABA7ABBCCADB9EFDEB7C9BAEC9DCDDA8EABDADB9E9A9CB8CB8E87BCAA78BAAB9D877897CA9D9BA
col35:   FB97B9ABCDDDE6BEBBAA9B8ACEDCBBCAADCBF99B9CC5BA98CBB9BD69CA9BBBCABBACAABAD887E99A
col36:   FAAACCCB9DB98CBBDEBDA9BCDBD9A8B9C9B9CFCDBCDDA8BFBBEDC68BA88D6EB9A6A97B9897BB96B9
col37:   CECACBDBDEEDBFDDBDBCCEFBDEECCF9EACE8AAADCCBAEADAD9A8CBDDBA99ACAAA8BCA8B798A677BA
col38:   ECDBCC9DADECAFCCEDCCCBDDABD99CAFCDABCBCCDBDA8E7ACFDDAE9EDDBBADCACADBDBBC99C7A788
col39:   BACFEBCDC9D78CCDCCDEBCDEE8EEFCCEDDEAC9CACC99DAD9B88CBCC9BACB99FAB799EA99AB9CC757
col40:   AF87CBEFBCCCEACBFB9EAADCF8FECBBBAEACABFCADBABEA9CDAB8C8FBDC9BBBBBA79BE7BBB9B77E9
col41:   DDAABBDDBFADEEBBACABBDAFF99CFCBB9BABDCA9DABFDFDDDBFE7CDEACDCD8CBBFCEBB9CD8999DA7
col42:   ADBE8CDBDBE99ED9E9DABCCEDCFFACEBBFABACBACEEFDADC7BACCDCBAEF7BDACBBADEC89CDB7AAD9
col43:   CDBECEFBDAAFCCCBDAEDAFEBE6EECFCDBDAFDFDBCBAEDBACEDDABE6DEEDDDCDAD8ABDAC7DEBDEABD
col44:   ACDDDCABBEBAEDCCEDBBEBFCDFCCDAE9FBCEEDDCCABCEACCB9DACBA9CCACDFDCA8BCB8B8DCBA9BFA
col45:   DFDDBDEFDDDDC7AEDBFECCCADABEFBCCC9DDF9DCDECBDCCDF9EC9ADACBDABCCCED9ACCF9CADAABAC
col46:   CCDBCEFFCBCCBC8BCBCBDDFBDBDC7DDCEDCFEAEDBFFABEEECEBF8E9898EBBEBCBDBADDB9DBBAABB8
col47:   CEEACD9CDDFD9DAEBECBCFCCEFEBCBBEEDFCCDACBFC9BDDCBFDDBAAACFCCAEDBBBADBCCBABBBD98C
col48:   AAEAFEDDFCACFBECDEA8ECBCDCDDFDCDCDAF6C9EFCBCEBFDBDCFDEEDB9BDEBE8CBBEEDA9B6DCDAAD
col49:   EECFDBDFFCDBBCED9CBCEDEECCDAFC9BCFCCFCACDCFFDCA9FCCBEFDBBDBCCCBEDDA9BACBDCAB8CC9
col50:   EBFDBEBBFDECADEABBBFFAEECECEAEBDDDDBBFCEEFCFDBCEFFE9BBCDDABFECEFCFB8DD989B8DAACC
col51:   BFDACCDADBDCCB99ABDEADCCCBD86CCCA9BDDCBCB9DABE9DCCBCBBCBBA9A87BC6DDA889BCA96AD8C
ROC:     BPix_BmI_SEC2_LYR3_LDR5F_MOD3_ROC5
col00:   98469589A3A4789998C573778B4446784A2A98A6784569858997699828699876687896666A797854
col01:   8A9799AB9AA77488836BA9A97A47BCB6A85A5A7AB496D67887A6468998ABB7BCA88858A9A8859797
col02:   A7B69959899895A87BCC867B396B7986BAABA97877A5C999C898A6D5649689558869B8C6A9765766
col03:   7746C7C9A679959A66C87D9C9DA68CCBA978BD4B9A896978974B99D696CAA78A8A85A96753AA59BA
col04:   94775888797E5657A996BA5A5789ABDC698799A879C9B85A6BA8596A8BB9787838988896A6677A47
col05:   94A7889A799ACB5699A6A63976ACDAB865A7896A9658A7B95A6897B56887C998A6EA6BA9B895A7C4
col06:   9A848A8AA97A9A9AD9BAA75BA61596A6888CA6CA54868694A97AB48996DA8529B7A7699589A7A499
col07:   D68596797788A8EAACA6C8A8A7CAA7B79789C8BC988CB9A887B998D9C84785A7B6AAB698A8498956
col08:   A79758AC8C6B58976A6998982BA9C99AA7DB8D86968B987D6AE7A8C99A89A9EC8797D546475A9967
col09:   8C9D59884A78598A8778C9ACB99D9A9CBBE586AD8C8CB9A7DB99969D99A9BA5669A76B7BA89B9756
col10:   587B6875888ABA6686AAB96BAAAAB8BA8899947B49A89B9A89D89A98998AAD6BBCB9CE77A7978997
col11:   5B99D5BA878A68D678CCA5B88A9B86AAD47CBDBBA9A6AD997A8A7C5A79CB7B28B9B773B85B97AA53
col12:   B8C8A6875576578598B9D897788BE8A6DB6F8899C7886CD798A98947F898A6986C988CB7A89B9AC9
col13:   688AA57CBAA7A8A8BBA7CA888C6CC9B9BB7D969B98BCD86FABCEA89DAD78AA779C46976769BA6AA4
col14:   968BBAE89DA399B685A28DB6C6A7CCBBAD98979BBC8A9CCB698AE9AA49A8C95BD7ACCBAB66CB6597
col15:   888BB8DFDB6CA6A8B387B76A87CB8ABAAAB697EB5B7E98BDA8B9A9D99BAABC98FABAADCEB58C8B98
col16:   88268AC679988AB96C97AAB97C9A7BD49799BAB6AA7967A9AAA8C87986989695B758A59A789BCAB9
col17:   5D98BAAA898CB7977AC96AB9A8B8B896B9BAD9C89AAB994687C8CA5B5AB8B75977768ACB75B67BC8
col18:   9C78BB8BA9878AA598887AC5D8799AA87A989B9798775799D9B79A68778D8CB846A6957BE4AA69B7
col19:   88AA6B9B968C89A75AA81DB8B6979AAAA8D89BABABBBBBAD8AB89BA98AA88A8889DD86D92EBAAC96
col20:   B86795689CAB789997998BB75CCC98AD9BA7BAA9AE6CAA999AE8A6A7B4C7A9B99F8A99597889A289
col21:   BA5989798698B88CA8AAB99C688886B95DEC88798789AEEA88B867BA69899A9C8A8799AB6A9483C5
col22:   6776BA9A9875868B9A9759AC99BA86CC88997A8AD8BB77C8986C9CC88A56BA8AD8A939C7B9ADE9A3
col23:   5A8C9998588574BB999AA7678CBAAB6BC98AD9C78CBAB5AADB769CD9A8AA98A7CAA95C6778999A7A
col24:   B958C69897968A789ABAB78ABC98ABB786AAAA9C6A7DCB8887ACD9BB96A8C5787A787AA7B656A7CA
col25:   AB878AB967B5A9A9BEAADEADA8BB879999AB4ADDB9FF7989B8A699B6DBCADACBAC7D9A875568EA98
col26:   AD6B989BAC6ED87CC8A887AB9ED99BC98ADAEBBDCBDBCCEB88BCA98BBDBBEBC8B8BB5D88CFC97AB7
col27:   9B858ADA789CCBC7E97D77ACCB879ABDCDEBE9BC9CB4BACB8CBBFBBCCA8BC89699D9CD99ABC977C6
col28:   AAC7A969BAB78CBAB8A9CC89FD8BFFB6FFCFD6CDDCB88A8CCBA97B79BAEDCD9BABDADBBDBBB99FED
col29:   4AD8B89BA9C58786B9BAAA88AAABFCCDD8BBD8B9FD6CD7DB89CCB5AF987DBCAC8ECABA6ACBAEBDAA
col30:   9B898C9EABA9A79AD98BDBCDA9EACDCEBCC9AA9BCCDB9EDE89E8A7DCBB78CCFBCBABBECE9C9A8B9A
col31:   B9B87B9A7B9B779ABC7ECBBEADAC9D9B98FDCABCE9EF9BDBBB8AB9FDDACABABD9C9BBDDD9CCBCED7
col32:   9CAAC8A89BDB999CE7AF8C89BACCACCBBCBAACA8CBC8EABBBCDBACDA7CECDBABCBAC97D9DDDCCACA
col33:   A9B89A9D5BB87ACEBCCE596BCABD8598ABADA9DAD9ACC9BECCF9C87ABAFFABCCADDA99AACC78ABEA
col34:   AA9B9C989B9AC9AAA9BFBBEACFAEF5E9EEBAFAFEBAFBFEABAAC9ABDECACDADECB9AECCCDDBBCCCAB
col35:   9ABB88D5CE8DBDBAA6CABDBD9FAB9ADDABFDFDCCFABBFEBBFCD8CBAFCBFEE9CBACBBBDBAEDAA9AA7
col36:   6B89B68BDBBDC7B9A98AEABCEAEBDCB6BCFAAEDEFCECBFD7CEBFEEBA9A9AFDBEEC7BB8A78DCABD9A
col37:   6B59CFC9DB7ACCB9BA7CAAC9BBA9C89C8D9FDBDCDCE9DDCCCDB8BACDAAA8AFBCB88A8DBFBBAAA8C9
col38:   9999B9A9AD9AC9FB9BBCBBBC9BADFCDCCEDCC8BDFF9BBFBAECEFCFDAECEDD9ABCFCDEB8CA9CAEBFD
col39:   8B68DD9AC8C8A8EA86989B97CD9BAC7EBCCCDFEAD8CCBABBAEECC9FB9BECDCD9E99DB5DEABC6DADE
col40:   A78CCA9B8AFDCBA9ABFEFBDDCEAAC9ECAACDE9CCACB7BECBD8ACCB9CBDBBBDDCE8DEDDDDECCD98FA
col41:   6999BA8B9B8CCCACAEC8ACBBABEAC9A8DBDAADCFBDDCD9EEBADDA9FECFBDABEDADAFBFCECAC9DE8E
col42:   9CC98DBAADA6CCE9F7EACA8DBCC88FADBCCCBCBDEECC9CAFAADAEEEAEBE96CFC8FBBCE8FABBBBAEE
col43:   79A8D7DDB98ED8ABBAEBDFAFBCECEDDDFD6AEEBDCCDCBDD99EACFC7DCBABD9EE9EBEDDE9AFEDFDA9
col44:   857B868FDED9BA8B9BBBADCFDABDCBCDCDCEFECACDCEAACBFAFDCCDFDBFBEDEE9DABCAB9CEEBEFC8
col45:   A63A99C97A7AABBBA96FBDDBCFACDC9E9FFAD9FAAACEE8D8BDEBAECCD9B9CAE79CCBADC8D7BBBA8A
col46:   898CDAD87C87CCDAC8BBACDE9CBD7BDEDEDCED9CBEDAABED9AFC9AEDCCDABBDCCCECFEC8DC8BBCFF
col47:   A77A879BDBCB4ACAB9E9C89FCDEBEADCED9BAAADABDF7DBBFABEEDFAFDFDBCDADDA8BFFDA89AABBA
col48:   C9A6C8AB8D998EBBB8DCCEBEAACCBAA9B9CFCCBBE9CABDB7ACCBCDBDDDACBEBDFF8BC9CCCCCFAFA9
col49:   ABB7989CDAC9AA6AB99DCCBECBDA9BDD7CDCEFDEEDC9BD9AADCCCFCEBBCBCCBB6CAECCBDCDBDFEDB
col50:   8CC887CACC98EBCDAA6EEAD9FADFAE9CCBDDABDBF9C8DBBA8ACCEFAEBEBE8BBB9CADFBCDCFEACDBB
col51:   9855A94AABC8C7BAADFB988879ACE8DAB9ABC677DB99E8DACBB7978D7BECEBB8FB997A986CAFAAAB
ROC:     BPix_BmI_SEC2_LYR3_LDR5F_MOD3_ROC6
col00:   26435675A58747585645947A76476645554387A757A7A58883266686547349347678558329435723
col01:   692847C7395854D6958F67B77B69A688BA689977AA647946A78A57A16754569A78986A85BA9B9B97
col02:   8579895745456AB3A4939889B9397C999975889956A7196754387A778756547A8387697A68A6D388
col03:   4444B5A28978A49599A8A5188AA87A7778619E9857989786578B7A9AA79888917436C779799A83B3
col04:   57AE9556B5938969AAA6B64787568766778A99BA777AB98C9A6B2499A96856688544264AB8897B85
col05:   79B534576C68892AA85698854A98B3DB49A785B9687C9BB658764B998E75A78D3368583657132943
col06:   44B997958A6984C856A993A8774568A6769AB67795A39536388E768964568557565BBB586285793B
col07:   46C33639797A9D56E98778A998B79878B979A7999BB995A846CA96984AA446B868B8B7639A471866
col08:   267ABA8C6A9557977697954A4899CCA67B6998C84A9A69799766B993D565B9969A7B5D9D77C53CDB
col09:   677856BAA79BBEC879D8C87A8ACA796ABAA9EAA6AAE3B67E77AAD8BC87A5829B6568464B879ABD75
col10:   A89776CA973837AB9DB7A4A3B8A6977E9FF574A47BECA8B48B88588BA9779B97D874775D6AD78A74
col11:   754457A7A8A588BA68BAB94669956869979CBA999A78BB358878697CAB96359765B9876A9B597775
col12:   5787E48A8868D8B9B8B67C6BA4B987B55AA6AEBAAAABBB95699BB55E996CB87C6B48B669A8587476
col13:   779A4768BC8E69BB8AA75998A88B7A769CAB9797887798DC8A9A95C79A99A679A532B766C3B6546A
col14:   5174799C8765D83BA66B8BAAB6A49995B589B66BBADA866EAB9A7B79A6487A53589AAB2CC9488995
col15:   5B6989C476A9A7685B527C7998CF988ABC889B8979CBFDB6CA988A9DDB9595AAA38C8644577652A5
col16:   B8C98B879A95EAB5554785D49B9B96B787AE889D7AA99CBA8EB8A9D6AA598C97A65CC5A457C73AA6
col17:   8586978A698B99A577A84BAA997C569BB88EA6BC75646A797DC7C9B4694D9B7488547A6599B7A6AB
col18:   984399A578748886858789EA9779A9C69894A99898BC47AA6899BA7956797A8678C5647652788D68
col19:   286868A95B8AB6A75D6F75A86ABA998E678B89878698C8ABBC9476B77C785577466A798A69885586
col20:   86799B79AAB86A94A7747878996DB6AA95898C9788AB79598879487D69997B7A68C49A9955369B43
col21:   6C68988ABA7AE7982588D7A29BAA6C76CBBEA57A8AB8B6C97A9887C6DA966B887A69977A9478C3A9
col22:   A5A679A9DA88889A9DBADA7897A7BAB789DA87897A63DA67A7AD899A89A988D884BA5658764864A2
col23:   8AD844A8A5888AA88997ABBC8A7C888354AB978ACDB9CAB584DAB9AAA7797575854677A85768737A
col24:   8B8C79569A637767496553459CC7CBC9A7A88C9BABCB8379866B89A7687AA5AC9C998487576A7378
col25:   77A93664855A555BB8576DCBAD5A7B7AAEBC8DD7B9AC9DB8D999B69E8857C9669798569793779866
col26:   D8C6A6A49BCD5C8CCBB5856AB9CAE8BDD9C9D9A89CA9BC7CBC69A7898889BB88787799756CB3978A
col27:   BAD8ACBCAB8B965A9CBC67C9C987B8D6ABDC7CA8DB9A47DDAB7DF7BB7E887AC859877CA9C8988959
col28:   AA6ACD9798D99B7BBB6C8ABBCC98BDBC8BAEBA8AC86FE8BAC9B9CABB9ABBAA887AAD7DCB69C49986
col29:   D5C5C9DBEA88BCADABCCA69A6BEEDABFA9DBD7A7EBCDDCECCBB7CAA9CCF698CA7A88BA669B7895C1
col30:   9A89ABABC7ACA798FDAA9BAC98A5CD7FCAB9CFBACC95BBCDBC8DAB9A8B68AEA7F979D96BBC5BDB6A
col31:   9A86AE9B5CFB978BBBB9AAFCEAAAFDFBBAFBAAA7DD8EE9BA7BBBC9F8BACBE9B9DFD9788F6BC86B58
col32:   C6B89A4A9AD9ABECA7AC8BC9DDAA9DFEAA9ECBABFAC9CBA6D9CDA57E9CCAEBCC57A7B89DE9ACB9D8
col33:   E6C768A8AAA8779EA8EBBFEEB9B7CA9CC8FB9DB9AA8BE9D9CACB99BCC98B8D9ADA7C59DD76ECB6B4
col34:   6D9A967B6EAC5DBAACC79BB9BBB8E9DCABCAEEBACBBABAECFDB87DBCBEC9BFAAC8D8869A97A97DCC
col35:   BBC8B98C977DC6AB6CABCCFBBDFEB9BCFCDBBBEBBBC9BBBB8CDBBC9C5DCBEDEF9A7DCBBCC8BD58C9
col36:   788AB8DEAB9ECD9FD9B9989CF9CCEB6999DECBC9AE8F9C7E8ABC9BFAAAF99DEB396D7AFCACFAFCD5
col37:   9ADD9FF99BC9C7BCBCAD6FCACD9B9CDBC69EABBBCC9CFAE8D99DB3EBECC778AB989BBBBEABA8BDB4
col38:   99BBDFDCBC6CC7FACABDAA9E9CCAAFDAABFC8EDD88FCC9A6BECEAE9AEBDEE9DBEBFDEEBBDB6BAAD9
col39:   DD8FD8ADBC69C5FE3CC8DAC8F9E98FE7EBB8FE7CADB8A9DDCEC8AEBBFCBA97FCC88BBA784898B58A
col40:   A9ABDABF9AB7CBEEDCDBFE796C6EBCBFBABBDCACCBFD788996888EFACACB7CDCAEDCAFACEAF9DDB8
col41:   AD6BBCEACCBBDAAEE9CDECEE99CBECBCEEBCBAACE9ACDFE9E8FB8B7CCAA79B88ABDA979DDFB8D8A9
col42:   AE79CCD8E9998ADCBFCAD799E9BCECBB86EADAB7DBB9A89D6AD8BFA8C8CA8ABBBCBACE789C8D4759
col43:   FB9A7DDD8FAABDB9BBDFBBACCDED8BAEFFDFF9C99DEDDBFAAD9FDFAACBA997EADCE9EEDCDDCA8BA6
col44:   7ECCCCDDDAABBABC9AEEFBBABADDBCCDEBFABECDC89ECDB789EF56BDF876C8AF8F9CC9CACEC7EE9A
col45:   A9B8BB89E7AA9969BBFE9FE48ABBECEEDFABC8BDDD8D9CABDFABFDAAADC6EA989FEA8B89AA9DCBA7
col46:   8BE3B88DBBB7B9A7FBABBFB8BECBFABACECABA9899EE7ADCBAA8EBC9A99EF8DDDB987ECE998A97BC
col47:   EABB7A8ECA5EEDDA6AFBDE7CE7DAEEBECEDCEEBABADBECEF8E7CCADB7EBDEADDC9FCEBD9ABD7AA87
col48:   CAEB79C8F8C7BFE9DDCCECE8AFE8DDEEED8FCEDCD7D9CBA7D9DBACC9B978BDDF9DC8BCA9CEDB97FB
col49:   788A9FBCCCFADDBBCFDBDEBCEEFABABCDCBE979DDCAFBACCBB89FFDBA9DCCBD8DCC9BCCACA7DBED7
col50:   8AD7EB9ECDBDFBFBECECEDDDFABEEC8D6AFEDEBEA8FDBBD9FBBBABDBEBFACC6ED9DD6F8CBB9979A7
col51:   CCBD7BCDBBC777AB47BB9BB9A4E83AD799CA9BC9EAECCE8AA89CD97798C79C8BA976ABBA97697B87
ROC:     BPix_BmI_SEC2_LYR3_LDR5F_MOD3_ROC7
col00:   75475587CB568937B655A5B597978A9981839A59694E8B89C5CC4A969748997AD6797466A98D7E46
col01:   B989787DBC8E91BCA9A8DABEFA6F89DAAA9B4A8ACDCDA9AC7AAAABEDC9C8BB9C86AA8AAE7A89AC36
col02:   8B3D57D9B99A6FB869ACC8CA788979C8A9889BECAAA9A59BBBBA7A8BB9EAA779A8966968A8C979A8
col03:   5B38A97CBBA8678F6AD8D7B9A68A87FA848CB9ADE9C8CAD9BC7AF9BA8A9E9DA8BBEAA6CEB78BB99D
col04:   57D6898B9C97BB7AAB59849A86B8DB96B5C9ADE9CB79ACBA89EC4DA8AF8BF5AB61CB7E8768BBC9E9
col05:   8A989C76B9B5A8DCD7DACCCA7CA8BA9A8AAABABA89DD998BCCFF997AAD3A8B9BFD87AD9A6B9ABABC
col06:   8758BAB86695877ABB9A6AAA6A698ADA4BBAAAB9D89BFF5FA9EA8DC8BAAEB95C4CD7B9C9D888AC89
col07:   5B56B9D889A5A7985A4B6AAD68D9AA9B69EA5D9BEFB7BACA8D8DDD89DCBEAED79788C7985B9DDBBA
col08:   A6878DB97BB7C8979BC88AB857CBB7ACBDA7ABACBFACB7BAADDDCBC58989A9FBDAAE98EB4A57AB9B
col09:   99C9D87AFBB9AAA887CCC8BFD7EDD979F8FDE9BC6AAAB7E79D9AB7CEBACA6FBECA7CED9B7CB9D2D8
col10:   8779A9B89B5B898793EC97B99CC8B9A77C99DBD5A98ACDA9EAD9C78ECAE89C9C8BA995BCAA6969A4
col11:   6678DBD7B894C68B68ECBA6BBACC94B9C6AB8B8B9BABCA9E9A8797C8DC5B9CCCA79B66CBC79DB8BA
col12:   847147BA75A5BA66B9BE98C7B6C86B775B9FACA9EBE98EA798D99BC7AB9C75BBA77ACCE9CC77D7C8
col13:   5B79A98B63EC95AD7D789D9DCC8AA6988AD6DACAED9ABCAD9ACFFD9CD588AADCEACAE7B87AB4C49A
col14:   47537A7786B8D88B76AA6BCCADACAED2ABBA8AABAC5C88ABB78CAE8DAAAB7A9977C92A8ABB898767
col15:   975AEAB99ABC67737799988C9F7AEBBBD89CAABBB9BB9FA87B8B9DECA8CDABABAA98ABC9AB9CCC89
col16:   97756767B98A974888B7A987967B78968DBC8CCDCD8ABC9B69A99DB9EAD89ABBE77A77ABA2A8C894
col17:   788786679B56EADD88DAB5B94976AAB3FA9B8D99D3C8ABBB9C789A6D8899A997C67EAA599A8A987B
col18:   8D878C65C9975399BD6987BAADB9C66CFBBACA98BCACB87799D77B58AACB9A957676B8AA7A448799
col19:   94967A9C8B9A96BA97B4A6B75D98BEAA9959C7999D9AB8C9FA6DC87A97BB9998DAB6796BA99ADAD7
col20:   E984799856A977C9A5B7AACEA76B6ACBA4A8D574A69BCBE9A6D876A8DAAABB8CAA96B9BB8756DB78
col21:   B79587D987B9CAA9D97AAB77B6DCBBA5A7B8DCBBEBC7DADE9DA8A68CA9FBADCAAA9F769C75CB8B9A
col22:   B85BABCBC79C6769376ACDAA9C97BCCB758D9C7AAACD7DB9CAB879B86DDE66A4B8A9B9CC9B58A8A8
col23:   B88A959A9B89BDCBBA348D978A8CACB9894659ABA9A7CB8BEC8968C9987ADFFDB6999BBC5A478BAC
col24:   66BA98CA4BE87E87C78D9A797AE967A9B98A69BBB9D7D5BA9FB5B6C9C6997899AE87A89B8AA8A517
col25:   8B9494DC7B7B777DD889DABA9DF7E4998B86A98BDCA8C49BE6B9BA7A9EB6DA7899CE9AA789698697
col26:   895CC99887A89D97BBB9BB9E9BAAADCDB7DEB8D889CAEFA9C8BB98EDB7DAC85967BB9BBBCBFBAE78
col27:   A99B6A8BCC9BCD6AB7D8A9DE6DC6BCDD6CCCCFBAAB7BCACBA9CBCABC9DDCCBCABC7AADBECA6DA9AB
col28:   9ACEBC59ABCA8EB98B9DCDCE8FA6D6C9DAFAA8DED7AC9CB9C9C8D8D88C9E8FCDA4ADB7BC779BBBB8
col29:   97CB8BD8DB78D97FACCAC79ABAA9C8D9CDC6CBFE79BDA97A8BBC7BEBD89BCFDFEAA9CBEB7BBCD6B7
col30:   8B649C97A79AB8DA89EDA6E7EB69FCABDCD9BC6BA9BADAEDCA6FF8AA9AF9ECCBEECD59ABB8BDA8D6
col31:   9F8C98BBCAF97AC9F7A9878BD88AA98FDE6FCFBAE99BFAB7B8CBBACC89CF9ACA9AFCD5DBA8DBEB98
col32:   3477A5FBFB78AAFBB9A9AEB9BD9BDC9AA99CABBC9DADCCA8CAAAE9DBAFCECBCEA8EBF7B8D7968B9A
col33:   7BEEA6CDC9AEACDAB58799CBEBEBC9B9BC5CDEBCB6FECDDFDBEDB99CB99DB9DBCCAC9DCBADEB97CB
col34:   B5ABD9C888ECB9B7CDCBE5FA99CDCABAFD9FBEFBFABAF8CEDCFCA8FCDEFEC7BA9B8ACCEACCF8CBAA
col35:   BA7D66CBB9BB89BCA9CBDACBBECADFBEAFAFAAE9ABAD6CCA6CB9CC7B9E9BFD97E9DBB8BDAB9BACAB
col36:   A6A6CAA9B77D9E6CABBAF8F8DC7BDABE9BBEEF99B59BA8DBFB9BBB99B8AA9C9BC5C86ABCAAB698BB
col37:   BD99EBBA9BF8CCBDAACD79F8EABCC9C7DC8BECDEC6ACFEEADBCAA8A6BD5EBF5DDBBAB5CC8C88FDB6
col38:   88DDC37ABBC9BDECDCEA7ABECB9FDBC9DBBCF88DBE9CEC8CCDDCF6BA9BBA9EC9CAC99B9BF96AB7AB
col39:   8ABB696BA8CB9DAEBBADAFBDAB6CBD7CACBDE8CC997CAFEBCCEDB9ADFEAA8C9AE8B8EEF9E987AF97
col40:   A784BE8DD9A9ABE9B6E78B6B9BDBDBBDB9BDCFACDBFD9D9CBA8FEBECEAECBA9EF9999C6BA8E7A9FA
col41:   7C68B996C7CD9898999799DDCA9FFADFACDFBCDFFADACFABC6CDFAEFDCEDDEE8BAC9ADE99A99CC78
col42:   AC99B6CBACBABDDDDFAECCC89B7ADBDEBEAFAC9DBEDEE9BDD999BC8C8A9A7CDBABB96CA9379BE967
col43:   BA7EBA9CD88BF7BD94CBD89CDEBFCDDFCAF9FB9DDEB8FCAEBF88ED8CCAA9B9B6959CA9DCAC9C6AB7
col44:   8759B66C9D9DDCBAA7CDABB8F68B5EACDA7CABCBC8DE8CBD998ACFEABACC47CA9ABBB5AC57AAD9AB
col45:   A4AB68BFD6CEA8A9CA99E9BABCBEABDBDDFEECFCDEDADF9EDCC8DAAAFBBC86AAE6AF8AA77DABA797
col46:   C5ABDB6A989898ABFBF878EBCFAEABABBBCCCC9A95AD6A9C8DBBADEFCD9AAAC9ABCDA8D688B8B498
col47:   E8BB9C9DA9E6866CD87AB958C779F997CFCC8CB9A98C7CB78DC6999C9E9A797A98A9AC37799C98B6
col48:   C378BAA5A6DC8899897BBBC6AD9B9BCD6CCBC8CC8BB89C9A99C96658A68FB6B59D9C5A99B77B6989
col49:   9A89A8C8786A4CBBA88796FBDBB9FED779A9E99F6FC9DA9FBACCBCAD96E6C99BAA7B69969977BB79
col50:   99988BBDCA9ABDA87AA9CAB87A8FE999DCCEBB8BBEF99AA4A9AAB66DBAAA98CC8B95BBAA859CA73C
col51:   5649865B65D9A8B67C8489976D9C8B9877AA9AB79A9A79DBA8BBA9865A78C5978652947143719681
ROC:     BPix_BmI_SEC2_LYR3_LDR5F_MOD3_ROC8
col00:   4859AA44444645946367B7128869479464B57A7717456A55CB8759869C8C84C98886A8A876668879
col01:   74AB6568978839B669854655867A499947558A529C59976A589A65AD983A978B98798677CA9989A6
col02:   6375758A3866785366A6B79495974786795AA5A944887754B9958798A8DBBA954868AA7CA57E7B93
col03:   C98797797366AA5886654478B859998979B6AA9899788A6873A8598B99ACB87BAAA9CDAAD3598788
col04:   8742748C48AA76895568865886B578767A687A58869588D6759B79A9B7789AB7A888988855667A69
col05:   A8B893AB657377754886879C7A68A9A9A889889C98B99A6599A9686ABBA3989AA9788585887786B5
col06:   6A8785564396856685A67665885995B98687899488A876388A78AA6A9BA7A76945A8789A577A6C88
col07:   7B95788C898575579A9BA779B67A8C9A89CC6AA678B7A996B9CEB78899BCBC9A6775C489BAA69CA8
col08:   B543799596A573B47A869A895A898AA59AAB6B798756B778A47A969996A99A89B78777889A875B87
col09:   97A85A94AE674476A97BB9779784A988AC976889AB993A878DA7CCA9BBB9598C69AAABAA8AA5B99A
col10:   69B86558678C45BB7A698A8586C885C7559BC7BA745B9D99896A597B7DBA89CA6987BB7BAB898CCC
col11:   8677A696539757A776DB6998789889696AB848779C98469CDABBA8D98997B9D683AB87B987CA9AA7
col12:   863465788988887668DA988C877889767768998A7389B9AA96EBA99A9886B99B99A876A83879A8C9
col13:   8AEA67A8A77A895A6887C978CAA88988A5786AAAB379BBABA8B79AD87679A9BAC5CA6DADCB89BABA
col14:   2AAA6A59A878987A85A99998A696A8BA9898A9AA79BBB6BAB9AA786ADA88C8BC88A8797BBB88A7EA
col15:   866676A77896888796879BA8AAD88BBB597B998B5D89EDBA7AAADBAA72AAA79A99889B7AB996A5B6
col16:   A5493B89A6889A859897AB7485A865B98B977898E8AB87BA79AB8AA9CC86AAB4AABA6E859B858CBC
col17:   89A85D778789AA7AC95A778A9A94D87778898B85A77B898A98BBC7ABA998CA758D7AB97B77BA8B99
col18:   557844AC9676858677B5A8A6883B99A6B98599CCA4BA89A887BBC8AB766BAA9798777D9A59C8597C
col19:   966B547689997A599B88AA8BCBA99789A9DAA9DABC96B86AC7C9AABDA95CBA678C8BA9ACB8AAB9A7
col20:   7AA66787879889B9BAC8B956A8ACAA7678B958AC6BA96ABAA9CB8A889B462BBB7698988AD8C9CACB
col21:   66965A7487B686A6B99B89C88B5B67EC7897B78BBB8B18989B9CC6B7799AC8787A9B8ABA9A9A699C
col22:   75879756A684899A889C799A8C89899AA7AB696ABAA9BAABABEAA98FB9CA9CA9C979BAE9AA999CA9
col23:   864BA59B899799A667AAA79A9BBA8BBB7BA98B798BDB97BB7966B89AF8A8894ABA77CB8A878ABA76
col24:   884746A696A7663A96AA3998B9C987A8AAA993DB89987887CACAAB9ADA88B88A99B898A67BDAA99B
col25:   9789B6A55D988A8879C979B7C6B96F8BCA9A7CBBA9BCDBBC86B89A9BAB98BC99788A9B69C9B9E8C8
col26:   C7998BD7B8C8988ABA9A8A9BFBB9AAB79A9ABBAA8CBCBA77AABAA8CB9BACCCCCDBA9B7FBA8A8CE85
col27:   3588AD899839A7A8BDE8B76BB6A67868BAB5E7DC8BBDACEDC7C9CB97BB8BBB8DBB8DAEB9ADABCD9C
col28:   A835BA97A774AD6B7AAA8B97B6B79BB9BA8A9A68ABC7B7ABBCCFEFFBBCACB8A8D87DCB7CCD98BE99
col29:   838698AF9BB79689C9CAC9D97CDDCBCAC98BA9BB999DCBD9FAB79CABAE9999DD9B8AAAECCBE9D9C8
col30:   286A4A5BCAD8B9BAC9B88A8C9D8B8A9BCA7DE7BCC9ADFCEDC88B8C7EAC9CB99BD8CFDB9B89ACBC8D
col31:   9B8BDBBBDEAEC9B8BBD78DBBBCCCCBDB9DBAADA9ED8FCF88BDCBABC9DCEADDDDCBB9DBDB6ADBAAC9
col32:   C59C8A7AA7A8DBB89ACB9BBBAADAA8BA978BBCBCA8BC7BCBBDCBCFAA9EDFCBC9BCDCEBBAC8CDB8B6
col33:   A998967BC9ABBA9B7CABB9DBAB9DB9CAAB98BFBCCCA9D8BB9DDEEB9DCDD9AAFCCADA8CDBACABEAAB
col34:   7A9AA799BCABCBBBABAB9AABBA8C9C966BDD9DBBEBCACBCAF9ABAADCBBBDC9CA9DDDCAB9FBADBBCB
col35:   5BA888B6CCB6C9DBACDCB6C9ABC87E7B9AB9CACDEAFFDEDEADBBADDBDA8DBEBAD99BDDEEDEBDADCA
col36:   5397BAAAA9BB8779BACBB9CB678AFCAFABD9BACBD7DAAEAEBACCA8C98EEEAE9BECCBAA8EAEC9ECAD
col37:   78BAACA9EBBBADCB86C6CA9BBCC8CEFAFC9BFCDCCDEC8DBEBDBBACBFBBD9EAAFBFCCEEA9CA9DDBDC
col38:   A959B9CCA9B9CBA9BDAABBBECDADD9BCCBCBDDACDCFDACD6CBDBDDFFCACDDBDBBCBCDACFFEEDFCFB
col39:   65AB798CB88AAABCA9CD9BDFBA6CDA7CCB8DD8BED79CCDBDCCC9CEDBCDECADBFDAEBEABFCD8ECADE
col40:   C6889CDAB699BCAABCB9B987AFDDBFBDBDCCCFAEFEBCDCD8EBCCCA9DCFCACDDAABEECBCFBEEFCABC
col41:   88A969CDBBB899CA8ABCBEABEC9DDFA9CCFCEBEAECFCD9BCCEBBBBDDCDEBEFBBC9FDFBBB9EBBFCCB
col42:   A9A9A8BAABA896CBBBECACCDA8DBFC8BABBEAFEEBBECCBCCBFCACDCEC7DCCEFBD9FCAACDDCBBBEE9
col43:   99CCC58B79B9CEC9ACEB9E9DFBE8CCC9DBDBBDDDACCDC9ABCFAFBEDF9EFDBBDADFBDECDEDDAABAD9
col44:   ACBAD9BB98E9ACEAFBCADEECBADBECAEDADCABDBBBBFCCC79DFECEEDFCEDFDCEFCBEBFACCC89ECAC
col45:   8B6EB8ADABC8B8B87EACBCCEC9CBCFE8FECB8ACBADDFC9DCEDEDDDBFDED77FACDC9ADDCCCCBCEEBA
col46:   B9A9A9A6BABA9DDCBBAC8F8EBAAED8BCDC989FEDCC8BA9D8DD9CCCA9AADCDADBBDFBB9BBCCEBFC9A
col47:   E8879BABDCBAACBDA8D8DCFDBACCCCFABEECABFEBCCDDCBABCBEFFEBCCDBCACCFBCBDF8DCAFACCBA
col48:   B87CD9BDBAD7CFDAD9D8DBD9B9ADACACDABDCCEAA9CDEBFBEC9C9DBEFCCEEBFC9B9DBACECEABBCAA
col49:   CA999DBCD8BCBD8CA8AFECB9DBBAAACFBDBFCAB9AECBBBEDCDDADABDECCFCEE9DDAFEBBEFBC8CEED
col50:   8AAA7ACA9C9DBACA8BFDCDACB9BA9DCECAABFFA9ACBFADCC9EBECBFACBDCDFFACDADBFCBBECCECBA
col51:   796C7AB889B857967B99B98A88FDCA9BBBAAC59C8DECB8BBB8CBADCBFAAADB9998AACDABBECC8AD6
ROC:     BPix_BmI_SEC2_LYR3_LDR5F_MOD3_ROC9
col00:   7499516677639477189A1964978455C7A479A89893775232157D8587E2A9954777767A63A6458198
col01:   9748A2786367E81B9B7A6992E975CBDB477694DFA8AB6A897B73E98B86F58B43BB56C9483678CB96
col02:   8A686B67777954A7B2688C7BBD597D6689B87A474A563A97687B4995C677C97B992795788986F557
col03:   487577B96B3844A856DABA98C7768B8A98B8BBCD677B686E298A69A56B7765AA5635A998C8663486
col04:   574A5A6A657458376886B8B768489839CC7495D8C687A569799697656A677A97775BA488984465AB
col05:   837A5D9947B6877446ECB7676B98A3879AA8D47996EE9AC65849A5984A99791F96B78AB53799B9E7
col06:   2587466B64976896A8694B88949758BB56A7BB9D9986D876B95988B9B5AB575A96DA6C7698F87883
col07:   86DBA68A66873599ABDB795FA8AB765C768B767E9BB5B6B9BF7DAD7B4ACC854877BB6698A6898698
col08:   6241BA753A441568D638CA9BC895B924BB7768A7C67B878D6797D86B86CA58787997969C35578B94
col09:   973664496D6747A99DC493767AA7C9BD77AB97B75D9A56ADB9A957AA8BADB5B9987946BD977E68C8
col10:   9782986A7557593584783AB8A788468847889889686899EAAB9563764838F798C55D68A339874B95
col11:   9896758837A98A78788C86575CF869769659A747ACB557A89968F89B67A84D59A949A76758599AB4
col12:   A51BE8974957C9BAB896E2A49BB42DEAB5A968AC865B98DA677799E45BC888AA8D9757867AAA6AC5
col13:   5576B9898A59AC76B66E9BA66B799DAEA89A9BCC5B7EAC67D885D9B76D88C893AA5658994444BADB
col14:   E4A5A8B88778888887895B55A69787BFC96B8AC77EC858AEFCB954A8D98858A466A5695C28AB7999
col15:   6917A9763C5A87455686899C6776BDDC7B579ABD6A69BABBD5BAAB97888AA67E78B6498376B988A6
col16:   6237791377C7689CB8878F8D986AA88B797997F69958D68CD736D76B52789578585AA69729598972
col17:   378C54A7886466796ABA4C84B7A6AAF73D89F9A9CB89BB76C5B94CA878ADC76478B99B656B2956B6
col18:   96835C4CB69758B9939599768D9878D98947DAAAA787A79BA9AC7988769C95B8B1BB565279998463
col19:   9ECEBFB775489AC77CA89B6C9A3BA9C7A9EBA7B988A9587ABB966ACDB6A59E986A49B9E3B5998587
col20:   65976664D26DCAAC8999AB698B3AB92C8AB7A56BCA859AC99BACB797A7E49995B5B874982D5247B9
col21:   4449A575826C7997888ACB6B78B4A9778E9996CBB7BAD786DB7BA98AC45876B49A9875858837747E
col22:   64E93A98C76868A9C589DDA65A48A764C9884AA8978DBB8B698AA38BBDA7D985686B8A75C566BB69
col23:   57C8B39875D9C8645946BF99896D4D4B9C77656B38A9BA985C4A8BC74AA885C967899A87A2BB5662
col24:   A886A672B685B8891A87887847A857945DBCD98B7698A87969596B4597A75969A799A78776479B82
col25:   9A659587C78A5688847BD988CD86AA98AB9AA8C8A5BA97D9C8BAEDCD97C6B8A1789866A86377DA64
col26:   83A77BAA75588ABC72EC97A695ADAC98DAB7B9BF5F66DAFCB5DADABA88A69FDA7BA579CA45987BA9
col27:   9687A988A8593CDC7B87D9B9AB3A7C7A9985B79C48D9688C9EACFBCE887ACF786BDB9B9A97AB97A6
col28:   89E5A9D87A9886B4BBCEC5898B8978B88ACC95CB8ABAE97DCC95AAB9C87C74BA99CDBEB8BAACA6AB
col29:   96B989B8A5EBEB857AA9CAEAD794ACCCABCBBCBAC9DDEAAAAFD7BBEC6FA99AE8997878AA998BABDB
col30:   7679984558C3A8F9768EAAAADDE7BD77EDCAA87BB7CA9CBA6DC56BA87EA588D79CEA9BCBC9E99DA6
col31:   C63956986DA78AAB59D9D9C8B9DD9AEBD8D8BA9DFCCCCDDB9DCBE9BD9DBBADA8C98B74C87D8DA69B
col32:   74A5AB8A995CDEDDCCCE8BFBACC9BACA89AC5E9AB8FAACE8BFC7E99DDBD96BBE7CA9AAB9D99DA3FC
col33:   F945589D497A67A9A87BBC9AB499BDEABDE6EA98CBAA4BDB899FBAB9B8A8A9BE94EBABA88ADCCE86
col34:   96B64BFCADC9995868A88CAEC65BBFAADBA9C9FCA8C8BECF9FAB6BA95C6CFA7C8EA6A6CFFDCBB7C6
col35:   758AE98B676A6F5DBAA8A8A7A8BCDD87BBBBCBC7BC89BDCBCABEEEBBCCB998D76A5DDCBAFCEDE3A1
col36:   B568C4678CE7B96C95EBC9B6CDCAFDACBBBBF7A9B7E3BF6FB97BAF786BC86E7C99AB8BAEFA928B88
col37:   CC6CBAE8B8A858BCB7D8BCFAC95AA97D9EE7CD8D8AFD6A8BA88AADFCCBCFE5BFAB89CBBA4A99C8D7
col38:   86BB96CBCBAA8BB8ABA8AEC6AABF8AA5C5E6FEF86DA5DDC7BDACFA9F7A8EADADBCCBCBC9EA8BECA8
col39:   B1288974C6F6789B7FD99BC99BDFE9FDBACCC99ADCCC9CD987E8B9DAC16BFAC6C8B89E9EBB8F9C44
col40:   AA57A9BDC8A7A799B977EAA98AB8DC7CB9ECAAA6DBFECABFAC9ECDCCBEFEBDE8BBBEBC98AAAC8CDC
col41:   74BAACAAD7C7AEAADD7DCCC6BAFAE9FAFBAAAB8C9ADBB979CDCCBEEECCE9FDDABD9B6B9CA8C88BC8
col42:   876DBB678FAB8EF9C99CABC8ADDCCC8FC7B7BDFAAA6CF978C8CEAAB8BAAABADC7FF9C7DBBD4DFB9B
col43:   769C869DCDDAAFBFF8DBBBD7BCFDCDCCDFCBBBD9EFBDFABFBFFFCCF85BACDACCE9AAA5FCBCBC7AC8
col44:   ADA99ACB8FDB7A89E9CAA84DF9F99A98AB9EBBE8DCCEF9BBA9BACB97DDEFDACBDDAD59BFAABBCAA9
col45:   B5A6E7A9A8B9AC9DF7E76FDECBAF8BDF88B865CAB99EC7FFBFDBAFFCB9D9EFBD8C6A98C87DACC8C8
col46:   78DA98EBBFA9FDAAD8B8B7BCDB8DA9AEBBBCCBCB9AAAEA79BC98AC97CD6DCACBC7EAEB8DC7CCDEC3
col47:   C99FCC9EDBEDB99CBDB9CECDAAF8BDAECCBBCADCF8DAA5CBBBCDDEDA8A8F7DA8CF9ABCBABDCCBA69
col48:   997889D9DDB8DCB6F999CE5CB78FAA955ACFBBE9E98ADAEEF6FEE9CCA8CEEA4A8E96A6987D9BBAE8
col49:   2C97EBFC8B98FECBBBBE8CA9EBFAAFFACD79ABA7BBDDDCBD7BEF9BAEC99896FAAD688E9BE7C99EB8
col50:   9CBC8CA899A785BB97AABA69EDCBE9CA8B7AAAFBCD8CAC8DCDDCBAA9DE7E8C7DD6CA896ACBAABAA7
col51:   37936289949C8D888A989759BC88A96D6BBDBC89AFA98569A8C9C7A8ADAB8675AADB8BD88B768395
ROC:     BPix_BmI_SEC2_LYR3_LDR5F_MOD3_ROC10
col00:   AC27549758E7AA7CACA88748BBABC8887A77D686789B9A7B788A554A9AABB7576458C764895946A6
col01:   5A78ACBBDDAFDF8BC9ABD588B9B99AC86D7BC998D585D7C697D9B3999B78AB6B788CAC48786526A6
col02:   96B98A8B8C88AD7F59A99A7D8D88C9A8BAACCC67A7C8A79BBA7998ACAA9BAB27B965A839B58586A8
col03:   E799BCC9AB9BBDB7E9CAB89B8AA6996A7A86D756C77CA979BB8867A772B7A9AC587C64A96776A7A7
col04:   9758969AA99A7DC9F7C8457B99BB976B6A8948A88ACB98BB876A888D6A869464A55798C368B89A63
col05:   8BAA88AC99AFEAABA99CC87B56DA8BCAADACB99A96C848CACBE659BBBCBB9BA7989A8857C5863693
col06:   7688869BB9C5BAEAD8A98AB8C99CB8A9895998987A9A789D88959768AAAAA498BA4799A855658C54
col07:   9EBAD77AABBDC8CFC9CBBACBCBAAAA9CBCACCABCA6797799657877A9AC776797C7A6567A7B977695
col08:   71A9D7CBCD99BACDAD89E998C999CAC76C98EEBC96AA999797888A97B9974B898999D6A7A875865C
col09:   66899E7C9D8CCADCAAA9CB9E97C9ACAA66DBBA9868CB899677BAAD88BC75645A7ACA853A75699636
col10:   996A9AAF9DA9B8CBDC88DA9A679BD99DA96C95969899D7C669C8A878776795669C94A79897688796
col11:   755789AAA8ABCCDBA963699A7C893B97CDCAC95A87ACA878BC997A4DAA9797687976B997BA565185
col12:   C699B5CC9A9DC9B7657899C5CC9D93BAA96CAC97ABE98A8B8A89A96A5689C88587B463679497AC38
col13:   88997BEB9CAB6DDD99C9C8A9E9CAC7F8AA7CBBB8ACACDBAC9AB7DC7CAACBBEC7AAB98BC875512757
col14:   7979A99775BB69C6CA88A4958877AC99A8789A8DAACB8B78A45D69C7599B486999466398875BA8A7
col15:   DA8B7B98BB6997A9599DA986B98EEDC8ACBAA9AB897BCA9BD885D9AAC778B6A9C57C98A657779532
col16:   978AA75A9D885CC7897A98D988BC7ABC8876A876ABC649D78989A6857757685C98A87B73886AB75A
col17:   BA5DADB7B8995CCBCACA78DBBDAAC98E9C5AAA7E759DB588B8A449A84C5A86566576877857536777
col18:   B9B9C8AAA7999959AA4B965B7A6A979B7D6BDDAA9EAC58A98B8AA789588787994645A8A886585794
col19:   A9B97BC8A9CA9B99B8879893CA86D9CBBA9A9C5CAABBCC89BAB99A4A59AB5E46B6878A5B7A77A777
col20:   AA4AAEA9FA9C9978AACB9CB9E999A59A6888CF75817A88C9597A8B89889B99C77B88718956758399
col21:   6699B5BBBCB9B7AA76B98BBBAA8CBC8AEBEB98AB858AB7977996C7BA7789589B885A465B47556392
col22:   999869ADAD9A779679A68A8B9678D8A8CCB89D97BD6D9978B8788875599E94736793AC982D746546
col23:   8AA94B7789B5A65C68598A8B97B67CDB8776C78C849B968CAB39878BAA896CAA656A6A4B6868778A
col24:   B7BC79AA9CF896767A9A7ACC6ADC99CC7A9CB5D59896B79988AD8C7AB8D8B8A767C366778968B635
col25:   A96CACADD5978A9CF9B9AAC8A8FABDA5899ABB97CAA9D6AB5B8CC8B7A9888CBA95977776AA726744
col26:   CB7CDB59B7969AACABBCCAABBBAABDBD9EB8FBBA99CDB8F6AE6D8B9BEB8A799BCBB7B8A866B7E464
col27:   AA9AA8C6F69AFCAD78BCB8A77A99ABB7A7B4BA9AC99EDA9E5BA89BAB7A88B788897869BCA77A9897
col28:   8BAC98F5CB79DC88B89BB9EBEDCBBEDACCAEAEACBF78BD97ACD9C97A8A8C9A6AB9A898959AA59C66
col29:   5ACEBCC98489A8E98B97F8A9CCABEC8B87CAB9AACFBFB9BBCCC9CB976ADEA78DF769988B68666766
col30:   B9D7ECFE79C7F8B9B98AECDDDAB9EE8CCF9BBAEE8ABB69C67B7ADDA8DDCABA8AE779D59BDBA69377
col31:   3ECE8ABEBCBB9BDE7AB9B8A89AAAAEADAD9BFAC8AB99CADEAB9AC89BC9B9B68CA9DB9A9AACAAB9B8
col32:   2CC9B66FEACBD8ACDAA89B9D6FC8CBEAAAA8CBFDEA88CCBBBBB9ACC898B9B87798A67AB5BBADB976
col33:   9CAC9BBCDBCF9BE7ACDBECD9CBADBA9EC9DE9ACBCD9DC8BBA798BC9A97CE94F4B6DA86A8A9B8757A
col34:   7BA99B9FDBCD8EC65799ACDCCFBEDCCBBCA8DFCACC9FB9AFED98AAE7C9AEB8BADBA9A5469C88CDC8
col35:   BBBAADDCACBBE9B98C99ADB8AEFBC9BBCCFEBDFA9ADBACABABA94CBACA7ABA9B7C8696758DA8DAA7
col36:   A9CBBC9CDAEDDCB7D9FECEB797AC89989FEAECA9D9EB65CACACCAB96BC9BC7A5E938BA686867B977
col37:   AFDA7DFDECB7BCCC9C9CEFDCA78CECF7AA9CCADD9F8CCE87BB6DB7C87698EDB9E7D9B69E89596775
col38:   ACADDCCCDBFBBB8A9CCDCBCCEF8D8BCAC9ADE9CC8BCE7DCCDB8AAA979C9DB7CBC7ACBB89997B8A98
col39:   BCA48DDCDACDB9FD997B8CAD98BBAACA89BB9BAB8AD889D9EA9CAAA8D79BAC59BAE7BC74D76A7A76
col40:   9CAAFEFFBCCACBCBCDFBBCBEA8CFCB9F7CDCAAAECDCCEBCAE8CDDF5BD9ACF987DC67AB888AB9C582
col41:   8DC9CAEEFDDBDBDED9859FAAB9EDBEABFBEDC99CB999DDADDB94CBC7B6B8CCEB8A56B898B9A6AB55
col42:   CCC7BCBDF8D9C9C7FBC7FAAC8CCBDACEAB59CB7BFCD8BE98D9BC9BAA8AB78B9675C89559798AA8A5
col43:   F9FBCDBDFACCD7DAD9ACFADC8AD8CA6CEFEFAF9DFCC9EABAEAD99CBAF8B6898CBCB59986D7CA7592
col44:   8F6FBCECEBEBDD7AB7ADCECC8BA6CFCCACCABBDCBBDB9FDBAB9AA9AD8BDD98799FAAC897747CB868
col45:   FA8BDECDADC8DB7D8BBCFECF9F7CAA9BFCBDACFAC98BCDCBCDB7ADB79C7AC75A59CBBC8DBC74C968
col46:   DCBDEADBAAC799B7BDEAACCCD7D8D7CDCFDDDBDCABB6CC9C8CBBB98AC497BAA9B9AAAA976B9947D7
col47:   9C8ADCFA8FCBABD9BECBDFDCCCECBABE9DE767BBBFBBD9DB986D898A99DAAA69BB98D97ADDA7CA78
col48:   EDCCB9EFE3BC8DCCBBEAFBECCDF7BAFBCDCBA6B7AB9CAFDC9A8C8C9ABBAAAB5ABBB9DC989AABA9B8
col49:   BE9DDAFDCDDEFDFFCBEACAE8DECDDDD9F9ECAA9CF9FCBD8CBCBC9C99AB869C8AA666C7A8B68DF997
col50:   9DBCADBEDECF9EFBFFDB8CB98A8EBF7BECB9DADCC8CAADBF99DABA8AA8CBCCCAABA6DF57A999B8B9
col51:   5ABECD9A7EAD5C5ABA967ED9CCC977C9CA69B9D9A7B599A65798896CADBA85475698794599928851
ROC:     BPix_BmI_SEC2_LYR3_LDR5F_MOD3_ROC11
col00:   88B69D88C87A9A4797E78B77E79669889CBA78468697268C77974877689594688A23864997883151
col01:   E968CA96AACC8D585DCAA88A7DE9975A89AABCBA7796ACCC8989945587759884968A9A994D7738C4
col02:   8A879AB7BA99BA894859BC8BD7A96A8D36CCABD7787C65B9B86BA8776A5688BC786B878551A87774
col03:   A9899A8689DB7C6797A94457ABEC7A68D7B8EC96A799A58A8BCA895A85993A659B87B99A39F4AA38
col04:   899A8AB6CAA88BDA7986BACBB696B9A7C5A77B8C88879768BA7D78A887A96A8A68C749785577AB98
col05:   BBAA354878C5D689C9B9B967697AB89959ABCAB8A7899689E8679AC878999B9696C889AA7CA768A5
col06:   A88A67AA8CCA88AA8C8C9DA8B959C9AC769DCB9D599997792B875848ABA797A9AA9C967AB968678A
col07:   8BA77A84AA5C97A5898B969C984598BCC89BA8998B98B8AAB7BC5EB773BC578A679A89989899B9C9
col08:   CB7B56D9398AB978A496BBBB8A87BB5B67A999AB3A6CCE89997C956CB75A59BBA5BA96A8B4558EC5
col09:   C67A5986B9C9CD89D8A9CD97AD9A7A799CC579B78BCB76A89A89548CAAA8A66BA958E88EB696A8B7
col10:   DAC39CA89A5A8DAA7979A4DCBB8D6A997B9CA9B989ABB478B877579D787A9AC7679AA64A87789878
col11:   A79AC8A6989B8889BA7B67AA96C8ABA6DBAA82A978898757986AA9A877E776647989958468859789
col12:   97CD8C7A85CBCA99A6B9BACCA7CB99D89A6A9BC9EC6787D7D89BCA798A9BA8859BA7B8568B978974
col13:   A7B88E98C9B7E7CFA599887BC4B8BA8A9A7B6EB8EB9A8899B6A9A6967E57CC96FA88BD8D88BAA6B8
col14:   88C88AA899A779987949DDB88EAB7AD8D9D8CD59B79A77A76BBCB667B5AC967A83A7B7AFA7A9987B
col15:   76ACC89999D6ACB76888A799B8C8BB9E5DB9B8CCA6BB8FA6B6B87BD9BCCB9B88F69659888B755697
col16:   6A897779BBD78C79D3B8E9A98CD8C8B87997CCA6C9698768779776BAA7A9A7A77378B698A9699968
col17:   7876A7C57796A96A9779BE6799DBA7BA5BA8788986D9C7966959ADB86BC768394798986A8D74C6B5
col18:   A9789A8BC88978AAC9B6B7E44C677B7BCBAAACAB89C757CA99754678D79993C69AC57A9A4784B774
col19:   59A88DA4C9CAA64C79AC8AAAB8998968C588777B9987A68A9AAA9B7968A8D78ACA64AACC98698788
col20:   8A8B5AA8D7CC9896AAA5AD8A6AD59A96C7B9D595CC8A76777A58F9B5A679785984C44874D977A556
col21:   7A9976AB775674CB7987A7857A7A995ABA9A6BB8884BBA6D9DAA98778885BA5DB746878AC88A6696
col22:   B45996D8AB888BC6A778B9A7BA989C5B9999AA5887AA8C9A9EABA59BC9866A4C7B99C794AB989878
col23:   C7678375B8788AD58BC596A678A6AAAB8EC9C5947A5BCAACDA57A98A368C69698A84875988965889
col24:   7648BADAB6CC589AD9CAB779B978B5BD8DCC86C8C68B967A5856A7976AAC88B778CAD5A889A58A58
col25:   B784B9A88878668C57989ACD79EBBCBAC987B9B675CDDBA797A8E9B9BABABAB97859E8896DB9AA69
col26:   AAB8DC9C8897AC8AAC68CFAA787A79DA89CDFC5A6CB67C79BABEADC9AD9AA79D996766AA98C89DAA
col27:   A6B9B6897A6A86AEA9C8BDAB9BCB98CEBBCFBCA986AEB79DEABE8D7CC8A8AD5AEAFD9BDC98DAADAA
col28:   B9CDC8BA7BA6AABA98DC7BBFC8DDC4BB79BACB997DCDDC867DBBD4E9CB7AB9BC9C9A47AABBB98DCA
col29:   99DB68996CBCB789CA9BBB9BED9C7BDB97ABCABE89E5BB99C9E9AB98ADD8ECAAC59CDAA7956D9AA7
col30:   B8D8A87DF799AACB9AECADBC964CC8CB78ACBCE9BBFBDCCB798A9894A7CDCBD89A876CB9A7BB5DA9
col31:   ACC7A9A6ECCBCCBBB9B9A9B8BCDF99BACFAAFDEEAAC8CBAAB9BDACADAC8CCDA8ADBE7B8BAAA99996
col32:   9D4BBB8399A78B9ABACBABADAECBFEDCE799FA8A779CA8BBBDBABE8CC979DDDACB8AD8B7CB5DA7E9
col33:   B9D8CC9C8FC8AA68DDDCAEBD9EACBDEAD7DEAC8AC7AA8DDADC9BC8AEAA9BFDA9B9CD99DF6A95CDA7
col34:   BB9CFBB7BAAABAC8DBCCA8BBFDBADBDBCDBCF4AE9B97CC6ACEEA6ADA979D9ACB799B7DD9D89ACABB
col35:   B9ABA9AFBCEAB8BA7ACEEDBCFCCC7EA69ECBA9AA8FADCFDAEAC88B8FEBCCAADBA575C75C9B7A4CA9
col36:   9C7C76D77B96B7DDDBAA9D7B8ACEC8B9CCADD7BA8B8CBAA989DA9CCBAAE9DAB6CBBBC8BAC9C88AD6
col37:   A6BCABD8DAABABAACD99B999CABA9BDDC9DBC89CDCABEAAADAE6B98DDCC8DF79E9ECB9AAE99B78DA
col38:   9CCDBCBA7B99BF8B7DB7CBEDDBCEBE9D8BEFCFC8BCCBF9DBEDCBDDBDDBFBABBD8DB97DEDAE88E9A8
col39:   8AA79DBAAABBBBA9ACAB7CAAADEEBA8DCECCFDBACEDDBDACB78CB7E9A887CBCBCA8AC8EC9D8C4D8C
col40:   A9CDD6CAA89CCBBAEBBBADCC9B9BEAA7AAFADB97DD7B8D8BCC98ABBBC2EADEDADDD8CB8C977CEA64
col41:   8DC9CCCBDEDD9F9BABBDAC9C8CEBDD8ACAADAAB9ADFBFDEBCDC997B9DECA8CAA9ECB9F9CD7EBCBB7
col42:   ACCC9CD9A7A8ABAC8D9BDDAA79BAC9BFD9FCFBADDCACEEEAACFEAB7C99EBACEC8B8AC79EBB98A67B
col43:   BBCACCEDECACBEACC9B9BE47CFFBABEADCBC9CDFEFFFEDABCBDBFAACCADBCFBBFE9A9ACDDEBEACD7
col44:   9ADBC7DACB79DCDB8CCADFFCDCA8CACAADECDCEDCCEA9C8ADBDFFACBD9DCBE8DB7C8DAC6BBFBDC6B
col45:   CDDDA8BCBDBAADDBEBCACCBBD9CDDDADEE9ACF7DDEAEBDE8BEDDDDDBBEEACDA9B9B7C477AD6AF9BA
col46:   9ABD87CA999EB8F9D8F9BCD8A9B8ADEDBAAA8BBBDFF8CA9CCCDBDFFDCCABF7EAAF9BDAC69DCBFDDC
col47:   C8D778CBB5BBEBAC79DEBCCEBAAFDCDADAAA9CD8C7DBBDEAABC8B8D98CD9EBE8CCDB9DCCECEE9CE9
col48:   9DCBEFABE7967CBCACCDD8DCCECABDBEACDECDEAFBCAEDEBDD99A9B9CE9E9A9BC8CBDABCBBB87CBA
col49:   C8B6DEF99CCAEC99BD7AD8CD8DE8BEEFDBAA8DE5AB7DAE9D9E8EAECFCEBFAAF9CCAAAA8DD9A8A98C
col50:   EC9DA8D7CD8BFBBBB79CBDDEEBBABDAFDBDAEADDB9FF9A9D7CFCCCCFDD9AB7AAAADAC9E8DAAE9CC9
col51:   6D7D8A8C3966BBB99AB8A8DE889F88BC4AB88CB9778BCCA7AECBBAAA758BA8869D678B996657F9AB
ROC:     BPix_BmI_SEC2_LYR3_LDR5F_MOD3_ROC12
col00:   63524518968A374A37317799948654487454745996247596767455867B945C456671544617865455
col01:   923646B477676684A848ACA634635B8A6D7976C8989766AB9A86A878C851886A9A7C759788658C85
col02:   995A97755876BB75788588674477B7D7688C47AA9DAC3B773B4A99747D67A867B9747B527A5A9978
col03:   6A5964697A71C964A7A8A67794654894786A997884587B48669A7977A95879D5BAC95A946799A586
col04:   9775CA7C7898B28B948899BE96C7A3984A35B7758AA9659566F487BF6A5D355554858586768A77B6
col05:   3A76865653A965683774B7EB969476686929777B5899A5759FAB879AA99977A9A96569AC87777553
col06:   A4857458764A6B8769A5A796458BBC6B76A4C6ABD465B9667AA97878A8AC79CB9477465B998485BC
col07:   5489592B65786AB799A967A987B8C6767D7BA985A686756AD8CB8759A9D9B937A9AEB6787A889698
col08:   984974B6553797536617768996996AA959D87596A99C867AAAB7B87C4865788AEA799AA689899C59
col09:   85C63872655B6BA59B97C5A98978B8AA677A799B68988A978AAC7884A78D777768DAB9A574754BB7
col10:   143A36466644C3A766C68588876856A8B8A598B8687B64895867767AA7667A9A3649FBACA496B3A6
col11:   C75789978969755B9969959855BA556A9B7C5CBA8B9969897787A99AB995CA95984ACBC9B84959C5
col12:   DA478A869971A8676A75B93ABDC72C9BB9897498C49A868D799BC965776829669676D5277957E995
col13:   6869795B58EAB7A778979C6687AB7CD4C7B9ABB6A79ECD99A5B8F9C77B97B6DACBCA7A5979956C73
col14:   857B9B5BE87876D57D587B5787A797979A8769B8B7878BB789DBD7DBBE99B5BC74B49C6699E49A9A
col15:   68B877986C554A9965536E488C968C869658A6AB76458ADACAD7B987A86CB8C275A4589B87B5C79A
col16:   285B66896C66476A9BD9CBC9AA78979BC737C8B3A899398899A44849D99968DA3DA48C766B9A6C67
col17:   8934799A84949B8985C863994868E9B49A8948C97A88C9AC85D797A97A5CC5C74A99867748A5899B
col18:   6A5A88989569B9BA77A8B68A788B697B93B889A5848A39A8985A9A678898C767B866A96AA93A4977
col19:   66B9A6A767918788895CA587EA6B79B87979A8B4AD7D78666B7AAA88B9A9D6897DB68989968D99A5
col20:   759B76D7B776DA87899969B664C9B998B979A77B68855C8ABC6A54BAAABB8ABAB6C67D7549A98698
col21:   C37892777A7B4958787EA995AA889667E55DC8A6B9778A84DBC8C85587BB939699396C7958855377
col22:   774DA888CA676656A99ADA8C59B6B876B87CC538788C979BA8B9B8589D588899A78875F88C89AB62
col23:   5685795CBAA689BAAC59A6AA9387975647A8ADCB939E9B76F5866B79CC786AB7779A78A995BB7774
col24:   588984A877475CA49ABA769B949AE8BEBDA7A9A995AB6A6899AD99CAC96C9AA89D76888777D67BAB
col25:   8685A6AB56B899AA8A69B6ABDAC7C7A8EACBFB77EBC9EE87B8B9A9A889A99BA6586CA8C7E8A99AB9
col26:   A779876DBB9ABA6A9B97E97AA7E8CA9A9C9BB8AB89AC9A6A9989ECDDA8CBA79B998A8B9D88CD97AD
col27:   CB86845C879CA69ACAB67AA9C9BC86A9BCA799A9AB958AAD9AB5C997AD987A98A97ACA96AD65A799
col28:   77568BA98878B799A7D8CBA6B9A6CB8AB79969FCB689CB9BCCCF8B8AF9CD7CBA8DB79AAABC9A9A3D
col29:   ABBAEBAABBB7B99B5B7BF998CC9EDCCEEAF59ADAEE5B9EBCCEDCEBADBDF99BDD8BEB96CF9C5C6B9A
col30:   4BAACD898B9658A9EC9BD76D9D99CB89B7D8CBD9ACFA6BDABAB69FBACB8CBA7988A7CBB7EA98B7E4
col31:   A8A5A8EDDBED96A87B8ECF8DAABBCFDC87DAEABAC6BBADCDCC8AC8ACA8AC8BDB8DB69A89C8DC9BB6
col32:   BA5A8BBB78FC4DCA9DCD99EDDBEDFFABFCC9ECBA9AFABEDCAEDBDC96ADCD7BDFFCCC9AAAB88AB7AC
col33:   B99AB7C88878A69CEBADEDDFACBDBCB9A9BBAC29DCBA6AD89CDEC6AD9ECAD8C9AD85BCEBE85BD6B4
col34:   D9D99699989C9A479BFAB9CC9EEBBAABCDABDBBBB7AD9DCBBBAA96CDCFBBA997BAD9DCC8DDACEEAB
col35:   7778B87D978679ADADBBCACCE768CCF9B96ABABC9BDDBCBCCADBDBAABDBDDB8B9DDFCAFCA79CDB4A
col36:   8AC5CA9AB6A96DA698BB78895AAAE889FC7CB9CCF79A7ECFB89979ABDBBEE8ADDBA8ACAE7DB9AD9E
col37:   9B9498DA87CCAAFEFBEBBBDBC98ABEE7BF99C8DDAAD9E9FCC99CDBAADEAA7CDF9CD789F9BB8FB9AA
col38:   56B79B6B6FBBACBACCBBE9A78CDC8CB9BFEAFECDCBE9CACCB98BECCCD9FD9CCB9DAFCEFDFC8BBAFE
col39:   CBA6869DEBCA5AEDA9DADED9DACEAECA9BECCABDCE7BCFDAC79FBDB957A8BDCE9C87BAABB6ABB9CA
col40:   9CAB6AB9DCA8778EBAC99DFBA7D9CCECB7BBC9BCAA999CACBFE8CE8CCAFFB9CAC7EBC9BDEBE6CDBE
col41:   C499AC6BBBA8A8EDBBA8CD699F7CCAB9EDDCBACEBFCF9AADDC8DDCBAFEE8AFCAB9FBCDFCDCCDF888
col42:   99C9AA969A9EAE87B9C6BAACBFBB78CC9B99B9FAA79CDFED9FFEAFAABADBBECBCDADE7C9D9E7A6CD
col43:   E88A6E99AEBEBFBCBADADF9CDEFB7B7DDAEDD9CCFBBCBFBADE8DFCF5EDEBAA9EB6ABF9ADCADEFBDF
col44:   A86BED688ABCECDA7A9DAAAD9ACCDDC88DEADEBAB99E7DB9EDFA98B8BFFEEEAFEBCBBBD9CABE9AC9
col45:   779D7AEAC9FBADD698DBC8EBB7BAD7AFE9FBF79799ADCAFBDBECD6EDD9DACBCBBCCB999BADE8CAAB
col46:   BBAABCBA9CBE88C9CBB7A8788CBBDBC8CCCF9A99AB9C9CDACCABADABDC7CC9A7BEC8C9C8FDAEF98A
col47:   88688D99BD987FCB8AEACBB9DBEAFDE9BB99DBDD9FDAAA8BDB7EBA9BBACC8E99FDDCAB7B5CACECB9
col48:   5B98BEDA58ED8AABB9D98FEC9FCBFF98DA9ACE9AFEA9BEACBD9CCACC9A9E9EBD8BBCBCBDE9B9DEDE
col49:   7A5A7CABCBECF9B9CE9CDB7A95BEACEC98CEFCCFD9C8AB7EABBEFEA7FDB88CEDCDEBB9DFBDAEA9CD
col50:   FFB5BBDFBCACBA77BAAEDCEB8C9DACDAC99EDF9B9BC9DEDEE9FBFA9B8FE4AABBDAFCCCEDFFDC98CA
col51:   AB97BC88A8E9876AD9BC8999998AAF88CDAE8B6C78A8C89D8D8ACA6ACBCBDBA7ADAB7AA9B79C4A96
ROC:     BPix_BmI_SEC2_LYR3_LDR5F_MOD3_ROC13
col00:   6253317418964342151535346763C13656647447542864767445756A244256137157593741629381
col01:   61723BA83871A967966778A35657469688A937533D77635649765D48999842974457766885A65652
col02:   563167C76562768365635785358A858C79674595754465726934675856846834747415593363A382
col03:   A5736739555193676469769A739559634624A6977669B876657995566AC863A988584D5843421596
col04:   7261695863472763464455734357391A7B674484666385848347455865A235876937579697574781
col05:   276681648747757A5243663665839778736A8658576655A6B98653D7454395247584472A89428997
col06:   636854A53958753946A7797898847B8576B397697A85774593766668584B5553B751499663477974
col07:   7454688577B74847568637A7B6687965B5C87BB98A69839B877AC854A68898A8597A87A9772A7A66
col08:   46541782714633286795646546428675853954758787724A198867857662A9A69588769136C49466
col09:   94452836879874C9997995A8BC875C9887AA96398AB587966AA2597B9AC6761988975A6355656365
col10:   59564556385653739CA6373665755697867744A6688666AAA765936A857456794A8A9BA729556693
col11:   655824A859676577CA796AC548495657D6869687797B68987CB378A9585763958698889683634744
col12:   9455393474964686C577449765873785BB52875878777AA1567AB7A627867977A79586845A846794
col13:   4688764759579B7877855669684779B46A484879A9C98768A5B5888BAA767B98575874B758587696
col14:   47495474697693956976967897487666949569A588B855789A8668D5669889287A69391895C89678
col15:   5854555A61B5559977869697A488857C769A958A4C8A5A6984A68A96A99AC799678A8A6857765447
col16:   5798855947A865543A73C46A98D694AB86672CA48A7A877AA827D98A85734A86479877579B896595
col17:   6759457A9287677A6A98A8A86A55A8C79A58695A88A63A78A98896A8855868A56C88977AA76865AB
col18:   54865A9883557464457595A5769796A9A68896A687A2A99694AAB7A778B778AA9678B8968B7589A5
col19:   4745543576C6575547B6B7A65B419AD87989A7A6A8AC8B56998797756BB88488B97B5A9779769767
col20:   7834B53597283878272846557285687586A78978748582668698398F886979AA98A779A9878786A8
col21:   55B7194A978348B34989B979A653BB8A9AA9788BC54889567929AA784D85C9377A8D96977A9D74A8
col22:   756543456385741A96375249477AA9768769B8A682A4C8A8788798A9699687AAA4A6AA79685589B9
col23:   6443579855768B2884A896379976B6878194A658898AA8857B678B6597AC9698A675B8799966C997
col24:   4644764527869587168B987A5589878767985A7767A7778979A68567835968BC497596A9A7D4A896
col25:   523738953858A8858A8798B8AA98A797B8A79988A87A68A7CBD9B5D8AC4A878A788A6B76BCBA977A
col26:   3C5839376665528886975898A9BA8A9A96A7779968989E9C8A79A8BA6BB8A99DA55976DE78ABC59A
col27:   2779A4578779A7758A9A9B76AA8788AB8A8ABAF8D9ABBC8AB6BB7C589A9B659A549D78878B8CCE98
col28:   2447698968A5A4B7AA678B898CA7BCA879C95988CCD898EBA96BBDAAAD989DA8ADBC9D657997A8AB
col29:   8A8B54A66949795AB98C698A8E9F77C8AABCD87CB9BADAC86CE9CAAB8B8B9BAE6E9CAA85BA99969A
col30:   935538766B61796A8589898B999BAB6FBBECB889549BBB8A8B8CBBB6BBEB79ADCC9C4C89B87CBA8C
col31:   87979A5997889898A6A767A9B88A7699889DA9A9CBB9FCDAC8BABDDDBB889FB9E68D8CA9AD9C7E79
col32:   A8A9984549C9788A6869B98AC9AAA8C6898CA999F9BA8BE89CFDDAD99ABCC9B7BDCADCBB97DA7EBC
col33:   58662A55A66B668A6B77763CBA788C9CA878BDBBABA76CA7CC99CBB9CB9A9A9ACBB8FB8AD89AC9BC
col34:   29799677798B9AF97CB5766CE8CDADB8BAD6CB7BDBBBA97CB9D968DAE67DB7CAAC8B95BDBC9BBBA9
col35:   8A86766889B6C6969B9B79B99CC8B7AE9BC8BF9D9CB99C6BDABCFDBDEB9CAAADABA8FDFCCA9BAEC8
col36:   48659A7569957A9AC7A7886B69ACA89D99CD9956BC89AC58AABCBCAEBA8BA97DBB8CAAEA999CAD97
col37:   77477C8AB9B898BC96A7A4BBBAB7A9BDB9EA7FBB8CAAAFCCDABACADFBBCBC8C9BDBDACC9B7867AF7
col38:   958748CA664B8D8698BABDB79BD9C8ABBBBFDE7DD9CABBBAECEBCE6DDABE8BA7CA8FBB8BB8AD7CAB
col39:   6797689A59AB7FA8877896BB8AD6B9AC9ACC9C9DBBBABBBA98CCDC9EDAABC7BD9A99BAE86A997DB8
col40:   96576696A6A679A9D7B89BC89B498CC9DC89FDAABBBBBCB9D9FAC9CAEC797CE7DACCDDACD9BABBE8
col41:   4678498A97ECAAAA58DC4CADC888E89FAEECC9CBBBCBACF9ABDB9CDE8AAAABBEAC9ABCD9CAACA8CC
col42:   A9949979BA7A98CBABBCA9BB9C5CC8BABADDB8BDB8D9DBCAEBCDFC9BC989ACBBDBDBCAAAC68AC9EB
col43:   9CD7AAA9BA867BA6B889B9CDBFBEA9AAEB9EAFDBDCAACF9BC8BCBACCEB7DBCCBEFBFDDABE8FDBCBC
col44:   93878888AA94F8876B8AC9C9F9C69CCEB99AE8C9BBDBEBCBBEACB8DBCCCABDBB9BCFBAABEDCD8FCA
col45:   4755596ACB75EAEC89DAAECAADCFBD98BEBBECAA8BBCBB9FECBCD7C9BF7DADCBDCCEABCFBCBAE99B
col46:   7B89895486CAA27AAB5B8ADABC77CA8BDBDA89DDEB8E9BBCDABCA8E8BADDCCF59AB8B9897C99AA9E
col47:   8A15A5B967A99ABDBBD8B787DDCCBACBE9BAC6EEBBCCEAEDDFA9FCBFBBDF9BBDADCCAA9DECB9BFCB
col48:   75198B7B897796BABA88B78AFDAACACDC8C99998DFDFAAEEAEB9BADAECCCCACBDB99ACC9DC98CB99
col49:   796889AA88AA668AB95A5988BA9DB798D9CCDCE7FBE9EFCF9CCACDFECFCFF9BB8BBCCBAC6BECBCA9
col50:   A29786BACB99988ACD799EA7B9BEBE9BF8DBC97DABCEC87CEEF9DBCEEC9D999DACCCCBEEEDCDAA79
col51:   256679A4749499A776A83CA976B8E5BC9C95AABDA7C9CD96D6EAD67AB9ACBCAACBA58AC9999BB6B8
ROC:     BPix_BmI_SEC2_LYR3_LDR5F_MOD3_ROC14
col00:   31235233747543517746366543366856777863655987475548A457465469826276777866535A9753
col01:   64225659685245577447847998686CC77757757B3568765B996889877666A5A9B69789878A68A8A5
col02:   41615791447967557797863B66697786869566757897678698686786B8895B68C6995BD7D887C899
col03:   7264485757569675775635655697668586A87688585A96567778B799A679B8987B7888A7D788B769
col04:   65436636678267665766A74C6655568865C96B88456C967B98B6A847A878D8879B87767A9A88A8B8
col05:   744678545674584655573446556678A9C994896994B8C8A86988A88497999599779D7AC9A59ABA39
col06:   592441764778452666855777684975A69979C8764678A9A796A88968978978977988C676A68B7A8B
col07:   155637A68593A38767883B6A868766878957B79899BC8DA79887A7899978C98AA9868A99C7878A89
col08:   976468751658194689957A787767976588878797779B795C96989B78C48B769B79C68779899AB878
col09:   4411455878A994A89667A9A957A9A96DB5A8899B786B89776A88977B8CAB7C668C89BA789B79A678
col10:   6235674A7365755868A46779886784786B64A6B8B99B9A877AB587A9A8A7C9AA98A9B9A97BBA996A
col11:   862784479758697798667489A5858AA64B998589B789A788798CAECA788879998B99A8A97B7D6BA6
col12:   84753828495776589669A879576C17A68BA89886AA8797879ABBA798A999887794B977B76C7877C8
col13:   766687987476449879A8879769699ABAAD7A8A9B7A7C8A9A8988453A989B7999989D8AC7BA98B8B3
col14:   366686849949656656A74678BBA77B989466A86897B9A6A9798A58B98A6AB78A999AA78CABA9B68A
col15:   737A4767A768A79967A898648B95989A7887898A789B8AA7A8BA87A98B9B9A786A8DA67BAA698A9A
col16:   456697A8478729665957ABB67A98688875A858789568AA989863B98DAB9899A8A8999698988BCA99
col17:   246787857A856865679A8869B8EA987C88C9B8A7988667BAA69998ABAB98A5CBCAD7878CA9BA5CB8
col18:   536795A368563BB8988767C89A8ABA669B87A7B5998986CA97A799A8A9799BB749999AAA888CC9A7
col19:   A5A586537A5687978997C5A956A9AAB7DB8689CBCABCBBB77CC998A6B9C99A79BACBA98AC6BDD9D9
col20:   485975874995687A59C86257B89A6B9978AA8998A7B99A79B96A96B95699AA98BA5B9AA8979AC8B7
col21:   78484628496576778696B98889AB98AB8D9AAA878A89AB899BB8A87AAACBB957BA9DDB9999B9A8C9
col22:   5756786177867656788778A7876B7CA9BA89AA98AADDBA9AA89AB8C9677BBB7BCCAB879997B8B7B5
col23:   85866794575836A9A7C987C7C99B9A98988C99899768BCA897A9B969CDBA8AB99AB6AD798BD97A87
col24:   467986453A798968476968888AB9B4DCB56BA7AA86CBBA99A89B9ABAB6C9BB98998DABC8AACAC8B9
col25:   768476957AA8878C9888A7A8D97CABD8A8AB8B9C9A6A7AA8ABD8999BC87AC9DDBCE8AA77CBAA96AA
col26:   9786699BB999998387B8AAC8A9AA779CA9CAACAAA7ABD99AAB8C98A9AA98C8C9C9CABBCC9ACBAEB8
col27:   9399978688969A8899BA8AC8849AB889C8B98AB8AAE7ACC99AABAB8CCAB9CEB8A9C99BCB8C9B9CB8
col28:   4D7989C5BA9AA6C969ABA798A6AABACABAB9A9B7B986CAA9BCBFBACCAE8BBBAD8A99CBEDBAC8B9CB
col29:   8B77699988969C889778BA788AD9CB99ABA6AC9CBCBB8E6CABEBABBEDBCBABBCCACAABF7DAEE9967
col30:   8A777A6AC6BAA97B88BAABAABADBBB89E9BAD9DC9CACD9A9F9BACAFBABDB9EFEC9BCDBBACDCB9BCA
col31:   9AA9B9B98B796A89CAA9AAABABBDE9CC9BBBDA9EBBC9CC9CD9BEEBEBBCA7B9CEDDA9CBDABBFBEE99
col32:   BA87DB7787979AA989ED897FC7A8A8CA9CCACBBCDDAABCCAACBAFCDD9BCDCBDDB9CBACBCB9BCBDCF
col33:   88689B875CB99897BBCAB9CADACD9BACBABCDDABAAAEDBBBCACAABDBBEEAA9CAEABAEDDDCECBBB7C
col34:   9B896986B9C7DBACCABB99A79DCADBBBAADCCBBBACBCBC99BC9BACBECCD99CBED8CCADCCACFBCCDC
col35:   9979A9A9BBB88ABB9AB5AACAB9A8CDABBDAF9DBDD9ACBDDDAAA9CCDCEFDEDDCBA9DEBFCCDFBBDCBD
col36:   B788ABAC9B799AC89BA6C5A4B8DCABB9BDC9CD9AFBCCCDBABB9AE8BCA9CBDCBECDCEEDCCDDDFBE8B
col37:   C786A9AAAA8AAAD8CCEBAAC8DBDD9F9EDBCECAECCDFBD8FDDE9DEBAEBDE9CCEDEDECDACCBBABBDE8
col38:   9DB88A998CCADCC779ADA9DC9A6CADECDECBCA9CDDBADBBBEB99DB9DBBCEDBCBDCB9EDECEDEECDCC
col39:   BA7B6789A9A6AA8ACB879BD6CBD9EDFADBCABABEABFCBFDDCCCAD9CDCFDBBFD9BECEBDECED9ACBCB
col40:   BBA6DB9DB8C6BC9B8CBD8AAAB8EFCEBAEED9DCBECCBEECCBECCECFCDFECEBFBBCCACBBDFCFDACDDF
col41:   9A8C987CBCA99AAEBBDCAC9CCC9DACDCCCDACBBEACDBA9DEEEBD9CCBCDFCCF6AACBD9CECBBDCBDFC
col42:   C79BDBA99ACC8B8AABA9BC9BCABDCCCCBCDABBEABFEBBBCCADCBC9DDDBDDDECFE9CCFDBCE9CDCC9A
col43:   ECACA9ADABCBC89DBAEAADCCEBEBFECEBCFF8ECCEDCFFDFCDDEBE7CCBFAFDEFDDDBDCEFBADC9F9DD
col44:   69C9B86A8DDBB9BCEB988CBCDCBBDDAADDDADDEBCDBCEEADBAAEBFEDCDADA9DFDDEFDCBFECECDDDE
col45:   B8BBCBBA9B89CA9DBDCBAAEACDBAEDBBFCBCCBBBDCCBEDDBFADDFBCEFDDEDBBCDDC9EEECEBEFFCDF
col46:   D899B9BAA9C99CBDA9DACAAEFABBBECCDAAADDDDDADEFC9ECCEBCCCFDCCCEEDDADEFEDAFDDCFC8DA
col47:   8AB7BBAE96A99CBBBCCECAFD9CCCFB8CBEFCDFACDCBCCDBCDCEFFDCADDDEFDFCFBCFFFDCFCECFEEC
col48:   CB9C8BCCAB9D8BA9D8C9CC9ACAABDDD9AAAADFCDDCFFDDBCDDEBDBDCEFCCBCEEBDFFDCECCEEFCBFC
col49:   B88DC8BDBC9AACAC89DBDDAAD9CFDEDDDEDDBBBEBABDBCDFEFDCFCCEEFBBEFECCEBE9DDDDDBFFDFC
col50:   BEBCEDC8BBD8AEB7B9FACAB99FDCEAEDC9DDACAFBDEDACCEDDDCFCAFD9FBEDFDDDFEEDBCEBCDEEBC
col51:   878A5996BA9A9A89B8ABCAAA99BBDBBBB9DAFEB9BCACCAA9BCBCBCDBDCBCBCDCAACCBCDEEABF9CAB
ROC:     BPix_BmI_SEC2_LYR3_LDR5F_MOD3_ROC15
col00:   4117173521258551845632757599657A755656A2656A668297535853464758667567254959877686
col01:   64691825755676564148637499768A58A352B476399A5A377A74467848885959684984867AAC8694
col02:   33613622A4756359473965865B74495634468565176BC88966477675A996A69BA5677458867647A5
col03:   6495136482738965455A456A867A7989466787756775A9676A877687B585767654747698559A6598
col04:   596379A58261769667683939AAA773B366598894853888644978148848995567685966B73AA168A7
col05:   87438844685932596C68593B9465893A997BAA3699A574758A64893A567565A749666677BA6867C6
col06:   5154B8566353463C66685899A586785A9B96987776A7AB644536AA6B659587546878648852688637
col07:   93557967765BA53366B87655869795767B8BA45787A86959899A6874A8A4B6B5BAA8A7568797A8A8
col08:   76663659182738478586A5C6A89761895765C778676796557765739777CADB68584A9B576A577995
col09:   784957BC48979A687A699896B775878B6889A679A73C68AB8C58B67A9AA7C81A5A7787678AA76569
col10:   689667854487764A756662A676A949577AA588A973B66A6499A7773478B787A6AAB8A9B596957687
col11:   889838896A5183B78A9364767575BA9897D67AA7A68A8AB9935D8BE86A6B77A5A5A78E3676698966
col12:   3555545A9678B8644A669788A897487BC8BA98475565398A6AAA856BA98AA8879A496E778BA8A87A
col13:   8578955889946594779B69759C778B777A76B99C9487BA8AA4C76B77CAB9763AA96978C7778798CB
col14:   467763A786966B9A89777694B77638B9795879CA9D995D8AA7659983D88699849C7A9BD7A8CAAB77
col15:   B2A272A7A93788A3B38979477848B698B89B75776669B69689A99ABE9D96BAA9CB876B79DCC87788
col16:   8485898974BBA4A76A55579D77AA6CA9988689D6A69CAA977468BC9947C8A768AA97A9B6979AA95A
col17:   5975678263867875688588C999AB78A9AA688B5B94BC6C768AA798A79B98733ABD96697786978CBA
col18:   23478A666586A777985477899A697A785B7859679779A899B9896A8A45A77B68C9847A5CA9BC7569
col19:   A7567A8C88A993769964B498DA79A99975CBC8B7597CBA958BBA9A9769CAD78AB9AAAA889BB6AAE6
col20:   6556796A7756945655A78869BA9B567CB6A8BAB99467685567A56785D8AB98BCA84A878B96B76AA7
col21:   5628456556A67498A9857455E977C46CABA79CE568A8ADB9A965C8A87648995A969A9D96A98A8B88
col22:   99965565697B688978A4988B997AB5644BA786A8CABA8CC8CCC8797879AA887887A8F6899BB6B67A
col23:   A3777889384AA9818B87AA9887A98C698BD8BA9B658C9C88A98899D88B8A9A6797999A99BA985697
col24:   868694B61B867195A9A66A6BB65869AB9975ACBA7A69C7EB7B6CAC6BC2AB8A79A7889ACDA9299B85
col25:   7566788B66958B8B863CB88698BD9C9AABA8BAE9E7BD7989ACA5A9BBBCDDC6A6E9DABAA89C978B9B
col26:   67A999696BCAA58BB8BAABC9848A8B9BA7699A9BBB9878CCBCA8BCEBB8C8BACC88A8ACABA3ABDDCC
col27:   DAABC86697958ACC58A3D99CC9BC976A868AF9CB9CAED8B96BAEA8AA8CABBBCA7BB6958BABCD97B6
col28:   A2665AAA897B5BC7897B988999AEBC8CDABBA89B88ABA8A887A89DABBCABD898BA9AB9EB7BB9CC97
col29:   9998A7988A8D84988A8B7997AA9AADDD9ADC9BDCDBCBCBBF7A6BA9FD69999FE6BBC7899AA9BACB99
col30:   767A4BB975A6989599ACC9A7DCA8BABBBDA5CDB9CBCAB9C9B9AB8889ABEBDCD5E59A9ABCC59AA9CC
col31:   AB79C578EABB9D46C9AA9A9CCEDD9CA9CFA8CEBCDBCBEC8B8BDDDCDDBDBADC9AACDCDADFCA8E9BFA
col32:   A4989AA87DB5C7B8B96F5A9DAC8997CC983DAA89AADBDCEABCAC9E99ECBBCCFABAEDCBBA67FEBEBC
col33:   9A778E88C99A88BDACE78BB8BE7B9AACBBFAAB998AEB9ABC96DBC5EBAD9CCACA88CAEBB9AFBAECC9
col34:   9A7A8CA8B76BAAAC7DB9C68CB67BEDCF8BDAA8ACDDEDA8AAD8AABDDEBBFDFCD89B87C8EBCA8EBBAA
col35:   8A6FBA59BBBA6A8BA8AA88ACBAEACCB5BCBADEBBACCBFDAFBCDCCEECEEACCCB97BBAD8CBDDFA6CC9
col36:   886967A8BAACCC6CBCB9A5C8CBBEDAAA9DBCBABACBDBDDD9BC89CCCABB9DB79CE8CBE9C9BBDBDFBC
col37:   EAAC9D8A9BEB8CCDD999ACCAC988EAC9CAFAA9DDCCCDEF6DCCECDAFDFAFEFECAB9BCDCCEADEADEFA
col38:   A8AAA8A9A99C999B9BBB67AACDCCD8B8EAE9BBDCCBBAAAAADDBAD9FEAFDBFC9ABDB8DFBCCDDBBEBE
col39:   6A67DA9798D6BB69969CBCABBEBB9BACDCDBCF8DCCACF98ABAEFDEDEEDCDBB8CBBAACECFFABBBB9A
col40:   997CA8CB8B8D9DDBDB96ED9C8CAC68CB99BEDC7ACAEDACABBCF89C9CA9D6ABCBEBCD7EBCBDE8C9EC
col41:   CDB8B89A888DC9DBACBA79AEC6DE9A8CFBBDDDFBEEA9ADACDEDBAABE9CFFEAACADDBECAE9DBE9CDB
col42:   D5BCF7D9CAACAAC9CBBBFEC9BEC9DA8ABD9CEDEAADBBE9EBDB9E9BCE8BBEAEB9FBDBBC9DBBEBEBCF
col43:   CB9BDCAFCBBBCADADBDE9FDEDABBEDAECEBDCBEBEDADDDDBBACEAECDAFBFEEBCD9BABAECDBFFFACE
col44:   99A9BDDAB9DBBCCCB98DCEB9DC8ADDE7CAECECACBADDCDBABCFBBAECEBCDDECBDB99DDCAADC9BEFD
col45:   888BDEB8BC8ACBBCCCBB7EEB8CCDDFADAEBEEEEAABFDCCBCC5CAAA9EFCDACEBEDBADDAACBBBC98CA
col46:   BC98AB99CBC78B8A7CC9CDBAEDCDBCFFDBBABBCC9FEAA6CBAAFCBBEF88CAFECCCADAD8ED8FADB8D7
col47:   DCD8A6BAD8899ABBE9DCDCFEDFDFCCBCFEDEEADDFBFABEDBFDFBEBFBFBDBCDFAD7D9ADBCADDD9BC9
col48:   BCC9DABBABDCCE8C89BFA8FBEDEAAC79DCDB8CDCBFDCFDADEFCFCDBCFBADDEAFCAEBFB99BADCC8AE
col49:   ABDAEC8DFC8C9DBCFDABCEFB8FAEBDEEEDCBCCB89D9FECCBEEABFCAAD9CCEFCFA8CEEDBBBCBACBBB
col50:   CA7898BFBA9FB4DCEDC9AABCEADE9FC8DFAEFDEADEBDAADAFABDDC9CBEBFDDC9BDACFFCCBAE9EAA9
col51:   D7A98A9C8B89CCC9AF9BBCBAEBA7BAACBCE8FBDBAA9CAB9DC9BE8CA9BEC89BA7ABECDDA8D8BAACDA
