ROC:	 BPix_BmI_SEC7_LYR1_LDR5F_MOD1_ROC0
col00:   bbecbecdbdcef9fafd9fcdbedaaefefaffbcd9efdfecddafcffffbfffffffdffb8feafb8ebfba9ab
col01:   d375776598997978b68877985969b9a8c9a76caedbb6bb6a77be7c9767ecbbc6db5da8c9b57969df
col02:   b659748798ba766da63a7449a7689774b89d6a87ac8c8c29cbcaca9bd69db98697745bb967778c9f
col03:   e9a4c99556657997a54677b83759988958ab5b88a929ec8ac6c9c8da873b9b9988abbb65f76daaa8
col04:   a5697569b7856546a7b77ca59b57b7b568b89679cfabccbcbc98c7cccbb6cbd67bdd878a56c9b9cb
col05:   667bcb87857986cbcea7a7786972898e6c67bd87b89899e8b9aea9aa6895aabcbbe9ca99c78bb57c
col06:   c635b56aacdb77755644a56c9977cb696a69bbeba969a45bf9cad598a9989a6998d98369685a6679
col07:   cc7b677519bccc86ca98d9ab6c88b79788aaa88becabbb6bbccc9bbac7b8accdbec9d88dcd968b9b
col08:   b664987b477ba8b8c77bb768592c6ac8594875898aaba6946ba9bdc9ba88ab9bc9bbaad76c8acab9
col09:   c597a1677a7b858289788899596a786c86939a7bc89acaa799bb8baccdf7ab9bcb9b5c88bbb7b7ab
col10:   c79655b7478456a6b9988977a685a78b89597a899cb5dabcdacba6897acca7d8aabba8799779779c
col11:   b5b56978614a9679a66689ad7a786269c6abc799c6b88795ac8ac9aba9edba977a9c5978b87b8aaf
col12:   a7846797449b4574c99916a9ba8d99988799b9a67bd8a87c7eb9d6afcab99278a9a6d69498c972af
col13:   b86866767aa9565b96b6c7cc9958aca9c9ba9a7b89e67c7df8bda6b3c867ad8ac9af69f66e9aab6f
col14:   b7682226678753637d9b58db8d789ab79cb89a88ca9969b98b8b68bbd2abb9a7abaa6287a699998f
col15:   c1a335855687c577768b9689a6887486dadcb6889b7c96758bbd9eaa9986aba79a9d9cac8787848d
col16:   b56628128786b4665953a96aac84edead8878ab7bb6ea99cca75b99a9c758b9759cc89475796a899
col17:   9363337474796db8981ba9889899afdbb8adc9ca7cbbb88da7baa89667cb9acb6b8ba6ca8cc99a6a
col18:   c2738a7981787a3b6a9abcc76b96c7a99a99c6ad487b76c8b99a9b7b66aada7cac69837755a4256c
col19:   d585b9524596a8b3648c9c5477799da9799b999bab9a79acd7bc689884c78ba98c7b6ac788596bed
col20:   e86626a36b58487a97898b7498a687cb77a675769cadbcbea7f45a78897878cccc893c964978967b
col21:   b48576498666875a5868ca6859b8aca9a6c67a9ca8ada86cabbb6ac86b8684b99b987c9a98baa64f
col22:   849252597468ab696ca6bc67b8d9998d9bacc9bcadbcedad9878a797b9ca9c798c7a9acc7e8a758e
col23:   fa566668577988988b85877759a79a47ba6d679b739c96babd8d5cc99d8a7bbb978baabb8b75adce
col24:   c74637c797767c985887669a37bab6777588a87978abda98bab7b6a7bcbad96bc9d988ac5671496f
col25:   e8865ad67b857898a9bab977aabbc5c79a9a8bb8b9bcababab7d9e8998bcdc7cea8bb7b3cbb9b85f
col26:   7a76b16656ea499bbab74aaa7988cc88bcaa7abba8bfb798767b8a78bbc6e6f89ab8dbe9b78b5abf
col27:   e4aa78791baab87bda6a996a679a7977a9aac4b89ccdc7a879e9bc99788fb89a89dcc7c9b79659af
col28:   d67b6689b57a79888c8b9c8779bdac77a9a8cac698cb6a99aa97e7b79e46c98a8a9eddd7a999c9ac
col29:   f6c87b587a698b69497a878caba8aad8a93799bd69969cac89a8c7c99e9b7a98aaa9dcd8cb7ab7bc
col30:   fab57cba8768c8bcaba799ac4a93bc8e88aa79baae99b4b88b7ac7cacfc8bb7dfcb9b698db87c5cb
col31:   a78a95a8bc67594979aba995e77bcab988accc8cbaf8ccc989a9bbce6bfa9bbbb8dcb97cedcdb5cb
col32:   d96588958aaabd9a86ab7c8ccbcdabd6bbacaca9babaaa77c9a9d9a9aace8a8f89e9ddabb8879aae
col33:   966c95879979a6a967cc5cacd6b9aaabcaba987ac69bccc9bad78ccb89daabbacc9ba8b9eeb7cd9e
col34:   dba6d49a8a8baac69fb789bd6a4cc8a6c6cbb99dccccba7ebcbf7769addfbb7decca9d87a6bf8aaf
col35:   f89758b66af6c7a776e98cb68d8d7f9cdc87d68a7abfb99cabcabcc8cbab7dee9b58a88fdfa6b9ed
col36:   b4873bcaa69a78778d7bbab956a68c98b9c6998b97a79bbccd79adbe899dafbddbac99bbeacfac7d
col37:   e778659a579578a59abb8da957d997979a799cacc7db9bc9dffcfecfa9ba398bcd6de99ea8dceb9f
col38:   ea59cb4caca887b9cbcafb99ccdba9dbb8afc9a7b9d9fcadaebdddd9cc8ae8e887bba8cbcc98ab7f
col39:   b874cdcbac9aaa5a8cacba9cb86cf89dd88da7a699c8ebafac999adbb9faccdabaabcbcacafbbedf
col40:   d9a9b789699a9aa8e9dcc9bc9a49baae967c5daca8dcdecc9dd9c9b7faa69ddf8c89c9b8dcaaeeef
col41:   a8ab8e9abbb7c9ae9aa96ab959dbeab8edeafbad77cdcdc99effacef8fb9fbbaddabe9dabcba7dfd
col42:   aa778b99c8aa7dbbccaccf9a889e4fdab9bac87cc99cbbcbfbddcbaaabcadd6e967be9fc9abffb4d
col43:   eddab587bce66ba8ea999babbbbbdbb89dbcfabfce6deacceabbcedbc8abccfdacc8cbfcadd9ecef
col44:   eaa99b7bbab9d8c9a979d88bca9cbaabdac99b9ddaccd9e9bacfacad97b8cedcbc9aaefac9ac99be
col45:   7a897dadbcaa9bbdb7a97a8abdacacb99cd9bdcba9fb9994a7d599cecc9cc9b8aa9ac9a98bec979d
col46:   f68b69ca8cadabdaa997ccbedbbdfc7cfdbadbfdf9ecedafc8deb9feb6baacc88ccdcda98caca99c
col47:   d877cc97bcbe1b8bc78bacacbbacbdb9ebfcdddecb8bdbcae9c749d9c7ac7f8bafbca6a9e9abdb9b
col48:   a67764ab7dc9bdb89aefd87abb88edc58cbc9dbbaabfa9b8bbcd9dacbcb8b678a988b5d6b9ef9aad
col49:   e897898dc96b9e9899adebb8cbbbdaf9cbc9c967e9ebdc8fbbeced9de8c99a8d3dbd8eca99cd85bf
col50:   ca978daca98a98889ca9ddaa9998cabbdeabb9ccbbecbcaccbe9a9abbc9898a998cc8aa89bbd97ab
col51:   9ebebedfffffffdcdfdfdebfeecfffffdbfffffeeffffcfffdffffffeffeeedaefddffffffbfbbec
ROC:	 BPix_BmI_SEC7_LYR1_LDR5F_MOD1_ROC1
col00:   8a8b6cb6baaedcbdbadbd8ad99dfffbfc9cbdd8f8dffbfbcdfbcdfeffcfeccac8fcd996b8fbceb6f
col01:   942987c7696b86446b8ca85b8ac68859b89cb6cabacb697ba8476caa6ea59594ab8aa7b4a999c97d
col02:   9568738859766567513844a967797a98ca9789ab97a778979c9763bb979e7c5ca9878b7a7a898a8c
col03:   a4368956b8778a87a58da9a7b99e9aed8a5b4a699a95b6b8ec8aa9b969b79c77999abaa749a647ae
col04:   96a79685e8548a997b76756bd5ba568cb6897997bc7838bbcabb7ba9e67865abb945aa7a36d687bf
col05:   bb5aa83a68b6b97a4a79597a3dac9baaa8a9a7e6797b8cdaa9abea9b4769767cb9baa4dae8bd697f
col06:   a68a356b567abba95789898887888a98998388b97596ac8db48a7a59496a383885c8b88894696486
col07:   d9a7a686a8668b85b97ac6679c88985cab87bcdaba9dcf96a87c99ba9886666c56ac28d77da489a8
col08:   f8ca4a678a638696a599a778aaa88a673c6b9abd9e8888c6b6a6789a88769ab45987a7c67889685c
col09:   f8546a684868889548b8a9799557abbdc75784b98aa99777badba6a8dc9c52a6ba5956897a9bbaad
col10:   97785768b525c999979a8858858a5745a798cdb8a9c4ba9d399f99e788a464a6876776627aa648da
col11:   b99c5539887a289387758c87aa87b78796987b7bc94adbb78aea4ccba99ab8798654aab69977686b
col12:   a738848554561439b97889a97a977569c6973896f8688664ce6ea87a98878b2886669a75889948ad
col13:   b7858b4c767977398869a8aa997a8c6bbb9c9587888bdc7d84db8acc696fa999fdd9a669688a967f
col14:   a9981967a575b7886c97949638656a9b9896a79a16797a5a478ba98aadb4b6679834869475baa39c
col15:   e65944a3786399a397a6d66a699aca899bac9c88ccb85589dabb56ca88b9597bb7866985c7584a7d
col16:   7855846a69699d76a966bc89d8b87ac986bc7b889589398a9a69a7968b8988c9c147869772e7638b
col17:   c4b97854957b54c8d7a9c76c9a9decd58a8aaa7b8b6b88676ba8a8bbb58b67777c678a9a986a76ac
col18:   a7d7b8856778c6caa899646c8a997cc9f97a897f7a8b9a9a8958b8798687ea9cd7b48a877676655c
col19:   87637674a78798656a86a68bca75c78a7ac9ad6a7ad8c9a8989387a8babb9aaa88e7a774a376688f
col20:   a6448737677a5a499336d6696aa98a966597988cadac969aa2888b8876a5888a989964876855667b
col21:   d4746a78758646a7785b9ac95da9689a6a98878bcbafec8a9dcca6cb88585ae7bb8b7bb8aa57d88a
col22:   b5866872a57cba6a98b588977693cbb5577bacc8b7c6daaaaacb95a6683a76a6a979b8a99897856b
col23:   b9cb73a7ca9a886574d96c79b899976815db89a99cbc89e9597ade69b887a8d8839776aaa7ac97bd
col24:   a57763d89f9b588a8d7a9697a56a686a88988d557b8655c5bd7e57aa89a548aba766978578a44987
col25:   b477986b67758769867b7977bc87799aad8875bad89abb86bbbecb8e9ca69d89bdbbb8c7876aa86f
col26:   ba79488895b87ba57ce78a998e59aa7a8989a7a99c99cd8a8aaac866b87bac6aea66c8855a67589e
col27:   a4c88746ba6cbb8ca9bb84dcb8b6a899b86a5bc88aabb4a9aabcbf699ca7998663da68b78ba7baaf
col28:   e4da7b9b8c8a5b9aebbb8aa968b9669b8c9e8bc97bba8cabadcccc9cada99aa885aea6cc76cc956b
col29:   d79b99cb7897cb7b774a15a96b9b89a5a887c99c9988bd9c99abcaa87accb9e992aa8bf8a985a9ae
col30:   f4999abb8989a7a8398c9ba8a9bda89a6597b888a857a798d9c9a9b99cbc995a577db5dd9ada38bb
col31:   ba78b688beaa4ccbfa9e976b9ba969b88acbdc9899a79baabdb96adb5add86d98baa88d9a9c69a6d
col32:   fcb7679ab8b989baca6c79a668bbbb987b377a8a68acc9bb5d9bacba96bdbadaabeadd9777bdac9f
col33:   bd6aaa88598a8ab7d9ceaad6c7baa9d979a9bab89cc699aa8edfbddc9b9fbf8bbda8aaffcaeeb95f
col34:   e96565829a868c958aaadbac9d8bc8baac9a78aa83877aab7bb89a6bcaba86a58ab4a4a6a9bc88ce
col35:   f99956854a67a9c9c9999a8aacb7b99899b8b696cd9a9eb89e9dc8e6b7988799ef7beec5dce8cccd
col36:   ba777a563878a99aa8b798bacc5ad8ab7978ab7e6cc88b8bf4c8999ca6786aae5b87b83b797daa7b
col37:   a93699a97a9ca7ba7dcc897698d9b689667d9aafd6dbadb9ab8faefbea99fa59c79c9bf69cc9bda9
col38:   e5aca99d8c66699d8ba9b7a799bb766cbabb958a77ec9bc8fcec89eb8acbf69b9cc5a99b9fdab98e
col39:   e9aa9a7acd9abcbc8bba9ba877cb7abb89ba5cba7c9bb9acacb8bda8dacc999ba8a8afaca9bba97e
col40:   ac9b8a96997a9a689649ad79d68aaa8aae89f8ae988ad8a9eaaaba96d9bc8a9ca98c9befa8eaa6af
col41:   d9679ada9d6abb8c7b697c9c97bc9ac7acb8aebcfbcddc9e79debdd9abb9ad7dcdd9c9dcbbc9899f
col42:   9a879ba8bab6ddbb59989db789a9985d8bddde7adcdca7baaa99acaf8b5bc56c98e9cd38b8b748be
col43:   edc87a9c8d97988ea84e88adabd98aba89a8ea8e9da7dc5cdde9cffcbdf7ccdcdfc9e9aabbf89abf
col44:   d97d99a96cc8b95acbed499998d79b7e69bbaef7ac899c7aabbabdaed8abdb7a8d6c97b99ba9977b
col45:   ea7c8c8bca3dcb98bf89d97ababaa9ebfddd9cfaabcac999bbebb9ecbacca9ecbcbab9ce9a8a8c4f
col46:   fa986c88cc8fdc8dcdaba9bbfbd8c8aa9cbfbcdbd8ddebc7ccccacffabccba69dba979e7cbc7398a
col47:   dab77b7bba9acabd9aa59b77a5d8899cbddccacc8b7c8faeebabcd99cedaacd9ece89aa9e9bacb5f
col48:   88876779b8888d3aabcae9da96cbac5a98bacba9acfa8bed8ecaabdeccd6acdabc676c8b8b5ca86e
col49:   abab9bdaccaa88a8adcc8ab7799989bbddb6bcddfbceb9cdcec9edccdcbdcb9fc7e85a89f6b8998b
col50:   a54576a8aa99c977bc8cf84e99b929ca7fd87ba7a5dcacbeceda98bd9dba6e979a7db98a9bd7989a
col51:   adf8edbfddaefbdeeaffdcfffcdfffeefeeffffeddfceefcffffdfefff8ffffffffcfcffeacfbedf
ROC:	 BPix_BmI_SEC7_LYR1_LDR5F_MOD1_ROC2
col00:   eb8db9acbcbaa9fe89cfffffdfeffffffffbdeefffff9fff7fffffffddfcfcfffdfffcffffffbfff
col01:   a45f46b9cbc94b7b976895bd77dad69dfb8bbbff7dff9bbcdbbfbfbd8dccb88bd8e6bbbb96fbccdd
col02:   6127c3759964577985549889cbc6db29db8c9a98bcbcbbcbcffedeeebebcdb82beb8b89e97dbebef
col03:   94578b688b9766b697bbbc58b98bf7a96b88578ebb7bbad8d6ebfbbdebffbbbdbceb9bbdb9db88cf
col04:   e647896c68b78735b89b8bbd36bbc88f9bdc8c6e789698cbdddc9cbdbcfc9cddb9bb79bb9c8bebff
col05:   f992d5888cb9bd6bb9ae88db88bb7d7b9bbebbdbd9dc7bfedbbf8fdbb8cdb5dcdfccfbcdfb8bcdaf
col06:   c373bb677778999564b9985b9958bc9f889b9cac9cc7d89bc7eeb9ddb9b6bbb8cfc8bbff9e9b97bf
col07:   f87b597558eb4856aab9889c67dbbabb7fc9ff7d99fb8b9dacffefbfb78b999b89f7c8bb79bdd5bf
col08:   fb2584895877985676b98b7bb57599b95b8b9c5dbc6c6bcdbeeeffbfb8ff6a8dbbf998b99dbc8c8f
col09:   b7666e68abab5968b89a75bbbbfb6d4cc9cd9c8ba8badb966beebc8dbbbce7becbc66ed9dbbbdddf
col10:   988b642959b8497cb788bb8cba9abb77c7bdb9eecdbc9669e7fce8bbb899b7bb7c7d7bedbbc9fcce
col11:   c2535687b86b7b7965b66ccbb897c8c8ad6cccdc6f8dd9e9ccbfd99ff9d88db7eb7b9bdbf8b6c68f
col12:   c269148bb5883376c77629bb6c9bc3d57abb8bd6cedd87cbbb7bbcbfd39b8b6dec99855bbf7bbc7f
col13:   f656888972788a87b3979a3bb8d9967ebbd78bc8bcbbdb77bbfbbbdd5bdfc6fddfc98cbbc9cbb99e
col14:   b158579545367465b75748779bc57d47888e699cfabe9967cbffbbe75bd8d9bb96be89a9b7bb68df
col15:   64b42364b56464bfbb6988695cbcbcbdbc8cefb8dbf7cf86bacbbc8898bf9cc8b8b9e7bb9b978438
col16:   c3664738568396948b78bcbc8abbbbc89ccb5bcb8b9c8b6bbda9bd9b9d899d8bdabda7ddb76b8baf
col17:   631362513678785f88cb79bbd9b6df6c9b98b6995d7dc7cf9e99b76a689c8bbdf9ccca7bb3a99b9d
col18:   9224766b5788598941b89a777739ccc5bcfc66c958b66def997ccbb99c8ebb87889b88c6b7dc6669
col19:   917364861928879b998866e7c6b7cd9f9a998cb6fdfa9eecdda898cb98bbccfecfc5d78bb8b66e8d
col20:   b53676b76527875b6942598cdae8cd969c9a967dfbfbeb9cbdb8c8b9bcc58abbc6e78872bc8bb5be
col21:   635176264888866b797a9b69879bccbbfcbd99acf8bd6bb9ebb979bc9988bbbdec89b9ea849cbdcf
col22:   c467656b887669d9786c86474bb39a9bcab9abcb79e7889bbfbcbb7bc9cbb587c66988eba5b7978e
col23:   c8165417596c375a9aad69897b5bc789c6f945bbbe9dc6a8f8ea88988b8d969b799e9bd8f87588af
col24:   9817364565739798689a28569c7e6b7db54b9966bcc6b9bb5babb987bb7c19696bc7d9bb8b95b49e
col25:   c8496933b48375bb75898b79b977599a3b99a9a8fdb9667ab8bcccbf8cbc6a9cc9b9ddcbeb7b8bbf
col26:   64645a6b8243936848bbb7778876ba8b87ab2c87a8777399ebac8cdb6bbde3b76cbdbc68b9bda78a
col27:   927875b63a65c979888c8c7aa67bcbf2e98fe7db8ca97daccb9eebfa77cb98ccccddccbbb7b95d6f
col28:   e399347423786b896bc885c4a7bbac75d89c67bb8bbbb9899dd9dcc9d9a776a8bccfbfb9bbb986af
col29:   cb7676db989939b878859b7488b88b7b9a6d76cfb979dabebbbcbda9ccb5bd58dc6deafb8ec9b58f
col30:   6b634bc919d3b797b955888c675dd87756982967f669b6a7b97ba8ccee777d8ba95b98fab9ea468c
col31:   9658145937bd47d8cb9e866cc6dd8bd9ca6f62db76bca6eafde89addcabaed9bac8dcbbbececadbf
col32:   e79899779a89cc86795c6a88b5bbba5bb769cf6cd99c9aeca7a8b69b9bb8bb9cbabb9b8bbcbd7bef
col33:   e46549689966b6b896ac4bac8ba68bc65d8ab88bf7aeadb89ccbb8cbc95b87dcdefe8bbabfbfbd8e
col34:   899743373826978bbbb9c62ba9b8da897dbb9b9937bfa8b9695cb8b9ccacba4cfd9dbc9bbdccfbff
col35:   a6855695659785796674996d744bc6bde9a8ec9c9fab8b8b9ceabbc79db8258cadad6b9bd6d9d96b
col36:   b79b42a278387b4c175c284b2b87686b6eb8462dc8a8b7b559ab8978debb55b98bb988bcff7b88bf
col37:   e5b97414876b96778c97979c88b698899b674989b8acdc7cebad8decbb9bc8dbac9ec799b6efd79f
col38:   ea635b455475556573b9a9879c76477c966c7894ca79c7bbcdb8bac7bbbb9768b9ec7bab6cddb3ad
col39:   c6c595697759896b9c6866698bb77e7bfbee87a497cd9cfb88ef8ffbbf78f9df9b9dc9c8e9a997ff
col40:   d88596659b744887466a4a45bbdb779cd9b7a99c7bb7bd99cbb98b9bbdb3aeb9859fbcd7fcebabdd
col41:   a8a5bb5957aca919c248bf9988ba698b869888c8fb89abbb7df9bdfdabb89bb8b99efdd8cfb9ddaf
col42:   b7877767985955b4777358c957a935eeb69f6b8a99cbbb999cdabb8978a4d8a8c97f3b9bfd689caf
col43:   fc156a96958686bbdcab977f7e6bebced9ced8c6bdbec8acf78c9bab8bc8699dadd74ccbfdb97bbe
col44:   e696b6867a5bb89c796967b9d977788a6c991daa78859bc88aa9c8cb758aeceeab7cdd9ce879999a
col45:   d4636694695a5a7a9a8987a7b9898986ba7cdbb98db9585aa8be8bac9cf9f51b9bc7ca9dfed86bad
col46:   f739678788a9b834b8b8ab6965b78e87e869cdccec9b9a8da9bbe896f97a8b9b998773be9ab8bd5f
col47:   c83668b949b7bbbb66c9bcc57bd8789ccbad7989ba6bdb97f7cc6b9df99779c6e9958b8ad9999978
col48:   67169937672dbb7bdcb79888d87a45b69d9beb6bdaa66cb98cbbba97787e98e9b48676598bfeb65f
col49:   b37b78487da66d6b878bb7da97bc4d977d6bd96d8cda7ec7b8bbfe77ba8cbb8644a98869bb8ecb4c
col50:   6284365b54b96899bc99da6b9d765b7a883bada56d894c9bbbc8bdbbf85fc5b6a889668ab9bbb95d
col51:   6b6a68b8cebdbdf9afcbdbffdffaeeffdceffefff8cffdfbfbdecedffffadf8bc87cadfbffffedfd
ROC:	 BPix_BmI_SEC7_LYR1_LDR5F_MOD1_ROC3
col00:   9c7d6cebdc89db99799bcd9eaf6deaabdaeacabeaf8efe8accfcfcbffeffa99bffd8aefed9def8ba
col01:   d378968787643685758b77a8aab77bbbc8a3a7b69cb99bba89894c94bb9f69c9ba9b86b9ca8ab97a
col02:   c7566576658a2536b47674687377b788d7b6576bcb93869cbb8a9b9b857bbb5aaa99b698c5bb78bf
col03:   974268544646382d87639755958786b768a96bbb8a4b8b8b8ba8a9b9b9c8c9bbbbc7c89b97bb9bbe
col04:   ab5354469b4644768497977777747846c5486bb8c67999bb85dcabbc78bb78acc78b8988cb869c5f
col05:   96937b7bb8a787b96486aaa5786a6a7b8c8bc5b89668bdccbbab7aba9a8a67cfc7bd9bb9c996967c
col06:   a564576a85859b5957578737791867a5657b87786a64c9b89d9dd78bb9858cb898c9897d96896a58
col07:   f854676848a9754b96bac679d6b3895979c9b9967c9bb998accfbbb978b987e869bba9989beb787d
col08:   e63656444493667b7488946734979aa69ab8775a59a95af878aca7a829baa776bb9a9db686d6cbdc
col09:   c47583ba77758a98b4975967a8676798ca98b68b8c88c77b89cb5c3ba9b889c6bbd95795999ca57f
col10:   9385538c2459386a89567357bb887798b9eb76ab6bbb869dbbbbb6b699d9ac6b6b86877bba75788c
col11:   8874387a38db8578a999977db9d9889b79b6c8c799cc9b86a86a76db96dbb889867669987749558c
col12:   a6833647366b62469555746a76ab5988735b789c78b7d8747aa9aa99b7a6b7bc77bc759b475a299c
col13:   e2548773434b87b6c66925858999857c6ba88a88689c8cd79baab9b9a9ddcb9496baa8b89b98c5bd
col14:   93732462451819472c7554b9a789689acab978c79bb9a9b735e8b87b689cab55a4b799b37a68629d
col15:   6311361736619755988bb88c7c8aeac99dbb69e9cccc9976a86aba85a77668b9ba78798a973947bd
col16:   b355267a463394746747977889b988d95c528c87a6ab85e768c8caaca7c7686b9a87d6695769788a
col17:   a8163428658767b75896a988459a99bab7b86e9a7b8a999dc9abb9e8a6c87c77baa7779a998b969c
col18:   825968187377349ba8665a5764595a97b9a9b98538958ab5cb8987aa9795c48535b97669a789718b
col19:   d416165879999b657a675e4767579aaa68ba98ac7bb8aab99a9bb9ab99bd8aeab98c98cc9a97775d
col20:   94156b976864753d617cb9495a98a94c7ac7777b7879bb8a876a96b87b36b8dc9988893a97b8698e
col21:   8463533466889459785a787b88785aad9aa778bcba9899acdbbacbb898a96db8a78997a7a5a64bbf
col22:   b3365556b7d9a54a955a689783b99a8bb69759667bc8d5bc779acbbbaa89babcdb878a9bb68a877d
col23:   b9678237798b976be9a6699778a6a96959c886acbb9b88ddba7bbd7c76cabcbdb8c8985a8b9b9c5d
col24:   c9697277a594999b9c39569759b968b7b69b78bc57aa9759ab9d7d8ad89dd8bbaaba9c98a7ab7868
col25:   b788f9768bab97788a5eb87bc9986a3c8ac99b9ac68a8d89878ba9aaaababbaab8a5f8acbbaab68b
col26:   d578364789499978c77b83d5789985a997a7d5a758bb5a7aadacbbddc87bb8df8acc89788dc7ba8f
col27:   d5497a7768676ac6886acb79b9878a765a9b798a989abacc898bdccb9bb89aabcccfcdcbbc9ec8bf
col28:   a7c86a675746abb8b79acb699ab6a97b7dba7da866a5989ab9696a6f96bc8cbba7acbc9ab88b997f
col29:   d968776447898b9bb98b897dbb87a9b9a9796b7b7bd6aac88aebabab979cb68a99bbffbc9669b9bf
col30:   e78b4868c5598873569797bac889d958ea8baacbb975c993bacb798da989bcc999ab999bb46cc7dd
col31:   a7998987a96abbbac6bbd68777aad8bc8bcb9a8b68bba7b8eae8ab8baaccceb8cb9d89ba83a9a86f
col32:   da77979a6b96bbe99c59587b98c98ac99ab899977e8bbba9bc98bbe977986eafaccf66b6777babbf
col33:   bc8787889c9c6a9b9ddbca77a98c7e8ab896ba8b8d9c8ab9f6acabdc998d77eebba67d9baca9b8ae
col34:   f98745218c4db6bbadabc978abcc7a6988bbdabaeabf96a99a5a6e58bcbb7d9bdb77db9dbd9d9a8f
col35:   c8782d72a466db99a99d78889cc689cb8dc55b78bdbb69bbddc99a8ba9acfbcb688fbb8bcbbceabe
col36:   ea4823747b987764bb79a9a79a878a8bcdca8898b7e9c69cc99debec8979aa6caa9fc8f9edaba9bf
col37:   f8a759b78398e5a5a8797ba9caab97c7bc8e8cafdb9989c7afbcafbbcaa69c7b9c7da9dc6bbb9ead
col38:   c86877897a4a689999be59bc7b66badc9aacbba86a6ccf89acbac9a9bcbe96a87a876cdacbdadcaa
col39:   989b67559b8be99aabb76dbbc7879ababbb9a8bbc878aea9cba77abaabcadba9ebc88bc9ebacadbf
col40:   c78c9b88ca8a8977c8768aabb7aab9ad8cb9c86fbaceabfaaccbdcbad86dc9b7aa8faaacda9849bd
col41:   e49b4b9bbb7b996bcab6ca5aacaecc9cbccb98bbecefbbdcae7cec99ccbc9cab9c8fded6c9baddce
col42:   d8965aa559bc999cc8dcca9777a8ba9ab6c8ba9a79ab96a8bc9bdcaa7dabcbbdcdebacaf88ecbdbf
col43:   f9d8b6b89fc9bcbd9bda9889686a8bbce9afcbbdeddcb8ef7caa9abac8cbdbdbabc7fc9cf87bddbf
col44:   cb7a6a5a6bbabb9cca7ab8fba99bbbb9ccabd8bed68dabbbcccadce8a9abdbcbea99c6bdedcbbddf
col45:   b7b977887a9aaaa98b77c89a7fba9897c9fbcbffbbb97bacbcd89abdc99cb88a6de8a9adb99c66af
col46:   f7d89bba9db7f97c9ebcb85dbba9cece9ebddb9ddaabddbbb9cbdfbcc7cbb57cab68fbebacc99daf
col47:   89877594bc9abfc7bcccccafcba98f6ad987cae86d989bcbdecfb6bda7bfbcaeb89cb8aeb8dc977d
col48:   c857847c894958acbedd96bacbda94abdfa9c89bbc9e99adb7e9abcd9dbba7cb9aacd7b9adc7a7aa
col49:   c468b8d99a86a99bc8cabfcc9899ab9697bdb9b9dbded9ddefcdbdfbdbacbacad79ab9dc9dabcfcf
col50:   f7a69889b7acc689aa6c7e9b8b79a97b9aa7aabca78dddbbdfbcfcded9ffa9abc88acdb897be988b
col51:   cdafefdfecffedfefbffeeff8fedbfdfddeffffffffedffffffffbffffbffeffdbeddffeedfffdff
ROC:	 BPix_BmI_SEC7_LYR1_LDR5F_MOD1_ROC12
col00:   896c699ccddb7b96c8be8bc7ecbaffdceff9cdfffebeefadfdafffffbfefefedfdffdffeceebaffe
col01:   747599466264a881495a55b7b77a9ab8875a9a96a89a69e995a6a7cac8b6ab7e8889ca9b9dab89bd
col02:   8638437976958755636b997979859a6a797a48a8769bafb9889e88d778b87ab9aac9949bc99c8acf
col03:   a72749b578698668548b848689685a889bb67b9ca9ba8ab979cb5cab98aaa99b7ab9ea9796bb9bee
col04:   833644455865754375786776dab79976888879999aaa6a97b6bca58ca8a7d999b7accaba7a9877be
col05:   c86734682866155497896658796b76578aa8ac88cba87a8b6b799b9ba99a6a8b9cb8aac8c399879e
col06:   b167444666767377435535988688a8a684a7a698acb969b897b8aba9acaa6bbdad8c9fa98a4a6aaf
col07:   b756759867476588758788cb6a76a76b8acaa79c899bb8799a9a8cbabebd95aafeb868b7b99ea7bf
col08:   8668444656935764576549845b88a88889778598ba9bd99bcbac78bb9ca98b9899bba9aabbc9c58c
col09:   a5692a287756277688188a6a8a6795bb8949bb9955b9dbb8b8cb9aa7c969fead9cdccb7ccb99999f
col10:   7367377596a767884556646a8a656697678a7689cc6898bcbbd88ab78b9ab798a878cb9aac9aa59d
col11:   7717649775576745555a8c95859887ca9ab8a9a88399a8aa8d9abbbcabc8a9b9c679bbcbc5b8dc8f
col12:   b2465b64369461a72859468475458a778b987d74b77c68d49cb9bccb98d9badaaacbc9ca9bbbba9d
col13:   c85954756665a67267975aa674298a6b588995888867b9a4abc9cbc98bac9a8999acbba89bbabbdf
col14:   a6555695556476774459578866666778a878a96587799c8689a78ba6cc8ba9cb8cb999a678b9acbe
col15:   b762934936145736527ba48678a868989667a8a7c7a87bcca8aa7aed8babd8d97acab996bac8aa7e
col16:   b35657a84555526178339969a77985688bcb9999d9dab89a6ac4c97b98ae8cbbabbca8a99997caaf
col17:   d65655695676559758759aa98a793a765697a8cc9cec6bbacab9a7d9ac8cbbbbaca9b8bab9c6ba8f
col18:   877777552515876585656965b56a899a78a9ba8d8b8bb87a8ab99bdbabdbbaf9c6c9cabacdec8acf
col19:   a3864866a76974666576887896ab8799989789b7d7dbab9d7ceb96bbb9bdba8abb8cba9aabbaacae
col20:   a3536539654763679685774879aa7a83446ac54aa8789bbdc6ddba66b8b987c6a898acbbbc8bcbcf
col21:   d9534637995a7674855a82a898688c9aa5abc8b999cbb9a9a7bb9cb979dbdbaba897daaa7aacba9c
col22:   c86568758a345a8748898b6b9a48936a3799c99d76a7aaca9dca8bc8b89869ba8d99bbadaaba8a7f
col23:   954169512468536b9a758965a8897a8a9559e79799a5ae88cbabbcae8cb8bb98b99bc7aaaabafc8f
col24:   863474466786747784867636a897aa4c875a7d759bd7ac8e9a9c9a7cbb7da8d7b8aba9acbddbb9bf
col25:   d448465355577739784797d896879a6a48c86baaacb9ab98cac7b8ca79b9a9c9a99a8ce66adabd8d
col26:   9a5375753787886a6886857993999688877cacacd8897a9797b9b9b9898bdaa88a98cabbaa8a9acd
col27:   97aa36786a5448789aa988a5b778c9595aaccda9b7aaecc9aabacbcbc6e7daac9daa9a8ca9dcbbaf
col28:   b77777977856a99489665678bb6ba7ba9ba9a9ba8a98cbbb7bcbbb6cf96aab8eadaacabfeaecbace
col29:   ca788765616565688496aaabaa8ab7cab9ad9b9caacedabaa6a8ba8ba9cdaaa99bafa89ce99c9acf
col30:   c587879777438696b54987aa9aa86ba8a9afa7a7dcccaaabbaa9c9ebbbdc9dcbaabdcacadcabd8af
col31:   c5a5889663347464957baa9c89c9ac9abe798aac6baa9abc7bbbb9aeadcb68a9adedcad7ebaac8bf
col32:   b574655566a448789ab877548ba9cab89b98a5a6d6cb99b889d5cbbbb6bbda8f8aadc86abaaacbce
col33:   a584939769599968858859acaf8bbab8aa7cab7ccaa698accfbbbbbdd8dde9db9bb7ccdbceccddcf
col34:   b26a53775864893884a88b56c9b9bc97b8aa59859abb9bbaaa9aa98bccbc8a8bddc7b7e9a9acbaef
col35:   84776946569875aa657b9a58a9a98c9d785ca6b7aa7aacd9d7c7ccafb7cad7dbbdccc9cb9aa79abf
col36:   d4675685567887a69985698c677a77a7879c78d99d8baccd7b69bbcb9dbcbbcbc97df9e98cacabaf
col37:   947677645848564a989ab9a9b7a857697ca9ccacacbaab7cbc87ed8bb6bc8a7dabd9a899cc9dbdbc
col38:   916366987548959489a8877599895877959bacf9aa7badbe99ac7dbb9ca799b9a5cdb9cb899ccccc
col39:   a5473a9559b89998aa997779a976799a968aa8cacb9aabdacbabdd9baff97ccbbacfedaeafcacdbf
col40:   bc8695944b57998a76897a8a989a989867ababadc7aab9bbafa9aa6a88eeba8aaabb8dbacad9bebd
col41:   96576187969779875989a796c9b6a88c7c96a89aaba8ca9cc99bcaabcad7899a89cebccbbbbcbadf
col42:   c36894938698297978657a99c9c9b9adac987aacb9cbdbac99b87b8aac99d6ebeffeb9bbcbad99df
col43:   9a57889a54595a86a96a698687a99a678b9ba77acbb89bbc8ed8cdc9cbdbc99badbcaadcedbacd8e
col44:   7519889786b9668a88aca2975a8ca876ba5ac86cd8d8c8aadaa9bd8aacc9a9fba88cda6daffd8a8f
col45:   b4864985945986ab6c6987a868b999aadadbbeb89ba8d79adabcbbbb9c6bb9bdbbaf7becdadacfcf
col46:   a8576586356956a87aaaa74aad799bac9899aacba9baa9db8b9fdb9bccc9d8abb7dcbaa9acbd689f
col47:   b7144b8565778887a878957667a7a8cbb868a799ac7cd9bfdec9ce97aaa9cbc79a49baad9cacb9af
col48:   7668978565b75376987cb87a7789497a99798baccc88a9bbecccb98ee8aaacaa998c9bac9cdf4baf
col49:   b94487776a8a89a59868799c8969bac9a9bbca79bbb8abbbcabcbbaefbbbf9abbcd9fba9c6d9dece
col50:   b4657998578aa65a855aad9b6c9b8b8b89ba9adbaaab99c98d9bbcbcc8d97a9cb89cbcab9a9caa8f
col51:   9cdfcee7cbbadebfdbaffebddfccfeecfdefffffdcfffdfeffffcfffeffffffffffeccfefffcfffc
ROC:	 BPix_BmI_SEC7_LYR1_LDR5F_MOD1_ROC13
col00:   fbdbbec9edf9cfefffcdaffefefbfdffcacffebaeffcdcdfdcfbfbbfccecd8de9fafdecedffdfd9a
col01:   f9969bbb785a5964aa9397a8ca9fa9dfe96ab9bc8797b7a99bccdabcb9bac7bbb7895baab89a999f
col02:   8a697a97bad7b963c78998ac98dbd79c78786be88598966bbbcba99cb58ecbc7b98788b96a7acb5a
col03:   73489ba9a97977b594789c9db94579757a6bcabafe7ad7adadbe89a69aa9debeeacda857ba687bdf
col04:   b847ad957d8697779993677b99a97bc9ab9aaa9c7e9b87cb69d7cb89cf66ebb5886f4677546b4ccc
col05:   d7756375a56a879c85d8bda7bd66dbbd6ec6f8b99ab6ae9abba7ddd6c789a7dab9bcfd74888c5b2e
col06:   e45685864aa6566a3797854d93bdb5b8a5aab9d767976ccdc9aabc8be6d7777a7f7ac9ba8b75858f
col07:   ba8b86b639869bd7bc7faaa999d998aa9bc97abe7d9ac8aae6cd9cb7ea767aeaec74ebf95cc76b5f
col08:   e88658a96654a7c8c6b6676b837a9b996e8a98bd58aabcce69aaab9baac8bbaaa98dda89b588b96f
col09:   b679c671b86a8bac5a879e988a5a9c9b98b988ba9ad989b8bcbdb6b8da56a67b779b97645aa8a87c
col10:   f768884ab77597946b75974b48f777869949cb7eb9b9acac99dcb6cb59a999ceba678588699499be
col11:   b6987188c66846888b796976abb98fe798aa6abbdd89b8b8869f87bbdbfb6859ba99ca56a983796f
col12:   d6765a87a5878b466b7cb88a9c46b7aaccc6496bc8d79c988549bd8995699c9ab7778574a976778a
col13:   d38667468378767ce98da9c9aa769bec8b88dc9bd76d98b96cba7a9976f8478fecaef7ca73a8839e
col14:   c6189574571752788c6b757b998ab67b6aa8bada885c688597f9c7c853dccbcd4c783b899885889d
col15:   d5a73b5a5756a8689985399997b4dedbbbd758dc89ab9add9b9c99a9ca7c9f88b8e997e87657857f
col16:   b674765459744b58c954aa789c876a9abac8aeaba8a7888cb7bbc9b3998aa8976bc69c797958697c
col17:   e4398279767b98aaab99b64d3699ba7fc9b9dcabcadac6bdbd67b89b9686497975d56599977b6a5f
col18:   a25588997375297798746897a6dac98b99cd8abccb9b7a99c59c6bee868998b789a7d7a66394373e
col19:   963a87995aab87a8e4966bb76b9d77cdadafcbc8f8d9cacc99dde9aabb677a9a7d987988a9788b7d
col20:   9962796698796c66669a87986a9e985867c598dc798ccaed99dfb98cb8b479edecc78499898b677c
col21:   c53896a84ab75bb489b898bc8a79a9dce9b8b886fdb6fe9cbd7e6dbbb7c9d58699ccab69a7945b9a
col22:   9239787627979788ad98d4258ca669ec59beba987a86dab98a89d7e7594d77a968a782aca778959f
col23:   a69778b74978b59a7a6ad59b8d9bb39b68c7a7d66b9c76b97b97ad9b8abb9a1cab866696c9e8b75f
col24:   c67844a68797ab8aab276c85bbaa69a95b7957896eadd6b6cae9bde9a79a75bb759a29766998c75e
col25:   a788898a88b868a5c698b46b989b99bbefae99b6ba9a88a8cb9a79a8599df7c9c6b6b9d66db37baf
col26:   a777974ac57b5b5a74cda39998e79b35dd8b897cad9b67adb59c8ab9a6c7fb5adb9b98ba78b8763f
col27:   b88b3774aa57893977ba7aabd9aa2a6a888a8a9a9a9ac8aa9a8b6877d7ab39abb7aadbe8596ca9ab
col28:   b998b9bbac7767989b8aa39ca6cbd68b878bb39bdbccbadde66bda9bbda787bbb8acc9ba4b688949
col29:   ba7abba8779b86b8bcaa9ab698c9789696cb799bb4de9eefaa7f99d97d7cb7dba6bc899d86c775c9
col30:   c986839a7b9d7998cbaaa7caf9bb76cb7c87aaaaa779aecc6d9fa9b8bbacda8bccccb8b7866379bd
col31:   f98c966a8bcdac8aa8a9c9b7dadcebe79ea8cbc99fc7cc99789b7db8aacaac9dc8cbb5894ba9c76f
col32:   c768687c799699b79686695d9a97cb5b98bc66bad88cbdc79b978d9c97956a78c8ae89a89dea68ab
col33:   e3aa96896978a386848da9aa7bbbcb66aabab7cab8bc9a96d8fb99a6d6cacd47c85c8aca6d7b8bbd
col34:   e5968a999a859b7e9bcb7dcbadb8ad6a6aaa96d9b869bb688abb78b9cbdba84e7e9dbaabc9cfdaed
col35:   abc367517a7d89ca7759599baaaba8b9dcca976d8a799a8fc69b77b99f99a8c9b959bbd59cb8ca4d
col36:   d7a864a7678674daa6cb763b699799ba4b88a98cc6c9769a9ee779c9b96768ab9bb679c97da9cd6c
col37:   da49b7aa58786978967ea9aaac7aa96d376a8ac9b899d7d6dc9b6dababb9996d98ddbac8b6c8688c
col38:   da876ab86a5b89f49b9bb99ba69f8a6ba6af6affc6db7acfebdef8f98eacf5cadcfacc9b9ba8b7bc
col39:   a889cb9979b7bf9a9b9bb7a9cab9cac9ae7c96b7dacaabb8bf9ebae9bb9baab99a67c99ab8989bcd
col40:   d9ab88b68ab7b9879ada899ca8acbbaaabb88e97ebcacaec3cac7ddba977c6a96bbba8ad9b939f9d
col41:   e7bab59969998ad7bbd9a69f77bd879cebbfe6ceec7dbb8dbadcee75abbb7c989bbadcbbaaeab66f
col42:   f4b75a8589bb6a9eb79a699ba9a7aa8b8bb98fba7baec9b8ccefafea9f79b8d665989bec8efb4c8c
col43:   e88abdad8c79c89abb9bbe9bcb8cc889bbcedd7bdaf7dcbc8acfa7ddd8cc8c9bbebe88cbc969bb7a
col44:   fd9b9abbb96bcbccb59b576aa99c7fedb6d8a97fb9aa8b7a5aabd9daeaadfac699c4bbbbab78c989
col45:   f696bc8fbab9889dfa8679bbaacb97a79b9a68e8bdf8a6ad8dad7b89f8bb8ae5a9aa698aab857558
col46:   d5ca89499aac9b7c9da9a8aab8ac7aa9a9cacf9be8a8aba9aeabada6879eebac87b579a7b8bc987e
col47:   b368a7de5c6dea6488bbc7a793abfb7963b757a6cfa7febb97f99a8ba6ac9a9adb8a7a69ca9c8a8f
col48:   f676697a8786977d9cf9c88aec897c8a8dc4c79b8abbebb5b8faaecd99a5bc76ba72587776a28a4b
col49:   d678c76ba78fb78a9ec8b889b57bc788cdcbdeacab5fbcc7f9c9bcaffcbbc9a7a79a6969bd78ac7f
col50:   a648679998b99998885baeac48aa8dcc9a88a9d9cbc8969fcebbddd686aab9f96b8755d8a6ca851f
col51:   ba8bb7aecdfaffbabdeffbdfcff9ffecfafffffeefffbfefceeeffcfffbfee9ffdff9ddfff9bcfbc
ROC:	 BPix_BmI_SEC7_LYR1_LDR5F_MOD1_ROC14
col00:   9cceefa7eceb8afdde8f7bd8ddefffccebdeffbccdfc9b9cefe8fbcafeaffcfcacfcdb6fdfecfdcb
col01:   a8496779b94a78ba9a96abbab89d5bdaa9a9589f5a6b7e889bb87c8eabaf9cbfac8e5afaaad99bba
col02:   a64867966c936757496c5598abea8956ea48e7da9ab79c87cb88ca9dccdaabec67ca786974cc847c
col03:   bba74aa6a3ba95e9589ab86988a5a88b8cfca7aaa8c5eac797f6bc4f89a4e9bab879a5d7c9a739bf
col04:   c9792d7c766a54457659bd975b89abc7664768bb8b6b8a966bd7c6f699a8ba8a9e576cba9bc8466d
col05:   a898a6e887b8667d7986da9cde87eca85189aee695c878cb78bddc59d9c98499bbbb87465bb7c68a
col06:   c5a178a8859aab6756a96ab55a8854b95eb98fabe9d75c7a468baaa4c6bb9cc68ccf7b88cc7695bd
col07:   ea9577afad1c9a496b8ab5968c9b5a7b988b5deed5dc3ceb89b9868b55bc8c4aa98ba9bb7c9a985e
col08:   d885969a73a18988799bd59ea6a3b3b8ec99dba9eace7a6cd9d9c8b8c8736bae98bf764963a7768c
col09:   f37729769c74837a6889676a25d9848a887ca99ba69884e97f8fe847bac935fc5a579795a5ba7b7d
col10:   fb5ab97398be8979c518ac4895859768bc9add8ac9d7e1574ba6a88a584abb99db788aaa68d9aa2c
col11:   b996177ab9b5958aecab597c5a92ab849898ab8bbb7ab7cfb8a7a88aecaaa7779f98829bf967439d
col12:   cc5b9977b38b78c99aaea86986579949678aaacab9aa67b66bcaab88884a7c297a98ee5884ab7249
col13:   cb178a94b569da75ebb96a89bb4679c87cdef6b88ba9ab9d7998b78686778ab8c65a49767ad8d78f
col14:   f98e36267498623abc9aaca5ac85bac9a9a9a79aca9684d496aa788b74d8988dbc57666feb8ac9ef
col15:   a61257961b81576c9d9d8497f9796abaa8bb4c9675ba9b8f78c9997bc7b16afaa697ba68af95afde
col16:   6b475a44988127893da89586b9aad9a9baaeaabaab979dbb869a7d99487a689647a692247455a43e
col17:   f97299756c496297c9849ab76a6dbf9997a7a689a8a65adbb8cc86cb866464b887eb83f8f876575b
col18:   c53a35a249454a8b99c999cd59889c6898bbef9c7ac7999995ed73dda365247c969778b9ea83497b
col19:   8a5688298799b8889a7a92bb87b8e99dabbc89895cb9a7eb9799aca7bc98c99759a6a998b9d2437f
col20:   65259348c692b6688a6986599b9b78c8875fb8bb7ae9bec568ab725aa59653fbf798519ca89827a8
col21:   9a88c74aaab89ca8cc966c28989985a9ccca886b97ec8fa8ba77cc8a849b8aa7547766da6a77e698
col22:   9774248895b5a8baa9a6558cba9789767c5a7abb87caeda68be978e3bb7798b79a57b65725a7934f
col23:   c577838b88ae86a877c57d68776ad94837c99ba584e79889888c7c8b7658975d56ba988aab88a14a
col24:   a75aa8867974a6a79996c75785a95838759b961b5a59885d7769f9bab97bc7559666e8928a4d946f
col25:   b67a844daaa79c99887d96badb47716764ea97c795be878a9a67bf5ab6acd98978f9c6b66e9c969e
col26:   e58b5b987b89788dbc99a9d966d5559a6b9b778b3c6bcd29c788dbcd997aa68ab89daa7abcba8b7d
col27:   6878a9bed962dbdfaddbb69bc9956d8c9a576c8aca8b88977aacabbcc9d8c7b7ae8badb48657fc9b
col28:   f39c69bc78a68894abcc977b7bc55b7af656c79b4789688dc4f8999c58b9a9ab87aeceb75d6cceac
col29:   99acb956cd78c65556c7b6b9dd85647ab69883595a9b9acddf69d6a8cbc7597dd87cdf7dc9cb57af
col30:   a7149a7b97cdd8b76d5a4876979fc796b5357bbb9ace6b3994a6dcb9a6899899a7aff8aa8a8785dc
col31:   c58c96376bca7abb9be7cae7c967888699fa8d8cbc8779e896a79abc9ab687e79afc7b8ecb88b89c
col32:   ec699bdea8accccb9ca96b9c9b8c9789c7696877caa76a96d4aaca9288ecab8a6ebae866cc7c678a
col33:   ec8aa77a4797668bf79c99c6c9bbbd7c96e8887ea88cab8886ce9b6abb7deaabdddb97d6b9f889fe
col34:   7a8aaa7898b84a9667cc87b8daa8a77e89a4a8aab98d5a75ebcdb89dc77bad499fef9c7df9dcbb68
col35:   ccb8557b567aa95899899892c88ba9d68ba87d26ae8ec9cc89c6c8c9bbaab3d89e987f88a84c79de
col36:   b6597b6ad38b8b9499a83c4ac8aba688b9d99ac78d7b7949e8e4a6bdab8b88ad88dc8cfdbbfbf6af
col37:   fad6bbb96c6b63c7a9e88aaf89fae7c6bb7dac9b7babab9bdc8efbdbbbdda8cba6f69df9d9bf8b1e
col38:   e5569e7ab5a6b7799fe899b8f788886a999bb696b9a99889a999aacaba9aa59ab4baa898c8badd9b
col39:   f789a9a8cb976c86da3765785598ac5acdaa7c9857c9bb7cb9dc8cadbeabe9da96cd89b6d3a6acee
col40:   f74e87869b567aa74e88bbc766c9bc7a96d8a8ce57b8ebdac9fcbcc8b9598e87aa7bfb9bcd79879f
col41:   a699b7a7a6c8ea777b9bcca75bc894b9895948b7858a9889ca8bf7bebeebaabe87adcd9ebcb9b56f
col42:   daa7bd6793749dcbd5d7a589bc7bacdeb5f99b836c8c5cca78cad4fc6debcca99fbabce898e59c8f
col43:   f9b9cabcce989d9bce6786bb759b89b6baa886e7cecbbbbb8bedd9fcd9b47bcbfcceeebae9a9b8ef
col44:   bacdbf79b99ee9bc57b5c4addac6b98ebb6fbf89d8fb9e46fc7bfccb6ebab8c8a9ca8aacba8a9fcc
col45:   f5b9aa99afdc9a98dfb45489b86aa97bf6cacbca9a8aace9fdbc69ac8b9cab4ccbcbd4ec79a7aa7a
col46:   fdada4bad95b9549cab195968d9adbd8b5aea8ebfaacbd68799acad8e9bddaeabc98aca9f89bbcf8
col47:   97658793b78d4abd96ebe9b869c7abbd5eccfc4d5c7db7dcb9ca88c988e8977bb7797afaedce99c9
col48:   c657569ca77b79a95acb99a99defb78a61b9acc5968ef8cccfed7ced8ab6baaa87aa79b4dedca69b
col49:   a6496a8b9898ebb9ba8ecdbc7b9ceda78df8ebdd79cbcfecddcefa4df59aa28b64a87ce89bfafa7f
col50:   aa3bb76a7bb7a88b9b7bbc78896b78b7c9d9566a9ad9ecbac9cebffe8cbab878b986e79afbeb5b7f
col51:   cfccbbfefffffcfefde9cfc89eeaccebfeecbfcd9f9fbcfefccfafffaeceff9bfdccf6d9ebf9ffb9
ROC:	 BPix_BmI_SEC7_LYR1_LDR5F_MOD1_ROC15
col00:   767dc98ab9b796bb9caeccfedefcfddf9fdfefffdcffdfffafebfffefffffffffffffccfffffffff
col01:   c6b45388327b68b657797657878bbbd799bb9c8b78deacbb98bbecb8c9bdc9bc9bc9dddbccc8bddf
col02:   957144971726642738746847597786b97b8bbbb8b78bbb9cb6cbbfecc6bbebbbcbdbcbcbbbbbe9cf
col03:   e44978b9656477758779979bb9b95b69bd9bbb999ebbd98cb5bc7bbeec99cfbcdbd9d89bbccbc99f
col04:   c749656645656775658677975b6bd8d89b5bb77cbb8eb8be99a79bbcbbbcb9bbbb8bbbecb9accdbd
col05:   a4b574657995573558589b88b8a89b8659b7b89b9689c8b8cebbb9bb8bbbcccc9b7fe7cebcebebbf
col06:   684784557457355544685d5899bd8c9b798bbb9bdd889bcc79bbcc8bbbb9ddd9bbdb9bcbbbbdddcd
col07:   9697946658668b674676b87b9bb8bb9db89699beb78ccabb99beabbbdc9ddbb99ccbbcd7babc9edf
col08:   b46877965778764a5394775979bbf79d997898bbb7c77bab9dbb9bc8bb98bb77ebbcbcb8be8cdb9f
col09:   94667558565546586664788b7ab966bb86b9ebbbdbbcb99efbefbccb9bcbdbbdcbbbc6bbcbdbbbbe
col10:   a7364668124566338778695c779bb9887bbbb8bb96a88ccbbcbc9b8bbcb9bcbbebbf9bab9cd96cff
col11:   b65665877666b6588a885b3b898bbe7bbbbdb887bbb9b8bacd7fbbbbbbdecbbc8cbd996dbb8dbb7f
col12:   a2273566747469897b6754b9747bc878b995f9d8b6b899bb9a87bccbccbc7b87bcb9b8cbcd9bbbbf
col13:   a764184545177846795b799998598578b99bbbaabcb9798c7b8ccb8d7bccadc789fdb8a8dd9b9bbf
col14:   65436974614855844858867958a997888bbbbbbbbb87b9b9bbc8bbcddbfcec9bd9cdccc9bc7e9e9e
col15:   c5836a57665475a786586569b998859b98bcb7b7bb8bbb8a997dbc59bdcdbbbb9ebbc8bbbbd6b8bf
col16:   94536277654468376788965dbb8b8bbb9e8dbfccbab97b99899cbbbeebdc9bb9b8ccfb9cbbbbccbf
col17:   8474553247a6648982b67678695955bb88abbcb8cbd8bbbb6b7bdcbbb5bb969ecbcbbbbd8bbeec8f
col18:   8532343566883858589838764b7a6bb84b958bbb89abb66bc8e8dbe9cd9bc6bbbdbecbb99bc88cbf
col19:   a65456552836447782768679679bb99a9b98b6a8b878a8aacdbccb8cbba9babbbb97babab996b8df
col20:   916732674818577537587376cb8a67b8ac6cb768a899568b889b7b989dd99cbbb9b9b99bc9bbb9dd
col21:   922787564766773b78686556361b8877879bcbd989dafa89babbbbbbbb9ab8c9b8d9ebcabcbbbbdf
col22:   b3764756649978a6388a556776b7589ab89b9c9bbbb6b9db9baeceb8ecbbcbb889bdbcebb9bd8b7f
col23:   b58b65b797575b7b77677987588998b869acc98988ab78b9e89bbcdbb99bdcbb7ec998bc9bbbbb9f
col24:   a6b34b848468b4b6743257785c89c6b6bb6b8bbb688b6b9898cbbbc79baabcac9ab9b9bb77bbecbf
col25:   b6848b9685656688855777989b67bbb896b8b83c76798bacdc8c87bcbca8c9b8bbcbdaa9c8bccbcf
col26:   6466b76b461759966967896b7b9b9578b779bcbbc999b8b7cdcecbccabcdebdb9bf7ccbccaab99bd
col27:   765857577556554bb7565b7bcaa9bb4988a8bab79b788bdb8cbe69dbbcbbbbc99dde8bdcfe99b89f
col28:   a55a573b7376447875848a97987897aab5bbcd79bbdb5d9c99b9bfbdabdbbbcb8bcbb8bb8dfadbcb
col29:   92657894b7444689667895b9d99d8798ca89bb75b9c99dbf9cbbf9bddbabbdbbcbcbfc8cdcbcbdbf
col30:   955458387986737386785948988bab75bb8959968bbdbb9cbcbbb9cdbbb9cbd9dbdbdb7eebedacbe
col31:   c598646865944733566988887a87abbb9cb9adb8ccdbba99bbbddbcfeabdeabdbacbb7f9bedbcbcf
col32:   c63246691645386b486679b99d5cb7ab9c9b9bbbb8bbbbcbbc9bccebdbb9ccbdbfb8cacec9dec9bf
col33:   c566145877557668687568b9b8babbb8abcbd9abcecb89c88b7b999fb6bc9dc9bebe7bb9bcbbbdcf
col34:   c55498842a5845945686b85479799bbcb89bbcb6b788798b9cbbdbbdbbdab9cbcbbbccfce98bfdfe
col35:   e727791686865978473459a9687c96bb9997797abcccbbbbab9cb9988c9cdccb9889dd8bab98bcef
col36:   a765667765257767866197b838bc8a8996c78b9c9c85a99bad988caebb9b8b9fdbbbd97d69c7bbee
col37:   9537636685545658456966997965a8bab8c9977a7aa9bbecd8ccccbc9dcb9a9cc89b9bcba9bdeb9e
col38:   976585146745538665ba88445a886b9b668b8ba8599cbabcbcba9bbc9bedd8cbcbbccfcdebb89fcf
col39:   a47758496728675b677688694b8789bcb68abb69ccb979aab9bac79babcbbacbcbbdc9eccecbbcbf
col40:   d6176898388755687957b6aa7358e8b98c8b69b986b8babe9dbbbdcccbb9b9cb9dbdbacbcfcdddbf
col41:   b359556576587556967678ab7676b8bbbb9b8897b9cac9bbbb98cabbc9dabbc7dbcbb9cdbecedecf
col42:   95476557765653277758488666ba898bd8ac97a9bbbcabc999b9bbccebed8a9ca9bdbcbcebfcfecf
col43:   966774b6b75565768337477a579a789a6bbbb8bbc7ab8bbc9bcdbebbca9eccbceb98cbebcebefbbe
col44:   b9594676987574769698b645689bbab8399b98c97a79acaba9babbefdcacc7ecccbbebedb8cebb9f
col45:   965673566545375845577898a858998b9678babb8a89acaeebb8fabb699bccdabdccecbbdfebeb9f
col46:   86576745653626871757465688886a6b5a898bbb96bc6b8abbcb8caa96d9ccdcabbbbb9c9e9abdbf
col47:   b23844426679257566679c389a78bb79a77a86bb8bb8999dbdabc9bb8ab8a989d8dbddccacbcbcef
col48:   b5633146635874124756775b685996686685cb76b9a8ccd89bbb7a6bbc9b9bce78d7bbdbcbdbdcbf
col49:   646523675824888736b776b897bb8775bca7c9b8b9cdbbdcdab9cbecdec9beaadbbbcbbeedbdb9bf
col50:   89864266235557746878767b57878bb998b49bc99a8a96ae88dbcdc8bcedbcdbbbdcdbed9bdbbbbe
col51:   8c89a8da6989aaabfecccbaadcb9bfdbfcfddffeceededfefcdfffeefceffffefffffefffcefffff
