ROC:	 BPix_BmO_SEC5_LYR4_LDR20F_MOD4_ROC0
col00:   335861652548b55b59565695969738b9b6255b867895aabc5677a6ab97359453a6c49868b4568a17
col01:   a77588565857774b7794ba7a876a977d97959998c89c7d6ba999db797db658c8a4a998b78c95c685
col02:   64758697a766466376a598d989968898baa599759b79c997aaa7a6d7359e7aaa9c9db5a7a6d3b977
col03:   6864577d6279a78ca64b96b7a877c7bba4b668ae9a86a9bbee699b9a98da58a7c96898968767a86a
col04:   7b6799663688b97aa7ba94c779c76a895889a77685b9848a8ac9b8799a88b858ab964a5b779d9784
col05:   8698734bd985987a8698c8aaa844ac9998a799878ae7766a7b996788cc99a9c89b8a757668596b34
col06:   755c7994663767cbc5689b8bb59c9a66798b966c8ca76a3a886a7b98c7d9aa779d86a8889b6897b4
col07:   7928286596a4c79a97a8a8b8dcbbb7aabbdab8aad78a77c9a98c7886778c87ad778bb986bb9d7a89
col08:   547a99aac774547a6688bc9cd88967979b67ab977d95988bdacabd7daaad78ab9bdbd99beb7c9997
col09:   9795e5946676c7ad68b9a88ac74a4985cb83ccca5889dc7cb8b58998ed696baaa9c9b6985e8974c8
col10:   3797656744b665945a697abb5a9489d5a8ab9bd6cb5aea7a6cae38a89cc7986598cb667a96998ab5
col11:   a7a7b6689886887a9a77ce765787a84b9e888aa89ac9a89687dab89c8aa9edb86a869aca8d687869
col12:   56685958c586686d97976a7b77c6b5bb8d59c6d7995c8ebabdb85baedaa8a347b296bc9579ca9975
col13:   8a47688478669698c17d8daca88cb78ac9bb87b969b66d9c8ba9599a58979da99b89a9a979889b9d
col14:   8c8442947c5886aa56a4778aa8daac58ba6cdaaa9899a99abd9cbbeba88a879abb83aa8ab688993a
col15:   787b8768b9a78374bacbe67876a48bc6db995ebdd8aa48a9aba9b8ba997b9b7fbc98b939ad5785a4
col16:   74894676b3d388b9b7b78d7a65b89999aa95b98be8ca8a89bc9997868acd7baa7c488cb879b68b64
col17:   5786569977938965a7a9b8bde989bb78a75aaabb9a93caa8b9b85d7679a9a9789c7457ba7a698985
col18:   7568a87a77447798c687c89ab9929d8a9bad7aa693a89aa79bcb57856a7bac78775b88486c9aa963
col19:   5a48294865a6898999c68a9ab8cbc9ad8792ace8baec7becaaa9b9b779afc7b8797aa97aa87a83a5
col20:   4378774879729b55788dfac85e97b8bad89abbaeaa4889ba89d469cc868b7ba86464ba8bb68a57b7
col21:   8686a9b95476ca696aa8ccc9d7a8496d9ab996998978ce98b77b99bb87a95da9be99698761858737
col22:   497a86bc59b94ba8a989a9a948acaa97798aec9b767c78dc8baa9baabad98ada8989b834618a8a59
col23:   ab768a79678a88975a678a577b89888869bb9779a9d7878acd87dc8b9dbe387a37ac569a6a75a987
col24:   7b6a74677869787888b7955566c7bbb9a9bcd5bcbe9b7d8ba77c397b5c6a8dd87a7aa678a5877784
col25:   69745866c79977d9bb77767978abaa8a7a99a8aa98a9a9aa5ce9f9c6b98a589bacdba7aa7a6956a9
col26:   9a9bbb998ca798a6bcbbba95a8d99dcbccc6dcc9cbbb987e9c5889aaabdecada9a9bc9aa8d79899e
col27:   9b6789ca77b696b87adcba9bea69c8bcbbce89e6e7abbc6dbc8cd6c7b9a7ab9a8b9a499adbdcba97
col28:   d66a6c7a9aaca8c9edc9c9dca9ca7babec7dbc69dadae98e9aabbdd9cfb9c5779dad769b6aaca9a3
col29:   8a98578a986a9999aad9ce96c6ba78a9ba9a8edabafab7abfbdcba8cac9d896a879c9bc6b88b8da9
col30:   a756a968aa6ac87d997cbb86a49baa7eccacdf8cac4cafaba8dabbbccac998ac89bbd9bbbbbab9a6
col31:   a79bc7d96e88bb5da7a6abbbcd896bcc7bbeaccb9a77efdafbccdbcadfd99c9cbcf76eb789a778ad
col32:   8c6baaabbb7c99d4b8acd86a8d89d8deedaaa98b9dfdcbb8acdb9cccd9db8cbcfdb9f7d9964c87b8
col33:   6a9a8b78a7889bb8ac988b7578cd7cabad9cdc8d9c6aac78c8cce9df7efcbcda7b8adba59ca6bb7b
col34:   bb9a7ab7aca88dda69ba98baceecccabcaabc9abdabab88bdbbbcf9b98f9fe8ee798daa99b8a88a7
col35:   9bfa998789a996dae97db8dba8badcad9cbeeffcddba8fbadbaeadccdc8dc8fa9aabc8cbabaf8678
col36:   ea67aba869876b8dc698acbbfb8ac8abaebabcfe97aea9c9bd7bebcbddbd7da9dcc8896a67a8b9db
col37:   9a89b7ab75ba999adbd9baa7dcddaba9a9aba9dfcadbca8da8cafcddebdea7fbcbf8a6daab99a99b
col38:   b6b7888dbcbb9aecbe8f8bdbcedcfbfacaeb9d89dbdda6cdefce99cecfc6c9fabb9c8fafc99afa86
col39:   a7d9a96987d7b8a86caa8ddc9db9bdbcc6fed98de99ddb99a9f5bfbdd9798999ccdb77a8be78a7ea
col40:   8aa9d8e8decbcbadaabadcad9fcabaddabed7fdabddfeeedcdae9ac887eddccbaddcdbaa58c8c9aa
col41:   bbe7f8caa9bbadc7aad8ebaac9eba9accae8afdcf9ddbca6dd8aefc9bcddccc9bac9ab7ac8dea99f
col42:   d7a89c898ab969ba6bb76cd8a9e7fb8cbdbdec6bbfbd8b9bcbafd9aabddbf8c97b7953cc796789d6
col43:   d989fcb88c8beafeaab9bdaad9b9ca79dbccddddcbccccdccefdbeaaad6dc7cab9dab99ba9c5bb8b
col44:   954c861b89d8d9bb7cbcdc88c9dcbdbcdcbfccfdaadd8eeaeccdaacbdafdbdbb8c889cac768a89a8
col45:   85aab67889ba5a7f889a9dc8bbbabef8de9e8dbb4dc99abdabb7dbdcfaca8d7ba9a8bc6ea8ac7675
col46:   8a8ccd8aca88988a8bab9c88caccebcccf8c8cfbe88abdcacad79d8fcbcdf35ced9cdca9a9b758db
col47:   97b599bac9daaa877cbe9a9fabcdabfc8bbdab9aafcf77bf9cb8b8bbd8fe8cea9cdcdba6eab98aa9
col48:   b8899c989c9b6de7ddbc95ca7baec9cd9d8fccaa9cab8bdbbcad9ddcddabc6b99dcabcab86db9c69
col49:   b896dca69a9ad89897ccba997aab8cdc8bffffb9cedfadcca9de9ffff9dbc7cabf9aa7aae99a5d76
col50:   acacabaaa9ed6aab6aac9decebb9aacfabdcdda9b7ebd99d9ed6bc9bbddb8cbd9ca7ba7ecb7b9bfa
col51:   679b9a6c86a878669626bcba67c8aa79f6dc89bd898aca98b74cb28958b3bcb89a77b79999ac9b97
ROC:	 BPix_BmO_SEC5_LYR4_LDR20F_MOD4_ROC1
col00:   7d38ba758ad9c88a47b9a58bec99cd6a799ca7876eb89bc7bbb997d5c9b8a687967d74a856bab698
col01:   74b55eaab55a7e8b78e7ebdcbd8dc99d8febbbbcb9aecbedda878cc8baa7be9867f89b3dc5a478b6
col02:   79968ba98c98a8baa9c969a88c95bd5c8fa997e79a9f89a6c8ddd996bbacab99a7b6cb7c95c9b9d8
col03:   58ba78897887b579acbbc858d98cbfde988ffacbfb9aebecaf8dccb8ad7f6d6d9ca98d6d55956b65
col04:   7baa2c9badb5a7ba9b899a8aaaa6fe9bd99ac6ccad6b8beadfeafaabe165ed9bca8a98a91facf897
col05:   a784d8aaac938bdbaaaafdbbb897d9acac7bd6fdc7ae5aeabcfbbc9abfcbc5e99ab76cbc9677ac76
col06:   848a27b8c3879dbe9e7abc6eccb9dbbfbeeecbd88dfadbb9dc8fb89debdad78869ba588da7986a74
col07:   66ad78b83c387b1cbe86caa9679cb8cd9a9b88baccfb27c75ab5fac4aa98a78a9c57d7b8895a74d4
col08:   5788877b96487d9b79cad8bbcd8ac3dc878afcbb96896c899deac9bf8c9ddc9dfca6bcb7996b43a8
col09:   89a8ab77985db4ead7999bfac9adca8ca716f8cbfaaa7b3cdacabdcc68db8bc8af67568c89a8657b
col10:   868abfcbb97aaa987ae68b77acad9aaa877dbcdcdb8b8d7b8cb9a6cbcfbbc5bab6b8ccab6964aa44
col11:   a7c69597ab9fa88aaa98bdba968b568b5ae87c87accb8876bcbdcdfebaada759ba9797a77467a768
col12:   7947d69fb587589d598abc6a8a9a868cad9cebfabbadecba5899c9689fa6ab8ac789caa48176bf49
col13:   5897da469aa85bd88a59b88b7f9acba9e6eaadc9cf5e8cc79d7f7aaac68a8d9daaa8a6aac6687758
col14:   84996775c5b5cbdd7749b8d2cc6beabcf5993d9c9bbbe5588b8adb7ed48b8f9b78b829997726aba6
col15:   b67a967a86bba8cb1d8b5c9abaaaedecbd7d7979ab7bb9ea9caccc9d9999aa99aba9d65958667875
col16:   8c398468b5bb9b6b4a9987ca8a6ba3d9b5bfcf8bbcaaba8958d5aeb6ea889b66b9c4db9c83b789a3
col17:   488348578868bcaae78fbbadd9bd95b4b68b79a586ffbd99ad776dc9ba79b6fdd78ed344a4795771
col18:   59676778cb86cddc778935fbc9e5965acbbc9ab7acddb9a5ab879c55d9c96b777b4b8ac86c5a4488
col19:   8554637868bf86b577a969866a758b4b56d9a6dacaa7986dccbb99cf699cbc97b94d7986828628c3
col20:   9486e46d956e6c89359987d7daea8b8a8b8d93dcd9aa7aa7ca599bb7ac99b8cb6b2547b61675ac85
col21:   1ae8a348ca2b8679c9bb6cbbb698bffea77b8a4748bdbc8b88c397ba98bb79997959887b985768af
col22:   5457573bba5895a97eb969a899c7adad7cba9999b65cb9f84e7cb98cda7b9d8b5d37abab8a5a4575
col23:   58b47aa71981c58997aa8b9b7b59f9a787b9977c81bbaa88e899689cb9b7c7978bc7b873d7832a76
col24:   998899b978bcaa98489d2a78beb979977cc9acc77caa6b6a6ffa5d9bbccd5cb9dca8a695a5676867
col25:   589675679bcbbbbae45b36885c7ba5b895cdba7dbc6a8bb6778fd8a59bb9e49b9a7b7c7886979875
col26:   447aac877a79f7aafdbbb68aa7ac99d96dabbcd8edefabaa78cca8d9f98ceffcb7a8ac6bbbbbc3d9
col27:   9b9b7f44dbca99b99cac8cb9979c9bde9798d7a8ccb9bccfbcbbdaadb8babbababb9aa8da9e968b2
col28:   38766d778bcca99f9b9a9ba5cf998e9eb67c98dbac8beda99aec8dfcde8ab978b8acea99c6999d7c
col29:   7b549abc79aaa9aeca87abda997ced9badb8cd9bcabf9dfef9d7fc59dfdfbfba6b9999b8dd58959a
col30:   2c6887ec998accc99acb579c98acca8ab8cadcabcdcead48dabb89fcbb77adc9b87c9db668aac767
col31:   ca87c7a5bceabadcba98cb9aaabb7ebdba8cd9cda9aaabe9dfbccbbbbaccb8b8a6acb9ed8ba78aa8
col32:   894e8a9b8e98cd8cceaeead8db9bbbeb47cdedce67ccbffbc8cdefcdaecedaeddaafdc79cb888499
col33:   a7697bbead9f2d9b97f6d6cfd7acc6bbdd89be5dc9edbac8bfff6a8febc9b9acad4a86ddfc757989
col34:   b6464649787d8a64bcac68c78fbaba99afc4be4da7de8fcc9acafcd7b98ae9afccaabacda8ad838c
col35:   8a998ba68999e974ec9bbeaa7d7d96aabdb4faecedfa5bcbbb9e8aafc6c2bdfb8cdbac9a69979ba8
col36:   79e7cdcab9e9d788da9abaabb9afeda69accf879ca3abccac7beacbafbbf9588c9bb94a8caa85766
col37:   a39494ab9cabbaadda7bfb68a887cca8ed9bf75adcf8ba9beb4eabebffacd3f87eaaa8a869a84bbe
col38:   6cbabcfa79cb7988cc899bcabbf8cdaeccfccdcb897dffa9cbe8bf6accbddfeaa7bdbfea996cadb7
col39:   967a48b57ae9aa9dafbc8aa9ca9ceab9ecaf9da9bbbcab9abfdd78d99a9c8889aba7b988aaaaab59
col40:   b6a64d9b7cbdc8ab49dfb88b8cd99afc8accdc5bedcccadebbdbfa97dddc7cb7fad96cdb5bca7675
col41:   76a8a7dc5aafe57878945decc8cfbcbc99cb8cc9bedf8ae9b96fddfa997ad89898fdcd6baaa94b96
col42:   cc67d6a7c5879b97a95fa9f999756dcdb9c9cbcb9ab8bacfd9f9be9bccfc996bbe9cb9778f67a9d9
col43:   969c89cbccd9588bacb3cb9ba89aa78fd99cf9af9da7ba9dc9b79da7d9bdc7baac846d89a7798a68
col44:   9555b98da9bae9acb74cc6faa9bfebbabfd9bcbbcb9cfffdf9a9feaaabbadebdf9abb9cbca377aa6
col45:   b96a63c9bc39adbb98fde6b78b99ffd7efec8dbdcc8ddb6dddaddbceaccffb84789a98ab47799998
col46:   8489786a8799b58acfbd8bdaababc5bebdcd967ac9bec9acb4cc486c78b6dd6aa9da868a9c97a98b
col47:   5b8c7dd89ab948965dec6c8a9baa8a6be9bb95ade6ef9fdac9d7b77d8cbafc798b7cb9cf64b66837
col48:   ba388c457869a98ea988a74cfba88ad9649fadc8ebbbbde7c6688abcc9cc964de8b89d76ba9c945b
col49:   5642967898c82b6a2cb2ad8c97a85c8baabb4dbfcacb8bbbafba5b7bc7bbfe7968efad755d6d76a4
col50:   3765bb64c89af88c9c8c5ab867abba9788cccdbeeaedeef55a6dd5c9f9d65b9a7fb47899ba68a85b
col51:   4479769a34926827a6799c5be817bb48d98489e7a7db75983ada56877bdb688376537c9496576682
ROC:	 BPix_BmO_SEC5_LYR4_LDR20F_MOD4_ROC2
col00:   7b67baa5d66985797aab8957c9c7b96a9bbaea9cbb9bb789a999a8bb9aca7b867aa747a44378c474
col01:   ad48ac776ab7bed98b98aababab8bd687d989aaaa68cbbccfc94cb75bc7ac99ad76a77775b578aa4
col02:   7895885685c898895ad8ad98b9af6ac9caeafd899b86be684f8d988a4bf6999a983a72a964a44a94
col03:   9592f9699597c8b89dcefaacc996a9cabe87ca9e89d8acae8e99a9a9bd879f975c98789d8a685658
col04:   399c8967d896998acce9d9aa89dabeeaabcbe9bbbda9da9edccaba89dfcde779a779285a9959a855
col05:   b6638959cc8eeb97c67fd6849aaa9684bba99b988db9e9aaacb9db8888ba9ab88b5646566a68a958
col06:   d77d9bb697a898b969ab6c99d8bda9a8cefaabcb59bbd7ab6ca9aacab88ab99c7bc89698a8497ac9
col07:   7b9aabdeb76cb8be7bdad8b8a7a7edaaa8da7bfbc9d8b9d7eaacc6d898a77aab8f7987839549ca65
col08:   b89b67a9b8b878c769a7edbed5debaaf9c7cbc7e988ca7bcaa975c8baf7c839a7a5754887788ac78
col09:   6778599a98f99d96dabbbebd98cb85cbd8d8a7d8cad99bb9be8ec3ccb9c5bab785ca85b7867b7787
col10:   7969a9bb999cbb97ab4dbaa4cab7c8e6799cc8cdba9b9c9c85b87bba964988768496b9a89987a99d
col11:   69a8a669979ab7c9aca59abc7989878cd8db9a998d9aabc8bcadbda456ca8778c6a78b64c79549e6
col12:   6495c89babcb7ac78786fecdcbbb897ac7db3b8eecccac99cb5d6bcaa54ab885878977846a6ba6a8
col13:   5c9848eabaa776daa98a84adaac9de9c9fd8a98cfbcb7998cda78d7c5c4daa899d5a6bb97a657699
col14:   8bb79ccbb99b77b9a9bba79a9dcad98bd9c789b4ca999abcba89ed7a998a689d7a87ecac6788963b
col15:   a6aa5a69abb8ae8358a96a87aa96badaedad8c7c8c899ea87a7ea6c67c4d79a58a9b8a83982f7853
col16:   87999887ab5a75b599b89885fc9898edcbda7a98abbda599bbbc9d8a9c5c9e8da6aba58d89a69569
col17:   85266988c9a9b8689cbacb8977a8db9e65bcab6976b9968677aa7abab675b4b75a7778d4a7566786
col18:   72988859a479c874ab48988bc99ba99fabaaafacdcc878a799a9bfb786c6dda69966aa2428b64b28
col19:   6a89458399a867d999a9677c9b8fc88dec9b8a8eac998c9ae9e5c8979c5783b755878a84349838a4
col20:   a88bc92bb989877b8a55ae9c96c985abb9aab7658aa5c8894c9bcc87dba9ea694b7b9794285c71d3
col21:   8983bbb5eca598a56679db6cdce97f7cb97aca9b5b89a96989868cabd6b9b96c7958668ac558a462
col22:   bb59967869ba68795789987a7779bc9c987bbbc8bc8acb7db7aa6a89adb7769959aa665da989a679
col23:   6699c76598b9bb6965bc9aa89e7a9dab8897778b5397aaca9a597b95c59aa9b8b799896999576245
col24:   99579aacd8ad8ac7dd8c7686b8a7edc9a99a8adb9a76aa9a7c89bb9da66ab578b4a7676875877534
col25:   78a99469c1bc9aa58bd9a8a9984aabcd9ca85c75685aa8ebbbacca6a38c96b996d29b69689b66773
col26:   98db6cbb6afdbac8cb8b7ebbdcbdd9cdc9cccc8acd896fc8dba89cb7bb9ba88c8c498bc8c679994e
col27:   5a978b7dabbaa69ccc79edcaa89ecadf86bbb7b89dbb9aaaa88aaab5998aebc888a7aa87c598cb89
col28:   abbdaacb788cbdd8cfcbdbfaa9c8ee9b8bc4c68e9ad7fc86ea9688bdc9e8dc8d8cac69ca88a67796
col29:   96b8c598c9cf6bbbabace99ccad99f77ccc98a8accabbdac7ac8684d68969dca987a9c4389278989
col30:   9979db59636b99aceacadbfdbadfdc9edccaca8a9d6dbb8bc5d9ba9caca7cdad693acb6bcc7a798b
col31:   9a96cbc68bed89baad9acb68cba889dc99dc9cc8dcdac9cb9868cc89acdcb69aa9a5e9a77aa969b7
col32:   c6c797ac5c86ac9869aaacbefcbcd9adcecbdcff9aaaacdb8abccaf957aabc9cbbb9dab8d5aaab69
col33:   47dbead9bba4baadcfc8adeabccbcaedbbacbacabaaac98598cace8cdb8dbd6bbbc8c66dd7a86a38
col34:   3bc99f6bb8aa7aaabcf9b8bba7fd9cedaa98d89f97a96db9cea89ecbaaabc8eb88b8989a585b9995
col35:   9a8778bc78869a87cf9ceababcf9d9d9a8dbcdb5cadc8bccbda8cab8ac8badaa69ac98a97cb597a6
col36:   bab587eaccac5c5bffbd99bac9bcbedaaebec9cbb89aca9cbaa9dca8ca9aba5acb9cbd6ca999a998
col37:   9888a787cb7aaa8bd9bb7ab99ccbffcbcca99cc99efa8c4c8c99ece8bbbe79bc6a99b9a79a88a6b8
col38:   b685ae99becbdc8c9dbbeebacdbbbecfceab9efaadccacbde9a9baba9a9bca98ecc9a9d7b1ab87c9
col39:   ada89da8b7b56bcbdba8cceabacc7dfbb6ebddb7cabbbbe7ccddc9cced76edb5b8daaec9985b5a97
col40:   8ba7bdd3a97adabaac8ba68dbbcabe8df6cd97ac9f8cf8ddedbd8e8aaaabe7c9dca7acb8a9a398c8
col41:   56c6a58cadc7d9eabbb9cac8cdcc7deba7cbeaa8af7ca9ba9caebcbcaa5abb98bcaa9a994998ab78
col42:   aedbdb7a9b97c6bddba9be8bde9aa9cbaeaddbe9dbccf9ddebabad6dfcaca9d89cb998b7a778cc5a
col43:   8cba9ae76babc97aba9b9d7fbcb759ccaafcada99ddad9fbadbbaa8af7d6aac99cbcc85a8db96aed
col44:   8759eac9a576b9c9aadcd8efbb8ca87f9e8ed89abc9e5e97cc9bba99bacdce8bb99a78eb96a69d75
col45:   988dc9bc89dbcbaa8abede8cafda6a9b9baaa8a85ddbdeb9fbf9eaa9cdd99b9a7d8d6bd954aa8b9a
col46:   8d6eec7badbdadbdc7ffcdeaeabcdadb8b6dbccdc9badfdcdbaeb9e999eccc998a97bbda97c99bd8
col47:   6777a6788a65713c7c8ada6eab9e9ba979ca9cba8d6cedacca88ddbe8e7cbb7ca7a9ab8dbd79aa55
col48:   ad8d877ad5aabf8a8cd9bf7fddeaeb8eedacbf8de967c9daebad6a9cbbcb9e9ef9c99a7d49caabc8
col49:   b84aac869ba38c7aac7b9f7b7ccafb8bdbb97b9b9addaf9b9bcdbca89abff9f997a47cc96768bca6
col50:   6bbb88baba8c6cbbca9be9bbac9babbc9bbce7adbd9e78d9b6ff8ec8aeaebecabdac9f8aaeb989a7
col51:   94bc9b756b8597b16879bb96a86a78868b97ac755a77756c96869986b1aa78ca785378c39a452892
ROC:	 BPix_BmO_SEC5_LYR4_LDR20F_MOD4_ROC3
col00:   26464c752664178539455889234515b917388245973b665a856965b5996c594463564773141651a4
col01:   447748467869678b89378cab54ab387999a179cd686dc78baa8786c6cb863564c18935789da98a94
col02:   566b7167489888758b949a4a3a64677ad76b6747b78c98a36596a9a75b4bbc7abdb8c53486584245
col03:   a887684553949974887c27b87972cf7a5a9959ad8a5789ce7276779bb6a89b618759543469979a89
col04:   a8925868998854866b9ac49856a78a84898b83a83b2ca7c9d9b49a779b87574554698c649738a556
col05:   41255d8c6b96666c3887753aa8359a864788b5339789e76797779b979ad794c8a6987971aa585593
col06:   39969bc7489a9c29568a6b75be69688477a7a94fb88819848c8a9777b98c55857669548a45969376
col07:   9b6638544a39a8952736989a89987ba976d7b97895bdca8d9f99885b87dbb6818a86d275a8c8c692
col08:   5462558a6ab49349736d65479a75a86ab9f88797999caa6ae979497ac676c97a796854679a75351a
col09:   865634435678657586b9648a866979a9a5cb9989b6bab8a8b3bc1a9874bda787a4bb9b7372566c32
col10:   892298785a5b9597c74b8877937aaa777bd7cb8d885767789c7986c8ba96a5b7778a7766685ab573
col11:   45a668779c7ba7515bc9999bac9bd57a6877aba9798a8f8cac6b9ab9a4872b7b4b45655887687861
col12:   c654655848685477c785c97978a94997bf89577678865a388a67a9b6b6a84953667c655943377d39
col13:   67759b5768b96d8496b667899474a97bb6e8ab9869b97a7ac8978699aa7a8ab68845b747844c84a5
col14:   848d6a978398556bce985b7469c769ca59ab777b6caaa5796793cecc89877a75876979947c94b426
col15:   4588a477857a565685778987c7787899a8aa98a95c7a5b867a9b886a5bbb7b5867586bd289478613
col16:   6b58436896897a9b6968495c7f879bc65a8b9a95965b59da5a964e6b5d9c897aa9399c67655379d7
col17:   55a626469983669aaaa64bba658ba96bb7b8b96d97aa9b5789879b7b78d5c83566a653c555895587
col18:   9582615968bb774792768c765648b6d8b75ba756c8a7986b645aa7bbb42984896bb9c8635aa37996
col19:   77c545899854a9789b8599c3b65689799a8ac86a969a8798b9a3aec69ca99a9b7a4b4a98a54b77a6
col20:   4456c61887c899b7b84a496786d879b59a9749598a767a2867b8ba76ac7996bc679a694745574789
col21:   474759566c399699aa6996da6567b79677a9b36c85977b9c9677b4989b8b79567a89987cb9959998
col22:   3a66ca95a873a7b867b8aa968a9f7ba8e7e888598855bb58c9b73b9b97c98abb99ab99ba498798a7
col23:   8c456a749699a37b8fa5867a7a659d679692d4777a9d79a5698ad87bacba8c888894552a477997aa
col24:   3a6457917948559aa479eb7cab8a97aad897986c93b979b86a99bc9aa4c875696777c86c98cb7772
col25:   773b378879b798b7a655c6877be6aa78a5b5e86dc7a878ab6bf9d89a9986ac49ea77b1a79a46b36b
col26:   93986a856ac9bd99ab8d9cc7bc8589f9c8bababd89bcbecd8998c989aadbaaa9a9bd7a974b8ac887
col27:   a86b59a889bd6abba1ba968c8da68c899ccabed8d7777cabc775eacbe9d77a68a7a9c877ca7ab9a3
col28:   8d8dc77a996ac995adca8c99a9bb5bc9bfbd99bcc8abb8bfbdbcaabcac9a6eaa47abbaaaa58a7986
col29:   a6966858885ac94dbabecb7ed9a7c6bbb9c7ecdcab5cfdcd8fa9c88cb79b78dcaccb7aebc957bb97
col30:   9a9baa8868a9863d8afc99bb7aaeababb89b5d8cacdc9aa9bc6bbbaa99c7f7cdda9ababa797b8e47
col31:   9c78b498aef5bab8bdb9ad8dbbacbc8ccbcd977ad9eabefddabaaa89dfdeb6e8bb8669967c8a3cba
col32:   9ac9bdcfdec8bc8d7b9d8bdecd9adddda867bcda9cbc9fb8a8ce8bbcadc6d6ebdbbb8cb9ba687978
col33:   d376998aa4b984ee9b9dcb79668bcdaaedafeea98cdcbcc895e776d7f5fa9dd6a49bd779a7998794
col34:   9c88afe9bb48abbcbb98dba9b899b9baba5bca8babc9abbcdeeeadbdcabbcbdd8bec99bcdb7df8b9
col35:   3a9978889ce98ccbcbdcaacccc8cdbdcf8cabfec6d7da9bbacaedafb96b9cbc7c9b4f69999976786
col36:   d89b85975a97d5e9ddca9ba8f998b9cdfadc9ac8baa9fc8eafed7dc59cce8f8bcbbda98eb6d48a99
col37:   78a7be8f89baacababbbfcb9dccdbcdeabbab8c9cbc8dcddf7ddad97cbd98afaab9baae9876b9998
col38:   9e7c9acdabb8dcc79bb99bcead9dcd9e98fc8e7df8e8999aacf8cdd9fcdb8dbfebc668d95d8a684a
col39:   6a49c97b9b99bcb8a79cb6c8cadb7e7ecaa5cffcfbebacabf85abaeafb8ace6766d79c7978a88a75
col40:   a588c9ab8a9b959ccdabbc9c7caababdfbaedeadc8fa9f9eedaf7aedbec99b7bc8ad6baaf998b984
col41:   f979b9b98c9bb868d9beefcb8aeeac7bada99bdeadcebffbecdfdbbbd9bcc8cc7bbc89b7c8b89aab
col42:   78a986bc87478bb788eaaadeabbcc9e9ccf6e89c9ccd9ffadcfadbdfad9adfaaffd7abbe866a999c
col43:   c6b8bcb87998ebadafbbb6efeccdbeccdeeffcfaafffb9eedcfdcebd6bef89bd9c8a8ccc9a9ffbc8
col44:   d6bbcca8a99a99b8a7cddeb6ab8bbfbaafcefddeefbacf7ddaadcdcfababcd9ccbadccbc77abb987
col45:   6b98998b7b8886c6a9aaaadfbaddabbfeebdaa9ed9acb5cdfbdcebbaf9dfb9d75aca9bb8be9eda7c
col46:   eb79a77eba77aacbee798cd6dcc7ebccaebc7b8eefaebbcfdf9aaccfeaefdfebd9a994ae979a9aba
col47:   696be9c9bd7a99ddb6babdb5cbdeddbd7f9fdddcc9cbbaeebcccbfffc5aeca8ca79aaa8dc7aaad69
col48:   88c59fa6cd88aab9bccecdeaeabbad9a9ddc9decdfcbbfacecfba9bff9ddaaeabc9bffa95c99ec54
col49:   8ab96a785abacf8fbbdfdadcbccd8ada8be9fddefddebffb8faac9bcfadcefbfccda9baaa7b9c99d
col50:   bdb876b9abcca7a99ccccbaccdcce7ab9cbdcd88aefcddbb7d7dfdd7a999bd7cfcbada6cc8a99d78
col51:   678bad948ada9bc48cb73eac4bc97a8889c8bb9abbcdbcd4fbacbab9aadc4a96aacc8988fb848b47
ROC:	 BPix_BmO_SEC5_LYR4_LDR20F_MOD4_ROC4
col00:   6446647a9669a66a79baa89b8c99f7899b8a67bbb7998b9bca88a989696daa787987587756498972
col01:   a55699a77aa8dd7a9cb76b7bcabd97999bbaa8a987cb8897b6999a67be8857aa89ac9bc678866898
col02:   cd5b785ba9c9b5685867cad8c9ea895ed8c889487a6d8cbf5b99aa8ce7bbb9889a9a96d2c4a9b955
col03:   99b8a9ab9777bc6aa8a7b85a9b47ac87e7e8cb8acbcaa7cd9be5d8a9ac8789749b4a99988879e978
col04:   d69a98c97c99579378b989dba6ca89daf7bdabba7ada7e879c75e9996ea78599ba6666b879b8aa69
col05:   b75996b59999779de93a7abbacb97eeab98a9d9dbafadb8aec8a6ae7a9afaab89ad8cc79c9ab85a6
col06:   68d7959ca7d587668b7b6ce98dabc89caaa78bddaeaca9c8bbcc9abdbcebbc9b28a677aa87946998
col07:   a87d8ab749c658a67d3fb8cbbc7bbd9cbdcaacbbb7d9dcc6d98986d59cfa799688a9a88bc48a8793
col08:   49aa76777689a95a6887caa77a99ba899cc9abc697ca9a6c9979ae9b67dccc7ab7a788886b9b9a97
col09:   867c4699a99c9a946abaea5c9d79acbabecb88caacfa9b99d8a6bdc75edec58ab7b9977c3ab97a56
col10:   88795aaa77b7997888978379a78b7cc9ac99cb7d4bc5c98c6cb9989ee9b98e9dc8755b7aa856777a
col11:   76726a48587968f8aaa99a8eb7d7a99a7ad88dc89c7aac98baea89869e845c7e4c995589989a9985
col12:   77aaa977aa79cb6b6a9c679cc98d9bbabeb9ec756c99a57eb7b8dace77ceaaaaab8a667d66a55996
col13:   9777c496699568e89ab69c8abce89ac8cad995b897ca8eacbacc69bdb588ba7a65b9b5874c636778
col14:   97888a35798c999a98c6c68bd9a8daaccd7abc98dbab8b9c87bd99978bdaa8f678b8b547677778b6
col15:   5794676a8a8d8c7a9e6ba496a77aa9b97989d7b8a9799bcab6aa7b886cca77eb89a9eb9d8c7ab979
col16:   7595b589a6788f5c98b9baa9d8b9a9c889eabd8a6bdabe499699dab987abaca9eb897679ba7a9728
col17:   4a66769b3c87b4a78684bdcbc6de8c4d678abb6b6baacdf59a7a78e7ab5a6a779ddbb8aa69a6a567
col18:   7aba3baad89c85a5bd7a9add189898bab9879bb7ba9d57a99ba8d799bb7bca5ccdb7457a9a6797b8
col19:   4aa4589a998b8bcb758d48ca79adbb7facbe7968ca96ab7c9c8dadcbdaa7b97cea779dbbc7b989c7
col20:   769797886a59b7ac858a7b8a9a99979a9cbcc59aabdd89c99ecb496dc754abacc7479d7a6b9a959a
col21:   926854b97a869896a866cca4a89eaafaa7cac9ab9edf79cdbaadaf98ae8974aabd899baa7a5c6767
col22:   a776586787aa864ac7dcb9ddbc8999adadcd78ccdc7cbdaeca88ab8bbfcb89874db7569aa9716d6b
col23:   9276768b6a6a7797a84eaae98789fc977b5ac6a77c9babaad7d9ab5a5f9a97e5788d88b77a819597
col24:   78867998bc9db88a979787a88896a6b99aae89777a9d888c9899c8f8bae7bbb9c9969848b4a9bbbb
col25:   7b8bb7a7288ba9686b9c59bcb7baba6c9bada8a7dba9bd7c786bbb8b5bcbbb8b7c9fdb9a55538764
col26:   ac5a78b999a89e9a9a7c8bed8acdbc999bfbbbdf9d8c7dcf96cbeacdeac9b798aa8ac7575c7c4be5
col27:   698c5bb7d67a8898529f9795a8afbda8dc99b8cbe9b8ea9bbfaccac979a8b968bdfa98abbba95a9a
col28:   7999685c9b9e9b6cf7c6abebbd7b6decf89dacffcb9e9eeffebccafdabfc99ecc7b98eba999a76ba
col29:   9eb5da97a9bb4fcaa6b9cae88aba996adadd99eaba78cd989e9cabb9cfb6dbb7988b9bc89d8a7ab6
col30:   8a839d48deba8aba9dadbeeecaacccaaacd9cbec8bfb65dbcb9de9adcaddc96cd9eaa9aeca9979c6
col31:   d997aa9db8cac8ad8badaa7fd8b9cbc7bcfeeda9f599dabfdabf6cbacb3cd6bca8aa5aaac9b66aaf
col32:   c6aabd9cd88797aa7699bba9ba9cbadcea7dbabfbbce96b9dd7dd8be7bcd89f899dade997a694a7a
col33:   aa999a688aaccbc7dbadd8dd7bedccb9abbbdcefbb8a79bb9da8a9adba9ccbcadaba99888bd98a8a
col34:   899b78749bbbbbbaa7c9ad9dacdecdff9beef9dbc8badbc9daabbdd7aadab9bb89ba999dbc87edb7
col35:   ba7c59da9cbdd9bec9cbbfacacadb9c7dc9d8bddec8daaaab9e6cf9d8cdbc6cab88ca88d76bb997b
col36:   59b88a777b97dc98daa9dbdfbfdcbdfde9bc9e9cfabd8ceaa7eedb9ccabbadccfcada9dc7ac96f8a
col37:   ab81a97a49e7d9e799da98ccdaced8dacdcfcdaaaefbfdbbe9db9ccdc9889dcaac99b7999a99ab4a
col38:   989bc8c78b8bdf8dd6cbcac8d9edd9c9becaaedbbbdec9acdbca9ebacdcbdb9abaca79abcaa9eb67
col39:   bcdac65f9bdaafcdfbbbbbddbedcacddfd8aaf9dfc8bbafeabdbd98bbddbcac7ebcbda4a8c5a7989
col40:   889af9ed6d8cecd66a7cd6a6cbab6ebbdd9e9dc8ecdd9ddcdacbfbacacae6effd967fbabfbac9cb6
col41:   b787abb9bacbbcfbbb9fac9decedcd8defcbaabbbbecaacfcdd7fbbafb97deab8fcb79bb58dbc986
col42:   b9c78daa7a9acabcbd4ea8b99db7defbbcddfc8aaacccbdb9b9beccaacbbfb769beaca9a9b597db9
col43:   8e7d85797ecbbcbcedb789bcb9dccccaddae88eb6befbeaf96ab7eabfdacdd79ff8ae8aaa9a8e7de
col44:   d76dcfb67cba9ccde899eaaedfcebb9ae7afdfdfbbddcadad99abdec8cccccfd69da9f6ebba98abb
col45:   a7859c87ba8a9decbcbbbb9dfdbbdcaeb9e88ee9fabdfbcda8c75d9ce9bbbc76ab9c876a9997ba89
col46:   968a9c3af7caea9daa9d98babeeca9ddedbaccacbdd9ea9a7bcff98ab8e9ac4c9b8db9ba8cf6a899
col47:   a9b798bcebce97a78b9bbe7b9c88d7cba99cefdece9bddcaf9abe77f79f7ff7ee9cbabb7abac7664
col48:   aeba9dca9e85aacfbcc9ddaffbc987da99eacca579e8d9cfdfac9ec9e7cac9b979acac94cc6b9d9a
col49:   aa76b87ad9997768ad98dc8dcba97bdbdeb3f7ded9cfbeca8cbaa8cfbfbbaee4c9699f7a85b7ad54
col50:   8a9dbacb8aabcb59aac79fbc9bd8ab8fddabcccaefdccdcadb9ccbe9b9dbdd98bbb8bbba75c99bb7
col51:   8648987969b5b92c475c7c7dea9ad69699bc7a8bbb8bd7abb8568a7c8ec7dd748867aa9d79726656
ROC:	 BPix_BmO_SEC5_LYR4_LDR20F_MOD4_ROC5
col00:   2612245651555583b7643a9a76a5c58577957376a2c5a63a7335969685a841455749345344133592
col01:   44545838966767b4589599c89ab7887a5c457a8a76957bc4a9aab798aa7887b666b8947368896b76
col02:   5556167726898d75848997a58863a6a886977caa666a967b725aa9a98967838a6a79695ba9ab4458
col03:   756726924778a78358669996d89a68a99b5acc9898bab67d896ca9a9b5a6a7278a48337a87671677
col04:   8797375946288678c999ba5a4c377a85977bdb8786b65c864a6886dcc5468c8d77898aba69747567
col05:   44747647b96f87769888ba693baeab67b4c5b7a798779a878bb97b89849a8bb69776574733b88888
col06:   a5537b97777b7577748b955a8898699b884ada8aaa7b949b3a8657bc7498b95968898795758584b8
col07:   5989157a7767b97ac7b7855897669aa7c76399b8958bb7fd99789ba9cb98d7a46395c7979a765669
col08:   64b688b7955785899a4a66876ac6896c69af6bec87c6c999a6794a98bc896ca978c668789d968749
col09:   8527a7cc5576b6397a59b77c78e79b8845a69b5a7d784aab66b9bc9a6bb7ca868b893826aa438655
col10:   7b9b7a5b996a268c778279c68b8ba4779758bb89a748d54955699a8ca789757aa875695a596c7647
col11:   65a75b94ac86899988a58769fd4ab79c98996699c963a78788bccb9a9bda9ab7777b899357878894
col12:   8a7998448a8c98a8b89985b9d6596566a799b697989a7b8b9dc98c99f579c9827779a69634997414
col13:   665b6678c6a9a9857c98a6c9cb96ad94ba9a8989b9b8c98a7cb6f9a97577ea5899558a9ab4998763
col14:   55a8786469859779677a7e48677bb88ba7c8e9ba8acbb998acba57698a78b677ba596a879c667879
col15:   5656577a395988a87c4a749b998c66d79a879abba59d79887889a7698b9ab8a99a8587678678a765
col16:   9877b885876a499a89887b3bb988799dda9c89bbb789ab98ac9c8b9a689995797d788b5759799836
col17:   a74b937958a47ab756a9e73b5ba99acc6ad88bc9849cad7cae57aa599a89aad3a7bab478a6475582
col18:   7b87999864aa878769798c98a66689a7c7ab7aaa398a998acba69d8aba98ac797859677b85879654
col19:   c865789d78b97766bb7b979cc98d99ccabbfafac6978a9b7a98dcea9959999ba67da468988786897
col20:   9664757b779a778972899a7e9988ab6768a8b9a9eaa9ae7aa79a8b9b88759b9c5c79b8bc888aa881
col21:   186759795893b9898c98bbf3cd78aa99cab8bc7c89a5bde9b8ac7a4698cb8a99769aa7699568c956
col22:   882875896aaa879699688a9a8ab8aadc9b98b7ba99858a76aabf9dab6a98cc958a878a8559675665
col23:   8b5a636898eb669ba8a7cc7b7d7b8bb7bd898898aabb8bb87aec7a68c7dbc59b99bab8cb94356762
col24:   7517b37c8898aab9a7ac8679998675cc58bad999b97978896468aa98887bbc59986888a665698832
col25:   7867b74a76a9644869b7a9ab99ba5a8a79aa57eccab89c965dc8c88a9b99a7a8548abdcaa9b87797
col26:   966e8a89b67aa8b7e875b9d7c8b9dcde9c8a99e9acacd696cc98b8abc8bac88aad8d9bb86a868ac8
col27:   b7b9779ca776829ca8a55bebcbacbdc98749bbdbcc9ad6fcab5eaaaa8a89a7bdaf4b8c9ec56ba8a8
col28:   9974c9795db9b8af8b9acdeadab9bbbceedbcbbbbbdda8caca9fdcbcb88abda8c9b5d99d9a78a498
col29:   8aa8bc8a96668f8a87c88979acd8a89fa6b87c9a7e88e8bbcabda9897aeb4eda7db6b8baab9aa5c8
col30:   a74859d8a87abaa9b8c9ace7bea9cebab8bd79bc7a9bb7fb79fda8cca98c8ea98bc9a6bcabbeda95
col31:   bcd7f796cac5a9986cdecc9ba9fcabbdbabf9af9dbfabbfeddcddaaa9acf5aba5bc7dba889687d79
col32:   ac8c97a868a97be7aa7cc9999ba6aedbfaefaddbaae7bfbde5ddacbbb84b996e7b899b88da9b5764
col33:   977678bd49a76a9c99dc7abb88dcaeccadb9e9bcefaa79aae5ab8e7a99dc7db7aa8488b7d787b897
col34:   9a7b8b6b6ebf89b6d9bccbc9887ecfdcd8eccbbdde8adce8b5ec9dcdd9b7d5eb68adbc8aba79979a
col35:   7ba7a7a8a79cb74babcf7ecbdfca9889bfa7ccba9bf8969eacdcd9b9cd7bcc956abeaabbbcb787a6
col36:   98ab29aada9696acbcd78bdbcbbacd7cdaaaebbbaabccccfbc78dbecdba9facb96c9aa9eaab8778a
col37:   8acabc6cb7acdea6898bcbbdbd9fce9debb78b6c9dfb9cbbda9ceecbce6dfecdbab786b9d78c8a39
col38:   8e97caf98c96aefa98cc9c9abd9798dcc8bbdabbf69bb7adca9dcee7abebab75cb9a7b6ca9889b98
col39:   86a7b7c3697699daadccae9c7e96dceceae9999adbb9a89bb79b77a7e7e9b5a4c79a7cc79e8677b6
col40:   87686e8dbfbbc8dbbda8addddabdbeeacceaaaaacdfbaddfdca89c8fddbdcee7ee4cdce7bb8b9ba4
col41:   b989ac889dcdb9cc7ddadbacdade6ec9cab9bbc98b76aecab9a6abfdcdfbbbc8a9b9a7babb977bb7
col42:   b9beaaabda9bbdfc58b9bcbd99addd99f9bcecadbcefa9a7bcfceccbbbecd8edc6ca8e987b8a9874
col43:   b8da6f5f99ccdcedacbbcebbfdbbbdffbbffffefcbbcdedbaefcbad8bca7aab8ca9acd7968887eba
col44:   ba6bdccbbbadabc89cbbcfc77bdf6f8cfbb9bbeaceeab9a6fdb9dfcdaaa9aca8a9fb789b49cac57a
col45:   898a9dab8ab85eacac9bce9cecbabd9abd9df9bfca8dcbbcd8bac96b7c87aeac9599acceea9abb39
col46:   7a79aca9aacab97eba5aea89a9edbbdaddbee9ece89a7fdceb9b9a99cd8ddb6acb89bc8ecebba979
col47:   8ebab98ddcdacbdefa9b9c9887ddb5c9fbecdddbccce7ccbcbac9acbdff99b979acbaab6aa56599a
col48:   ae7a6bf9afdd9cabccbcaba7ae8dba9cdcbdecfbc9c89abdbecceceea7dba67feecbb8a5bb92baa7
col49:   b997e976bcb9dcccdc9bcbaaecacbfedfdbbbbdaddebab9cbfadb9b8aebaacc79a75ababcd8986bb
col50:   daf7cbdddb8aaca88fca9bfc897bbf9dcefcedcf9bfdb89889bfe8ba9d9d7e9cb9d9ccb9f77d9b96
col51:   95a7aaa7abb6477c68bacbb9cb69bbbc8d88b79dbab8bb799c9fbc9adac99a897a9688666bb96536
ROC:	 BPix_BmO_SEC5_LYR4_LDR20F_MOD4_ROC6
col00:   8ac4759486ca97c43453c968e99896a4783ea798688c777ca4b86846e7bc5b76525a8586b9979616
col01:   b23b58989793879ab57758abb585b96d86bb469a9699ab9d8593c7ddd8579e8c5a7b7a9446749b97
col02:   89938c337b4ada28b8777c8c88bac6d6ac5c79eadc8bb6aaf3cbacb8e7c87a8dec6c7798b687773a
col03:   76da8b96a95797ba9789fa98a889899b8977c8268966ea797a997bb89d7667d6aab88873d6aa8458
col04:   79c66e3b86838799b7899eebb9698bd8745abe8858ca9854948a9f8976b66c7b89a989695b9774a9
col05:   7245a64c67968ca4ba6a7c8b6ca69d995ecc87aea67ba56da9ba79ba88b17b87787a7b36a27297d8
col06:   87ca546ab7a88c66996ad7a77d7b68a8397ceacbcacaa8aba8cbcc6b89747695874975b9e8794956
col07:   57a66a91b897869b88a9b89a8577839db87e73c7aaaf7cd9c79698d85c789a47297b86a7bbb74624
col08:   5a898554db585b9b93dc35d9b8bbc98b7a3dadbdaa8c8d97aec99b64898b37a58a96b7b7b7974c11
col09:   a94b58878d7b9ceb787b7989c88cfa79dcad8a678889ed98ca9c8bdac67ab6f85aa9bfc997b45386
col10:   798ba7aa7ab696b785b465726aa97ddba598fa9ad989c628d9838ac777adcbb7ab47dc987d6ac8a7
col11:   a617598b19aaa4b6b9348877896978fc77bbba76c7c8d9dd78969c7aab874667fb5a768549765a7b
col12:   676ad9cb8b488a8a79aaaa8b798ad995d9abcbe99b7e8b7ecb7c96698797a9e974ca8f7695898896
col13:   597878544b6e69b85c974e9795c7879acb97a878ab9abab9bba9cbb8ad777cc7bbaec92b65385487
col14:   879e4ab4b9b849a887667998b549666a6c7d885aeb696b979aac39dc8795c9896acab6a77a877984
col15:   765976e556b5b66a6898accc93a8cbbac89a98cd7caa76bbacaacacaf8b87a9ca859ab9996a49896
col16:   86368a96977555f78476f8a77bb979a868bb7e69bbad39babb9b9eab7da5c7877a969863a586d78b
col17:   15888962956779a43a378bc68c7898aa66896b697e58c8d8967d6c64a8a87542a77775ad94858655
col18:   456d25ba68f749d885ca8b5977e5bdaf9feb96b8dcbdabb856af8b58a6bb989b955419b79837a755
col19:   347464699569ac79c5fdd88adac38a9cbac8bc6c86998bb856c89e7ca897aacb4a66c386657b7886
col20:   c45879881666443caa797ba988c4d77c356c886c8bca98a8b86491ac6883cbfb9c75a8d8b5175776
col21:   8b55367b88a6a869b7aaaad8b5a7bb89bba969d597ca7e7e8a9d8cad99a9eaa97c3dca57acb7c888
col22:   93ba89b99977b9878aeba8987898ab9c89cd9c9aba9ca7ad978dbaccabb6679678abb9757a253744
col23:   6a7749955577e8981a96cbba387ba9d68ab9bfba789699b798c8b77a386a8398bb39ab1287a53849
col24:   54177b6a9ab56959887bca89e9c5a38d9fbe78debbbb69bb7b797a99767f768b8b97a65d68695a59
col25:   26436642868767aa9ca9c6ccbc9ab97a97a366978eaf9e69b8d7f89847698ba8d79ae9a5994656a1
col26:   8acca876778d99bbaa9befcbadab9daba6cb7eeabaf3fa9cdeaa8babdae779d98b6a8c6a9b6a9ad9
col27:   7aa8ad9a6c48ad9bbdbbdab9e5b99ab6ce999bcbc9b689dbd9accad7ccbaccbabaaa7da99c9bca92
col28:   a766678d66da77d9c7daac9cd7ec7cf8bdadcab7699b69ea8aa8bbe8beedebaa9eecc7aa97ba8574
col29:   c4976d9abb5d5999aae7dafcc78a89589e99cd8acf78e9b98acf978da9adaad8ad8ac798868a9675
col30:   bd927675af39aa87d9aca8f4ba6dcf59ab79a9acedfabedfbe9e6688aab8ecdeccbbcbaa9d7a4a48
col31:   75bd9d9bbaa99b87b96a8bdcd87bcba7b9cedcaddbfbceaea8afbf8bd98779abf949977ab5aa4987
col32:   6a73bbba66a93cddbaaba8adfa7b7fc9eb6caa9abbc89dc9bfbc7daaf9999fceda87ad96e6689a78
col33:   79a96ae67d7d7a9b5cddce9d8ccdf9c9c9bcacdabdbcddb969bcc9aeaeadfcbfcadeaa47ad6c9bc8
col34:   8c69a8cb9be78fdbfdbbebbcf8cbdca7bbd9edd9af7b8b9bcb978ccdbefcaddb5ea8cb8ea9daa6bb
col35:   749a3b8bc5dbbc9eac96bacadfae968dd6ebd6fdc9eacccbe37d8efa8aea78c89efbac8a8c7786b8
col36:   84797acbbc899a49fe9fccabacdf8a7f9f8ac5eeccaac9bdc7bfe8fbe9ee9eaded899eacac99fcaa
col37:   9b5b6779cbc24d88baaa9feef9eccce9edddcbabdafbbedf95a59acddb989dc7999abb99bb7f79d8
col38:   dababa68877ca8babc9aacacbc9aaece9affcff9aa7b72d9adcfdcbcb9deedcfa9a86e5b78b7d7ae
col39:   c677f9ac86a9c9c99f6cbea9ad4f8cceccec57caaafc9dcabcf5adccccbc6b6ace7aee67ccbd4dc9
col40:   aa8babbd9998c9bad79b5bfbdd8788e7e9cadcfc8cdcabdd7ffccdfdbb89bacebfbccacdb6aaaa6c
col41:   779936ac99859becacb8b38ec63cff79efcdbfda9bddacd7accc96beaadbeeb9afcbd88968b9a79f
col42:   a8a6ab7f997bafedb9cada9bfadcdfc89dbbae97cbd999caac95faaaeefccbcd9bb8bdb9beaca5a8
col43:   8ae499ab99987c9caabbccccca868bebab8ba7c9bac9cceb9e9aacbb7fedbdcadaabd8ab589b8597
col44:   898a9cd5b89cd9cae9a87ecdcc799dfb7bcfd9aabfeedbe9bbba8cf9fbafcbae9dffac78af8cbada
col45:   89dc86bcabb88eebadcc7acdeaf7bc8f9897a9be9cbfdd89ad8bcccaffcffc8cadc6babb9aa8b9a9
col46:   9ddada8c7c8a9c76adb7c4c77aeda6cfade7bb8b6cbec7ceabfc3ca97a7deb76eb9f7cebe3b1ab49
col47:   788b8896b6daa58bddab9cc9aaecbbdfab359efebefbe9a699cadceaaedceeb69dbb9a9a9b99a8bd
col48:   bcc776b9db779598a94caeab96a8bacb8ebdaaeab8ec7beccebdefd8bfcbeb8b99cffb78cc8884c6
col49:   a9773b78b6dba98a9aedefbb7f7bb8ecc3cede9b8baa8fb99bbcbdbc9cac5db99afc93e978bad587
col50:   ba97ab6aa977b8ddbb89cbaeceaefccaf9dcffad7bbcbab79858ded9f8d6d9e8c9dc9dada884b267
col51:   77389884b87965adc97797775e5ba7f8cbb99bb77c79858479b77e7dadf99da79b784374d45c5281
ROC:	 BPix_BmO_SEC5_LYR4_LDR20F_MOD4_ROC7
col00:   257559878765a8796658749896a7967ad7b78a946aa69a98baa858997888b8765896687c48577274
col01:   b68745b5bc877b68a9a8a7e988a4b897c7bdab9999767aaabcc98d8ad988a69a97a58664a38b66ab
col02:   74d7b68589ab5d7968bcbc498ad88b987a8789dc98bab984c76a59baabc79a977577c9b669646878
col03:   78a5698997579ca67c59969ea9769a4b39c98bbb9b8c76ddba78bb9938879cc8bda9b8c5b9859539
col04:   81a887758b987877c466b8a8aca8adc98899c97c787bbab9fcca97bb9a6d7495b9a994ab938a88a6
col05:   a778678d98a894babd79a6aa99d9a99a7bcab7b578db7cb798aa8a77a58bca8e969b673da578895b
col06:   997bb77aa8398a98796769b8aabb9a9a87babb8888b9ad76ccdabbb98a9879afa585975496969647
col07:   aa9b67cb89ab87eaa8b88598a9ba9ea99dbccab8dec9cb4aa6fbacaabed9896daad6597ac88cd893
col08:   ab9696956899488a999b7c89ad8c9889abadccbeba9da8789ab99b6ceeac5dd7ccbaa996b43aa788
col09:   59465755ca87876c67bcaac6b96bb598aaab98bbb98b8bb9b8aa7bbca9aeacb8ec877ba775859c88
col10:   99c77ba6b899bb98bc89ba9fba5ab89a9cb7dd979a899f7acaad7be9a8a7b768baddbe47894d6a8a
col11:   b9ac788a8888a99977a978bc87abc6967cca8aaba7bacc9ba7ec8acb9bc96d59a79a9586d9875328
col12:   76987aab9b8bab3a66956cb8ca8a75ecb9cbaadc7c9cbca8cb8baba88a9aa68c7ba9e7ac88a19889
col13:   783e936b6773b6968bb6997d5dae89ddb8d959ab99a6cebbaac8bbbc9b9ac8bcb86985a9878995a7
col14:   96c46ccc9864cd789ddcca99ab7b86ebab6aa5789c6beba68ac9a9a9cdd9c8977986b9c6baa88665
col15:   a5a797ba797b459be8b8677a9ebdb9e9accb7cd8ccc89aa8bbdaa6ada87ab99587b99978aedca4a4
col16:   9299765ba97b7b97bb698ba96cb9bb7da8e8bc8b7db87cc6aa97aa9acc7aacbab9ca8d9b4d7b7899
col17:   9a76799767a75796997a58b8cab6b778e86bb9dc9cdba69c7bc4abbd9a9c987a9949987667796956
col18:   8abd87a8aabaa6789899bcaa899aca89d888a5aada8d7be6ebb5b7a49b97b9665a8c8c6b8478c739
col19:   4d85a69b8d7898c8dc9b88d9c8bb7d8cc6b8ba967ccf99cab5bb77c8ca7cbca9bbbac778859b6685
col20:   ec7a8a5899a856d8b89a7d8caa8acb98bdbd8b97ab789c89abbc85c79997caecd7a68c6c962a88b7
col21:   6787ba86aa6a7a9698cba8a87676ba9caadb6d67df9a87aaa778aae7b7c84ba7aba5b79896b65549
col22:   9685bb679aaab87b8ba969da9bcdd9d7c6bbbd7b7bc7b6c8bcbccd8b98cea896edd97a69d7776899
col23:   aa78cb87b89baa8a98a998ab67bbcc7cdefe8bd9db9ababa9b999c7ba6cc7bb89b7acba9aa96a988
col24:   5a9789bd969ab88a779cad9bb898c9b9a8de789ba7dcaabca6dadab8cba9aa98989d9a836996a575
col25:   8b76c7aecaba9aa979cab99baab8ab6a8d9cbb9cbcddc7b98cab97bca79abdcd77a97dc86587a799
col26:   af8bca6cc8dcaa94ae9d8cccba9b9becafebabacccbb8cbcbcc9da9bbacd9abbdbacfcea8bc7bb77
col27:   a8adabaaca8d8799aaaacccbdab89aaacbabcbdb9adeaabb9e89a7af7da97cca79bcb7989aca7886
col28:   979bf88bd89ad9c88ba8bcbbddd8af9ebfbcbcbc99e9caf9ccd7cabbccec68c88aa8c99a9aaa7d85
col29:   efaa99d5b9ac99bcbceccb9889decdedbebcccdaccdeb8bfcabbfbacd9ddccb99a9d86da853b97a9
col30:   5e889a8acb7bc8ebebbecaf79abacdbaaa8ad9f99cd9abbabbaa9afbcbcead99dfb6dc9c996b8b7c
col31:   88967bbb7f69ad8aababac9ddbeae9bbecdba9efe9ecaabaffbccabd8eeebbabcbd8ddd7babf98ca
col32:   bdaabbacfaaaa9cb9d9adad98e9bbfabbfcdfdcbcadb9cdddbeacecd9896cfdccac689adc8ab9658
col33:   a9b9babaa9abdd8cfddbeba9caca79bbfc6dbdfbdfb9dddbbbaffb9bffc9a9aabbd5a98579b8c3a5
col34:   abc7cb7daac9c9caa9cab8ea9eceedbad8efacebcbcdce5ff9cabebbfccaddbb9ceecb5cb9b5b9e9
col35:   8acab89d8c7ccdcf9dfab9cc98da8dbdffadcfbbbbcdc6ebd8cb7aabcdcd5bbcbb9f96ba76bbb9aa
col36:   9dbb9aae9c9cab9aacee8cebddbebddca9adcfdebabfdfdcbcd9abd97cab88c9fbe9ccb6bc7887ba
col37:   da89ac88fcba99dcabfacbbd9c9e9daecedfa8cbb9cadce8cbcd9b9cbad7dab889acd9c8b96fca89
col38:   bebccadcbaa9dc8dda9fcfe9cfcdcddfb9adfbecd9dd9adf7acadac9cdda87bddab7dbc8bd9bde6c
col39:   5aecdcdabca6cd6d89fb8ecbc6bac9d9eabe8db8ebfedb8ce99fea9fbdcbcc8e9a9bbbacaa499f77
col40:   c9dc7bdccf77baacceacfccdcc8ff9cdcbbfafbdedc9cbd79dbab8bdf9e9ccb9a9a6c67e89ba988a
col41:   98999dbdeeb9b9d9cbde7d8efdbfffa9ecdfcffcadaffdcfcbadcdcfcdafebceed8d7d99b9b999e7
col42:   f9a59babbf6ecd99bc9fcc8cf79cdeccbbedcdcfead7b6bfdeffad8efd89ca9fc999cceaad98a9a8
col43:   dbcbacbde9b9a9abfcabbcedcb9bdcdeffcda9ddcb9dbeed8dbbddcffaadad9eaba9cbc88beb9ccc
col44:   bcabbcf9d8adebacabbcf8dbeebbdfbbab6cccececefcbaccfdeadbcf9ae8adfc989ada7dacbfbc5
col45:   b88c7d9cdadaca8b9bdeabfcbebf88ceffcbbffeccedeebf8fbdcabccbcb9e9cbdb9add9ccab96ca
col46:   eb9dbcac99bfcfe6cdcdebebecaddd9e9cfdadbccbedeafa8eadcdfcbbecbfdbdd98b9dabc89fb87
col47:   bfcea9adccfdefbceafaaefebeefb9bcbbedecdd98cfacdebddbbcfbfbbe99ec89ddcd8cbbadca97
col48:   fceba9acacbcacda9fff9b98ccbdb8adcfceddce99cbfccddfccb9dccddcb9aabd9bc98a87869579
col49:   bcfedcdbb8dfa8cfbaacddbcccdcadadedbeeddedfaaaddcfcfadfebfbedabdbcdaabcbe9acda68a
col50:   8c8bad8dde9beac9dfbadeccdadffddecfdaefdcffd9edefeecbfdb8b9dcaacaec9da8bdadaac8f9
col51:   a8b9b59dc9889ecbdba7caecacbbf9e78daa7db99ed6bcb8ab9bbbacbae8acea7c8a969a88a64886
ROC:	 BPix_BmO_SEC5_LYR4_LDR20F_MOD4_ROC8
col00:   c79996acddb976a799572784aa9e7a699abac979b7a69b87d99b8555ca96a7689686a7a7ac942793
col01:   8ab8cccbac8ca9bba9879b8c8bc8b8bcbda9b9888db8ebbdddaa5aba7dcc8a5bd59c9b76aca78765
col02:   8a67bba68b9ca98687977e89bbfdad8ac95aa7aa8aba7b6ba699bbba69c98bac986c6a68aac6a467
col03:   97ab6a87a7bad8988a69bb7bbeac74bd8cbbcaa9e89c9cab79cc6dd7a8ca67f78cfb9778b7de9785
col04:   887c9979955b8cac98697c69bd9bb95bd8fdbbd97d979c999bac88a87cf8ba5a7aba98978696a588
col05:   78997b8b8a6ab98a99cabd9b67d58b8bbe799c6bc96d899a99dabaf9bc8b7c9d9889a668a9877487
col06:   cb8c78859a99d8899848ac7749d97bbdfadbd8997b9bc759cbc9b8b9b99898bb49aa7689ba67d756
col07:   886f9a58597f66295988bae9da898a88ad89dd9aaf68b55bb88bacd88cb98cdca95a698767363847
col08:   85b489696388ac599c9abb9da7f89a9cac49bb6c59e8999ba89acb68caa88b99775c379ac6799789
col09:   b78978768caa7b9ba7999da9b9dbbddc9aaaaabdaa8bd9db6eb78c8a6c6c9958cbb788ba67c9b542
col10:   49889567955799889bd55da56bc9d9ca8bb9bc789c99899d9ca6aac89c9c9c88abda78984a5999d8
col11:   a9475aa6e989d8c48a39a9959a59bd99b88cddacb9bdbc8999979fa69a8bbd73c99779a5a888a986
col12:   cbd96a88939a69baba79cab9f99c8be98876a98a87bafc98c689bac89a8398bbc89795ca96585a78
col13:   b76b6bba6f798aaaba9ac9ca7cbbbbbb88abc8b9da6acea99aeca9ceada8cd8db6b8c78d59976554
col14:   6d887aa9a6c5b7a5c776adc7a8a59a9b779f8bba88e889b9878a9d889a997969ed89a679989a256b
col15:   a8a8b59b83b46baca7769c7d8aaab98be6cbc9a9b679bcc99cea5b9af7bcd8a3dad984b6b76a8cb7
col16:   8798ca99c7588b88989d799a9d96bcf9b88ca9db868bc77ae99ecade99bad79b8acba7996caa9db2
col17:   8aa9497869a8995ca788b8b989188a6c4adbb9e878698d598da8a9877caa9b77a77999a356265887
col18:   9598a77a879ba857a756c6bc9a8c96cb99a89e4abd586a9b57889c6aab8accba8d9c486893794876
col19:   b9986d788b899cb6697997ddbb8c8fc89b79ccbaa9e9889abbba9be97ec9899a874ea998ba95687a
col20:   97a689a99a88979976cf86ba84c98688eaaa8b97aef8a48d6d57cacc8b8b8da8885cc767599843a6
col21:   ab6b9d36ca896637677b878c89ba9a9a9adb8db9668acaac8788bcc6cec9bd9bb9cba9b8a487d888
col22:   66a6a7ab96669ba5d9a8baaabab5cba8fcbdd7978e9788bcbaab6acbc8899986788ba8ab84b6be94
col23:   46ca2ab847a7a8988a587bb8999c9ba8b9c879a999c8cb9bba97499bdbbefc89a96a7789ac668749
col24:   76cc6beb67799863a488c7b997dcc98ea94a8ad979b8986bb8a9b998d6ab998aa7b98caaac9966aa
col25:   6357789cab579aaa6b7b99bb9dbb9d7dcb9bba8d5b89c8cbfc65cc798d68da88b6979798d6a98484
col26:   8bab88959cb7ac7b88abaab89cebbba988aab9da8ebcdbccdacb8bba999abccbeab8eaaa766d9599
col27:   8879a797cf69bbaba7adbaa6c9a7cabe9ba9c9cdccddcddabdaa7bdcd8cdb8d9ebaab8ce8869487a
col28:   8a988b6b6dcc7adbaabacbbdec9cc9fa8ddbdccbb9ebcca9d8e9bcabb9f5dccac98b96faddb9aa85
col29:   7aaa88aba9adbbbbb899bb79caaadc4acb99bcc9ea8edaa9dbaccdd9da78dec9abb8ab8cebbaccd8
col30:   67abcc96a8aa689dcb9b8bccde7bb9ac9a9cabba8ac99abcabf8bcfed9c6e99a9aca89a9a7987d8a
col31:   ca8bbbaab97bcae6aac9db9d8ccbddbbbdc9888bbfcbfad9bcaac99bc97cabbe7cebca9bdda987da
col32:   a99a8cd9959c999fbc8aac9a8bcbc88d9a8cab9bccf5bacb98fbf9acca9dd9d9b7d996d97989d8b6
col33:   8e9b8a9aaa69c99abccbafcdedb8c9cbaf8c87a9afeedeaafcbcbcbccca7c9f5ea96e58db69ba9b9
col34:   6b9a8779898c7978d9bdb9cdba889abed6cccdecbdfbfccbfaabbdaabeeca8cc86aa7fbaac9a9d66
col35:   b89ab9aba9997ddaacf87cdaf8a7cceb9b99aa7e8bddacaccdbbdce7dbaa9cdba89aabb9acabc9d9
col36:   97b7a7a77cba8b7c9bd99999b8a88aba9eceefccacaaab96dc988fab9babecf54989998ab57b7da9
col37:   9a68df4eaa999eb8acbabca9ab9b9bdddeccfbdbb9bbafbc9ddcb9a7dccac89cab5a7b9b7a7a99ba
col38:   9a77acbdaa99beabac9d999b788b9ccaac9cccbc9caeccd9efbbf9ed8badbb5a9cb88a9abb7dc8c9
col39:   baad7ba69d9889bbcdcbaaadddcdba9a5ad9bad8bfa7ccdcc776ecfbcabafdacbbc9ecbaab999c4b
col40:   48b79a6a7baa7c8fba7d9ec8ba79d5cd9cad9cccfecacb798cadfccbdbdcbbada9eba869bccbcd98
col41:   ba888bdc998ddc9a9cacabaabb6cc9accdeef998d8daecfdcafc99cecbe8bbc9ebba9c8be66a9777
col42:   9c2777958b9988abe9deb997b976a9caaabccdf9cad9ecddc8bbabfb9bda86a979bdadab88ac59b7
col43:   5adbe7db7abab4b88abcbd99a8c86bacbf8eabdbbabfd99cdcccbabdbcb9c9bebb9dba9bc879b7a7
col44:   9b9d878db8cbecc88dbe8aacdbeaa999db9ce8e9adbaebcdc8bdc9bbfdaebd8dcbab79c9a878c78c
col45:   786a8ab99bcd998bb89d99ec9d8cdbb9c97baa9baaaaabbbdffbaac97c7be9927aec7c89d9baaa95
col46:   96999a47af9e68d976b89cb6bb9d98bec8ccc99bbfbbb8bc7c9ab96a9c9daaaaaac8a7998a879799
col47:   b94bb885699bd8ba9dcec7eaec8bbcc9cc9db9cccd9c899cb9fccced9befabc7bd89a87cb729fbcd
col48:   8ad8b89b8c877aaac87c8ccd64a988baacffbdbbca7fabdb9dfcebdcc7f97ba8886bba969898c99a
col49:   a796aaaa797978ba8caaabaedadbfba9c87ea8d9ddda9ec97daa98d8aa88c6dcfe8dbfebb9bd99c9
col50:   ac78abb687aaacaa988ed86ba9ccdaee9befcabdacb8ad6dbbbcfbc69fbbd9acbb6accbc978bb987
col51:   a3785886784598578aaba8b6ad7ab74a87958979c8a8ab78ba9599a984c96885a7ab49a8a5abb4ba
ROC:	 BPix_BmO_SEC5_LYR4_LDR20F_MOD4_ROC9
col00:   29957a74ba564e9a7871679b9999a8875797a9c6889be667cd9897867a9a9879dca695b9a77a5533
col01:   a9877a689bb9b88a96fbdbf49ca8a8cca7dca9abe9aadaa89abb789bbabc897c998866579ab95b42
col02:   a8cba7a4d978943935888a986cabaa4def9abb75d9ae8769987798cb8855997867ab758ba7595b96
col03:   9a998c9c9b1da68ca9abac8dcc598babc7588a7ac98aa7b989cab689d89dab96c6469a8ab896c8b6
col04:   9b97ca7cb7b8a5c8aa7a95ad888c88dbb7cacb979cdcb76b85b9827ba969b7956ab96cc888a95348
col05:   87d96868957a6ae7c5d7aa77dbacc486958acabadeaa87ddbbcabb98818a8b9a88aa956763b98cca
col06:   6a949d78a7a9dacca9ca7bc9b9acdbcaae9c63abca4788cb987c6ddbb975cb79768aa77989b9a967
col07:   499da5a797a949d7b67c6bc689dc9a59ba86d89c8959cc7a9c6a8b9b7bc9bcaba86997776aba88b7
col08:   bb7899c87987c8599978899b998b7bb888cbb9ea98a888b7ab8a98bba78aaad9383958a9a78db789
col09:   89c5acdf9ea8859869acdb7c79a8d89babd9b8a8dccba97accd67dc7caa9987da5857baa9db4aa9d
col10:   76caa7b898ddbac77eaae7b8ccd9a86bdabba3c8afacb98ca599cc688c6ac57eb489a689489a9985
col11:   679a597c98cdabb977ab78f8ac9e5bc999b97b8988bb98ce98fbbab6f8878489996687779ab95c86
col12:   99c68a595c9a883ab958a9c96bb6acb6c695aa8aca98b4ab9c58b9ccaa7da67aa6b8c4798577649a
col13:   bb5da65457b7a9967c8f8c5e89b87a7badab85bccecdabb77b89a8aa779b8d85b9787d66bbb69759
col14:   88927b8b69994859a8b87b87ac98d6d5accc89cac88a96bb6178ba78a758b854b2a7896b99a95556
col15:   69ba37776994b69a8567af99d7bcccbbba8a9b8dcad998b69b9ab8c89cc78bc9bb963884a7a76779
col16:   59a8a757a89ab98896b7c854a89edc79b8acbdc76b78c68b7999a6a7976c7cdb867d888b79aa7625
col17:   b87987e67a8b98769a79a569bb99bbb9bca9a9ea7d897fa79749b69da795948b6bbc989785645733
col18:   a85b56cd6864b9789a874eac98bea99d9aca8caa5d6558a56aaa7eda995a798796a5897896478563
col19:   a8eba7a6a98749b8baefca6f8cad969c97a8b9ba5b5cbb98c7989887c97a97bb79495a7aa88a3577
col20:   b59767cc8bb77599855ba96da57c6b9ee6fbabaaa8b79bc79945a4c8b9c99b68988b897675367867
col21:   b6591765c2c94a98bbf7ce9ae8bba9adb7bec79b99c958ba7d6cba7bb7f99b7ae6ba7b85a496aaa6
col22:   19265679976c7b46d94d88ac77a9b3a6b5bcfcce4f9c98b986898789c9b1a4ab9b76455782366336
col23:   597a797998748a99a778bcba78b9a8a978a7bbbd8969da7b998cbc5889a9d977aab86b79b86a54b1
col24:   baaba99ab64ca98caab96c9b8aa989aaa8929c7ac8aaa99d88ac9b87b9cc8a975a77698a57673239
col25:   6999c6aa9bb8cb998b7abb7c7ccccb88c7998bb68a99c9698a989a9abb8eabb79a9dacb8cab88724
col26:   8c988787ab9993cab7fa866ac9f8ccdebbcadd67c9ba5bcdb89ce9deaba89b595969c8998658aa87
col27:   a7ab9e9a578abcaadca9a488dabbadebabcbab9ccba79e8eaddbabe9bd99ca9ba5898bc7b9a6cea4
col28:   8d68ada8abab7bcb79c6daa8bcbb97cbcae87fe9caaf9b97adb9fbba9daaa98a99d997a887897b88
col29:   978a99b88a79b8aaaa9caeabf99ba995aa99a69afbaddb9abbabab6aabcfacabc79bca989899c9b9
col30:   a6ac98b8bc778a9f9ac9cbccecd78bab89dbce99cd6baebab9bcaac9caa9b9cd9a8ac667654c488b
col31:   98aa9acb88bdc88aaa7fe9caaaccd9ddaab96dca98faa6cbee9edc8a8eacac7bef5e9ab99b989b3a
col32:   cbeaa7a79a689ccc866bb8cedaabbbcdbccb97dbddaa9dfed5adb8bed78cacb7cbbda8abea95a884
col33:   9bacadac7bbcca7978aeabffaccbecc7feca797ce7ad89c9baacbfec67aceeb9ddbcc9acf89c89bb
col34:   9987c89c8daaafa9bdbbd9cac8ecaccbcdc9acab9dbccbd79e8fdcecbdbc89bebb7cc8b7bb796a89
col35:   ca5aa7aba79d9b8ceccabfddb9efeacaaeb7aabbdcdefbab5acb8bba8698ec75a9a98aa7d9a99a97
col36:   c6b97cc9b7bf9b99cebc88dcb8da9e9ccccedbdd8bafc8ccbab87cdc9dcdaea887aa7d88b58a7a3b
col37:   b9a99aaa9c8d8ababb7cdbeedcfadcadcfe49debbadbddfd8ed7bdcfdadd88dcdcb9cc6a98d88a68
col38:   89a99dd7cb979b9cedca9cbbfbdcadec7fd8ba99bb9decb9bbdb9abe7cc8dccabc6a8cdac9a4c8a4
col39:   a8f7d4dbbf96acd99cbcb8d7c8babb8bbeff9ebbcefceabedc7edeadaeeaa99baa8ba9ac8c98a6f6
col40:   9697cebbfaabfadb7bc9dbcbffac99dc6fcdfdef9aedcde7b78bfa7edbddfbbc9ecabea9b699d595
col41:   9bbe588b99bcb9bcebbcdacbccfeec9cbb8ff9beaddcefc88ddb9edadacb8ccaab7bcc49b969da9b
col42:   78c5b87bcdcabbb9a97cdecdabb9c8cefbfcebed8bfdf89cf9ddadcbaaaecaafb9da9ba8a67a99d3
col43:   aa7ba998ebfaacd98baabdefabefcadffddd9adacf9dbb7dcdbd9ddccf8b87bcd9bdcadcca7cfae5
col44:   9bdcbb99b98eba7edec99db9cdbfcacdfb8cdbcaabfd9bccfebd6dbdfabbbbbad99cc6aac99a97d3
col45:   98ab9db9dacbed9cdbcdacdfb7ecbaefffccabcdfcdbfbccbeadbcbfaedb8c8aca8fbba9ea9d88c7
col46:   c85f8bc9b9989ceccb599bbabbbaadccb9ebfffbebecbccbbcce7e8a8cbd99bc9caaa8bdc777da97
col47:   ab898a99bfe8bfcb69bddacfeabbbcffbcaaceefd8fecadcebcdbafdbdace9cddcaab9a9dba48ada
col48:   e5dacaf99aabaa87baaeabbbcbfc79d8dfbb9edaedcbbe8efccbaadcbdcefbdfc9ba7abea9addb68
col49:   b598c8cab9bc9e9baeabfdbb99bdbb99bacc9ddcf7dfdea9cd9cff7abd9aacc8c6797c7aba68bc78
col50:   bb7aaa87bbb78bdcb8d7cdbfdcccde9fabcacd9bcebdbefccd8dcbbbb88dbe9baa8aadbbc87b8977
col51:   ac9b8b8a9da8d93b8b75cc6e5bc98cabdd98b9b998897f79ed7ec858aac7b8a8dbb987a8bd78b866
ROC:	 BPix_BmO_SEC5_LYR4_LDR20F_MOD4_ROC10
col00:   357737483559267355594673937656823b168775355675a457545694543111535556494442231351
col01:   a486857767686998887d6b8a5588679b8b8a53776b7b5a8b67a35b76ab5787767684296656666766
col02:   5747564447a7988647677c69b79766c7854a5d689a65868946758776687a49567335549682419745
col03:   795869867b66767b592479986848a98ec8d498768a95765aa9c9a68597a66496778547a947799366
col04:   847684478153a3a776497a998857887ab5976b67388aa78684399658a998b765976762b857624128
col05:   6547b7559386487b7a6739585559cb8a89c785775ab6749778798b96987a8786364a764552788998
col06:   44968476494498a858578a787bc64bba657871648886b87959966476768857967546555495337843
col07:   658776787b5a8a4ac7b899b76a8aa9987a77696a96aca7c986b9a64b99a948596658968957b76766
col08:   4776978786676a8969577787974a9985a98576786cda93b9c697559ca66473793763778944575273
col09:   8818486978887a97da679a677968589a6a77597589a7989c89797585a67758765835756859596565
col10:   67829665a88987674868978a998898a987aaa49958649945a689a7534959aa7ba7644665624a3155
col11:   885c96abc7797c3395a5467789b8c7aa49a779b7a8ba97a78c9c75c5a7855979769633985664b673
col12:   39186645987878b7979a53b89968b97b7c878cc8b7b49f68a7987377a8b8a546785575674a816958
col13:   68869569679985aa9b97bb95898a79abd7ca6aa977d9a9888ab8cb87887a699b987777b3967645a4
col14:   138837d83787b95a776a69aa6b8ba73ca67a789a68a948988bd6a9a677798b78925a54597a876744
col15:   76688aa687756589797a7a7878b68cb9a7b989b75bbaa888a969829ad969a997a986884569466653
col16:   7857686a795b687ba997a92baa9baaa5997b639a7687886da675cb99a98b9779c57b545734614587
col17:   66a8995a8ba8a979e7acbaab76aa9cb99a799a963588c78a85bb67577a7886678a98867654663756
col18:   744667499b6987977788684aaa79869998569a88897d968aae977877eb8684889876aa6653833655
col19:   778897677678898ce8576e8b96c6c77bb7ebaab8da98999a7cbd88f996aa5969aa588b8678566758
col20:   8a66949a85c87c7c998a6bb6ab789a9b8488c96668a9977bb8759a9b7599598a68695a8aa786a735
col21:   8479988b899a858a98d88caa7a978caa9bba9c99a79ba7568897687778857b759785a657a4579153
col22:   8a9775669a97168a86a9aa7aa889789c64bbb9a9ab787955b989ab98ba6696466885987398747a46
col23:   9977aa68969b9baa89a8799898a68a8ac489bb85969998b898868788986ba667979858a7a383a77c
col24:   7a68896a9a977b7b8869c886ac4bc7787aa997aa675b86979859c6a84d867a78a5acb89967659758
col25:   898a8967875cb769e77aaba99acad8b999a8a8bac9998ca69888965c8787879a95687b574aa68973
col26:   a96a7768da98dca6aadabc9b68aa9dbabea7d8b9bbab95aab6b5989adb9a6abacacbb8685a668978
col27:   bccb7b877a9c9cb9997bc6d698888aa9bad9b9cabdba99ba858a688bc7ae4dca9a6cbd9a7979989a
col28:   7a888b9879a8aa98abd9abaa769cb7aaab7b8a48adb98abecba9885bbb9bc85c9bc6c8a78a987a87
col29:   3d9b5db987baaa7987acdaabdbcb9cdbb9bdb79cd7bcc8ddbdac99baaa6abd9b8a6b77b656a5b6a5
col30:   768a8a879b96ad98a8b9c7b9ad779c9cbabb787cacbdbaa8d97ac7a99e76da6b688736ac79989936
col31:   cb5cc8bbb8cdc9bb7a89ce9b9bbbaaddadba9ecc87dbdbdc9e8c7ba9c9bfca8cadcbc8877a8a9786
col32:   7d8baeaaa8c8daab8aca9bbfb999daecdcabbdbbcbd8a9efeca6eba8ada9ec9d979b7987b9db666c
col33:   99b7ca98edcbb5bbb9aa8bd99a9acdcabdbbc89cdbdc7b99db98a9ab9ca9b7d9b8a6a788947697ab
col34:   b94aabb79daea99a5d8acaa9cfdacdebecc87aadbbdccb8bebbabeaedb7babcd9bcb7aa9cbca7799
col35:   797cbbde8adc9acba7ea8accef9a8d9daecaa9bdcacc9bb9ab9cc9b9b7ac889cca9dcc886eca9bbb
col36:   87ccad9ac8ac9ad78eb9db8899a9bacb6bbadbfda6dabceaccbadbc77bbb899a6d9ad9e7a9bc996b
col37:   8be689db9dcadbaba99bdeeabc9ca8dbccbeebdcbadabdcaaca9eeb8bbabcc9cabdc79ad9b7aa895
col38:   7cbc946aaad9cbbbdabccca78bcc796ddcdacbbce9cdbadd7cb9bb7bfbccadcba99cbaaa8ca8ab95
col39:   ba88bccb4aaba9dbbdddbadb9cadba98bb9cdccbbd78b79fcda8daf96afdaa88bbc9a7aaabaaa8b7
col40:   a87ebcaccc9bbcb7fcbabbce4eccbcafbcedeed98deace9dbddc8d9bbdce9acca8a8e6cd778b79a7
col41:   5eadc76dbddbcc9bbdcaa9facabbbbebbdcbceddbddaabbfdfe9bcae99ebce979dd8a99697bb979b
col42:   a9b989ccaa9e8dac5ff9bd9afeba8bbcabaada9dadccceceda898dde9b8caada9b9da68a6ab9784a
col43:   989bb8a7aadbb99bdd8999adcfecdfbdabfccdbfa9b9ebfbaedad9feadceeccdaebcdbbd8ba9dab7
col44:   6cabd7ddacdd9ceebbdbbcceaecbb99fafe7dbacbdfdeecebbacbc78acbeb9bb5ba796a9888ab6e8
col45:   8f7acabd997a6dbcbbdadeb8c9bcccddedaae7addddedbcebcecaecaaaf6c7fab95898aac79a59db
col46:   abb99dccbbd7b95bbbb7bccdabebbada9ccae9ebddbedc8acdbbb789b8fd99abdacbb8ad9b57c899
col47:   89ba9bdc8bba7ce9acaf7bdb8bcaddfeabcb999aabcdcbaccbdaa7ab8cbdc9cb99c9cabad93bab96
col48:   9a98daddaeb8aaca8dbaddcbcbcabbbada9dbeec9d97acaecf9bdcabeceaaa6aabadb8c5ab6a87bb
col49:   897caca9cb8caccbfbd8a99caabcf9deda99eaa6ecaafaecfbcdbdccceafda9cadb7ad997a6a9989
col50:   968defafab8bafbdb9f9abea9eb9bfbddbcc9a9eacdddcdcdbccc89abca9d8fbd9b97bebbc9789a8
col51:   89a79886b779aa85cbb9ccbcacabb68c8ac9b7becafd89b896bbba8cbdcca8ada7d8bbb98872b853
ROC:	 BPix_BmO_SEC5_LYR4_LDR20F_MOD4_ROC11
col00:   75698673a63997478a6a76899789b948747ca49db88ab8877aba679968876288947888a847748871
col01:   8a84a768acb3d69897796cd9479a4ba8e6b9d57cac89eea8779c968969d5687cbb69aa6a8855a335
col02:   5d778665b7b75648aa7c6987878885abe8b88b9b99cac47caa889b9869a9ea66977387a64785b624
col03:   999874898836669898b97653bc7d9987bd8ab79aaaa9958999d98b59cc9796858978da6689576874
col04:   c8d39db55aaaa98cc9b7aa97a9973cbb6c8bd9bda99948ba597a86f677a8d759579989b4c7685667
col05:   9a88bd6899c45657899bb878ba9a78ad7a6a9aa89b7caaca6b77ac5b7879a78c58b957b97585a866
col06:   a8697a8aa98659679799e97c78799b87989a7959adb669cb999dda679b77797ab52969aa3a6c77a6
col07:   8a776ccbacaac8ab8ab56789d898acb96ca8dbb5bb9acc7a9b588b58d8b8f7a44a8926999c886aa8
col08:   779866a7b836aac65b8abcc79677a9898779c56b895798abba9c9927bacc6aa8babbd48827718944
col09:   68ba6d9889b99b9858a5adba98bbbb8aab9bbdeab98bdbceba8af8ccae57bb88aaaa8bc988da8b93
col10:   8893a5d29788879997c7a386a9a9bdbcb889a8677d7b8caa979b999aa68a7ca96487862796579764
col11:   93695a5c7b6bb88987a4c98e597ccab9879b57c9c8ebbe77659896396bac4b4b3b7a7679a775dab7
col12:   7b6b88a799aa945799eb49a898b99c6a8a9bc879a86eb9977a6badcb4bba6a894a85b92a558768b3
col13:   aaa59b77679caa9c696b8a7769a4dca969ac9c9a9ecc6b987b8a79ad6caab9ab788a8aa89b5989aa
col14:   8a937736678bab89b8c895a8a988b85aaa878b8db45aab9bb969b7b7a893778a78ab797976aa4ba9
col15:   7a787589c7a69897a65b99a85ac7c787c8c798a8a9968c6afcbb759799c5bb98bcc785a69888c965
col16:   77d7986b88a887b5ba95769bb899b78d6979b6ba8ba9bd86a8abd9cb7aaab8194c8b6a6a8b876849
col17:   69a77967b76b846ca8b9769aacca9989ab7988bc99cb8d84cba86866878a9db6ab929ca8aa6ca998
col18:   89459665b9c66a99696da9b9766c8ba96ad7b7785a6794679869aa999a69e9c8888989799765aa58
col19:   64a887698b85d6c88b5a787a88bb7799689ba97abaea6b8cad8a7aa6fa8a89c87dcbb6959bab6657
col20:   39a6a98989a5978b58aa9b9971a9c8a7cb9b9cdb77bb998779813aba799ac87a87765886484779a7
col21:   976479b89bbaa99a6c9a988c8799989bc789b7cd9794a9a9797cd9ba7b8f59a98ac9a899899988a7
col22:   6969a966a8a9b8c7895d8e8cf889b9bcb4adb8486a989758886a3c879a49c7785894754792862777
col23:   a8a656779987db97998ac9d9e9ab6bcbbc4985bb98cbb898a9787ae97ccaa7aabcb474acaa98ab17
col24:   c688788cab9a355aaa6a9597a9bac7ab8e9da985999d9c69b96899aa99b8877a863a6b9373289624
col25:   ab8ba8999b7a6bba899bb988959dac9899e87cc5adbb9adc68acaad7b79c98aabc89aa997ac85a29
col26:   cb8997a7da8a99abccceddbb7b8dacdfd88aa9a89acd8fdcb9d9ef88bc96bd865b99aea47a798876
col27:   ab66bc9b7b8a8bdbddab9cc6cccdaebcc5acda8a9cabab57e8c99979af9c98685db9aaa6b8b7585b
col28:   ccd88f9abbab7bcbda9d8a86b97bdddadeeaebcacaa7cabcaa6c8da998b5a678cb4c96a7bbac8bb8
col29:   bbabf276ccaa9c9679cdabc78cb9dc8badbabcab9bccaabac99e96aaabb9a64a9b9cfddb999b9d9b
col30:   a4a87c9bcaca9b9dcdac99bb98cb7deebacdcacc896aceccbabb89abbcbcabbbea69c958788b9a64
col31:   c69acab989beeabed9b9bdcbadb8bcdefcd8bdb79bc99bcbb968d9dbebbedecabc9ab9aebb768988
col32:   8aca7999a89cbc95c9b9ae9b7cba98cedeebefead9ebcbdccabbfb9d998baadbe77b87d9c7eba969
col33:   9bae9ccf99bbcfebcccdedbdcbceabcfacabbdedbaccafaafecaeefadbba8eb8dbab6ddc6daca9f8
col34:   9ae9ccdac69eb7cdcaaf7fcdb98cfcb9addbbbebcbfa7979cc7a9c8aecb6cdab7cbaa9cdb7ba88ca
col35:   c88cbbccded9fccecca9ddefeb5cfccdaaecbcaafcdd6a8f9bab9fbabcd8dc8cccbc69ac9d6a8b87
col36:   e9b89a9ada98bbeaacec8abbbabd95fbfd7bbcdcdacbc89d99cbfafb7ddadbccac9dea879cd9cb87
col37:   ca79ba9bebfba8cc7aba8a9aadacbbbeaeeecddcdddcccef6dfcfdc9aace9aa7bdbaba69ba95cbd8
col38:   7d9aab979bd9c88ccadadfe9acbbbc9aadaaadcaafcb89fb99baa9ab8ddd8bb9bcfbcdbbaad9c97a
col39:   aab9aaba89cacdebaceddfecbbf9d7ca9cbfdfea6bcf99aeeeccbbdcec8bbccdaa7b9db8d79adbc8
col40:   ccad9bed8ca89addeabaebcef8c8fcadabeb9accfbfcacdebc99cdcfaf9bbdbaeb99ba9c9aaadc59
col41:   a9698eb9f99acfefdb8e7dbbacbbdcecc9adddbcc97bddedba9bbc9deba7eadaaba7aa97fcbbb8c9
col42:   c9d85999b79b7c8abcd9ddebfaeeb8ccfbcceaca6fa7dc9cce7baba8eda7eb9c77a96accb9caf3c7
col43:   beacd99e5db89adcb9b9ff9cebd9bddcbabdbfeebaeda9dffbbfcebddbaef98cd8aabababb8de8c6
col44:   cc9bdc7948abcadcd9c99c9ccdbdc8adbbb9bbcdbbbcbedcecbaede9caec6cffc99abad99cbbaf9d
col45:   8cdd9cc9afac9bbbdeaaafceae7bcdbdfccdafc989ebedaebb9ee99fbbcbbbdcb9eabb9d899a8ada
col46:   4966dcb9ad6aafbb8be7dbebbe9ff9b9acbddfdbabfaaecbbaaa9abcf8e9bc97eadbabbbac7ac8ba
col47:   bfa9b9caebcbfcaabebabdfbdafec9a9dedbdebfccbdcec7f9cddefbe9bdbca7ebbe98a8fc8c9a7a
col48:   ae98bd5a6bc9eefcbcbcfec9beb8ceb8bebcc6dccbbcdb8ca89cbb9eaefed9ac7dcb9b8c79778998
col49:   c85cd59cbdaab9acedac9ce9edeeca9debdf9ed6f8bceb9dacecc99dbbcbdebceabcbace8ccb37f9
col50:   ffcaadf9acb99aaebd7ae9daabedbd9b88cbfbcd7fedbbee9c7cfdccdbdbecbaadcbc6cafbb49bc9
col51:   896c6a899d798689abc8b8ab5aaacbac6b98abd8a8ca9bb8aaca78fcb6dabf9aaca9b99cebba87b7
ROC:	 BPix_BmO_SEC5_LYR4_LDR20F_MOD4_ROC12
col00:   6f29844476554634bb9457343689744555493586c499776247477825355955b57295919816213563
col01:   3787699b763572a5899bc858484a8a9697c8768b915b7c986c7959879b896775467519a766956682
col02:   7389474935541877936a5c94b55559bb844648aa5b44ab97b3a9646559a36dd98999778977777243
col03:   959982623689676995744a78bca9b6a746689787579648857bb8646739999b6a879999a67843a766
col04:   88894454648678769e85616463997c74798694b67b8dc466736397da795779a4949677964a948f84
col05:   5188396654a375957b58c5566aa9765d69988b988b73889d4ba7a5a99b8898a988858b239958a8a7
col06:   33421b8849515744b9998a657574574635b59266b64a895947698b9684a5cc535697789897955376
col07:   583876c378747aa85468587a557889779b8adc9b68682b7968878fa87b68db9997447a9759857869
col08:   57297473a8a1ad889aab885d69976948796c69b6668bab8788a6a79cab6a47684878a989797526b9
col09:   4a3867b78a6599453547699c9561889c99daa545aae49d895a68196abaa4a978c7779345786339f5
col10:   9557748995798616885b77ab873688498ae78668a66769c788aa89ba7a778c3a7ba7837aab789897
col11:   92a9569a75615c5635564b9b7a779aa5998c7a8b6a79b6cbd79889bb8aa8597c6785ace88575b5bc
col12:   52a55485475c688541998868b6899947cc7c55cb787c98879356aa994e9a79616556b87626628678
col13:   6a567464956b758597787898cbdbb36b9978b7779985a6895b98778a7978cb7aca6879ab7661b996
col14:   5355579798696875896dc17ba879586a99999946694c644b68b9c998956b75f77a47388836986568
col15:   88574694a5a79a9a8aa6889b7c354b4a945aaba67948889b77a8acc568b898887a98cb6896588475
col16:   8594a68a896277673a96865ca8579c7978aba78a867a859a89ba9a7aaa9897875784a56568887995
col17:   6946537e5a54799698a8598bb759789ac8cab79bd8868a97b6976e974bd77b787a7b492b78829766
col18:   7a4498738875765629a76a2b8b77a2b9b99a676c5b98489c89b96574987da66e66989687488616c7
col19:   798c8798979bb5aa48c6ab996a98ca75aac98697c5bfd9987eebafa65b989b9b9a98c68978d7b364
col20:   45337976189c67c8669aa5778a7893a6977aec5879b6a77c28cb896598878a779aa753b99757a684
col21:   5994897775bd8a595c7683686967a9c6cbcb789969ccb96b59d987b597cb8c9c9a69b876a257ca97
col22:   a9594abb879d3889bc6a595697b767c56accbc78a979786ac9858c79ac6686799aa96a3c77764527
col23:   949b88466997679c4a9bda4cab75fbced6a9a7458988698a5b88ba98ca5469b7968654aa24984855
col24:   94977556c358c9753386ada77797adfc59b969bbb8b9a9b996d76c66998697d8769987685bb77877
col25:   9b758aa499c64da97aae97bac8c9c6bfcb989bdcba89e9e6b7b6b9ac997ab6b8b6bab9695a66aa94
col26:   5995c78ca49d98687ac78c997be9ba99acde9dfa9d8699eabca988cb9a9ac77daa47d79b5a8877c5
col27:   87696597b879679ac7bab99b7c89d8da7a7bad8a7e89b8acb69af9ace8dad7a9868b6b9b778674bd
col28:   8c6ba69eb7bb86a9d5c8bd7a9c8d9c8998cdc9dcd9fad7aabba897ba8c8eac7dfaa989d989a5646a
col29:   baa7aaa89bc9776c896aa6d68baecdd9bc7cbbcdcdceeceddabddcaaaabe589ac9899a79c689a877
col30:   b8a9874d7baa5d99a7b873a78db7a9e9bc9cd7cdd5eabbd9aadb4cca9ec8d79d7796da886acb7a68
col31:   aaa79b98abfca99969aeb9a9ccb9cd9fac9bffdbdc96debdaada78acaa7bada7a8dbdc9cbb9ea7ac
col32:   aeb8b8c76ca9898a9accbbbcdb9cdeca7acbf86bc9cb9a6a6bd9cac9cca9aaaac9cdb9ad7c5395f4
col33:   ebab9786aba5fcabba9addce9b9cdb9c8bcad9b8da2bec9ccbd97cdabac8cc79bcabb758ca8b7684
col34:   db87c9ab999b98bdaec9b9c8fabcad88d96abb6ceadc79ab9fdc9dde9efdaaa9bb8b8985a9bc6897
col35:   c9847e99bab9c8a9aebcb66bccbdaea7abcecdadd9cb9ceccabbecdce95db67bbbcabac8b9c75955
col36:   c8afb38968c99b8fbabc8b8acbcc9c5aaa9dbbeadcb5889bc9ddeadcaebcdbddd97e8ccaacaacaeb
col37:   79ca7c6ad7e9d9adf8dd6ac8f997ec7feddbab98adedaeca9dbcdf8bdcc9b9c7ca57b99c8a6bbabb
col38:   b9bbdec55aeaacad989abca9bdadcdebcbefb9babeafbacb8bdc99edcaba6c7ebbdecb69aabb4e98
col39:   c6bca86ba897bc6bbba9e978ccbcc7cabdbfdd8e89dbaa5ea9befb9cbcd99dcb87cccb99f67d8da7
col40:   ecad8bcd9e85ccd8c88abcbcdc8faedc9ddcabacbaab9df8dbabc6fabffa9d88baec5b77aab6b859
col41:   be76cecd9ba9da9a9acc9b8bdacbdacdfeccda8bbdc9cbcfb8aadc9eacafe9dcbfcfa9ac897dcb96
col42:   67db76a8c7b5a9aadcb98a8aab7c9e9ca9d9ac9dfbaf8da9cbc6a6abc9da9adf9ddb97c7a66b9315
col43:   b7bafdaa8be95ddaf8cbdbdb9abb7fcffbefc9eddbcbabee9ebaea8cbcddcaab9eee7dbccbabe89b
col44:   98a9dbca9ba8c6ea9a9ecbaccebf9bbccac8f9acdabba7bfd87baacecdbceabcbac9c88ac9ccaa57
col45:   bacaea9cddbaabb8cceeae9bbc8fb98cddababadebdbf8badda8e9defef8ad77c9c6bbb99984c996
col46:   aac9779bb8dc8ba7ecbecccea9ee8bbabf997d8dbccabbaaf8c9c6fbfcac9cdfc8cca997d8cc48ab
col47:   c8aad9cba798ebbbad9dda8cf7acc97fbc8bfcbece5e7babaaa8c8bed99bceab9dadbba8f98eb989
col48:   79aaba66cdaccc9dbebcab9ecbbacfacceaeeaebffbfca8faeba8a9dd9dd8c58ccb8e7ac6cbbb986
col49:   ac897aa9b6bbcbbeeabdccfb9accdce9d8cf7fbeec4dbcf9cdbf9bd9cbceb87ecd8a695d9ea8eda7
col50:   69ada6bd7a8f7c89a5bcaba95bedfbbefc9bedaae9d98dbf6ebafe8c6e9cad6e778cabb9bb7a89b6
col51:   4695689daaabb7accb9bac7e99a9acfbe79d5ababb9d8f9dbdbdbcab7bc95aa977d78c9ca57555aa
ROC:	 BPix_BmO_SEC5_LYR4_LDR20F_MOD4_ROC13
col00:   4548564636a7895548584d8a4a39a668c93bba927962a8d7588a64474c86585a787aa15667f87464
col01:   8427a9a87865bb8683916a97b59fabb7c898999ae88558789b7469878c97deae889679a8796995a8
col02:   b665c73b81e85887a97c7b858575897cd9e6bcad459fcc99c1a4e983856b5e84a7b684838c838432
col03:   735522b847a9ca75c8739e9998a99dab7bb98a8fee89a87bca97dbd8b68a9877976748a7aa88574a
col04:   89cb83a96883888747b4bc7ae2ea89bbcbb9a6763eac76b69b95bf69e69a6789ab239a55582499b9
col05:   aa5767475a7877d9bb76beb9977cc976c86998c9db6adeaa977ba9ace6877aa8a86aa39a98ba5881
col06:   9396677bb91596cf62b8aacd5a97ab899db6baa65c77b5bb489ab79878a83784a65b755dc5946654
col07:   6aa4a7a4587ac9bb772a7a8949b7b6c8b6ad7abcada7f7b76a758bbab49a7b75ca9395da66559a5c
col08:   476796776777b68a9db7e754a99b9bb4c7caeb7d7779a7b955774abe85a995535599c3624ab59642
col09:   989487457499677629dc6a7668cba8356befb76bedc9ec77948b7d56cdcb88b89ecab818aca7a673
col10:   85875924787e8d97e4d4a878ee63eceaab5aab88a96fb7adecc4989aacb8d3893697a6b37a297166
col11:   274553ca7b847727a9bb68a4ca6a7875b6fc498a6988b8be8cd9ab6597ab9b7769569aa527629777
col12:   a5554853b85ecb3795b699d7f887894aa6c9bdda7cb86ac9b9bb47367367598937a65a853447e286
col13:   5683b456ca49d7987b78c86967c788eb999ba99a64de6a8dcb796cc95678aac89bc676585824ab53
col14:   1435939316187347b6f7499b5699bab568b858667e4b79d69ca656b7aabcdc8b4b81685c899b4464
col15:   338837b877c8978677657c5c68ba9b6a9dd8cc6ee97bc67fb7ba76d87ac9c979c3778291ba84b386
col16:   a63a593786345c5c78c9db9d4b98cb5ad9ac8ea74a97d899b9677a7bd694b475a84a7a6ab8577949
col17:   7947746371598b7c95ba76d6aa887dbc958ca85e6b9b5938999b87aeb97a7a3baaa587d74b3a6254
col18:   a744159795348a4b85993b9685a93a78eb99c557bcdb4ca6a97ce7bcaa6a7973799753677694a69b
col19:   b4467c688b5d9776bbb8ab868a9e68aad7eac7aaa5bae8b53b873d76bdbc95877d9578b79b665c57
col20:   55538377266e8b187864ba7969c995b84b98a396979496ae966b9d8cb6575a47a6739a7448635293
col21:   6736555677387a3a8ac688f969b98cc8997a79cc379ba67aea798cca7e69a7739846b49989857553
col22:   a644a69787789b6662bad5ab5a45cc669888997aabb159d897766ad8b58ec779a8aa7a56ac676397
col23:   7837859375b85cb9a9796d29775a94a879c7b6bb3a9ccba95689977864bcbc9996c8b6aca8594674
col24:   94467671586648968797ba78b5797566b5b9798c99a7bb9ab8f927a2917649a825a7685992875547
col25:   7554b459aa8a987774a478b9971a6c89aa6c5f77998b89687ba99f7dc79b5b6b79ba7a7237c79692
col26:   7927a6579777b7fb7ac9c878ca6b9e8bd787df96daccf7cd99a6ac99a8a9d5a4a978aabaa797783b
col27:   6749d287ddb9a79be86ccaacabc8a9ca9db9dacd6ecbaadddbab9a688b69ef78576c78a568aba577
col28:   ba91dcad9a7d99a8aa696a8db7759b96ceabfffd94d6ea9f6b9dd8faafd6cfd9c897999c8cab7b64
col29:   86b988879336ada599b986698ab939aa9d9dc9bc99a96bac72578a86988478cc6a978bbcf349aa4d
col30:   a86a9ab74a6369cd7873b97d8ebac957879897a6c988bb78d69b9799acf3dc7ad7bac8f878d4ba86
col31:   b647a7a898b99ba49cc8de647a5a77d6abcca98b97cadbaaaf9bbacc99daaab8ecbe777d8778a8bb
col32:   c97d9b636d9879fabbf98cbd9a98efabbaabc6dad889dce7da9bd6be66a9e8a7bdaa5cd49bb4ab64
col33:   9899887959b96cb6cbb98a9acbbc89e7be8c8adeceae7cac9dc9cb8afca8cecb99b6cf68da8b6b4a
col34:   af97d635483bb4b48b9b5577ac98dbaea8bcb6a8fefd58aa9ab8babbcaaa949d9a86bab3998c78b5
col35:   4888c7968a8baaed78cd9ba9b6ea9bbc9abfacc7bdcc68cbab9cdfaa6bbbab5cb8baa986b48aac89
col36:   a488a9a8b867eb69acdb998ab969ae8bc9b8c9c9a75cadfcdbaace8bd9d99c9aca6daaa569a4d162
col37:   98b937ae5bcfaba8ca7f9c9bbc59efaa7e7ffbccd7c8aefcc8c5bbbc7946a7ccaaedabe958d5c4fb
col38:   989a596a95b489c7ac8b9ac9b9dd9dbbe9aadbafefabfc9acfaa7d6eadeed787a9f88a8aac92aab9
col39:   5829dedb6b57476baa8a9bd89ec9b9c69baa8ad9abb9ca6fcefae7deac6cdaab7cacbcdea9ab5e85
col40:   4a66a93c96be799699f99bf867f8998988cdcdbccbdba9fdc99cbba9f9cbdaa89b8bbabc668c589a
col41:   7976bacc77aa885bd8cbf9d3badbc8ecc9cccff5b996aeacb7bcbdeccf965cd7d9d7d56bb6ba6965
col42:   65aa974771586ea58995bdca9bfac8fba9cca7cda8a89c7d9a87dd57c8d9b75c9a99cba6849aca95
col43:   7796dbb79a9ba8d8e859ab8ba87bdb89b9d9acd889afedfbcce76afebca79bd9fdb9c67bfb6888aa
col44:   5876689bc85ce1989bca7cdabcaccabcc6cdbbdfe8efcacadf98bfdaec6999b9b6f9a4a8699adaa6
col45:   478369c7a8c775773aaeaa79edbab8bedbf8d6cfc87dfbd9b87697bdbbf78f999a9e999b9b9a89b9
col46:   8486668552777599997989d9a95687976bab7a59abb9b8c78b76abfd48889c7badaa666b6b8d669b
col47:   58aa5c7a93ab87b9679b7b996b8ae99fa9aca99afebdafdf86ec68cecdbc9bba78baab9aabcb7835
col48:   7a998a52699449c9fa8ac79b9a98596dbbbdb8ac91abfa8d7fcdbb8aaab8997dddc5a7d6bab56976
col49:   83a45a56d98839867fbecb6cdb79c7e9baac6bc8e5cb8b9668b8b996ab9b9b98ac8dc8b94ab788a7
col50:   23268a9b398a78797979dbcaa7b77ebbbd6be83bcb976ed78b79de5abaa99a9b8b7899a6bc9f6717
col51:   733a964599ac8a57a73acb4978aa8987b9c7dea945a96ab9898ca3c8899b795c8d448576d578ac81
ROC:	 BPix_BmO_SEC5_LYR4_LDR20F_MOD4_ROC14
col00:   6632745775367859627631764a775872979889d6a32855578a569666ab8478752868558694487569
col01:   33999759b4a6d2b49459a58888ada6a34598b796cb9a97779a698a67ba46a8b8a87aab6a8349ad86
col02:   5768787668a844669568569b787b8ab9858a977a5a97a6a9895697b8674949a696884698b999a666
col03:   36567666975999ca796bb6b68ba48abaca79aaaa98847a68779a9a88ab5a889b53995686532667a6
col04:   64665586687976967576768269a4cc5c658abaa88aaaa5976aaa79948a88b7a8856cc687475c9a6b
col05:   357354874986a856b399969a975876be9986aaa98bb9bd77ab955746998988a996996a889a75a792
col06:   5633586a989766747579854b798758a95a98967399d88c6a94895c978588987675aeb7598958a76a
col07:   556739557767935885baa7587695c9789a898b53aac58a8b9b45be7c97a959ba686a77c7a588a6b9
col08:   386875666677797b856a9c9867b9a57a779ca6937977b4995b5998ab9bbaaa778798686b87666945
col09:   54664c87686567a898c9d67779d68e46587796a86cd8ba6c99a58686aacc89773a89d5898db7695a
col10:   955527665c2666b87785688aa8b8788c98a97987c666b8c7b9a8976b78b5b88cc6798c76b99979d6
col11:   5565752425989738a7378799698b87687b866799a8c9666588bdbad998978e879c59879796ea6771
col12:   56848736a8758757976a73659b68849a756c5a88b67a997b39958c8ad7a549aa9b66779754b798ab
col13:   656563a7aa68597899574289b8728b98ab9888c49d475c76b8798b8577698956a489ac57a97a8ba5
col14:   147991359478698bab7a7976988bacaacbbba8a6b6a7747878e85b9774c8779ad77c47339b775766
col15:   7756574999947886cc66c8949aa9ba999b87b788c8bdacc697c999669d978d97c68b97a959b79ea4
col16:   7887b68366e5c5779694b688995b888bc765a9369a8aa587956bb963bb569ab68578a99abb7a7747
col17:   1263658644937663948bb58784a557c87772a8c99b798874488986a9d5659aa878996aa96b877737
col18:   6369446266a98777865c5b58b89a86a7a87599b79ac679aca4faa98aa466a88928b787797cc6a995
col19:   5896968699a56574784498878876898a7966d9885689bac66988c977a5d679999d946776799b9ab8
col20:   35976255528d9d5ba9b83937668766a777a776ac7a597598a95b66a7767958aa2789996c9a8ba7a9
col21:   4467d73454a6aa8888baa85a779767a8d996789998b8479b769bb7abbba987a6b98698b8969cba89
col22:   95469589363576b78c7abc888a9aa9679679a7a97c969da885a9baca6a7a6b968aa66cc9977aa796
col23:   9a35687b4748d8b6baa677ab78876a9a678a89ac6d8369765a6787bdcb8ab7b779ba56a859869767
col24:   7626855668896ab66568a6986698857bc75a9b6695d69778696a937668f96957799866699d6b78b7
col25:   8a74b6738b44b8a79698d8c8a999b99bb76a8a8ab677b88c8c8bc7999abba8a769b5a8a9a69776c8
col26:   ca998c7c99749788db98b98ba9b8c8bbb5daeb7a788abec885b6b98a7c978a96ca6a4d59a6a89578
col27:   8867d98986947a89d77c8a9aa9c3cf889baaad88bbd7cbae9aab8ac87ab98cbeda8b9ca9b68ab6d9
col28:   64a88717a8899a899dbba58888c5a5aad5bdd89a7aa8cbcd77987e8ddcb799968ccbbd9ca9d99b99
col29:   8776eaa698996897d8cb888aa799aaa85a7a78ad86a9f9997b9bba775ac69a937967898e96acc987
col30:   dc988dba9777d9cc987aaa9a6ad89aaa8c998b9dcecccb7abba8a9e84aaabdab57a66c9ea6947db7
col31:   7a7988c8d9a78c98abebc5dadbbcb7e8b59deabab88caaeaf8a6cdab899996a9998bff7b9489a9d3
col32:   9766a5cb5c8c78aa899b68a7b7a6aacdcc9c87aaecad98aaba78da777ca6ec9cc8bbc7dac9b8a888
col33:   ab8c9a9795998a79cc9aaf8d7caa8cd98b9accaa78c9ccaadbacb78cbc4ba9ad9a8b9da95a967bba
col34:   9885a4eaca98acd9aeebb7bba87d8b7de9999dd89aeeabbbd88cab88b99ccadbcfd7cab9cbb7877c
col35:   7ab8ba7b669baaa98a9caf8ed88cbc86879b9cd9ba9b7c6a9dacbbbb39acdddcfbcaabd9ac8adc89
col36:   7577b9d899e8a7abba8bbc3bb899aec9c9985bcc6aca8fbac78ca8b9a6b7c8bcacd7da667acc6af8
col37:   a6abbad7b99b99aadaaca9be8cafab8e98bb6acdb9bbd9988ccfdabb8ac9aed9cacd9a888c9bbac7
col38:   5e6a558aaa96c9add8cbbeedbd9eeaba89cdfa9cadd8ac89dd98d79b7cbcbc7f9bf9bad88bb6df9d
col39:   8c4b68a7d6cad988ab8aada88b69aa996c98abffcdb87cbb8faa89c9a69bbd9d9a6bb78b5a7e99fb
col40:   8577a89aacb9cac8bf9b8bbcbddbb7acaccdaccedbbbb9cbcca89abbdcbf99dc7a998698ccbbaaaa
col41:   6a8c9bc999dabdcefcbaa6baaffcb8aceed8aaa9e979dabd9ee9ae97c7c9acaadca9ebca8aeccbbc
col42:   5a64bbb79bccda989ba8b7898f9578accbccbd9cdbbcdcbd9a8abc9f97b89b8bcbb7ddc9ca8bab9f
col43:   aec77ccbcc58a9caabde6c5d8bcccd58ccaeddbeebdb9aee499bec99dcda9a5898c3acdbac89beeb
col44:   8ac96cbb8caaacbbca88bcca9899a7c9aefbbbaa89ddda8ebcd85ab99a7bcbcd99dad8e8ba5c9ede
col45:   ca9a99b888aa9afccb9c7b79ecae9abadb8fbcbcbfc8bcaca7ca8a9db8aabbabb68bacc88b8bda9c
col46:   6b987c98b7be6d59aaaa6ba9ceeb9b5a6bdcacdb8ab8cb88c48aba577afc79da89ebbb99fbbac99a
col47:   b89daa6d9caaacbbb79ab49b9ce9ebbbc9aaebaabfb5b4bebdc9dabaceda8ab7fa7dc8bf8879bbcd
col48:   84988e99a9a9bea8ecaa78abb77becbcbadbab586acbb9bee98ac977a788a3aab8a99dcb988abacb
col49:   b6bbb8b97a6aada6aab9bc9b86ccadbe9f9daebda99adf66adccbaaba9aac88b9dc9badd8c8c778a
col50:   899ab7b95bfb9bebab89bccc8abaccdfba6cbcadbcb7fcbdccd99888cd9abdd9dbbae768c89b98cb
col51:   96a9a67a73a9fb8a97bb599ba8dd6ab99c69bc9698989967bb78975768caa67728baa768a87bcad7
ROC:	 BPix_BmO_SEC5_LYR4_LDR20F_MOD4_ROC15
col00:   558aa46369677787685179a7863357ba8658854483c85bd8285238766855a943c83727595674a877
col01:   65a5896b5578ab68c9667ba7e7658779897ba9ad9696ca8a6b99b675a98948ab7298a8667b986cb8
col02:   587928787a4a6785b988c84778aadba98975c7a477a36d775a9486768a356b4aaa86ca35c739bca9
col03:   9766898879843969a7ac765b856acac4a6886979997b69c8cba6579788d976748767696d79859669
col04:   5b518699849b9375856a9bb795677896788a58b88765a65d9668aad62b999a47b867897748ba9737
col05:   87698889caa58658b8876bacb7467949768abc77786a9758ac769345a9a88a68caa98789497a53b9
col06:   877a46b877279565988d7ab9ab9c557937b6a9a89996db7874449b75566a6b774a9a756788675f7b
col07:   a599857d95869855ca8a9a4b9ab76bc99cab9d779aa86e8d98b6c749c9b69a59b9ba8ba595c787e7
col08:   7986896954a568a9aa9ab77a67887c8bcb8b6789b7c98bbba6bcb949739a88a4777a886824a65bda
col09:   9b9736aa4754958a59655a9a9ad8b7a8ddba8b778665a8757a949876b969c967d38869a4bc8a9aa8
col10:   c7877a8c59977cad5988a39a9ac8c8d4cbe97587a68978a98aa58779699799a688a88ab739bc599b
col11:   558584b37789c49cabbb7e9358c58ab977a8a95a56ca985bc8a968b9f798c36ac366bc987679a448
col12:   8846568a8acb488887878ab8b88a6889898a7d78648788a8697deac49957855ba8779859cca8b786
col13:   878688b77da68b9bb8aaa998aabcb7d8a5986ab8a47b68988d848a7795c6ba6c746588849659a676
col14:   93999a78d857798bab7a8d9796b5968b8c58caa9c987aa9c999dabbb375b5b7baa9885773a7c5866
col15:   b1b83697b8abbda79989dab59a9d7bb58976abb975a869769c8789b8a58cb8a97b68a8687b668577
col16:   8579897836aa43aa8a9bfaa9bc88ccd9ae824974488cb98c7aa569895b88a7a89897b46a56d8777b
col17:   47487b8cb5667aa9837a49b8598667ab898aa6889567c88478a986788997656d79ab556374b86b89
col18:   768567d8a582a29a77b587ccab55c986aaa8db78777987caf7577a789397789a8648787869999984
col19:   3c5b77973ab476b9859a7bd844caaaa9b7bbbac89958c78b5bb2798a8ad6b9b86c85686bb68baad6
col20:   888188d593ca597578698b6b9a9caacaca9bcc98578c8748877bc6a6aaa85b6c886b6a88a8b8c979
col21:   6c6b876bc69848a8b8a77739bb98b89c959989ac8ca9959666a7748757a5975a67bb97c97d84c787
col22:   9767395476846578a897b6997dbbaa889998d3879db9887aaa9c876789a8c39457a87743c773c594
col23:   8869b5864999954758a186c4cb8b8c387aaba87685cbc979a8999c967886857396aa8546957b6887
col24:   883574aa8b87866a69bec78cdc7ba897abedacbbb9e77daa997776d97a85a779aca687bb6688c9b5
col25:   7388ba6998b6865a9ca7cc9aa99cda8dcf77da59988a9abf4b9ab889c97a98973685d78777b87b77
col26:   96756cb97a2db7bbb8bc7a9889aa8ddcbaaacddaabdeb9bbdb8dfdc9a6aa5b49c9c7bb7ea5488da7
col27:   a6ab9ad49a8b5a8a989bb89b8a69c695baae9a5a7ba8bfdadcbb9b87689a996c98dc9979b9873c85
col28:   9ab7aa99c7acac9adead78acdbdacaeccd99acaa7bcf8adeababad8dcba99a9cdcb599d5a91c77b9
col29:   5579b8bb8de9ab5c9baaed8bbdfadbc9dbb8ab8aabbfdaa5ccbb9fc99bbbacabcaec66adaa999e87
col30:   b68b99a6bc98c8919db98aaba9aca6d9caaaaadd8ce7a659daedf8d9c8bb9b8ab5ada786889899c9
col31:   9cdebac9cbdca8f9a9cdd8bfaa8deae8847cfba86dadc9bdcc9b9aeaa9daa3cb9cb9edb99a96b7b8
col32:   9e6a8bca7dadc7ba99ca7b88cfadcefe9dc9c6b9baca9a9acba5cabc69acdd8be99ccb6bbbbdf6b7
col33:   ca8698aca8a6a9cbcd9cb9ca9fdea9a7ebbaeeaabbecabf8c8cac7acba7eab6e9aaa89fb887a9cbb
col34:   8b9ba9efbdeaabdc96abaedb9bb988ccc9abfc9acbc8bb8b8dfdaeea9fb68a7beb9889aaac9b7ce5
col35:   77d9bdbbbc8bebdda87abafecea8abbac9febedf8fb96aab95be6deaaca9cf5eeebbba7beb7e95bb
col36:   86d5798ae8b3e78cd8a7bd8bbc7adcaadbffdbacab69ab8caaccaa9abd79ccec9a4abd78ca79697a
col37:   a69c8afcb7ca68b7c9ccaaa6bedfaadcc9dccf9abda9cbcccddcb8ccdca99eebc99d9d9cabb8cc9d
col38:   c886adfcda9accefb9c78accacbb9bbd7a8beacfcbabef8ddbeeacaedbdbdaa9af7fc6d58dbac9ba
col39:   c49c93bc799abbbb99c9daf7e9dbbdbe8a7cdccb9bc8a99ccae8da9c7bcfadc886ab8bdf9f89a7de
col40:   7b897b769cbaea5bdaab99cafa9989cedcbdabafdbbaada66aa9adfad7ceddafafdad8bbae66bab7
col41:   898baddf89cfe8e8cfe8ce8f4acdfbaffdad6dfdb9a89cdd94caaccea9dde8ddace8b8abe779ca99
col42:   988c8aeed8ccbae9d9fedbdabba9aaccadfcfa8b8d9ce9a9ccbda6ae8c95d7c8fafeec8b5cb9cc8e
col43:   baccbaad67d9afcac9c89ad689ecd9dfdcfabbfbcf9ccbdbbcf9d6b9c9cc9adfbbbfbd8b7bac87ce
col44:   78a95d9b8aa9ab79c9cea9ebabfadecdddadae9fc8cc9acd9caacfac7da7a9b8bbecb879aaf77cfb
col45:   694a679bfcbd6e8cabdaacae9dcca6dbdaafbaea87bbfbc8ccac87c97ea9aabcbbadacb7cab96fd7
col46:   8daaa7ceaf9dbcabdb9dc86d6bcaaaccccac98dbe7ddda78b8cbc8ccbabdfaacceac9dda9dcc98a8
col47:   998bddcc8baaddaeab5cebcaefcd8fbabebccc7ba79aebbe9ccd8b8ac9dfdcc79ffcafccb9b9ed5e
col48:   e9d9a99cbedbdad9bbd9a98a8cdcbbbcbebaaeafdbfbebbbebfbb9e9bfebe8cbedaa9cabfa8b8abe
col49:   bb8abbc97bca9cea9caceaebb9dbdcdcafdc9fbfc9cb8cceeecc8dddddaeadccac9bdeeebeb979a6
col50:   67cda8a8eadfaa87cabbc9bccbfe9df9eaaabafcccdcffddc8aacdbacbbceabc9ebdbc9cafab7c8b
col51:   759676a98ae6f97ab59a996ea9eaaca76abd8a5eeba8b68bbbab7aeb896ca87e9baa9daac7aab8b6
