ROC:     BPix_BmO_SEC1_LYR4_LDR2F_MOD3_ROC0
col00:   759699188A98C5558BA96676D77B7AC6DC9CA6AD7BAEE97ABDA8A9BABBC6A668AB698CB812466952
col01:   986774DA899975CD8D789AAD79CADDC8BDBABCFABD99A47DBEB9C9AAA8BACAB62B69A6B9B49C3AD9
col02:   4AABA5E8A23AC8ADC69AA7799687AA999ABBE9B8ACF9ECCD89AAB77DCAA85B88ABCA89AB59599A64
col03:   B9B699B8778A8ABB9AEDAAAAA88CCCCFE9C89CCCB7CEC9BA5FCAAFAA7B9BB7954768798566AB5886
col04:   BB7BE789CF9868CB86C7CCC9AC7CCEEAA8A7D8CCDE9D9FE8BEB8CABEBCEDAB99ABC98768787A8745
col05:   D877ABA59B54DA69BC8DFFCDEF69BAAC9C8EA9E9DABCD99ADA58CACDAC8A7C6A8B8DB9879AB6488B
col06:   49CB79C756AAEAC7BC9C9F8AD79B49B89BCCBEFE8ADC8BBCD67B9BD7B9AAA889A8C5AB97566A99A4
col07:   D458989787A9ABACBC86FBA9F6B87B8ACA9E9DFACF79DB9AD8CDEBACBD99FC8882D9A897DE647B38
col08:   9A6757879CD897C899EEA9BEA9D9ABDBBCBC87DD987A5BDFED9BBAB89D7BDDCA8798A979B6886575
col09:   958A7C9C94889B89BB7BAA79989EB88DBD8A9EADABA9BED89CEEACCD9DDBB7BCAA68CAD499BB8C99
col10:   B89978ACBD9BBDCDC9C96AB7BC8A7C995CBEB9994FDB9BF995C8AABC7D8ACCBEDF7D989AA8998AA3
col11:   676697CBCABA7ABB5859C9BBB8AD99CBA9EC98BA98BBCEA9AA699AACC9A88D68AD778A6CCA979927
col12:   B8C98A99859A6CD9B9D997A9B9BBB9DDBBEB9BC8CACA9BADCA79CB97D899ADAACC79637769A64574
col13:   79B7795BAC6C896C98BAE99679BBBABD8AAB8B9A9BDDCD98BB9CAC9CDC9BAFC999A85DAE9A887999
col14:   A8BA67878A8D9C9DB6E7D9BABBD97B7C99BAFCADBFCE9BBB5AA9B8B857D7B946A6A67A7887B48786
col15:   BB47DEBB94B7A1C97BD9D8998AC99C9CB8B4AD98B89ACC9B8BDC9E789EBE789787CDA9ABCA687791
col16:   A9668569A988BA66959BBBC7DDBBC65C6BDBEBDC6E9BAC9CB988D87AE9CBCB5ADCBC4CCC65865868
col17:   B75EB368A6DFA8A9BA87AC8BBB95CB8987C98BB8BB9CAAE7CC7FD87958ABAAB799B58B4988226898
col18:   A7A58687939A57C8B58BACE9CBDD8D7CCABB8E9AABBABD99B9CAC6ABC967E97BB765671B978A56A6
col19:   C89829AA63A7BE88BDCD9C9E5AC8DCA8BBC17CBFCDDACC88AB9AABBBDB7EACA99BA57A8B368D5866
col20:   A989A6C57577C9C796DEC7ECBA95989DB9F9DAD9DDAAA39DAC5BCD98D3A8C997AC4694655C488578
col21:   4799C797A5A98B96CBC6BBC8CD8DC799EDD866EDBB978BAA88BA7E7BF7BC9CAAA798AA6ACBC9878C
col22:   74B897594766DADDCD7A9AB97BBCAF85DDBD9BBEACA999C8CBBE7B8C5DBBAB788B3AEA5176894775
col23:   8957699EA97A8A99B77A9E6766A6996AF97AA99B8B8C58A79B9A6BE8CAC968C798B7B779C4B39A54
col24:   87A77B7BA8AB94A6DCC7D78ABECECFBC9CCAFBA9AEBC8B6CE9DE86C8AABB7C94B95AA7398AD77ACA
col25:   9B8A9D9B6C5578C3D8DE999D7EA3FC799A8BC7A98C9CCCCE8D99D9469CC9A5BACC9AC89997996769
col26:   899C5B8BAE5CEC9F9D98E7A9CFEBFB9FBA8CBA7C8BFADBCE8DDDCECAEBCDDC9FCCABDCA687B9A8CC
col27:   8D6BC82B9D9ABA9D698C9DAEBBA7B9DAEBADDB7ABBCEFA59ADACD7C99A9D8B6B6AB9FAAAC8D6A8A5
col28:   B9ACCDDD9AFACB887BEFBED8AA8BAACBFBFBFC89ADAFAADBCBDAEDEBCACAEB99689885AFB79B5A69
col29:   BCBC8B9CA99DCA6EBADDA6DCD886CCE9B9DCED9BD5ACDF9BECEDEC8FADEDF99BAAFB86BE788C7954
col30:   89ACBEACAAC6A9FBC99ADF7E6BBCFBECBBDA9BCDF9A79CBDA7BBEC9BD9D9EABB5F859BB9CA89A7A5
col31:   C9BA9BAACDCD86BBC7BD979CBA6CDCBBBF8ABBABFC9F89CF7FCAC9CC9AA6BB9AA7956AEDBDCB9E98
col32:   87BFCD9AABACCCDB9D89E8DABEDBCECF9EC8EFBDCC9CBDCE6ADA8ACDABBBDAACA7DAB79CABB7D76A
col33:   6E9AFCCB9CCADAA9FFEDEDBCBDABFBBDEADCA9BEDBCB9EBA7BDDBADCD96DDEE9CDBB6CBBBCBB8768
col34:   D9AFC4DF99B9CA86FEDBAEA9C5FDFEFDFAFEC9EDC88EBCCDBE8D8CFD5BCFBEC7B7AEB89ACA7989D4
col35:   6CCB9A9A85A99D9BACB8D9AACBCE79BDFFEDCCEFDCC9ACB5BC9AFB6BD988CB8ABBAE696D69CDAA98
col36:   B8BF9BD8C9CC8CA5A7CBBDBAFABDADFCAEDEFEECC8DDAAEB98B9AAFF9BECCBABC3AAB67BA4B77BD7
col37:   9BAE9C8FBCD9BADF9CCCDBCAAEFBBEFB8EDCDBCCCADDCC79DCBE6AFC86C9A4ABACCD9BCC7B879877
col38:   ACAD7E89DCEDE9CBBACCBD9CCCAAFB8CBFBECCBCAF7DDEF6FACBEBEB98F5858CBA9FA89AC7C8C679
col39:   79CADDBA6ACD9D6EACA9BCCCCADBD9EADDDFA9CBFDDFCAAD9BCDAFCDCCBFAD8688CCA898A5B8D777
col40:   7DACCA7BBB97BDBBBCB9FDD9DADEFCF8EBDCBECDDDCEFCACEBAFADDEDC9B97A8C7B8AA89DD8D98B8
col41:   ADBBB8CCD6CA5A99BBDDDCFBBB98FEFEAEFEDECFDBCFD6FC87DBBBDE9C8E9C998ECBA8876BE6CBC9
col42:   ACE88ACF786A9BAAEDBECDDCE9FB9CBDACAE8EFB7D8EDDBCFAAEDAACCCF8E7AB8DCC8BCC9E9A8665
col43:   C7779568ABEABCDB9BDBBEEACE9C8EEFDECB8F68CCCF9EBEFC9BD7F9DABEDAD7ACDB6878899B88C7
col44:   7FB7D8DBD7BDCFBACF97DA7BBDC97DEEEAAECEBFDCACEDDEAFBAFEE7BA9ABCF9DCA9B9BDE88BABB9
col45:   9EFED7C99D9BEA9F9CCFAFB5BB88EEBBBFD9FCF9BCDACAC9DDAFABFCE9E8BB6ABBCC9ABEB9C9AFA6
col46:   B4C7B74E9A7CA9DA9AFCB89DBA7CEDECB7CBDDBAAC8AACAEBBD98BCCC99CF9DDB9D6C4EA8CA96A67
col47:   786BC99CA5BBD9ABDBBA8A9BDBDDDC9CABCAA7DA7F9BBEBFCBDDB9F9C8BA868B9B9CC8BD96BB9ABA
col48:   3B9C9FCB9B9C96BFAC879DDA6DF9C8DCBCBCC99CDDCADA879DCCF8AEAAEEDBC88BCA9897A9C9C6A9
col49:   7EBBB7CDF679A9786CAAE7AAB9AAA9BBCA9AFDAACBBADBAD9DCDBC4BBF8AB8DAC9889A8A8AABBBA9
col50:   B8CFCDDD77CABBCD7CCBCEFABEDED8EFABDB8FEA9AC9DCFE9AEFD9CBB9FB68BACB8CD87747995994
col51:   A75ABA98679898A68C8598AC88A7985BB79CC878CBDB86DB777796C8B63DD9B67A25697885486786
ROC:     BPix_BmO_SEC1_LYR4_LDR2F_MOD3_ROC1
col00:   6534147576654395865679868CC748677598698799A67B7AA875599B886784A99479998986AAB9A5
col01:   8374798A497865AA65626AA93869288AD68BB5877A67898BAB677A9C9B99AEC7AC4A8ED88A9BB56B
col02:   73745178575675985996A98878A69887A8CBA98B8997A7CB7B98B98D8B987889C986D47AAE89538A
col03:   3734488327797526888849C5476B78BA96556A87DA7CD9AA8CAA7A729AAB9BB889CBBB76988CBD59
col04:   68567658666376779597BA94A88895C589C8BCB8CAC989B9ACDAA8A9D8B7B89BB9B99AED65B8C979
col05:   72863464979445767675C6D988475DA88A88698A9D4A98B996BBCC6748AAB7CE8CB7B66B9AA68AB8
col06:   85A568A5588588978B57199987CC9999CB96AC975B8A99687C68AB777CB98ABCC9D8AAADAA9EBBCA
col07:   4637679798868B69A77A61777B6998778CAB89B47899FB6BBB6C7DA79678B67AAA89CA6788CAAAB6
col08:   5675A997529375B5558B76A99B798CBA5C6758B788B84A7B6A8BA79A4689A79A89798947A98AAAAB
col09:   574884A5792467BC7746699989B9B79979E8A756A7ABA6B8E8569A5C98C47A9DBA9688CAA6AD879B
col10:   5686374269344A55A7998895A8D9B66CBB8BBC97D9C779AA6BABA97EA99BACBA49BB7BB8B8EAAF9B
col11:   9637B5755887685799899A995658CBC6A8842ABC6ABA7C89A858ADC99B99D8BCAA9799B98D9A79B5
col12:   584A56493766657BA5A779879859A98A84C9CD6E6CBABCCAC96ACC69A79ABB78879999799EEAAAEA
col13:   656D6646699875867989C8B7A96A9ABA977A98AA39B6ABBB6BA297A99ABAA7A6E8AA58A5ABB7DBB7
col14:   3557279888867746697B9AA7897ABAD779B867B6A799668AD9CABAA47AE66CC98B987C9E9BA87D7A
col15:   8666747445667898758AE988BC77C884CA8986BCB8AA989DB9657CB3BA6A98D7D6A6C797BC89AB88
col16:   864365826765A9598698B96C8A95A89B799D9CBA58C9AC5B996AB8D7E89A9A9BB878C9759C88D997
col17:   2554952593764575A896989989C988C766A9AC68A89E7A978AE4D987B7958FB885BA5AABB6888BA8
col18:   423174A71724738A45AB86D825AAD8CC5A565B7AA6A9A87AD97E968AA67CE9A7BEC5868A68BED597
col19:   4684529665765753A5957A898B65977B8C889A79C98CC678948C79B96D9E9A9987B952A7A7DA9AA6
col20:   64339637585765A9758A58C2A7576669CB89984B948A99CC78B68B7668729A94998AABBB65A8989B
col21:   576187B56456C68C9655B478A947A7A49765AA789769B78798595B87CEA859A9AAA98DB7B7ABC569
col22:   664663569A6758A64986699B5CDC58DA59C9C99D9779598DCA888B9CD9998745D9BC8B795B89C6A8
col23:   8168463182963935676657D889887844D88876AA9968955CB8A9968794A877887498A68A95786B76
col24:   7375974B489A4376959A9A69B86A898289A797678B98A89859A77796AA8AB77BD9A7A97AC6A89998
col25:   21383B368378877595658A7A7A85B8799887899CC99C887CBA5DBAA9B8B697C6B8C487C8C69E9B76
col26:   3B87A94778996996C8A98A79B6CD7BC98AC89CB9DBDBEBBCDBEB987A7AAEB7BCCBABD7ECBABBCDCA
col27:   65A6677853BA8ABBC8C9B699ABAC9ABDA8DCC7CF7DBCCCBACAA78B938D87CCAECF9B8AC59A89ABE8
col28:   4565A864A89788A88B786A8B69C6B7ABD7B9CA8AABDC9DCA87AACB58BB899CBAC96DBABF7789BB97
col29:   86397A8753B5C75B85C8BAA9C789CCC79E8C9D79C78AFA99BAA99CA89B99DCCBDA7BBAACAC8BBEB7
col30:   69297659596937A7A9B789887CA9BAB9BA99C7AF8CCCAD9A8B8D8EEBDB9DAE89B9AF9ACE86BB8BCA
col31:   5245A4A97BC385ACCC987A5AB7C9A99BDCE8B8A7FC9A9DB7A4DAB8CC9C99C9999CBAD8BA999DECE7
col32:   748A5798A7A8A9B59C9889C79A8AABDA8DAABBBCF99CD99CFACBBB9BA98BB8C6B7DFBDFCB8CEBAED
col33:   8AA86AB953B98BA3D89ABB6B888CB4AB87A97C9CDD9B8DAA9DBBCF9AEACACABD9B989CDECCACC9BA
col34:   88855778B94A9A978AC8C8B78FB6AB9CBBCBCF9BA76DBBDB99ABC6BBABCD9EFBDBBBAFFBC6DDBDA6
col35:   936966B69BC7A8A999AB9ABA9C5AAEBEBA7CCDAA8DB99BBB8CD9A7DBAAAAABBBEB7BCD8CB9EFBDF8
col36:   855ABA857ADC8598ABAEDAC89A9C8BBCEDDBBC99C98B6AC95BFBDCACBDBACAACADA8C8CBAAC8ACAD
col37:   9C7A758AA8AAB468BCC9C7858874E9A9D9BAB9A9CCB8BE7CEEADDCB8CBAAAEB9DCA5CACDED9AAEAC
col38:   6A8377A8998CA87EC8A988CBBBB95AC9DCDBF8BDCA9CCAAADC9ABECA9A9DABBABB7AABD8A9BC9ABB
col39:   4A4A7797B98AC9AA99B9C8BBAEC8CCCD76EAD7BA7DAFCADCF8CB7EBC9E8ACA9AC9A9B9CB9AFEAAEE
col40:   7989BC88AA86ABCA8ACAB9C9CDA7ACBBBCDAB5CFDCBAEBAEBAB8BAEBBE9DBEDAEBEEB6AFDB8CABCB
col41:   9669B7E9799BABC7CB8A99DCA3BCFCC9B9AFEC9CAA8EA9BDABB9FDB896C9DDABEBCF8CAB95DCBBAA
col42:   98D5A886C8699B8B89AAB79989DB97AABC8BBBEA7DCA9EEA3ABAD89AFCEA9BE8A9C99D99BCD8ABDD
col43:   8779899BBA5BC97B9B976CB8D8B879ABA96B9CAB8ABADAAAADC8B9CD9CBDBBABBAB9BB9CF8EDAABC
col44:   677687BF68787AC96A86CB9B9BB7ABBB8BAABFBEBBEC9D9DCBBACBAA8DDCEA9CC7CBABEDDABD9FD4
col45:   2C48B8B8AAA7689B9B9CBD9C9DBAADEEC7BBCAABDDD8BFBBECEBD9BDCCDCCEE9B8B8DCBDBEFFCCBB
col46:   867B57A67CD9778BC897BA7CCBBAEED9D7BACCAFBEDADA6CF9BACB79CBE7ABEC99CA7CDCE9E87CDC
col47:   A98887ABC77E8CD785CB9ACABBDAACABCE9CABEE9BBAABAAABCAEAB9DABFADCC9BDCAC86BA9B9CBF
col48:   643675A7B98BBACAA998BDAAACCCE9CA99ABCACDCD9BDC9B6BBDACBB8CABBACB9ACBAEA6CCBBBABB
col49:   A6678A97B8A9CA7AACABCC8A9986A9DA9C7A9B8A7CF9BBBBFD87CACBE9BDDCDCCACAB9887A7C6AE8
col50:   68A6B8A99CAA998CCBD9BAD998E9CAABAA878AFA9DDDA9EBD99E9DBADBECDDCBBB8B7ADB9EADD9A7
col51:   4384A7CBAAA6A4C73ABA9BA779CCC6A598B89AA8AB7AEBBAB95ADD9C9AA99D9A98A99759B8789BAA
ROC:     BPix_BmO_SEC1_LYR4_LDR2F_MOD3_ROC2
col00:   663545246656568286836A25A9648586A9AB87719AB7755443AA6B195789663B7766344B86555786
col01:   3679697652974764785C777C7A5687A7368485695577848B99967187997398A69776A75A8378B69D
col02:   42745368477A8C68B8368A47A9A586A5844AA9583A79675A589A8A63588ADA96B9C8BB956B9C666A
col03:   75655A1C985A7446636A2A6643CC99788798A86788866878AA7A8896B896889979AD98866984B697
col04:   27338977748769846ABC6596968674AE4883A986785989B98C9B48A8C9A7AA84697CA4AC47B4CC63
col05:   67686266698628895767975695B599838787A46AB7D9AC68896BAA8B57C5AAA99BA9B75886979A89
col06:   3176A485676A93988887A8EE6957778B68D998E9A99C99A77A9D9A8A7999CA98C868AB7978C9C3B5
col07:   4578A786C3787B5789778BA6AB99968978CBB6ABB7B7A67A987A866BA7BAA8A989B899777AC7BC96
col08:   149826C965895455B5A77789BB989992B85489A9A89FB76CACC6E96DA7CFA797B7A5DAB66ABCB8C7
col09:   849A33896675949555669BC9A975859A686969747A75A7ACA94BB8A79BFDD9BA9DC89888A4BB9987
col10:   8673676876A46489A58678A59C78A879A68849779775797F97A6ACBAC9AA97959BAA5E3B86B99BB8
col11:   83628777A95986A999979AA79A8795C9D99A86BB56CA986D5999A7B78B9B9A9F7A87C989C66CCA93
col12:   83548764688857399A57A8B987A89BA799A7D84C84B98ABAD8CD68A7D987ADAA99C9CA87A8997676
col13:   9694B58B873C9B7B37A5899A9AB678789A9BBB8AD8A79BD8B86B86BA8C799AA9A874CA6ADA66B787
col14:   79558B327768D5C6889689A75A8BA9ABBC9988EAC98BAAC799CBBCAA669AB7C6B8BA7597A696CB89
col15:   7AA486A751956B9596AB9AA8F464C47CA8399C66999B9B9BAB9BA55CADA6B8B969BED98A59AA66A7
col16:   A56459BA87A6565B789B9BDBC979899977A8A7B9BEB98AD9B9AA9A79B7B9B9A78AC8F8B8B6DCA899
col17:   465897876AC8896AAB85A8D778B999A69698CAD4998BCC8BD69DAEC999789D978B5889F8A898A7A2
col18:   A5497487A897AA6A9649C6B4A3A7C7789A54BB59C69A8A8C9A98CAACC9999DAC99A9D5E796CA98D9
col19:   A869968998DBB9797697B995887689A67B9B99C9DEB796CABB8ABBCDEBB8AB8999AC8A78A87ABA66
col20:   9947535699A74A89A77A98966976AA99789B799B9F7A7B885A788B7DBA88B99BA69B5DAA7CA97C9A
col21:   5459757CA9889648B79A98BE7A99AC87A99869BE7B66986B7AA997BB9898BD8979DB9BCDB966ABAC
col22:   A68A754B5BC6288B76876AA8A98DAAA6775DDC9AB99BABB5B776D7A88EA9D96CBAA9CCC9CC67A696
col23:   735536875975C55674867BA89B89788B76A9A968BA97877B9D89C7BB997C8B77A79988AA8C8674C8
col24:   658858A8A66BDAA997D6D76D8A5AA99897CD78ADB9BAADB97BA9B7BAACDC6CBCA9ABA9E8B9CDD8F9
col25:   987997789A9796A678D798D9BAAABEFA9A88ADA76B999B68CAFCACABBA898A9BA994BDA89AC3D9A6
col26:   A877AA8C6B888B8A9AAAB99BC6DBAADABB7BC6EB9BACC99BD5CCBA89B9BCAED7CE7F89ED787BAE87
col27:   978A555B679788E8B8C896C9BA8DAB97B8C8ACCBAA9BCCADA79FCACFCAD8E9E89978CDBA8B88FAC7
col28:   A67759FBC79B8ED89DDAD97FA87F5ACBBA99A9947BAC9CBA86CF8A8D9B99EBBD98C9ECAAA5B88BA8
col29:   937888B9B69A568A9BECC7CDC9EBAE9CED9BCD9889BBBE9B9E8BDBDBFDAC97DAD8CFAD9B8BADAABA
col30:   8D97699489A899C5A8A8BBABABA8CA7CDEAAC9EADBA79D9AEB8BCCCECBADCACB9ACCF8DF79E9ADA6
col31:   896A9A97D88BA88AB8F8DCD8DAACCFCBBC6EACD97CEABDDFDCECDCCCDBACBCC9ABB6ADC9BA9DAA7A
col32:   B8C8AAA77BE7BCB99ACCBCC9ABD9BCBA9ADBCABC9CC9FCB7BABAC889EBCDFDC8B9EAACC9FD8BDABE
col33:   866676581AACF677AB798DCB9CAD9CB9AACCCBC5C9CBACFF899E7DBDECBC8BBCBCD7ABCAC9BAABEB
col34:   6B95A98576AAA9A7EABCBDBA9CADED9CBFABECB6BBDD9E9BEBBCADDDD8DBECCBBDBADC8CAEA8CBBA
col35:   6ABC87BB698BA887DE79CCBCAAABBAA9BBBBBCABABBEBFBFEDA9C8A9E9BCFDC7A898A8F8CDBCECA7
col36:   A7BA278BC9879BB8C9CCCAAB99CCBCCCCEEACDAAED8A9BDFFDBDCB98ECBCF9EBBABECC7BBCDE9DC8
col37:   7586668A5A98A98C7A9AB79BCBCDDBFDCCBCBBD9AD9BFCEECDCACFA9ADCE9DAADDBCCBD9B89DBCAE
col38:   DBDA747BCC7AABB987AECADF9FBCCBAADCB9ACFDCCDEFCF9FBFBCBEBBCCADBDA9CCCCBC9AACAEDBB
col39:   8B7AA6C79D6BB6BAB998CBB9BDFAC6C9C9C9BDBB979CD8EBBEDB8BAEBC8ABABFFCECDB97AEFCBCB8
col40:   7B79997CBAC8CC68BACA9988BBADEEAC9AABCBACB9BCDDCCDCBFCBBDECD8F9ACBCBDCCABCCABA7CF
col41:   CCAA897DB698BDBBEBDCDCC9EBBDFADAAE7AC7BBCCBEBCCE7CFCBFBABECCCDDC89FFCAC9ACC77ABA
col42:   3777BAABDA89BABAC9A9BAE8DBA9CCC9CCFA9B9BCE99FCBEDBBFBEBBCB9CAEB9CBAFBFCEBCCBA9DC
col43:   DA7CBA8ABC277DBCCD8BABBACDDDBBAFCD8BDBD7BDCEABBDEBDABDBEEA5C9DEA7CECD8CDDFDCAAB9
col44:   A66CA7AC9CCBB5C6A9AADBBCDCCEEEADFDEED6CCFCDCEFBEEEFAEBDEDBBCCCEFAE7BCAFBBBBCE6D8
col45:   74889A989AB8B6A6ADA98A9D7BEBDCABDBF8ED9BBCEBBBDBAABBB9BFA7BDDEFCCBAADBDABCCDD9CC
col46:   898ABABD9BD8DC7D79ABA9BEB9DCBBC9CDBCABE8C9F9BCBA7F7CECDABBCABC9BEEFCAFBCAEA9CDDE
col47:   C87B7AB9D67B9BC9CADB9CC99EC8CCEC9ABDBAC9FDECADDBBBBCAF87BFA9B999B9AEECCA9B8DCDFD
col48:   8B8ABBD5DACACC6ABBC996CCABCFC79A7FACBDEDAEBEFE8CDFD9BBFCFED7FFFDAECBDAABEDEBDBBB
col49:   CA6CDABA6DB99CCA8A9ABF7DCCB9FDA9C7E8BE7BADDBCDDBCECCDA98CEEBECBCAD9CABEC79B7CFAA
col50:   6987A9AACAAA76CBBBC9BFBAC9DC7EFEBACAFECBEEDECFBBCBFEDBCCAE7ABFEAEEECCD9BB9D9DEDA
col51:   7978A57A7CABE79B5BD7B988899B9B7AA7CB9CAAAAB797CAC8999B9A9CCDC9B8BBAA96D9AB97B9B6
ROC:     BPix_BmO_SEC1_LYR4_LDR2F_MOD3_ROC3
col00:   5369B65545368564778568695784B5B44556993163B368858584857C9736A1A366A7976467775673
col01:   A5555AA77CA8A75B789499DA78479ABB7947686A47847A6AB85935A954578B86996859697557B494
col02:   69558939A6678A788898899B66778887969679797897696A97AC9B6A8BA7A85968C597975498879A
col03:   5767C5994474583698776658B555A86A6AB9675C57AB985534B8367967848B454A875874666873A6
col04:   77A95869499A5999858A19D7378C37AABAC97D9AB76A5B7699477748A9797558699347653A563651
col05:   7A778477846A659A975786777774799898A478885979A767A947A8646AA758985987754675656466
col06:   95446599575A67878A467A87489677BA9B7989678778B3D97B687B299AA9687787846764865A95A7
col07:   797B8936838B777A9C5A8A8A978899549888BA745B79D46787C89699B57858759757896994958786
col08:   7496C6678676685896777868B5A68AA6A7CB896979D899AA8616786897AA57963A999B5889787695
col09:   9336656488558585A998759DA9B8C696B9D656C986862C85795466A765B8A89A7C66D8ABB76C6AB9
col10:   C65774867A993A8939A6A7693858C9689A7C589AA9B9689A686AA7698966665698AA87648A689A58
col11:   87968776166BA95C66A3956CBA777B876C788B9B7A687A8B567799788B7B858479A763555B288675
col12:   97988557798398948B6487A8AB4998D889D4A85968957688389A6786878998778977DC99B4856A49
col13:   3874B884BA9A66C9A668AA7A7548A69E9A897A99517877B889A757B76D69A8987C874AA88787A774
col14:   8AA3A97539989499B66AB9987599BC9B87B7A899678C7997B9697799B677CC9986A9D829C5566C65
col15:   988546A686A9985599A887AAB696A697D87C979B6A9BB43B998AAB88B887AB586428989968698587
col16:   775797B757882A66A989689787A68998AA9CAAA89AA89A8746655759A589A7889AA6488999495477
col17:   76775699666A9846589895B76868B6A7AD79799A696B78C98289557BA965779B3A69BA33B7564866
col18:   B726657969799A69A4486936EAB8C79F9D469B79A8A852B84A48989A578A75779A77A68995373485
col19:   674878BA656787A89A7A4A8AA9C49A868BBEB7A9BC896B8827A87A6CC78DA898A77A5946B5796A87
col20:   499C582A85A35B799B797EA7C4BBA787A98896AB446A8684AA97879A68A7699495699B4254797692
col21:   6B86688696858B98B4AC99879B898F679BB98A7B7893B7B9A658A9A778BA899557699996664755B2
col22:   99623687878BA8A688C976A9B7A78ADA97898878998AB6B9544A58788AA66756769828A99667614A
col23:   A49579848C7AA78959487C797A8BCB9A879CA8CDC57866A8587AA4ACA8A867E777A857756A2654A4
col24:   49A8646A7BA8C896869B7ACB8AA78B8C999768DD9B7C9A768B477C9B887D5A566789D668CB732526
col25:   989387D9A799C9ACBBA69E99697AA9889A8A8AAB9AEC689A9698BA68ABA889B8AA897C8876667866
col26:   99ABB87BB787AB7CAAAA7CBBDF9AAC999AC9ABA89BBF68A99A8ABAE2DB959BA7A7B947B6348A7649
col27:   4AB8787B9A7D899B88AAB9DAAC858B8ABB8CEA96B9AAAB8CB6B9E8B999BA8776B4A88497737634B1
col28:   78BFABEB97A9B9BA7A9868BDAA6C9D969BDCABD9BC97AB8AAB87BA7B89B897B5CC69A8B9DBBA8794
col29:   DC9997A996C95E49AACA7B8ABBFAFA6DBD7E9EE6996C79BC9CCA7B6BCD98DD5A7B968B56AA996787
col30:   A9C9A88ABAA8BBADAA7BAAA998C99CE9AAE86CEAEC9AAAE9579BA7BCABBBA7A798777B7789A9B978
col31:   ED9AC7EAC8DAA99E97EBFDCABACCEB92EB7B9CDCDBDB9989C9ED9AA8CB79CC68B9BA99BB9599D78C
col32:   D77C977CD8AACC88C9CBD9BDCDAAA9CFE7ABBC9FCA9BD8DABC7D9E97C698B78AA93B765EBA959B96
col33:   39AD8D7BD7CBCBCC8BDABCAAA9AA8D7C79BB9AC9EAC8AFA9ADCC8AC9CBA9BAA8F8BBDC6AA57A4986
col34:   99AB9BA9DCCCBACCDABAAE9BE9DBBD7DBDABCCBEDE5BAADEABD7AF99C9C8AEB9C98876C6A866A9A8
col35:   7BD98EAC9BDEBCBAABEFCBAADDBCC9A9CE9CCEEBCC95DDAA9A9DBA5BD7CAC6BDD7CBBBC8869AC88B
col36:   B8BBBD9AAD8AC6CA8CD9BACDCAB9FEEBCCBDFCBAAAD9EBAED988C799BA9CB88DB9C887A7CA886747
col37:   DEB96AC9BBEBBDDC9CEB9EDDAABBFAB9EDABBCCBC9DCDFD8DADBFBDB9B8CA99AAAC8D6AA788AA98B
col38:   EBB6AB9BCE9CDBF9BCDEDDCEBBDAFEBDDDFECDC9DCADCCEB7AB9CD9BAE8CB9C8EB867BDD8AC98B67
col39:   B6B8BDC89DCCFC8A89B97BDDBBBBCDDFFADCBCDCFDB9FFADD9BA89EBBBCB88CAC8A89BBA9A786B85
col40:   AFABBBBA99DCDB9CAACAB8EBDBA8BBFDFCBE8DDCDBEDB97BCEC9C7ABBAD8ACAEDE8AEABCA5977AA7
col41:   ABAECEB8DBBCCCCC8BDDBABDADABAADBCFCBDDFD7DA9CC9ACBAB9CFFEED8EFAAA9BE5DCD6DAB7CDA
col42:   DDBB8D8CAC8BAA9BCBAD6ABDDDE9CBBECBDBBBBDDDFDBD69FBFEABCB8BBDBDABA8B7989ECECBAA92
col43:   ABDBDBCCCAACEB8AC89DACCCB9D89EEDDCBD6DBCECBEDAFCD8FFCD9ECDDBCCA98EAD99CA6B9D8ABD
col44:   D9ABEBF9DBCD9CBBBE9ACECDEFDAFFBBECADEEDCDDCCDC9DC89D9D9CEDBDFDF89BB99BA6A8CBC8B7
col45:   CAB8CB79BA8D9BB88BAEB5CDDAC9FFBFFB9DDCFADADABFBCDB8DACFFBFF7B999C9AE77AAA96C8887
col46:   9ABBAB8BB9AAC8FCC9FED8BAFBDBFAEEFDACDBBBED8EAE8BCB9BE96ECBBFCC9B988ABA89C9AD6C88
col47:   CEEBFCABED8D8EDCBCDEBB9FDCBBFBFCDDFCEEBCFB9FEDAABEDEEECDEFD8EDADCD9B99AB7A7A6995
col48:   CBEBEEED8BAAC9BCBDBF9FDDCFFC4ECDCADBECDFF9FCD9ECCD7FDCDEFDECC7EC9BAA8CAC79CE8A9B
col49:   CDDEC9EFCB9CDBBCEDCFACDECFE9FDCCACCFDDEDD7DEBFACE7D896C9FDF8CB9BCBAE99BBA9967AA8
col50:   9DCDDABC99BB7EBDE9DFDDDB6FBCBCDFFAFBFCCDFFEDB9EBDCFBEACBFAFBCADA4CBFBBBE8B97BC46
col51:   B69C8E9DFDA9AACDBCFCACCACDA7CDB98DAFFAF9E9BDBAFA7ADF9CCBA9CEAC8BD8BA769877B89567
ROC:     BPix_BmO_SEC1_LYR4_LDR2F_MOD3_ROC4
col00:   757A5678895555584A64A57CBB99A537779A97668767647598AAAC6B8646586A1776267333273155
col01:   777876599A97AC87DA8869BCA869684A9A86B888ACAAA9C9675685BB75A627994579677864A86796
col02:   AA9768B9698696C88A959B99AB5698B58BBD9887D936AA9899764BB5899AA8A8BB654869B9A97C92
col03:   8ABBCA7AA5C8A975B7AA9CA9BB48858CD8ABD999CC9687BB9DAA6969ADABB78659AA496429855482
col04:   78987D9AA7C8A7AA99A65DACA9C79C9CDA9CBAAC6BBF6C9BAEB96978AA98CBA5545947A554648638
col05:   8B47979988397D999369BCBA66CD98A78FB978BA9B96A8DCE9999AA9979CAAAA8486884466898673
col06:   8769B6A9BA6ABAD9B8C9A89B8E698AD88AA8BAAAACCB98BDBC9985AA8EC67B75A86687A858455552
col07:   B9BAA76987987879A799A5F5CC779AC9BF8B99CA9A99CA9B8A888A989959989895AA777569A88657
col08:   76877CC497A99B8968CA7A4B98A9BA9D88A7B98CBE678BB97B97A9BD87ABB958C9C94AB983443568
col09:   A8BBD9B6D87A99A88A8ABBBA96A87AB7BADDDBBA87A7DB9AE5BB8976C7CA7556849A7B57B8588771
col10:   98A85A97967CCC4AB69986AAA78BCCA9998999796A6ACABB7BCA9999AB5AF4A8B9A9265864795B67
col11:   8F67A73AABA7C9B7C97874BB999BB77778BAA9C97B9C97AB8C797D6AEB999A65867A33568876A385
col12:   9B8BDA7AA7C887BBB7AB37787FB8A798C97CBB8E68C98C9BB8A6768BB99AAA5A458798C478956AA1
col13:   9C47687A7A9897AA6984CAABCDA798C99A9AAC66DAA89DBB9D99CB88838A8897848A877866578664
col14:   B9476889888B6AB9A78B88BB9AF7A87BC8C88B58CCB7CA9A7AA88BA8AAB9A9888659C66646989855
col15:   9A997B89BBBBA8B6B999B8CA87A99ACAD7AADD9C5CBBB998CA9B9D9559A9887977769387988675A8
col16:   AA798B97A77B977AA888FE86AA78A76D9ED7BABCCDCB5ACBDC8AAB84AA9A8C67B8B5564858789556
col17:   C9A994BC37A3B6597A8D5A9DCA497BCBA876C7AADB877A878C9AC8BBBBBB77C867A9B75944679686
col18:   966C8686ADAAC69E9ABDAAD99A9AAAA8A89BD9998678F99ED887D9AAA879999865A9899967766A65
col19:   659A987C989A7B9EBBAD8B979ADB9A58965AA9CCB9BA69ABB8BC888AC9D9A7866A98AAC865448857
col20:   6C758B8AADA29779C9859AA6AAAA8BAB86B9ABAA79B9A989A98A7BA64A85D98B59985AD527644596
col21:   A88B897B779C5A69785AAC98ABCDDBA8AB7A7AC7A989999BBBB589ADC9589487A98787B359885854
col22:   969B7C98877BA87A9D873C98ADC6A89E99CBAEC97B85DAB76AA9A88AC886B684A9A97AA8B8A78478
col23:   AA8B858A8998AA8BB9B7897A9B877B9C6ACDA87ABC5A69BC8CB995E6C785C8776CAA774587869785
col24:   A7C7A89EA9697A9AE797C9AD8AACDC78BC777B9BABACA854A9CA5687ABD78FB96876485945CD69B4
col25:   6BACA8898BAB77A97858AACCABACCAC8CD7DCC9AAAFB8B994BABDB88CB869AB8A597A7A975789D61
col26:   99A9989ACB8BBACBA8989BDBA9A9AECAEB9AAAECABA8999CA8B9AD96DDBCA9EAD6AC8973878B78B5
col27:   DC9A79B99B98BBBCACAAB6A9CCDEEA9C99CB9CAA9CCDBA7CAABE9BB8BDA9ABBB887C78D8588C6967
col28:   689DA8A7A98CBB9496B88F7DA7CEBB8AADBBCCCABBFECDBDECA8C7BCBBABBC7AC999DEACA9995986
col29:   88DE59CBA99BDCCA89AB9DE9ABCCCC9AB9ABCBC7A9DBD9CA99E4A9BD6A999FC9C7998B8AB98A65EA
col30:   CC9B89ABBA99ABCACCCB9A9B9DCACDA8ECECBAAEC9BD9BEAA9AA9ABC9AAABA898A99A8B989A7E674
col31:   EBCABACBABBC8CDBFBB9AEDCBBBA9CDD8ADC7A98E9BBCDCCD87D8799CE8ADA8BA998AAA6AABA59A9
col32:   9CAD79C89E5ACE99E77C9C9DABDBBBBD9BBAAC9BBBB98EAC98CCCADCBBACAAAEDDBA98AA799CB899
col33:   C7CDBBEDBA8BCEEA97BDFBCADDBDCD9D9ACE9CCBDCC7EBABBB6CECAC9BAABDABCCAA6CB9B37B939C
col34:   99BABC8ABBB8BCBEEAEE9EB8EBDBEACBACAC9CCFABE7ABCFFBA8CFCE9E89C8CADFCAA8679D69AABB
col35:   B997C8EB5D9BB8AE7DAADFCCDBFEAAEBEECCAAB9989DEBBACAC8BBCACDCFAC99CDE98BAAB9967997
col36:   B7B69AB46AC8AEDBBBBCEB9CDCCDCC99BC8ABACEBCFBADCFECBABBDCB6EBBBAAFE9A8BB8A99BAB78
col37:   B888A9BFABAA9ADCAEC9F78FEEC9CBECBCACD8BCBFCADCDFACBED8AFEC9CCCADCBFD7CADA9BDC79D
col38:   AAB979BE7EBCE8BDDEDEDCDBABCD8CC9CFFEFEBACBEBBCD9BCC9CBAFAEBAACAA98CB9CAB9BC9ADA6
col39:   7ABAEBC9CABBCBAA8BACEBCAEBBDBCFDCBCDDCECCCFC9C9C999DCDE9CFE7D9BBBBCADBBCEAD997AB
col40:   BAACD6DBDADC8FCFEEC9FDDECCD9BAAFC99FAEBDBBFBACADBBFB9C9CECD79CBCBCADACEDCCBAAC9A
col41:   AB978ACA9EDDB79C8CF9ECBDCC9BDBACCAACD9C7CCA9EDE9B9AADBCA9FDABBDBAADAECBAA9B77678
col42:   C9AC7DAA9A9ECEA9ADACEBED7F8BCFBBA9EDDDFCCDFFDEDEABDAACCAAAEEAB8C9A7DBBBEADACCA98
col43:   B7AABABC8CECCC99CCBBFECD9ABCAAFBCBBA9AAABBDEEE8BCB9EDAA9C8EACADDB8AE97FE7BB97DCB
col44:   C7D7EBFADDAB9CCD9ABBBCAACE8D8CBFEBFDDFCCAFAABB9CB7979CCECF6CBDECDCACA9BB59A6DBCC
col45:   EBBCBDDDAFBF8ADCA9C9BC87FCD8CECBFECCCEDFDBDFFDBAFACDDD9DABBECBDBAF99ABB7E999E8B9
col46:   9ADCACACDABBBAC9B9D9BCB6EDFDCDACEEDFDADFCD9E9DFBDDA8BCFECCEDFDCCCEBFA8D988A99DC7
col47:   AA99ACCBACA9FA8ABBCDACABACCEAAEBADCCBBBBDBCADCEFEAAFE9CBDBCFBB69BBCEBAD8FAAB87A6
col48:   99AAACCACB7EB9A9EEBCEFF9AAABBFF6AFFFDBBCBCACFCBEDEBFDAAEFBBAA88ADDBCBC8A96CC9BA6
col49:   CABCDCECCBBBBBCCCACA9CFFEAAEFAFD8CBCCBABFEDFCFCBCCC7DCDDFB98CBFACBCBDB8EAC9BCC98
col50:   AD88D9BCFCCEA89ADCEC5ECCBACDADADBBBCCBAB8EDF9EFFDDD9A9CCCCABBCFC69ACA987B8BCA93C
col51:   A8979B39BCBC4969C9A8AA8D8BA7D88BC8ACCC78AAAAABAEABDCF99AA9BA7B9DE8B97B79A96AA8C7
ROC:     BPix_BmO_SEC1_LYR4_LDR2F_MOD3_ROC5
col00:   73564534463467569A6724793487D6759859669485AA338798466596876567838615453558792457
col01:   587675546576C478759869599BBA8A6A3857A79C99A76B4C9B7A5685B7748C26B665755587739372
col02:   762777416676868C57775B8A65A5A69897B85CA77898A98898348BB765A766988965576A76678587
col03:   586747676683899495998556648A9896659A866A94CA89667858877CCD78679A9657757344766594
col04:   94743697B4788397A75986878C787AB97AA67B958899968C8536ABC8B9CB897A6AC4766744584948
col05:   34889B2C5585777454849AA797D59B7C77984893AB6594CA8B378AA9779897461A66C45567424758
col06:   94A7C65A195A84B75775A5A78979A7AB5C49C995E8768897698666A58A998C48885497757A667533
col07:   87467769A5B86775997568ADBC658B98B7B9B98D79A99998777A766A5C7776C7B863726777A78889
col08:   77696A47BAB9754E699A93A68957C7588894A898C8AAC8869A99ACA9A8B68518A695764498672C49
col09:   54B6378953675B8894AA97959968A63B5979999AA98B76A66A78C1CC5B7AABC9639A887777762749
col10:   59A7696A86D777787A6599C67A9B8C969BC39ABAA2669976A8AAA87B99A7995A8385665376A37482
col11:   55968985C38BD57975889A57DBB7A799979886538EA5189348BAB9977988787AB97B7559555AF476
col12:   6876778AA8887A9768988B6A6C558B856E5A77ABB9B65466CA9A75B58A988996DB66149A7A76A567
col13:   A898767A67A9868ABA7A9BA4777B8996C56BAAC987897A8BABB8889BD85A8869678668386766827B
col14:   662468B86DABAA95397C9879A583A9968DA9BA88AC998BC59A9C5AAA9BB99B8C29AA599774782186
col15:   841956663EA549AB7B5897957998C79A89A8ADA9759B6B8AB9A56B88EB8A6AB46698868488677A84
col16:   469654693B49AB75789C969A9B76ABA7A67494B9CABB8C46AB998A6D4786899A6767957788779351
col17:   8895688C8697D8CAA4979C6A669B9689A899B5B7897A86A8A5ABA9A9AB395786A873744AA79A6868
col18:   6B253A94687888665A88B9A75A9C768A879D64879B8798BD779CB8A79A9795A759279A568647959A
col19:   9998BA7996D99B76C986AB6C88EA8B57987B6BABA7A9A6C99796B99A8AACB998D48856A86678987A
col20:   7799854757942CB87A6CB8AA8AA87A69AC6CA8AA799AAB7C86976B866AF8B969B8465769A1667275
col21:   79866585B7A44969BA99995378878C6ABC9779779AD77EA96879AAEA69A889987757A597A6414677
col22:   255765685868C7B5A7679A97C6B7283E97D7AB887A8A5C6A78AB7A789AC78964A98A88776666A724
col23:   6566798868785A75B9AAA99BA79BB6C6BA88E87A88B7BBA8D987854A7989864A49C6976A75975947
col24:   4487889764A79A587886BC6A9889DA79DA8B99779ABA7A469AAAFB75AC99CBABA979A7928779BC28
col25:   8677578669C589999998A8E8A7BC7AA6A79897C9A89BBBB56897D999DAA9B7BAAC55AB6995AB4884
col26:   439B6769A776AC99757D989B658A89ACACD4A7C8CDCCAC9DC9C87A79AB99A99ABA9B67C49A6D9B6B
col27:   A8843CB5989857ABA9A779AF9B9A7A99BC8BA9B9898D8C897CC857B7AB8989CB77499ABBAA9AA69A
col28:   6B959BDA7798B5A7DD799B999AB7CBA9CABFCC8BBBB7BBBA7CCB8BBAB979C947CD67AA99A78CA387
col29:   7A9A9648C966B8CA9B9CA7CACA9ECB8B997DB79BBCDB9ADACA8CA89C99ABAACBCA6596B98757A967
col30:   59AAAABC698A8789AB78CB978ABA89BACDE9CAAAAE58C5B69889B8ACB9984A5CC75A898A95779AA4
col31:   7797AA48AEDDC6DBCBC8CEBDCACD8BB9AD8CC7CACDB89D7C8C988ABABBEDC9C9A87C7D78C5989659
col32:   AB69A7A7C49B789DA9BB79A9A96AC98A9DC8CDBBB9CFDA3EB6EC9878999EAC8BA7C9B6AA98A8BA47
col33:   7C97488B83D6ADA9796C7DAC6D7946BCA79AB9DDABCC58AD9EB99BABAC8AADAC8ECDB8AAD98BBD58
col34:   45CB9968BAA77A89A89887CAF9B7CB75BADD8BBD878A7AD9CA8B98EBC87CCB8B78B9AF7ADA7A8A69
col35:   43CBB5B6B69CABBC799EEDADD9B3BBD99CB7CC9D87B7BCB77BA7A5C88B78BD9A97DC69A7CAA76697
col36:   598D797CBA68986999ABB9C9DBAAC989B9BBBB8C9CAABFACBBDD8C9DDCB9B799796B77999ACA9B96
col37:   887A6BAA9A8AAD5A99B79CB8DA6AED9BB8A978BBB4BA89B8B7E9DB85BB7EBBB9AC97B88C9CBB88AA
col38:   678C868777BB97A99BD7DA9DCACDCE88BB39A889EEBBA9BADADC76CCB8CBFAAB95BB9AA86AB99DA8
col39:   B16A988AAACAA9ABD8BADC67DADBAC9CBABA88D9CBBBCDC4CA8CAA87B9968B65D69C589A98899B89
col40:   99D9A986AAB9A7C9CBC9CCB8BDACD88ADCABACFDE79BAF7C79AB499CABBA8ABA79C8AD9BA7889AA4
col41:   BABB89A86A7E9B9ABBB998BCB98EABBCC99CCD7BCBB9A9ADCBA7B9AB9ADBCAC9ECB99BAD989AA8CA
col42:   249867A69987798B9B9C7EBAFE9DB8BAF779DBBCFCBDCB879799788ACDCBBC9A69BA7BC66BA9DCA6
col43:   A9A8EA8EAAB8EC79B9BC9F9ADACC7CBCABEDCA8C8CB9C9C8BDD995ABBCD8D59ABE7B9B98BB99CAC6
col44:   66A599B99A8BA89DDBCA9ABCDAAACABAAFDBBFAFD7BABBAA8DFACE9B8C7CCD987AAE787AACA89CC8
col45:   7B999AB97C9AD7DBABCB5BAAACCA7FCCAAC9BDDEBBABCC88CBCAADAD899A98DABCC77B6C78CAB7CA
col46:   6C8CC8A7AB7C8BCACBB8AADC8A8CCABFB9C9AADBB9CCCA8BFEDAACBCBD9BCBDCDEAABAD9B7689A6B
col47:   896888BC6EC9B99AAAC9D997BB9BCDCFADDAAB89C9BDACBB9C7DBCE7DC699BBC9CBCDA5A68778B8A
col48:   B95A8A97CBA9BC97F89DEFC8CBAA9DBB8BA99ECBEAA6FEAE8A9C8DAC8BF9BAC5DAB8B9A78B8A9A7B
col49:   8CC8CAAE99ABCD7A9CB69C9D9AC7BC997BCC5AEBB7B8CCECBECA95C9C9AAAACF8A589EA77989CCC4
col50:   7A467B8AB5AAA9A7CCC6BBC86BAEBF99DBBABC9CACCB7EFBC9B99AD88BD9B79C9D9ABABA9AA7AA57
col51:   77568167998A65AB6ABBDA6B7A9AECABBF8AA5B7B8B9BB9BADABBDBB98C18C99AA94779A97983779
ROC:     BPix_BmO_SEC1_LYR4_LDR2F_MOD3_ROC6
col00:   41666983611779966B45466A86B575959889675489873A8DA8C5AAA743A678647978584259633512
col01:   2744ACA788477788797DBB8B7A8A966C8ACAB9A79AC8A7FB995E7B8A8988B73276A285C786A8B986
col02:   24877375A2C4D598A7B6D977A9ABBAA866BCB58E58A78C8789E99A8A58797B974B98D7768AB65785
col03:   3B5B44C37578977E7696A7B6AADB58728E8A89C779A898E75BAD8B98C965B76C9687496C7BCA5863
col04:   AB5696515A49A76DBAA8BBB95787B7CAAB9AB9B9BCB6ABBA87A7AB969DAA9C8A9B888AB969D88341
col05:   A47798649C7868699A59C8597899BCC85BA8A7A79BAB7D967D3B9CCD7AB99BB77679A79A96A58896
col06:   666837C67593898AA7A8784C979A88EB984C76AB99DBC7C98A99D889DDABA6C67BA9B85565787BBA
col07:   2339319688C297788C8AA49D4B3847C876D9BDCA6A8969E988C7B7E88D8C798A974A8A9697699A89
col08:   7C689576A6645879AC8C751AA39A8B7B8859A9B8A877D988A69A3E767A57BAA76A95499627286552
col09:   78573778525B5BB9A45B664ABB5A8968C5A7BAFF8FCA87B6ACA78BABCA887C99C48AC8898985697A
col10:   5466B77868CA97548A54D56A8A77884A56B6A7A75765A6BB874BB8ADE3BACB9B7AC7984847A718A5
col11:   71837A4B88454897784969D88946A8768698AD98F9B6989B69888B6B96474A8BB9896839696B8B86
col12:   276B26657AB81799A6B5AF59794B487589BC9968B7E8DA96AA88BAA287B77997577A88A8683AC617
col13:   926627775479767A7A7969958879AD9BB9DBB59567DA7678BE87CCA6B65CAA677A7A666579A46DA2
col14:   918982942758548842B6895DAB5B9D7B869F8DBA89A99A88F989B59CAA3999DD8A74BF6867845777
col15:   155135A568774B6A5A3B5A6A89995A98A84C847E8999A99CA7B667DE4FE7A79A868AB7C8B6786954
col16:   7774446878699A959979A5794796BD8DACA99C87699D6CB9DC9A9B878967CD978986B7A5967A6691
col17:   54274A9488787799B7DA699735457778B6A7CB98887766868569CACA797A5D68AA9AC76882839691
col18:   4663676456928B791953A269A99D9A9A79CB87D69BB8AC98AD6A899AB9F47797B7A577886A764957
col19:   58495785736A469776B9378A86453C7BA8CA8A988DAE79994AA697976D6E66C77689AA878B867357
col20:   873446681A9378878AAC75679766889945EB68AAB9CC98A6B99B9ABBCC7A6268A7856186335A4934
col21:   195599857489366A39A856579879894B6CA8999A999C8A5A79B97AAEA9787B689A745A788469B54A
col22:   58156645495998489775988667698696A4BAA999CEC67BC784FA49A9CC6956268AB6958869786784
col23:   6795754545867677A6966468A5A5A7787AEAA87AABEE77A9AC799D888A7BBBB8C565477837AA8595
col24:   488585554944444584759868C9788BDD6A655B94BBBCC857F984BAB6C9F6664CB496987983765C82
col25:   62648898A74B96637C7794B8BAB99A948AAE66AC59998DEC59788EABB94949B8B8349DB844997755
col26:   968C99AB6B8B356C9A9DC96BED7F669899CBE9BB9CA89CA6AAA7DC68C88CABEB98C7CD6C9983B8B9
col27:   7636486B653B76978258685A6889ACE9ECDA6AA9ADD7B7B8DBB89ACBBC9969A9BBA7AA7B39869D52
col28:   95D938989697B5A779C9AB79BDDAAA6A9BB64858C7C8E7AB8DB47AAFAAC8F89C7B897B78A9997999
col29:   D9369877555A9A4C1BD98889CB978D88B978DC99A9769BA87E8AC87BAB7BFB8C5C6AAB98896995A9
col30:   98A37B699A5ADA5887B1C9979787878AC8ADBCA9BAB9BAB9BBCDA9BFCBC9EADA89BA8A9789A77565
col31:   6769B68A69B77587AC6F4C84C579DCC9AA8C8C7EA6EDDAACD8BA9C869EAAC89AE789AEBE879BCA88
col32:   48788457AA998D9AC77BA8BF88B6BDC6BAFDB9B988DB9BFECBBBC9EEF88ACACC9678B897585D8989
col33:   A478A7893BA66795AA686887977C7BEDBB8B89ED9BC89BBBBED89C9B9DCDFC58A9997A9CBC687877
col34:   7A45AB487A8F89A947CC9AA986A7DC9F6DCCAC6DC9ADADBCC99CD9ADDDFDF8DE9867B9C889A87D16
col35:   796867969BB8959ABC9C9C78BD4CB7B8B97AAC69A9C9BEDCEBC8EB68CCBBCCBBDBC575E4A67D6977
col36:   9B799972898A7856BC976AEC77B96E9D9E979ACDEC8BC9EADFBEACAABB6A9DD6BF69A46A999C9BC6
col37:   A96698B87A879776858DB899FAD5898ABCD9BFF98A48FCFCAEBB8ADBE9CFDBDABEBB89AA9B78A87A
col38:   788AE5847D67EA7B687CAB97CCADCCA9CDCC6DA9FBAD6D8EBADAEAEBDEBAB7FF8AF7C95887A8D99B
col39:   ABBBC99E737CA7675BCB9DB9A8EECBBC89CC9A7CBDCA6F889D659FDBCAB88DA8CBCBCBAAB84A77CA
col40:   865A9A9999C578C9DAB45A7B9AE75BCBCA7F97ACB8F7FC9CBBDDBDA99CAA9AA9EDACC9BDCBBA5A78
col41:   479788B83A689477BB8A8A6BC7A89976BE957A97B8AACDEDADFDECBF6CFAB7B78E7AA799A8B8B999
col42:   9AB7B66AA7AA4D97BA88A96CBB696CB9DDDA9E8DBAB59F9A7EDA5C79CBBEC8EFDBBC9DCACC6A7686
col43:   75988778B889AAA88C9B965ABAAAAACAB7AD5ADBC7BDC9DCBAFEBA97C8BA9BA88F9CAA8A4F5BA869
col44:   646B3BBA7A9CA578A776776C8B8B8BCFB49989DFAA9B98CC87CCEAF9C9AB9F9BC86CEFACBBF8D9C9
col45:   7967989A55575C6DBA5BBABAC87BDFDBC8D99B5CE8BAC9CAFABFDC9A7BC7A9BA8ABEBCBBD79F8487
col46:   5A9A85AA6674A898986B9C9A9BADDADBCB8BBEADBCC97B699EC8ABBBEE9AE66AA8BF9C5B9ACAC666
col47:   38A9A55C75979766A67B8A6599979BE9DCCEE7AFE9CA9CABDA74CBDCC6B8FBFC999CEAAD9BBA77B3
col48:   479367857597A479367399A8AA8B9DCD58B77D3B8ADC7A8A98AECADA9ACB9BAB7D6C8897ABACAF69
col49:   A853437437664995818A78749B79CBAADDE8AAA8CECBCC9A79FD957EEADDB8B79B9779AD9A8BA677
col50:   889A5AA27BAAA79976A96BA8DD9C8B7FCCB9FAB99AECCB98A9AADC9CECCC86C5DA5CBB99ADDBCFB9
col51:   75795773948756518785B8786C6996866B9989A77A5C5AAEAB8679E9A8B968A776464F74A5796746
ROC:     BPix_BmO_SEC1_LYR4_LDR2F_MOD3_ROC7
col00:   1735576A7689588964A99AB8358988A8BC4AB686B8AA9B966D9BA7979787A9AADA567A899B6A464B
col01:   9589676567A89566B99987CBA7CB88AABAC9A997B9BD998D99ABCCDB9DACC7AAA8AA89ADDA867FC9
col02:   49A97369A7A756A693B9BBAB7DABBBB79A677AAAC97C9DA477FAB9C8A6EF99BA9DF9AAB9CC99A99A
col03:   6567475955A93768D68978D888A79A5AAA8CA79668CCCBA98BCA9EBCD9AA7FBDA7DBA9C8A9AB7987
col04:   47378698AB69584B996C88DBC986A9EACBCCB8ACB8DB97B8AACABC79E68BBCA886C98ED7D8796AA8
col05:   553585866656877A7C5D9B7A9888AD77B7EA87C9679D9796BADABB9B8997986AA997AC88B898A697
col06:   A53A867A88969878B84878958A5ABBCB889AA9BAEA4BDC9BBAEAA8B9C99BBB99989DAE6BC8888AA9
col07:   66669457A496C8868AE68786768776CA5BADDCCA79CA88BDCAABB8ABFBFE9BCDDB77D7ACFDA98B79
col08:   5444476999797887859ABB9A98C9BAD9CC9DECB89AABB9DB9CDDCCB9EC8B9998DDBBEB9DAA7A9BDD
col09:   74A8A78876D95265689BB9AA5868B778ACAF7879D9ABBDA89ECEDA8B9B889BEFCE9CAA8AC5A7BAA5
col10:   845996573A78A577954A89E4A966ACAB9B9DDB8ACB7BCACF9BBA8BA79AC9AB69AFCBCA8C9ACB6496
col11:   576759A7778645CA575599BAB98979B8AC9A9AB8CABB9DBBA99AAA8D998ACA7EB9A97BA877858AA8
col12:   7B6986667998697624CB8A8A89ADBAA66889798B95BB6A8AD5ACD6BA9B799EDCA69B97D988B7AC99
col13:   C72A9868A7886879AB8AB65A9BA89BB8BABCBCABD88AEA98C99BACBD69BBD8B7A8BB7AABE86B9AAB
col14:   688486796832849C89BAAC7B9796A8CCA8ABBDBCABADD9FBAB8AEA8BAAA96898C6D895EA9BE99979
col15:   4968455846946AA89758559BBBB87A797C8A8BBDAB9BD9CB8BCC87C98A998DC6BAACAC988BA7B7DA
col16:   774846869665A89656AA95C3978897B4A89D8AB9BB8ACAC64B9C9B9ACCBCBC89DD9CC897DC888CBB
col17:   A464866444855586575868988789B9C9799ABE97A7988B998BB5777BAC88BB97C99CA78D9ED89889
col18:   2D37B8694617725DA878788A9AB98B488B6BB86BCA7B98D96777DBB9CC99CA8C8625966A8B8BA968
col19:   7965A8A97C87789775A97C978AA7B5C7D8A89489B8EBB7D8C9BBBAAA8EBBBC76ACABD7BDC98E7A87
col20:   7978868B4479A88A7AA97889867A979AC9ACABA7B8C85CB79DA8CED979B86ABB79C9989B9A85BAA8
col21:   8A42685496587894692AAC8455788A78A5AA8BBE9ACB8779B5CC7CAAE773A8BCA99699D9C89B7A76
col22:   7B5387863A955D7556816B58A799ABC6789AC8AE8ABA5B8AB6BA9A9DB89CB98DA8CC9B466AA7B887
col23:   4667736868679774799583A7998AACDA7A4999939CC8BAA979AAABC4EBBC69998AC9989B97988B69
col24:   5566744A7A884348A396AA99C89ACCA96A4A9CA8BCCA99998DADD7BB99CACB76E88A97AECA788879
col25:   637565D667768B8AA89789AA778A97898BA8C89D9BBA99C8AAD89CAB9AC79BDD987BCC8AFB48D9AA
col26:   7B4B6877ABCAA857ACB7FD8CCEB9DACA8B9DCB6CCD97AC979AB7C97AABACDE9CBEEC7E9AEFC6A9B9
col27:   4A376998A8A79A67A5B7A5CA895586A968BB8C9ABABAA99CABAC9AB9C9BC9D8E5BCEBB9A8DA9AAC7
col28:   4B7A49889AA685B98C57A7898AA8AFAEBC9ECA8BBC9D98BDAEBCE8CEBCAAABCD8EDBA9DB98E99E99
col29:   798727436B9BB9E8DCA88AA968A99C8AB9DAA89AAACACBADACB8DCAAF9C68ABCDDB8DABCE88C9CCB
col30:   789A86A78766A98AAA7B86CAAAB76FDADBB9BDC9CBCBA87BEDEAA9DDEABB89AD9BC6CBFBA9D67A96
col31:   A5896698697A9A89BEBAABACDADB9CC9ECCBD8DBECC99D9BBBCBEC8F9BCDA9ABCBF8BDC8BDBDCAA9
col32:   5C47B67AA7BBA9A7B899767AC9A9BD9BBCDFBEEDDEAEBBEAD8999CCF7DDA9DC7BABFADB76BB9EAAB
col33:   378B78878879985AB87BBAACB9A87BCAD9B7DCDA9EDBADACCDDBCCEEAEDD9AB99C9CD89C9A9AAF6B
col34:   A8B8C99A789CA8A9BE9BBDDBDCD9A9A9CCCDBAAA9AFB9DA5DB9B9CDBBDBBDDBEBCDAFCDBDDADA6A7
col35:   87A78867A579CAB4A999AABB9BACAA9CCABDAE7ACCDCAA8ECBF88CBEB9ACF9CCBEDDCBA99BB5BDB8
col36:   7997D96B5878966CAA8DC868D69BABABA9BBDDADABEBEED9AEBFECABCDEFBDCADDAC8596CCBAFD9D
col37:   AA8E99CBAB798969CBAADA9A7CD8A9AD79CDFFFFFDCCEA6BEFCCDFABD7FCBBDEFCEDAB99DFDAACC8
col38:   A897ABAC9A7A7C88CBB8ABCABD8DBDCCCBAA9A97DADBCBBCAFADCDABEACFDBE8BAE99ADBDCBBEE8E
col39:   B8749BB7A868588C6A9A8B898CB5B9DBABBBC8CDDCDA9DB7DBADBDACC7DE9EFBCC9C6BACDCDF8B8C
col40:   49CD887ABC9ABDB9CDD75BC79CC8AABFCCDD9BDBEFE9BFFCDAD98CACCADDDEFFBAABC5B88BBBBC8C
col41:   A7D7687C68D7BDA8AC8D8BEAC8DBDA9CEDAE9DD9BCFFBBADAC6AABCEDEFC8AFCCBDFA8BCE9FADC7A
col42:   7377BA98F6677A5A79AC874D7BCDC9D9ACCAE9A9DDCC7BBDECBDFE9BBDC99DDECAC9DADBA99BBAAF
col43:   2BA8898D888AC9999A9ABC8CABABB99ABA7CDBEDDBFEDECEDBFD9CFDFEDBCACFDBCDCBFBDB9CCC8D
col44:   566C69B8987A4ADC9CBA7CFB9ACCACDBF9DBF9ABCBCB9CADBEBCDADEDBA9CDAECC9CC78BE9B8AFEB
col45:   5B6ABB9997A8A99A59658BA98BCAAA9BFCDCAEDC987CEF9F8BEECBBBEBC9ADC9D8CBAD7CB9CDBBE9
col46:   58C9798CA7997B8C78BEB75AFFFAAA7DBBB9EBCD9ACEDFCADDCABACB9EDEEDCDAECDFCC6BADBA8D9
col47:   D5779AA78CD6DB767C8998ACDC6B8BC9DDAFDCD8EBCCDC9CB84FC8B9DDCDDAAFCCF9BBACEFC9EDAB
col48:   98A8D8774A9ABC6B7A99E79688AACE9CEC8EDADDCCBCDFBE8A8E97BDFBDADAF8CCDEACB8FFBCCBCD
col49:   9C9A388A6A8AC79A7E4888B85CAB99CDD7FBACDCBBDA8CFEE9ACAADCCDBEBEC68AECBBBDCEAE8C9A
col50:   9C9A8B9B9BA9B6AD97A9BA5BCACAB8BDCCBCCC8CBDBADCBFEDDCF9DADD8BDDCC8FECBCDDEBCB7DBC
col51:   A76849A87967889A8A68C7878767D688AA9AAAC78BDEB8A899E8A99C9EAACFE8FB9B9A87C76CD4C5
ROC:     BPix_BmO_SEC1_LYR4_LDR2F_MOD3_ROC8
col00:   99F9AA59917787A7587A844777A7C973887889B59587A69AA6C98ECBBB6BA3E979576A915B8747A9
col01:   974B8976483A76858BA5AA49CA9CAB97BCA4BD9CBCE8EDBAC887ECCA7BB8DC8BAB9AF99DBC8AC469
col02:   596AA57757BC68B4AB877D57CBDC9AB7B6BEA8C8CAAC7B569ACB7A8AD8CBBB886557BBDAEB6F8EC6
col03:   A88AB8B8B797756867AB987A5AC6577CDDCBAF9E6CB9D7989B9CC898AB9A49CD9975A8AC9778B7B7
col04:   966B6CAAB47AB59869977AACB78A6A9894C6D5CBA8A8A7ACCDC99BAEBD8BCE6BBAAD7C869A8B7A78
col05:   9564577758755967683A89B5D7A7C9ABA7977AECBA99ACB56A89B8D7C7689B9B497C7889D7DB9C98
col06:   858689866896A6547A7799A84CAA96A9CB7CE1ADECECB9F9E9E6CCB959ECBD79FBA95A9898BE9B8A
col07:   A4958B659979766678B7789688AC7797D898BBBBC96B8DEE8A7A8DAAC78AA9ABBC989BCD7A96AD79
col08:   768466D66665673577B98595B7969B9A789A378BFC96CAAA9799BBD9ABC8CBAB8D9CA9BCBAA67896
col09:   A9945A7569875593868ABA7B8697D9D88CCCABBA7CFEA8FDEA9ADC69BB9B2EAA78BBA7A99D98A87D
col10:   37675B5A6A89A88A2971978CB5B68B7C679B89C9C6B88BAAD99BCAABFCC8BA59DA878DAB56DA9954
col11:   3724967AA777656987885A9998C77C969A64ED9C7ABA9DA7CAD9CB876AC78A4FD7BC99B5687A4A36
col12:   883687688688598976A786AB8769D87DAB7886AC7B7C96EDA67A97B6799B86A7A787987D83877674
col13:   97774A88685987666A9986AA9C998674A8AC98BAB8BCB6CA89BA66ACCB7BAC8A7C86AA687C8AA47C
col14:   62929778B8979A6B27588679B97B9AC88B8B77AA9CAA8A9A8A5C4BD8ADBD99D8BCA77C85BA68A99A
col15:   A5386A6A84D89BAA79CA876E969A89ABA9B78FDC98CE7ECBB979A978DCC989A79A8989D8A578889D
col16:   976A94965B6A749A8AAAA877BA98B68BC7AA899DA68BBCD7B83BB8C8BBD699BA679A4A7958B79B75
col17:   7442A84597967789B366B689C69698C79D8B8998D9DD669B9AB88B8E7B98B8D9EACB8B66AB9B7A56
col18:   44587684BA87778668B67A778AB8C989695A9AC8A87BEA56D8779A999C6A6AB99B3AA39969B56568
col19:   A68678A784997C57785A9A7A658859A5B6559C9B8CAF96889E7ADABAA65586FB97CC63D65878A78A
col20:   5571535344AB7578947A5BC37849A9B78CB96B988897688E88B8B689ADA7866897879B999A939B74
col21:   636986468355973997B864A699497B779B8D8A99A6EB879CC7D698B6AAB69ACB8D96D3AAA8BFAAA4
col22:   786587A789A749978987798A99A196ABA989A779B9898EA979BCB879A8599A959A778B78A8BA8DA9
col23:   756569153A6157266B5B92AAA99BA49CA969A8A979C888CEABFABC799ADD88A89B99867BB6679965
col24:   644766719499697B87927497567B866787BC8BA8D79BA998996987C8DAB6777A9A8765A89589AB84
col25:   781258A57764AC4756A7A899AB54B96649C7D7AEAAC8A9B9BAC9BAA997ACD99899B866C9799668C5
col26:   D766799949584DB9A69B8A698BFAAA9DADE6CDE9ABDCA8CCB9B9BBCCCF9CC6AACA6DC9A869A88677
col27:   A79547778A9C799585C9899EBF89BAAEEA97DA9DDDADD98BBF8B9CC9CD8AB5A8AAEA8A999C9B9969
col28:   8858B67858ADA67BB988CB89BBF6878FD6CAAA7D9BB9ACA9E8799CA9CADC78BB99D4C99EA697BC7A
col29:   A9438B879AC5AABBB97798CABD9A9A8B6B79EB9CA9FC5BEA8CDDECEDBBBD8B9B6FBA9AA9C5B57D6B
col30:   887B94A79595C9D6BB74A8CAFC86998CB99A7AFCAA9E8A8CF8BBEA8BAFA8CAAAAD4D899DC799B789
col31:   A5A18884B497A56A887A8BDAB966ACA7CFBC9BBACBBFEB99E99CE9DD9987C79CA55BDB98C7A5AA84
col32:   77B637A6BEAF89D9C5998DBBEAABA99BCEBAFAA67CBD7E89CBB76ACB7ABDC6E7ABBBEAB898986A7A
col33:   5666669B7A79BAABABADA6A899CB84CC6AABAECCDCBCDDBCDBC4C98DCAABDAFCBADA9BCA9ABCB967
col34:   7B35989C7C6786BABBBBA99AEC8AB9BA7BBCFBFCAEC9D9BBCAADD8EAE95BCA76B8B9CC978798CA97
col35:   A88C789577A7679B9CD698A9DCDD9CFC9DEC8ACCAA7A9A8FF9E79CD6DFBBCEBF9C6B9A8FA97A9DC7
col36:   67B98597C88C9AB9995AE9A6CD769ABACA9ACBEDB8CC9FCADDFABB8CEAC86B9B7A9BD99BA976789B
col37:   9497AB8DBA9BBBC878AD97DAFFD9E888FECBABAD6C8BA9ACACC9ED9EBC9DF8EDF8B997A88BA6BBDC
col38:   97D75378A8B58A9BBE8CBD8DBCBAB7ABAA9CAB9AFEBECC9BDF6C9DBFBC7CD9CBCC9ABCACDCAA9ACC
col39:   77678BBCAD67A6BA99B7887CCCB8B9DEDCEAD9FCCB8C5CEDEEB8FBBCFAEDFD9A9ADB7D9B8F8BB9AB
col40:   88A798A7499A5AA9968A6B5CBD7ABC9AAFDFCCD976CDDC7A8ACD886B9CC5C9DC9CCBC9B77A8D899B
col41:   696947AB6A575B766A9F97BB97B8B8BD9BFC9A6BEBCFC8EBD9BBEA6AEEBCC8AAEDBDD47E7CB7BB4A
col42:   B6BBA9A49AE799D57C8EDCA8A4CABA999EDC999B8CBDFBBA9AA89BCEDCBBFBBAABCBEC9B8AD9CA39
col43:   B76A99A9898999776678CCDA7BBCEADECC47CD8BD5BDDBBECDE7AAAAADDEFEAB8AFBAC99C5478898
col44:   87A975A98D9B9BAB8AC9BD95BCADD8DC8BFFDB8CB98AED9BACB9CCEDD8BBAA9AE989F5ABCBB8A9B8
col45:   4CB73B9CD87CAB7BCEA7D89D8BABAD9C8C8CCBC9CCEC99CD8DAD8CCB9C8CF8A89FB9A89BBCDBABE9
col46:   77BA88D96F5EAC89CBC649D7EBC8A9D7C9DFBCCCDACCC98DEBFDCBDDBA88AEDDCA6BBAC9B7DAFA7A
col47:   8B7798B7BC5EA89ABB8CABB6BEBBE9CB6CECC8BB99E9BDEADBDAD89CABAEE7F99B999BB7A98B8A97
col48:   A976A875D77C7C858DBB7B7AC7C7AB88B8B7CA83DEEB8AA999AC9BCE98B8BCD979D9E88DB698A996
col49:   CA698AAAAC8C6A8799B9BC9A7E7B9BDAAAECBB9D79CAADCDEAACEB99EDABDCABBCACBABDBE7B9B87
col50:   A98BA67C8CBC7A58779879A78AAEBF98D99DABA9D7A69CBBAC9B87CBA9AABDCCEACB99BCA9A9AA9C
col51:   7775766764A34488796D845776389998AA9CA89DB98A7AEAB7AB9B9875A889C997A94B98379785C6
ROC:     BPix_BmO_SEC1_LYR4_LDR2F_MOD3_ROC9
col00:   435876765646767755977766A748B6CD5876B7AA9787AC69896B1886587A869786B7A9A9A8BBA575
col01:   6B3463B47568965A9568A9A9C9C9665DBBC698D799788BAEA8CA8AAA6DB4899A9BC98886B779A987
col02:   464AA94BE41738869B3B8987CABAA99B6AAA5898C9D978ACB7696A696ABAA4B83BAEA88AB98A87B5
col03:   96636978188575B7D6B68688898CBBB98BB899A8BC89BABB99A9CDA9DB9996989C9A989678A68768
col04:   965C7576A778695A7B9AA8AA6A98BBBAA9A89BBCD8CB8BB6A8BC89BB8A967E9A6B8598686A799A78
col05:   667659975A5A4988C9D7BABB5B9897CC899CB5679CAADB69B5DBC7579E58EABA8557BAA8B8579D9C
col06:   46786967867846A6777A6ACD8B9BA8B8B8C79A8688B87B99B799A6B977AAAC68CA86D9A77899A588
col07:   789AB8689B3B4A76697A8A8C8B69D8EECA9BCBBEBD99ECADDDBA9CAB6B89A8A9CBAC979955AA7978
col08:   763472593B638669C9989A79B59CC998ABAAB7B87DAFB86ECFADC9A95DC98CAAA87CA84B85ABAC66
col09:   A168666A877887598B99EA8BA86999BDB9BDBACF99B48C7D8BDB9AB9ADC9C6BD99AB647AAACB9877
col10:   4278A71674A6679C678B977C88DA9889BAA8C987A7B9BA9CD2C89AAB98AA9B6A9FCC67C689BA9A87
col11:   6859929BA5919A7D9897C7AE842ABACC89A88A8685D8E9C9A78898AA4ADAAA988AC984C9DA696FA7
col12:   64537D655858477B7C46ADCA6CCCCBBBBD8ADD9BAD9ACE9A6DCC7BA5A99A5B897D8AA9B987999677
col13:   96C7836A444471B8786C5AB8795ABC9F999CCBACCA6BCBE98CD889CC8EEBEC948F8867A8987C9CA5
col14:   A696DA8A7577CCC77EA996BA9BBDB999DC6A6CC9AC78B95C9AAA7ABDBCDC8979BA8BBA9D6A6BBAAC
col15:   9846597575B285845598B59DB6B86BACC9C9DF966AA9D9AA858B898EB5BCAC99CB74A4A86BCA48BA
col16:   5A595A4A6A646C887868AE78ACCB8BA8B8ADC9CAF89CAB97CABADC9B89DCB8C8BBA89878DB48648A
col17:   2AA466779776BD768B6A85C796BA799A9A9DB9A8EAAAB9C89D8AA997BB998A7DAAB7FA6988896A8A
col18:   53274B54599667BD2A8C56A87E8AC889BDCEB678B55C9999A98C879B8896AFB87958D88D77759566
col19:   868637568797A46A998CA7999D9D7AA79ABBBD77C979BCC4DA79AABE9A9D7B995BBA9CA9AD76B9A5
col20:   8A2899855596D9968A7A7B7BA9AA876A7BBD8BA9E6ABCE974C39B9ABC7B9C93A8989B7CCBBD98858
col21:   8475915B8955B7389A767774BA8C8A9A8886B85C88E99A74AB89C968BDA9D996BC97ABB7758B7A89
col22:   74666986798956C6CA4D86AA79785B656D69C6DC8B8A279AAC96D86AAADBEBCA79A427878898C856
col23:   46362448956617B6B8ACC59499AACC5BAAA9CDCD9BABB799D99ACAA8DBBA8BCC78C67BC7899988A9
col24:   67991B29C56563A5B497C98A8996AA8695898978AA5A85889AA878E796BABDCDA79BBAA999A67A59
col25:   33779797AA2768C95899ACA4A999BED6B7BABBBBCC87AAA979D95BB9AC7B7CC8AAA788BCC7CDA97A
col26:   864854168686CA9B8988CBB89C6D7BBADBB9DF9AACAAD89E9AAF8B7DCEBFF8C989DAD9CC87CCBB87
col27:   A96766767A5974B7648AA9A8C29DABD8BAABDAEDD8B69ABAEDBB5EDFCCADB59C9BBC99C88658CCA7
col28:   AA449875997A78A5C48CAA6C9898CBFAADCBABDA8CBC7DCBCCAAC99AD9CAACFCC8BADE99EABB997D
col29:   6875DB5CAA9A7EB9876BBBCE7AACC8CAAA6ADEA97B8A7BCDFCE9B9BC7ACEDDBDCABAA99C999A97BC
col30:   8468977AA998A7AC9A8D69C99BDCBAADDCBAAC9CCE9E8CB99EA68CE998DEFD9EDA7CB9AEBA6AAA95
col31:   8B495696BD2B99EA89EFC9DDACAFCFBACEAEFD8CCA8DCABBCCAF7CBC99AAD96CC8C9DEB96CA78B69
col32:   4844BB5574B4A9AABAAAAD9BDBB89DACCABBBB9DA8ACCBADBACBC8A9DFCBBD9AADDC86EABCD9C869
col33:   B42775ABB797CA69C3D97B7A9BCCB978DBAAABABE8BD9EADF87BAF8BBADFDCB8A8C99E5ADCAAA9E9
col34:   8A58977B6BABE9CB88CCA79A8A9BC9BBF9ADA998DCBA7CADDEBD9B9ECCB8B4EBB9C8CE8899ECBC8C
col35:   9A77CBA98AC8B7898BC88E8CED9CCCBBFEA8FDAC8ABBA8D9BD9DBBBF9B9DF9D8C8DAC8B6BFAA9CDC
col36:   B7D867A9579A99FCACADB9BA6BE6D89EAC79CCD9F7EABBBC9CFBAECDBB9CEAAACADAABD9CB9B9ABB
col37:   3798A98A8AC8789BC88ABAFAEAEA7EAFBB9AADDCBCEFDFC9CA79ABDEEDCBFCC9BEDDBACAF9D8E7F6
col38:   B55CC6A9C968AC6CECDDBD9C9EDCDA6BBEBCCFDEBC9ACCEEDCEDDADCBE8FDADBEADCBACFB8AAACCA
col39:   8888858AD9BC8BACD9DAA99DD8DE9AA89A89BFDDDCEBBACBCAABCD8DDBBF9CFBB89CABFC75ABCCDB
col40:   7B5AC9B7A99AAB7ACFCC9BAADCACCECADDBDBFBBCFFEDCBDFFBAC9CBFB7CAC9CBDECC8DE99978BDB
col41:   459AABCE8CD79ADA9DAEB6DBCBCADBBCFBDBFA9FCAAFDAEE6DDC9D9FADDFEDADEFD78CCCFA6AECD7
col42:   BAAB746C8DAD99AAB9ADB8EFAD6CCCDCD8B9BBB99C9DAAC8B78EECAC78DCDAABBDDCAC689BBDAB89
col43:   FB7AA6D55B79DAAAEA8DDBFCCD7FDAFDACCFABDABDACC6EECEBDCCCDECFEDEF6CCCFADFBECEDB99A
col44:   8C7A5A9A97A7A6899A4EAAAEEEBD8BCCAEFFEECDB99ADCF9ADFFBDFBDDBAEECED879CCCDB89EBDB8
col45:   9695C97ADB8BEBC9BC8FBD8CD99DBBEDDCBECAAB9DBBAEDDFCDBCCD7E8DECCDD9BCBDDEEACADBBE9
col46:   A59D6B7C8ACEC99BBDABFB7597BFFB9CBEFBDFAFAF8B8BABAFAFFECFDDEFBFCBDA9C5EEBCCAAAA6A
col47:   95888B8A8A88AB699C98ABCAAEDACFADEAEBDDCEDBA7AEFDCBC9DBEFBCC7E9DDDEFABCDE7EDBAFA6
col48:   C96A7C8998B6E9ABDAD8ACBEC9BA9D6CABCFDD9F7AD9F9AEFBDDCEBA8ACB96FAAC8DAA6DFBBD4CC9
col49:   7396B4A6A8B973DCE97B9FBF8BAAEDDEECFCADB9EFCBEADEFECCCBAA9BDCCCCCDBD9EAADCDBCBCBC
col50:   7C6C68D9BD9BCCAAA999DCECCE9FEFAEBEEBEBBEBFEDBDFFECC9DEDEEAECD993BEAAD7CC9C97ACAD
col51:   7585797B65B78AAA88FC9ABB776B776EC7CACCC9C8A9989BDA9DDFE6C8ACC86BBEAADD5A8B7CA7A8
ROC:     BPix_BmO_SEC1_LYR4_LDR2F_MOD3_ROC10
col00:   2878167793577B737B8A5CAB89A797CB8BAA57B6759A99897879B89979A949B8973599A987C97695
col01:   7788663B869687A58C9AE979BBAD9BA99D78A9CCAB9BBAACAAD9B887CCCAAABC4E6D8AAA7896A77D
col02:   8668A8B978649784B5BB99C8EC97A4EA8AD8F77BCAFAB879A9CB94A6887C7799D5BB89AB8884A99A
col03:   7666A688792888AA75ACB9ABBBBDCD78ABB8DB9CBABB9CC9E8BBFD985998BBCAEDC5BBBC599857B9
col04:   47B9548845A796DAC888A68B9ACAACB978CDB77A88A88CEB9FC7BD8979AAABC6BFC6A9BC7A899B65
col05:   8A7A88A56BC67C6995977787C88BBAFCA77AAE9CA9BA9BBACAAABEA8AB7D6B5A87789B78B77B8598
col06:   345967DA8A7B8B8DB9B6DC86CBB8C2A8E65BA9BDCE9ABAA857BB9BD8979A78BDA7AB794ADA9676D4
col07:   7764574A59886AC9B49895EAB9A95EC896A89A899B9ADABBA8A8CBB9DADBB9B99CACC889ABB99C9D
col08:   9A58864589628677AC69767C9AAABDC78ACB8BB79ECBBD9BDA8CABAAC99A9C9ABA866A9889C97BA8
col09:   A9797A785C5B77A889C6CAA9A9B9E8CDADDC9C899AF7DDDCDBDAEBDA8DF8C8AB6BA6A78A9BBB995A
col10:   8C679A497678798DBA5C8CE8AA56E9E8C875B9D9998BBC8B99CA9CCACBBDBA6DBA86BA997BBBA777
col11:   288B696B8B9B79B57C58C899B8D8A8B8AB7DAECC8D79CCCBDB8FBBA96F99857ACA9F67CA9999C6AA
col12:   689B6B7A7797AB89A78B59756BBBC6DD8BA9E79AE89ABB78BBE9AB7E998CDDA9AC968C9B79688689
col13:   576879978878A9876F999BFA75B98B39C86C787C79C9AB9CADBDFCBB994CC8A9BC9DADCA8C6A8A77
col14:   69B55589C995B688598878D9988696BB9EB8AD7AAD6CA878ACAECC9C5BCBE88A8DA8B9CCC6B96AA5
col15:   5856297B37A5A5CD9296B9A8C85CABDBCB9BBBBBBE99C3CBCD8CEB7CC99CED5D9CA88A8AC6D9C8B7
col16:   484995878987A889679788A4B595D9BA49AFAACA9B8D8B6A8B9DACBAD99CA79A9BCB98ABC89979A5
col17:   746788B696887979AAA7CD77A9ACC8866B8AA9688C9C9ADA79DD6A969AD6D6BD9A88DBBB8AAC9593
col18:   A9715A6986A9BA8899A8876C9A79BBEBA988BB5889D8A5AAEA689B89BA788A9C9BAAACE9CA8CAC77
col19:   769686BAC7896749A9EBBAAABBAE969C5A8DAAA8ECBCBBAEBCBABDCBC8F9AB7B95B9A6B9BD87E998
col20:   A87966998984485798A5D9BB9D8AA987E86E97B6879ACDC899EC9CB98AA9C88BBD8CA72BA77AC889
col21:   868C4657A793996A38479B897EB998B8954BBAB9B65A59B9BFBDC7A5AFBDDCB9AA6D7AAC8B9BA89A
col22:   6B62A8BBA6B9889B998C88CA95B8BC58B958CA7CB888A999DADC88A8DD7A9BF78BA9CD97C8A89599
col23:   8789567A87C669A9CB8A48B85AA6BA8A9C97CDAA7AC9BAC87A9C8CCD999AE9BBB7AF79D989A97CE3
col24:   7936A7A687C855B59CC75A99C889A9A8D986B8AA878C9AAB8C9BAD77B78DCCE6767A7B8A99C83976
col25:   66878A98C758767C768757DD9BAAAD59A8C9E9AB69CBA78A9DD89798C94D58A9BC959CB98BBA8AAA
col26:   A9CC8B9C9978CBA6C89BAEC8BCCD7B6DCACE9DDE79BC7ACCDA6B7AAB99ABDBCBAAAABAA7BAAA9B99
col27:   888886998C8C79B82DE89B89C7CDABCCBEB8CBEBFDC9DBE9DBBFAD9BDAAE5ACEB69D7D6B899BAD99
col28:   78AB96A87BDA8787DBCA6BBFE8DCABB9DBCCAF9A9BECBBD9BAD9BAE9CBDADC8D9ACAB9CCA8AAD9CB
col29:   96E99AD89796549ADACCABBBAEA9CCACDECABDB8CDAF679E9CBCC89CDBF7CBECCC8D689F88BBDAB6
col30:   6937A89969EA798B7DACEBCBCC6B78ADE9EBDB97BF9AA8AADCACDFC5D697BEBBE86DDBB9E9CDD885
col31:   8B96A9CBB9AAC97BAB8BD87BBBAADBFDBDBCDBB9DEACDCBCE98CBAB8DADDDFADAACBBAEA89C5CB88
col32:   A99BF8D87697C78ECFD77ACBBCCCCCDCDAFBABDBBB8ACD8B9E8EEECCBB9BFBDA8DB9ABCFDAB8BF95
col33:   ACB6588BABFBB9B89CFBCEA9BCE8EECCE9AFC89ECEBCD9CCDB8F9EBCDECADEC9BBBCBCEEADCDE6AC
col34:   CABA5DDA999CABA9CBEA7AF9BF7BCC99EFCB98BDCDBABDFDBFABCBD7EEB9EBBD47BBABDAEA9C9999
col35:   A7988BAA8B7BA8D9BB76BBCCDABBCCBDFBDDABDBC9DEECACFBDACAED79DADBCCD9D7EC9A88CBBFBB
col36:   EAB99B9EAACA89BBDAACCEDDBBBB9BCEC9BCDAECFD7ABC99EEEDCACF8EFBBEEDE9CCBA9DB97B977C
col37:   A98B9AEFACBCA89E9A7BBABCDCDCDE7FBCAB8BD8CFFECABABA99EAACADBFF89ADCA7FDA7BBADBEAD
col38:   AD89A8BCDBBA8C9C8DBBBC8FCCFBD6DF8EBBFAE8ECCFADE9CDCDFCFDFCFCCCFCEBCDDB7ABCAABDB8
col39:   87D669C9A88B7B8AAAFBF9BAE4DBBBDBDE8BBBCFEBCDADCCCCBEEF9FEB9DCA9B997EBDEDDABA9CEA
col40:   C6787C9777BFCEAA7EA9ABAA9C9DDAACD8FDBADCDFEDFDAB9AECBCFDCE7BAD9DBDAEF9E8A66ADB7C
col41:   6AAB79B5BE967BC9AB9ACCAD9BCBB5BDDFBBBCCEAEBFDAFD9CADBCCCEADF8E6CEDD7EECBBBADABE9
col42:   9A9AC7A8AB7AEDA8BCACAB9DBAC9D98ADDEBFFCDAAEBEDCDDFDEF8EBA9ABCFDDBCAABCCAA9A8ABAC
col43:   CBCB9BCAAA5CC6D9AD997EFCCEEDF9B7CA8CABCFFD8DCBFD9A8FFEAA9ECFFFCACAF78EBB9D687CCC
col44:   CBBFAC9B67F6BDEDD9DDCA9DAABDEB9DEBFBDCCFDBBCA7BEA9DFBBEDEACDFDBCCACACEDDAD9BB8C6
col45:   9BAA9BFEA77ADACB8ACB49A9DBCCBFDFBCCB8ACBCCCFAC7BADFEBFCEB9FDFFDFADEA7AAECED8CA98
col46:   B8A7E9998AC97D9BA88CD9B9AC9FABBFCACB7ACE9BAAAEDCCE99DDCCDADDACBAAEE8FC8ACADCD8C8
col47:   AD8CAB9BAABCBAA98C99DCB9DDFDBE9B9DC8C9BC99DFA9AE9BEDCFEBCD8BDDDB8C89CD9BB9C98DD8
col48:   B9BCAADC67ECACA9DBCCADBF8EFEFADDCECE9BB9C8B7B978EECE9CBDAD9FAFBACCEBBACCEE8BDCB9
col49:   7B78C8ABABBEAA9B968AC6BACAA9BD7B89CCADBAFEEA8DDCCCDCBCEFEFEE998DCC9B9C8C8BB8BF8B
col50:   C88DCEEDABCADE9ACD99BCCBED9ADBDFBBCCCFDA9ADD9DFEADAAADA8DBCDCCBCDCCDACAB9BABAA98
col51:   737859B6469A79A9B794AACAC8D6A9B8AD9CA78CABA79B9BB9EBCAB59C79A9AE9B9CAA8B79B8BAB6
ROC:     BPix_BmO_SEC1_LYR4_LDR2F_MOD3_ROC11
col00:   583656636238965382617768957757462A6576864579775A8A7A79597788899876E3559657585774
col01:   694557C65716786667529A787B955AB8788775666B57597C896769AC889ED98A749BBA995C469476
col02:   B813445985484989675465758B5ACCA38B9896666AA5B87759987A78BBA99BB7967C8A59AC4C8878
col03:   841955953246984A5786A9C9766C7958595889B897BB6B7A9BA79669B9E57DB998C84956D9897A68
col04:   57466666768572565665774B96B893786A596B5AB757D7B3C648AAA8CA8B58CB589BAA9CC7A7794B
col05:   35586A768674B588E8588896AB8A87AB86A9DA8959B567C75698C89AA457D8457EBB798B7D897BBA
col06:   595994476496772863669779A769A6647987CAC9A76B78B7599A8A779F896578A977A557C5188946
col07:   34884757A6475739368299AAA7B6C8AE7ACA6A886C69C8767B8A898B5B7A79CABAAA868AD9D7B689
col08:   5A65746767669558699A566A99A37698B9ABE98879B68DBCD6688BB89DAA9A6895A8988A5AA57648
col09:   B43567657596774967C6887558C96D859AA765CA867974A888899B9C8578D9CBB59AA9A97D9AC96C
col10:   35777475597753757A785856B7788A68456579BCBD9EA88C794B985AA8888C99599866C597997A78
col11:   8228A78A38A98598686894A8999466C7479999A75C999ABA56B8BCB7AAF7874BC6A5577AA7975979
col12:   84534499964B65679B99585B77A485B5DB83BA89E8B9B46AC86C6FAB6CD78A8CB8685D569886A6D6
col13:   77475A77894D9579A99B7788884A9AA97CDB8B9B89D9367687B85B7C95A8A98B98696A768773AA5B
col14:   83758575779B96B577AAB8768988A7CC6687BA986C9A957BB8697BC99778ABBBCADAE9578A8879D7
col15:   77569C776288656966635578B87B77BACB9BC8A89DC9ADB88769CBBB9C99F5BD8C6AB9768AB94DA6
col16:   98884758AAAA38AA9733B7679ADDB867B79EB88789897789B79899F99A8A4BCB3778696CBB698875
col17:   54785479471A87A59989A74CAA3554588BB9A68899D8AD7588865AD79D5CCAD9ABB8AC8BD8889729
col18:   7857495247B5846577A62964D476963ACA7655997CADC799867DA6A9BA879BD78885795B94769691
col19:   7427866664A9C5686896CB6857A6AAB7BBA9AE7AADA7AB5F4D6AA77B99AA8A89DB27BAA9A388B473
col20:   A1B257458699524474857D776767B9993BCA6B7A476686D8AEC677BAD998BA9A96898BAA84AEB468
col21:   A6264655E8AA944879AC9B8B976AA7A977A898C6886FA4647C89B98E8C6868B7A99CAA69A9C9C872
col22:   963461518881628879AD78D99887CA4979BB6D56B699A87489A96B8C85AA738C99997D5779CAC588
col23:   87657A5969579846A83957C785A6777AC858BAD9C869889B9AC9B96B96AB593A998A99B7B8966C59
col24:   8B28537588B1978777C79A68A6BAB85ABA93CDB65BAA779A99A6BB8A99979EA888B47868C9789989
col25:   5339366AA97669477795B686B975D755BD889BCCA9BD8ABC8A8CB98B7C8DCAAB8859C8C9AA8779A7
col26:   C7B6156D8C955B9FA85AA75C5ABED9D9ED8CADC6BB99C9AECF7B86B9CA9B6ABAAACF99C5B889ADA5
col27:   97984795745B87998B9C95C889A5A6AC99BA98CD89A6CBCAB7DCCAC7B7DDBBACA5D996C9AB98CACC
col28:   36965C87AAAC759A79C8649BBE979969A99DAB6C7CBBE8ACAABDCAAA7EB9D99A8D88AABE9E5578C8
col29:   8629B57C69A66B9768AA75997669DBC898BDBCBCBC6EC6BCAC4FA88C99FCDAC97EAAEDAC5BBAAAA5
col30:   8A8A356A5957A4A788CABDFBBADB89778ABAA9CBA8AAC9DCDC8A8CA97EAACBEDA8D999BAD7ADC789
col31:   8A886A7D7986ACBBEABBFB8AA9BBCDA9CCDFDACDCE79CADAACFCC9DBAC9BFAE78AADCC9688BEAB69
col32:   6A787699A7A88B8BEDEACDA9CCDEBA6AABC7B7AB895F9D6BA79AB9CCABAEFBCBB8CDB7BCCB5CAB7A
col33:   A79979A46E68B78988BDDCAAFA9EBCBCBBCB75CB8ABCABBCD8DA8AB9B679CCB9F47BAA8D9BBB9BE8
col34:   B89A9887D9D8A9795C98B9CBFDA7CFA7ABCCEBBBBEBB9DDFBCDEC8DEEB888CDDC98DEAB98CBC8BC7
col35:   75575676A6ABEA578ABAAAD997689BA5AB9C7ABAFCEABCABECADCE888DAC99BF9AAE8BBCAC8C79C7
col36:   9AA59AAA9D78AA8885BA9AA5AC9D9DD999979AC9ADAE7BEDBC9E79E78BADBBCDA9AB9BDA8AEA89A6
col37:   A7B9A8CADC6A93C8B8BAAEF9EC6ACFDCF7CBDC8CA8BAB9BCDABECE9ABCC7EEBBDBBDCBA9DBADBB8D
col38:   E698C6A8D8BBA79BB8AB7B5A8ACCCD8AADFBD8CD9BACEDAC97EBE6BEAB8DD9ADFD8BCBCFBDBBCDA8
col39:   4BA4CBA8A99647885B9D8AC8A7D7CCCCDCB9CFECAFAABEB8F97CD9DDACCAF9BECAD788CCABEB99BB
col40:   88A9B4DB867C7D98CBBA6BBB5B6ACBEC7CAA79BD8CBDFE7B9ADCAF69FBBC7BBA9CABC7BBD99BBDB9
col41:   698C7AD3ACDA9A9BC77DECE988A9DDB8FDCCD79FB7DC9FDBEBBDE9CABCF9ECDBBFABEBAC9B9BCB9B
col42:   E88A9867796976AECCDDA9DEB5DBEBDBC9BABAFAAAAC8C8CC977CFCEEACE9BBFECC99B98CBB9ABAD
col43:   66CBE9C7CD7D5BFB6FBCCA7AAC6D9CAACF9EDAF9EDBBD9CDEA99FCFCBEDFBACEFAADDD9CECA9BDDA
col44:   7669575B9AB6C8DDD8CAB8BEAABBBB8CFADDDADBDCFE7C7CDEECAFEE9DCFFBACBCBCFABB9F7F589B
col45:   7C6B4DC8ABDBCD9AA7D8EBA8C9B9C8DDA97CDEECBAD8CBDDBAD9CDCDFAB9DFA9CCCCC6AADEBF88BB
col46:   99878936AACBC9A9BECFCDCCBAAD9CC98DFCBACCEDCEACADEEDCADA9CCDCCA6CBACADECADBC9AC9D
col47:   D5B6999EAB79CEA5AADDDBABCE7DCDDEBEECFCCECBCBB7AABBCBD9EDFCDBAADCCD8DBF9DABBAED9A
col48:   89B69BD9ED896C9ADAB7BBCAB9D8B7DD99AC7EC8CDDDCE97DEADFBACBACDBA9B9FB9CBB9BCDCC69C
col49:   8A6A9986BA8CC86C9FCBA9AC8AACCDAFFDBBAEFBFEBAAAABAB9EB8E9CEABDCED6EBFDAB8EB8EAAED
col50:   67A8E9DB6DEDC988AE5BAB9FA8AC9ACAA8CDEBDBCB979CECED9B9BDDDFBFCFCCCBAC9FFBCC9A8AAB
col51:   958A664685C6756AD9974BEACABD9A78CE69A8CC89B5BA8C7878AAECB9CCBC68B9D97A99D9589DB7
ROC:     BPix_BmO_SEC1_LYR4_LDR2F_MOD3_ROC12
col00:   96451A36579576C8446553986BB969A43B697579886868A4975966BA889BE766A7CBD57A977A66B4
col01:   84A367D7AAB1986C88A25A9AA9968ACA88B899A69D69A689C8BA879AA9BCCBB7599ADC9BAA686B7B
col02:   74655A776B7A9696786747AC7A7A966A6BA776AADA9C985989685959CEB77579788AB698BB67B6A8
col03:   78435853A86B5A996C885A8C767A499688CC7CBBB8A7A89A99BE9A7B999AF9D799DAA9E9A5995AA9
col04:   587B6A589335767B6B8B69C59B789BBA6A9A8AACCBDAAABA7D8A7BCDB87887F8B4966A879378DA69
col05:   96765658846A35B7667A8BB89999A6968899BBCE4B696AD798A967D9D8898ABC77899468C65AA99A
col06:   5857867885778876A69A6799AC7BA4A9B889C79FACA85CFFAADB89879798CBFAA9B79B888ABA969B
col07:   9615A696445589CD78AA8B76BC9EA6769889989578999877AABC699AABAB9C486AEBAF6B67AB9A77
col08:   7AA6679786A51599956A56BA855CBAAAA88AB58C686B68BE18595AA9AB5D8ABCBC6CB7A655946829
col09:   6869996777A4C9A4A69D4A59569CBBD6BAB6BB9B7ECF8DDBBBA96CCAEBF9DEA999ABB8885CBD66CD
col10:   5B5775956BA96849C6AAEBB9A69B89B79ABCCD999AB69ABA78AB3DAAAA9ABA76BA97A7ACAA9D6655
col11:   79A7AC88A5878558A988B8BC597ABA69CA5B76DE8798B8BA9889AAA8BAEABB4B9DB9B495AC7B5C8A
col12:   B89545469EA5984AB948C6DAC999A5A6B7B588B8C74D5D7BABA9975DDC89DACCA99DCD5CA789B385
col13:   CAC6CA5A9699379CDB58BAA758AA88ABBC7B9A8AC967ABB979BFFAEC9D888AD9ABCAB47BB98B86A9
col14:   6468673983898974778C796AC9A89B79A9899AB8B9D7A96C7AB59B88A6BBABC8C97ADB7CB5457C5B
col15:   76666538A9768B6779698AB9B6BC9669DBD788AC6BB66CABCA798F6ADB989E899AA8B9886CB57885
col16:   7A75A6B859888B9C7A98BBA67BBE8499C9BAC5AAAA7875867BC9A7EEACE89BCBFC55A89969888AB9
col17:   673491897898978887A98BB8BABAA64BBB89976B68CA78CACDA6ADCCCC97CBBC7CCC58BC8B68B788
col18:   7858785B87677569A83B6FA87884E9C8BB59AB6A9CBCAAAB9B9B9A68CBA77B778AD885A98AAD98AA
col19:   958676CEA668A7B6C976A7948AAA998C8ADECC65ADBDA978D86AADCFF9B7ADBBAB6A69A669C96896
col20:   6695BB867A98A78A7AB6ABA6DA85A8B78C89AC8A8ACC99A7A8BAA98BA8ABC97BBA87DAA49B7988E9
col21:   4677BBA7778787B77AA7989BB879769CBADBA57ADAA87FBB87CDC79ACCD79ACAC7A5C899D77B888D
col22:   87468497C2A38A7967A7988996BB96D697CA8799B7AA83E8BB9C9B89A9BA97BA966A8B6CB6BCCB89
col23:   5C5549473847598B47A6B7883B7977ACA9B7D5CCAC8A9867E65BB99967BAA58BA56A988678AB7D78
col24:   67A775662495779B6B559AC88AA87BA9ABC7ABBA9A8DBBB8A9958ADAAAC8BB9973FA898CCB679868
col25:   68697793539837886A7689CA99B9AC99ACB9CA8A8AAEBC8CAB6BC9A8A8CAACAA49A78B5B8679998A
col26:   586C5ACBB76AB9CC7BD6BBE7A789E5DEABACBD9CBD98FBADABEA8CCACC8CDA9DEB99CFA5FABB87DB
col27:   C898A5A876BAA78A869CDB7B99D99AAEDB9DBBBE9CAA9FBA9BAABBFABDBCC9AEABC8A69899A797C9
col28:   8A79936BA96676799B7D7EBCBBAAAA9BDCFADAC8FCE8ADF7AABBB88ADD85BEDDDA9B9AAA5E79A9B6
col29:   9A853B778CA8B739DAACE79BDD899ABCCD89BAEDAFC9FB9FBDCE7E79BCCBBAE989DEBF898889A766
col30:   8BD9777B89CABA859CBA7A998CB89BBCAFE679DFBABCCAEACB8A5EDADAB589EDA99A9EBBC878B7BB
col31:   8767C88A77A999D89557EABC9BBBBAACADD8C9AEEEBCDAB89CCFECCBEC6FBAB9AEAD8A89B6C8F675
col32:   5AAB88A8B7AC7CAC9BCF97A97A9CB98BB8CEBADB9BBDADBAAEDCAADBDAA9BBDA9DBDAABB99AC788A
col33:   6CAADABB8A49A6B8BAC9A8DAE7CED9DAF8ADBDDACCEEDDABDDCFBAAAECBAADDCED789BBCDDAB9C7A
col34:   AD9587AC6AAAA8AAABBB8D98B9C9ABDD9CC9D8C9DAEAEBBBACFBDCA6AABED99CBACCC98A89DAB79A
col35:   998CB84778BAD9A8D9AE8AB9BCBAD8C7EBDAFED9CE6C7EFABABFBA9BAABBDBDCA8ADDEAC6CBBB9C9
col36:   B88C86A69B79B87ABBAE9BDBD9A9CCFBECE7CBDEA6ADDABCDCEB799ACDCBCD7AABDCCB9D999CBAAB
col37:   A6AC86BBAFBAB695DDCA9AADAC5DA89DCCDEABBCCF9EEFCF8E9CDEC8EEE9EBA99DEDC99B79B99AAB
col38:   BBAD89CCBD9CCCEA777B9AACADDAC99E8BCDDC9DDBAFBCDCAACA9CCCBBEEBD7C9ABDBC89B88DC789
col39:   7895656CC9BBADA99A9B689ADBAC9B9EBB7CADCE8DADFFCCAFB9EBCEDAB9ADEBB977E8A9D85DBBCD
col40:   BE8DB89CCA5BAA7CC8DDBDDDB9DDBEDC8FEEBCBBCCEABA8CEED9DFD98AD9BD7DCACD6ACBBAA8CCB4
col41:   8A869ACB8AB9BAAABFF9ADACBDBDDDACDCE99B8DBCEDADCBCFBEACDCAABCCDCFCDCDCDADAA69A9A9
col42:   AAA9DD8A8AB8BCEAD8CFBCBCCD8B7ADDD7BECBAC99B7DBEDBBBAFAAFCCABAFBBECAABB9CB96AABE8
col43:   4A9AB8795CA97988CDA69ABEDDDBCB9FAF8BD9FADEC9AC8EACDCBBACE87AF9BC9CDBAA9C68FB88C8
col44:   8A96C87988B6AD7CCCAAEDBFA9A9EADAEABCCFBAFCCC9E88B9E9ACBFBDBDBCBFAC69DBBCAB9EAB9C
col45:   98ED977D59ABBADCA8BC7ACABAFBCCCBBCFFDB8CB9DFBACB9CAFFD9DCAFCBAC858EABBCEEDEA78CB
col46:   7CABD8BC87B8AEC7EF7C9EC9A9BDDAACFA8CECBCDBED89EB9AAADACFBDABCAD99EFDAB9BBCBEAAAA
col47:   8AA9DBD688BBCCAADBBBC8CCDCCBBBCFBB7DDDACAACD9FCAFE8CEFEAFBCFD6ECDCFCCD9DAAAAFDAB
col48:   DE687A9A7DDDECA8BBABCAAAD779C7DDFBBAFECDACCABA9AADBCBABCCADEBDD88FBDEA387B68CBC6
col49:   9B88A6BA8ABC9AAC9BC8D9BABA8CBBAD9EADDBA9BABDCFD9DA97CD7BDBFDA48CC9CCB9AEDABC7DD3
col50:   ABCA9DABBBBBAECAB7BBCCCD8EBBAD6BFCAACBF8DBBBFDE969BDB9DBEACBDADACCED97AC8A8AE9CA
col51:   755A778874BCA7B9C8B98B89AA78B87C89AAA6B99F89E67C6969A9CC5B7A8AAAB9A7AA7A7787A7B5
ROC:     BPix_BmO_SEC1_LYR4_LDR2F_MOD3_ROC13
col00:   665647663463666676519693978751547E99638947A7476A68A856589C597A968894566576A96586
col01:   676877686327796857A888AA98B798B9B779896BBA876A7873999767995A68646766A88A5B999765
col02:   B67735814645379817B474A76869956A694D8968A79658897987877B7A92889A77A69899385588A5
col03:   76969966774867698657766678693578B768AD8886676A8B69A88997D85A988A7A676AA88A888498
col04:   A316884666774578548789B398AB3954A47B87A786887979896A99A7B67BAB78EAC4A6745C88A8A6
col05:   6848878497794974549856555A597896A699999BC6AA7A8B98A7A698D56789567896C5497755C486
col06:   543A65B537757A7A8859688998A4987B8996995788988976758889877B88A469A986797496B7C683
col07:   9776677536579A6C938845866A7AA9CDAB8AB868C8699EAC6BAA798A9A998C8C95CA6A88879AA481
col08:   85356A77B859479897AA99789AD8CA5689BC68A7A8CB57796AA9B9999966998AAA986B897A979797
col09:   95855678298996974B779A77779866AA756A97B878AAA9797A78AA7AA99A667ABBBBA7B7887777C7
col10:   8836A878834587268967A5A68757767988A8BA64678A8A7E899AC8B685A2465A696887558838C64A
col11:   7A47376557578575688A964388767879756BB9AB88BBA68B9B5A5A9999AB77B55B759679A7866AA6
col12:   5765547686699467956A8A6478837A8A99C4668B98B799B89B5B9A599A696AAA5978379A497BA675
col13:   558665A868666B8797657A789BAC99AD7D9A798AB889B9A79A994BB868887CA476AA87997888B8B4
col14:   97766598369356779378A7699C8787A98A8C9899C95899B88CAAB497BABA6BA99BEB77A888776786
col15:   6956397488368839BA7689AD9A797AC86A949997DBB6799C82BB8FE5B99B88A78C8658AAA9D7B666
col16:   987296676997AA669878665AE9AB78386699BAAC7887BBBD9A8A999DA949C78C788BBB8889678886
col17:   77638789384635988685A5398AB886698DA78A8AB96AC7CABAAA6C9A5A86A9E7369A58A978957B58
col18:   356758517445535A876867889C2999387757B97A8A5968699BB98C7AB879B9875AB9CB8856857583
col19:   45A8547899867866595578A8A689A97B6DCC8AB8CA5999C9C79D9899798AAA5BA9888BA9D77D998D
col20:   876A7B7A9558573548B79998879A698CAB9873BA9BB998AA799A7AAA9999887898A6656969BA8888
col21:   458297399C4467968889CA72B97D87779789AB7886DF8899B9AAC978AB8AB7576A7B779889C9B9D4
col22:   5B36884476897989778975B687BCBB78BA36587787995A7999888E9BC77976989A8B547A97688987
col23:   56826873855B35998678B478B8986896A79AA967BCA989C89A6797BA6997BB5888B6C8E49A777687
col24:   648A965679937848877BA977895B86BBAD696B7B8B8A8AB6978A787788EB79B9789BB8A989D899A8
col25:   55879988967585935BABC767C8C698BB7CA7AAA8767B99B99BA88CA6AA88BCC9879ABA559B5498B8
col26:   796CC4B86894A77AA78F9958B9A9ABCCDCB8BBD8CC68BA8C9AAEA8C69BECCA9A688AA9A99694B9B4
col27:   47664997767AAA666A58A965AB8B96786AA969BADB79BBA69E86A9BE9A9C7DBB9B89978ACAC8D7D7
col28:   6776859B867A988BA997C88BB9BAA897B9DA98C99C999A9888C6ACCCCCA67B8B67B8ABB9CA9B8857
col29:   578357896BA869977AC8ADA99BBA9CBB779CADAA676DAD9A8B89BA89D9ABAAB97E9BCDB799AA8AC7
col30:   653B98BC8C894A786872B9AABA6AB9799DCACCB77ABBAAAAABAAAADB9B7DCBCCBCB99A8C9BD79AAA
col31:   39775A855AAA68888C9AAB5A8CBEC8DACC8B9DCCC88CABDA9B7CECBAAECC79BDAD9DBCC9B8BACB97
col32:   97339797999799A9CFAB87ACE97C9C7ACBBD7AFDAABBADACC4ADBBDDC78CCCB9BBBAAAC9A98A8A97
col33:   B89679797899AC8E6A8B989BBBDE9DB9C999AA79BE7BBED9AB87BABA9DACDACF88CCACABD9BEB9C7
col34:   8BA7AE667ABD88769BBDAAABA6FAEDAEDBECBEBADEDEDDCDEEDD9ADACCCBAFCBCDBAAA8BD8BBDA78
col35:   578C9599D99AABCBBDB7EBDCBAAABD99CBBBAAACBEDAAAB9B99BABBFDA8CDADBBAD8CB9A6F9CAC9B
col36:   9A86A8697489AB97EACABBABCDF98BDBCABEBCBADC9DCB88CCCCDADBBC9DBCBF998DAAABC9B6B99A
col37:   6B6697A6AA7A6A9AEBBB9D8ACDBCABECC99FDDEBBBEEDAD88ADACDBEEEDABFCFAAA8C9CCCBDB8BE9
col38:   9A7C7B88779B7B5DB8C69FBDABCEBCC9D8ABEACEEFF9DCDCAEBDCBDDFCECAA9ACCBDCBCFBB9A9CAA
col39:   8A6566B589AAD9BAFBBAB6A9CD8DACFBA96BDABDDDEDBDDF8BAEEFCCBCFADBBBBBBCCDCEC97BACB9
col40:   8A3AB9A68CB5997DECC8CBDCDCDDDCCABDC3DABEBEFCEFDCAAEDBEDADB7A9EFAB9DCAAECAFBCADAB
col41:   7AD96CA789BA97BDBCCB97CBACBC99BD7BFA9ECFACBCBCC9ACDABFCBDDEECFBABDDBFAEDFEDDAB8B
col42:   BD768A5799B8BA9CACB9DABEADE9A8CAFC9DF6BBABCB8CBEACBDBCEBDCBDCDCDEBDADCCBA69ABACB
col43:   8CBB5ACD9CCBA9BEBFC98A7CBCCACCDFDFBDDACDBCCCEECDACFCBCAFFDDEC8CFEAEFCACDCB89B8EC
col44:   8A99ABCCCC78AA9BBEBC8CAFA9B87BACDCAFDDEBECBB8ECBCEE9BABBCC9C8CDECC8CCE9BCCFB7CBB
col45:   A998BB9A7A99AB9CCB89C9DECD9DDDCABCDCA9A9C9CBCF9ECBEFD8BDDFBEDACCFDDBEECBDCD9AA9D
col46:   A8AD99CAB6CAD99FEECCAFE9CCECDCBAFBCADCAFABBBDCAFE9EC8DEDEEDFCCBC9BCEB8DFADBBAFBA
col47:   7C78AC9ABBCBB8E996D7BEA9ACBBDF9E9D9DDCBDCDDE9BCBFDFCF7BCBFDDFADAA9CEDEF99CABA98D
col48:   4B6B9AADACCB78CBDAABCDD9DDB9FEAC9B89CEEEDCCDCEC8ECEDDADFCCCDDFDBCAEECBCBCABAAAC9
col49:   A6ABBAB9C8BD6D9DACC9DDE8BFBCCFBBC9BDBCE9EB8CDEFDDECEFDEEFFEB9ECC9CCDBFCBDBAAEBBC
col50:   AAABBB9BDAB7A8B779B9ADC8D8BDBCBDFCBABDCCE8EDECCC8BECFDE8CD9DCFEFBCBDABA7DDEFDBDB
col51:   8567BB875C5865A84B8A8DB9B97BCABCFBBA6BAC7CBAD8CECCDC7B9CBCCBBA78ADDABBBADADCB79B
ROC:     BPix_BmO_SEC1_LYR4_LDR2F_MOD3_ROC14
col00:   613A574492839587B6A5887ABC5775664379DAA999A79879B7B9C8B9AD7769B76A8288872768D79A
col01:   4575A56676638499859A7A88B69A3B9B99A98AB98A996C8A8CAC88CBACC98BCEA6C69B6A57378996
col02:   45454696356656756B7697586895876CC9C9BB79C9DABCAB99E975B69D7787D899785B839A74C89C
col03:   3B69B658A75865798A49B6997B766AB69BB98ABB59FAA9DBCEB7AD97A7A88A9BAB99A7B9C5B77735
col04:   57546897763596677A28959A58A68998CB8AB87A87C8A6C99AD7BA78B8E9CA788CCCCAC77BA78669
col05:   7225767659516975867B75396A89B936697A9ACA779B99888985A8BCCDECAD9D78ACBB64BC88A966
col06:   61954766748677877A66A784593778BAA9EBBACA599598BCB9A8CC7CA698ABAC76A9D489E87CB6BE
col07:   41945399C5299932745867967969E6CA67DA99ABF9BB7A8AB7A977AB8BB947A99A7ABA6BA4A8EDE9
col08:   723773434535169A4686A5889B7857A7898A6E9A9AAB98D68BBD7BC9CB6B98799C89ACA4C5A7B68A
col09:   633523835B29C599985A78B7A968CAA8B869BD99B8BAB99DBAAC8DBBCBBDEC7AC678B9BBB8D8C8D5
col10:   876666596B3966168677A7EA79B6DDB98B899CDAAA88B86A8AAB8D99BD6EB79AB977CADB7C8C5AAB
col11:   555988A4969859EB677797885BA738AEBA68A98899CAB78AA8B777AABCBDCB9768D88ACA57659796
col12:   A7124686A2686565B85898797BC8A4C98B9B999B798C5977BCF86CBBB9CCA988A95956BDB88699A9
col13:   6949BA945367D585759A8AA6A67AA8BAD9998CA7BA8B8C968BBBAAA8A98AB9977CB7A8BCE9CAB79B
col14:   77596516B89259728768AA98AAB7BB858C78B99A7CA9CB59A9A98669ABDCC9AAA9958A665C9CAAB9
col15:   86348877497586656A8A69A7885C978B9959A99AB8C78769ABDD9B8DBC7BD9E76BC78877B9C9E897
col16:   4585997587946966556C96799BBA88B68CAB998B9BACEB98BABEA98BA7AA7E89C89DCB7AA7B6CD89
col17:   726376547745A7984A9858886A88BB8A967A8C888A59997687AD9AAC9C8B7C9B4CB6C675AB8C3B89
col18:   5764664657A8A88B768A8A56888D7AABB889AB9BAA9C6B9BBBACA6CBAAC9BC8A488DBAA7BE79AA69
col19:   546899666669B5788B7A7C678A5CBB7A9B5AAAC7E8BABCBCABC7AB9BDBB787CAABBC7AAA7AB9BB79
col20:   7774685758865477467C8C8396AAD78DBE7CC7DE999A9CB9BCACBDAA78A7ABA9B97959979778AA4A
col21:   8766876993C9A6867B989BB7A9DAAAC9BABEA9896848BA899A6B79B5C9B8B8AD99D997A8A8B7D857
col22:   545897A76746567269697AA6866C8599EC78ABAB8C599CA98AB89DAEA8A9DB7A878BA9AC9A98748A
col23:   5656A583A8882B66837B69A7568C9BDCCA7C8ABBA899B89EB8A9B8DBB67AAA9C8AECC698BA767CCA
col24:   77664498975338496778B73A7979BB9ABC9B9DC988398AAB2DCD59B6AAA77BC9B9BB8B8C889C9B9B
col25:   855A97578A7B8319A797CBA6BC77C59CC6A9C9BBBCAD6BBD9B7CAA8A9CC988BBBA7A4996AB998678
col26:   7979897889B898C5BB8A7779BB9889C78989CEBA8CCEB8CB9BCADDDD7DADCDB9C9AA8ABAA8B8AC88
col27:   45B86BAD95B867D8BB99A989B9BAAABAEBC9AADBCC7C9CECFDAC68BBAD8EADFEB8BBA8B9D8AA87B8
col28:   8677B148887FC958FBCBB8E77BAB9AC9CFCB9DC88BDAC9CC88D79CCDB989CBBBBDCBAA6AFBDC78A9
col29:   967B788888AB889C586B6BA58A99ABA8CAEBDB7A8DDBB6AAA9BCBC9AECEBADAEE9BCA8BCDA9C8CDA
col30:   7A6B4C88AA86B986889AD9B7DBB9A88E9BB7DBACF9DBAB8B8DBBCADFBDCDBEBADCB7AABC98C8DABA
col31:   769588A9AA8999BC9CDAA8AB98ACDCCC8BCDA9DCC6DCD8CAAABBBCBDCDCAC9CEAFBA77A9AB7BDABC
col32:   792A7B97698AA5877C7AB7A9EAA8ADB9DAA9AA6BBCBACA9EEADD7D9FACACDCCFB9CBBDB99989C9AB
col33:   B7649999B9996BB897CA7C99BD9B9B9DBACBDADBDEDDDEDBDA9CCBCABDCEA6ABEBDACA9EBE798AD9
col34:   92867996AA98DD67C8DB7C996BDDD97DDAAC8DABDA7BACADA7DCBBCE8CBDFFBDCCA7ADB9B9799AAB
col35:   76B87B9BB798859CAAB8CCAED9BCD8A9F8BCFACECDCBFDD789CCD9EFFFCBBEBBCECBC9ABAAA89A8B
col36:   4AA477996CA898A689DDCA7ABBBAB8CDFF7EAF9CB8BEBDBEDBCCAABCEBCE9D9D9D7CE9DDC7AD7D69
col37:   4A67A7A77B9BBCBB8FB7A9DCE9CDE9BBEE7EDACDD9EB9CBDDCCB9DC9A9CDFFEABCDFACECCB9989C9
col38:   99CA6989BB96ACB89AC7DBCBFA9BDEBCAFD9DBEEADFBADAACCBFADBCADDEEDCAC8AF7A9BDCABA7B8
col39:   AA7E88DA8BAB97B8B9AADC89ABCECD8CBECBCCBBDECDBAAEEEEFCB9CCCAAEBADACB9CBBB9BFD8ACE
col40:   89A69896C998A9CC8CE9ECACBAC9BDADCADA9BC9ADBAECACACBED9CDAEBDCCBAE9DDBBBDC8777BD9
col41:   7A7CBD8A88A74D4BBC96A68D9CCCC7DDAABCBCCCCCDDC8FB9DBDFE9DD9DBECDAEDADDA9D785DB8F9
col42:   A99959D96DA88BBA8AD9ABE97E99CDDDCABECEAC9BDBBBC9CBCBADD9CBAADAA88BEEEBCACD8B8A98
col43:   A9BAD9696CB75CA9A9AE89D899AEEBDECBEABAACC9CBAFCBAC89ABEAAEDE7CCFBCDEDCBBEFFABCEE
col44:   886978CAACDB9DAB9A86AFD9BACAEEFDFE6AAEEAD8C9AFFED7CDE8DCEDEBCFEFBFAB5DADA8AACAB9
col45:   9A9A7CA67CE99CB87DB98ABED9DDDDBDDCBBC8CDCF99CECADCEEAAFDCBDEBEB99ACCC7DA8ABFDAEB
col46:   9A988B98B9AA9EAE7C9DACEAABCAADD9CCCCCBDEC97AB9D8BBDDFDFC9BCACCCDACDDAACDC8DBAAAB
col47:   88C466C8A95A89BA9999B6AC99B9EBACDACB9CCBBCDCBDDAECDDBC8BFBCCDCCDECDAC7C77B6CBECC
col48:   7AAABCAA48BCDC9BDB9CDADDCBADADEDA9DDDCBBA9FBEDCE9AADADCFDADBFDEBCBCADBBECCCCBC9A
col49:   7ABA96998697759D9BCA98BBBDBC88999B8CCC9C8D9EBCEE9CDEAE6BCF9CACBBCDCAFADDCCCBAAAD
col50:   9AA9986A9CBBDA799EACCB6DABCEEBCBCB9C9FC8AEBEECDBFFDDBAECDDDFDACBECCBD8F9D8C9ECCB
col51:   5496B7669899A66CC798BAB87C9A5CCA999CC98BCCB9BA9A89A999A9B9C9ED6B9AAB9C95968AB998
ROC:     BPix_BmO_SEC1_LYR4_LDR2F_MOD3_ROC15
col00:   4523622716985245456D3795738786276B99554888493C54759966D5657765687579438344467814
col01:   337A45133484B87B57544776B7AB69277A8976B9B7A89789AC7DA994A82687856B8574766C866678
col02:   8425399954614569574AA88997A74778A6BA3B6B6BCAB98CA7A8757C874D7A388979334944496538
col03:   9892AD653698697BC592978B9B699675A7CADE9A8A539ABCBA558B9779697896667A296A656B5654
col04:   68565A97573949885869B896A568B4889C8769679E964A9B93BA89B5795978A6656A796446B65672
col05:   2466868578C8A99CA9767977968C8B6D5A9E6C7AABA9A68B8A5B9BABA577675AA984669898454661
col06:   318758677A5AAA8D998478A6755999B7A9CBB6877B7A9DACD752C79A69A778756787C84975975775
col07:   9667739695187768779557ACA9C797BAD7AA97A6B9A9C9A9B67BA8A6BD99AD6B569567D77A78A543
col08:   953378636A681A9735B6B3999BCE886A88BADB89B75889B8997B7A8B78866A275178684865866257
col09:   99679768844B79929969AA69A799DB9BDCC67A788A6C9ACDB8A4C8932CC99A778233545A85946723
col10:   5698885A855262867895BC9949B57748DAD387A9A68AAE99A6AAD979ABAB977D8839888567686518
col11:   79693866627A9999AACB47D587B94858B987A7BC9DBDA6C696969BB98BA99C93396CA46339861866
col12:   4581788331592A599977A8BA56787597CA9ABB7B98975A95A772BC46E8699AA6867A87AA766498A3
col13:   772643479B5746A688756A96969B99AD6789BE857AB8B89ABB9AC9B9798C8E96D7697989AB587685
col14:   777785B89776469DC98787B76DB9CA98DCBD6FCBBBAB9969D9ACB9AAB8D69AA569A79E6266589653
col15:   646358B855667A886B79887C6AAD988D98A7B7999688A87BBD5C8AA9994BA875C9A9B96758867732
col16:   672C8664767566766DA877AEAB995A599A669BD97798DB66AE977C8AC97C78A35769467856648449
col17:   7735645D444554D8B68B5956799AC79AA88BB9B5A7C8C796AAA9BA8E9878997986859D7769756288
col18:   8985365494B557876791B5678898AA97A986887888F7A79CBB6AB9499CA8E757A886895959717573
col19:   54A3BB852956D8B49958A8AAA6A885969EBABC999ACD7AD7BAA7BEAC9BBB998CB8CA94C7C7996766
col20:   9175687A586675468D878B57868987978AABABBA7A7A769998A8867C889C76DD789A6876394A7465
col21:   5C4786BA86378A6796B7B9B99DA99D8B8D878B9ADAAD6C768949DC68889BCB796BB959B689617943
col22:   44856858A5655688956C6B95B586888D882BAA9BD9A6A9677CB9A7BA99A6B6BB885793478A894661
col23:   75648689985B3485A9B9519AFA4AB88AC999A78CFBA6CC9879B96CA565B87BB8396888794667334B
col24:   5775584988C68785679BD89B7876B999A69CAADA979FB98A97AAC896B778FA698988668686367271
col25:   88936A6BC346784996A98CC8CC88A86D8986C9FABB979AB5B65CBE998E5C8A79B99A757D9988D968
col26:   AABB978A3AEEA86696C899A8CB8C7CA8BEAFC9BC9BBB8CACAC988BCA67AC9D7B76BBAA5ABB669756
col27:   6497A89AB5A9BB6A69BC6DAEBB9ABB9DFC8BDAF8CDE7D8B97B858E6B9C8AC7E8B97CA8A977766B8A
col28:   76A77E93925AA969AF95ABBBDBD8ACADC6C9B8D8ADABCCBAAC7F85BD78BE88988A888978B9A78973
col29:   42A9689556A87E6DB99CC6C9BCBC98B9DB9BBBFBCECD9E9DF9DFDA9B9A9ABC6AC7CD8AAE9AB79A6B
col30:   C8887A898AA668CDB976CAAECBACD9CABCB8FBAEABBC9C9FACCCBD96BFAA7B47BACB779BBB678755
col31:   C7B668B7A9BB8AC99CC9A8BEADEAEAF69ECFADBFD87FE79EBCEAEFAACCCDC999AE58B2BC6879BA98
col32:   36A89398FBF88BE87CDBDBCCBBA79BFDAFADCC99AB9ABBBDBD5CBDCF698EB9DBB9B9A69A9A77A679
col33:   A9C845AB9A8999ADBD9DC7AECFADCADD98CCFB99AECFCABDE9CBBD68DDAB9A9E96CAA3A8699A9AB7
col34:   7978DBA88C9FCBBC98EEBCBDBBAAD8899BCBAEAEFCFDCDADAF99AABCA99879B79EACABC89897A9C5
col35:   ABB7A4CABA798C8BDBBCFADDCC98B6ADD8CDF9EBACABB9DF9DDB7B8A998BA8CAEDDC9888A68A8CA6
col36:   D8A87558F8997EBCFEC9DEE8D9BBCE5CAAFDAB8DCB7B9C8B9D8CEB7ACB8BE9899978ACACEA9ADA49
col37:   B9A8AAD7DC3BA9DAA89CCD9CBFFB8BBEAFB9DBDD9D9ACAC9CB99CBBB8CC9AFBAB969ABAA9A7A9768
col38:   9A8AD9CADBCA89DBB9E89FF8CBDEBBFBCEADCFCDBDFBDBBEEBDCBDCC89ABEDACCBDA879AA179AAB4
col39:   8399C89A69D76ADFCAEEADD9C7BEA9CDFC9CEFEAAFE9CBEEBEED6AF9D9CAC7CAA8BEED7C9DB4AAB4
col40:   B779D9BDB9ACB9FCCACBD9ADDDDDFCCCECEEC7BFBAEBBFDABECDCBACABAECCADEAEA799D99BA8A78
col41:   67ADC97CDA9A8E9AC7AAB8DDBBDDFDF8BC9ECEAC9DEABBCAEBEEFCFAFD9ECD9AECCABAA8AB7D6BA9
col42:   7B9BB59C9C8D85CEA9C98A9BC99EEEFCBCDCFDDCDE8FD98CDDDCFC8A89DAA6D8B9A4EAA8B6BA86A8
col43:   CC77C9A9AEB76BB98B8CBA9AA9BBFCFBFDACCFD9ABDA9FBCCDEAEDAABBC78EEACF9DDAABC9B6CA98
col44:   8BB77A97859BCA66EACECBF5BBCAEDBBEDFCDCCC7BBF8B8BCDFCB7FACCDDCAAEA8ABACC679979E6A
col45:   97FAC8C8CF89A74DAEA7C9CDDCECBFDAAECBD8AD9A8DCEF99E8AABC8ADBCCCAB66D689994AC7B983
col46:   997AAA94E97CABABD9B9DABC9EFBF9CFFC8DCDCDAFAFFFFBBDDDFCADCBC9CDAF8BCDBC7A7ABA9D88
col47:   DC98ACD79EE97B6D8E78CEBAEDCCEFEFEDC8BFBFAB9ABBCECBADBBCAEECEAADCB7DB9BCA7A6C947B
col48:   BA9E8AA9C7CBD78ABBB8BBCA8CDABEAFFBAFFDCCCEFBBE798FCBFCADADCDDDB9BD9BF8BB5CA8AAA8
col49:   CE98BBC8E8EFBCB9BAC9CDEDDEE9BCFAEFDFBC9DBFFFDDDF8AFCBFBBEAB9CDDBBFBABA7B9BA989B4
col50:   7A7B4CB98CAC8EEA6EADB8EBABBBBDDDBEDFBFDCDFBDCCD88E9CD8EAFC9ABC9D7C999A9A8D88B897
col51:   46963BA69B76985B689BB89A9B8857BB9968BDAB6C86A74AA6A9AB8B9B89A8BE6A9BA9661693A6A4
