ROC:	 BPix_BmI_SEC3_LYR4_LDR11F_MOD3_ROC0
col00:   75598a6878466a9999a5aac87db9c4697b56ab86ac7aec7bb7a799a68579c6193867b98988956475
col01:   7a67d88c659a9b8589aa89b98c9cdc3a9dabdf8d7b9dbac9db8f888acd5aca89798c68b9a7b5b968
col02:   3d1a69bb4798a7ad66b9c77add9aa98cbf88c4bcbba8e6b59c769c7995ecca79aa4686aa477a7b97
col03:   ab869cb78a86b8e7c899baaabd8dbea86bbbcdbc66bc98b8bd77cb8b659b5caca597abb7c5998887
col04:   7c69c67bb95e7a99b9649abaec899bbb8bae6a6caaab6aa8c998aa9da9e8778a9a9aba89aa9495a5
col05:   76755b7998ba899aa86cadb7d6bd99bbbabc9b9bb97a787bb7d6ac857fb7c98db69b9dca997777b6
col06:   67aea89ca879c8bccd89bdb47bccc6ccddba99ffbaa97a95bcabe896ba8bac9b7cbad656885979bb
col07:   566cd9c9ca9bf4adb979bb7eb9888b8a9ba7fbce7a89b6dabd8cba6cb7699766a8c9989967988996
col08:   8a97c665a67979aeba7b97d98c9ac9bb85caaa79b7acba8b5a98bdbaa979c8dc9779858a8976bb69
col09:   a9cb56d7a9ba7aaa7d799ca9e6bbdbe7cacdcaf9b7bc8bfaa979acac777593886bb686b7d878b983
col10:   88a97a6b9abb59aa9b8f88db9bd9b49dacb87996cbccb5ccac98b9a9869cfc967bc75c4788498be6
col11:   977c998a7cbab9a7885aabdb79cbc7becba7bb969c97f88a8c8bba76c8bbaa668b98d57c97ba9973
col12:   a688ae96978b9bb899977caab7b6fb9eaeccbb9b789aaaaabcba8baadb9b55896a8aab9ac888b798
col13:   66fa295a998ad69a79cc99dabbc99ba8ac98eb9acaacda9dbacba9a7bd8ab6cbacac7ab78999a66a
col14:   66b989ba9aea68a5c4e8a97b5b7ab5e998fccaa9c97ea69b78ba79c8769ea95cba78ab6678a95798
col15:   8a9767aa678c9badb69dd46bb96bbaaeb9aa9ccaacaba9ad58b96b98dc9a668ca698787f8797647b
col16:   9ae8babab69a9aa9ad7ac97fbb9ccaca99aacdc78ecdaaed6a7aa9b999c9d9c87788a9a977899d95
col17:   88995489b977d988889779ad89a99869896de6a9a9bbb9ad899b4ab99c7a858598aa3caa89288998
col18:   5b5b56a8ac8a4c9b987a8b9598c9aaaca4cebb9be6c8e7bc788bcd8e89a59bdc888b76abc8996bc7
col19:   d484d9c94caaab9b5c578bb9b997a9ac7bc8d7c7cc9d5aac89c788ba2afb8b8bb7aa6aa89bab8aa3
col20:   67c976787b87bb786c1b99b497c9e579cb9879b7c599799eaeccbcac87b88dbec889dba9a5987b4a
col21:   6aa9bc97dacaab9d36b6987597db6cbacc8bbbac8ea84d8b88bb59c8aa7ca9c98595c98ba8b9a3ad
col22:   c8a8a778593958958a9b8cbde8bbc8ba5aeadbc7ab9ad7d788bd9cc779b685b5658aa88b7b3999ba
col23:   7ac6489846a8966b946764c9dfc5cb5bccbb7cb9a7b7bb396b69aaca97bb96977a9893b9d9ab98c4
col24:   58f9d98988baf99a9add9a78b8ceaad787bbdbcac7ddd5b9aa67bc8ac28b29c88abaab95fa636c9a
col25:   7aa96a9a87baa9b9aca78ba89d9bdbaed8bb76bc6bbaaa78cc97acd899946ba4dcb9caca7aa5abb9
col26:   9d7dcb7ea8cac94de8caea8e9d8f9fabccabe97bedadbeabebabccc7aee9d8bb8c7b97a78c87dbd8
col27:   79889997a8c789aeb9c9dc5c7bc8fbdc8bcbbb4ac98ab9d8baddcccdb8ca7dbb8a8b9aedbcfba9b7
col28:   67a48bcac9cbbac77ec9bdad8bcfdcaea9fd9df7ad8bacbabbcbbb96aa93ccc7b99d9d8d9b9a8dca
col29:   b77b79798a7bbbdf9e9bedad7addfbbafc7a6a8cadaedecbb9a7dab78aaa87fae8bbe6b9ad89aa9c
col30:   86aa4abbeabb9cc6d9bce899cab98bbacbe8b9eabdcbacbbe7b9aeacdca9889ad899b8b78aa979b6
col31:   f7ecacaca9e89ac89cbabfb99c9ddbcd8bddfccdcc9dadaca739deec8dbbb9bfa9dbc97abdbdeb95
col32:   d7be9bcdba788aadbbca8bddcdadaeefedbbebceaf98c6ecfcdcdbfbbc7fe9b7abed6cc9d9caaaa9
col33:   a96ca9baaec9dbdccb9bcafcfafbbaadcccadbbcc9b9ddbebc9bdd7ecca9b9bb999cddaba7b8ca98
col34:   9c89acb8fe76fbbdedd7aaaccb8cebdcdcaae9c8c9cadecdb999b889dacaec9dc6bacb999b9accad
col35:   cc8aab9ae9bbcb99d9debbaa8a88beb86ddda99cbbaabecec9cbe9db9adac9cb8a7aabca7cc98ff8
col36:   a79aea9bcbd9ca9adcb9acbbcd9ccbd9bdc9afbbbedbe9bcadbca9cecfcfb98b789bb8c68b9a8bc9
col37:   9cabacbcaba99d9cbf9bebeaabbcc9dbdfb9c9ccfdeccdcc78daeee89cb8adababae69c998ca85ae
col38:   da9cbdaac8dbecbbdfcccaccf9ffd99bdbedbeefdefdbcefe9eefcce8ce5ba98bfcaba8ada897bc7
col39:   bb8aa99cc9c9dddce97bb79ac7d8bbfdc8faa9cecb99dd9edfffaa85dbfba9ed8d9ea8b8c8b98855
col40:   bc69cc7bbabbbcbaadb68cd8cdefcadecacecaec9cdcdbdfdcaccaaa8dab8ceceab998da99ccbfac
col41:   f5a8e9ec669bbaabbaefb9abecbacccdabfa88fadfddbcccfeaadc9bdac6abda9abbdfdba8bbbbaa
col42:   becbdbb99dc9f9a8fabdfafcbbdc9ec99cccf9bafbcfccd6cb9cfdbdcab588faabd9979aa9deb98c
col43:   da9cddabc9a9aac9abbdcefcfadddfbcbfbcdcdafacf7efeeccb9cd89cb8bbf9f689acabe87deb9c
col44:   a99bcabbdcd9cbc9bc89eddc9ccebfcef99bcefbccebfbacb7bbc9dbdcbcbbbe67aadb7fd99a9bd8
col45:   a5cdfa9a89aeab7dedb8bfabecbe7bbbabcbbdc9aa9e97abcbbc6afacecddbdca5dacad9b8d7bb96
col46:   b798aa7abab6aacdcecafc6bb9bdfa9afdbadbadabaecafdcbbeada9b9ed8a9a7b9dadcbda65b9e7
col47:   db9d99ece9bc86bcdbccb87ceddefaeddaebcbecca99b7abcab8ccaa9bcbacacaad7abadcc99ba86
col48:   8c8a9b778b9a6bcd88ecbb9a9ddbaa79cdbcc9c8dd9cc998b7e8b9e84aadad78a8ebdabe99dbab8a
col49:   9bbb8de6cab8b9ea9b78daebdadeeabed7ebcf8adddcbf8ca8babcada898e9bed779bbbb999ad599
col50:   9699aabea7cb8bdce9aabde58fbca8ccedeaaeaabbebd9f68c7ab8c9bcdbedca9bd3dca9b7acad99
col51:   ca66bba9aadcea898a8576f58b66dab6b9c388b9babba9aaa758aa66a56a92aa695e8563879686b5
ROC:	 BPix_BmI_SEC3_LYR4_LDR11F_MOD3_ROC1
col00:   73457a37675271657644ad96215686a49c37448484959aa9a9525568ca8866759a7965779586a985
col01:   a587867882759883ab7877b5bd8937897a7bbbaa6979b7cb478888ae7c7c998ba786c7a8d4b9595c
col02:   589563b856a1a5c5799558226658999c7a8b769879b48a98969a77b99c96c5897c65966786a8b9a2
col03:   c8b8523757c8d69aca84898a898779a6baaa8b93a9bc77ac75787a88b865a85837d8aabd79ada787
col04:   a88a68866c8678667a97a86c87abab59dc88f6c9da9c9b5964a9885b8689db49c87a78898478deb3
col05:   733a866647ab58a587baa8578d2c5ba9759986bcd959787975aa5795d8958bc73cdaa58b8dc9c855
col06:   9d7676645ada6b7768899e9dbc36c9a5b768697bbee8cd5d7b597966988a8d7b8843aa4ca65a88a6
col07:   45475859585796979264b899bc6956899f98a998c78bbaab89bb69a69ba58679969a86977fca8575
col08:   aa783a83475aa4916179a9bb99955a986b88dd7a98b7b889a8ce7b66dcbb47ba863a79c4aa987596
col09:   56667a66668b9a689a8b79b9a974a9ac95ca5678e77ca96a3a9a3669c999d875aaba6b79c5afa687
col10:   59264754677b786a6a959b67988aa9a9a8fd7999a59cb9897b798dbb4da38b787d96897969a9fc79
col11:   d44a263596679aa9a65b6b78b5a36bb9853cbb5ac7c98ab8989b9ab637d8b7a9634a4b8729887263
col12:   634966b5aa5244a6679798b69bcab76879c595799a5888aa6ac88b77c9b8675d9bcb8a88c67a993a
col13:   95a4b865b779969679ecba87b8d88a979bba467b7aaa8ae8d7c9ba8b9b964a34aac97b82d8c779b6
col14:   58885b6c77389a3b589a7b486a667689ab79eb8bacbd868865d98cf886a9b99bb8878696b783bbbb
col15:   9586979d894a866998f97f9a978669e95599be9977d769e97ba4879bf66198798b6a846869659649
col16:   3b591486869957789ca378c898779a97aca8a795847748b7a98aabba9596862378c7c26d398799c8
col17:   631955aa75597a3d885688bb988956997aa77666585a6b5782b684bc7768ab779963996a65d5c8b8
col18:   9333a4868a99c339b9398dc8b96899ae8588bb8c77ca3b99babaccd9986cc646b7b7a875777a8777
col19:   541659a775867a99aa59b6b978b76398b9ae95b8aaa8e96e1796b7abb39766ce95c4557bb736bd18
col20:   7814b73778398798a78458795c99568cab8a967568c97977838cb9a765a64abca6696761d3589438
col21:   9523b467774576b5b7a5a78b957468a59dbc8bc8cd968dcad95ba79b7a88a7b79a9593aa3754c895
col22:   49725667c88a94878b8a33398867abaae7abaa9c95d689a8899d7978a8d7779c7b98bca8299d9779
col23:   744556796a5a8a858b99d5ba4ba853b6a947d8d7789588ab7cb99678ba995d6a9b698c579ac72925
col24:   45616a7a6867b59976a8638b7c8a94b7baba9ac8c87cdc7899669d77cc986b79bb569c5c78568933
col25:   7756656777cc64dadaaa8cba737aa79becc887ad5aba9898e856ca66896e59ba6a9b68a4c7778c54
col26:   79a899ab95bd37aa5fc79c8b94a8bbaef89abacbb3adac9babca9976998bc8ddcc9aa79bab9d9997
col27:   794d77998b988bb987a989bccaff8d9fcc29ac76da8a6ab954aec9aca7778a8aa55aa86cac78bcfa
col28:   588ca878b84b9cb58a7d9ccbdaabc8f5b784dc5bced9bcca9eb8fcaaaa88eed6bad9cb59cb4aa95c
col29:   b86bbc7a9aac9b9bb9dbbb7f6b5cdcc8eb8adddbcbdccbacda99cba9aacbbda5a976c79d9b7797c2
col30:   5b97a77c89c8a9a9873ad8b98afadab2ccbe9cc56e8addaaa7f87aaf7ec59ac968b7c9d92989ad5d
col31:   84845c77b8aaf98ad8e7ba8bacafaed8ec7d88cbcccbbbafd9cea86ca989d9e89978abcfad9eaa8b
col32:   4747cac5c9344b9aab7cb8aeab7e9bb9fd9aab8edbebeddaae56aebbb99b986d4abbb8cbacacba64
col33:   688977977b88aaeb8dbabc8beadafbdccaddda7deda98aadac787ad7e83d99e7cbab9bc6db8a79a9
col34:   5979768b77bd4a57a98fd8dab9b8cab98bbbe4bc99ccc9b7b7addcdfbda9b9dac68b97ab9b979777
col35:   577196cd9bba74ab9c9c9ccbec79cae93bc999dbbbc9d79debd9bdcab8aeecc9ba8b9b8b96ca98b9
col36:   8a6bc3768bbec683bb9bb8c9ab5bacabcbdffacbc65dd88a5d89fdadadbba8ce8f6cabbbb8bcab7a
col37:   95aa7b8c8688afbc9aad85faabbce9ba6daaa5d8ca9ea8efceb7cccab7f699a75a589dbab879aad8
col38:   796947c7bdb99a69988dbc97dbdabdfbc8eeb69ebdfd76a9bcc6daa7ecc9d5cccf5aa8aaa8cb6aeb
col39:   795b8bd794ba722989897eacb9bdcaacb7e8b8c9fc9dfacbbccec59c96dbb97d8a65ac797b8e6a8c
col40:   887a67a9888afc6d67afcbbccbabcfc9ddde9779c9bdcf8a9c8cbfa9877bd78c6eb88d7dc7bfceba
col41:   7a97a99969bcb9ebaba687e9ba6bf9f9efecaaa9d9db9bdbfabcbb7cbdc9b97cabfaadc5db8aeeaa
col42:   87689a65ac8c685cbea58abbf89beecfebdc989a789edbd8adacabacf9babab9c89a5dc9acb999aa
col43:   a739bc4b839bae6a7dcdeebcabeccdd788eddbfaa9dcbba79896bcadbedebba77d777ea8a9db97bd
col44:   a5677a95a6997a9c8799dcabca9adca9fcccb9fe89a3dab8e789adfdae89cbbbb76db9eacad9fb87
col45:   b786ab3c99e7ab7869dadac8d89a898adff89ce7adaacacc9ddd89ad9db9be9adba98b8d6ba7cbdc
col46:   7b48d69b5e999ddc989d7bcab7bccccbd975dde8a9c4b9b4d6bbbccac986bf7fafeac7aa4ddacca8
col47:   63a93a96cc9a95988ab7acca9cbb89eccb8abc98fba7bbcab9dfebbac6ab9bb79eb9e89a6ff79ad8
col48:   d9a75a7acb456ab8eaec6ab6899ac98cd85bdabea79fcdb9bda87ab6b7cfcdafba7a9b87b8aa9ba9
col49:   37a574c6aacabce78d9aabbaab7be8fbccacc9aebc9acc99bbdfdbfb9a99966ceab9c8d9cdde9798
col50:   8aa87a5aaaa9a58adbba9c9ad8b9dabeaada8b8cc7b6edaca4cca9dbcfd9b79bfaac97c8ac89c7d8
col51:   5732a45765b68a8966d96956856b4ca6f4a9c56448ca96e7b6e85a45b9a8d2ab78a87b2668939787
ROC:	 BPix_BmI_SEC3_LYR4_LDR11F_MOD3_ROC2
col00:   6797846189c7776965859b879b2b79a97897a9aa97abe9e898a9dadcb779e57bc9a7bd7a7587888a
col01:   4d9949396b9878977aabab8b379979abcedb7aabf8baecda8b8bbcaa9d88aebd99bc9c9c4c7aba65
col02:   59668896778785444427a949a5dc7d8ab9abbb699a899cbcddbdbcbd87abb9abaa9c79789ba9b899
col03:   93686c979787697479978addb39768e8689b5dc8bababde8bc9cdaedadb7c7cc9c7cc8b9a7b78c99
col04:   56a25587a89977a698969a97665ca597ab66a9b5cbca77aacacaabbcd6dc88bf67a8a89ab777da89
col05:   a857a8b797a4aa4a3b999a84785bac98c96cc9cbaa8cbca8b8ccbbad8faa899aeba97f7b87349a96
col06:   a686946ccb497ab3a3859588668a958a888f8accabbecc9cc89bb9db8a88fdb8c965a5bc996b67a9
col07:   72b7c738b589978ba378779c7d88a846b99b876b9cbf88dd87be9b9aba577d978bb799ad67b89bbc
col08:   8264779aa69569876a86d8a786baa76bdb877e8d77a8c8da7759e9bdb99cc594a9abb987e8986bb5
col09:   2a6c865a84788a98898995d588c994889ba8a99bae4c9bbefa84fc8a7bbadfcbabf6abba5bcb89a8
col10:   7576a778a6898cb7846b6b7aa78acba9b6ca96887bc5bd9bb97a9cbd9aa9a99bcba3d898569b88aa
col11:   5529868889773a549756845799785c864c8ba9aaacb99bc7ac7a9b97a9874799ac8693987adc7c99
col12:   714ab47599a17995a976748aaa889a9b9968ab7698ac289b659accb98974ac8d659e98f97c98b795
col13:   6871826959b76a8ba7b417a9b6669979a7af98ccaa89c6a978acc99afc9a9695a9a5ac77bd685aaa
col14:   848646658993394856899a96ab797a49b7ab8ca7ab7b9a9aca8878cd9d968626ca76aa5863e5d868
col15:   8166a88c95668866a97aba588899a6b9ac5cf79c7ca9a9c5ac59889a6bcdb9e986b287899979aae9
col16:   1a99a86888a868da8a697db48a96887ac8a899abb99a4bb7ba559b9cfeab88eba8a8868ab54aca76
col17:   6d5638787885448678b8579a78a996abd9aa559439bbbaa976de898b87aaa9a65a9b99bb799899ca
col18:   688a7557954b859d9288b8b78996aa858b967a9bcdb7ba85ab86cd88a8a7a998b965b8a6b39bc689
col19:   668a497579665989976828977779888686ab498797498cd87998b9989688998a66a6666bb8a6a355
col20:   a6587c4769972b688a3988b87b7688987e787796c88da98aa85a987aa6a9bae76599b8774ca789c9
col21:   683aa655a57798b98aca86b989bab89bbd96c7a987569aab87cb89e76aaa87d8bea9b8d9ab9a66b7
col22:   97557b78b88aa999747ac6b378a4abb8a9699be6a79ac8b9cb77d98aba98c9b9a756996de8bc9868
col23:   6898839985487ba686ba759978a886aa5bf697a7b7c799b5c88a69b38b8ab987988a888c89557653
col24:   49684b78b95a377577c68978a588a98877b5a9485c7dd48a569a77b6559c58a9b8a6778586169b67
col25:   24727774b879476475597a7ba878ba9caa98ccb98998b798489bb585babc8b99987bb8b5e897b869
col26:   a65da87b879b5b87aab44c96ac9ba9da8988babc9d88c59eb9a6cda6688bae7cba787aaac8ae9ab8
col27:   778ac6877d7a68ea5cac7a68cc7a9adbbb96dabc88ca9889cabbfbbca9c9bcaccea9aacc77ca4cb7
col28:   479758b686596b9a8ba5553a8c7db68a79887abad6a987e8cda796c8babd98db79b8bb9998b5cba9
col29:   848998abc8989c8ca578ad7d7cc9d8b9b8daa8fbce97ad99c9cc7daea9b9bbaaa89cdcc4c9bdf785
col30:   b8779aa7a8c897bca987dbb7ac7a97d89acd8bbbac4ca7ecb9c9cac988b9df9d7ba8b78bea6ba8c6
col31:   9789599797acda76de986a8a657b99a8c7ab879caccfddad7598989bdbadaa98be9bbd88ddaac984
col32:   565b777a897789a9e8c6c9998bedcadcd9affd9f9caa97c9bc989baba7b9f7d7c9cb6bd9b9469bba
col33:   a63c68a958c785d5caa5dcfcba9ac7adcb8ba97a9a8aabbeeebdd7ab6b97dc9facabac7aabd8b848
col34:   7969aa58b7a8b875b9a9acea9884b7797dfa7b75badcc8c5eacaeba9bbccb88ab98e9bdda7e7e9ac
col35:   ab78767749ed767ada84aba7acae7b7bbfd7ecfccddabbe9ecb8bbaeae8ccbf88ac5cb7cb89faaa4
col36:   aa99abaa7c8889ca7bd5a9cbbbdbb9ad7d9ae995ecfba7bcddafdeb8aecb9e6da9d9bfe5d79899b6
col37:   98a9695d5b66c8a6b66badbee7cbc75fcdafacacb6cbffeaebdb9bbdcc9abb678cdde9c96bb98e99
col38:   668a885679d9cafaacac79c9edbc6b9bbd8baaccddbd9b78ab788a8a9e999a8c9cb968addcbfdebb
col39:   b7743ddaa7c7cdba7b6abb9ab7adbeec5acbdcbeeefeccea8e99bdd989ca9ccab96b9ecb8dca999b
col40:   8959b8d8bcdcbb39a8a99d9a9abba99daabbebcaeadaadfa9aecadbbc6dbbba79a6db787dabae896
col41:   775a7cb3c67ab98c69cb7fbba5fccbebceed9ea9bccc97e988f9486ff9cccabacb9bbad6aeabfbd8
col42:   6895d87a996db99c9ec9baaa7abcd8d6bcdbc8987a7edacc99acd8afb69db7cb8cf99b9b4ec9a65c
col43:   ac6b8b89aa9aa88ddac8cc7bcaa8b8b6dce8baaabda8fcd6ca78cac9fbbaebbb5c79abfbca98abbb
col44:   a79b8ba8b8d7bca99ba6cab8dcaa76d9bbac9cfacbb9e9cad88c9b9ce6ebcccc9dca9bc8ed89ab95
col45:   ebc6bc6cbb99bbabbaba7a9aa9c84f9aebcbcaabacaaedd9688aac9ea98bcd7978c9bccbecfc8aa7
col46:   c5989d757ac7ccd99c9ab896bfa9b9ddcba9a598a8dcb9bd98c9f8776aeb89ba68ba9bb9c998bacb
col47:   a873b9bb99eaaa9a8aaaa99aaa7bbacdbfd89bbcc9ecbb98cec778b9bfff9acb98d98aea9aacfab8
col48:   7b7695975c8b8499aca9b99a95a8a84bace77a8ab6ca65bb88cd97becaff79aa9a887ae77ca8a6d9
col49:   b8d8a769a9b6ae77cd8a8b9bbb6ba7fcb8cbaedab5a8b7cf58dbe996bdfaca685fc88898e74ab877
col50:   98aa7bcba99b46b797a9ca1d8a7bdfab7bbfcab8bdb798aa89a85956bdcaa6f5979bd7b8dca79cd8
col51:   9888a986897aa897a84597b88ca894a86ac5a6ccd99d7a787b96aa2978779787a66c4797879a8788
ROC:	 BPix_BmI_SEC3_LYR4_LDR11F_MOD3_ROC3
col00:   3645855a5586647589aa6ae7b95899a97cb85686697ba9c9a398bb66ba9baabc7987babaca949b9d
col01:   4a574a947864768ae89798eb9cb9678addf88ba87989baa79887be958bebdfaacbc79aaac9fe8ca7
col02:   555c76692659479a9995a887b9686a8d8aa86ccbacc6aeab8cbfbcbbc7a78c97acdbd7c8f8a88a9c
col03:   64956646793958649979cbad98abca48ba97c99ba896adcddabc87cbf9a7cccbbaa57a9bc8978df6
col04:   8795ba97a966b578878a99789bcabc9baa9779beb9cb9dccaae9b9c86da7f98a6b7a79d9f7678ace
col05:   a599947364275ac369c78aaaa779b8da879a7ec9e96ba8a6dcccd9b4a888dbebc9bb7bb9a8bbaacb
col06:   9a6a875ba7b9685b6553b959bbb889d7ac998cbcc9adad8abefa96b97ed8eb889c9b99fc9c78cb8b
col07:   6647969a86b68a58639799ddcbceaaabcc7d9a6caad9cc9d7dbabcac8d99a8bcad9fb89c7ecdbfa8
col08:   84a77683957888aa496a87768aa9a7aa6a79d6bab97becba6bd9bcbbbb8864fb896cdb99becbbdd9
col09:   69286955796737859c7759a797859b9abcc9b74dd97886cbbabd89779cdbb9cad8fc69bc8dbdb96b
col10:   586731478ab389b68bb59d9c7555a69b758d97dadc9a79dc8cadb7a9cbca8bb9c8bbaa9e8dbc9968
col11:   8675556a62848c6b986d6b8a9bba37c66888a7cc588cbc6bbcbc69cbaa8caba6a88ba9b889da9ec7
col12:   88888669767869295d647766cb7898b8d9c66b8bbab7daab999a9d8aa998ca8aaa888dc6c999a9b8
col13:   7687498678a53773d4aa78774aab9786ba8a8caa65caf7ad9a7baaac59a98bbadbaca9aa9bbccfcb
col14:   14475a6943747b589689958b4c7ba96cebdc9e9baa5a99bb87baba49a7d9a8ed989bbd8decb98db5
col15:   778898ab46b557444a8486b75b98a9bba8789aa98ac79acaaf9a8888869babaab4cdbcb9a89c7ac6
col16:   d5298c556575574d733ac4b67c54b98678b8b8dc9dcdb98c9a8db7add7ab69bcbabb896aea8da99b
col17:   83138895b853b748879a87584a9a8779a8c9c8998b6b8aaa475a9cb999c6cd89a869a6cb9957a575
col18:   9455bb9b64685898969b8678a8caa877986b69a7b9a49c9bb9779ea9e999b7b89b89ebda8cfabad9
col19:   579577788559686577a36a9677a56556876b7b687aa88bbc7ddbbbb7bdc8cdb67bea77cbfdb6de9c
col20:   465c8778a659a4953c6a6748d7b7b947b96a79acaa8bb898b8abd8aac9aad9b8a86d6daa7c8c9dba
col21:   6798775986949834a9567a74bae9cae6997b8a76b9b49988aa4c999bcacc6bdaadba789b9dfbd8b7
col22:   89b59655ab958a4ba76958956a7f9cdba8a9c87868aabeba58bbac8abaab99f959fc9abcbd88bad9
col23:   3785a89883619737559b49a8ac88b49a7789947cccb7979bd97bc67cb7cb9abb79c8a8ab9a79ac99
col24:   b7a188a867774b757856899ba2acba8bab9ab9b7797c8ba969adcdcdb7db9c39ada8dabd9c8a8c6a
col25:   686528868a5a8875a96c987587774a978c79ca8899ccd6899bc8bb9ce896bcbad99bcc8bbe86accb
col26:   8b6687ba76b6878b8b75a9f78ca8abbbe7b8cbcccb8cdb7bc778bbfbcb9aeceb7dbbc9c8acaba97a
col27:   79a68b8a967788ab4a896e8aacf9cd7ac978bb97be66c87ac9acac89ad998bccec9ba9fabc8cb69b
col28:   ab39b989aa8899a9a9cca9bcbb979b8da9d88c8bb9a9bb989f9b9b8cba7bfcfccaf9bacbddfcea87
col29:   784848bcbb87da8a9676988baaabb79de68995a9bbda8da998b8a8d9bcad98c6d97bb88baab98fb9
col30:   84b899969cd79b877b9988dbea7ea8c9bb9989c8fc9a9b99eadea99be6ab8bc79fbb4b9bcab8cbc8
col31:   a598c878ba77b68a9ba7c8bacb98c99ce9e8da98bdbd8d89b99fe8a9facada9cdafd6bc6a9e96aa9
col32:   8748475d9b99ac799d8b8c898a9ccb978968bddbd8cae7cd9ccbbddb9bb6d5cb9d8ebfbeccadca9e
col33:   9c55ab8b6a68c99bac99dbe8c9dcacbceaca9dfc99ddc8ac5f9b7acbadbebcbf6b7bea8afabaadfb
col34:   85698b6abd8b8a6cb8b999db9bdecbbda9fedccd8c9cbebcd9cfbcdfabddedf7ca9bacdcca8bbbdb
col35:   969c978b958878daa9cac66dbc9fbdbdcaaebe9ddfbba8cbdb59bfb8fccbbab9ba99b9eebeaddd89
col36:   a8899a8ba7bcdaebebb98acd7776bb7baadb9d9dcdbc5dc88afbdd9a8bacb6abcaba9accdf9aca99
col37:   99abac8b8aa7d96afccbb9cb5c8cd9d9cbd9bd6ada8cbfed87bcb67cedaededcacaecdabba9b7bfc
col38:   8ba6eb8a9ec77bbadccb9deaccbbaafdcbfbb9c8bdbaab9abd9cecaeecbee9dfadd9abccccbbce9f
col39:   ab988a8997cda799c8ddebdccb8ac98dd7bcbced77a9dacadd7bb9b8bcd6abc799cbe9be8cea9b99
col40:   668796ecbecbd77a7aabbdcb9dceadbcab9caebccccbac8d9bcdb8ca6ffcb8ebc9d9bdca9e9afcdb
col41:   aa5899de5b9bd6ac8ccdb8a8aba8bbbadaddbabbb6ca9cbbd7c9ebcc8ecfbabe87baac789abfddb9
col42:   87b88a8878ca95aa7efd9beaa969e7cccbfccddebdba7addefccacae98fe9ceacb8c8cb4abaf9fcf
col43:   a86b997899999c7bcebbb87c9aa9b8dbcfca9c99fdc9aceabd9deabaaa8fcc9ecb9a9cccbb9baebe
col44:   6798789b85a8389acba7fab9ceb8dfd9ecd8cabb7adde9aed9decb8eaedc99bcbccdbb8ad8b6ddd9
col45:   6a7ab79a79fdfbb98babec6bada79dcbbbcedd9ddced8bb9cdeaccfd99cdacebc9ad8ca8cb99bbea
col46:   8877b77ca7ab6ac7a6aaadc58c9bbfaaacf9bd7ccabbaeaaa8cfbfbb8badebdababa6edcdc6cfb9d
col47:   88778aea8b8d87a97ac7c8becdc8ab9bbc9dcccbbbbbcd8b9d9bdefcbfdbacbaddb799cdddbaa9d9
col48:   cd788979bb99dabbbc988cad7acddba8fa9bcacbcef7eacaccdadabfbec8ebe4eddebeb8bbccad98
col49:   ab8da95abfb9ab69aabeabbca8daca8b9dab9ccbad6bcfdb8adecdbacb8a67a9b8daccaabbe997f8
col50:   89b8ac6abbaad8a7badfa9cb8cdb6cc9a7cbb9cfbaa9ffdbc8dccb9fdddcbfcac99ffafafdf7bb9a
col51:   6955577697b766ac4d588ac9da898bc977e6b6a7d8b8ace77abec9c9cbb899ab78b966ababbab689
ROC:	 BPix_BmI_SEC3_LYR4_LDR11F_MOD3_ROC4
col00:   95a9ca5776bc88388d9346b589b77b99888bb768cab48d7ab8838292595975542977885593677997
col01:   8faa59686aa97869a7c879997be87ce89d57fbab47498aa979ab8d79a687a96879b9699c28a9868a
col02:   cc658a6a8abca97896bb9d989696899adaa9ba64bc8dc8ab8b5a76c8aa87b8c8878bc588c77777d8
col03:   87889cb9cb9e7abcc66ccfb957a5b9dcc58bdb4d79878c9cb76b5976a5bba6aad7a9b6b7886699c4
col04:   9aa89a799aa879bbca9ca7ad65ebebbdca9c6b79d8a4cb2b4578b3ca67debadb57b379a89da2bd97
col05:   9b998887a7ab73b7a9888c54bb8977ad7adbbaa86c82c9c89cbbe8ac98a6bc69794a89a9c869a887
col06:   977daca89caccbe999bcc78cba96d9cabd88878dbd7ba86dec656b8fc9598b69ba83a888d8d87bf8
col07:   b47b69aaa97ababb978faa7aa979c69ab75ebbbd7bd997aa6a9aa7d9ab6bc9aa878ec967b97998c5
col08:   a9a99ba7ab8786d67959e897a9b6a7dada9aa7b9aa7aa8dda9c8975e9a9c9875ac9c8c89988acb74
col09:   b379c9aaa9963998ad6bccc77aba598d599fa7aa9aa9cb99cb9fe7c9d69aab78b9caa9b4f9c797a8
col10:   89bab5a569ab875cc879bdcaaa97ed6dba8bb8ac97cbbdbcae7d89875679ab59486aaa7668cb6894
col11:   68b786bc899bb4b95986794bf7aca7aa856abaa7bb85b6588ccb797d778b9bba939ca77bbc79c95d
col12:   a79aa6995b698c489daa57857a78fa6acda9aaab9799e8aac6aaecad98aa9658767b6a84b898bb98
col13:   8b7ac83adbc9699aaa89d8c8faae9fbaccd9c9c9b9b9d488b86bad7c856ddc9978ad79e9c789cab6
col14:   aa985885a6c8c8bbbbd6cc984bb9cb788babca9bba7e7ca5c8a98a8ba899cd98e9ac986a4e6ab8c9
col15:   b98bc59993b8b48ac7cab9d97a98aa79859aeb86799b6a9ab98e9b668a96b4b9acd8b7db7895bbc9
col16:   868789ae7c9a58baa9bbabd5ba7e4ccaa889cd9bbada8cc95888d767eb6b9ba998848b6a87bd9b79
col17:   5b7a67977999a867ccc9d7ba6c9d86cc7abac78af854bc86ed78789ae5a787caa9a7aa8814b79a48
col18:   67b6a97c9bba9ac86ac8c8bba898b78aa68a8978a88fba47cd4996c887cd86987a9cb8996887a8c7
col19:   cb5bca8bceb7faba6977b76a89b88fba89e7cda897ca8569ea77daea8bcc9d98a84a788999a9996b
col20:   7d79b996aa1c7a9b8ccebf8dcc989a49bad7cbadb99aac6cafebaabd7b983b5647bba885d8769587
col21:   9a98a9ac9bf7a7a9c7a8c7cbb9999adeab7a87bcee8ba6dba9f7d8bbcab878b4a9cbaab88b9a6b93
col22:   49475ba988886b87aca86b8aae9c8dbb9ca5bb988daea7cbd8a5efabaaab6b86475968a7998898a9
col23:   53337948b68798498b8d98a7da9a8be8ab678b9b7887b7ca996799eb9bca9ca8cb86a7a987aa5872
col24:   a5688797a899b9ea9a66acb5fba7aacc9b6e99b99b9c88ac98ac9ecaaaeb9a7d8d6cda1993a6ccdb
col25:   8c3aaad99699669ab47599a98cda89c8abe98b98b97de7cdbdbadc7cdb9bc97749a969a9c7fa989f
col26:   ba69ca6bd89dd9e7bbabdcec9668f8fd8deac96bb7da858bfe98bcafadd885cb8fbcd7aca86d8999
col27:   8bdbb8b98bc79aa8c986dd9aabddcaa9dde8dca9cebddbc9aadbbdfbaaba8ab96acddaf898d79cbb
col28:   95b799c8abb88dabdd99b9edbebabd9de97ef9fbcddacb99dba8aaceccbcca97b8cfbec9bdcbcbc9
col29:   a6b999fd8acb9bbeabba9cbaf9bcfa9cafdb77e78d9ccb86aab889ccd7dbfabb7a799dca9aaab9a4
col30:   bd9bfacfd796eba87a7a8d8dcdddd9ad9c9daaaad7ca9f898defdcb8f5cad99b8fbb8cbca9f8aaa8
col31:   bab9eab777bda99e887dc9c7adcbabd9abba789ebfa8dedcb8b9abcaf5e7bbbdba9bcadabb6d9967
col32:   9bb9cb98b7c9cbbbcecfbdabf9acebabea9cdb88dadccc86dd8cbc7be8b9dbabeac8e99bbea6868b
col33:   99e7788bceacd9d9ccbcccfcdecafb89d7ee99aceb8ac9fbc89aabb49c8acbcc797b9d8ecd89b9e7
col34:   e7bdd8ab89a9bf9c8cabc8eddddebaa7aed99deaa2c6dcca9addaf9c8fefa7dea69aa79cbacd98ba
col35:   b999ddd8899c98ff9afc9efcc89dbdefcbcd6ddffdada9cc9cc9cfce6a8f8dcbacd6cbba8a9dd79c
col36:   ca59c9b9fbcb9fcaa9eacc993bc79effcbdaafcab95fa7ceccaefeddbcbe988faaefeddbba99bcaa
col37:   9b49b9caaaefacad999becdeabacddf8cbf8d9adbadddcabbe79fdacae87bcb7facdaba7dcaacacc
col38:   b6abdc9ac8ebb9ba8ac9db9cacbfaacbd99bb8dedaf9bbd68daec9fbecb9ffcab9cccaf77bb69b9a
col39:   cb8adcb8b5acdb8bedadc9acfbccbccbceae7dabcf8cbbaceb8ae7dddecb97cadac79bdb96b96da8
col40:   bab9ab95bfebebb8bbbabbadc9bfc8accefbbcecbfcebcaab9ccc6ddddeacda9cbcebcb99a6a9ac7
col41:   adab99c7fcce7cb9a9cdba8ba9da9f9daacbfadd9ad9eddecfc8e8c9deae9cd88bbae677ccb779cc
col42:   9ad7fecc69bcbd9ba99bcff89ed79cbcdcbdabccbbdbfceaffff7caaa9cbabbaeeadbdabaed7c8e8
col43:   aaac9d87bdc9ccfdcbae99bffee7b7b9cdf8d7ea89fdb68aedebfbdafcc8dbd8adcee7f98b7aa9da
col44:   b9a9caffbcba9ab69e9ddcdddcadd99bc9a7cbdbfc9d9ac9aeabc9acedbfe8ad9aedbaddbccb9cda
col45:   59aea9cef9955c9aecc9afa9cb8efd7cbedf7abc9cacbfef6bacc9dcdb79cef99cbfa99be8bb76c9
col46:   89988caadab9d77eca99f9d8d88cfcabcec898bdcaca8aaeaebcacfccdce8cedbcad5b9c8bbccc9c
col47:   bcafeabac9c8fcaceefdfcec8ebcab9beff8cbc9aac9dcf98efedead7babecc9b888cccbdc96b4bd
col48:   df9bc8b8d8bdb9cabbc9bdd9a8ddbfcdabdfdbecd85efad8da78889caabba9ac7a8c96c86c8abb86
col49:   aa78cbbcc9989fb8cba88f9dfbfdbdadb9e9badbe9cecfdffdde9ccbbecc83bda888aae9bafdb989
col50:   9c9bfdc9cd7be8fbf5cfcfdcfe7fab8e7abfbd99bc9debbbd7b9bcbc6cfc9bac978daab8acbacbc4
col51:   ab9abad885b5c4989b999ab4995a8abb97c7ac7968c8985ce6ab999697d8985794765578aa89ab87
ROC:	 BPix_BmI_SEC3_LYR4_LDR11F_MOD3_ROC5
col00:   68e7691c9a8938ba286bd899485a7bb6b6bc58aa558ad674c7552255e4a8c77a37774c7764466666
col01:   ebae89ee9bcc79b87cbb6fabd4e898cab96bd68ac98bb8b979989c79a99add8d378bdaa77567a484
col02:   7c6da98aa999438aaa6abb9359a8a9af7d5fc68c97fac85d9c899cba887b996ab99a57aa97667868
col03:   9c8bc8aea694e8ec8db897ce89cb79cac8a9bca98a3b87a8bfda99a9fa795a998689a45b98d89647
col04:   6b797b4bb56cf9d79999d9b98f577cc8ac8caa9a9ec47aca6e878b6ab9946777ad7768c8595578b8
col05:   aaa898898b6b7a89aa9998a85aa5abadbbc9ab9b7685b7cc4f77ac9727699a67783698cd9a4a6ab9
col06:   87d79bc7d849b9c86c8ca8ba9eab9adeaac7c7879d789b87965da68bda6cfa6bb7889c5dc55b947a
col07:   99b8ad8a59a688fa7bda6b9cd9c4bca7ad7e9a89bed9ca8996a6aa79ada99d978556689aa9877b66
col08:   ca48baa878cc9a9ca9bd99869bcbad8c889bac7db2dc69a47a55b96bb3d9486baab566da542b7d8b
col09:   d979a8dd9bca85aad779abcecd7a99abcacdcbbdb889a6aa887da6d3a3b544a78b5568ab9d759a6a
col10:   ac99fbc86b69c7d9cbd7d788889bfeceaa887adeac8b78a99cd7a59676ba7699e967caa36994c785
col11:   56796799aac7999a569b869bbf77e8c97d9aac7478873e5868dda59599787e7a3ac99358da8895ad
col12:   9a77d9db66b7c8daa89c99aa78d9b879cbdb5d4ac4ac877fa9966b8aac8fba8a6796883ac633a486
col13:   8aa797799599bc98ba5b96675a6498fb9bbc78bddfbc465e757fe89bb9d5c95e7ab8ce64baa38d9a
col14:   7a9b7c9ad88d9a6c65795b7bc599d9caa9bdabafa358cd99c967e59b7ad9aa9a9dcc5766ecc467a6
col15:   c9da8be8638a59ab8c7b89ecbbac5bc8caa8fcbbac95dc4984c86295a4b688aa5a7a7b9bb7be6588
col16:   ee9b86697a97aaad9c7676895a887ffa69b77e8c8857d7d8d7b98cc5767d6996caa77768e4774887
col17:   a74a6286c8b787aa9aba8e88d6bac79aaa87c6779dcfb79a8a75afafc587d99b86ace8ab6ac748a4
col18:   b98ba6b9cb99a7fc8ab8c76a97bbccaa77a867d8f6799696c9c5bab2858bc2b876a6768b67669446
col19:   e98cc28ae675c489b47be6a68a789da4c489697db85fdd59a7b5b7b892a98a9b68ac7b974999c965
col20:   55799688c7375b8abda9c896aafb4787dcadaebba9bc54d94477a96a897bbde6a36469984a239366
col21:   8ca7bba87aa8e4e5d6aebdab8ebc8bdf9b797b689c7aa9688dc868c8ec8a97a9786973a967726cdc
col22:   a9bb889d9cd8cd9aa7d9c89bd7959c9e5e77cc8d8a748aa7bba99abc9491c83768973785a4cb5979
col23:   b5c7b6b9aa97daaccb9b757cca7bc7a9ca8bbc5cb7786589baa2bb989c7c986b4755768b8ac934a3
col24:   9d7da685aa2a8c8535da9ecbb97f78dc77b9afaa77ea9679b5b79bb8b87b78849b6b773b6564a666
col25:   886b9ab6d6b5a8769a99b797c7b85bae89b87a6dd8a8c93aa9bb657777dc7d6bdc87b66f95974764
col26:   9ab8b997b89baccc89ebcc8aab9c58bac9ad9cceebc999c6999bcab79bbcb5986cdcb5cd96d948b8
col27:   669fabe5988aeaa9eedbdaaaab4bb9e98cadb9fb8b6ba8a8ab9f9aa99bbda4999a4982a958b8a688
col28:   aabbade676aa9deb6b7bcb6d9aadbbbbe7ddf88a867cccadc7fdb9b9d6b57d9c7a9d978965a48883
col29:   aa75b9bbaebb989cbfadc979ebbaf8f8cfbbfaa4baa4a7be7e5a79cd98a96aa76acc9aa9b75a94d6
col30:   b6278aaa776a9b99bca797da8ccbcfdcb99c96fd9b8ad9daa9a8ecf78b7687899e54d9b67aaabba7
col31:   aaa7ecfebba798fac4bbe6cdbcbb9debf89f8accaaba9889ababcacacaab7ea67c9cba7be8d7ecda
col32:   a98db7bbaece98aeedca9dfbccf8cafdf86eefddb86cb8d9c9ba9caabbdeeb9788689ce6bb94d549
col33:   cb69aaa94bbdde86c9dbaa8ccffddbdbb9cdcfdd5de9dcc8badd59c88ccd7c99b9bb8d77a9c8acb2
col34:   d2aafc9bcd8fcdfa96e9cbcdccb9aeaabc8edbcfdcd9e3bafdbcab9b998988678d9af9db87a4a48b
col35:   e8bea8c3adfa6cc8ff9ecdddcbdf56ddf8f8eefbd5deb7ea9adcbac9aaecdbccbdb79c6ac85d7b78
col36:   a896aad8df87c9a9db8a88ac76acceababccdaff9b5bfdeaca9dedb716d787acc6acb3a89aa99857
col37:   acabccc8c5fb9dacce9debbe9acebedbcf7befffcaddb9ddddddc868cbcdacc9b77c3bfe9abb9cb9
col38:   aaacdcbacfab98aaeabdabadc6eaead737bc8ebdcedcf8fdbcbbfcdcdee8cc98f8bac7a8ba874978
col39:   ebd95daf7bdddad98b8fab8aba6fbdacb9bea9bfcfebe9edba9dfbccacdbfcef6c776a99b5b5daa7
col40:   5dbd97dcfeda8bccacaaafdfc8aec97a9cc98ad57e9ebfccc4e9bf9ac9ea6cba7649b79e79be78ac
col41:   c686acaac6ebab9d898ee98fbbd7c9c8dba9987bfbd9baabcaa7abd57abdbfbecab489faba9a7cce
col42:   bbca9dcadca8bdacbddc9cfadad59dfcbcfcf9cccb8dadd8c6dcc8796b5a96b6c59666f9fd7cd97b
col43:   8a9ab9bcb8badaae8fb9bb8cafedbcf7d8dbdbbf998dca868df968fadd7a7afa98d87aca9fa998fb
col44:   ba88ee9ac2bf9baeccefea9bd8ee9dacbfbdde7bcbfceb9b7ef99bbcdd79f9a6c5cbad797c756cb6
col45:   879aca9dafa6acafbcecb78a8c9bbcd999bebdb79db8e8adc9b7debabad7baac2bd79999dd7acdb8
col46:   cc488b9ba99aa5addfcdca8bb4b98bca69eddbcb9a9f9a989d9d68c7ebac6c8aabdd5d78baa8a8a9
col47:   4db9cb9aadbbbec9b6dcf9bdee6e8d9efecffaf8d8cd8ea6fafa8cbaba8babea8d9a4c9ba9987ed6
col48:   a979bd9d9bccfbabc9dbd8d7ffddccc898bfeff895fad8d7cfc65d97cadbe7a8668cbcc8bd372b87
col49:   abcecc9afaafccebffde7978abe9fc9afdb7ecacdc88d8aeb9efa89ea8f6cec989f99b778ca89795
col50:   c7ccf958978babbc9d5a7e7ccf8ecababdbedbabbfc5ebcaca3d8dcbcfca8aece88aab6a7a8c9c5f
col51:   8a74e8ac8788a979b98b7c8498cc879caf8aeebd82ba6c59c869baa6c97b46795379b363659a7757
ROC:	 BPix_BmI_SEC3_LYR4_LDR11F_MOD3_ROC6
col00:   566556c7b995787d76c643679b9d99da38877aa9ca8a79d9a7a67ad789aad88787648758959968a5
col01:   c5566968799498ba8adccaac9989aac89b9e6fab97cc8a9a8b77878da9cac6c88dc8bad8988996c6
col02:   8a9965db7c68af8c78cdac9f84d8cb89aca9c9cb68aaa8a89bda6788caaad4679aa768c964b8a998
col03:   b878894b8c94899b8b96b56babaabcacab88a7ad49e986b99acacb677ce799a898d8c97e759a7c89
col04:   535869bfc969ccd988cc9b6ac9cbe659eabbcac9ced9b5b7f8c787b57789c67886b8889a898a8cb3
col05:   aa84498577b999899677c8c9ca56ea9acda9f9d9c8b6dabcd99bca8b699b87a5b9e996aab99589b6
col06:   69999769d9c586bbbfba9bdbd8d47ad7a79bc5dd87acbcdcb57897ca9bf5bcaa78b9789bbca7c4ab
col07:   79ca798aa6cca759cb988cc9799ecdcfcbc7b7d8acc568887b98ac9ca8aaa5ac78caa68eaba68585
col08:   676a789b75c7ba48b699c8bab777ba9bc98b9da9698dea6b7bbcc9bbb9b68898bb9655aa95c897c4
col09:   986cb95bbdabb9888899a9bbb58aeb7cef7dc9abf788dac69cbabb6c9cd5e5cb65ab8a86487798c7
col10:   58c685aacb6ca7d9996bbed88d7c976a8866bc6a5ba999a897b9bb7879ba7d5e9b86768aa9bb9865
col11:   8662998859aa977a9c8cb8ca6b6b57a9989877aa8cacedb7c6c5ac9c4b9bb97aa99b8c4b3646b97b
col12:   68567875ca949754acc9894a97ea9c8b77b9ccc97ab5aac9ba98a9bb93d777c868957c99876a697b
col13:   75556968acb8d96dcc84a8a696a986f7da88bd8899b4aa9b85aa99adac99aa9d9d8bb78b686567a7
col14:   a4b7699d8cba4568a7b88b6daa9c994c5bdc9cace9877e589a79a5867989797cbcc678a7abbc46ab
col15:   64beb36558cabe979ee65abb78ac9bcadb9fcb998abb8bdbe998bb9b7b86d7f79ccac598bcab75be
col16:   a7a9db69aa8aaab99c88c5969b5aa67b9bb8bb99a998b9db7a59c9ba5e79a8a7b485d88814567ba6
col17:   3a8aaa7ab98819c86987da9ac7acb899da879ca9889779a9b97b4777caaadac5787a9858b599bb79
col18:   a9588377b986e98b71a88b86859ba98caba9cb77eba7db8aab7ccb8b8a89de69c7ca959877c48a96
col19:   689a8a65b9a9a985956aa9a78a8ca989a99dabb9897ecbca98898bba768bc96b89a7c889b866bc95
col20:   3656a476873b985473949d7b56c87bbb8b8a7c79b5c8bbd98a5b7b97bee9b77a99aec75966799374
col21:   95579baa79ba57c8cd8ad996aa68aab8cb6bc59bbabab88bc6e69c6aaa98cacbdb894aaa8b647b78
col22:   736293b76968997b9abcc989caba9bbcd7bb9c97c994887b43b7b77979b7b7b9b8b94856d8b59b95
col23:   59628997757b998aacab879a9b99888dca66b9a787abbbab9cc8869aaba68b77e94869799da597a1
col24:   8493677ca7b5583c58c6a7a97a7c85b9b7acdcabbab7b4c7a39bfba9b85aba8c89a9aaa677b7994a
col25:   7838c6989cc76d56c9c8d99b8b97eb8ab8cfdff99a9bc7aaa889cbacc77689c7d9b9a9aa99af8b78
col26:   46bf8b97ba4aea8c899bdccaabccb8d9a7a5de7b6c885cdbcfbaaab8b858758cbdfdd5baba87da7a
col27:   d595a958aaacca88bdccadaadbea9edb8a96cdba67da6fa8bb6eabbbceebeebb79967a99ccc5b899
col28:   4678c8cb9da7a9abcba8b9da9bdac9ec9f6aed8be5beadd9dd9ba89aba99af7c9cb7ccfb6c69b7a9
col29:   6cd99a8ba88cdca979acdba8dacacbbe7b8a4cc86c8ceb8baba98dc66cb6c98edca8eec677baeb4a
col30:   79968c68b5d88ab89da89f8aa9cc9ccbbd8dabcb8889bdffb979c9c8a6a7fbbbdbc6b59866887a66
col31:   9fa9ab8be9a9c999bfaccebae8bad9baf8fbddbfdcafaaaddcccfb89cc87e8c8acdaddedba9edcba
col32:   ba8866ab998a9ab88eaacceb6fbbb5999cdcaebb8d7bc8ab98caaebec5ab78db9f4cc99ba999b979
col33:   cbd79bdaa9aa6bfbb9daba8eccadb9bded4ef88ace8cacbc5a8edabedb9afdab8aceaca8aefbbad6
col34:   9878c3c98eb7bae99badb6b977eebbcc68bcca9c87afbac8d9c8b9ad8aa7bae89b99da9a958ccab9
col35:   9887ecacc999bb89addf8cbccb9ebde89d9bbc7f6dedcdc4c599f9b8aecefcc6bc8bcbb5dab8a968
col36:   ab67ae99ba57cc9bbce979caaf6abeadc8b7fbacd9b9fb9879dacadabcecd8e9d8cc7cbca9d9bbd7
col37:   ab899c8acaccd7adbb9bbadccd9c9c899fbcbdd9eb87fcaac9d7eebfec9eab8789bbaa8aacc9aac9
col38:   cdab7db76cb7bcafadeba9dea9bcaeacbcbcbceeda9bc84bbbcbffdbcbbffdfaedcadb97d7b9e78c
col39:   988ccdcbcdeabbec9c9abedeed6abbdabbda9dceabaae9cadccecceb6dbdbaea9bb988b9af9dacc9
col40:   eb9ad9dafb4c9c76cacc89d6beabcf8ddd7fe9dedbbb9d99ededadeea99abfdbbe97bb9a879db98b
col41:   66576e96f9c7b769759cccb8dae9c5dbbbccc9eaada9d9a9bae8bf9f8a8cd887a8abf7ecbaa8cd8d
col42:   b6b9ddd6c8b589cb9ca88cbdc8bbbccdfcd9eac9fa7ab9bdc8c7cabcecac8eb9999caab8af99fbbb
col43:   e678bbac978cac89dfcacacaedaccb6debcbadfe8babedea86ccfacdec9c9bb8ac9a9df9dabae7be
col44:   99989a5bcbdabaabdc8a8c7a8af8afba99d97c8b88cbd979a99bc8bec6a9b7bcacdaed8ba8bc9cbd
col45:   76b95a7dad995c9adbc97acfecf98cdc7c97a9bccaabcdb5baadcd6be79fb89abb988b8fc7d8cbd5
col46:   c79c798db6ada7bcdcac6bebcc9c5bfd89cabfeadadddca9ffd87c7878c9acf89abbd69b9bb6baca
col47:   6a8a77bcb39ab8b8cfd84a7edc89c9abd9ccdfcabbdec87b8a79a9baedacd9ebaacacdec8791cb97
col48:   687a9a757d6879bbcb8bb7a78bad8c9baabef9acaafabb9c9ecbdca7accb8b8eaba8bba7a9a48ea9
col49:   8a7be9aca9d9b9ae8daebbce5bcdc7ddeabc8a6b8bcaaebf9b9a7d9abdcfddabba7ecbcc99d9b9c5
col50:   79a48aa8a99acdddecdba9ccabcabf9bcbace8db8cab9ba8ffbbceaad9eb8cafa7d4aa7b8ab6b882
col51:   6797a763ca86c97c85c68769cc9a668b98969caa797a6787b5c7594b8989ab977b859c6853a89816
ROC:	 BPix_BmI_SEC3_LYR4_LDR11F_MOD3_ROC7
col00:   6487a67779c29967a6679767757b56c597888567cb7b879ca6789778746b98b3d8a86a9c4b67d896
col01:   8ac7887789b67399687bb78979bbbb888b97977c898bc4875899a9ab887aa78bacd68797868a8ca9
col02:   92995b6a95d791accb698979ab889588b7a8d6856988ca9789ca9aa76bca489e6ba9696899a6b884
col03:   6a788b96bbb7aa796c97a9bc8b7c9bba9a8bf8c99a886a88cab6999a8a9b98a79988cab77456a3a8
col04:   7666569a885869964787b9b99a8997c9c9cc68baa8b968c8db89b9a8abac5a7abd9bbe8b88b5ab94
col05:   755e8677b7bd988997a8ab9a8887959a77a67ba649a5b8a68b9af69a88d986a997a8a9b877b9cb97
col06:   645988575976c77a88564599cb8cb9b88c9b8c6cc97ebbc9a687a5797f9caa9a89bc57989bcb96a9
col07:   aa6995586999c9618a9779da997baa8583c9a9798b997a7cdda8a67b74bb9af78c8a87949bc68a7a
col08:   73b9889c89cab669b7998985b4c9b6859aac567ccbb8999ae9699a8686cb5969496cb6a829b6a946
col09:   8b879acccdab86b9aa9ba8b8bb8b7c8878bbcd9988babaaabc9a9c6aaaed9a5bbcb8baac9a788d98
col10:   95a97359bab59a67a5584a6a9a9ca869887aa9499b65bdcb868f8989869999e5ec9b8b78bcc3689c
col11:   59b89574b876bc78aa58b86386a88a59c868cac5a9aca7a77679a88cbba6f7d9a8a8f898aaa99dc5
col12:   5878796675855b7b89a99a9b8c69b9958d9898d9768ac6b914678a56785c7d88b88c9bd85d8d97a6
col13:   9a65d87897cb74bcacab89b889988ac898daebaa99a8a6bb9c6a667a9bb6679bdacc6d9a899c9ba7
col14:   35d6954959b577995788968889a995684cb888dbd98b9c529aaab5698c9c9bb87ad9a69cb5a98799
col15:   79877ca57b998b86b8a69577998a7d997a57a6a8988bdcab9998bebaaabbcac8b7897bc7a7d9db3a
col16:   4a89a6b88a69697c5ca665e66bbbc6aa8b87a8696679abb98ba67e989ac7bdd7799bbb6a86858798
col17:   8786838a668a879734baac5696967979a978ab9aaaa9b7a7fa9a9966736977a66179b77867aa44ba
col18:   b799a7baba99894a867a66cb7c8669b9cda6ba799888aad8a8869c6987c8a7d8eaa9899997767968
col19:   b4a3b788bbe7879b8a6a7acb888cd97a99ba88cdbc9599494ca5778b7bbca59658a86794e99bd766
col20:   99a936a58b788a9b686a639a884db7678a798a878766c96a98cba9b796779779acca91ba67b798a2
col21:   58d869a9a6b5584d49bd9f8a76ab588cadb68caace7cc599aabb6994abba89689fdbaa9a995b599a
col22:   46e79893ab783698a79cbca43888addab6568a7db8ad798b98bd689977b58989a57cc8b594778b89
col23:   95b99777ba868acab74b669999a29488b8698a688db985be979877b77699eb9a5b979dab77a6ba9a
col24:   aaaa8a988b36baaa9a785897658a879d9be549889788c9c9ac78bc98ac978ab6bb89a78ab79b7554
col25:   79aa8aaa849546cad8957b8ac3e9aa8d94c9a48ba7d8aca9959a9b9aa989a9b7b88998bb9b75d979
col26:   ba4b778b5abba9498ad9c886a9879c7babcdd8d9ecc9aababbfdaabcadb998ab85bc86aa8ba9dc96
col27:   9778b5ba7756aacbb7bcca8bab8cb8c9947ea898f9ca68b8c88a89bab7d6b67acbca6a9afaa8c8ba
col28:   a467ad9696b7ccda58885949b6ab67bc8f2a76cba5bdbbbaf5bdcaacb9aa788fde8cdba7ccacaa97
col29:   79878899d77968dbcabaad8dc8b7bfeec9a7ca98ba85bdbbaaa9caee9bc69cbb7ca867888ba988c6
col30:   6a49bb89988be7ad865a7999ccacbaa99c9ec7baadadeaaa7a7aacca9cb9cddba9babb9d986baaca
col31:   dbb7c7d75bddcb9cbbab8cebe7cda7cef978ff9dcddc9bed6bea8a8fabdda9cbfadbc8457a7ff94a
col32:   699aa798d89c68a7acafb9d8b9ee8c5ccafacfb7ca94cc49dba79a89a5a69cd879bb8bb8a7a7b8a3
col33:   889b97d9dbba8ab7a8ebd9d8faaa989de9fdb6e87a88caa8fae6cdbf9cbccb999cc8f9aabbebec8a
col34:   ab9ba899799abbcb7adeedca7cfddccd9bbabaceaac9f9ccde5cfbdab7cad87e9988ad8a7a79e8eb
col35:   dd97bbb99cc8a87cbd7a9a97ddd9cabf9fb9ccf9dccc9eeaafa9aabdafbcc9f68bc9aa8a8e5f6b7b
col36:   a8b9d5d8677aa9accc6fbb6bb88ab9fcbc8fdba887dabbddaadadba8a9e9fb87bdccdbe9fa9b9fc9
col37:   99c7bc7ccafdcabdbacdbfbbcabae978cbcbcd8889ccddcdbdce8dbbcceaa9abcffcfbfeccd9da89
col38:   eb88d9cbb8db9cbbbcebeddabefbfadaefbfcfa8eceb8bebcbeaafdaa89def9ac8ddbe9ff9bf9ba8
col39:   d985bab8a879e99ecb8dbdba97ddcabf8ab7fdc8cdca78ceaacccfac9fba9ccabacabbeaacedcffb
col40:   488dabbad9c9dc99dc9ff8de97baabded8caaacca9bfbb9899edec99a8deebff9f9bdcdceba9bbac
col41:   b8699c9df9adccaac9d7b98bc6bbccfdeedffedc9befdebabacee7a8e7ddda788fcdb9c7b6bcaea8
col42:   8a6aeb87d7b8aa749bbacfbcbfbac9dacc9da99db7eeb7fedeebdbe799ed9dbeabd9aaaa9daaa9dc
col43:   8a9eba79a9899ba8ebe89aabcaace8b9cbb7faedcdddcbbeab9ebbfac7af8bafeccbeaabbdccfa8b
col44:   9a99b768bbac88adeadadb9bbfcaccbfafcc9ba89d9ecbe69cb9dcb9d78aec9bc9fafbbba7ba9ba9
col45:   bd9dc9ba7a89d88d8cbcaa9c9bbbfabbbcb9bdb8abac9cadfccbbbbdefabb9afccde8ecfbd9aaa9d
col46:   96d8c888dbbef88cebd58b99aecddbdbdcbcaeac98ceefb9dd8febdc9ddbeaa8cbcdbb9ebcc989b7
col47:   b9967b86bbad8b9b9dc9bb9accbbda8accea88accc9bee7ffdcd9bec6acec6cebe9daabfc9eabbbd
col48:   a5aca8abab9979b98ca9dbaaba97c8dbeab5aba8dbe48bcdc7badbac9de97fcfceab7ad8caaedbba
col49:   d98f67c86ac5dbdba78d99e9d69bde9aedcbb9ecbafdcedaaacb2ecaacdbc9cbaadeedab9ddec6cd
col50:   987bd967e9dd9a869adc9accaabba7e88cc9a8bdbddd99ddccdacefdccedda9beb9ecdcad96be7ab
col51:   8b87667ba9b9bbc66786aa9d9ab7d9997d3aadb9caa8f8a98a6ed74bb8ac7a98b8a798c997ad9c6a
ROC:	 BPix_BmI_SEC3_LYR4_LDR11F_MOD3_ROC8
col00:   3688839928a597a69748878886b7a8a7946b75b8771a47875898869c87a47ad87a2987865a86876a
col01:   a4557679688bb9b5a99616a6a9798b839db69577a9a98f78746b7caaa99777a7979bbf7bc8cd6bc5
col02:   49afaba9576998588b29915b9898caaa9cc878a9c5e5dc9b6bbbfe56c7d89aaba97ab8a82677a876
col03:   9aabb66ccb5978a975cb79ac76799adec986ab9779869ba6c8f888a7a97798acf9ec689987c97977
col04:   7767cb8b999867487859768766acd9fb8da8d8c88ab6bb9976889badba8b89d6ca7d7a6acbbb89d8
col05:   977616667bb897a84a5b59888896b9a87a99a88b9a678ca79b8578a9797a9c79d9589cb9d56b8789
col06:   14b4aa7aad76a569575b9a9a88ca67aaca9a8998b9c989cbdca97bccccaeaac97b855bcee989da89
col07:   879574386799779a997d678a8cc8689ab9b8f99abea9aaa99bd9ba69a6cddba9cba6c5988b66c877
col08:   b365858765b5ec9aab6e78468ac7a99cadabaabb7c89cab8c7988daad9b99e997ac98ad8bb95ba8c
col09:   8876667769979a57ab8a888a6863a9d879b8e98697ce9a7a8a6a9a599cce95e69c9b7b89b97ab788
col10:   7b999b46658c659ac7c96a799979c98fa9a9cba7cabc9bffbc79ba7abadcab7bbc8973478f7999e8
col11:   78699a9a79b89986ddb7958bb9aba47a9eda795d9c8cab9897bacbb7b9aac95b7956aa688a6ad88b
col12:   a667a73894786c699cb9b8ab9986989a7aa8ac6f3c97b85ab89acca89afbcceb87a78acabba99d96
col13:   956977445a77699e7b866b9acab95a9c899a898baa87666b8bca79bb8bbca8bc9a4ac55b9995bc6a
col14:   4576c5ab96b9aa69af89ce78ab989b868ba885fd9b7ab8669bbcca7c5b7898c6ae9ac578c89bc959
col15:   78687786696887bdb476bab785756b5898b7fab7e4b8397887ba99ca7bb6da87b9b5b998689a6b9c
col16:   a978b68729a7579a98b789adb9c9abaaca6b889eaa38eca56887bb5ebb59a9aa678a89bccbca7996
col17:   ba77755446b28968b879b9a7996aa8a8c97aa888989aad9cb78cc8c98a8ccba66cc9b79c6889a485
col18:   599bcaa6836d8b84666852a886774a38aa669bdea9968b47acaab66aa6b866b7998937c95886a98a
col19:   aa75a3c99d776a9ba9987aeb98b9ac97e877bcb79788b8ec9bb9a8998cac9897abc87ba468b6867b
col20:   5ba696a7b63888679976a7a79986a88c8b9c65b9678ca9a987959aaa865aa8abdbbd7a9b9a3b859b
col21:   925676875594a69888679b9c775987ba9985869b98b72998bac588b9c998ba875bbaacab6a7a76ac
col22:   982599b965b7b93877ab7a9ca7a9aaa76aaa97aaa8965b5c9b7cbbb6cc88a7a79a4a9d89bd695699
col23:   668a7d7b89468c86b377b98998b98adb5ba95b9cb9887877864a977b27a8da797769bdb6aa8d7998
col24:   98a4d64d996c7ad87c67799a88b889b977bae6cc7cbbb899e9ba698db8b98a79aca89aa875d88a99
col25:   388a6a5a885895696ac8b88a7e98ac78c7acbc78ec7a9eb897a7c7aea879689a898a898bba4b9756
col26:   6786386ba869c98baaabbac9c9ccb9b77ecbbb9ba7fbe888b899dcf99abdbc8b9bbbba9ba999ba98
col27:   a9568abb9c7ad897bb67bba7a8aab8a9b97fbafdbd8abacc9ca8a8caac9aeabba97f8abaad8a996a
col28:   779aac8b98b8c99a7c9db7b98abbaca89aaccc7c7cbba7f9a84b8a8fbfada9b7bd8cc89aaabc7c86
col29:   b877bb7bd97baaa7598988499cbd9bcac9bebd789fe89dc9d6dac99bfcf78c9aab7edab999ca987c
col30:   749a89ab9448b7aaca9a88da8cb7a99cb9699cb98c88a98ddcabacbaced9bbcdb8abc8abd697baab
col31:   aaaa95aa69db6d9cab7de9c8cab8aebcb8ffbd8afbdbcacd5cbe9f9bfdcadeab9cda98dfa9ab9a79
col32:   9c86aaaa7ac9a5ce88bd89ed7bbabb9dadbc999ab9d9faacb9aceb9ffbdbe8d9b6cbdbbbbcba6a76
col33:   ca888a7698a7c486e7aa9876b9a89a88b6b6dfccc74d8a9abbdaacbabba98b9cbaaba6b6c9a8bb6b
col34:   a9cb97c9c6c8a8aaa7cb9b9bc6b959abad9cbe9afa9b7ad9cdbd6ebdeffadcfcb8da9a99d86aaa89
col35:   b88aba9dc74b98fddea9aebeac99abaa89dbcedec9dbdbcadfdbd8cccefdcebeab9cc7f8da898876
col36:   a8699bbaab8c8b6ebf8a8a7baa98baa998ddd79abbbcbcad9b8accbccdcacbaf8cec99da869a8a7a
col37:   bcac8cb7ad9cbaaa9c9b68cb78b99cfda9e9f8cc9aabeabebd9dcba98aab9d9ebbd8bca8c88c99b9
col38:   9ae9bddaca7c6faadcca7a999e99cbcac9bd9cfcb8ccad9e9cedfdcddcdfce9769bdcb79ee9d8b8a
col39:   7ca6a6dba87db4a8dc99df97bacbeeb9acabdfe8adb9bdb8ddcdcacbc8c8dd98aaaab8cb7c7a98b5
col40:   ac9cc989bb7bc8ca5d88aefbca9995b7beceb9a9cdfa9bcaaffcaabefdcbcfccc8aba9cbeb99b9bd
col41:   caaccb989e9ceb9c8bbbe9a8dbdabedbbd9eacdace5cbb8eb7aeeddfdeafbdabbcbcb99eefc9a58a
col42:   bc9aaabb87e9abfbb9ecbbba9985dbefdf7ddd9ae9abb8b8ddfabbab5d9fdeb9d9f569a7ca8d7998
col43:   bc79b7899c9ecb9c9afaaaf9fad9de9bebaecdcecdade9eccecebe9baccafcbac7aecfdcc8bebe8a
col44:   bc989ab8bbdda9ee98bb9bcfacccd8ee9c9cccbdfba9cfecdb6adbc8dedbcdabcf9ebfcbbda959aa
col45:   ad98a88cbfcbacaedc7cab9abbdc9cf5c8da89cd8caabac6bfcabeccccddeaeaa99dbb9bbc7cc956
col46:   cac689a99a78abb7988adbbbe8ababaeecddaa9eacddd8dffbddce8bad99adea8cacabe8c9bbda99
col47:   7c88fa5bbaae79e8abc9a7d69efabafa7db6bbdeffc8cbceccadcf8defd9ba8bdcc9e85ab7a8cf97
col48:   f87abddaa6accb988dabc8ea9bb9cdebad9ef999ccbc8acbdfc7e9bb8babbbfd9b9eebd6bfb9da88
col49:   eaadb8a9acbbd99d7ccc9a9debb9b9b8ccae7adbccccdcaaeba9bccee9fdbedd79ea7aaec7bea784
col50:   d8ba989c9e89c387df7c896b7cccd87cd7ecadadabdf9eaeddefcfaaed97ddbc9aa8edccb9af9ad7
col51:   98b6a7768db979869958a8789bc87ab78c79877c8cc7b9baac8ba8a78598c96e7b9898687972a6a9
ROC:	 BPix_BmI_SEC3_LYR4_LDR11F_MOD3_ROC9
col00:   4aa5bd889696c79a9496986cb9a968898b8879964babaa97b8a59578935a3ab4f97a847c69b75756
col01:   8c7dc37cc88aa87aa8dcfacbb7a8abf68a9baee9d79c5c9db896c76c697d768a8a7da94a98d8a7b6
col02:   47b28cb87bb7d57f735988ec879beb978bbbab99e78b5bbb75899a37a4b97c88c98c8a85a8a67ba5
col03:   26aaa9d878d9b7b4c9a9aaabccbaf6ab7dbdeaa8ab7acb8a9ad8ef8a898969ab8d99bc5899aebb8a
col04:   663ebb99aa8ac93977ca8d8f6dedcb99daf8f698c7b8aea98cfd58baabccc7766887ba6799699995
col05:   8a5c3ab3899ce9affbbc9bfb89c9dbdd98eccacb8bec9aa9b8bec8e9c8a96a95cdd8dbaa9ba58d83
col06:   88b955cea68a9758c99b4995c79bcaebbcb9e9aa91c6b89fabc699db97dca9dc98cb39a63998a96a
col07:   6295ccaad9a7a6a899cd78d9987eeb6a6b8af98ab9c9987abe8ddac9dc59b8c98abd54bbac3aa97d
col08:   7375c8bfa9896955974c6b899cb89abb68c5b9aac8b89b8afa9baa77a8acbda45976aa8de75a8d36
col09:   a86697aaa8daea8abdb8acb9fa8baddbcccddacfcc9698ab99987a9abfc7bbd4bc4cd6a9dd9ddb8a
col10:   9689b9abaab7f96e3667989c78bd7aa95aea88caeca9aac9e9a5a8caad5958c867b777ae747999b9
col11:   a67948da97d48ba786e7a868bc77b6db878ab8cba797ba7adcab56b8aa8a788ea9996875789ca5b7
col12:   5889c8b9d95a56d9b7cc96adbd9ac97ca9da89e7abd8aaaaaaa8ab4a99a77be5898d498784789694
col13:   9976aac9bb99ec4c67feb68bbd7c7cdb9aaa98b689af96aa3e9449bbd9de958abcaa9a8898ba57b5
col14:   49c86ae896cc486badab998a84a897d76ace6ba9fd7bcc68e8b977b8abbd7ca9859887b67939578a
col15:   6855b9ac56879b9a866c76baabb6c9f7fa6d95999c96e78a9b95edb7ba8899849a8789ea7a7aba94
col16:   9aa7897585b95d789b96c788fb97e79a8a9d9e6bc979bcdc5993c6f87ba886be7a96376898a687a6
col17:   48b97977588ca9aabb7aea6ac8c696a7acc7567b759bda8ec598555a6b38cacada765344cc34863a
col18:   786dc96884aa7c8789ad875b7b979777858aa6986c8998988c697bc568996499aa8a6cb797648795
col19:   b63568ab8ba966aac9aebabc9dba8acccebcc73b9ebdbb8a29cf89b7dac548976bab6c98abac5948
col20:   287ac5baa6669b667d6ea9ea6984896869fdcb95b398dca7bc78d7978789a8988596a6bb6791988b
col21:   9258abb8b98896a7ca59ba7a66a99bb8d7dca9cd9bcbc7c4bbbbad97b6ab8c97658a79bcc97197a8
col22:   83caa459b926877c88b8fac987b889e99cbb977d5e9eec8a59dab85ab8397ac89ab995c4d8664269
col23:   c7397998abb7d898a579ad7ecad48668749abc94d8fab758bafa6da7d4745cb6a9a8a78abc9753b2
col24:   89d9f8fd69889bb9b986999bbbbaac3c8847d679d87688749a986992a9a9d8b955d979359689a597
col25:   4a64b9985897dd996cdcab9d88e67af89aad8ba998c9986cd8789bba9abba45ba596a954c8436968
col26:   6da98bd98e9bddb98cc87deafab9b8d8ac49a89a9cb6cccbe8c5bcc4b88ca888b55a8b7cb989ae86
col27:   c5b6ca95b9d9799d89aaaabea8a8c63cb9ac97a977cbd868a799bc6c788aebebba76987aa99787bc
col28:   6b7c8b6999ba9abdba69898a99ea97a9e9b7f9ab8c9fb86da8bccdafa99cc8dccab97e869ac5beca
col29:   9c59bc89f5b5bedb8baac99f8b97bcd9be68b9cb69cc9bd5ac98caa998e9a995978bb99999999872
col30:   b79e9dab999aa5ab9dd9cfab9db5dadebb3cdbce996799cacacbc99db79e7aa99588a68988abaa78
col31:   cb974964aabaea9c8dcea9ec9d8faaebccbacbc8b8eae9da6fffbcf8b8899c9798a7c8b9aa99aba6
col32:   9ca9ec8ac9cbabcc7abccba85c98b9e9a9f6c9cbbb8dcad99d7cd9aad9aaa8d583baba78d3dfcb86
col33:   8bbaac9afd8beccbeaacb9fc98cdd8ba9e8eeafebe798b7aff9edc7ac9aaffb9e8c89c68aea7de85
col34:   7ca98cb7a787cb7a8ad9afcdbfbd6b69cc5cbca8dd89aa59d9d9b8dce9bab9dc6a79a79879bae77b
col35:   89bbddb569cbbae7fbabcec87eaec6eafa97dcaa9fcbbd7c798de4c7bbe9a79ecccad69adb6978c9
col36:   7b79898abcd9aca4a57a9ccbfcbbacdbbadfcb8897abab797ba993ccda9dd8a9fca88a8ba4b9b799
col37:   fa7cf9cb9cacb8bcd99b7abfadaecfdccc97bcdda5caef9be759bbbcdb99bbdbb8a6baa963b9a999
col38:   9cb958ca9c7cdcb98c7cfb8e8c8cbacb7a8edbb9dcb89fb9aa9edbaef95a9bae69ba98cc9c999589
col39:   aca9db9f8fc8cbcadabaacafc9a8cfccbe7ab898dac9badd8db9fccabd9c99c7cabea6ca875999a8
col40:   859bacc9a9fdb6beb687bcafbae8fda7b89bee9cadcb9fabfccc8ccbd98e79ac4da9cbca674d9395
col41:   bb59d7ba76cc9ada9bfcb99bfffdfecadbecb5cc959becd8ca94dcdd9bc9d6b9b8a89e699b6a7eba
col42:   a6a6fbbabfd88ae967ace8fab7ca8a8bbb9ffaa9c8cbbfc97b9bcfbab99cc69baa8be98d7abb7687
col43:   5b6c7ba89c9bfbee7dabc89dcb98be5bcedcbd8bca9b6baa7bbbbedbd9ccf9faba7977a57a7dc9aa
col44:   67bbffca89b9aaba9a9e6d8bbfbcfbdcaccaf9cbbbec9bebc5ea78ae8ba7dd8aba9a858b78daadb9
col45:   a8bc997eca679d89ebcad7ca87f8a79fb9fe995dcbf9ce678dacc9c7db69878aa467ec6a91bba55a
col46:   99bc8cbcbedbcdac7cb7ceaba6cdababdddafb9bf9c9fbebba9addc8b8998c897d8dab8ca828868a
col47:   e7e89adae98dcdbccdafabedcff9cb8bcba7cfb8f97ceadd9fdcbccb98c9b8a4bbbcac9c7bc8eaa8
col48:   797b9bbc9faad8abddb8baa78eb96b6fbae8cbddf7dc9aaca7a8d6973add7c9b7b696a867b7b9f72
col49:   b68ac8aaeb8f899afbd977f9cf99dba8a5bddfccadb6b358cddbdcc7a9e4cbba9aa8a98a6cb9589a
col50:   c97dcbdbcddb89bc9e89bbda9f49cb7fb9be99cce87ba66fca87b988ea5bb9998caa879a994b78b3
col51:   5a89c9b7b56ca68b5a9a92b59aad96b87567ccbb8935e77a5a8739779a516d969885ac967186c592
ROC:	 BPix_BmI_SEC3_LYR4_LDR11F_MOD3_ROC10
col00:   b31774465553544a76446645b5a8663c876456a45669a57a998a6aaacbc679776bbac99a865aa688
col01:   87436984655ba7698cba977568998a6a786688a886d89945daab9a897b985db8a8abb8bb69b89eba
col02:   7166667475687747a565a368757888ac68799b3975b78b4a7baa97b98bd977badab98bb9b8896bd9
col03:   867863a856837a489595779a776699899b6bb6a7a7b7b9a97bab56e9b889ec99c7d769bd8a989bb9
col04:   646772495497957368869766776798899d7869a5b7ac8c6b8979dc8b8d9ca79bcdabeccab6dd9a97
col05:   25897456b7359757b7c6a7895997aa7a89999c9da9bda769bb9877e99697b989eaea9c7ba8b8c9a9
col06:   5a5967779c9ac7658847767689a6c99589caddb786b7c6b8acaa8b5a6acc99589aaea6babfa78aa9
col07:   66768876636999899b29867647b57577cb6596b7a9c9b97ce89b9b999c6db8c98ab9ccbd7bbab9c9
col08:   38885928587484576785988756ba8a892c78bbb8d96be75eaa87da9aa8d877bcaa69aaa9cd9adb9b
col09:   9975855b756a9a9838b9a78b5b787aba6bcaca9bba885bd89ab6bbbaabbaab9eabba9dccbadc9898
col10:   a8649436577988878867b3b9797b9c798cb69a5bbba7bab9cb7cb789c9d8886cc9aac7aa9bb9ce79
col11:   c64793387a57478167789768a8d7b97a9c7787c6b78aabca8c8acb8a9aba8db94a97bdeb9babbaad
col12:   459596956897858984687a998776a69b867b7879b6bbdbb8cacac7db9789ac9badd9fcacc87ba9b9
col13:   94457786848745a686a689c7a857baac99bb799779b86dabb7c86684b8aacaaccecac78aeacccba9
col14:   bc46555366494868757484897879496abca999ab8aabbb7368bc5ad4f9a87bc879abad9ca9aaa89a
col15:   3241568896869a668967979587668c96979babb88798fac78a9c88c879ab8b9a999788d9c9a9d9a8
col16:   687985749176765b7ada857a99566b8798ab68d8f68a989baca8c98c7bc98aae96c5c9abcd9bad57
col17:   6a788873277649871878669879c7958ba7996ab6d8b788a8c68aa747a9b9ddda7999d77788a9aea7
col18:   557589576398a67a4748ea598789579b9667c95a9d98c7addcb759cb697aaaa9d79db999a7cba8dd
col19:   8244a57ba5876378a8976ab95ad3c9aa8777998886aa97aeb8baa9c9b8cbabab75cdbc7bccbbac87
col20:   47678655885bc377657598738977d8894b878ab797b98b9aadb898b8988c68cb8788c88aaca9bbba
col21:   4667568593487aa666979bb99a887949caa99ebca898cbb76bbbaaa7e9cdebd7c998ec9aa8acd8bb
col22:   637246998b8bb866aa6657b8fa87988a976a9bb9c7bbba9aa8b9cab6c98c9bf99c7de9accccccbdb
col23:   459479777586a885955474878a992aada99a8b99a979ba7ab7addba8bc767b9d98ce875ad4de7ca6
col24:   854363646668b6a5797785a9778ac9a9b98ae69e899885aacea979a697ccacfc9b35bcaeaa9caccb
col25:   46547596a5687989ae96378777d7959bbb98dca9bcbb9ab7faba9b88aa8cdbabbe899a98bdf9bbb9
col26:   85846a8bab8a8a58ab98995a67a7b7b8daab99b9aabcdcefdb4fda8bbaa999bc8cabb4bbcdd9a5cb
col27:   a6976a95b47a7779a97bb8b7ccaabab9a9abb7b98aefbb99c9979adccbaa9bb798acfa9dce89becd
col28:   565856a84aa7989bda89a9ca8a5cdbb7c9adbaaad9cecd9da7abadbcab8eddb8bcc7bbccc9ccdad8
col29:   da86b8a7aa96a9b76ad4adaaa7bbc8b99c9e9bddcabdfd9cdbd7ecaafa9ccfcdcb89bdfccad9bcf8
col30:   cb566ac698adb9c99a8cf9bab49b5aa9bcabda88db8dbaeaa97bbacabcbca9acaa9dabcbc9aacbcb
col31:   9476a899a9aab5aab78bbd7d999adb9bdcbaecbbcd6eacfdcbebbebaa8bb9bbfdcdcdde9b7fbdcdb
col32:   89a8a788b5896a89eaac6cb88c8bab888ccced8f68dbccffbcbebbeeddbdcacdbbaddcbedfcbfb9a
col33:   929baa89cbaa9bb77ba9ca989a7db999d99bbaebabcdad98fcddbbbadefaeecaeafc9bbd9dadcebe
col34:   3c997c7bb4daa8cbb7b8cccb9d9abbccbb99fadafabed89dcdbcbaaddfbded6fcccbdabcabf8bbed
col35:   92778ba6c9795ab868bb9cbc8b9bf7dc9da8acdcbbbacacbbb8faaafed79cd9aae9dec8bcee8afc9
col36:   759a8888776cab5faacc799fa99abfbaa88baacccbcbebbbcbaccbdabcbcdbbacbaeb9bb9bb9cbdc
col37:   b8b8aaca8bab9d67b7dbab8dfbbbdd78ccebcbcbe8bdbcfc6fcfcdcbdeaefd98bdaffb9a9ecdbebc
col38:   b9977c68777bbc4a9cbb8b9aacaabbabdc9aba9efdfcae99ffdceb9aefaeafcddebda8eddecddfbb
col39:   86979b9ca698978bcd6a9abb9bb9ea7bbec998ebceeaeadef98bbcbbdddfefdb9cdec9dbd9bfbbc8
col40:   75b99a9b9a699bcdaba9a7bda6a8bce9ccbdbdb97cbbacadfdce7fcacccb8acbdcac997bbdaaa99b
col41:   9787a67ac6aeba8868adb6ac997bccf8aedbebdcfefdb9fad9cbcdbe9ccdfbbdbdbbecbb9a9bde9d
col42:   985a9d87679ba9c759ca9aeedb58decec89defbbef8adbfabad9fa9debbfefda9ba88ccdecffcddd
col43:   69ba69abd8b596f988dbbaedbabec8d9a9ceaacedbaeabbdcbfddfe9ed9dcfdfbabacad8abcffadd
col44:   696789abc8ca689aae97abdbcbbdcdeccaaacdadbeebcfbf9baecbabbb9dbfcecfbe9cfcbdde8b9a
col45:   6aa56aa89ccb9aa9b8f99bc9eabdcbfceffdbf9c8bafbcbb9dcc9dc8b9ebdfbbed9ad7fcffddd9da
col46:   78aaa9a9c7aa73a9c6aaacba76cb9a9dfeddafadb9beedcdebede9bddbedaaedabbcebb9f7aed49b
col47:   884abbdba97aa9b79c78bcb9aadbc9fecaeaccfdd8feadccc8eeeaaccbbccdadc7c8ec7fc9b6da9c
col48:   79987859d87979bad79bcd8ac9acebeddcbfeccaabebedecf9a98b9adbbddac7ceefcdaadca8fa9d
col49:   27c967abc97ad7acbcac7a989bb9bceebec8dafbabedbb8eacccccada9de9acecbaeb7acdcbbacac
col50:   ada8988a89baa9bc9c98baaebcaebbde99bedc8fbfedbcd9beddbdaebcdebbbfc9acadfadbdae6ba
col51:   7775799a678a88e59a796b96d889b69ab98a77ba7c99ecba9ebc7987cbcab8888a696a87a89abd86
ROC:	 BPix_BmI_SEC3_LYR4_LDR11F_MOD3_ROC11
col00:   97585737764576a6867879a53555b9aab8566aa6766466f879479638b279955747d598598794c991
col01:   796c9cb88c89d98978997d5a7c79976aa75988877ab7b78bb6cbacab6db8ba8ba6799b9986ba9c8a
col02:   a96a97a643686768b995984a7d89995ecc97b9c9386cac897e9ab685c86985aaa98b7baa9ba78395
col03:   5778a9858baab97ebbb9aa878cceebb857ba9e8bbb7aa9c7ebd9ac6b98caba9d9b7597c7ab9b67c4
col04:   7a8896c7ca7a865a998c8797cade8cb7a8acdbaa9a8da898ab9999a8ac8a89c99969ab7778883cd7
col05:   7d5b83b68c8876b7d8c7b56abb5cb69ac97b7bbdccaababac87d9b969b99eb96a6989968478267b6
col06:   96fa58876a6a84a5d8e8f9bd7b3889faab99cbacd7a7b9bba887b7baca75bab988a8aa98986788b6
col07:   a5b984b97a49bcacb8b9e6ea3377aceaaabcc9ec87c7a9acb96cc7db889c9c8589d96ac97b8985b5
col08:   66a8988897cbb7bdc8df9bca9d9b2c9bb88bdba97dad9ba989487677b898cac87866894888a77589
col09:   aa8c7bab6bab88b8eac65b9ad7c9ddcbb7dfacca6988e687df9b98c7e99a89659ad8f6777b699784
col10:   938ab779897caab9b8e6cb945cab6a78decbfbcf9e7bb998d77aa899a79dbb5675b879c749b769d4
col11:   67b886697987a8b8aa9cd7bbdb7baa57bc799b9bb9b9c9c8da65385799b8ec7c68976c59b9aaa566
col12:   897abcb89a772c7acd84865b8bb8dc5779a98bdee987bbdadc869a9849ba6d988a6376b8a9babda6
col13:   8d8a97c8c8ac858885a8ac9dbe8cc89acfccae89cbabdbd8d89db8a96c4a9c96aa75abaa97c87cb6
col14:   d9668a99bbd7768dd9795b9266d9dc47c9c75e6b76cb99b675cadcbe78a7caaaa75a8a7c975a8de9
col15:   9499a8ac6c7376c76a9a9a997ab7cbbc9c7889cda9b99a9978bb886abd98abb878638c69866b4887
col16:   97a9b86679b6c95ba6ce9c5be699f99949767799ab8f9e8dabc9acb7879b7584ab8779788ab776b8
col17:   b8768aa81968a5a98dda9ad9bbbdc88bcc879c7a8c86dc89b7cc9458989eeae67789acb97a8ad6b5
col18:   873a6789968fcbb8ba66ac8df6a8b795879ce75ba8a678c68aa8b684b7a688cbdbcda7aaaa947a67
col19:   587a69caa85adab688bca8cbcdc6dc8adebdca8c47c7abfc97bba6caeac7abacd649596bab9a9a86
col20:   99ddcbc8688968a99c8bbea4d8a88b7da9bddca8a9b8bc6b86754b89b768c7aa7899caab899566a9
col21:   99cbb9a6aba7bc97a89db8cbfdd98caabcebc9a9fb7bdd8b87e9f7abd9acb7caad9b38ae9d8949a4
col22:   5b47a7baba7b59786a86969b9b96b9aadbdb9bbab879ab8ad6a48777db8988bc8a8ba96b8497e98a
col23:   cc875aacd88ada8b88db9aa9b6b9677b79e7c8b88add8da989f9d599db7bb9ab875ca8c6777d8867
col24:   a58682b999ac878c9ba79ab99bb9abca9b6ac969b777797bc8bd8a9accbda8b69bc9a7ab875a9d17
col25:   9b87a9b9baba9bd95ebc8ab989aadda9c6b9d5c76c86bb986c6cbaaaa9cc99dc8b67c7b9579aa9a7
col26:   ad5bbbebc9cdeb7ac8c8eb9a9faadadabc9ebcb9de6eab9acc9caaddbc5d9cc6e8d867c789aa97b9
col27:   89a679ebf6acedace9bcbecdecc9aaa7a9c7cd6cd9bafbcaa8d7ca8977debe9ac88aac8a979a7978
col28:   ced9d8cf988baeccbbbddc69aa98faabb7cabaaec7cfdc865ce899aa9a78bdff9ba9d6cca9bac9da
col29:   9c9899abb86b9a7ca8ab9a8c98d9a59fcbadebd7878ad9b5ecbdabc7accc4b99bca8ab979b9dba7b
col30:   ca99ec98aacab6cc89f8c6979ab7cceddadcbf487acc8b6e9bc89b6b989e9cec66cc59a85cadea6c
col31:   bbcb7f9caaca6bcd8ccdbccdcbcfde9aa8f9fddacfbedacfb9bcaabcbff9acbbbbc5e8acb88db9cb
col32:   887ccbbab9ea98e9cddbc9bccaab7eab9df8eec7abcbbddba9bc7dd7bbdefbc97b7abdcb98bab887
col33:   6addeb8cdacddadcfc9cdbeb9fdf96dc99baccdbdbb9e9c9fdcf9b9aafb9b89ee8b79ba947dddee6
col34:   8cbdee8bbb98bad9baa9afc9bab8dac9b7fcbacbfad9bd9c7bb97aee9a8cba7cef97cd8bb88cc978
col35:   8bbfadacd7dabace8bf5dfcbba98dcdaa9d8bacd9adaca8acab8e99ab989fbe98ffadaccd98999ad
col36:   b9eaede7a8bad9aecccdc9aab98cbeab9efa968cfbc98bdaaaaacdaebbacba4efdc78a696bf5fad8
col37:   c87f9ccf9cdf9ef88ffcadc9afdc9d9abdafafcfddabd99b8efaaaaddf6afddd9aca6fbc89b7cca9
col38:   cba9dbbf8acfaabdadfbdbedbbac7c6ccbffbcecad8aaf7baaf9bdacc8decbc7dea6bc7ccbddcb6d
col39:   eaded9dcec8bb9a9ecfbeeb7d9db89affdffaddacb8aafb9d8ea9edd9abedcaea89ad9cfbcbe7bcc
col40:   a8ad8cec9ce7bdadc9ab9bf8ce8edfcc9edebbaabececb8caffc9999cbdbc59bab9ca9c9decdceaa
col41:   aaa8efa99ba7dfd9bcaebf47fcebc9fdcadba9feca99bbfbd9b8cdb6bddfabca9df8bdcaaba7aa9b
col42:   b98ba9facafd98bfcf8bd8b6fc9d6feaf989b9abbecbeaabbbdceadcd9bb99c9aaabcbceedcace89
col43:   7c99db7f9bdbcbfcbcace9dccddeadbddeb8dbbcc8ccdcbe8dd6fedccebaacf9ba98ac9acac9f9b6
col44:   a799acdf9bf7cc9ddc7abefdaec8bbfdadecbdfcabec9adf7dabbda69bfdd8bab99dea99d9dc8ae6
col45:   cadaccb9cbddbaefd8fea8cbddbbcbffbaaceff7bbadbbcbdaeea97deabefcd98aabd9cef8bd9ba7
col46:   b9bbbdcbcac9adccca9b9cfbd7bbf9bbebdbbe889df6c7ded7cc8ac8b6ac98ba9bd9daa56bbb4c9a
col47:   ca56cacd9bcacfadaefadfbdbdedc8ca9cafd9bb8eeefb89dddbbb779dbccbcfa7bddcc9b7da9c68
col48:   98b889b6badb5cb7abbbecc6bbea6dfceea9d69cdbebbcba888bdab99ca9b9aa7c7abaaa8adaa7cc
col49:   77cda49a87abc8abdcb7ddcfeacefec9cd9beca98dd87eb99edbcbc7a9a8c9edab99e88a8c9dd8bb
col50:   acc9c8eaaedbdb8b8da998aba9faba9fc9e9b6dcecebbbea7a8bb9beffdbcdc9c99cbb949a96aa95
col51:   c6889ac99abaab86a8f7c887b8a6778875988d6b6cdc9796978999c869683ad6a54995728786a989
ROC:	 BPix_BmI_SEC3_LYR4_LDR11F_MOD3_ROC12
col00:   935546f431c55548449925575a989536835941a54357985a4575787a989a83818755485964a99579
col01:   a979369d936575bca8b47676586a7a998bb7bc3a95a7b9d998c859859bdf7bb987d4ba6aca86bba5
col02:   36bc899aa41c5a745384b895b4686b9b9bc8b7aea49aa946aa798cbc6997b6aa66c79a8897677b3a
col03:   6369786678429bb78369a7697689bab9b9c758b5789a89dd6ddcc59a9bd9775d58694b3b5baaad98
col04:   9538c4a6bb3a9783ad65edc85a8998ab6ac698d88b43997ca89ccc658a98bccdcab5775a8abb989b
col05:   682665a5c4348877b8599b9a957999eb9c9bcddbc9bd7b9abad466d99bdb9db957d9b9e7c66cae7a
col06:   57679599caa56758a557c97a86a356ec86da7996ea579cb8a45ad898a9998976989ad98968ab969a
col07:   87bb869b8468a3a862978b89bb5bb58bbb3aa68c99a9d698a956beb7a987c79a8c94bbb877a9b5d9
col08:   48896996a7a9538c8865a67a2d8b7889d9ea98ba5abf679c8c8978997ab8b95d5aa96a7679c86cd5
col09:   4559963e4529768ab77ab7bba9eb8ab72bf8659caec9b9a868b5bb86ca6388abcba8ad9a78a9c9c9
col10:   644168673456cab9b9a47677aaa6e6a9886bcce99fc78a7d5988c758b597771dc8f879bc88bcb683
col11:   7537959864834785a27789ab9b6659bad998e8ae9a6a7b87a786a695daca25a6b866cc977b5fcb89
col12:   7844a17678b83685a8b458a74d676999abc898ba9aacac47cbcc5abaeb78ca7aaa5a96bbb679cbb4
col13:   7512b7ab88b69aac587c7139ae4acbc57d8a9cc8887bcab8c88b9ea896985b6961a3c6a7c76ad859
col14:   268948787a9ba4963867577959c48558a8b99877c8c8cb74643843788a65369579d9d99785ec7c47
col15:   95559cb479d73f3827b5488a689983db6a9cbbdb79c76a9686c9388bc8888eb938c8e8d8bb89aba4
col16:   ab77576b463386a7667979826b797c6c9ad645b59bccfa8ca6a6967a7b947e8a949a589b79a888cb
col17:   865a767a2275486764b8a486a6a579889857bb8e87a799a7de48d836a6c98ac9cbb47986774a9896
col18:   53581797461978885aa66bce555a9cc9997886895a7a8886bcb8a78a8bd8da4c85a99ba5a68b56db
col19:   957692a87ac55a6b89996757568c67c6d8ac7499753978db48bd8a8c8899af57bca979b6743a7878
col20:   966185e61647765865696b3a863738a276b6b7868559bb597378baa8756b86656848b96f73daaba5
col21:   786936768c29b9a7b775468688755bbcc99b65bb7eba96b9ca83b9ebd71ac3b7badba77a39f6bb95
col22:   85a64269ba3147978b41588b83989ac37cb87a98ab6e367758bb6971b67aa6aaab7375bda788cad4
col23:   97748777679397645869b38587ba3c7982a8b9987c76da6a7778598cba5888666893bb7735ccb8b8
col24:   55478b76ad24737a9982b95668ae885b7897b9789ba7ac686fb8579a47c647c65476888adb94b9c9
col25:   c9a7a58a9177a965c36757721866996c86c9bada9a9567aa63628ca58a4c9b6caaa66aa9ac82c7b8
col26:   4888a96cac86e7c136caeb3567d9889caaabfffa8ce5a8dcb9a99a768c7b7ab88c4989879cc7ab66
col27:   9d9aa496c9277765abab739869d48b4bd78a9b5d7ba9d9cdcac7e96cd8d3cbadfe9ac967af56a86a
col28:   789cab787b7c4da9789d55d7b49a8fac8b9c79b7aca88bade7978a6766d79bd7aeba9ab88fa89b4a
col29:   be47467784a786699c9bb9ac7badabbb8aba77bc888ad97cd99b6cad9fab7d95bd69a959cabfc8b9
col30:   99646565c9ab747a6b599895995ea8a9bbc89d9b5a92f8866c75a987bcba88bc7b59563adbba8bac
col31:   c89bb8a77aa53ec4acdc9a9b98e97cc8cab988b4cba3ce8c9bdc98db99baabb99db89a57cf9cd8db
col32:   83653a8b7a979bfbab9cfabb98a8d9bbdbbaaabd89b67bbcb8ebbc9dad6f6c85ac8cdabaabebb8c7
col33:   b869c676aa97a6974a959d88faa8ac7889afe8da9ccba89cabab7a3958ababc4bddbc85aba5a777b
col34:   9c39b6aa987a5b7678bacacbd669ae9aecba9ee8ba8caf7bc9dacaaadacac9c66bbaad98fa8b969b
col35:   48958e27a8dcd59a7ec575aaaa87cc899ff7bc687ca68cfc89bc977abbcfece3bbe9b88bc78ab68a
col36:   89a55993c7b7487c5beda9ddb7eabda7a9ccdbeacf6f7acadacdaafb9b9a985caaa59a97979e95de
col37:   5b86aa9874aaa9a9248bcbafbbaa7ca87baca7dd9ccaebcc7fba7cb7b9c59b7bcba8f9bacbe8e89b
col38:   87977c89c79cfd8b979babb8aa8a9bda6bdafabbbadcaee9bbdceb7dbdbbca7aa9dbbac5a8bfb9ec
col39:   acc59dacb855b799eaed7fb84d7cba98aaf8dfb7a9c9ca8d9acfb69687c9d6bba98bea9cef979b88
col40:   b6f5b98cab5b5bb9e79998fa5dedfcbabcdedf8bc6ef8ecafabe9beea9a8cf98baa99aaf7ab9b9ba
col41:   85cdcecab9ab9d8adb6ed8d79c8d5dd9c989daea7ca8accab88bbeddf7aaabb859b5bdaf9b95d4d8
col42:   6aa786b2969aad976977aa7bbfd863dacbd8d97fb98e89d8db75dd79dcb7988d9bda5cbd9c5669c7
col43:   af49887689d9daac9bd99aad8d9cb69ed6ecbe8cf8f8abaf9dbefce68bd9a9bdd97a97abbe8bfac9
col44:   7847c8bb8a9b7baf97b7bacacb4cd87eedbdafdeccec7bbadcabaf7db7ab9bd8f5ca97cdd5c98ac9
col45:   847489b8c99aaae9b9b888caaaab7a8acc8ddbada9f8ce9d6be8f8b9cbe8ccfb6afdd9fa2699de8b
col46:   77a6a6bc686865954ad67d8ebccdcc9da788e69ac4bdcb6cbb97faaacbbaa87ab86bcdce9b4adeba
col47:   988aa969579748c757b78c987777abcecfc9cb998d7cb87f8bdcabbbd9dc7b69b5b9daba5bd98c98
col48:   66958a5b7b6cc8daa75d85abaa8bee78a88c89b6edc9ecd9ab8bbc5babc8ed9a9d7bde848c9a988a
col49:   d79fa8b4bf57589aaf99bb99af9cb86ccc8aca9ca7bda9adbba5ebdc9a794cbc6db9d78c9ccaace4
col50:   aa9ce73696bac9b7dafcfb7cb9ad69c7e7f6f9a9cbbd7becebe77cccae4db97b7799aaa5adee993b
col51:   87766985935956772185a6a6468799989743747582487ab5b9a6547885a785a99359e7aad7baac69
ROC:	 BPix_BmI_SEC3_LYR4_LDR11F_MOD3_ROC13
col00:   561599469c8685b8d59bba638a5bcc76a8b968b9aa74998b69aa29a95748883d7987ba5ab84bf9ae
col01:   94d6a99ba79adbb9a5c6557b7a7a99977f899acb9aa8b2f6c7bbd9c9ca94c8bc9bcb9c7a4fac55ec
col02:   9bc79d9cba79ab58585b7bd78ca988a8a9bbb7bac4d69ba7ab976b9aaadaba97c6a98b9ac6a997b7
col03:   b69aa8c5579ca5c8ab86af7eacca99ac8bb9b7a9798ac69e9c77abab7debb8a8a759b7987caa4db7
col04:   56d8a78a87dcb5b7cac9be2859aa2bb999cd8c699ab7ad68aac8486a886bb3678abcb98abb78c8cb
col05:   7787ac99a899a829cdfaa8be98ab6b8ca5d667b9878babe8c76fac7d79aaaec9aba63b88c2997bd9
col06:   46a599959db4997979f7b5afabc95b6e9889cc98f38677bdb4b587bf9778d77c7aba9b89877da7aa
col07:   95999b678ca98b56878b98a78a989d89ab7db78aad9b76b9babc98b7d98c677688b6a7a8acbd7769
col08:   3383ab5abbc749c5c7dc7a7f98c797c987a98949da8ada859bd74a6a8bc8fd8996b8b767b49deb5c
col09:   647ad54eb9a59cb6b894aca896d5b7aa6addbb2baa9a8c85dadaa987c88bc7e8a6ad8a799bcc9baa
col10:   b95f99765a7785a9988cc89a7895799fa7b79bebe67989a889799975c3b897c97bae8e77c5c8cfdc
col11:   3198b787ca9bb49d97c7dbc8bd9a7d9b8abcd9d96b8b797869aa76b76bac486b66a894965aca98a7
col12:   ada78bb8ca95889aaa7879b7b4fc8d8bc8baddb6677a6b9a9bbc6cba9a5da7bcbe67ab5a9677bcc8
col13:   577d558a699ba6a9c999da789b7aa898fbbabc7ba8ad79cecc78d999a74b89fa859696778dcdbbdc
col14:   6528b478b8a9487dae95b7c8899897b978b758b89c77ebbfbda77ba65c9e889c85bf8d7aaba73fc6
col15:   b858769b798b977b72ab4d9c6b849ed78b9ca77ba897bb55adfac55b8a82ceaa8995cba89ecf7ccc
col16:   96c7c9a9c29c95b8cc9c9aa39abbdb6d9ad49cba9d6c8aa98cdacb8dab9cb599997a776799aabcbb
col17:   37a8c67b5c799e7968c8a6ca57ded9acb87ae778e987e999a7596d797ac6a6b9aa9793ad668a6cbd
col18:   8768819db5f88938a87b5b7867aaba9bc8ad9a798b5d8c984f88c6e9ba97d5bb9d59ba66786abb9b
col19:   64877c898c9c59748b68668acacaadd68aab99cf839ccc8cbd78a9cb68ca3cb9c99b9a67e7c9ddcd
col20:   969ae5949b6686d68775b878c9a6bb77a8aada7a7c97746aaeabbdd86a9698f6a479da8987b695a8
col21:   687a4b67b895b87b844489b9b8a7abbbaac98a8967b866f78ae8bc7f7a7788b9acac9c8698a77ba9
col22:   7988e7a6ab37cb77a9877a896b88c8c8bb86f9588bca8fccb9adceb844d7b6989bfa6ebcbbb6afa8
col23:   657aba77ac78c8776c7a9a69989978bb8879e4a9686b93adbb76c996e856587cc4a8b7bdca3ba78a
col24:   979b88c5bb7ad77a89c7a9c86aa9abbb76d6a48dab4bbb99ab8b76abab57949b9aaab5b7595849b9
col25:   6aa95d6997e59e658aa8b8bc8cec7c9ca9ba8b958ea7a6ae98c778db697a6bc8cab47bab7cbba9ad
col26:   865ca8bbaeea8b7969a8b7ceacab8faa5ccc9fcdbeabbca9aabd78ca97cb8768cd59fc7bb69fb8cd
col27:   a6abcaa99dfeb7bcca9bab8c2eabbdabccb9fcb7bbbaebab9969b9d9ca66759a6a7bc6a8968c5dd6
col28:   b9999c888a7b77766aba76ca79ccfffafd798bba9678bdc7a96bac8b6a78a87ad78aadbc9abb79ab
col29:   bb9896ca9bacb69a88fd92c6fccfb7dbb99aa9d98e9dedcbfc9a9a7bb4aa8cc8bbbbae69eaecadaa
col30:   a9ab998e98c9accd868997cadde8ec7dbcfe8af9ef887dc9dcadc9bb588a68cabbd88dc9aaad9de7
col31:   86cbb8abbda8a9ccc7defbbbcae7d99a9bcbcdebceec78cb68bdda8ac62d99ceafc89dbb68f97cc6
col32:   a98bd8f5a96bc7aabcecdaa88bf8a9fe8dfbc99abcba86fcdafd88aa8bbbaebaaacbbe694dd7caa9
col33:   8a78bcbbfa7a99fbcb8cccca8cab7eee9d8aedd7bf7abdc9bac5bbac898edbb9c8bbced8edcb8ec9
col34:   998aca9695c7df9e9bce99cabdd9dcc8aefcddcbb9eae9bbea8addbfbf98d8ae9acdf9ea5dc89b4f
col35:   89a89a94bf8c9e8ab4f8c7add9ad9e9bee9fdbbdaaaababd9a9adb6becabe7bac9a87c8c789c9dbf
col36:   8c878789c9a79aceac9bdcec599afbad7bdeadbcedb99cacbbc9987e78ca5cb5cfceaacded66b9a9
col37:   98c6f88879dcc8b3b9ccabfcb8feccfaecafea6dcb67c8d9fbcbcbede799adc8ccaefe89dc9fcfcc
col38:   d87cdcfb9aa99db6ac9cbbbeadafcadcafc8fafaebaacfbacbadadcead8389dbd9cdc94999bbd9b9
col39:   a788697cc9baa5bcecdca69cbbfdc9cfc9bfc6bb5a7bd9ce8b7b9ecdfcaaacd6d5cfcd5ca9ecafbb
col40:   aac67bc6ebad7b799eebadc5defabee5dedcbedddabac9cc9decdfec96ed7d59edbaadbe9ebb99cc
col41:   a8ae99e896b9ae6bebaaf48cdfbee9eabedfcc76eb8bcace9bbebacab6f7bc5ad65bcfe9989c9caa
col42:   a899af9bf98bcad9d3c9acc98cccd8edcefce9abbc78cf4eade7bef7e8ea7dc68ab9f9995edb9aea
col43:   769bd898cda8aea775dcdcdbdaebfcdcddccd8bbcdb8ccbdfbecc9cbbcbfb9cbac8bc9daca9cbbb9
col44:   a69ad9caeccddbbb9ceaaadddee7bcbf8dede6f9ccdb488a7bdadbf98bc86ccab8bccac8fabbeb66
col45:   ab989ba98bd8bab6d889cd97cbdeddbb9feaaedffbdcd5cade898ecd8ccb6d99cdc8dddb8cab96e8
col46:   9a4eb8eaec7c98dc8b988e8687aebbbb9cdfb9bbac8c6acba9eeb89bc9cb47cee99c89ba85ddb5cd
col47:   8c8ba8abd9fdaeebbfbb978bc7d9eefbadcbbbcd9feabea9c89ad7ba9bfcbbbcdfc7c7d8f6cbddcb
col48:   c9bb96e9bb9d984db8b7cb86bcfbd9f9bbe9beccd9cca7b5e98b9888d67eadababadbc9b6daaf9ac
col49:   faab9949ea8cabd8999b9cfe8cce6fadaecafabc9ecdaeabfbcebababcba99989c8ebbd9de9ebefc
col50:   b9e9bab999ccc6a9a5bb8b8cbcedfbacab9daeaaba89bb588dbccced9c9c86b99897a9da5ba9cfbd
col51:   765989978cb9bc97b9d6967b7685e9ab8bdc6fa4bb9ad9c7278fd9949a63aba82878ac9db9656d9c
ROC:	 BPix_BmI_SEC3_LYR4_LDR11F_MOD3_ROC14
col00:   56e554648a767a9834674776ac7c6d8bc7b6a7ac69caa957b9a7aab8ba996a76658cc6b6b8867ab3
col01:   799585a351c58699b7684babd2a6ae87a9acc9e997adc9c79867aa6a9ec89cebda8a598aa95a8a56
col02:   77789b6b9cb977b886e9b7a7b9cc7eacac8bec6ca59acb9bb9bc887884a895b5645aca9789cb88a9
col03:   385576898aa6ba865438d9c689a8cba9bb5ba5d9c5c796c5a7b6bad9ab66bd7ca8abd68c6881f9b5
col04:   87a5792878bda7bd49d8b6ea4c96a7bbdcc4baa88a7bbbba6a885ecd78aa7b74cbb779b7ae98988c
col05:   3b16bad96b68c8547a7b67fe6ca9ca4d7abebd8d769aabac7969abfbbdbda7e79cb69afa6798d68a
col06:   7233b989875895da72acc8897cf889cbacd9ad88dbfb9c746b9b7bc89b989db6b8bbb6a8a5f97ab5
col07:   77c69819bd979a959cb6aae86cb9f89cb776b86db6d7dbdacacccbba9a8ba99666a5aaaa6668a989
col08:   656b958967a798668d978c7b99885ab7c6d9899a9babc87bac898d799c9c989a86cab69cb5897b9b
col09:   45a63c68a9c17a99a86b7ddb846ba998c8dce6788aecbbc8ab8b7dfe8ca6d8677e88a2dac88eeb87
col10:   44a46a75767a677bf93bdc9ab7ac888bec689a8a8887a6faaa97df9cb8c9aab99bb657cbd7da7fb7
col11:   545637ba6b5625e7669d688d7abd786869fd79a5b897aaab9bc9aea78789bb6965ab9cc855ac9688
col12:   56787498fb79c9862dc5bd7d86c8c8d98aab8aada598b8adadbba8d776bbbbc88ca978b3a7bca9c7
col13:   7584a8a7b8a859c1b9488b9a98999daa88aa8fd987cc79bb9a5aa978d8bacbc7a9c69aad79a6a9a7
col14:   8439b68967c9965666c9b7898e6e979f76ba8f8aad9ea6a7bcbdb77dad787989dda9b883c8b5a888
col15:   76978b8b578a9574ab7c589887b6bba97d6abed9fa7a6a78c9a95babab7bbcdc8a968a988babc8b8
col16:   875867c688974ab95657a99978689dd7b7cacb9789bac9bbaaabd79cc398a7a6abd9ca78f7279a78
col17:   625598e84e955896687cebcbc755679998d7bcaa77cad6857a57a9ab89bb6947a6898b6a7579769b
col18:   674a7599869ca6d9abd549878bbcb9aca97bb9ce9a7daaa8977bab599bb9cc9588a6c77895bb7c68
col19:   7877985858a84944b882bc4bc6c99db98ee6afaa99ad99b4fab94998aa86399996a9c7778768fc75
col20:   19243775267a887c4699d6da44bab8cbac78a9c78a7b7dc89899cabcf97bba9a6d8d7a6779699b9a
col21:   9a5b63446678a8d7f7ab87b6abb9b9a986f6c87de2ead99bb88da9baab8abd5bb89c79b99877bb86
col22:   7694596caa81887ab7a958cb887aec7cdaa6ba8dd8f8dc38d8facf9ad97bbaa4ab78966888477c88
col23:   652355876aa44777e8cd5788b997e7b7aebc89b86fba9abca7a9b57caad6baa39fb78ab99e5658a4
col24:   8448149a34487b683958ae898dc6f9798d78cca8d66c97bba9b6b999799e7c96c9b69949a9afac9d
col25:   79a377ba77b797999ba8c4877aac9db7d5ba7e8c9dada5b977899b67ebab6ca7bbc9dbe4d8c778b5
col26:   6589ddda5bb8b9b5bcebaae99dbb8c9beadcacc5a9ababdc9eab9bcb8da9d88cfbbaed86cc94bf98
col27:   58bb9c68c9789bcbb9f6c8c8fd94b7fbc6bcfbf58ca7b697bcaabbc7a87d7badaa576b8d79c9ff99
col28:   88a8687189a8958989aba5ab6fa99cbaba8d7b7a98faae8ddacd79bc97dbc69bdd9dc99a777bcda9
col29:   b8bcc647999c7ac7b89c8dca97dccfa9a8debecacc9a796cfa8b8dfc66eb9db7e6aae77b9adbcbb9
col30:   b758baa8a9f7c89d7be9dcc9c9adadcead8afd39babdebd9bad999bd8abeb7bbf8cdafaafe72bbd8
col31:   356785bbac89a9b878b9aa9e9aab69ddedb8bcbbd5a6dc7899acd9ac96d8cc8ccbad7dfdcbc7debc
col32:   a6aa989abc869bcc99ae7aedbcaf7ceb7bfb4cdfceb6c8cabeafaacedcdbfef687ec9aecfaaffcce
col33:   76b7967799789fa89ac7d6bcfd69cdef996fe9a6cdecabbc8dddbde7efcfcb88bdd9debc7bcdcbc9
col34:   77aa85d89b8a6cabd6cac9afcadadaced9ddbc9cabadadfecafbbe6fcebdbfaa7ceb9dea7ca9aab8
col35:   988b977baa9a7cadba84a8bab9fbaac88deadeabcd79a9acacc8bbacbc6ddcaddeccdc4cd9ca9ba5
col36:   db636a888a87b9cd8cdd8aebd7dbacdcbaada9ac8bdca798cdab6aec8afc98f6c6cedeb8b9bdaea9
col37:   b766bb798c7c9798b6a8a8cdbc86cbfadbaebcbecabceaeccbdaa99c8bafc9bbc889aabcda4eb69a
col38:   b8b6cf99accedeb9a99e89f8a99e99eacebabaeab9cba8fccdfbb7bfedd8f9d7ddd69cdddfcdcdde
col39:   5ba5bd86ca9a8aa8db8b9abdf9a7f9c5c7ca9afac96d8bfecfdbcbcfcdc9cdebbbaac8ebc9a7ddfb
col40:   c99a98c7c6ba869bccebd4bddb99a88dadcbaefbcdfdc9c6edc85cdedcffcabb8e9b6e8bfaadcbfc
col41:   97a976a9a5be9889d8ada5c8b9a7eadea9caabcdbedcabfc9d5ccfcb8ec8bcdaefbafc8fdea8fcbc
col42:   c4866697abc889a5cfc9bacabb7ccdeafcaafebbcafcdbdbd7bbb8cc6cdeec6dfafdffeceab9aad9
col43:   9aaa5aad98acc6d8aafdadb4ccfbacafccbd8badacdfafbeabfd77cbecdc9eebb6eca9cc97b4f5ae
col44:   9acba67b898adc78ec8cfabcdced9cadadb8de9cddeeda9ba7dbcfbffdedaabedcce9ddb8defcfcc
col45:   bbc5a95d996fb9aba8a99afb7d7ca7ca9e6fdb8feafdcb8aedf9fac9dabacd897a9deda8b9adabd8
col46:   ba6779669da6baaa889bc9dbc9abdb9bcabdb9b9cbecaf8ddadbcbccbaadbbf787bc6bbcdfccafdf
col47:   8d9b9aacb5cc977be498986bbf9bcadddd89eba8ad4ae9bbbafcbab8cc7bedadacbeab8d8b9acb97
col48:   89a7998a9a7bc78b876bbccccb6ccabbdd69dcdbafbdca9bfb9bdcaaacba569dddeac95baebbfc5b
col49:   7b6c94db5c87ab9a99abceeb89c7bb9cbaed799eb6ce789bacab8becefa789badcdbabcfce9bcb8e
col50:   cbcc7b8e7a66a9cb7aacabcfdd7c6ab99afadbce56bfaed9cbccd9ade9aa9ee5cd8dfa9c9d98ccc7
col51:   a75846c771698697ab5f7738a75d7777c9a86cbd8b78acb752a89855b99a87899877ac95b9b9bf6b
ROC:	 BPix_BmI_SEC3_LYR4_LDR11F_MOD3_ROC15
col00:   898a39494347256ab71975ab98868758777768648875986c6737547987766aaa797868a789d36696
col01:   b22a88a98ab5b67676a4653c7697999b9c588695a68a3a2979887b6a8e5447c98a68d8b7a9468978
col02:   6a455538b86ca7d7697d84a85ca967997b74b9885469947b9b7899298887b53a78399a797a3a6865
col03:   85697b969489c5c94a845564787c5b9c9cd9bd54ab77688887a8668ab83b8a69e7aa9eb688886a88
col04:   e957a8659589625ca3965bcb865aa97ab9796a7895bcacba9ce8be9a799c7a8db979aac99e79ae74
col05:   d779979c687b5586a9b97a989899859727598b677aa7759868a7795ca78969b799895486d69b7a83
col06:   949a96a5bd699794b96c568959a899b98b466c677bbe8799b38b8ea7fb76baad9ac88789a8b96995
col07:   79b5aab7dba57d74ce799bbac7c7beb677988d9969787b69b98d67997bacfc775895b7b694c9497b
col08:   b3c977b864837ab4775c74a8a8b99bcd8d9ab9c999498969ba9a687bba76876bba9bc98a38986894
col09:   8798756766b9b6897c899879c7b66b8ae99a7d899e596977bc998a59ac3c98697a968aa9978977a7
col10:   78969bab8588577387b84bab5ba3baa9ba6b7ac98c9a46aa7949b9db68ae887fa8bb646678b79c54
col11:   4556a57497966a5b989acb6387776aa99a57ba98a6839a7599ac778d98959778997e59188ad8b84a
col12:   ab688887b79c79a8785aaed9897abb996a8aaa98b7aecbd9c99a8c6778a79a8ab8e9867586a4b787
col13:   7877a46b4a4899b8a9ab6868847ca79e8878d9c8b588aaa79a4c9aa8b95bc8aba879c4778878aa39
col14:   889649799674aba5dcb7abda7aa99a67abacafb96798895c95baa6aba79a4a879cda7858a49a88a7
col15:   699b768b454692ad79a9c8a5948959dc8b98836c99d57ab74a6fa767e7c8b9aa698cb887b64a3864
col16:   78876a865879b4a786c9b7a687c8a9de8bbaa6996b88cbc7956dbde1a88464bc695928b867aa8576
col17:   a74a9ab676c8aa99687589be99a768698987887a8d8b8aa9996779789cb8b7665a96675686748b76
col18:   d83b599685878b4897dab9756b7a88b99a78a6a89869a9c65a4a698b6bac8b59bb796bb7a666978b
col19:   879989a89a7a797b8a8667ae5aa9aa76997ba7789d77b9c578568fa688b7666bab4cc988d8959687
col20:   a6c98766855b64b97aba7596b68a8d69b779c4a98b8bc9296b979bd7cfbca95777b588c9bb865566
col21:   6ca7b9ac5bb7a6a6ada9c796b8d386a969afa9d778aa9da9aa879a66fb79dcb8595b87d5c7a68666
col22:   37379d659c898a7a74995ac869cd79aba9b99ab86a998989b7d9b8a8ba7ba58897795b9479a87c68
col23:   6989599467a75a97669c78a9795b984635aa6bd87ba8ab5a98c6746c2ed8b9b74a499795399c8587
col24:   d76769979999666847b569a7b69ac6bb99c7aceb79dbb6a879bc9aa878668a7899a8cbb98a977557
col25:   b889b655a89896b8ca6ab99a8aa9987d98a5b77b9beceaea76ca9bc8546c9698b99b8bb576b88cd6
col26:   9a7589cb98bb7a88d9dd9d9dbca9baa59b9c9dcbbb7ba9a79cb98db9b8c5898a7ecb995a867d8988
col27:   d777a5b6abb89b49bb86ccbba898998c7a979bacc8a88b9ca59abda9a987b756ab78aa779aa86695
col28:   6bbba99aa79c99a999ba9ec9abb99a999bd89c8bea889d8a7dfa8a9ccd8dccba7b7988d9b68ae586
col29:   656b8769975a9acacaa7c9a9caa79c8ac787adcccbd98fbc8a7a99b8abc89e9abb98acdaa5cc999a
col30:   a9ac89b97776a9b6bba76ad8cb86daf9c88ac9bbdba9ccadcccfbcaddc9c9fa698db99b44cab59a8
col31:   c86abb8a8dbbbfcaaa6a8aad99fbad9adaaacf89fa9bccdf8fbafd9dc8fab8a868a9cbfac9b7a757
col32:   db5a7caddb7bdd6998999cadbc7a9ab78c9ecadcc9cfab9cd7cd9bfabdcccdeadb8a969a77cb88bb
col33:   86f5c9d789abbbfb8a67bb8cdac8c8cab99bd96ca99acd9bc7aabaceb99aa5a97978adcca9c8cb88
col34:   83e7ad796ae5da977a799fa3bc899cc8cb77fddbc948bac8dd69cacbbfd9ddad38bcc3cbe97d8dbb
col35:   e9cc8d7ba7987a88888bdadadca97ababcac8afbcb79baa9afdabaaaa6ea6acc8bcbddcdbcababa7
col36:   8796a7baa7a99d9a7b9b6cabce9ccbbadbbcb9d8a9a878aaca9fbbe7ad8ec98bddb7ba996bb8886a
col37:   d8e88a99aaacdc99a98ceaedfcdacd9bbe9a5bfadaeb7afed5cbad9badcfecddabcaff9acbc9c7b9
col38:   8dacaabbce7bacc9dcc7debeadcbaadcde6efcc99aebcdbfedcdedddaabce9cba78c998da889af89
col39:   8c8c9cb8b9cabcb97eb8cbdefaddeabbcbcd9fb8caa99fb7f9da99d9b9acbd8aad869997d8b989ba
col40:   b9aae7bacfbd9858bd9cacbefacabeadcbaaac7abceaac8dc8cddbe9bbcbceeccd9769aad8997d96
col41:   fcd9dbe9e8ccb9989d7c9eab8abdadcabdbea8bafabf9cedbbbccceadda9cbb879a8bc89f99deaaa
col42:   5dcabb57cdc9a9cab9fbc8abe88bd9c65d7bc5ac6aaeacccabcaba9dddadedf9ecbac59da89bc5b9
col43:   ebcad7d7d67dbfb9edbcbadb9eaeaeabcccebc6bbadecd6dcabbfbcbcb8cdbcbca9fbfdb9adcdb86
col44:   bc7d7bddcbbf9dcd9ab9cbafceefcdabd8fbb9bfdeccbcab9deedcddca888de9d9cc8e9acd8ad999
col45:   bcbdbaac86bae89cab989afcdceafbdcda5cabe8b99cceafbff99cbabbf5d85a6e7bbe9d6cdbabb7
col46:   bfebca8eb9dffbd9cf99cdbc7f998dadabbafc99afbd8daddd9cbedffca9dacdde779aabcaca8ba8
col47:   7b97a8dc4b9fbbddab986bf8ebcbfb9dfedfccdcc69aedead95bb9ffab9eebfaabacdcde99cbcb62
col48:   dc9bcaa8bbcb599cedd6fbeaebfbddeefbaabbdaccbd8cafca8fda8c8bfbbf99a8dd99ddd76aaa8b
col49:   caaacdbc6dfeeaabcccddead987aefcaecab79ffbcdbfdcafd8accbcddcc69a8b89bfd77b9d7f798
col50:   8aaaa9ceeeb8edcfcbacbc8cfcbbafbbb7cdbcb9dabaaccf8cbbe9febfbcacefda9adccaeccb9ab9
col51:   ac699979b8787a6a96ab76b5badc898cb9abcaa8a9c6a9b8b999b9c9adba9bad79b9cb3a6676aba6
