ROC:	 BPix_BmI_SEC3_LYR2_LDR5F_MOD3_ROC0
col00:   5675195534652761b586ab3237588749747756a7565b683668786375777354656545598657861416
col01:   4784bab994399774676868778759968769a6b6688899e9787a3698689a68978a962478a96177867a
col02:   56544842778b691988796ba9b8975485a4a2983bb7995978a385a91aaa968a77685d24912b876536
col03:   754674b355884aa8b56746c68958a824967d7c593597ab4975a4a59a79b39659977a699a8da7b672
col04:   9212549695275c87669a2b9b289c979abaa9b5869c6858c79ba6a8da8c556b68a897652649697aa2
col05:   365686437755b618a8a5f6c774964588898a9974956a7ac39875a72a9abe74899c5a796564556a54
col06:   778a7ab45278b79b388475a9698887569387ba78b4a457ac347977d938697553a6b466959521a344
col07:   778aab5768849a666ea89b88a565b84796d6597699aac8e98b98876a97798998a597899b64a8569d
col08:   39657666896775946175d99748885b1a7a63c3487e67a9bda858663873ba65846791a96515463695
col09:   981669432b151966786a749784c92c759a495b59815736ad89d75c88448a8a7c8b68377755a29575
col10:   87586245685777346a48778976677736c67647598b98b5aa7877c6b978779abb572a8c8596a53375
col11:   664585a5486657b69687945658946849759ad24bbe7c7b887c6acb74ba8c8cb7848773a589578999
col12:   169135886618656aa768aa46558a6a888ba877aea778b944c68698768a68759474667664a7878415
col13:   794525977a95749a8a46987a6669b9cbb8aadcc57987566f9b7a3aacc8b97688a1884d94b939a94c
col14:   65546b6595853943a968387a2bd7b569ac9a54ba86897b9a87a8aa98aa9b6897b17388c46686a8b5
col15:   46727563a96b65678a4558b5ab4689b975879c69a68ba86b66587aa5a775a4645648858366397e77
col16:   556337737359886a88994943b7a3a8a8a835de9eb794697b9499b7a87a767b17778b79d98695b686
col17:   55893794475b3b6936b77a74775bb55d2979cd949bb98a8967978c8869776a5ac37966b7d6735875
col18:   575353677489b7578489589b67a745a7abc988a66548ac78aa97abc7ac39999544673656889576b7
col19:   6a2946a5b7763a653986996abcb79ba3ab96c78748a8b65766cd99b6c88694a876599768489b8516
col20:   388336477635569678644a36667588b87babac8b5c8765cb67c6799a5388c9998a5587358979a755
col21:   6687957676436717b7b76885a7ab58a77c97aa767777ab86976b968576a798b89674a76664b77583
col22:   5758ba148634c76599787999a765985b8856d47a95add57fcac5b895aa7793869696a86683989895
col23:   336523a82a5813576675a6b9857966d7798ad969b64aa8b847888577486977c678ac7598987a9865
col24:   55a557774541985a9ca5a77977539caab8926bb4b7a989668c4997867ab5a55aa996a68695a85768
col25:   5452a496959755a76aa76a67765c569c69abcdc8787a4a6748cb969caa59aab96b97ca379499b965
col26:   937788889668c78889cd8bbb7c75bb99c8db9bbb88bdb6b65ac9899f78869d7657e59ca679c964d9
col27:   49a54579b558a6ba9a497a77ba798688b9babca888999b6a997cc7c98bbabad7ab8b7aaac868aa85
col28:   73348b778789ca894998f9daac9b88b79a8a98ba8a98cac79aa888ba97cb7a7548c8aae8889868a7
col29:   9764749bc959387a3eda7ab8dfd8e888dec9869e998ad8a8a9d8aacce977acba6ab6ccb9b2d9b78c
col30:   a573765b7596789886cc7ba79ebe8bb6adacbf6cb999a8b9c8b66abbda7986a7cc87a99da68964a8
col31:   9597d7537938ad7ccb9eb945a8dbb8ac7b78597aa897769cbcba79c5c9fadceaaaba5a677cebc8c5
col32:   857959b9b7abf87acdbac59bd9d968e8689aad89988ad5cd9da7d998dc7b9896a7ac6bdb4763a8ac
col33:   a7b87a8aa8ba7b77a9bdd776c9baa8caa697da97fe5c8bcafaabdb8a9a99c9c7af6ba7fc9819ba45
col34:   a7f557c7ad9abc84b8c69bc9b9c8ed9c9adcdaca9b77b7cec9da7aaba9ffdcc9abbe89ac7b979c89
col35:   c49789be995a7886847ca6bc6b7fead7cfccaefca8c7ebacaaddcbb6a8ab98ac7cbba877b9448aca
col36:   6555ab48799996ab9a97c9b96bc78bbdabc9bbb9ab8babaccebdcaa98dbb6a9eed887b8aac9a8359
col37:   c576aadd8aacbcd876d7d7cb9ab8b8fc8daf8acbcaffa97bcff8aa7879abadafcca87bd997d7cbba
col38:   86648c6aa795a638b6c96a8cbeb8d6dcdad9bedd3cebeec9bc8cfbc7bd9c87d9fc6aafcba7aabbb8
col39:   855687399aa6c657c877b6ccab7b9ecb9f96a6c8b89bdbfb7ac9fada6bb9cdba7b867b999b9c89a6
col40:   8688775bbc8d9b77e96cada9bbbeded8f98fc6cbfba8dfca9ba7aafbcb9bb989ba98c7f6ae6dcd87
col41:   678a858c8de6aca89cc9bca7a9a9bdb7fbdfffccb699bda8aa7eeaadbb98babacbbcbabdecc9f7c4
col42:   86978aaab8b6aadbc8db9b79b8a9bfbaddfa6abbeaaaacdc8c8a7fdaa9ea8acaf8acbabf6d96c897
col43:   668a97d79bc99baeb5ccbccc9aceadcccc7cf9f9edcbcbbcbfafdbcbdbca7cd979ee69fa6e8d88b9
col44:   8575889d8a9ab699aabcaa97ad7dfabc6abafd6ebbacddedab6c968c99ba8dbcccb88cb588b7bc68
col45:   97857aeb75acac8bbdca88bdbbc9cdebcf8cae96c8fda77fcee99c7a9cf99db6a2ba99aa9aafdaab
col46:   9ba269abc8899b79f8bdbaecdad99abcdd9abbadcffbbaaae7bfbacdbaa89ccbdbecdab7d779fab7
col47:   578786ca9bb9b78bc8cedba7b8ccbfb8abbfc7badd9adcdcaaf88cd7ea7cacbcbc7aade98a99cda8
col48:   78948774adfc548caa9cdd789bbffbcefcdb9ccd9bb8bdbdb99d99baedcacdedd9cadcc89ebb9de9
col49:   88abc6a6ac8e97cc8cc999faefcbc9aa9ebcdcdbb9bfbccbeecb9bbc9dcecbc7dce8cabe9cbadceb
col50:   7748956a9d7cc8dca6bba7dccccbcebabb99aa8a9cccbbbd5cbcabbcadbbe7addb9ddea8dbb7c9b7
col51:   c797a677871ca46788986a99a988a8fa1b7aa4a868486c7a9ca8c9b7988a5baf6abada8d9a97dbba
ROC:	 BPix_BmI_SEC3_LYR2_LDR5F_MOD3_ROC1
col00:   4a4255a6a7966877998978c8b69898ba7da7798e7a897b98589bb46e4a5a96ba7d78a7897788abc2
col01:   a94ca98a8cdcc6da9bca9a8bacc85b8bdd89adae7a79aaa6b9faac758c8aecbcaffa8da9bb6b8968
col02:   8a9958947da7c8b99beac49cdbc7aab96f7ad999b9599988cdaa679a84b99ad9ca8b7c699688bb75
col03:   779a9caa57c89cc68bdaafbb8ab8dac899a8a8f9abbabac6ca9be97ad8addba8ad638ddcd7b9a497
col04:   7d649987aab999db8fd69ae68ab78799a495eb7c8ba9dc7cda8b6ea7956a96a89f9988c95ca79848
col05:   baf477999b5ba76cbba75dac9aab9cd8ba9c96ca99b9a7ae468bdadbddba8ba8c9cccca9879b86b4
col06:   87b8895abcb7c87aacb9b9cfbbebd8bfdabdc99aa9a89fba7357aabea8abca76c9a69ac89ca96b78
col07:   b77a4a5a7e9aa977a85ba7c8a7a9da776aacb78fab9ac88ff9c6aab7c8bbb94caea786287a9d69ba
col08:   786aa9b2b8d9b898ec9bda6a7cabc9d7ca7a7bfabcbba889aa79faa7c78c889796a8f7779c58b869
col09:   9986e95b75bb598a88da8bb79b7aea8dca9cf9c1bcc87b7ccbaaa89d9bbbcddab89b6a87b5cccb9a
col10:   876bd9b8c9b9a9e75aaaccfa59c9aab898a98bd9bc75c9aabebb99cc98faba96b896cbabc7aa69b4
col11:   665aaccca97789ec988babb9b8d73bc8da9aacda5c86db9ac9c99a4886d8849b89f9b7aaad7b87b8
col12:   79695a83878b9997ac99d5a8c8ac8b9aa79a8bafdab8a2ab7bbada9bc8aa88989cb8bb87c9a77a46
col13:   e3aa797bcaad9bdacbdaacdacc9cdd9bfaa9bbadfaaac977ae999bfa6e8999a49b8c9dd969697599
col14:   77657674c88a7a7a7aabb6a66b7c978abbdd9ca8ead9697adb88ca8dba959d797987cbc8a868b785
col15:   8b458bbc972aaea987a8b7769db9c99d9ac5d6b9e498c8986cb84ccaead8a7dc388a9b8988a89585
col16:   49898495abab8773ddf7cddaacabb9c9daabcd9a767869e8cda9c9b9cbcc898a9967997ac978988a
col17:   6556a98c378dd7aa98c678b7d9cac8aabcab6c6ba9c4abbba6987a88ec7ba9baa9a6865856968981
col18:   67aadd8aca9c69bad99b76c986eca8eac787baba9ab5dbcbbc7ec89aecbc99887c79797a6a8789d7
col19:   89b885a67a78c879d9b47bb988ba79bcca778ced7b7babbaec94aac89b998c497a57b8955bc9ca78
col20:   9861dc778929867bb97888aab76b788c6d6975abd9a9aacb9be8ca99cc4b8a7ac4a89dc895579266
col21:   676794a9a7ba99baa8f9aae8b7a9fa7989bba4c7ead4f88a87d7b69ea9cba659ba6b9968caaa9867
col22:   8758757b7ba4ba9a89788a9c9dfad9db989c9ad9ca8bb7db88caa9b9b8699bf95a6a97ac97c68987
col23:   6a897594678bbc773886b8a9b87957c6cd8a99d8acb9b789b9ba97acab6b3b79695369a6a8636a77
col24:   7767cbfa6a569abb9b6bcb9988fa8a835dbbfa799bb766798c7a39b95a9baa978699566bb79778d5
col25:   9827b887a6c57c7d6b4ec7a7c9d89bbcb58aa8a5b8babb5879c9bc86c7879a99899a78b714987565
col26:   72ea6adecfb94aaaaccb7bb99dbcc9b9bc89cd6abcbad88bdabbeb87896ac9d864d8b74a8a976899
col27:   b896eca77ab8eebd9b9c88f8a8cbbb8c8cb789dad58a9cdc75ca5769c9b8a9ec98968b69985889c7
col28:   69c7c16ea8ef7dbbbc8acdabbfbb8bbaffc67bbabcf99d98e99c9ccdca988bb9aba986b96acbc7b6
col29:   7a777a8688badcbb99a9b9cbb6a999f8bdf96cea989d969b7d9aab8e5daaa8b9bce97dc65aa59599
col30:   9789cd78add4aae9c8eaaccebdcdfc9bbcb7fcaccffba9ae99cb88dabaaab9a78399bcb9badce75c
col31:   66c8dfc8bca8cdca6adbc999bddebedc9dbac85fbcdcaab9acccbafadbd9d9ecaabddbb268c85c57
col32:   88bfda8aa698abcabfafaccebbdded6aa9b6fb9abdd9c7f9d7bdeafa7fbceaed6c887486889998a7
col33:   be99a7bda6cdec8bbcd9b99ebcbefaadcbaaccacebdbbf2bbab9d789f9f8c9ad9e9479a7d989c685
col34:   4a6ad97bec59c9dbdcbb6a9dcaeffddfa9abbfabcfd9c7dfaa8dcad89cd9b7b688886a9faa9c6897
col35:   96bdbaba99ae7aab7cb78acbec89dcabbfcabcb98db8acdd89ca9c8b979aa27dac9db989a95b8876
col36:   a99bd98acaccc9acb9bcbab7ebc9bfbbfcbddfdadbaeea9cc9dbacbbcc88b77abb8d9978d6bc9488
col37:   b8c8fd9dbac6d9aceafadfdddbacbfdcdcbc8cae9bcbbeccdfc88b97dddbba6b8afcdca7a9b96989
col38:   accba8fd8def5adecb8d9ceaceed7d9cc7e98dbcadbbbbcd8cc9b7cab99996bba6697a8d69fa98d8
col39:   a4da7bfc8f9aecb9cdb9fdfd99acbeb9bfa6babedbb6bba898969a95bdab9d57dc899bd3c9bc9ba9
col40:   8c5cbfcaebc6eee7eadbceeaadb9cbb9bfaaa87dc76eec9ccd9f9cb8d9aaa8aa8fcab8bbab78abc7
col41:   eadbdcbacdfabaa8fba9dabcd9efedc8f5fce8afbfb8ad9ddd9d99db7759abacc8d9b7b8c9b75d66
col42:   7acad9b9abaacaeddbdbcaaeba8b8e9dc8bbd9a9ab9bfe96bcb79b7ddb59cb89c7a8b4d8cd945a6a
col43:   a99ae79bbcfbd9fbccfcbaccceeedceeceeabebd7fcabddacaac8ec7b86ad9b99d89a6abca657785
col44:   7bdbaa666bddbdd7ac7cc9ca8febbbc7cae9dfbd9fbaabb9d9fab9ccc6c9bbcc6d98b8bbd683a9a8
col45:   abdabbfadcfabdabcda7cfeeda9c9acbdcb9a9c8dbdebbf8deaddd79ca8fb999bea98b8be5b7b767
col46:   8c9a79aca9dcccc9acedbef7f98a8aecffcceaf4d8f837ddabd6b7aea8acb989b896c979a789c5d4
col47:   eae8bb9cbaacceacceaccbfaed8accc9df8acfaeaced8c7af6c58da5b99a9b85eeb9bc557bbcc898
col48:   bb8a99e999de878d8ffec7abca9dd9f8ebfbd767ebdb89ccccaa9eccb97eb9695b99bb6676eb89b7
col49:   b69bc9bcabdad5ebababfecbabdef7bb8bdd5adccbed5b7c97b89d9ccbcbe7756cf8898ab9baa979
col50:   c98abaa8c89bddabcb9b9acafbcfdd9e79eaa69caad7c7ebc98e9c9f6aacb4747bba898ab899a747
col51:   4778c77c74b6bba78499b9abcebcabe75adcc988ea86778556668b69569864a4786894a68b758a94
ROC:	 BPix_BmI_SEC3_LYR2_LDR5F_MOD3_ROC2
col00:   6776ba484b96246784645b35367b34c87b4a979876ba7784657486b756e88b9568784953655bb55b
col01:   85b88aa55638da8a94a8caa7d7c89ab45efd7aa8aabaa78c8892ca8775dd677a9a7939678a577689
col02:   467476885b6b6b7784b7a9d979b88a829c5b86a75ad84986689317687aa86ace885c77a38689b781
col03:   4978966dba789973b5d956babe89d8897d6abbc77ba87bbb968a74a7a65b4989a9975d59a7c5a981
col04:   7b7975b748d49869b798a7b99b7b97a8bd2e97746acaba5a4655aa99baa79f8679b47d7868685988
col05:   7827c989792887b99779d887d9aafab6773f77a97b889c7ab936e879788a4a99a879b8889967a356
col06:   69aa8767a78a5b5879a779c8d94bbfc6697b6b9a7c78d987b8889c7988494a69aa6a8366b78a4387
col07:   b4797aac7856979a7a7a998b989ad69b58c6897d8947727b6b99389c68589557665b976788a78a55
col08:   9a47a6a16b93a7a65ba8ab898588c8889a89c468657875a93677779b875997a8665a787366437437
col09:   a83496665a5599c7aa85aa898be957d9aa8b7a8dac797679c77c9699b6b99b96a1a6666669a7c58c
col10:   8479a98768d67946a77a8dbda997b59ba68ca9bddbad73c5588bb6a76e5cb987b76588a6376694b5
col11:   757778845b58b89ba584587796a8d5c89b575e8b77e667797ab5a589a6ca96593844b17db694667b
col12:   57698a8677929b79e168999a57ab9499bcd984aa699989698a7898a866a8781954a9667946982684
col13:   6667b6658aa789a5aaa6e88b889ca877d4bc53bbb589958a778987b5aa8a7b79b91ca3a855a42574
col14:   3485757788a7b68b8ba786a8b687ab78357799db59ac9663d8978b4767786977265a5986666969a1
col15:   c5484838a7978b9895a6a7a69b6aac4ce56398848c6999975c9ddc6b794a9cd776b486ba9a758966
col16:   56895e95a6bb988667377488b657999a78a5789aac7885b7a988b98aabc878926a9969587a88e666
col17:   5723778797b977b689a999877698998c77879a72a885a788adab4999a8595a59453a6e5354469486
col18:   7645996773ab98c976a32a899859a85b797a388ab977986679896ac6988696a85975b45958749784
col19:   3788268a8c75ab967ca7a78a9768989bbac68a9a8869bea79bb48f8599a9976b2869a78757657464
col20:   256438764787899879885379a679dab888a878ab9845f9c8a796596aa4629894468587955668a645
col21:   45788665b985a6c8a57ba4ba77ba975d98697b657c97a66997b4979c89bb29b9397ba87868374897
col22:   387668833898b84886abb888bc9994a7c967c8d7899abb86a95c798965b92b68a37b677595ad8b66
col23:   36657379aa565b8a98a79a98887799b8b6c5c75665ab79ba99894887968468785b6e772589788855
col24:   5645898c59959ca6b8b8a7bf9c6b7375a998997698a49686bb8a6a77817c67976487787997ac9836
col25:   a47b68689b68d8a9b77eabb8978965bbcfa968c87bac6b9b6bbc67b9c9b2c6abb7667b5b58877c91
col26:   79879396c7b69a78a97cdc59a9989bb998aa8996aabd9a8b9b7ab9a58cb9c6abb4898a967c868452
col27:   8ba797c698677b688ab878e8b788c9ca898a9ccb9686b988a88a59caa792ae56bc957967779d6b78
col28:   7858c789a678686a8cb8a98a7bbbd899b8d9ab8a87cd7aaca5b8777badea9798a8bb57d3db557593
col29:   6b398ab8bc88aa8dba6aa8aabe7accb9aaba9be9c9b696d889976b798a8889bc6799b67a5cb88a75
col30:   8a89ade9c7aba47aa4798bacd9ab87a9b889ca6abc7787a599a96cd4bbba97a658899b9b68a44767
col31:   984e879a989c775dc7c9a7ae89bbb6dccba9aa6bac9a86badbba989a747982ab6a67e69a84c946a7
col32:   855a898aaaa6cc5875968b6b9cca8b8d99679997bab969c8ab678856886969b7998b8cc9bc559a97
col33:   78a7967a8ba7b998bab9bbc8a89dcea9a9aad6e96baaaaad727daabcab94b998467b977d8696b568
col34:   55449978c8688b877a9b95988c8aba99b8bba8adaa78aa7cbbbb7cc959b8a97abcac7a79aaa99379
col35:   968957b9dbc9aba98ca8c7a8cbb598a8bcbc9aacaeadda88664bd798469c8b6db9a9598a77aa8a58
col36:   676d8d996c597776579a8a9bb7aadcf66cababba887b6b7c9aabbabbca78f7c7bac9c877a8a77273
col37:   a88ab886a95ae6aa97b89a9b8b97abbbc9d6ccd6889bba9aada997a77c5997bb85c6dc88797a9555
col38:   957c76ca7a879ba5a7d9b9cdcbabc9b7ab66be9c99c8a898aaa969a8d8682a87a7ec959997769999
col39:   84a8d8bb9694bdd68adaba89aa88daaa89bbc8bc79baaa9cac76b88786b8957b99a7de9aaa6b6ab7
col40:   8a7b489bc77ccac9de87bda9ffaaaa9e8bd7b97ea9eaaebab6bce9b75bb99aa9a63a86a6c68b8958
col41:   a768cba989a8b9778a7cadb99eca8a9aaa999ac95959687987ab5caaae889969887b9a5b879979ba
col42:   79989b59bb7698aa9ad9ddda9adc8a9fc888bad99a7b98daa7ac89a5fadaf5bd986aaaadca9c78ac
col43:   689a81c9edacabab7bdc899dfa5ecccb68dad78aab7b9899b89baedeb9a76dacb85bb8858798896b
col44:   b9989abaf6cba999cb79a4c9ddea98bcbb68be96da7ba8c975b8d9aa87a9aaba78cbe75aab77b888
col45:   75b7dcbf4796a9e9ac7899b9aacecabb7cbc9bbaba9bba86ad5cb77bbebd9c8d65ba9b8696a6b958
col46:   4588dccc7378ab9a9bb6cc9a9899f899b9a8989f89b9799cba8859c77a67799c979695d9985888a9
col47:   8ac699aaab7997bad7d5b59bdfc7b8d89bab897acba9a976b9a697c9bb7aba6c98caca7367b67648
col48:   a769bac88bdbc57cb3756bb78daba7978ab59af6b8a99acb4e9cac64aaa6d999ab895c88bea97ba7
col49:   a86ba5f57898abba6bba7b77ea7ad9bdc6a797cad675998b8d96a7cbd7e99a8dd87669a8bc9a4489
col50:   6dcccb5ac9c5bc9bbbeb6ababc779b9ab7baf9a9a96babba569b95aab87968ab8b97844cc85d6aa7
col51:   45586869ba749575a7a4999986a6a87aba468879767989b19b787a5969a8bb8c85a4845867948684
ROC:	 BPix_BmI_SEC3_LYR2_LDR5F_MOD3_ROC3
col00:   69556357746743476a9856176b97987a88799b9878878a499266844954a537788a47516568557663
col01:   497779829676698a57964b9ac9798c967888a966a8299a59aaac798a585aaa58b7865277b8552455
col02:   547645556669558788a648688877835a98ba44c8cab777a8a95777c6676548b9653ba98556199974
col03:   5b883969746a7aa6d7749e7a7aa4c6b868889aab989858bac87786c8d968b5787763a87479c65a21
col04:   549577689588ab6a8b94789ab99478a999db98c698d9ab6a679a97938749a67665596b4566c77636
col05:   5b7847698686999785a858a7b8886c9b8988c9b8d79acba55bbb996a7a667963a687c6437956a735
col06:   465c47a8447b66aa8a78a87b9a69c89b99a999b776a5a977ae9b8938685a958976369a4436388477
col07:   87b26583b49949639768567ba758579b68ba98b88a576a96859d5675a9a69a58857783a5e8534696
col08:   776a9b498474387664376879c9797b5c879a6a92c969b9769a6bbd7c96a585456659a37366337333
col09:   95a774978b97a7999566ac77c9cabbd788a4879a8899a88b747c8789c876c978658853544478b563
col10:   5566787857368aa9d8ba67bb8999997776bcc697ac684bba9bd6785899467596a877455585a6a363
col11:   678a35b7976899448aab8b868bb56787ba686957c499db666955ac29579b87696657c94325666852
col12:   67599937bb655868e788bb9798978b98899ba768995489b897c99476956b668319a7665a55659626
col13:   76a66689987629aba3967ab89868784a9ba49aa9878ac8d8ab71b97aaa1996599855b45447986357
col14:   567376a5388846985d8639b699c5897ca6c6b89b8569ca7863998694b8a55b748a76665475925161
col15:   699787897d9a9a979a787779d5d8a98973a9ad8799868487756879b9676697aa7876698672477872
col16:   76857a7729539999788a76b8d77a9847896698baa485895678a9abb4a464b748a968b67699954557
col17:   5668968785769a7a98877a7898bc68997a7657695695b75a6b7e6758586466787469377385754433
col18:   598576b74c796ac4b68a9a477ba6d98895aabb9a8aa8549a6739778a69a575435925766839843796
col19:   6677b66555c2da6847a787c8c7aa96b8b8a9a7a98b86559ca7659a8a67679737b64587758736b782
col20:   76396587148986767794876774668aa9c7579b89965a967879a61b798a868b7a9677675876855674
col21:   45c63a567a7965b9a868c958999d999abb77996c9b77c68898a8697a896577674bc8888967575721
col22:   586657a872569b88ba79466987658969977489778a9c8c589a85c5dc87977779684884224b667654
col23:   528a516497aa8678898599a9abc969a7868a74859779499698678785766658b36139817563576a62
col24:   a7a76876789a697b3b6888cbb99578899779a987b6b998a87a75778989894656a64574625545b264
col25:   74559c6578d8789aa6494c6a9c59a5ab756b8957697b6988a888a497b55ac3777294844648763444
col26:   a879abca588997667a986b8bc99689685cdccb769d9ddaa8b868d78c776b597a88a58a79b6a77755
col27:   a9878c4879a7899c58b3aaa9a889b99bbb7c5d9888987cb5ba8997aba97478a989577949666b8876
col28:   ca7eadab87b5ba89ac8989a9f8bac877999ac8a6b79978e8dca67665a97875777c92b659d787a996
col29:   77cac6398a67977aa9a4b9aab5788c7a99a58ab58aaadc6a7899bbbbda488b669898893b474a8ab5
col30:   84691b7a69889b9ba97b7c7b9498b9cb967ac9fbb9c99ab8e96a76ca787bbab9ba9a96b99b969787
col31:   d98bab56a9ee59c6689ab8bd99cc7b9a99ab98b8c9db97bba9999777c9a8cc988967546b79c8c687
col32:   6996a698c7b6ac786a9abbbba57a76cbbdb8bccc9ca6c85788b9b96998aabd39b6398a94b76b8675
col33:   9bca8a6baaba877b9b678b85899c8caccd8a7bc6c9889ba8dac8c68c9baa7c9ab78d5676869999a8
col34:   4883ca6a6cb97ab78889a57d8879aaadca9b959ac7cb8acc588999b9bbeb79a8d8db95a689957899
col35:   87a9ba657b798879b6a99c97bc9cbc999699ba9a9cab59babd9a899abba9c6ba99a8987aa979cac5
col36:   88a899a59a9aa8ac6ca896ba689bcbe9a6a9bb7bafb899687caa87b7a79a7ba9dba8ab9b888cd859
col37:   b8688c9a2aa87aab98e95ecc5b9bdccbbc7abcd978b8998a9b88e96b979cbab9ab88c69b8aa8a998
col38:   8bba6c7bc6abca9b5ba5beab89cb77f799ffbb94d677c6acabbaba9abdad78999bcb9cac6b787aa6
col39:   b97aaa3c9bcb97c9cbac967e9b9688bba6dd8bde5acc9a95999daac89aaad9d6ddca8dbac9bc8b95
col40:   3bb4b8996aaaa8bba976e99cbcfbab6cbc98887999a997aa9d9c99acabcf9bb9c9698c7cfb9bd997
col41:   ba7b5877789b9ba5dab9a89abbba949cecbaacc9c856c5ac87daeddccaa99aaa8b7ae89c8d86bcb7
col42:   e8b989c5c9ca89b8b9aabcbdcddfcb9b8b7abac79adbb9cdbc9dbc59a899ccc96683778d9bab7a68
col43:   6a8ea699bc5a6cadbaa95da9dfacdcdb98cca79ac99aaeba9dedbbcdccdcbc8d7b7bd89abbccab77
col44:   57b7a7daa688c98958bab9b9c989b9bf9abb9ca7798d8b98aaa888fb8dcbaa8ee9b7989ca9a899cd
col45:   9678b67c7997a9acd99cddfe998bbddacafa7bcdc8bceba679b98a9acdcbbc87db7bfd9988aa9c87
col46:   9acaab6959ca8b9889ca979786ebcb9cbb8b8aaa8c87b9c8b785baddaabaf8ddbecac6baac9a8986
col47:   979a6778b96ab9ba9bab987a9bc8ae7acabbbcb9c79c79aa7e95a8776fdedca98b8b9aca8c867bc6
col48:   7879a6acbaccb9bc98ca89dcaba7c8cadbab99a8777c6ba8cb97acad89cfde8bda8a8a9cbbaea668
col49:   879b46aab888a899b96a8acb8898dabba968ecaa8c8e9b96ba67baa776a9abc8eecad698b9bd9ae8
col50:   366b4ba63b767cc8cabaa986dd7bc9a8abaca9cdb9d7878c9ba8cbafdb9bbbb6eaa9cdbdbd9cb9ac
col51:   66c366b7998a768298a9988ca88738958967b99a88976a99ca888ba4b7cd7a8988a9869b79757ab9
ROC:	 BPix_BmI_SEC3_LYR2_LDR5F_MOD3_ROC4
col00:   74355899aa6332a95684479a9b9b9d56c8798897a49568655d35d929b9469b768ca29648866a6875
col01:   7a486b65a7bcab87b9688aba8a9887c77988a769a6daaa685ba86b7e9c7c9949c688ab8bda579b68
col02:   767789679388949ba7c579d76aba67c98ab9e8ad87a6a876631978b5966abcb678abc99766c5ab53
col03:   81668a696a7babbb766a7876ccbb6a9caa6a99898896c789b38988baaa88aa899367886747699597
col04:   539d7285cc959a6bbaa9a8887fcda897aa3e9599bb8acba395b79799d88ac69a8599ababd79e669a
col05:   569344a57ae58858688a48d896accd85a7baa98d9c77876b89ac8b5865a7c78aa97756a3a9d896b7
col06:   645888767a9869998378b79b837d4c8994aab35c8887dc8688ca6667794cb84aa5da8bc6b8857b9a
col07:   78b778965beda7a79b8999aba978a6b5c9b5b6795ab769f98999a899b9b79a878dd876d66cd76977
col08:   ba575ab88b89b6c4a99ab895996bdba8899baa8bd77ac7bd7aa789b8989c6ab67a988a418c597b98
col09:   76986697a77998a7668ba896ead6777a6ebe8e979abd54a8a6af7a96b72a8ba69b7a68b889a777a5
col10:   75b95c978a598859979abe6ba6a59c9a6bbaa57a6a889a7a6b95c74b97a7ad8a97b86a8abc799857
col11:   6898853a789cdab7a88ba7dc9aaab769c977a664bdaa7a9ba989748a69686aa8c8689a489b6ac5b4
col12:   76476b77898a8c749888a97868bb9ab98a86a8ada69b78889fa78987a98b888ac789888592a9a78a
col13:   79ac68ba978889d978657986ae99b7f9cbd9fbfaa9a99b789a98c9a7beb7a997cab8d5896a8bcaa4
col14:   59786c529b865bb9d9bbb95759ac6b98a6b9d865bdccdbcbac9abba9c98ac7acc79a79cac5a7c78a
col15:   b686689889a7c6a9bbad678868a7a88ab79ca6a9986bc7ca8ba967cd1c9b8a798d96c99b89c79988
col16:   7936cb88b787ba87ca986b783668ebabba8ca8685a6ca897596896b977c5899aa6da89999499ab96
col17:   65487bfa769c895ca7d8a69bc589c897cd8f99aa79ab9a4e5ba86ab94d4bccb88a496aa486998751
col18:   84d4869c888b4e773a97abc777a88dbbb9d8ab99798c8866cc89a9c99698a879ca75b5aaba6b49a6
col19:   9986a4b8c9bb769ba9c98c8b2b7a78bbc9eaa987bacb777a88acbacac8b7bb55cbb89ca9bb968994
col20:   466a69a979aa97d879a4bebcadedc8abbb78ab99a9cdbf81a76ba9978b88a4665a4398bb7aaca9a5
col21:   818676a9a756485877688da8d8788a98dbaca95bb9b7b8bb7a9c99995e8889adbaa767ab6b6779b3
col22:   74a7a7c8a467b8baa36bb78976bb8c5cfa4cd99dc79a99ba7ab8aa86e5859c69a69a68d95cd5866a
col23:   a67ca8a74b77ae887688b79a9acdde9a3bc76a94a74a8bc9bbaac99987976682727b8b666e65aa67
col24:   a9b8da9a6892a9a9babb4abace5b6be9cd88ced8b8b68887998b9bbc8a8bb67b8a7cc89695979779
col25:   998a867597799b667a75a8cd87bb9bbbbcda8beb88fa88b9f9a67ca49cca9b4bc7b866b9b9c7b7f8
col26:   7bdc799a79b96d9dc9ab899a9babdedcbaddebdbd82a89cddc6879aed9bcbc6be698bab98a9a9bb5
col27:   728a8a997ab6e87d88ccfcdaaef9b87aa89ecbadb9c99dccb9baa79fcbacdcbab8ca99dda999e898
col28:   a5c3cc8fd9aba7ea9caaadcae99facfbdac7aedecac6d8cabb9deec8cba8bfb7e9b8bebabbb8aa94
col29:   965a6c9a8b9eadba8dbebdbecabb9c9bdaebbdbbfcd7ab7be9afa7bfa8e9acccaaa7ba96877ddba9
col30:   99779777bbab89db95cac6aac8cb78aaacabcabadaa7c6fbd8fae9f74acebb9877dbbbabba9abf97
col31:   799988adc66da7abffdbf7b9b9fa9cfdaebcc9dbbfcda977dcdcdfeb6caec9dfe9a9ccc9f8fc85a8
col32:   59398999daaba9ccbbacb8b8cacd9d9a9adedbfcddcf8eeb8fdfd8abb8aa96bddc78e999aabbccdc
col33:   e898d8baeebba89f8dcdbab9accac9c9cd8988b9bfaeccccdbda9bfcbfa9ebbddbbd8cbaadd8cbc9
col34:   87f8475f959eabeebbfaebdb9caaec8dadedecbd86bca9dce9ddecafcccabdcbb89b96fcfc86acb9
col35:   b8a9bc8b9ad8afecbabcbbedecbc8b9dac9dcfbcedbfc69abdc899acc7d9b8de9acea9bd7a8eabbb
col36:   c48a8edaacebab8edba9caab7cdfd9afbdd9cbbdd9efeacb97f9c8fbdbecc99ccbbebbbe8ea98c4a
col37:   db86fbca9888dbf9aecceacbfcd88cd9f9ffdfab9fbedc8eb8bcd99bcfcdcfd8cedc88aaabfbbceb
col38:   b8d8b98abec9c9bbdecb8acbbdbbce8fcbe9b9d9bdfcbbba779998ecebceeebadcaeacf8cdb99cd8
col39:   7a449db49bb9fadabd8996abbbbac79bdcb9caafbadbebbbad5abbccc8c8bcddaf7caad986ae9bc9
col40:   becba9babeb7ccdceca9ce89ddccbdafaf9dedebbfceba8baddcacfa6ffd8ec8d7da9ababc7dbc79
col41:   9b69daeeddbed9cbdae9d9c99aabbbacccfdfcfbcff7cfdcdbedc7cbf8e8eccafdc8faaee9ddd9b9
col42:   a68b9b5b8adcdcda8ebedccb98bdbdcbeae8bbbb9abbb9a97c78bcdcbcb8bdfd9d8efabb9fa8faea
col43:   bcbe7bb7cafadadbda9ced9aaccda9d8fbdddcbcdfaddcfddbbecdececbbcbdafba8edeafefdb7e7
col44:   a8ea9bdacaf8ccb9afce99f9bb67a9adcafccf8bbfbecffcebddfbd9abacf9ceafbeaab9dbbe9898
col45:   7afd99bc9ab8e88bba4a7f99ed8ba9dabbdfc9c79b7cc9ab9df5ea788accea7edb75ccbd9bf8c9c6
col46:   7e7d889ccfba8a89baecdacddc8ceddcfddfddbbfdf7cfb8be8efedcd9a8cafd89b49897d9bd9f8c
col47:   7999b9dbccaa8cccbccafcfdefd6cbf888adacfefeafacedd6cdeef8bbfcfc97ddeaec9bdced9b96
col48:   acb8bca77a9cadbd9ebea9e9fbfbecaee9efeeb6cbc99ee7eddfd7fddb7cbeccbaa7fcbddedbdfb9
col49:   bba9a79cfbecdedbade7fc8efeebaebebab9eecdcbbace9b8afe9bfc6dcbf8995d68cfe9c9d6f9c9
col50:   91bccd9bbb9bfacb9ac9acecaeafc9cdb8ccfdaadaac98fcaaedda9bdccecc8c7bcbeb8a7ea7fbd8
col51:   66accb699acaa6b8ccababe86ad9eaadc97dd99dc5d9ac8b899dd99bceab8689b9a7bf854cb5894c
ROC:	 BPix_BmI_SEC3_LYR2_LDR5F_MOD3_ROC5
col00:   87b6355896589598bca8665bbd986856a499ba888b97c79b889b5c78a9ab78671a9a49b777598664
col01:   7a4787ab997888667a2747b7989bac597baceb7a866abbab9777bbeafaccad7a5b8db6c978778b56
col02:   7548a796b7b488b8637987c9c8ca8a89b84cadbeec87c959997b98abd7cd8856a7897b666a9aac85
col03:   75756b55797a86a6aa458a9577b7dbac5898dbbae8bbbb8aa7e797daa9bbaa39b868989b9b9b6b97
col04:   857c9785769258ada79a78bbcb7ca9899c78de9ccce5bbbaa99978eb8c68da79ba98bc5578799457
col05:   846d5797cb8787797499989ab9b5c9b98bcd8bb9a9ebb989bbd888bababc89799d8597b879559b67
col06:   66c993a8498589b5a7797756ab9887cdabccab7b975abb8fb5ac968a8879858d88a86998bc5b8842
col07:   83596794787b6752acc99aaa96788a97dc7aac9ad9ab87aee79698a9b9a6899ab6b8ba983679c9b8
col08:   747879a7696796a95b57ab7bca9bbb8da9eba9a9b6cb6799f98788abb8dacbcbba6a9a87b9868977
col09:   6a69688b8b92895b58837aaabdb9a8ebbcabb96d9bcac8caa9d97adb79a8d6ca9b889a8e987999b6
col10:   58367796348766ba79a867a697a9a8bcc9c9b969c5d9b89bbba7cac899a9b9b98cca97a98bb9a886
col11:   64778a7476a7899638ac69988a8b9aa8b9bb8d99ccba9d9b9977ca876db878a88b985899b8b7895b
col12:   5595b4377689966a9c9ca6b9c7c687baaad58fabbbcb9aa86da979cababd6b97b97c68ab99799ba8
col13:   8a7857b79475898c87c799999686b9dd9cbaeacc98acee8ba6ade8b9ba8b7b8e9bad797aad888c69
col14:   a85a397574859685679b7c66a7e793a8bc88bac77f7ac6b879ac68a8ca7d86b99aaa7c876889a461
col15:   855826a73a76769aca7a47c99b98c8bab85c988aceb9c9dbbba75fba899868a8a986a999a856656a
col16:   7595317868666668cb69bca787a97acfc6abac86ebac99cae7aa67ac99bbba9cc778d5898aa67a98
col17:   77264b6585877778969ab75a8487867b5a779bab9c796fbb6aca9bb8a6abca879973a796666499c7
col18:   13538274948649698655baa97b9b797da9999aada89b8c8bacbab99bbc8ba69977b7e89c6745c856
col19:   64359a9877666447a87bac7893a78ca8a9b997dbcbe7c8b85a77ebaa989c7a698b86ac3a8da7cb59
col20:   646366951697b7c896778838c9688ac596cb9eb8cc99797b49997aa7aa88a8aaca65978897a9b948
col21:   428784986946698946a997acbbc4bbbc9aac966b9ae4bd9bc9aa76cc797a978ac5784a4956588a98
col22:   b97bc986669768a4a6897a99bb599798dbcc9c89a89998abaa9aaa9d987888d88c998ad97d496782
col23:   536a7394968775a646b889ca975896c858ac9bc7a5ba689aa79cabaa77ba76986d98999a9ba8a886
col24:   a666436966a876488b957695c7aaa7cd7aa7bbcb8958d8acabbba7a9a779aa988d9777a45a67ba75
col25:   66a5786779674b5a889a6b68a887baac457a9a689a979a89a49b9cbccd66e97c8a8b687c88796a66
col26:   64a98684699a89ca89695797da6bd9998b7baa9baac9deadcbcedbacb99c9ae8aca98aa6d79aa987
col27:   7349b7777c97879d7a8ae8ebd798abc6bbcdecbbbdfdbbbacbbc6cbbab7d8d998b976adb96c7aa76
col28:   a26588796b69a98bb999899bbac8e999fb87aaddcd987ee8ed8aa9c9dd8cbb9abbbc7a9a9b999b7a
col29:   6854396aa7688488d5a58b8bbcfbac99eb9dc8d9dcc9bd9a7abef8ac8afdac7b9aec98a8acbacb98
col30:   456896ae68bb7ba2aa99c88f7968d69d6da9ccb8bd6dbcabbc9b9cacfa9bd97969ba999a79898aa7
col31:   96b598763776a88ba97a8b88af8ca99889ba98dc8ab6bc7cab6cccdbbbbbbdabcbadc7c7a8dd694a
col32:   558849877b9a7677a7ba8beacbba87c87fbaccadc9cbacc9fccfb8cbddfdbdaabfbaa7b8a8a9a987
col33:   8688768887a9cc6bd89cc987a998bbaff9c6fc7ecad8bf7bc9cbdbadba98e7b79aabbbba9997ca94
col34:   667589885677b7b999ac988caa8fa8a6ab9baba9878bcaa7ecbded8bbccde7cee4a8c8ba87d769a8
col35:   c6a684989669889698e6c7ac99a9f988bdca8a9ddaaefdf68798d87bea98aaf7a99ec8ea8da99c58
col36:   c798996a88aa86b877bc9aacddcbcc7de9adea6bcdb9f8abdbbf9fa9fbebb7f9dbc87b7aaa8c98c9
col37:   9629168958998b89e7998bbbb97c89cddacccaaedbabdbf9cbf9b9ead999ecacaa9a9aa8daa9bc87
col38:   696796ba7a5a7c798bba98aba7ec78abfb9d8aefec8acbdbeafabf9cddfaccc9ca8dbda775a5ab99
col39:   657369a99999998d8b476a98acabcdad9c8ccea869bca98db9bceca9dcddeaa97d8cc9d8897999a6
col40:   6a4a7b576569ac59ca7dbb9ebb77a98dc889bac9cface97acc9cbccbced88bcbc9accca8a8aba877
col41:   38b67a7b68788799aca77dacccb9c88bbbcbcaba7cac9c5cbbfbcddda969bcba7d8e9c5a99ad8976
col42:   ac966674898cb8bb98a99abaa9ea799fa9dab89c8c8cbcabcabadcfcbd9bbdb9cb8cbcbad8b3a899
col43:   549673579887aba7c9cc873c9a9b8dc9b9db987ac9dea8bacbbc8cfaebcbcddbdccc8bbb887ed8b6
col44:   a6387999a77aa9acd8b7869c9a999daba98b9cc9cb97dacc8d8af9ac8aabc6bdec88bbacacb9979a
col45:   947758456985b7c8a99cbbc8a9ab8bacaab7aada9a8fcacdbf8badc7dca9b8adbcabe89cd7999a69
col46:   6488877768695b9aa997acbbb9bbac8c9aaeabb89cd5abbedbabbbcd98aabbccbcc969c8a869a8c6
col47:   6769a7959a7799476d867ecca966b59d96babbcdeda79aab99d9fbbdb6bcaafcd9da7c59f6c98aa9
col48:   567388a86c98a58bb9b68ea6b88ba9c58edda97fcd8b9aecdcadcaab79eccdc88a96e9ba989c9569
col49:   7a7a1b29798a679a8a69ad8ccc9c7b9bbddde9bb8acbd9cbcbcdecdcacc99a9cbc9bbe58ca9b67aa
col50:   75a8778633776867a6ab8bebbdaa88cbae9acddccaaaaabb8ebc9cdb7bbb8abacd8a9ccbca9fc767
col51:   736322958868165697798b7ca987c9b98aa6879a7995e8679cb5987ae9bca9a97877b9a88da949c5
ROC:	 BPix_BmI_SEC3_LYR2_LDR5F_MOD3_ROC6
col00:   68599a694869698b695a98bb6bb7a7788c97cd897a84676a67cb7a8aba37a87665749a45777a6471
col01:   ca76a9397ba8be9cb98a8da996cd9cac9c8dd8aa8fa6b98b567c99bdb8caa4a8cdabab5969699c9a
col02:   aaa4a89c8b8cd7c669d9d75bece6b8b4eb57b699fa99aa9c869988aab88699bc7ba7bb585a7d9ab6
col03:   879aa69a8ab58bb8887888aa789bdc998acbac6baa8bdcc8caa4add79a896c8d8a97a8b7cc886984
col04:   968b8597cbc859c7bbbc7cc9ab5abc8878699b8b86687d477d996b8cd9abdecd8da9d9bcca796a97
col05:   7868aa7cc58ac5778a74b87bc788ad9dcccd89bc959ecaadcdbba9b7ab7a58665cb98c9bb95586a8
col06:   d549c99799797baea89697cc97cab98b7d3abcbe9af9cadabc76bce9b8a93d997da7dca57a765669
col07:   7ab685daa9b99aacca4aa88ecdb8bcb8ad7aca8bd8e7ee6b7bd9dcb5dec9c8bb8a87f9b73a7bc996
col08:   86a784a7a85a9aacc7baeab858857979cccb9bbcfb6a9993ba77bb9ac9aaba9d69a8be6cc96a99c9
col09:   78a69a7a98799bbe8cb6c9a9c8a58bbc8996997aa9bb87da9ec99997b6aa6bbd98a5bd9168a9a9a6
col10:   386b89a83a89b8d97a99a9d8ab986deaabadebad8ac78ddb79f67b98d96b8e797747587978943475
col11:   3b9887aa889989a8cb86b76a9976c6b5c9758c9ac96ada988ca49bd36c99ab6c99c9a858c988c3a5
col12:   56783897a669987c5baca7bb66bdca87cbadb7ddb3c6ecaabacaa95998a7c8b75b394899288c7695
col13:   69a978a9998a685bacd9bc8cbbd99aadcc57babcaba8aaabda989bfc8ca7c95bba76776757747746
col14:   ac58764a69a59cb98b89dbccea59976cbbcac99cbcabcba8779bbeebafbb87b6777b967c99b96955
col15:   997976ca7ac877778abbd8cd8b8c886aa98dbbabbcbcaa88dadaaa9daa9956eb7a9b68945a287837
col16:   c6999ab8b6c75d899a9c7a9cbba49da9e7b3dbdc85ba69aae8e8a97aab7ad7bb98b9587b9c874549
col17:   27c88a8976bc9bba9d6bb888bc576e89ab79cb89d888969cd667ac5b875c8b78b78a8a8448ac8465
col18:   7758873b777b89be889a7dd967b8a978a988969c7ab87ac7a69bd976698a8ba74865956a6ca7b778
col19:   75aa7aab969a99da8a9bbada9baf79aaa6ab9cc799ca9baba7cbacc8cabbdba8c877d67997598596
col20:   895a986bbd7aa696aa6aaad88d98cbb97b99cb7b8ba9679aba89a8ab7b7a9aa98a8796b36c578483
col21:   5847b6aa7a97bb6b88955899d2c8cbdcbfb5b9bd89985888c9c78b8edb988ca787b9bc96b6536952
col22:   4c68774a848a79c9a7c97757996999abac97a9794b9e9c778786a7877aad67ca66bd6473b7489586
col23:   98655499aca8468779bde96b9a9968b5c9ab7a668aad5aea9669a6d8898a795596b53a89772a6977
col24:   5868b949679aa9e889a8b79a68e86aab5d8749679aabcb699a8b68ab8867cb77aba78a93979888a1
col25:   78558a988e8898eabafb9bb5adba8b988ab8cf9aa7a9ac7c78aa899bcbcb8bac8acaa9c59647a76b
col26:   ea8b7d99d9895999dcb99aadbccaea9d9ba9a9dbcbdc99abaad99bdbddade9a8baaab89c6b54ad96
col27:   b9ba9b8a798cabb6a78a98caccb8bd8fabdebabcbaa9c8d4cb8ab9adaba97c35e7a6dbbccb98aa46
col28:   b9cbc8adea67c68c8bcb8d77ad9ddc9acd99bbf8a8bc9abd87597decb8bcdb66bcabbc8caf677798
col29:   aaa7aadbab888cb9b92d4897ba8bc89cdaababbd99cb8dbaccabaa8ddaaddfb69d9dbc8accd97876
col30:   79b8da88c89a9d898998c997e89dbf9b9cbdd98c8a8daded9a9acbdbd7a86acc9a96d856cdaa7b7c
col31:   79ab9bcce988d786af9c7999d9d9acadaa7bccebcc99d8cacc9a9bbc9dc79a98a9b9c79b9ac589b4
col32:   58ab8a99b958c66cb9b8bcaaac96bececd7b9ad9ac9aec7dabba8c9bdcd8fddbed7e9c5d9adb9d88
col33:   ca6c697abdb8799aa9cc6d9acf6b9b7c9cacda9ababe9a97c779b9aecebb9cbcda7c8db9c5b8ac35
col34:   c89a658acccabbe8a77cb8699cbdaac5bea8e9a9db9798facdca8dcbbab9abbac9aa89aa97987c89
col35:   7d8c7ecc9c78ebbdbad87dbacfaf8daeabc98bbb9adc7ecfabbaae99c6ec9c889aadc88bfa689a89
col36:   6796a6aa782b9b66bf7c9a5d98accc9c8d88bbb7bedaa9bbcbcbd7dbb7dca87e89bed89a99a26856
col37:   889ac985d8aad9d9b5b859b9bcbadbec9abdf9cf9c9aacacd79ba9f7caefab6bdbab88b8cd689937
col38:   7c99ab9ebada999aacaacdedcb9f9b9cace9abfa9c7babcaac7cbd9acbcdcdaac87cd8bbb89aadc6
col39:   9b967599bcb878dc7a987ea6ec9ba9cbebb4ceddaed9aabaea9a9ab89aeee8dbce8b9a8cd5699663
col40:   8b7db6a7aacb79a6cadddc9fbcbb8beabeccafcbbcae99abffd7f9cdc99ccbdcbc8a4a78d9966857
col41:   96a7acea8c9989bbdfc9bca899ed8c9daecebbbccbafc99eab7ccde6dbf9da9e9ac9adaa9bad6a85
col42:   ad9c999879b7b79aab8aaae9daabceaab7a7ac9cde5bcca9eabbba89b7bcbbfcd7979678ca56b5b5
col43:   a8b776ab89bccd8bbfe8dadccd9efceeb8adbeb8ba9e8cdac6bda9789b69acbae89a9ebaaaabc78b
col44:   9bccb77878688a6bcbd8cdba8ebb9dd9dbfc9adaeeabcedcdcd8a9cfecac5ccbe9ab6d9c989d9847
col45:   969ac8a7697dd99bbba9bcc8acbcadc8ffbd8cabc7fdcddacca8bba9d98dab66ac66b779b988a8a8
col46:   7aa994885998a878a98b88b78acdab8bccefd9cbd8769bfcd9ebfb8b9e7cdb9fc8cb7abbbddbb888
col47:   7869c9aa799cdb97c9ca6abafdda8aabbcbadbbbebcbbcb7d9fa6afaafb976abbab7cc9ba998aca8
col48:   993abab889a89a8ab7b9ebddfa9fbddda9cfbacceeeaecf9dea9c9abaa9c58aa9b7f8d7bc6c99c79
col49:   acb9b699caaf6dd9fb8ebdfca8bbcacddcbdc9ff9e9ecabdcc9bcdcebbcb8ab7b988b98cabb88a84
col50:   a8b88dabcea9997bbd8c4c9bcbccbacc8dabddc9fbccf99ddefe978f7d9a8cdb7b6c78a9877b9d68
col51:   6594796a7a8599676b7a8abbbb886ac99a7ca7b9bb936c9bccac8b84c995a7879aadb9b398679b66
ROC:	 BPix_BmI_SEC3_LYR2_LDR5F_MOD3_ROC7
col00:   33331486323859634aa7678a7a5689a78b7919936a428825453775565658446899655785661c7782
col01:   36794768195242769583d649a4867879c977a8d986577c6b34c9599da7887d87731979b4ab6ae678
col02:   436763874737876327397a6ba1aa7ca3a6a66a8676a77a3a8ad67992b6a69a896947b4569acb9757
col03:   46b713239566b5565631896da896a9765a778ba8b7b783b5395686b86c88a797787bac68e6665794
col04:   4614a4352566753555866955b5d45a59b7567575759666979c71696575a2488a995458a733989574
col05:   12952267758678ac79747568a248968698988c99566b6655577764988c88859a765b726c8761b885
col06:   84563795957998944475732878999bb8576896994784727d885549965679b35a398c9ab696888aa3
col07:   a84836564455a7987b95b7669a19b6aa84c65f7ae8b6c9da6b9857ac79686b86e699887996d57c71
col08:   8866c54821168da447656357b8545539877b1a8ae97a3979aab734b927c8d834b6585b46656376b6
col09:   486824659425c69987d5846a447888a9c9465965b678a5796b97b98549b888997797b5ba6d5d8a42
col10:   5423b6a5788975761827b3b7a28147d99a77a49937b62aa9a9d999d5b798a57c8779cb9867974658
col11:   15834558545516756786239772889588c898b56655aaa66c91a9d97657c778d889ea45ba7d984846
col12:   5156873455598b594a94a8875a487996a5743465f4a6a51d5b864753c74a55f86bb5736869688a84
col13:   67435c5863965458685c655e9877753b76d89777a68899d9c9878b7db98f9bbb78ac764b7785a884
col14:   4856674635729346778167987ac9b8b9978ac9699ab98b85898bbacd97a879ba6c6ba7b8a88839f2
col15:   1224247276786887a275c888641797ed79577ab59a98aa796b886ab7a57aca7ba99b37a9879ab5a9
col16:   4566785a7a76739324cc688923879827a997576afc73cd2bb6c669ab977568c78b8888ab588599a5
col17:   64294437a338837a21b98744a77a65584595bc28b996dc9967eedc677dca9a69cc37897fb9a61b78
col18:   322a416449c54773b6675577a5479a6b7975486a78957778479bd8d6d3e97ebcb6b44ae9768a9899
col19:   488627797b577476676947ca76696a797859e864ddab3a9cafde8a98698ba88f8cc9a5b79ccbbb7a
col20:   242a9751a3369112596749749488879665999958788bd7dcbc5b7b7aa986688baaa7aa4c84957a9c
col21:   3347545185589655547a33a858758a6a99866c9e482469938788898b77967ab946988887c97b866c
col22:   752817132351367896444678899d4bc8cb4ab798b55babad695c66799ac98e85ab9bb6a596891839
col23:   5282564144546b469432774868395bcc759868769b6b5992ab7685484ba8abc6f6899685c9617584
col24:   a75868988145b378718a4779b3477ca485ca9599ca96788cd997594b79bca88e9679669764687775
col25:   1272423246aa469856857889898ad88daa6ae9ac9fbd759ca93a98a9bacfaa8c98cdfac67f886175
col26:   96864856b458549988857a578a499a87b9d9a6a8b97598a8975db8c9adccada8dc9d7aaa658b88a4
col27:   5246888887256bb6a7649a88b896bddcfe88abca9cbfb9aa759cc9bbadaadd87cbc65aba79668789
col28:   5a3a9599969a89897db7658b6a5ab5cfdaa8a837ebbdb9cecbaadb7969aaec8aa8e8c876b9888a88
col29:   7232969d593785c79431a977cb6998ea998d9b98ba9cb7ac9b786aab7c9cb6ea7a9a9569a78ebba8
col30:   956a79c3568a6845767a86467899bab97d7cbdb9a86acbb89d9778da6d796a989898868aac578b48
col31:   785767529687386989d55b96b6895b95eebfaec8a6a9cecbd9daca94daabc88ad9ba8d9cb8cab94c
col32:   52da876149888a5c57687b3f7ca688aebb7ac57daacc9d695abacaf8bbdba9bca8caa67aee7c7984
col33:   9495787641a857cc9b889a84d9abaa87a8988ce9ce788bb5d7b9acb9ebdcbcb96caaac47a82c6c65
col34:   7b78778aaa8bba87559ab9acabddbb5dbc57baacddcebc949fec697b9989d88ca869b769996b7a98
col35:   5c3a87878b7a7648999a98af9a9c87daabd8dca9588ff59facdffbcc9dab9eaabcc4cbdcc96d7868
col36:   a35ea6a78b8a25858b48b9899dd79a9cacb8a75b87e9cabd9a7a9febabacbcabb7afa67c9a596789
col37:   88a4a758857c599b6aa6977b69ccc7c79dcd8c99a76acbd4b87a9a7cabc8bddb75bd8569b8c65ab6
col38:   66787896976a99a5ab5a5bcdbe88aaa9bddcfffbb84e8ad9acfbacc9fcbaecabc6cdbd4a9a5d9897
col39:   5671648a7596596a6c9ca98ac3997a6caaf8bce8ccf79defae88bcca9fea888998857eb9caa3a468
col40:   383949476a9d984fa5eb8ec98cd4ba73ba7ecfcdd9da9efeecbedbceb9bd7e69d89b88668b697c85
col41:   93abcd898b86a98baba7b78e6ba9faf7eeb6eb9abccaab7ec9cceebdccfcccbbf8fc878a696abaa8
col42:   849a7898739a96ab897779ac9c3fcfcca9cf8a59babdccac9fbb8a98ddcda8aae9999a8ad7b88c69
col43:   88739889846ac79aa8cabbcabb9e7b5ebbabbbbbd9dffffbdbdcadec87cecebc7bdbc89bde89d69c
col44:   8aba7799e8b6b9888ab75ba78cb9ac9afbb9aedbecfffccc7f9ba7dabfcfaed75bc78afabde7db97
col45:   b756696686b96cbb79e5a98ba957fcfebab99aa6dbade8aff8c9ffa9e89d99a8cd8a97afcdcbabcb
col46:   9566adaa788879677ab8b7cddebacc89b9eac9febaacfaaaddb8cdfdae8fb4d38dd8babd67aaa8b5
col47:   594887eb8d6c7bc8974c6abbb9a7be5acdfacac9cecbb97febeadedfed99dca8b89b8988db96dc67
col48:   338919baa8ca9c6da89b49c495edcdbcaedfeeca8ac99db98bef5b69cacbcac99eb59cb95de7d895
col49:   97956b48b76687899eb98af6c387bbbadecfb9a89debbdcd9bbdeded7a799ebb888cebb96e7988b8
col50:   cb6a581677987e4ba557789e99bc974b9dbcefdbadb9cbfe8bfc99cecabdbecdacc697bba78d96a6
col51:   4a4755696777976a759dab6789b9c6d68b989bab8afafb8aba9a7d8ba9bacdb56aa98d9788699542
ROC:	 BPix_BmI_SEC3_LYR2_LDR5F_MOD3_ROC8
col00:   781637852478953888996857a9b9795b9c8a8aa7a878b8b65cca84da8669977558475c197b778529
col01:   53968b677cb85b79769669aa57a69699a76b8c688cd9ab89e9b7195596798dba8b87898a67385469
col02:   39583257369b4b72e59d6666498b7676b9b7da97f9b7ba94c89898a8bbd28a4a685968c4678f7844
col03:   7a575d2a895ab68998696ab67b4579aaa8d6777db9dd88da57d6bb3b8db9a967a885379bc747a898
col04:   26587bd86b57a8988b9896b77bb798a9a67aaa977588b767bba97bcba5559a9e9a6a866836bc477b
col05:   8a68949839868db6c8678797a699b9b5aae8adaaabb9ab9a8898d9ab682556a78a9ca7ac5d13b32b
col06:   8766c9b7896989587876a98da8677ba7b88bb8a8b72aa899be7cbb59eabd7898c7b48b7acb6a8a75
col07:   655b188336776195989c77a7b7ba6b57ba8c69a8bbaa678b9cb89969aa6899d69b16cf8867876574
col08:   26766b736996b887678598588656877bb8bdab6aaa998b998d4dcb7a99b5ac9b8f78b9a86885a882
col09:   24689b7a87885caaba8b8dcbb8b9b699b65ee98daaa9dbd8aecb7996e8b9ea8a889989e9db5a8aa6
col10:   b27872b3c73b6b9867495576a84959e9cc9c97889a58ac9eaab94dbc8ca989857bc89cc96798b996
col11:   7a2ba9b469968846b78939b999c8cd8999b28b8a9b9bba7b9b967ab9b9bcba7fa69568f6ba668463
col12:   525877497588658b77c8ab889892c5b7597bb8b8c98788ba9fb8afc6dc7daaa9e86976745d9a53b5
col13:   775a9455735688948957966adba98ad9c4b4d7d9cc8cab977c8a7bfaab7999a9d9c7cad9b8adb988
col14:   86277597558788678848a795b7a79bb53a8889997abab7789b6cadb99a67caa7ba9984885ab825b7
col15:   87b7889b798ba736865457aa7a6a6988c5ad885f864ca9a7cbc778ab86acee8acd7b8b9bb89da64d
col16:   7a557a869a8679399998a487a3799a798cb48dc89cecaaaa9bcbe8ad9b9b97a99ab6a396938aaa94
col17:   4441798867627769a1797747978c55fb7b8c68889985e795954b7badc55ba7657988894966598997
col18:   a6aa647184d8779b8a8377a68aabda696ad76a9898c599b9996dabab779ca7847c7796939b9c7485
col19:   9464897677a9c61bb8ca7d74a89faa7c8acd62c9b7cb6eb79ad9694caaacb9e8d7878a87a89a38b3
col20:   4844656a986537869779c8599aa7d5f86a8a95596546ecd58595b79baa9b879c8a8699a78b69858a
col21:   9745679b74bbb748b893aa3588cc8a5889a8b8b9f9c8b9a65d89889dd999759c7abbb99658db9896
col22:   699b7a77887664c8ba766c59b897a98ab7ab9a48c6ca8d8bcb888accd7b98d97c897acd6b9b58557
col23:   7a762a886bc8a79a669997b848c7d38869b76997bb8b9c6e8b6ba9a8b8a9b697ad4a89795677a656
col24:   46a36817b87878966a7aa7b5a89ba8da87dc5db9d88a898c62acc7aa795c7a888cbac755697699a4
col25:   26836679768b7787938999b7999a8ae7977aa97aceb5db8cd8a889876acb8d7ab5588ab7e67a557d
col26:   95592b3ed7a67c48556a59acbb78ade6aa89dcc7c96da9a96aa9efaf7fccdc5ef8a995c9bac75874
col27:   476677aa886b97b9876aaa9ad78bbbac8c69dfabcf995dbab9c877ccafcb7dcaf699877aab6c98c4
col28:   b75a7977cb7ad888aaab9758b9bac78c9d8bbefaacddcbcacf686abdbabacdecbcb587c7a69bbaab
col29:   969d76ac69b45aab75ca9bb8bb8c9d9cbee8b9cedcaf8dbdd88bff75879dd9aee8baddad96bbca88
col30:   658ca7c899c6a8976b7aab867afcaadbbab8b9bbd78ddaacfccbbbb7bcb79db6ddb6edadfa9978ba
col31:   56a77866b759959a698ca886bb5aeaad9e5d887cd6c7df9d8bcbcbbbcbb8fbabdc888bbbf97b99a7
col32:   58a779b94896cd7d98cbaad8bf99ee7c89ab9edcda9bcbadb97dbcbebbbd9a8a8fdc8c9ca768bc87
col33:   aa858c9b89ac5babc7b8e7deba9aaefdccdcacdcbb9bce5cadccb9dbddbfbb7d8fbbc897fa8c7b9a
col34:   6996699377aab8bf9cdb48a79faca8bedac8ebbabb8abd99dfceba8aead86adb899ce7bdc9959a9b
col35:   69798ba7aaa8c7a6cbbff8dc98abc8a7acc9ddbdee9cfadc99acfade99ad89c689b79c9ba77ae896
col36:   7377b7a6aa8c9cc8ace9ebdd8ac9bcadc8abe99dbdc7efcbbacfe5accab7a9a979dae8eb9a9deebc
col37:   6a8b69babbbb5e4edc7e7cab977edccc9adbeaabc9754b8ade8bbcbdbdfcac89cffdac8ac9a9c9bb
col38:   975987766c86bc7cceddc7cdcccbaba9afcacfdfefbbcbbd9bbe87ddf9fddedacacbbf8bba9a9bb9
col39:   dda988ab6a6579eee9bddabcb7acadc6cbcfbdfafbfa9dfcd8e6b67ffddeafcc7d6eeddeaec98ba7
col40:   c77a9a8a8a7ebcaa899db9ed9dfbffaedcaa9ec8bafe9d9ddbbec6edabbd8dbdfcbccbaddb99cbaa
col41:   795897db7caaca9dba7bc89edabcbbf9e9fcfdaabbbb4bd99d9ecec9dabbd7cc857db6cbb89a9687
col42:   77699a79cd7a9bcaabaaabd79ca9abfaddcfbbbc8cdb9cabcbdf98c99d7e8cefdb49babe87b689f5
col43:   85ccd8a99a9695c8bb6b6cb8ba8aacbbfdfeadabbdeddbe9dfca8b78cbcbdd8b78d7d49aa8995eda
col44:   955caa6b99aaac8a9a8bc8a7bb4dbad9ba9b8ecdb9edd9e98bc9bdfbcdb99aa9b97ebbd8a966ec56
col45:   76acaa899c99bb9e78aac9a999c8efcadb9cebddbaeadbe98bf9ecd8de59ca9ebd8b87f88b9ba699
col46:   439552aca65a949c88a6c96b9fcd9fafcdbdebfbac9fedaeae5dbb9eab89f89dbb9b88cdda959b63
col47:   eabcc7998c9bbdd7aab7c7bb6aaaac9bead87ca7aa9cdedebbbadec8f5baacb89ae9bac9e78a8c76
col48:   995966857996a69aba89aca8a5d3fcdaa7a8caedb6ceacbcffa8bdcbaa9dbdcbbbd7db9bb8bcbdb5
col49:   4ac638af766979988a797cc6badaecac8c9babfcbcb5ca9bbecae98babc9e8d798dbaa7b9aca9689
col50:   6a99a89c88a9caabb98cd86b7dbccace99bcdcbaacedace8cab969dba9dd7b7ebd8ebdd92dcc89b7
col51:   453256b756985767847a695a8e6bc8d87b78786b8c7f978a69a66bb6d6d757768979562a6b788665
ROC:	 BPix_BmI_SEC3_LYR2_LDR5F_MOD3_ROC9
col00:   376a967b9a7a86ab97886aaa9aa5bbabb87bb6779b798aa986d8a79a8aaafc6c8b6a676c886b8ba5
col01:   32685b68ba97ad9a58683b4d9abf7babaebc8c9b9cbda7ccc6b7b88b996ec99859ba958baccbbea7
col02:   856596989475b9cd948a98c6ccaa9a78bcabcb59bdb7678ba6d5b757a9986bd5d7a8bacb998796b6
col03:   577c7959997585ccba9bba9aacac9ccc99eab9eea998ceb79c4a8ababbabe8eb5b968f78aaa8aa9b
col04:   c766a69797e77ab98aacbbccbebccb9aa8bcd88aaadbaea79766aa8699789ab25cd4e7dcb8dad8d7
col05:   b55bba678a89abb8abccaadb9e9abbfabbdb8a8ca969abda99a7cbaaca9cd8d6aadab969b89a9aca
col06:   9499c68a9999b698abde689ba89ac8a99acb9abbc89b89b9889aaaaac6899bb5c6c9b6aad6a889c3
col07:   874578c8b8aaaa7899ad96a6dce7779c8b999cbe8aaa75feab9ba7799d59aac599b7ada99a78a4f8
col08:   8628c8d95bd65a8e8889b9cc7bcc6dcfacdacbaa7c86a6ed98971c99c5a69b7cac978aba9e789b58
col09:   788b87c788aa8bbb97bbb9b9a86ac9bbb6c88898988899b8d8ac7a8cb9bbd9bd7a98fb6c987a7bac
col10:   a99996c55767779d9c98bb8b8bbbaddc5db9aa87ac8b7a87cd896ac799ce7cbbb9acbc8a7aa6ca76
col11:   587878996a987d88d77d966888d6b899b7cd98caa8e88ca987d9aa8f8ab7acb98ca68da768a96879
col12:   986966697a88c768758ca9c9c8a6b7a7cbceaa8b9acc89778b9888aba589ab9bc9bba9c786a9dd58
col13:   7a7b9fd9adbb98cd9787bbbdbecf99bbbceaccd8ec9ebbd9cbbbf9c9ecefea9a768897abaaa9ba8a
col14:   5876b744a8cab8994b994c6dabbbdb86d49adaabe8e39bcdbcd9b7adbab8a987b986c69996da89e8
col15:   69a499a56b966aba9a9a69b9aabcc9bd789aabbab89dcdcbaa8ebacac9acaa6a5bd69abbe5ccba88
col16:   79a87999a78cc977aacaa779fbabeaba9988d99bacbadcc8bce96f98aa6a87a98baabc87b89acbbb
col17:   b166aa777785cb7a89a67c7aae999a85f4bba93a9a9a8eaf6ac9cdbba7e8ce6a6896f8486887db75
col18:   b5bbaab889ad8b877b98d9b4d58db7cb839a7babc6dde99a797aac7a9589bca7caa9d7d99b6ca6e7
col19:   76a87cc8c8a99aa7989fbaed7eed9b8b9ababcac9bc98a97d9bcab798aab8d9a76c9959bb7c98a78
col20:   88798777669789a987bcdcbad787eaf69cfa69ca69978699c5fa8389879c6c8ac9a8da9568b9a7a9
col21:   582c285ab6976ac8b8da9aa5cdcb8c8b7bad99dbbbbbba9ccbea996a99d89d9789ade8bb79ba4a9c
col22:   a4ad66db876bcbca5aaa9978a7789cca8cb8b9a9ccefadcbc8a8c9b79bc8ac8a4bcb86a67ccba6ac
col23:   697c4a895778a6a8ac9a9ad8b998b9b99ab8fb9b9cea87a7caaaa69b9c85c8d7c7c96779c98b9bc5
col24:   65665727874a9a6b7fab48bf99aaa98b8a687cacc9ac988b9a9a83abaebb4bcabb7c9b9bb488b982
col25:   79a89c97cbb9ba798b99c7a98ddbb8c6e79995be9dba7bad9eabb69aeb67b796a7979a6875a987d7
col26:   b86a78e9bc79baa399ffc7cbd889cddcdbecdad9ddccaab49e9fad9ebbcba8bb6b896eba7bc9d736
col27:   88976cbccafcaaabb87dbbb9ffafddebdccc8cda987fabbb9d87bbbacbcfbdb89f7aab9a89cd9a8b
col28:   a9778875aad8b9f8bfccc999ccebbdaddc7accd98bedec9cabb979a8cbadb7b68a896aeabd5c6ecb
col29:   aa79a497adda97978acdcaadee7ca9ccbaebcc87dca8dadccba88acd87acababad995bbbaacdad67
col30:   9898a69aa89cb7ca98afcdcd9d8cac5c9b96bd68a867aa69acbadab9d98cd7ed8bcaaaaac89cabc8
col31:   8b6ac5bd9a88f9a89cfbcdbdeaeebbbbaaeb9eadcdcdb88ae8fbbc89e7dca9e8acccdb488bdbfeb9
col32:   67eaad79c6d7b8ba8ca9ba9baaedbb6d7cdabff9ebaa98caebdae9dcdcdcabc9ca98fadfbba8b75b
col33:   a779ccbbb98deb6efaddfbcbfeb9cfcaffbeefbcd9baecaad5a9fcb68aaba99dca9bb99bd7aeacc9
col34:   6d7cac7dc7d8caeceebfcebacec8eddbeecbfefc9bacc9a5d8bb9a7abeaccac99bbe9ddcddbcfa6a
col35:   b8bdcbbb9bdafbccddb8bdf8b9dddcbddc9a89b9cbc9f9dedbc9aadec8b6a9fbbdbefe8b8dfabba5
col36:   97ce8c9cbabcac98b9ab6ad9a99ecfcafbfffbb9e8cadcbc6dabe9ab9a6797bb4799eb9be6d8b88c
col37:   72c699bcfcbc8a8cf699d9bdcded9cfcddd8abaebfdad96aefdfbcaacfdb8ba9cb8afdbbca9b5bb5
col38:   acbbcbabad5fcfbf7dcebcaceaaddabcfebe7bdbacfa99cffcabbcc7fefefbbbdc9bf9baceebffdb
col39:   ca7c9beacdbacff999bddbaadcbbbf6dbbc9c9dca7effadbbdcfaeacf7d9abdebba9aadf99dbcfd9
col40:   aacaabb8a98dcdece9a7faead6dabdbcc9d9ccdccbccdddbbcedacbafbbddcfc898abd9af48faaa9
col41:   99899dca6cddcc9cbc99ba99fdedbef9d8ec99ae7cebb7ecebd78edbaefaf8abaa7abedbbdccfcb9
col42:   c86e7e9b8a9a8ffa7aaadbbfadabbcfbbcbbb9f9baccccd7b98abddacf8cdf9cb9c8cfadc9e99a9b
col43:   7b9a9999687fabb8e9dbed99c8aeafadbedc8aaf9a9dfdcac9dcbdd898baebc6dab9bd8dc9899dd8
col44:   86b8bfcc99f8cabbdcc9c9a9bf8eebaaadeae9deaadbcc9baccdbccdd6daadc9e789cdbdb7eb9b8c
col45:   97dedaa6ccb9cf9da9ecabdacade9ef8bcb996bcbb8fbdede3cae5aaadebe7c99abcaccdfad889ab
col46:   e6aaaabbdcca9cab89abcfe6a8cacbc6cc9cacbcca5dcbd98a8b68cbe8bd9abbdccb9f5df9c8cbc8
col47:   59cadcbbb9dbadba8c7decdadcba8ae9ac9cd9aebbacaa99fcca8eebabfcf97a69c9bdb8cacac89a
col48:   c7b8e99a4dba99baccfd99dc99edcabcfb9eedd8f5efadc99f8b7cfd8ebcad9ba7dea9ddb8aedaa9
col49:   ebdd897abc88d9becaaacabd8dc6cadfbaababe9c8dcdcbbd9edcddd7ca49e9ebab9af9c9fbba88a
col50:   988ee986decb8abccb9797aed9da9bdfbefedeb9bc69ebc9cbde9ebba78cadcdaaccc99aa9cc69f6
col51:   4b47987c38a9549a79a8997b97927b76a77b9856cdb58b57987959af9a7bba79a5c6a9a6a6665c65
ROC:	 BPix_BmI_SEC3_LYR2_LDR5F_MOD3_ROC10
col00:   23674555633765882566b842c6678a6796889daa8745564bba7569a538a896267717143513677a35
col01:   42543a793425778d7c9458a97775b9aa4ac729a7aba5856be8e4785abaa7979a64a577854b6a4895
col02:   5458586645c3b88579789f6695bb98579ac86b79c7ad8ab9989a655894f86867a896a6b915883821
col03:   413876a369b547965a6378a8597998b9ccc9ad5977a93a1c9a686c68a6596a9bc5df287a77684741
col04:   433c496556477689a79a89778a786687c95869897768a69b9db88c7eaec97e847b9185bac7868289
col05:   436a889766a6a63a7754b99878677c97b969aab981a959569a7baa9ac978a8782d688482725a6924
col06:   298876445686ab63ba765b7b97c977cc9c6849b89c96b577ac87578bc6aa77aa9b6c785c92765978
col07:   a1786776321b4b84a8a589a47cb973acc3b7a977cb9b9b99ba8a7aaa88477886997b955357568a61
col08:   4469478434757766c938a78a7919965f76b58d96bb64868b9758a8aa4978a877c768656b54155aa8
col09:   66c746278596b7b44a8b8a7787bc6977acceaa866c8caca8599ac8b7aabc588689ab895565464976
col10:   6684bb794779767bc6a549698b97a9e675a97c95a8776ba7a797949c89aaa9867b96498765579434
col11:   63976459467a859877469965f47b8956589cb997759bbac8a92a6bab77e846589a798a6a49195381
col12:   6a365a67484267ea86a98a698b8a6a7d6ac98467d887e8ba69669d7838a6ab945b976765c8bb5877
col13:   3966676586989a5bc78b9999595c86858877a38b59b6a58696a9e99ac88e98b8b4848557675892a7
col14:   8366b9866862778389485a896caab86468a698aab8aba8cc599b5a9866a6b69abd3d558775a81579
col15:   94a867943a6ac7a657b485cc867c756c6988a5c98bb886b68a59348bba9549777a9367c479174b64
col16:   6a858698986a6ba888b886c6869ac77a9a9957aaa96a8d7899b98d4b89878b8a76a59875669a6972
col17:   267667467547585a9c47869a887596949bbba76aaa79a7ab69a598abb9aabbaaa68996a34a593953
col18:   477ba46b77768896379b72b88c6b79b589689594ac5497a973987c6adb987998668a656958a67188
col19:   746567469876a9756968ac9a7a9676bacc898b9a574ea6a96b67998b8a8bab977989565425975bc9
col20:   1571a747834865ba698aab799365468c9b48598977a8d88ba9697b77b7a59faa66b4aa6b44675521
col21:   2152a7d887a989974b37b6176688bbab9aba9b5c86a9daa99afbb567c8ab688872977a9a6597da72
col22:   446647795798a66897c756ab66aa7b479b98bab78ba8bbcb69b1396abab5566695868c779b9a85b7
col23:   94b996754998c984ab76da777967cab55d58b6978a6ca5ba7688aaa5dd77958ac9678334bd414691
col24:   795656679ab4694c97e87a9798ac976a75979bf89a95aa896a9aa48a48c74c8778659777976b5c2a
col25:   7743a59896d797db7979a657987ba9c6ac69c7c98bb9bbc7fbaca7dc87d88983a6b9a8867a83ab85
col26:   76952976dbad6a7aa7a89ab9c9e9ccad7a6bad8ba969bcaa7b765c9adde98898d8cb4769765c9633
col27:   828579c9a67669c99cfa9bac8b858bf99bbb8adceabcba9ba8c89ada77cca6e69b79bd9989b9ad87
col28:   b78c975cba6a8aabacbaa3b7867a99d8fda7bbe9bbabfc9ca9bb9ac96cb9bbab7bd7da8b95896c95
col29:   654b878a6b5db98698b9b89999b99cbead9a5bcf8ab89aa99898699db8b89ccdaacca5cb97c769a2
col30:   a2a99979c87c38bbb6995bc5b9bbefebdbc9adcc8ac998dcad99dee9979a9cf7a98b684d99ac1bc5
col31:   b6a95c74d885b87eaba8bbd8dedbb9adae8dc89dbcebdcc7a995994acfbcb9eadbb8bb675c8c7bdb
col32:   ceb686746fa9a65bc3a9ecc79c9bb2cefabc9ffbbbd899a99bc8b5cfcf94a59c99d8ace9abb5bb97
col33:   8ab588a84c987bbaaac78bec767abad8ffbaccbdac8a8ebcc7fadacbbbdba6b8959695e88f8aa79a
col34:   967c5abbd8861f9689c7f7dcd9ba998d5aaaaabc7c988bdca6c8d6af8bb7bbac789cba86bcc85574
col35:   66cba6c7b759cb98bbecbc8977a39ca89ade88ddfe9bfe97c78fdaaebd8bdbccbadabaa5969ba876
col36:   76ebdcba98ccc7fb8cbedabab9b7dbcfcbfb9f8cc9aed8c9becbbacbb8aab888b9bf7bab8b7e9958
col37:   658c3d98ab968abbbba4c8ef89c7dbc8a88bb9cfc9acea8bafdec69cbda7feca7bab9797a85cd7d5
col38:   699d84c7cbaba8dde8b9dd8d89cba6fbd9fc98ea6bf78eceaa6acef9bbaaae99a8ede78cbcd89a77
col39:   7a4469ab87b79cf99aa9597cbdaccefdfd69889bbafcdfa9ba9b8dfdd76cb88dbfaadc887d4adb66
col40:   db8476caa88da65dafeddbeccddcfbdbbddbc9bdff79a8f9ccaedaacaadacfbd8b99d8d86d9a3968
col41:   88af9bbaabbbdccddd78c9fc76b9fd9e9d5aab8fedbcccc7a9facdb97cdcababfaa779cabcb5d987
col42:   a84b4cd57cc85cceb8abbe9bc9a9ccdbaedef8c9bd7fcc9fd9b99bcee899a99c86ad799d9b88ca8b
col43:   7989a9b9a86caa9d5f987f9cbbcffbacf4e8da79d5acb9e9bce9ddbc9cdcbbdcccbdc9f8b698eba6
col44:   bd9b96a7c65dbddb89fed8bb7bcbdbfa9ba8baa9eaaaae9da8fdfeabacaa8f8abf5bc8aaccacfbba
col45:   799bbebca879fcfa7bcf9a98db9bfbbaccbbb9d687bb8c99f7ea9abfcb8fbb89bcbceb69bac88d8b
col46:   4bbb5c8cc99cc977ced7c9a6cafebd799bbefcbfb8adbdabd8bbabcbf9aefc5bbe8dcbbe8ab9c8a9
col47:   b59db7776e7989d999d9bbb9987afcb9faaaeacb99cadc9b8aba9aed9ac39ebfcd7e978aa977dbf9
col48:   7ba77b7ead87ceac49dbd7965abd9dbbaabcacd9bdb8d9cdadf9abffdaa8e9ad7b9babbea44ab7e9
col49:   b7acb68b7eb8b749b88b9cbbe89fddababdccabc8bfcb798edb9abecea9adeca9dbbc698aba889aa
col50:   d74cc7ba98b76cdddaeb8ef9d98c8c9cbad9dfbbfaab9cdb79f66dfa957cddeaacaebf75a79eacc8
col51:   8a599865793a8875a6a73baa7aa6865498a68b999cca8bbfcacc9a9579dd91684a86b5977b475964
ROC:	 BPix_BmI_SEC3_LYR2_LDR5F_MOD3_ROC11
col00:   63764683867655858884a49377856988849689a867698b67b8ca6b26886765165a866875787aa989
col01:   5596a39c8767886876cb8cdaa999b6997a7a99ac88a7999898b9a76986b8c8b86947977bad88c766
col02:   64ab6776ba9c75b888a9ad8b776acac99995cb88b76b5baa99875ba57abb7774a886869945777892
col03:   875ab777bb888a697c87b954aabbc4a669966ca976a887b6b868699b88cb638859a8598878776795
col04:   597998a988879c897b899bc8c799c6899888baaaa979576b996a9894ae9968598b97986b9baaa78a
col05:   677685a99865a685c9986a786a6bd59dbaa9b7bcb89b78b97c48977a8b8da6797b6c788598a87797
col06:   6777d5da859857d98bbcaa859ab7b99899885c8b969d9bb68e789bd8b98b69aa979b75b6d68364b9
col07:   94a3669aa57988a8889a9a6993a877b7e9b78aa9cac999b9c7a87aa7c99697ab8a97ca864c7f75c6
col08:   28d9a41762ca5a774a98976598ba8a65a9bb5987b7aa816a9685b8a98869aa75aa59a64666928854
col09:   95a8878978a5ac57d99a79b6aba686dc76a97a89a7c658cc9bbbaca9ab8ab4689a698ae7887ba8a8
col10:   638647788dc9888488ba98a7978699ab8899aa989ad8699cb8c677578a898995abc964b962ba6999
col11:   577478ac7b986da9898da68b9db9749a7b79988997b688976a76b9e77aa65aa967375a8995736bc5
col12:   647567775a6da887889acb59d786a9795685aa886bbab8bab47c7896989998b69b78338d9367b983
col13:   828a7b6888a858695b88998b7ab8a899be79baedcd96abacdb9d7967b5a87688c7585666999a2586
col14:   66768bbc8856899e7a79d73ab88b97ca8a5c877575a55a766a859abba9a868aa68c7bc388a799a67
col15:   677798a489b897498a9c6ca98b69ebabab98577bba7bcfa898ac5ada9e9f8b898bab5a8975877982
col16:   65a8ba77b778777586c7aea7bac977768b8b67894a8a7598acbbfbb879a3a79c98a99a389749898b
col17:   1b789789786969a88e8889aa666ac7d8c47aaac779b287c88388d98cb4a55b8d65b987b9a89b5a65
col18:   78b77bc76797878bb89889a85a5b7779bc9a999a88788779769887bc7ea9dba73a9a89738a788986
col19:   25166b89958999aa97ac966c6658ba6797b79d4a7aa4868b63cd7998897c598786b8b7b8b5859864
col20:   6c575898894296726a998989b98b779996bb8696d77588575aac5967c8bb9b898a96798c659a9859
col21:   61875848978b66a96a8b9859699c7a6b86d7a3dce579ca699899aa7c7ba9989999c7aaca88896779
col22:   65475cb57665786bb89977aa9ab7ca7b89c9996ca7aaa38b97bbd779968cab399897b4b766887a84
col23:   a46a78645774b467a99ca88c99c8a39a8b7678665995b788b7a6aa889bac99959b79b8b9a8877747
col24:   83784767a8971c9866b7b8ad8b5b698b7b7ac98bbaa677a868c84987c5ab9b86a457995a85ba5696
col25:   299cbba75969c75857b985a7bada68ea9cabbca87b75b69babc889bab8ab67d9cca74978aa7a9b54
col26:   5c9b9dbcbac379ba98debbca7aa9a9999ba7999b7bcd98bab99bc99a989c97989ba9a449c8579674
col27:   798c79898899aacb8777ea8ad99bfb9ccb7a7ab89a8e97db97997ecbdaedb3bcbca6a79986d87ac7
col28:   8ca987699877da6bbab88e79b8aa7ac89b8bd8cd99b8bca7a998c9da9bc9a9bdb7ac887b9a9c9acc
col29:   545ccbabaee9ccab78bcba78bb8bf898babcbd8b897cba8ac978c987ca9dac8999c93999c98b795a
col30:   8789997bcd7ac87e97bc988bb8cf9b98d799dcaba9e7c699ebed886c7d99ad778788c7c8b5b98d89
col31:   758978acb9aa59aae9fbddbb98d9d67bb8abe8e9877acc7ab8ea88dbaaab6acb9b9a8979bc9aab97
col32:   73b7a89a9b78a8a3a98b9a9bba89c9ba8978aebcb6be6ba7a7bc7b99cbb9ecada796cad6aba8a79b
col33:   9aab7678976a7a8b7ccc98ab7aedc9cc68bbbc9ebbdbccdabb789a989dc989bc8aca9c9a9ab6db84
col34:   898acd978aa7a77799a8de98f89bb8c9a7bfacaea9bacc5d9b7988bcba768caabba9ccd9ab8dacc7
col35:   8a9a7aaafb79c6becec8bacabacdbc9cbacad9bdc7eeb9c8a7b8d9d8cdc9bc698c8d8d8b99b7b8d9
col36:   b777abdbcc8bc7dcebbbb9aa9dacbbdbd9dddced9beaccba9acad8aad9ca9b84f9ca99d9aaa79ac7
col37:   a99679dacf9c598a6a779bbbaa8c88dd69b9998da9bccbab7b6998dcaea9ba9b8bb9ea6dafae4b96
col38:   abfd8c5999bd8abbdaa567feddd9c9bbbabcbd7ddbcbcaab8e9aecbadddcdc7aaea8ab89abc7bbf9
col39:   b8997bbd9d8887697bcb9c9eb8cbab9dcc9dacbbbbbe99ca8acadbdabdbaca8879deca7988bb877d
col40:   97599ddd5fbb9bcbddbc98aabab8e9db9cc9ccabacbcc7b7b9e8aaddaabede97c9a8aaacbbaa99b9
col41:   77778acab7a97abffa9acd9a98bbfdccdeaaeaecad8ddcddcdccdf9be8d9ebaacc9b9c9aaebbe8b9
col42:   98689bc968d999ac95b89daaa37bdbbac998c8d87adaace99e9ad8ebbabbacc9cbcba8a8b8bea9c8
col43:   999859aa7bda97ce7a97cabcbc9999abb7eb8af9d9999fabc9bbba9df8dae9ac698aa9e9c8968dda
col44:   8b99a8ac9bcdaeaa7bc79ca9cbbb6dc8b9cbcbc999a998cb9ffaf9bbcd49dbf7caa9eae88fcfdb97
col45:   75796cbbab8b8c98bbeb7bedbe886bccacbc3aded9acfaceb9ec8b87baaacdaa9dcabaa98bca7cb8
col46:   9a74bba8c96899dc97bcbaaacc9ba7deaacfd8c9e9c9bc8cb7babb9beb9d96cbb9b999dabb9da8a5
col47:   8a5b86bcaaa7c7ea9a86dafdfbb9b9c8dcaacdeb9bbf989bd5c9babcbb9bfb7ae8eaa9cbccddacbb
col48:   acaaa8cb79964689989da89cba98b9d8c9a7aaaaecda9aaabbdabfb7baa99bd9db9bad6d89bdebaa
col49:   757778a99cc9bcbaaa6ec8abca99ccaabb96bdfbd799b8ad89d98dcbd5b5abccb7c8999ca5cacc98
col50:   886ac8aba8adbb9b8abb9987dc9cac999ddbccaceaebd9b9abd9d8a9bb8aabccc99bbbf9cb6b9bc8
col51:   686566a896788a88e8a989ac7bda76b9babcc9be766cb968b978c658857b989b55988967b9ac9b96
ROC:	 BPix_BmI_SEC3_LYR2_LDR5F_MOD3_ROC12
col00:   5837825a77969246889868855a577c3557898167966759346774679b555455749197521975792753
col01:   868784799979964a666ad8b89b9abb8744a76b86e5779488b899694888767b94877c5a28a7b86c9a
col02:   6666b478a985ba8a8d88a8897a9c6884c74355479998a889568b6489996764bb6a986a772a676134
col03:   548a48c447695d89eaa9aa59687db5a9c9a5757987a69a4c98bbab728599ba7bd689da796c582558
col04:   73569aa8a8778766e58c79965849969c97967cb9bbd98a86279589bcba985b7a6668586b638c8656
col05:   41c6a4aa77776676ec97c5d8658765a859bc84ca8489c6689a8ab97c86a64a61887246a986a76761
col06:   95498a65d9775c499a74897688677898da6796a999daaa989773865c87784a9d96b69776739495c5
col07:   72779899c7899ca879dac68aab9ca97dc758d9abc8ccca996bc9678797dab89caa9b8b9eca7daa43
col08:   9457826a86757a76797893b1aa5c78866789b8ba788b899a6a6ca888b59799a6be33a138a764aa61
col09:   7498673375b6c9773c59ce7c8ccb898d86c8ba6bc498d9ab87cc69a99c67954a19ec69a4a8a7c786
col10:   4ca7254677661788b8775ba54ba677d9ae86578c87fc878796b8779a6965cb96bb913bc7a576bb11
col11:   746d769a8998d9a8b84869596b8b96677ba44c7388625587d799b85a5f969693953a77a9cb556888
col12:   2b5b798966a688768355acb7a3398ab8865a9993a7a677aaa8bb999c66a9786587c66789564a6854
col13:   86586ddda8a783a59669a8c7c8d9fab5eb4eca99bcb6dca7cc8b6a6ad948d8b77c75c7493a567795
col14:   2b5b5b5893965c2889a6c8aa82b67c99d9c8976b986b7b9aba889898a7789761d599b8999677b7c3
col15:   3891b8c93d7b95ba8ad9c585868ab57775e79aa97ab76ca8824d887a36577a7c69ab556b8a37665a
col16:   7768aaa6a58ab4a5a6b7786da566787a8899aa699748b9acdc89d6589858a358b8999875aa9ac735
col17:   68797346eea8bbbafc8958a88e99b75b9a7696d95aa8a9c487979ca495879768c986bb662c6dd652
col18:   45978387c73948bc8ad5aa845d7b896a857774584898b67978a859946a4bda8494a597b941886767
col19:   8b831843c58587798cc958b8a8a9fb8c59a757aa4863958997ab88999eb7ba29a6e78a6895785557
col20:   47b638676777ba596989c54a87c6975a74ae75b46a97beaba67a56a88b3486c87a79837a5a226a45
col21:   6a769547c8669ca6b5b649ba5bbb7aa77a66847cd8ac966797eab6b54955db73bb695574da86b692
col22:   41977748957796579a86a788a7dca4a5a9b2a798db9946b955cc6aa9871697b95686c46b54847785
col23:   766761497a69b486e9cd63ada5cc66967a6aa8379a8668766483a98a5755959bbc39abcb8996a345
col24:   656478993383859e9a888b54fa57d9989da7bc68d68457998586b9b669b88ca3697a77aa54ba9a75
col25:   286879775796c7abccdc9c689974889abca896a5a89abac9a9896aa9ac7967c7a9a8da7556a2a8b3
col26:   aaaa7a67b9a779bebb8998a7eac7bbea9a8b9c9fac8db97badaa8e786fa99da93ac99785caa8c8b6
col27:   a83659818596adbc9856ad99b9dcfadca84a9a877ab89ad7a9dbb8a9e966886875ee78d88b9c5681
col28:   456968a8bc6b7a9b599bacbc84cc7bcca5cabac799cf8c8d548b6aa98b95ba98ba7cc8dbdc7aa8aa
col29:   a989abcb79adcb9e9bc8fdb9a77dcb7b9eca7b8c8ada58bdefdf86a7b99aab88ada7b499b789ba7a
col30:   5865ea8bf98a88783ac9ca9abac8999dc968788889b99b8babbbc89cbeeb989c9a7a95dca7978798
col31:   8b8acc78a6bb8b7bc778bace7e55ddbaecbcf8dac5cfdaaac9ba9aeabf8c7b8f89bd6edb8c9e9684
col32:   3985abd7c667a8bdbbaaeafc89aeae7cdd8dbccbc8fbbc9bab97cbbb7f8ebe8c97c9aa76bebe9f88
col33:   7586977c7e79896676ba78d9ccf9baeafe86a899ac8caaac7a6bba6aca979cd4ab69f4bcb9bc88ab
col34:   c759ca39f6959cfce6a59fadccebcbadcdc5cb8ef9ecaf6af69768b9bcf7b989a9baa9cc96d98a9a
col35:   4d898655ca8db8888eadbdeda9d5dc9999b479ab9abdc98dba8bed78a9cacbac7faab6ac969aa297
col36:   19b58a78b796999ccbaa9678c879f99d8ba9cbbdbbaa9a998ab4bc69acacb9c9a959db4bfdad9a69
col37:   b7958ccf5e8e9a999ad8edcbcd89d69bfc9a78dccffbfccde9cbbbe9bfbddabbc99cddc9dacb9c96
col38:   c7abd9d88ac8aa97f96bbbc7ccbcdea98bacbbeb9c9bb7ac9fad9ddbbebe9be7dac9dc9b9c9467ec
col39:   4ac976a7a8f98a866ddeaaf6c8c89bdddb8dededb9d9989b9bbaccbdb6cbb6ab89cbcb8bb6be88bd
col40:   8a79ee78aeab5d99bcedeff99bb78dedcfeaec9aadeec6bdcaabdaa9fbca9cb9c9b5bd7ba998c5a9
col41:   674abbecbfda37dcc99d8dc7ce86aeeffabcecfadcbef8cefdbcb965dee8e5de7c7c8c5befbbbc96
col42:   9b9b89d8869ca56d9daae99cfccbdfc89cebd9aecac8cfcb8abbb9fcbd9bfd8c8adbacb9f8afd7e8
col43:   66878d9cc8da9ba6a8a5c9ceabaac8dacfccb8c79cfdccfddbb9c8afdccc9cfdcf96b9d9babecbbb
col44:   739988cb97ce9addbfcd785ebdd9edffe9cb6ca8ccd76ae57ec89bf9b9cf98bbbda9959ccabbeaa9
col45:   7a88dacc865d6d899fb5f7aacdc8ccbbd99ec74badbbadfdacdfe9ce8acc7fcab9c98b976acfb97a
col46:   a564a9b8da97adbc9b2ca9aba5aabbfbfeefef88cb9bb9bfbb5bffccfa8ccacccc9a899bb599bafa
col47:   d95a9baab7a87dde8a7abc8ffbcce8ddb9ce8abdcbadccd8b9effbeb7dbbfcde9f7afbbb9decbbac
col48:   99e7aeb6ad9af6cb8c99bacbd9bbfbc69aacc9abdbbbce3d879dbdbacece8a9bcff9c88d8cabba9e
col49:   a88a59dacbcab9dcc5ec8bfcfddbdbbab9bddfffc78fcfcfccbccdaaedfbcaeaf8dbeebfcaffaf97
col50:   579abe97b9aa9cdc8cc9de9c97eca78978b9bbbbcba6abddbba8daa6ada4ba8dbdfb577fcdbabb88
col51:   645a989997489a56669897a999968798aca6dbbe9697ba7857748677a58bae77f98949e85da9a58b
ROC:	 BPix_BmI_SEC3_LYR2_LDR5F_MOD3_ROC13
col00:   92137342524655666774476a54228944799a56a72356564269a51769ad6353374772647686836451
col01:   c577718795a355686aa98aa7cc98572889779ba578a9eba6988b97877976763552289b98a9546638
col02:   2954a6642966a7756678699346a7a5496c8b49e669988796bb69a7b6676686594769b75a77798771
col03:   4788aa685b97b97a796a9b3a8565c676a6794b8a8a7b85a79c898789677b2b658749567534358791
col04:   b455687a986a5b5c774967886864854887c8ac697ac6b79793788a9db7968679bb79956694484337
col05:   a89d958476877d34777897c8859a6878666a8377ab97ba96795a8972849a7575b999553662842487
col06:   79484788985777ba7669c75daa656977da9a83bba68a7756578b796b88665887a7639b8449875462
col07:   5897ae447d5a66a56bdaa7b89b77d777aa858679a9897b777a9977889b6777ba7b3a996886587566
col08:   9d56b87b7d88a969485b89499ab79a799c59697aa78859a98a5554b8a69c8978a76676c866794974
col09:   695a9899baa28b977a7a79ba6a568969f5777bbf957889699a66899458879689461894a28aa753a4
col10:   7a887cc8b4369639897895979764759999896a5bb788778a8c957996332383367899468a7794b671
col11:   5534687585a34a9978ab49897a788d89559789786a95b46869a58898aa589c6668a6c71a66b84653
col12:   4744898827696b888a667b7b38664874b97d956bb8999465575783b3b579a8798573789567453444
col13:   67d9896a672a8ba79847897964995b67ac6acb7979726ba939a363da79581793b5948b89676a4755
col14:   74347775887ab64957aa774569c94ad86667b8ab37c8995b99989a875a68ab567c8949265a664676
col15:   486578745c9645986866baa8a667196a9987bb6baaaa968a976a5b6b8c957568a958175135767212
col16:   b45713a51554857a77b7db7b8866d8a59ca978865898494489a9898586665766887717416baa9427
col17:   79536a8869bb88a9a9aab69b9a865a6c77ac8a64576798a795a889889976a6886886555628586a57
col18:   2456573893746987697586d7b5976ab8873a888b675b9c56b4c8c93aba7bcab6856956556b955274
col19:   a86287799376ca5a75ab97799878678988e4da9aa9458579b89786c848946688998a647aa5675881
col20:   7684957686753685788a6776d56a7992978bba9abbd27969799a998bd68a88958549717533845359
col21:   553887c94986987a8476b87b96b627b5c9c96a7c8e879977983aa9a9ca9729686656524a68747485
col22:   44454aa566385b66c6aa4589a8a8576994b987b968ab87956686b848baae73975796977771464559
col23:   8764588436a598688aab68a66a36a78695a6897779948b6a7fa689a8778e64654177692686175863
col24:   6a32599776978d55867877985c87697558b57a988a89a69a697c78a99a73aa6b846458a345621359
col25:   6715a6a3a539a8857a68877c77a579ca6d97b56d9a9a87b7a978a53a8945ac76588b957a39556462
col26:   47a6aaa99799c796ad9b9e896a8a776bb6baae9baaa75676cea89bcca9d9a693977b956549b98b48
col27:   45a79d8b698da78a7587eb8988ba6b6498da98d9d89b3b686cdb9abbadb98679579b5a95a7481663
col28:   88b798b99858d98c66b66c8baabdc999bfa8dc97cb78968b8bc249998ad866a896dd9b88a6859256
col29:   b389dccab9a89aaaca748ba69dbaab7bc8a498e86b86e8cb85cba97acc8867b98e76bbd5979d7698
col30:   899689b7885679e9b97f7dcb98dbbc989eb4dbad798a98cbe7557b9fd8b49abd78548461579d6267
col31:   a967ca884b867cda9abab99ac787aabadcaa9a5acab8eab7dbc5999b894e9a69ac99c67692d84677
col32:   9aeadb979699559acb9a97bb89979aababdafd78aaeac8899adb499b8c78ada996a7c588863849e6
col33:   b888a8a649c98ab6a78c9cbd8bac6e7bdc235cd89ac7a99976a7a56dd6edca488898a849783b8997
col34:   781b6b7bc868c6a88b89a7898a8bbbaab79cbb78a89bad6ab9facbbbfb7cab9ab9588b64a8c98cb7
col35:   a9849b87ba99adaa89c78bd9aaaebc8c7bab86ad8869bab8b77bcaa6abc79b696779b78ec39adaa6
col36:   d5bb8798bbcba7a97bb9dbadddbab7a83df9aa799e9cabbb89b9ab9977669799b8e8ab7a775a689a
col37:   ca7a68bbd595a7f9ac8a8a89b968adbacaaedd7efd7d8df7acadb7cbb85dceacb5777b986ada88b7
col38:   c99aaaa9c7a88ace8986e7c8d98cccfbafab99cdbbabeca968c77e7e8cb8d9a7a6bab86b8793a545
col39:   79b98b9bb4cb7ecb996a78ba9aaba898eaccbde898c8bcbaedc99ac9db8799869d47a339ab69c9b9
col40:   493875868cc9989ac9b7c89ba979aba9b77eb9cbad8eb8bccaebbc9dccf776b99ba8cba836967767
col41:   988a852b8cc87bdf7bbccb78ac998e7cbd9fbbadfeba6bafaabbabab87bbdeb7988aa7c9a3997bb6
col42:   cb94cb9a99b6a99649bcbabb9cec8bb7ba4aa9d7aacbaa988b3c9e7cbc9a8965bc46979966c66967
col43:   fd8ca59bbcb869ccb76bddaabdb7bf5da8a6ca9da89dddeb8bbefcb8cabfb8bad697b976f9ac888a
col44:   a69a59a5679bab9babbb78a8bba9bdbee7ccbe8bb8cec7b4a9dc8c88dec8b98a4d8c984b8575dda4
col45:   a6d6abcdaeafa9a6abbb7bc8b88afabcdbbdcfcf8d79cce9ca7d9aa6dc9f9b7367ac9ab5ad9555a7
col46:   cbcd5b89a7d8a88ea79b8e88b8ac7ddda8dbd7ee9ac8e7d9a55cbc7eebce8bd9cb8ca46767c9a966
col47:   8c9bd86dc546d8ccab7c7bacdbbbbfddf98bdfcda9d8c87987ab69fcb7ba6ba8e8dd7c9a997b9468
col48:   8a49c769c6a5aaacd9ba8aabea7abaafe77accd7f8adab99e9a9896b986b89a6c7a798aa6c734886
col49:   c879699beba9c9a78bfdac4ecbcbe9bbacb7dadfcdcbbea9bccbca7b66b88b7b9b4a7b9ea6377bc8
col50:   baaab687a9bc9baaea86bbcba8dadb9c8c69abbd5feb9cc98699bac7bb785e8ca9fbb8dcb98c786b
col51:   2976234759c89a9a4556a579dcc8a57b6a57aba8772a77768bbd989699937a986874496484379871
ROC:	 BPix_BmI_SEC3_LYR2_LDR5F_MOD3_ROC14
col00:   6a786475577582b6a7255a9a94478bb7679a87465a8bd647466755637486a54558559491a7696865
col01:   969797a726a7596669888b85a99a8b87777dc9575957878b7a499897686877b44cab78a7b5ba9aa3
col02:   17b37b58b66a468b9b7b98aa84b9a7e8979788d5885858699aa3ac62996bdaa87883f774bb96bb61
col03:   8988b8a4ba7cb9a99664bc9678c2737558b6ba8986a8a69ab7aea6a39787cc778d957ca897875897
col04:   7b94878b997a987b95a56cba896c6aa89688c9bb9a9aa7e6b86867b667b6aa8a658c6baa68898693
col05:   75579b996648934ab53496487c7bc89ab799a67655845bca996ac8c4b788ab9b4ba5a97652576846
col06:   972889a9b685664685a6ce997b67c7a77abaaba866b8a7689695b758cba385775488796484667879
col07:   75886ba8baa6a996996b7755a789989947c7ea8a9c45799aae9bc9a94ae55a99798a9686a8897882
col08:   647578c886b785679a9a9b78ab978b7c95c968848a898ab798a8989b99b6c9aaba889484d7c9a687
col09:   964a94444bc665999cb683a557a79a9a5babab5c787966b669547959a7a69a9689ac988534492676
col10:   847867734b94a99aa66a8a9467c6757b99d6a9b8a525b4cbbe876cabba9ab98a777a96a994a8865a
col11:   96a4958466b63878c5a9c87877a9a5caac9aa1bb989c948834aac797b9698aab6b58caba696baba8
col12:   88ab8668b9b68887c8a749bd96899d66b9ac88b8e57985a7869798c59e7e89a66695c8763cb86ba7
col13:   768686bf88366a776baca89ab9c9bb9a9aab7bbc89bd8db8a679c87b8d9b99a8a7b76ba9aa878885
col14:   96b7289866879abbbb8b7a9a8abd6bb5b9dada6878dbd48acda977a93596aa888c7a7b96299a49a3
col15:   73c75878956a768d8696559559d26d9aa98995c6b9c689583cc787779aa7b868f6b7ea97b8368b54
col16:   938555578a69fb86aaa498878da9b682a8896a7a85a9acaa9898aba886f7b8c7a8b5cb7982857ab8
col17:   958c7146b96786a8b7a7956c96bb56c8ac6ae89bf7999ab699b78c97baa58cacaa9c6b5896b98984
col18:   58775b984858c6a55a85897974688a969798e9ca9a976a98687ca667ab889a8b99a6987679574664
col19:   5aa3aa78b75ab99968a997b85db94c99a7ab9c9a89a8c88bbf568a8a77ba88969ad5aa4958a8b647
col20:   19858777a9b5977a9b8bb47a57a87b66bea7996588769e76878cd88866963979a8c4d8a5bbd5b868
col21:   8b638569985bb888598466a973b59bb65a9a8ac3b5aaa7d98779d9a9867abcc98887a6d6cb897896
col22:   47686578abb9a7b9c65c89b8782769979ab8cc8c97898b58d679cfc7babb8767a8b796865a5c9857
col23:   7477698a8a98b888a487f8796d78997ba6a5b798bd967c79c6c9b7899a99879574b9653b888cb46a
col24:   29597276592a8a9c7a2c99a88998889ba68bd695aaa76cac87ab28bac25dc694ab87a53a99899a53
col25:   36999ab668b7a867896a74b979d8a887bb86a9c947b57c6a98a7c7a96b88cb9a4b8899a9ca78a69b
col26:   b879aa519889a6b8bbb8cbe7a8bb98b8b98bb89bcc875eeb6aa7b97ccee866db7d9ab99d557a9cc5
col27:   35698c6888aaa7b2b69aa98b8b6998a99a99acb9a8a9ce9bbac9e89b9acacc8a6b69cdab89cf98aa
col28:   b6a9499c8899baa869ebacc995bca8c9a98aac9abab9a9c9bcbbebbcc898b6cebbdbacdeb97adac8
col29:   965896975caacbcafad87e88bc89a9caf8aaadbbf87778a7c5c78d9dbc98bcdc97b6aa8a7c7b998a
col30:   957977b9b86c569d78775badbaba6c9abb8acd767c89abfaed6cabb7cd8b9ca69aada997a95e8d96
col31:   8b9b69b9ae89d5abb88cbcbab9fcdb9cacbaafb9ceabbae5a8adeababcabcfc9bacdeca8f9dc9da6
col32:   a989b88c874ca6889a8adbacdc99cbb9eafff7baa7f8b9d8c9b8d99bdbecbafbb9e9ea77cbdce877
col33:   5c787a8748bcc9abb7da8abc6ea8d6a6d7e9ba99bbb8dabaadabcfebbf9a9ece57c797cbdd6aacaa
col34:   aac6b9a9cb9cc99879aebc7ebcbacbabbde9aba6fa6cc9b9bbbdb7cbfe7eea5cdb89c77a88bfd898
col35:   a59966cab9da9b9acbbba38b9cdcddcabfcadbdf8cfed9aaccaad6acfbaacb9adbc99bc9d8fdc8a9
col36:   7b7969779d8bc7997a8c9fbc88bbafcbedbbea98bbbedab8ab68a8c7dab8fc9e6bef8dccaadac7b5
col37:   59a899b9ec8e5cdca7bfbebbbefcbabdffd99accc9dceedcadbdbfccbeedbd7ccdcaa96c9ac9b999
col38:   4b9abdbbfdd9abafbbde8aebbdfdecbcf6ccfdcbcddc9f8cfb7d8aeabbccbcfcfd8ccb9b7acdb78a
col39:   679e9cb9c8aacaae8a98ac9c6b9ecbe9dff9eb6e88a97cb8dabc9c9aeccca8c8cba9dacacbaaaa9c
col40:   976b9879dca9d6c8bdaa9deac7dcdbcaec8eedb7ecdbc98f9ccceb8adbcc9ba9eb77c798bffb7a9b
col41:   a88b9b88d76cdbbbe78d86ccbecbdbcbdaafbdfccbcafab9c7daacabc7f9b9f9ddbcfdfb97bdc577
col42:   899aa89b889ccc8eae8b9aeb898e8c8c9f9bccedaccceacddadbda8cd89dbcee9fdb9ca989c77af7
col43:   aabfcbaebdebd9cfa9fcfa9cfb9bececbdd9afcdccdacccdc8a99a9cb9eadfcbbdc8deadec9cbcc4
col44:   899499b97baa9cccabd3a8ec7cccf9fdba9ecbbec7ecddaabfbeef7bcbeeedabbaaddc9cc99caaa9
col45:   ac68cb8a999cfea798a8baeecedd898f8dbebeabbc7c8bcbbca9dbddf8cdcfca9bcbccbdbb88bca9
col46:   7bbab969da34e7dac8bcdabbd9dcea8fecfecdbeeed8cb6bcdcdbccdfbafabcbedfedbbaceebcdbc
col47:   8aabae8b8bf7bd9abccf8abefcdddacbadcbef7aeccacacfbdeccfcccfbbddc9aedbcbccbbcda8a5
col48:   9899bacd9adbcb7fab7db8a9c9cebdeaa6aebf8eafd9aa6bacaebbeea9abeec9dacdbcc98799bb99
col49:   87c8cd4ccbccebccc5b9cdc8ccabcb6c7bfbfcefcdfd9dbdfadafbfab9acda9ceddacce9ab69bb86
col50:   e98bdacba8cabaecdcacf8ecd9aeec888bdfd8afbfdefaffdadeeccccdaabde9fefcdb9e6be8d99d
col51:   6a47eb859a8687bbf7aa779baa9b9aa9dfe9c96b8b99bbcbaa899a799bbeaade89ad6bbc8eb96997
ROC:	 BPix_BmI_SEC3_LYR2_LDR5F_MOD3_ROC15
col00:   3434554755547682335691189582247342575644a1866456653b5b45758942141455837576665546
col01:   946535759337857676768c49337368585678594987691b7b99437768a799865ca5539686984795bb
col02:   3663487655a55193576734666639478a8989b858a7b8d797b75981884766875638d5435a578657a5
col03:   1245b8a63563762b258693777697aa987669a7884577865678b34697a656757867967a96a9e66796
col04:   4148426125744675547a49586a67978569568ada6997ca854c5a95797895e465645983ca64547396
col05:   61369631797715665aa557633c2759893589b96d78b76b5a7ac997a99476a57bc8b863297b565576
col06:   8335421653715932464985699bc8747864a79b674a7687668829aa55a5b4c8e77a6567367677aa63
col07:   4141945b4548536a75747d998598b998771dc9b6765186a8787979a398b6b997819796684888a958
col08:   512622578246797618866b797498947859c6746a86669465b6baca996b867646728ca7a67c64a784
col09:   66767c8758778549459a65968995757cbaa9492a685b65599b76a68b7734659c649885b998a69a69
col10:   2423862683886ac1a5a1a68697a75a3bb54816877694879674a74ab687b6a767cc8b745176984723
col11:   844897695838675aa9a6485287a9843865a8984b799bda889597aa94a8b776753b4c998885659776
col12:   a3853466654861685d5535698bb76c566a1bb4947987657777466ab8b68883b685897498478b8877
col13:   2265846457a78778387885ac56599975687ab889a8ac7a5658377b671666885564dda98988969d68
col14:   a574c74a7969726a657aaaaa45a95a6899d6a4b7869688a6c6848998c9c8d567b6777b5786987887
col15:   167637b85569267a147b96ba67a77789b6b65a98936785677a9788a3117789867784768b8673a695
col16:   11448641ba4786558472895959b8396589a8e3797ba979594a9ac9967555b8825721969663566c24
col17:   4497625697468a6b496a7563937c96985878876586ba8bc655738875965ba347bb969754946765c3
col18:   6164865237996623b38a4b5977a29586a6b5b6a94797978867b9867767737976897453978668a647
col19:   46758884a6c98a3472a76a7688768ab8389ab39389a9777978788b8687bbb7c7a7b79877979a2a97
col20:   6116742b469a67864569d588656569989866ba7175257879a4a86756a8667a467b8ad95449877389
col21:   3337162778927797345a63587b7a7683a79aa39a49a9c898b6b5586b7b7789a799967964a5b26b48
col22:   66477386897979773778488846b8664525b77436d184677489ba76b89738a596887569c6a5975b92
col23:   d354454429714c7436667a8562766786879186236ab54a943616767a8497c99819c74c97a3675869
col24:   686633867471b5657776a88a366ad9b74b8698a99da637c77878695738b768799597a9388724589a
col25:   767768958633694854da898598758475b7a88957aa9a8b5bd969689ac5aaaa8c9a7698ad8a1676a9
col26:   6736955287688976189ec79979a489ab88f85c79679989968adaba689a78bdb96d734a9a9c6ab9ab
col27:   658757859a4a86699666c7bc8a689aab79545ac58fb957c9697daa8a88596872a988a6b884976b79
col28:   6757677a6a7c76a5765a97dc68a7caaadd5a9aaab9c5686bb77797b6a9787db76cdb94bda8869799
col29:   8684598b7577979a79798ae8a7959fba8887beaccc89d89a5998a8d7c9787ad48ba9c9ac78a9bb97
col30:   437879799977c1b899e6a68988b88cbca9abbcd777e99ca9f9d8a7b98a69ea9da9bbaba6959b97b8
col31:   74835786b8a96898a8addafaaa4abb6aa8a96c7a8ba78aa9ab9daca86bab9d9a8ce98ec56db8d6f8
col32:   477768899476a79586cac7ab89c986bcc7c8c98a6bbb89ccaabf96c8a9faec68dda89ba9e798c796
col33:   7a5b7478a8669a6a678686677cab8ad9cde97d97c8b6378a768998b85ba5da2a74aaca9896bbd5c9
col34:   277a3a8abba96498995a8a9b987ba7d879c9eb8998797a87f7c7b98ba7cb98dcb83caca797dccac6
col35:   a585999775a599ba5d8bb8596dc9aa88daa6cac9a96b8acc7a8876c8b8b9bb8a9dba8a8a8989c7a4
col36:   a4295a47b5b97acb999999899c8aa8cc9d995ed67c6ac799a89c6bcb98ad88859c963956bf8eab87
col37:   9a7586779cc7aab64ab6bccca88c8dac7db3a9aedcac8fea8afe8aac997ad99d6bccc6f9d878a9b5
col38:   c594686ceb9ac8698b7ddb6cab7977dd9ebc8e88ae89dc7ceabebabbcbba8d8deadc57bcaa8b9796
col39:   c1646e9878688866aac37878b8ab87d89a659b9b8ab8c7dcd6987ac9a8bc72abd98aac949accc6a7
col40:   7628bba6c9ac8aa85d8a888a7d9bc88d8a79964dabbacb88fabdcc6ddba79ab8de889b88b889daaa
col41:   a8c3b89cb9b9b9b9aa8dda96c9a78baa77a99accb95a8879babb77aebfc7cbbcebdbce9c97abb7c5
col42:   99787758a995a6bc9a7aad969b7ca98d6cb867cb8a578fd88878ad9b8aeae97b8acf9968e5bcf458
col43:   b468caa68885bb898a99bf9a6d87ababbbeafc8baacab97f7aadfce889dcd9b9dbd99d8a9d9a8976
col44:   a5785d9b8a88799d9e5e97abcaeb8eaadfc8f9ebad897a9dcf798cbcccdcb9eccb97cdd968999d9a
col45:   6395d7a9867cb88685887ad385cb6e87eb98a798b9a5d78cbaeca7a8ae9b9997ca8dafb7d6a9cb78
col46:   a9a64478ba7a9a899aa5d88bcaab987a9e9bd9cb89accaec6b8abca88b7bcaa9bcfab8e7bbb9a798
col47:   773657c9947cdc48cbca97bbdb68ad89b96799eb88ce99eaad68ac9b8a7abca9cbacf6a89babbda6
col48:   6586755987997f6786988c479c8dafb98a86a99479b89fbcbdcc9ad9cfcc9edae8bab69a8b7b86a9
col49:   78b888abb9b8a98e79979aa8c5c8b7dc88bbbc89da9dc9d7a9feac989cb9e7c789e97b8c8ae79aeb
col50:   6546b6cacad999759b8bb7b9bab9cbbc98c9c7daecb38deeb69786979988abcaac799bdec797ad78
col51:   4a176679398877a8a55777462969ba8ab55b9867a88d6976d8aa7559777ad589b6c89a6bab476725
