ROC:     BPix_BpI_SEC1_LYR2_LDR2F_MOD4_ROC0
col00:   33937264784625439874868A649B667689767AA8C9989587669ABE6A966928AB4769A87A9B7888EC
col01:   359382B89939C7A7889968888ABBABDB9999A5788A9ACABAB7D9DA9CC8D7C8BBA8ED745A9A28E7BA
col02:   64379886863563535BA899C88A9BB768BC897796BB689AB37CB8B58C6C6AB6A85B7893767896A9B9
col03:   54957599537D9967884B799477AA797976746A8779A7A8999AB6699A7C79AB94A5677683399A8BB8
col04:   B8642781886C87B67687AB787C67A8A98A8F9B9FC98B8ABBB86C99AB9B688997C67BC99876CCA8B6
col05:   85D75988B54966B55988C7A788AB7CD9BA588698E6C979B8789AA898AD7EB6A8D79796C9A458AD79
col06:   78A86794B668885D83B6A97C8AB46899785B59AAD6B27AAAC6A95CAB7DACAEACEB789D88A999ADC8
col07:   9A569567787A883976CBC87AAC88C7989A9B8C88EC59B8C99C869595987B877687C8A765B667BBA6
col08:   464744A74BB8687868879758AA3AA989ADACD7889D93C598CAB59B6946959B9B78AC3AAC69497874
col09:   757388699C369D749975769567CAA79BB99888799B75C98985998AD69987B698B9795A8A8CC9A895
col10:   6847BB77B6859974679D969C885898888A978B67CA68AD8ABB89888BD7AD58384A49A9AB77A869BA
col11:   67988B9676331845A6A78789B55ACB8A98868899858A796677995AAB87779575688B7A6CACA89788
col12:   51C5866B97889599AB8569889A4B88469C999876789798AC97A697C7AB7ABC8779B8F6937C4B9A79
col13:   9A886B36A4788CA8AA8A678A9BC6AA9BA98896A89A398B9B6B9B9BA99596AAEA8AC9687C5AAA77A7
col14:   B16656979768A5693A6937998DB9A9E945738B7A946893AA878967886AA95667AA6889796997B5A7
col15:   67896ACB6B9456556A698EB7B978478A766BE59A9EACE768C8998A25AC97B8985AAEA6799ADC67A8
col16:   3969588386B79AA4596888B8A6BB77B96976C989B896799785658A9C4CD8877B6A7A95D69ED86AB6
col17:   5543975B846AA6787B7A96B9C9988A7AA8CAC8A1A5999A899BB873776DA79A6B6836667889AB8975
col18:   72757467A447C4858998A8D89BC98B3B97D669D874ADD7B75A89BB889B88D959A97BAE8B66548896
col19:   253975C7848898679C6487B8B67ABC899DDA8CAA99CC79EB7B89987789B67AA69E969CE68BC99787
col20:   7936879269497A5887862485C868CA78ACA9459C8A888A7C7AA4796946A4777A969465B78A768898
col21:   778996786B562B598888969889AAA689B9989B79DC9995A49BC98955ACBCC65A88A7A769778AAB97
col22:   6678687A7A899885BA8A89AA4B68BA984C65669B64AA8B9B96C97BC6966C87ED9789868A98A879B2
col23:   575297A68A976BABB97799BAC8C8A678B37D77A8BBAA896A86B876A4AED88AA6A994A879A9499BB7
col24:   477654688794A75B8BB4888DAB988B887A6BC57BBAC67677593AC9A979B789E6B788BD879D94A7C7
col25:   78485374C585B78A858DA9E798679686E9A8AB98C8A5C6669795CAB8989958B48BAA978AADB99946
col26:   7539998788BA8ACC7AB5C9849ABBDBDBAEB978A99BAFA9DD8BCAACA9CCA8BCA97C8ACEA59CB7B677
col27:   9676E68BB8AA88AB9487888BAC9AACBA98CC79CE9977BBDB7CCAAC7BC8A99DAB98489D979B8977A8
col28:   7A98949B78988F89BB9C788ACAD8BBCACAC8A7ABDDD9ECCCA8ABBEABB698DC7C8BBCB88A68AAB986
col29:   69C87EADB878A9A4799CE8AB9A79AFEBB8BAB7BF9CCCD9D8AAC9AD888BA89DD8BA896A96CBCC77A7
col30:   99554CB459489E7AEAA9A7BA79BDCA77699989C9CD989A9BECC77DBBCEBCDACA9399ACDBE9B69D87
col31:   97A865AA9B686469F6ADCBCBBF8DE8CACC7B9DDDDEBFECCAEEB6BFC9AABBC9CF6F97AFEE9BBEDBAA
col32:   7573475A5989BA9B7B6D58E979EB97ABDEC9B969BABDA9CCCBCEB79E48AB9BEB77CBBB75AAB9BAB4
col33:   6867CBBAB87E8B6BCA8C5DDB8FAA9B99BD9DC6BCDB6BB8B79EE9FACDEBECFAABDBD7CDEAE7CEDE6A
col34:   77986B9AA6C7B988AAB9AAACAAFAADE9A5DA8B8E6CFC9BBCE9AEBBFAECBCBBADE8F8AB6BD79BB8B9
col35:   57AC97C968A6D7589DBA9BAF78D89DDACBBD9EA89C9CF8ABEAC85EABC87EBEADFC8FCAC77788CA99
col36:   62AC9D756999B89CAC5CBA9B5D88AACEBD98D8DBFE9A9CDB9DDAFAAADA9AAA9B9EFBDED7C99AE897
col37:   4A94D79BBA9CD88CBADCB8B9DDBCDBC8DACCBEACCCDACBDFA7DCE9CCFAEDBAA8BEECA9EDBC8F9BBE
col38:   8DD6898DB69BB7FD89A7CCA6BEAAECCD9CBDBB9CFEFBC9AEBBBCF8EFCAEBFCABCDCCEE8CDB88AA96
col39:   A9697B9C7B78CAC6A7C8EC9AB8EE98879ECBDEE89ED9DBAAAE9DEDACFDF9BABBEBCCB87D69B777C6
col40:   A83677A78BE4C99978CBABBABBAC9CDFFBDCDFEAEFAD8BCBE95CEBDBBBDDCBA9BCFD59BABB97CA95
col41:   4C9A96AAC8DDBCDBBA99BA78ABB69797D9FDEBDCBDBCF9AEABBCDEDAAB9DBCBF9EDADBD9EA899B8A
col42:   986EC8AA9688CA979B6D8FA79D96B9AFD8DCFAE98ECE8ACEFBF8BBCBBDD6FDADFC899ACEA8BBCC9B
col43:   8E6ABBBBA9C898AACBA9E9CCD7AE7AC9B6BB9DFEDFFBD8FCCCAACD9DEADACEDDACACBFC8AAADBCC9
col44:   9587AF8897A4A98ADAAF8AB7AABDEAECDDBEDCDCCACCB9DB6EDBEC8FAF9AACA99BFBDCACC98799CA
col45:   9798C84A7ACBEEB9D9B8EBBABC9AB99CDFF8BECADBCDEAEFBC9DCAE6CCDB8BDAFBAC88D87D78B9E7
col46:   4778B7B8787CD987C6C85BCCAAB9C9CDBCCBDA9AA9BDEABEABFEDEE7D8BA8CACAB98CCCED6FDD7B8
col47:   67AC98AA8A89B9B8CDB8999FBFEBDCDABFDBEFA7EA99AE9F99BBDCDAAABB8CBB99A9C86F8EA8AA88
col48:   87B4A7779B68E7D978BABDC9BCDCE89BDAABCBDD8CECF8EC9BBAAFD88EA8CD979ACDDACBC9EAC9CB
col49:   C4574B89B9B8CEA7FA88BCB8A8BCFBDAFA7AFC9CDDBA5DABDAB58CBBCE8BDDFDBBBFBABDC8E789EC
col50:   A89DC8C99A8764AACABABCC7BDACB8BC95DACADA9BCAFCCB87ADC9ACCCDD9CACBCDABDCECB9EEEFA
col51:   64644699B896599979359386C586B8CCC99C9BC9C986A8962D8AC867597A5C9EDBA66898BB8778A7
ROC:     BPix_BpI_SEC1_LYR2_LDR2F_MOD4_ROC1
col00:   6365444588768989A7769BA96BABDB6A9D98BBA6BCCD5977BA48875C879C68585C6647678A497355
col01:   9579BA996778A79B8BBB88B66988C48F6ABBDABC8BB8DADB4A99AB9C8E98C9AC899879248767C781
col02:   3DB58A597539978597DA9786AA89BC975DBB937E8BA68928C89A5EC585899C6365BE4C687D673AA7
col03:   CA89DAA9C89A79AD6DB7B67A8A7CDA95DD8BEAB7BD9CA9ABABA58A866879A6E59758DA7D6649494A
col04:   6A7B988994D4A896819CA6CC9BF7879A7989C69CBAC97ACCAEBC4D5898C9AD877A76A85956549547
col05:   73585B77A69B9E97B68889AC79996E699897BBC79CB5C859E8685A7999689784CD789865A7B61655
col06:   7575982C6AA6C78B75C98CC9A889E88BCBAAABB8A8DC77A78CAC8AB86559BCA7465777F83BA77746
col07:   A68B9B66BA9D9D9A5BBEB9E8C7BA69BBCBFBEDB99BDC9AC997BCCBB9BB5CA5F9A9A9B86C4495E7B5
col08:   98818C3B9A9ADEB3BAC7F84BB88697D99A7A598B88B99B884867894896CB8A9B7585A69A484BC671
col09:   47BA9646BBAA655D8FC7A838FEBFDA9ABCCDC889CFA98C9BCFD9BAABDD7A97AE5BA798B6986E8595
col10:   7585375ABB68C757ABFA6A57A989D29A9957CE7A9799B89BC6ADA8659DE29CD8B76557AD775B5684
col11:   598B5567A95CA8967B678CEB748987977BAACDBB77B9A98CA76886BB88797D8BA684BA67885234A3
col12:   56BA9A284AB7867DB9EABAA9896AE9DBA9D6BB9CACCAC9936CA6A6B797B9E7C6787A89C66C39B983
col13:   9D949A799666AA878D68C66DABCBA9AAB797EBBC7CDF7CABA9A9C8DBB7665D989B7A77E878B766C7
col14:   58785266958ABC9A6948BE8AC98C99CAA9C6BC97CAB9987A77D97C69EAAA88A9BAB7582881366456
col15:   2AB8A8BC88A75AD18E24AD7899E758AB8D9D7ACACCC998AA6DFDAB89D699AE7A8986B7779A496827
col16:   79C4E45DB7698B99968979CC6CC96CDACAECFD99BA977927BB88DCC7B9C976EACA6A6AA199658798
col17:   A978987867768A787C5ABB8996AB8979BD98A5BCAD96ABD8AD9FA88FC79A77D88A8935BB5865A688
col18:   69A688278B86899989B9ACAC7A86A95D9BA9B8A796BCBA89D8CBA88BD9AABA979AB9C66B7AB54761
col19:   5B87637657AF6CA49DA8DF79C978AB97A88CBDB98CBF4A7CA938C9A9A9AC7BE396BD68BCA87673A3
col20:   68586D664958A7BA6BB87B8E792D9B98C9AAAA7E899FA6B6B995AA75BC89686A5538A6A764467741
col21:   7785589A479D8C5A8565ABA8FBBBABADB6A8CC58DE9749D958CB58BAA5F53867869CD8C78AB74A65
col22:   AAC76BAC8B89CAC83A4A47D58A9BDB9C8ACA5A8C8AAAABCEA8BA8CA7AB7D8891B47E8288C5263454
col23:   786862A86367D967BB78BB7DB885B9BCD2985CAABCFE9988AACAA8957E9AC95ACBB9A68977765631
col24:   6775957A457D678635768889AB4BB69A7AA8669B89E39ADA6C9BAC9BDB1FBA9A99C5794787215852
col25:   95BA95648AB87AB78B8BF6ADBB98BBEB8EBBCCDBBC9FA98EC6789C796D5A867AAB988CDBDB7A2374
col26:   749F4AC999D48CAAD8B78BDFD8C99DA9CBFACACF8BF3BDDAACC9BB9B5A98A8C88BCBB89A8AAA7B85
col27:   9CAB7CA4D654A9F9AA5EC7CCDA6ADBC9D9CAACB7CBDBE8BAA7AB9FCFABC7BDBADBDBB94A8D5A7882
col28:   62C7A7B8487984B7EC7EFAAA8ADC8ACDACA9CECA7DDFBA9BC8D8C69BCAA6BCAAEA7A7A8DDC45AA53
col29:   A79899CA77CD9E7C99BBDFBCD8B5DBBEE9D5BE9CEEDDBAFCA7D8EE9D9B9DFAC886CE9CA78A9B6AA8
col30:   2668C9B769E8EBABCFCDCCAB9C978CACC8B7CB8ACEA8AB8D9DD8A8AFBBC7B9EBE88AEF797D775684
col31:   8BA677B9778C8DE9CD789C9FDB9BE978EFBEAFBEDBAC9CBCDE9B5DB9D8BBA6BACC97FCFDB87B94AA
col32:   7D83C7DCBD889AB7866CA9CAC8CB7C95CBCBCEB7CCB8C9DBCABABBAD9AAA98ACFAAB7AC9A9D63C88
col33:   6AAB9E8C8BBA8FABBCAA9A89FBCFBD9ECCAEACAAEABE9DA8AF7AD7CEBCFB4AACE8AA8D977BAE1748
col34:   778A786C9B8BCDADAAB87ED7F9DD8CCC9CCADECEAACBFC8B89D9ABCBBFDD9AC9DABFABA86675BB68
col35:   8B96D9C79B77CACCC8899AB7CBACDBBDFDF9CDDBDFDEBEC8DCE8FEBADDCACDB989CD77977B4AAB75
col36:   9AEC85A86A6CEBFE878B9AA98AED7DFABAAD5CBBBF7DDF9C99FC9BABEC69997BB86DB7469A899172
col37:   78F9EACB9BD6EB9CD7CFDFCCE9ADBBFCEFE7DBBDDACEACBDB898E8CBA9EBFEBEFAFBA64B6D958FA9
col38:   B85BFC9BABABB998EBDB98AD9E9C9AA85FBCDFBDEFCCEF5FBD8FCCCDC8B8BE6B8AAD98AAE4A89876
col39:   9A69B7987DBB9ABCCDDBAA8BBDDBDEF9A8CCDA9FBBCEBCCDECBC8DBBCCE7F9D9BD89A6AA6DBB8D74
col40:   E8AADDA9AEDAC3FAAD5AFDFECDE8EBDADCEDFBBAFCEBDBEBDC89AC88DFDDEDEBB8A69AAD89CD99A7
col41:   A68DAB786EBDADBFAEFDBABDBCC9C5DD9FAFFD99B9BFFCFFBF489CFA89BCD9CFCAACA8CDEBA4B87A
col42:   BBDB8FBAEDDCACCCCC8CB9ABECDCABEDBA8BEB7ECFDC6CECB95CAEBCDC9ADACDBD9C99DA7C99A7A9
col43:   95D9E2EB976BFA938FAB9E499CD9EBF99CAEFC9AEBDBD8EFCC9DEAE9FAACAA96E799DA9689E79953
col44:   AADA8C9A8BFBBBBF9BAE8ADEDEBBDBD8CCD9CDCDABD99BB9E997FABCDA9AFBA89B9BD85A8D8B2A85
col45:   A88D9AB98AA8CEEBE8C8BBDDACDFFCFF99CDC9DC99D7FCFB5EDFCBACFFDDFACB899EB99CCA84A985
col46:   989475EBD8AB89AB8979AAC9ECAD869DEBCCAC9D8AE68AD96BDFAC9EFFBAAC6489AD9A99BC595BF7
col47:   C9A75A699BEAAADA669CCF879ECBEFBDACCFFDCD9C99EBDFCFBB9DDCD9B8C999DBA8BCBC7CB696C6
col48:   8685ACCC8AC8CF9BCBFDCDC7B8A899BCC5AEBB9BBDAACAC49E6BEAFFC9BB88AABBD9D99DBDA7C865
col49:   A8F57AABB9BABA9ABCDFDF9A86E9EADB8DAAFCCEECECD9DEFABF897AF9BFBA7E8D98BA7B99C8B5C8
col50:   B89ECC7AE5B6DFA99BB6CAFCAF9A9BAACBADF6DBCAB778AB9ACDAFF98CE8ACE5AAA8AC8A87C869B5
col51:   5967667897899885A86B76976827C88697878899BE47985FAA794EAAA8867685686473AA83636897
ROC:     BPix_BpI_SEC1_LYR2_LDR2F_MOD4_ROC2
col00:   6674576354958666254865517539AAB7978769E99B56AA896B78856B98799866A857A89565596AA3
col01:   464944A7B6A6B3868A67A9999B8786CAB6C7DD99C8A6B8CAAC889A9AB5A7A57B859AB9C88AA7EA9A
col02:   46478AC9866CA8A55656C4CA9AC47CB86B9B8999B989C5B8BBC89C6C8B997A6958A8E66B78634A61
col03:   6A5469BB9986A7999B86876D59888BAA8C9869BB97BA57A96CC8CAABB8A7C89A99AC96A497A6C986
col04:   99A79A57875AC8589785A6B8A97A9CA97B29BA89BA7AAAD69DB77979BC69AB6986B99988E8868A8B
col05:   69587968878B8887C6B5CCD68778F6CC998BBB755CA3C67957878778B8AB98C868A9B68CB76A98AA
col06:   77498575A487687766D9BB6AA98DB6F4A8A7D7B99B9BADCA989988658DCAB9DBAA48A6BAC95B7D88
col07:   A674937C87789699A899A69877AAD867A99B87ABA99889B8C59A87B86B137A57A9C9B9ABB7A7B9D8
col08:   A27875BA987889589AD8B86A9A95B8A85769C76ABAA9A5A5C5A98C277BA98768897993BA78679944
col09:   88A4EB8A9AB597B4A88953A8BC64A4D5A797BBBC75A9B8CA77B7D98A88AC7978BCFD87CBC4B89B74
col10:   67768557EA9C77ACAB9799989ACCF7DADB67EB88AD6A878B977A7A9BAA85C8567A447967A98A9693
col11:   568658627697BA569763AB4188CEBA87AACB6A988A68B9BC978AABB794997868997A3B8882AB79D3
col12:   74587B187898A9B9743A88A7376795476D895A9799A8B96B9C9BB946FA9C8C569B489A8A658BCC87
col13:   63877A97558B67D558869C8BDA9A64FCA3B978A7895B8A384949BB9A9ACCB59B56BBA866A6C68487
col14:   67A57567866385C6596898665777B6978BBFACF5A8A7AB73CA89C87575AA9B989866856369BA7B8A
col15:   A6B6B218CBB4A999648B57979B47874BCA65B87857ABCA798B699C7BE978A49B977A7998A99A767A
col16:   8686689465BA77788AA9676B797CAC77ABBB896CC8696998A78B8B669AAA9689A867A46A88DD6B97
col17:   5452875852A9989999544B9875B9889885796AAB96E9B7A48977667AB9D9B8488698878AA5894967
col18:   43D44668B8A84567783A7A8AB6A8478AAB65AB9B7A99A99799BB6BB67CAAA7884797A99ABE6CAB68
col19:   637747978965A5596A66898AA67A866A54EC89AA6A4C77A9988B888995777C9869778AB797A65493
col20:   45262C9A8747457585769A797558BA79668AAC898A46B3658B3C77A7699A76872484A987A76736A7
col21:   529499A699B1765A8887597A68DDD9B956A8C85A9B75A8898CCBA879B8B6A988A79D94A7656A89D4
col22:   496587A5AC8758957B4597AB378A967D8CAA699C698AB886A785AB84766A8A7949AAC79976589AA7
col23:   674487557C36A77378B877BA89ADB9A7B67B799489AB8BABA9AA76B8A3CBA956599B88745A9878A7
col24:   3D9A47A79875A8688AA6667794498A8DC66877898889B589B68989795B6BE787AAD8BB7B8A957975
col25:   4778574A668699B66B4B878AB7ACA448CAA8BBB98A76BAC8695AECAC8869889B8ABB91C488BA8865
col26:   9869975798EBA8CAAAD6897B659AA78E89B69CBAA9BBAA87B7ACA7A7A9C8AE95B9958AD8AAF8A3A6
col27:   6557B57A948A98A89D997BDBB6E8AE96E9E7BA7C7C9ACAD9B98AAB76CB7B89BA3ABB7CA7989AB9B9
col28:   7B87A6BA1B9A9BA9AB597AB77988ECA568BA987ABDCA897A9B8CEA8FB68A7A8B4E985B56A6847D68
col29:   678896777975CB97D9D69BC9C899A8BBC8CFB98D8B9899A8D97B829895B8CBBA968879B6AA89BA8A
col30:   51A466A6A99687D9AAA77CC7A8CCA9B9BCA9B9989C998A7BCCB7ABCBA67976EC7B7C999AAB9C9959
col31:   5658A77ACB7AA989AAAACD9A957DA96A8B98D8B99CBBCA92D69DA89CA9BBADDA7B9AD9AD7B9876C3
col32:   49768D8C9ACA97697B7CC87EBCDA7CA99AB8BB9B9A88A9898AFACC9BA6CAC7BAA88B9AA784CF9A68
col33:   8968AA6ADB8A9BC979A9A5A7FBD88BC7ABC5AB9C98EC9AAECDBB9C9AA6EDDD8DA7A9E867EB9CA789
col34:   C6A679B488AABB7A98B979BBC9AAECE98EF9C9BCCA888AEACDCBE8DBBB98CABFBBCB8AB6C89A9CA9
col35:   6D96AB4AB66DA9C799AC7EA9979BAA6D4C98D7BE78BAA99B8CDB9DA9EA5A9BDEC8DCAC99B6A57895
col36:   C862A578C8A7A653B87AA7D69B43B78DBB5DCB9BC98B6CC9DCBB8D9BCEC8D8C7A9AD9BB5BB9CA847
col37:   6957B6989DBB8B9ACA5AB5B9EBCDD6BA9BC9AACA8EAB4DFB8DABB8AAD8AC8C8CDC9CB9AC948B6B99
col38:   78789979789777BAA69C9DAC796BCAADA7B88CD8DB8ABC7ABBBCE49A9ABDD8BBAC85CBCAD997CB86
col39:   4679C78889998897CA9EAEFA89CB89CEB9B6AAA8BCBBD8998A7ADB78BBACA96C867ACD9CAACB89E8
col40:   BB9994A9CB9CCC8968D7CB8947A8C7778A9B6ABA5ADBDB9CC699E8AD8BEBADB8B9BBBBB9B67BEA57
col41:   66768389A9889B89C8D9D8377CEC9999CB9CA9A68ABC7B8CB77DCCBBB6C9DABAA87A798BBB9A9B95
col42:   759A48E88BCB9A56588A89AACA89CFC8BEA9C97C9ED8F999A997A9B9C9C9B87CBC5B6B89D797BAA4
col43:   9C4989D89B74AEA9C79959A9CD8B8B97ACD59D6C7ACBEBED7C999C8ECDAEBBA94BAABD887B6A99B6
col44:   8899C696B5A88597BB3DCAD8BA99C998B9BAABD9879B9DDC97ABB9DAB9C8B89CD59C9C9CC752B9A9
col45:   7BA796898AA8645494AA9BBBBAA8BA7BAF8BB67CB8DBCC3AA987A8C668A58A75A985A65F766A5CA6
col46:   9A73B577B69BEA567A9B98CADCBAAAAABACA97BC7BA999DA89AFC8ACB6D7A9BBCA7A8B8C8ABA889A
col47:   D857948446DA9787B878A88787CBB8BBACF9A88D49DD8ADAAA8DA9689899DDAB999ABA8BCCBAA958
col48:   CBA784ABB8B88C95AB78877A8669DAB66B7DD9C7A93799978AD8CDE9B698A9798CBC8C9B699897A6
col49:   9AC7659659C8B7998C8A7788C8AB99BDAC6CAA9A7A68B7897DC7EB59BAAC8776A89B7BA3D8ABBCC7
col50:   8A9758488AB9A88977A7BC9BAC99BB9A879AAC7BC987AB7889D9AA99A9CA779DA7BCAE6ABDCAC9A8
col51:   4336776375997962B3956B7837A887788AD958898965897B76988B82A876B666653967636B986E46
ROC:     BPix_BpI_SEC1_LYR2_LDR2F_MOD4_ROC3
col00:   898696B46679A837177998AC885A96B8ABC7FC9E8BE9AEAFB7B6995898AC5859B874A6B88954A548
col01:   5DA78BA97ACB96BB9CAB8C7CBADCDD9ACDDDBDA7BAB9ACADAB9EA888B5AC9BBB9876989AC9B9571B
col02:   8AC8ABBB6B7ABD99AB9B99998C9E8BAACCAAC8BD9CBC9CBADBEEA978DACAB9AA86B89BB96BA55863
col03:   C98DC6BBC6CBABDBEA9A9AB9B98BBCBC9B6AC6AC9B8DFACBDDBBBDB6BAB9E9BA9B9C96B65A557895
col04:   B8C8B96A778AB8CD5AA886D8A99DA99C9DD8CBC3F789EBEAE77A65BCCC89BB789799A835A9376B59
col05:   9788E99A6D9BB9A9AA5B98AC86978C9ADAC7BAA9AA89897BACDD8B9FBD98BA8AB8CAABBA89CCCB66
col06:   99BA53C689ABBA97CB8A9BBB8B87ABBC76CD9AABB7BBAA7C7C997BA98A8AACB9A878A584CE58BA74
col07:   68A7B8898BDB9869BAC9BD9B8B9AAB8BADB9BE876B79997B869E7BB796E9C985C76C88A989675865
col08:   77388C7B3A998B987A49ABC99657C27B8A9F9399EBD66998E97879D86B7B97A5BC6B9A65A9776994
col09:   27E8DBD9ACA8F8988ACAC8C9BAB67C526EACCDB6AAACFBB9BDC8AAB9AC6DBB85D9EBB57F5A9688C5
col10:   D5B766886CB88DABD9A9ABAA9A899ADAAB7CDADB8C99DC8C8597A8AAB9B9A8B9BEB7E4A84B8A6A86
col11:   897B78A6AE82C789A8B944F7DC8A8DC98B9769A9A999BCB895CBDA7BFA98A76BA9D5C844977D3954
col12:   88666993DB59BCC86CA97968D996B3C9D9BA79C68C79C59AB8D7A988B79B8B6698A9A5A84686A648
col13:   997B6A96D79CA8BA8FC9BACA9A9ADAB9AF9C8CCA98CBBAB77B3D7899CDAA8CA99C679F4778679676
col14:   47AD8A999A9B6AB98AA99886999BC59A9664D98DC83BD978A98B288B98599B9784B839A88468B248
col15:   37AA74A59C9DE9BACAA9CBB9B9AC9AF87BC8BE9CD9ACBBC87D8A9FFB7E9A7AC56BB9A368B6B48696
col16:   B78ABB896A87899C8889D38AC8897CDCCBDA67CB988AB9F8D795FB9B8BDB683BAA64AA674B666A66
col17:   892879A96779697CE8897A69BEAEBE9B697889AE8AD43ADB477AC87D85BADC6AB886AB85C479E765
col18:   89AA7BA2AA889DC7C9988F74EAA6ACF69A9C84AEECB88A8B968A97B966BAB6885AC856A5965C8756
col19:   A68BAA86A8CA37EAA899BAACDA6B6DEBD9A7A9ABEABCC97B97ACBBA8999CDA7CA7A88A5788976185
col20:   786D739BA88994AA88ACDE7979CB9AD8C8C8B9C5667DE78A759576A99AB5BA5A999DC945995866A3
col21:   A57AAD9A69C798CB7AC8BCD9ABAE9CCA7DED7CFA8A99C7CCC79C8AA8AB7BC69988CA578A6B996551
col22:   88889885858A4CC6A8959898899B77ABAB88ECA778699938A58BC88EA997CB9677AA674B55D8AA71
col23:   598875676BC8BBB799789A79BB789AA7B8C5E9BA9F8BA8984999AAC9A8A76AA7B85B488CB9873436
col24:   976898B58B467B79B99DACCA6A6B5DB8EDDCA157D7CA5869BCA7B7C69B79E78486FB7C79B6498783
col25:   89358897897A9BBAA7B7A88ECB58A9DA9A8C9B89DBEBD97AA89B6AA98ABFA777C56C6665499B4489
col26:   7698BBA6576D58EB9AC8AC7C8BB9FCBDDFE5D879A5C7AD9CEC999CAEBBBEEEA89A9C9C7C6A849B73
col27:   8A6A79B69BE6AB77AC99FB69B8CAEDC6CCBB8C8ACD8BDBFABAA56AACFACBBBD78DC9B996C8AC8B7A
col28:   837786B99DDDBAEBDABB8A6979A8D9FA7FEADE988CEC9BD9979A7CBA9BD88F7799D88FA99797A877
col29:   866E579B99A8888BF7ECCA5ADE7F98CAEBC7CDE7BDF8AABA9B9DDACACE7A99DC95767C8769A95894
col30:   8996AA3977EAAAACCACBCFAB98DEBE98DBA97B9A9C7BB9B99B9C9AD8B8A989BB9A8AC9A99C9F7974
col31:   BC89A9CFC98757A888AACDDEDC88A8BACEEED7A7DABD9EBAA7D9CAB6CAA9BBDE9BCA779CBBA7B494
col32:   B6BAB978CCA979DBDDC899A6B899EAB8BCFCCDD76CCBD899BACB69ACAA8ABD6C79BB9BC5A78988C6
col33:   BB7A8C9F7A796BBDCBAEBB8AFBABC89FAAAD9C8BA9EACBBAB7BA9ACCD8C9AE89AACAAD8B7BA96A68
col34:   5686ACB9B9AC97A9A9DE7DFDE99AAFBC7BADBD889B6BAEBEA9C3ABACE8DACA96AABC6988A3895974
col35:   B9A9B96A8DD7CACFA9DA9AABEDDBC8CABDBFCCBEAABBCCECB9CAAAEC9DCBB99BE5BDC8A7995CB976
col36:   6AE8B9AD7C8ADA99B9E8D6E8BE9CA8AACE99B99DAB9DBBBA7AEC9C8BCDBAE885887BB3A49AE89896
col37:   D9CA99848A9BBBDCBCCDCD9BCDEB7CAFE79DCBCA77BACCC9DEAD9AE9999BCBC97C6E9ABDB98A7954
col38:   C98669BE8CFBCCDADBA6EAF9C9D889CFFABBACACB6BDBDA78BADE899EADB7CCB998CB79D9AB84566
col39:   999B997BB9ACD99DAAC6A89DCCCBCBECF9DDDA88BEDCB8DBBBCC6CDDB8B99B9ACA89B6A5AB43A986
col40:   A8B7AE8989EDA989CBCFADCAAFBCD8A79CFFAE87FE64BBC9BBCCA8BDFD6AB8E9BAD8FABACD596DBA
col41:   98BCA9B9AAB9876AAB988BABAE9DB9C9C9DCACEDBAADAA9DBAABCBCACCDBC8CECACBABCB998ACDB8
col42:   67797288ABD7AA8CAA9A8CA9DABFDC89CBABA999B9BAA9BAE94DBCDEAA9C9ABCAAB929B963745778
col43:   697AA7AABD97A89E7988CBCCCE9B97DCCEFF879ABA3DEADABD98BCBACC6BABDDF8DDED8AB9A78961
col44:   79AB9CB9AFABB7CBE6A9A7CF8ACC99ECDCAC8DCFACDCA8CFBEDFCBCFB98C9AA6BB846778C967AC87
col45:   986A6B775DA9A759ACCB7AA7AC8ABEDEBAACBFDCADADBC9CCCACD7FBBFACDA9D99ADC98C87448CA3
col46:   757CAB6ADDAAACED59A888BDCFECBDADD9D9EBADCDFACBBAA77A6D9E8598E655A5E9699BC8984B87
col47:   B51CA977AAD77A9DABDBBCBCACBCDE9F56CDAF9DB9BED9BDB79DCBA89ABFDCC7C6CC9B8AB9785657
col48:   6B89747C8B6B7B79ADD8BBCEBAB9A88CE5EDBBAA9AABA95BB4A799CF8BABA66B8AD9B79BA7BB9968
col49:   889887AB79A898DDD985DEBCAB9CAF78ADBDFBC9CC9BABE98D899AADEBB888ACAAEB5A8A8A876798
col50:   6A5BAB979A9C5A2B899C9E6D8B9D69C6CDBAFD7A9A9BFB8EBC8AA8BBAC6BE7AACAA5A69B88C6BBD6
col51:   CB8964935371769686659D88B969C5A87949CA687DA378A83E5AA9A69839AA756967573419453846
ROC:     BPix_BpI_SEC1_LYR2_LDR2F_MOD4_ROC4
col00:   943512277441681451947854825455184C868947565342A647321643164134411535713113321113
col01:   44272859A94582669686889DC5A5A68792D77A415B88A44A97C81737D395992F7B311A7138117A73
col02:   6415564A776376A64765977A4568C5A457C77934DA687A993E68626377675C93776727914683B467
col03:   45579A35C65B946A66B398276677685953AD7699A7BA2A76A897B8A79956217A4638757559229423
col04:   366964996291F6A9656696A9888B5797985A7696989766AC89866512799A646A361B647919793328
col05:   75488757587485969788613BB7856992C6139E56E4A749A9C58B3B38A6A867797966683B97773663
col06:   48A5742398314D59C498845668719897B75578569A3A4F57C68669A9B576A9C96362518731472493
col07:   6A79458D766885BA94866C879B799299539ACAD969D3AEC58B9C97A58C88C4B5365797929D156663
col08:   99235446A7C479958376C5B9B899BA9A7C6578346869F47A95C3A5687D5A8647893A8465565C6611
col09:   3869996947A1E764A77836CA7C8D9797959787876177AB775A78865645957466997B597775576B51
col10:   723865734B8B585E545849C5769A717675BAB8DCA772A9A7776A4AB68B665A35796344B646891A55
col11:   49A28B8378A57797CA99B8A8B8799AC495394664C757A54A759975DA68965BBBB6876484A4798365
col12:   91B9B998879B4789A53A5AA98C686B3B4B596B879CBB3646796B68884259B858436A67363B69B254
col13:   974484872271D866ABA999AB9D7979B9A576F59AA788AFACBF7B585888AA5659D8A5569AD6369316
col14:   3C8B5AC766874A86569A555D49B5B4898965649BACA9AB688B877BB4BCC99A28574A6151585766B9
col15:   9643613A77777C575A788D4C57B968686C66B6ACBA8BAC988B7AA837AC96AA846577558729554334
col16:   564795C644378859BBB69BA3669938958A9A4696997B988D83CC9676639757AB47B3886148A264A1
col17:   4252658954885A66F948A56DA7A84F88AC894689AC69889888AA2B8885853CB71779773537486413
col18:   5846A7678196466967A649ABBACA78B9A8666589A588A83C886788A3A7484A8A4986776626849923
col19:   8B842558563958889C78A655C8657A9AE6E989AA7CAD7B6997AC9A7B5A8A9D49864656333DA9368A
col20:   9D9425499757E7948979B665679A4A53BC884B847879A9A678635983A9859695466A18779659B186
col21:   389959874DD99663A878787A86C88478A796ABA7E7A9A79CAB3C76969478CA8745AA69A86957A553
col22:   965874694497878A94CA649B7317DDA7997A8786848C52DC3A787589576368AA6B557D8772A76561
col23:   78493766A538357665977C7A9A78697B67A68A2884C9B9D799AA3F98A997C9B7A94A464572979211
col24:   6A67687484CA77C89759757D988685C95B6667AB9AA8BC59C7765769BBA694A48843748495133151
col25:   6878A698B95B77978BB99DB888288D3ACB5C89ABF8CCFDBABA774B9ACDD199678DC9BA5689967592
col26:   A4379AA78CAAD68BB9ACAD989ABC7636EBA89B2DA7D9F64CB69B73E9EC88D797A9C984B85982A6A4
col27:   88488A99757435868CB49ECF9A9C99BADC9C88B9BD3CC85A9AA8759DCBC8B5CAC3AA76C668D61685
col28:   A45E798797A897CB5ABB5CA88AE8B97CFBBD7AD8FA9DDF6989B7BA9CF8869ABC9C88C96B875AA784
col29:   A6798A96CBBBA7A6DAABA99EACCC7CAAAF96F6B98F9BBBDAFC697B8CACA96B98A37B678A9798AA96
col30:   8B867A7C3E688A8A6D577B98D986A86BAD9DFBBB57F968E7F89C7967AD7DC79838A5B1DB6C458AA3
col31:   AACDBBA9EACA9B798BA99CDFCCCCF9BCDD7CEEDDDC5FC996A899B8AAADEB9CBB97B6DC88A979A774
col32:   3A98BDBC8BB3BAEC9BBA9F9EAD6FB969EFCDACED8CD8DEBCBA8F39C9CBA89BE7BCA6789678CCA876
col33:   CB995C963AA8C9A9D9F968DBF68BAB97AA698A7BDEAF9DB8CA59BFADFCDCFC87A776EE88AAAC7377
col34:   72993AE7AF9B88B9999B7FC6DBE8DBB9B9BAAC9C9BDCA8BA4EA45EB8BBC98A79DADA5CAB5B6D9BA1
col35:   8F87E6ED88CBD99BF6EBBAABCBBBCABAB99AAAC8FD9DADBBACEB98BAFD8A8C796DA8BABA6BB4879A
col36:   65AA77C69DAF6BC97FADBA6DC99CEBCADBABE9BCDA6DCBDD9B5BEC9CBC9BCAD97A684B8868436676
col37:   CA9ABF9ABD9C759A7BAD5BD8BCD9BFFD889CCBACCAA8887C8DEC7BDB4BDDABB97E9759675B3AB9A2
col38:   79A688C9EBBBC6BCF7E7BCCC9ABDEFBDCBBFBF9DAD8D9C8CCA6A8D2BDA6B9ECBCBD66CAAB966B784
col39:   DB8A8B9BC6AABCB5E97B9BA9E9C9EEBCFC89CA96ABCB788A8CE7679AFBA79798A7C94694995A9A97
col40:   DA876B699987FF67ADED9CEEBAD96AC95ABBBC8EFABBD969EEAAAAC7A97A9EAA7DCBBA8BCD57D9E2
col41:   6986CBB9DD8CDBDCCBAACB8CBD6ABEC78CC9EDCC9CBDEDB8CBADCAEFCFCB9798FDBEA9988A789995
col42:   3A9FAB885BAB658B9799CDCB9B9CE5BBCFAB8D86EBC8AAAAFB56EEFCD4DAC98C8B85ABA6BB583EB3
col43:   CECC95C99B9C999D8BBD6EDCBDEDBCD9AFBABCBD7FEDEEACDCEAEDBFB8FCFE99BECDBFC9BB7BD347
col44:   B9B4BD67ACAE4A99BDABAFCBBD9A86CC99DA9DFCDCBFDEAD6CAB69FF7AACCAA6DAA5C5368C564893
col45:   7C3B849E9B76C99C89ECD8DB7898C7C6BDFBA9E9EAD8CEBACCFADCCD8C77CAB9A997B76A1F6A8476
col46:   7A89C6A8CBBAB5CA2CD69CAED7AF9ACDAE8DE97BE9B9AAF9FFEFBE89DA66B98CF5758B89B58996AA
col47:   AEFD89E7D6AC4AACD69AD8BAFBFBD6DEE7CDBFCBD7FCB4FACAB9DD9DBDA8D8B89CE3BBBACAA58D75
col48:   479BAA3B9FB8BB8BADC9BDDDBE6ACDDEEFED8CA8A999CB79DAAADC9899CFFBBAA9E5ABBBC97AAD48
col49:   9D8ADB8BB98E8D9ABD8A9F4CE9CAFDCD7CDCCB7DEBFCCEEFCCFDBA7BFABFCD79959E87AC898FB8A6
col50:   7C9A97ED876EBDAEE8DACD9858AFFCCBEDCCCFBB89EC8F9D5C9A7EBCB97ABCA7AFDB7AD676B8CBB6
col51:   4D547BD7B779759B6C476B9D8A8C8ACBA87AACE6CB8E8ACBBC6B76BACC96A5667157C38739945676
ROC:     BPix_BpI_SEC1_LYR2_LDR2F_MOD4_ROC5
col00:   51A657823379884925A6BC49598454598447473B589768982857689585777478469A72838B538395
col01:   65485857699867B8499A42D66A7465D978E889AA84A7476786B96E97989AB4A8AA8A86987D969882
col02:   7565767597548677524657BB5668A7766896A7B666A76A878564766A6B6786A48ABAB989C6464774
col03:   775346618872882A75C9858F8B9A8CC84789536A686696B8876696A988869DA676B988795788779C
col04:   431235937544695558AB8668882B8699D64698CAA89A39A8775AA785DC7B995949A3AAAB9796A577
col05:   57579969A59B986869A97AA8567A7788D984659C878A8A88759576A7C8977AAA9479567B47569C25
col06:   8536A567B18A74A7A96E858A6795B79799B69AB665A5CB98A8B8D98C7B97C98668987765AC87A762
col07:   894D56657C9A739A65A78877BB658B8966A999B988D6AAB5AAAE99D979ABA8B9759979A697C568D6
col08:   45C5C94594689A983484C9A7588998C99ADA7AAA8883489A999B69A66877AA9A8695A987869A8587
col09:   73687C55A77867B5B7A897A9566A87A85C98ADB8978784B985B77729AA8C96D986967A99867A75A5
col10:   A443B66787A77B88F674998C7A9B49EACBAA48789A878749C6A66186C77D998897B8C8686766698B
col11:   57B5A6469CA776D8765979768988997D66C586A869BB77A98966589959A8A7D897869589699AC898
col12:   63B7554A676A86766A96865857C5A7B9895893979ABCAA499A959A974888B97897A9775B6C939699
col13:   577389A9AA4665AE9B99679BBAB7AB8BB997CAA4999597A8A9BBCAA2BA89DB9BC79B78A77A676784
col14:   617876578697A9A76A5755C878A78896ABAD9C899AEBC8767A978856786C8B983D798B65C787DC74
col15:   6D86787593B678B676AC7AAB88959A8399CA96BAA89B8886B87989B9BD947A87BB8554BAA6477993
col16:   687593BB985685A88AB84AB9A98679A8B9B8A7AAD87BD78778A7BA8E8767A6A8B85B9B8A88838A54
col17:   836979269E676A9885A7CAA6A989B679779BA998687A87578789B99B786AB56BC68B5A795566B95A
col18:   7736979B5587A9667793688A969586B57987A8B9ACA7AC9848DBA96886898AB69999C5BCAA92D7C3
col19:   696789A987B8D7584AC9B76C7C88799799A99C965798AAC96CD566A997C78BB6B7787AA7BBBA68B7
col20:   9249486C979577978588B99AB65A7B757D68AC8B7AA5A6A97A5CB5C958688987957547A698C78798
col21:   5A666A233D5887B98A6987ADB9B9D8859BA8DDC8799B7CDB699B6799966BC677A88B999897BBB6B7
col22:   99689BA934A786DB9EA874869A54A6C97CAB39767CB6A39BCB698AD99B5A98A77799B787D9A83658
col23:   95789A769A7977754877AA9C96C37899489A68BCA8B8A5498DB87C67A879B776DA7976799DC97A98
col24:   75658793C986997847C9887D84ADAC85A96A8887BA7669CA97A9CBC65A97BD67868AA99BAB989968
col25:   B85784A9B7CBC8B959B698B7C96D76798AAB7D8BC5AC8AAA79B6FA9A999CDBDA8B6B76C99797D588
col26:   67C9A998E7966BAA7A79BB9DA5AA78477A9BDAB3A9989A9A698AA899CA9ACBA8DA8A67589CB88ABB
col27:   79896989779999B99898AB8B8ACC87A9CA7AB79CB8A89A997B8ACCA8DCA89BDABC9CA889C97ACAC6
col28:   A99CCCC7C8B7A86BA8B988A8BA7BBAAD98AE7AA9C97ABAB9BCCAB8DAB87AAFB89A9BADB9699B98D3
col29:   A57ADA887ABEF888F7FDCCD8A9FA9DC97DDA8AFCCAD8C6D7CB9B9ADB9EBBCAACA8ABABB9B9BDBBA8
col30:   98799CB27997B6FACBCCAA79E9BD99ADC8CBDAAB88EBDAAAAB8EC8BABB6A77B7C8CBCE88BACC9AF6
col31:   BA7D9CA78DA7DBC9DCAA8F9A8CEADD5BF7B8CCCC9CBAEEEECCBBBFBB9FCA9BB9BAAD79CCA8DBAD98
col32:   8A68B8A78BC94C87BACEE9E9CC9D796BCADDCA9CBCFCB9BDCC9ECDBBCDCFEAC99BCBB6CC989E4E9B
col33:   8969AD87EA7AB9AC9B99A88BFDBBD9E9BBBAECDBBDB888FEDABABABAAA99C69DA89F9799B98BCA8C
col34:   7B75BC89BA7CDCBAEEADBCBA9BF9E86E8EBCCBBAFB9DC8DE8EECF8EFBA7CD8D9CA9B6BEDBAAA8AC6
col35:   BA9A99D8DA89E98ABE9ACCCABFACADCFBACFECCAEAFBC9B99E9CABC6CB9A7ADABE8AECECABC9C499
col36:   39CBB9A7C9B8BA9BFCAD8FBDB999CAC9BDDCDAAFBACB99DABD7AB8AABC7CABDACB8CCD9FC9CCAB94
col37:   8599EB7FA8A9AACBBACDFBCFD7ECDBAD9DADDDFCADCEDA9FBEBCBCCACBFACADCBBBEDEBADBB8D9AB
col38:   CB8EEA9A9CDA7DAB9BBDA7ABDB7B9A9EBAACBDDCFBBBEFADDFCDFDACABBDBABAF8D8E8ACBBBC99C9
col39:   59877CB8B897C99979BBAFDBDA8BBAAC9DDC8D98ABEACCCDB8C9ACD9AC9B8ACBEABDBDD7BACBDCC8
col40:   C9A9B99C8B8A9C7A8CD9A8ECFE6EABCFAFBEDCCDFDED8BB8D9EDDD9ECB99CBD7FCDDEADFDDAAD5E6
col41:   DA8BBCD796D9B8DCBEBCCDBCE9FADAD8AECBEFDBDEEBBCBDDCFDAFACEDADDF9DFDCBBDCBC9BCDBFB
col42:   8AABBA9ACDCB8BB9C9BC6CCAC7C9D9C9CCBCADC8EBF9ECCEEAECDCD9CB8BDDC9BA89AEC8CBCDB8DA
col43:   99BDAA9DBCECCB87BBBDCEDEBDDACBCCFCEFB9AB9E8CD9BADD9EEFEBFAFBCCBBBB9AAA8C9BACFBEC
col44:   A9CD8BECCBB9DEBE7AFA8AA8CBFBDADDAAB9ACBADCCDDE9ED9BDADCADDB9CEDBEC8CE9CDE9BCAAB6
col45:   4B7A89D9CDEC99FBF999ACDFC9FFDDC9DDCB9BDBCFA8E9DCBBADC99BCDCDCD88BABACCBCAACCABE7
col46:   BAC9AE8AC7AC9CE9CCDC7AC8CACCEEAAAEADF9B9ACF9B9BC89EADDFBADA9CDF7ABFEDC9BCFDBEAAD
col47:   ABB7BABB88BE88C9DADFDADCD9AED8BAFB7BFCEDDAF9FADFABAB8DECDE7BCAEB9CCB9DAAAC8DDCC9
col48:   CA7ABBBBDB9689CCBEFBCCDCDBACBE9ACDCDEC8ADBEDEEDDCD8F9BE9FDDAD677EC9DEBAB9D7FBCDB
col49:   CBB9A9BBAC5ABAAB9ABCCDFCBA99DFAC95EBAB9EECEAB9EDEACDBCCBA8DDCBBB8BEABCCEDBBAFBBD
col50:   B877DCAAAC8DFEABDDB9BCB9BFAEBEDEADCDDDDCBFDAB9CDEFBDB87DDDECEAC8BCF7DCBDDCCC9FAB
col51:   C85B88DB987964A8C89CA8CB6BEBD9BC79CBABCA9889AA8986CAAAB9DBCCAA9AABDCCB8E89BE6CF9
ROC:     BPix_BpI_SEC1_LYR2_LDR2F_MOD4_ROC6
col00:   246611B4757368891621597825A745B687746979A7B4978A9374685B678466647155B5239A363356
col01:   47475846A4733458878876A59697C977997796A8B5658B7A47B39759976767B55A3666567B546662
col02:   791842476886A4147746896784AA77397A745E657A58CD681757567783736B847855968348858171
col03:   6683272466983D8B96774866B778AC5599587577C8973658A99C977A92788B4B7C677748496A6693
col04:   547C513385167897A4979953C75978A9685AA59A9979795968857877686576767965969949765662
col05:   316A7A667857667777A7655AA689865B47873789B375986786589D77AA747B98873675A745A68571
col06:   3975926B83766766375BA99B68588984787668899558785361378877A79848687665767487434541
col07:   675765374944677876DBAA67967A9BB8B7969B895AA8AA69A7B8A7A9A44A7B7A8756769875749674
col08:   29347537467338498A9669A88845867BBA648A8889A767B6CB697A89965C94A76996679577966395
col09:   59472686A37B85694A8A78A28A97799AAB9669A6E7A5A888C677AB9689ACB876799BA4686465A681
col10:   64673A5447673A88A978356686C5967987978AAC79758587C8998B379A546A76585947B646867251
col11:   665766598A76864695B59A8AB8387987A6C6CA99695B9697749B78BAA77C7376A687365727378474
col12:   536557873397146577699298AB95648A79AC5DBA787B5869A585477788735578A37A48AA6B887442
col13:   5535996558748A4499AA9878966A959A76AA858989698A996A8A799895668679667974B858773769
col14:   6979863697363657678788788867B468899BA7A95A6B98A79889A596B79796375478955783678571
col15:   6653A597776566685A579789A7A8D994994AB7886858ABD8A8698C9B7D6995655788788949577526
col16:   58455488E84866752885568A94898A5C9B66B6B779656887686956A9667B7899B7834476256A5763
col17:   2736467398675589877594C8AA7278C7C9696674E88CAA57BBA597888858A979BC395AB835B93994
col18:   3875847667729686A866655766694977A659A69AB8BA98A957798A978565A69977276837A6363744
col19:   68686968697987998C98A5A86A7CAA98BD99B8796BA99C88C8BB87778AB87B89787B398867B76881
col20:   8764439314587B56836777A7747C8859A7579A97B8B67D69967ADE9697698A9BA856C68375474559
col21:   3365915B449973477A89696B6779B9A74765AB8BB989DCA997485AA987766A6A998787B667A665B4
col22:   84656669656746856866C7497CB9965A699A8BC89A788A7A57A956AD99A77C577B959575899485B3
col23:   A778275865986A758557797A8654658AB6A4CBCAAAA96A799A67796676AA7A8694A38B474A764936
col24:   7754546784715B869A55998DB57379A8988AC8999C8C9989888D8C7999599B87874779467B765676
col25:   469868B499A26885896956B8B87952897A9958D679C9868B6CD999CA7CD9BB6B8B6A96759749A652
col26:   7296C6C548ABAA9B9BCDA7CBAA678A7BC57DBAC57DBB99B999989B5B9C9B999B76BA5BA67A885C55
col27:   494949ACB57BB85AAB98B899AB77A5BB8975B9C7DAC9ABDBBA9A9EBEBA68AA5489BD968A95AA4C65
col28:   897A969978878AA6B8BB77AB998CA5D9CB969CAABBC89DC98C8C9CBDAABA7B89BA98A9CCC6A85C98
col29:   727498879AA89BA99979AA6797B869DC9ED8AA7DAABAF9BADCCFAD8CAB9CBCACC8A57E9A899968B4
col30:   7356699699786B77988569AD99A9A8AA87ABA9AA9B899ABABEC9AA5BEC7BA9977DBB78978DB777A8
col31:   A6A778CD889F85A97DACC9ACAAABADAAD99CFCBADE7BABAD8ECBE9C6DEFD989ECABA5A6E95799989
col32:   4878798696DAAABB9AA8B86DD9BBDADCA857AADD99BFEBAA9CBDCA79CCCA77B8B78ECDAA7DAA89D9
col33:   B9A988889889B8799998DCB9A5CB9C879AB9CC9CBADFA7D8BBADABCD6EADDCAEB6DCADA67A6C9B67
col34:   78CB997ADA79AAB9AF8BB9CBDCBFCBFBAABE9AEEC89ADCCA7A9BD9BE9ACEBA7AED79DAD6A7ED9958
col35:   78967BB9B69AC878AED8BCCCCCAC675CDCDBABADACCAAA88AD9ADADB8A9A9BAA9B8BCCBD9A8AB9A9
col36:   A776ABA68BA6888AAAA89DABCABBDB777A9B99AB87BBABCCBAAADFDB98DBBCCCECDB968AB9778DB6
col37:   888B9CB9BFADCDA9ECCACCAACECCDBACE8E8ACAEFADDBD9CCE9DDA9AEECBAD8CB89ADBBA898CB9C5
col38:   CA867AC9ACB899DABDAABA8A8AA89AE99CD8BF9CBFCCCBADCAEA98CBFDDEABCDBDC978B7DFCC6875
col39:   B76596ADBC7AADEF89BBB9EBDBCAD8B89EDDBC9CACBBBAA9C9CBACDB9DF3CBD9DBB7FAC7C9A86FB6
col40:   96A9BEB99B9AAAB9CDCCEAEAAE88CEBBDBCFCDFCBDBBEEDECDB9EBEABBFACCBD7DCDB6B7FEBA9ACA
col41:   AA9DC9FFCEBDA99BAACACD9CA8FCBCBD85DDDCCFDCACDBB99ADCCCDECDEC9B9FCBAB9CADADCABCC8
col42:   AAAAACBA95AB7B6A7BB8C9CAEC8AEBBCEEA9BDDDAC8CCBDDBBBBBDBB9CDFC9ABABAC9BBBA98B9CB6
col43:   CB9DC8B7BABCB9BCACC9DEAB8BAFE9CBDEDEDDDCBBFAD5BDEDBEECBDDBBB7DEAB9DFEF9FCFABDB89
col44:   AA68EDBBB7C9BEACBCA9DB7DDABCDDACCDDBEDEDDCDBAFBADEACCFADCEBDE9DDCBCBAC8BB98CABA8
col45:   ACB8778DBAACB9DAE89AFC9B9C8E9ADDBCCABC7FCDCDABB9EBBDDECBDBCBADE9DEACCBBBBBBBDB68
col46:   C85B8DAAB8BAADBAAAADDBAACCDDEBACEEADBADCCFCEFFCCBCFCDFADFBACCDDABB9CD7FFACCB99AA
col47:   7C5ABBA9CE9CBFCBBBCC8DDBCCBECCDBBFDEDFDFCBDC7EDDBCFCDDD8BEBFECDFCEFEB9CABCCCBD98
col48:   79DDBA998CABEA9BBB8BCFCF9ECFC9ADDC9BECCFAEFBBDAD9FFC6CFCAF59D9BBCABDAE9D7A89A9DC
col49:   CA8E9CDBBBADCCB9ADB9AAEAF9DBCCEBCDFCCFCBBBACABCCFCBFC7FBEFFBCEACDEDBBABADED9BA78
col50:   C9CC6BCABAACCFCC8EF9BEBEDAC9EACEFCDBAFEFCCE9DEFDDFDDAFBD8BEDCAC99CBDDABCDB9AAA9B
col51:   B8B8E69A8885BDBA9AC9BDA9DBBB99CBCCCB88CBBAA98CD9CCBDA97BBB9ACC9CA99E77A899566A77
ROC:     BPix_BpI_SEC1_LYR2_LDR2F_MOD4_ROC7
col00:   71348558AB58858699687B777793795799865A6858493B685957989865759A8A4777674473934778
col01:   A34998694529636779AD8AB76A8BA5A8B693C789756878D5579986995937B8249994A7A792A75892
col02:   8323A53B697A77A666CB6AA6B94BB7669EA4D7C78A999D9ABAC47386A3B54787A6996685879B68A7
col03:   486962A746678867484AB7A7759A387AB78957C94A87799A9AB9AB7468B9969A88A8887815756645
col04:   6561844ABAA57489A9899A785A899A99C6778DAAA5C58E87BB489ACDA88857999758AAA86496B795
col05:   4765899C8685A7895BB77A6B93A97BB5C959AC68C9568787AB8A938865A5B62A674971A95758435C
col06:   7676855758958888C89BA996998D7936596ABA9776889AB6C5A7468777B88748778879367648538B
col07:   8664B59A6B958BCB9896BB8C9987A9CAA6B78C9CA8A698778766B86886AAA7B7957B87B5A89C9787
col08:   637758956765949899648BC9A7BCAA85764BBB7889945B9966B87AB7AB879C85659B739C4954A4A7
col09:   BB968A955F995587498A7679788B3A89BC766B9989898BD59A49566977A99A58859A6876A1A96778
col10:   3A475758648879896884899AA8977896BA8987B9AAC6C66765A786665BCBA5A99B9A6696D947A979
col11:   778795B59A97496659D9987465B97987B6A9AC8888855678B4B87677A7AAA8B72A77769B2867A6A5
col12:   8997A64957A5A686B58B6773A8A99B867856B8BBBBD58B76B85AB3A89A9BB58AA783494798C78954
col13:   7779957765972649974A8971979AB78AA9A4778A7786ABAAC777768B9BBA56677349A6A958859466
col14:   8547768379786A676993A68798587B8588AA66CC98CA84CBA47A99D969D8799C4B6748B9669B8966
col15:   876757465BA59968679A7AB75976A4887A88B66A78BB7959B77789CA869788BB978AA876A7866A98
col16:   95557A38642857A78969B879978864969777678B76CAB78798997759A99A79986B79A78986BB4687
col17:   425596568D59989C75767D9A46856A989F885867A785597A77D876B5D699B599686B6A975B576882
col18:   A568989599925855866877884456C9149487658895586B7325A9B88167B6CA56866595948995A789
col19:   578977577798959692AA9BB856B68AB85A9C97AAD77978C6AC9968A54A857AA6C688B8763B779D23
col20:   578426476492C9674868AB78AB8A86B967CB97686649AC87A7B9458C87C7A6B5878B9C6B49858788
col21:   8777B94467A6A69866A85969997A4AABB899A86898EB668998794797ABA79766C9B4A8889776CA61
col22:   864A86839796D799675178863A79D759A8C6794586A8D848958976A8C836787AB5379367A787B985
col23:   67763778869C65896749A55844986489B59A8A6859994C757A98A974698898947B6A68987556C88A
col24:   563767B89486966746B7C78B76985386BA66AB599C5AB168867AB8966B64688B48AA5697B475B364
col25:   5756657665679B55B3CAAC9A9BD7AAAC798CBB6C56867A8A7CCEE46B88A68BA695A89878A2986A33
col26:   C6A675A8A886CB877A9588D8AAB99989B985999BFCDF867BB788B8CDBA6BB77DBBA77789795B9A6C
col27:   6B7748B6B7B6A84769AA6A93B7A89D8BEABAABB68C8889B9A9A79977AA698979977A6A4AA7569CB7
col28:   896BA865879A7AAAACDB7CB9C9DDA6CA8A6F85A7ADBD6C97AC5A9BA9D6A9EEDA8AA89AC99A9B7A76
col29:   7A85997579997A7979BC98B899DD6CBEA69ACA5AC7A7BAAB8AA9AB9579AECF89C8ABA99B9CA9A7D8
col30:   787B69BD7C9AC966448B8BDC8C8ADB7A9CBCCFCB968AC9A98779A7A5BF7A6A99499AAB8A785B8B36
col31:   C799679A7677C589DBF9D9E89475B9B8AC99AABABAABAAAA9AAB8AB9ADB7C8EA9AB8D8CB88BE9AB7
col32:   8889A57B8BDA5AAE9AA9C8989BB7DACBA5896CBADEABBD6B7CC9F9CBC9AACDEC9DEA98C7B9DBACA8
col33:   96689986C6CCBA8B879BC8A6A8AC76C9DBD9E96788BB99A8BACEAE8A8E6BAB97B7AC8C9A8AC8A989
col34:   65694A99A88C9AD9C7AB98A99E69DACAB9D7E9B9BAC7B7BBA7CABC9C98DCDCCABCBD9ABCD6DC9C96
col35:   7587CB999969ADAAC57BEDCDBCB97ABCC9D7BADE997D68CB7FCBBBAB89DBE8AFDCB7DCDFA99C99CC
col36:   CA5979A7BC79BEB6BED699CAFD8DBCC8BACB7CDAC9ACB8BA89B8A9BB99D9DA9ABA89D8BBDBD9DAAA
col37:   9799E8878988BCBA78DBCDD9BACCAEBADB7CDAFEA8FCEDC599F89ABEAAEAFBABCCDEDABFD8CBDFCC
col38:   9A968BA67BBB99AC89A97CF3BD9B6BAEAAFBDC8DABCEBDC9EAE8CBEAFCA9EAEBDCB9FBC6EABCDBA8
col39:   97A44ABCAA9989B9EBBBB9AA9B9BAF8AAAA79BCBCAACDABBCA98ABC78EDCAFEEA7DC9F8EBAACF8DD
col40:   7949939797DDF78888DCEBB8B9A99CC9DDBAEAFA8EDDFA7BCCF9E9FFABDBCBFDA8C8BD99B9CDCBDE
col41:   A89CA685AF98A8CCECC9CBCBCC8CB9AFCA7DDED89CC9FDBE9AAF8BADBEBFFBC4DAEB889AAEDD9BDC
col42:   A7769AC89BC8AB89FCBC97DB9AC6AAEDFBBCEE9DF8EACDAAAFEDDCDAB8AFBDDCFC9ACADABEBBCCB9
col43:   7CACB9AB9C87B79A7AB9EC8DDAB9BCACBB9E9DACBEFEDDEF8EDBEBEFBCCCEEDFFAECDCBC7B9CFAEC
col44:   929666B867CC8FAAAC9C89A9AA9ABADCBDBDA7BFDBDBCDCDBBDAE8CBBDBBC8DBDBDBDACBC8EDEBB9
col45:   777FAB98669A96D99AC79EAA7AA8AABBABC99BDCFCBADB9FDDECDA9A99EBCECEFEBCA9BCDAE9A896
col46:   9BB96C667BA9E9AB9ACADDB8CBABDDADC9ABAC9FEFEEC8DCCCBA9DACFEBCCAFAE8FEAEACBACC8DA7
col47:   79A6B9ECBD9998E9BA9BDEEDCACCBDFB9AEDCA7CDDADBECBBEADFBF8CF97CBDCBBDEE8ACEB89CDBB
col48:   BAC8A79DDCA8C7C9999ACACCBDBC9CF89BABCA8ABEBDA9BFBABEEAACBB8BAFCA8CBBCCFB9D79C8CB
col49:   D9979B8AEAB8BCAEADC9BB9D9EAA9C8DEFCCACFFABEEBAFDEDAAECDBCBFDCCEE8FEAACDCABDFEEFB
col50:   89648946AC97DC99ABABEBCABAEAACDCEDCBCE9F9C7C99CDECECFAEAFBDDFCBBBFEECDD9CCCDCEDD
col51:   765A679B8B9A776556ABB9B89CAC9ABB7ADBBDA7A885DBCCBCBA99BADCACC9B9AA4BD798A8CAE9AC
ROC:     BPix_BpI_SEC1_LYR2_LDR2F_MOD4_ROC8
col00:   1697679792418364C97928BC8F7A9797C97ACB9B7AB5B99899696ABE58A74785966863639464B865
col01:   787787657AACB378AA777CB89ED8ACC6AA76A8ADA8D98CAA999ABA777B9BBCAA7A8787CBA978A688
col02:   A95B597A57B85A77755B799684EAA66958A995CB78B8778BD98898789A8796A165B7825597876576
col03:   74783AB99879789AACC5ABB9E769C96CFB8BDA7BDB9B6BB9DBE9A5D97C69992699861AA95C696763
col04:   878858A1A5AB679D9876AB89BB9AB99DB85FFD5D96B9AF5787A7C67A8A67CB69AC779752C6B88484
col05:   65A4B57967A8A77B939A8C97C59D899CED2F996CBBDA9678BBAC59A5A7975D868656AC6AB5635657
col06:   888785AAA894878AA88AABBBAE69CCAB8947DC9D8F7D68BBB69B84BD9AAACF5A68756A8637747867
col07:   727C89429AC87C7A6CC8896AFA9AAEBEB98BCC6B999CA97B6CA95C89AA4A977518777759DB466327
col08:   8758478A975A997AB78A9A8896B967C67ADC96496D6D976BA9C7B6D869A85B8A639A7516667B5965
col09:   59767994646995BABB9B97AA8ADAA89A75687CC7B88A7D9A6DBC93A9A89C84A99A865C964569AB86
col10:   57967A73DC889B4AAB99BB8A9E7769A987E78AA9CB95AA7DC8BB6A599CDB99A776D87A6854976669
col11:   59976677679B69C9A7B999B6A9EAC9BAC2A76B8888777AB989C82859A99898BCD6B7B72765776B53
col12:   547A89775E8A735948AA999BB79BCD8B9A9B9ACCABA87A79A8CB97C69A577A7786476A2946896783
col13:   5A95685755673AECADB7799B9AB8BACDB8BCACA9AAA99BAFBE69AAB78BBCA4786F9BD77789C188B6
col14:   9485674A9B4877447D6999BB88A6C8AA9B7EB6B8AD88A9A8795B9789C5778B889B59A39766675461
col15:   765A878A2A7C8568788CAEA5C7866ABD99BAAB79A77ABC9AAD77A88A78BBC776A769D79A8577A456
col16:   26C94A84BBB79B89789A8995EA9B9BA976A7C966B9C7EC8AB6AF7BF7A9C9AA68BA83BA789A748542
col17:   68756A3A5CA865B79BAABA8538A7AA895C8A955C79F778BAA8CDAD8BC99B898757B5745785B35967
col18:   625575856687B8A8CB568B258BEDADCE9EE8CAAACBA8B7A779BA978A7B7D9B844B58BC81B684486C
col19:   66B975CB99A8BED79B97B9CCC9AAA5A69AABBAE97A6698776898B87C789EAA3877685D9945778745
col20:   887437AA54775A996765D9CCBBC7C8A93B9CD898C9AC797878A68A98C689A879A85669776857C472
col21:   37DA2A297989B69C4BA7A8A298BCCA8448BDABBE89CA699966C7A5B9B89DACA6836B991A5989D7A5
col22:   6368B7559788C99AA5968D8B8FC7AB5D5798B9DB79FA8B7AA99DBB76FC721CA76975697847867C75
col23:   A3C976A69668E5AA8B6D989565AB49C97C89E95A989CB974C65B78C776C77A6351C66488356246A6
col24:   6946B675BB87EB97B997B7DB89B88BFBABCC5B6BBDC78B9A88BAD6285AA992694A564C55A77877A8
col25:   8A58A5664C4C9A6AAA7894AC898D99BCBC8A79A9799B8A4D6C865799D986B59687A86868BD356633
col26:   79D3B8767A788D8ED8AA8ACBE9C7ABCBBED7CE8BD5BBB4AAB79CEAB7D798CACAA859AA8589B8B5B7
col27:   9AAA6889CBDA879B8ECDBD6A79ABD98A6DBCE9AA9CDABDB79C9899BABCB6C5E58ABDC9B573945836
col28:   9B96CA8DACD78EE88796D6DABFA7BAED89ABACDC9CCECE698DA8EE97D7799BC3979A9977BC9B4892
col29:   A998D7C859CCBA8DBA89DA99AA65CA8BAAB68A89B97B7BDA8A2B77F6BC77E74596B9876698569C84
col30:   7B77A65689DB79AC86ABB767EA9EBE9A7CABB8F79A97EAB96BAAC54BCCDFA667B9768ABC6A9CA789
col31:   889999895A9AC6BB7DBBE9EBACCCE6CBCA9D9DCA9CB6BF7BCEDB8D97BA9698EC757CA5B5E8859793
col32:   A77786A9B577686D9C99B7C8EDFDBDB6DB99A8DB8CBA8699ABB6CD9C977BBADAA7796B8DBC45E69B
col33:   9AACD889CC96397BC9BBCB7DCFDEFB9BCABCCACA9B88D9CC85CB878E6BCEBA9CAEEB9B8988669884
col34:   79E976B8CCA86997D7EB9AEBAABBFABA96FD9CFC8BAD8869BBA8C8BBC7FBBA6CDBC8ADD678D989C5
col35:   CA6A65CFE87B99B8C6CACB8BCAC9ABAADC8ABBBF7ACCB9CAEDDBCDA8ABA99C7DD9888FABA5A8B776
col36:   AA77886CBEA7AAFD9E8BDBC8B7987CCB9ECC9AAAD989AC8BBDA99BEEAAA7BAB7AC4AB8FC96CEA669
col37:   6C889C79BA89EA6BBCD7ABBABFBCBDCECCBB8EC9CFEAACDCA98BE74CBE9BC9C8B8B8B9ACBEA8A9E8
col38:   77BC9A8B6AC9A78BBB7C89BBBAA8BDACBDEDDB99FA8ECBFC8CEA9DCCCBB9DFCAA9A9C9ACA88A78A3
col39:   A87287ABCAAD89B8AABE9D9B7BBCCCDCEDBBDDADA596C8AAEC8CDC6DCFB9BCA8FDDCBA8AB8BA5AA4
col40:   7DA9E4B9FABAB8AA9BDBEADAEEEBAEBEEDABBD9FA9D8AAADBEBCDDD9CBA49AF79BDDCB9F8B38CB88
col41:   76BCC99D97A9999CBEF79F9CBB9BACBBEBBCDBA8CFCABAABAA9D9C8FB9DDAFCCCC7FA7CCBA9766B1
col42:   CC8D9E5A9A879B8E9DBAFEABABCACCEDAFBB9DB8AADBC8A8EBCDCBBF9BACB8BA9999EB8DCBBB8EB9
col43:   879A98B89688BD88BA9CCC8AC8BB79CFA89B9F8DA79BF68EC8FCCDDA89A9EBBC8CCAC7BC9D8AB977
col44:   E875D599BD99CA9BCACC88CB69A89BEBC9D9DA9E9FAAA6B8AA9BF8CDCCEDEAAABAC9BACBB9479BD3
col45:   B99DB99B8C9D8CDCE9BFFCB79BCACD3FBCCBCEACCCBF9CEDA8ABC9CCB8A57ABB58BCDCD9BC7867B4
col46:   5687AA88ABF8A7DFCBB67BAD7AB88CDDE8CD7DDDAE9EFFBDBCAACEFEAAF9DCBB88A989C9ABC69B56
col47:   A8B879878699BAB7DCFDBC979BDEE99D8E8FB9BDCABFA9BCA9CEBC8A69C9CA9BBDB9CA6B4A89C956
col48:   5A996B59CC9899F8EDCB9D7FB8DFFB9ECFF7BE9FBE9ACBFBB9CADADC96DAB898D7EAFF899BBD77E6
col49:   8ABB8A77CAA8B9B99B8A8DBF5ADFC7AA9EB7DC9FD4CB9ACCABACFAFEAD6EB9799B5BAECD97E99999
col50:   7C7D69D99CEBCABDC8D8C87B7ADDCAE7AEADBBA8AEAEEFBACBCDFCFD7B9A9B8A8DA8C8A8D998AF97
col51:   B576467A9454C95788769BB7DB59A688AA9DBA889BC69996477A7FD88972CB887A956654A8725A75
ROC:     BPix_BpI_SEC1_LYR2_LDR2F_MOD4_ROC9
col00:   B545679756B9D949988B9BC859DB9CA5AACBE9B6A792685AC779B8A8886389B7B4438AA962484977
col01:   95B776AB7CAB7C38AA97FC9AB47BB9ACCDA7DBAB87A9ADA8BB76DAB99C9589F7598E69CBA8A57A97
col02:   7969C7B7C9489B6A6DBC9A6A9AC7AB98F6B8A9A5ACEAB7C6BE9979938AA76834576979AB38648444
col03:   C338998B5C65ACA7AAB9FB76AE799EC69ACA8CCAAFC9CBEDF6C9E99BCCD6C9AC69685677A4A98998
col04:   95BA4749CA6CC8D988ADAA978A9CABCBC98AF7FC9A79BD8DCA7BA57B8C5E97888687979194817893
col05:   B95CC9968B66A6A7BA668CECCBC4DBC6AECCD8FAA8EBCC75B678697578B787B87BC7A747B5894996
col06:   526789A47E7A3AB79C9AB7BEE8AFFCB99CCABAABBEABC8CB5DBDCBB8BBC35AA686869C46277A9BA9
col07:   67C967C56C8BBCB7EAABDE99EFDAC8B7FAA9DCACFEB8BE6A87B7B674B59D988664A6A655A39A89A6
col08:   A8A58455B6889779A687C8ADBB6799DA7ADD78ACA7968AA8B767C878B1687845457A7A4AAC61D962
col09:   998A9675B658ABB888C6B97FC3DEEBF9EC9CDC9CD99FDC8D6AAC8688A7967BD65C8C3BACF9C999C8
col10:   758774ADBAC8A7A6EA9BABBFC489AC9B9BCAB9CCA8DBA8B977D95B67878BA9A976FC788C999C79E9
col11:   748CCA5BAA39A7A679A99CEEDAAC99C8CFC77AC7CA7C8B7FA4849CC78687966653787B8C989898C5
col12:   2A9553168866B3698CB958C8BACABDABB688A8AEBA8AD58677C587CC76C9635B97962B7B939A76D6
col13:   A6A7551F854684A97DCCAAC5E898BB9ECBA9D6F79B98AAAAACC68B6CD88C45B989ABBA9957C8E97B
col14:   195389399474794BC6EB48D9AA8B6B988AADB46AC8F8A97A639A766689B698BE89B6A7978DC5A9D4
col15:   B98783C98969A88CB6CBAC89DACA9CCAA6BA9589C5955A89C79CC878C79F6A48B9ABF7B7A9C45A9A
col16:   1A63B8797979AD657BC8BB7ABC76CD8697C698D76574ACC9A6E86A586D6479849AB9B995DBC68687
col17:   61954544948192A577B7BC785A8B7623A668A88986B4BCB86957BB98ABECA57ABBAA999B6A8973A6
col18:   13935BA45866769D5746A48A747B898BC389AAC59B9AA379969668C5E87ADCB8B59C98FAC9C55B99
col19:   114522668B97526459A795EA8595ABABC9CAB959A6C5A85BD6ABADADA7CFBA88B7A7B99F829AA747
col20:   353797D69378868757A6B6AA996A2CD65BB9AA7BAA9B383886CB8D68C99B4BEA45699786E67877A3
col21:   3544753547567891BC69369987196BA6A69B953889768BA88AA469BAC86CF9B799AACDC4BAF968C9
col22:   52362358A7A5596165C23A47778B8A8887BC78596F8AB49C988BA9AEDF9ACA689A9AC98D8BBAB9A9
col23:   75151547798A89397698883A9798AE79AAE67A87CB8A68A8B66DB5A9BB967A7AFCA8BBBAAFA84761
col24:   49A8959E85669946BAA8797588DAAA57A4B8B88A86BC77698B699BA9C7BBBAC69C5B5C997A99C778
col25:   B35869599789897A88658668788587CA7EDEA9A8787DCB7BA9BA9BAE7EA9DB98999B7E8A9854D786
col26:   58B6AB7439BAAA9D6AAD7CECAAA9A97AA8CC97BCBDE787CCC9C9FF96CADBDD9B98C6A59B5BB9B7BA
col27:   A847E597B297E8C7C766755B7D9DA7C98FB99E87DE98C8BDBBAD8C9CC8C9CDBCDCAD5AC9D9DA9D98
col28:   6685ACC89949BA8AD9DCEB955AB987AAD9CDDDCBF5B8EB8DCB97BBBCBDECDABA9BBCC9CEACB7EBC7
col29:   8798FCA774DBAA87DB983AC9ACC9D7B9CCB9BABEC9EF9CC6CADD8ACADBAAFDADDBCC7CCFA6C98797
col30:   69916C959D9A6798CBCAAACEE7EAACA8E5FB8BB7D77A8C7F8FC9CEB795CF5797A8C9C9BE979B98CA
col31:   9866A6675C55BA57E76CC8D8BAB9C79CACFBBCEE8DDFBF9BA6C9BCCBBDB9DCC9B889BADC6BFA59A9
col32:   2A89D58AB8CB99BABA19BFC7AE1CCBCC7CDC8BCD9AED8DBCA87ADD6AA99DDAA9ACBACDFEABBA78B8
col33:   798998C9DAE9A7AF5D8BD67ABFAB9BECA8AB99C7D7FCD7DC9F8DCD94EADA896CABE9DEEA9BA8C9D9
col34:   83788BB7BDDEB86ABB79BA6AC999BCD8AE6CBBBBA9DEDAEC8BC9DBCCBCDF99BDB89CDDABEAACAAC7
col35:   CB5D97AFEE4AA9995BCC95F69DBEBCD8A89ABBAEE8DCBDE45DFDECACADCFB5EEBCD89EC7BCABB99A
col36:   8995DBAACCA899AB56C69B7CE99ADCFBCC8BD893C8DEC99DBEAA7DCEDA8CBDD6DECCDEB9C8AD9D8B
col37:   CB8BDC7AC7B9CAACAAF8ADBDFDD7CBFD88BBA8F9B9AAAC6A67AECBCF7ECDAAC8AFAFADCBAE99C7CA
col38:   76F9D8AECC988BBC8EBA789BFDDDCBFAADECE85ED7BAF9EBCB9A9EB6DBCDBCC6B7ECB9B4AA9FCBFA
col39:   88D99CC79DBB4FEE69CCABAEB8DCBBFDA96DED98EA8ADFAAB8ADABDFADBACEA8ABA8CAABE9D68D99
col40:   785FCABAAAA69BFB99CFE8B8D54EDF5BC5AA5DCBA7D35EFA996AF8EBABEBFEE6DEC9C89D9AC99E98
col41:   9B9B9CDD98CB9ADFA968BCA9BEDBFBDD98BCEFECBB8EC9CAA997CA8FAFABCABACBBADB9AB779CC96
col42:   8576ABAB99AEBAB9829CB76A8CF9CCBCC9DCB9BDC7ABA7DBDCEDCF7ECECCEC6AECDFC8BDAC5BA9A8
col43:   8D77DC4C999ACBB9B9FAA9C99FABCADEBEFEDBADAAF6A59ECFE8DFDECABAABFD9EFBA9DFAE9ADDDD
col44:   6BA7E9C8F6996FA779BDBABAC7FC9ADC99CAECD98D9AB9A5BBFFEBEAEDEACADAE9BEBEADFDBF7DA9
col45:   ADCBB99BFBCA637ABBFFFCD8AFEAFADA7AFDFBB9BBDF997EDDF2BADAEBD8FC8CBEEBBAAFBADBDCFA
col46:   78CACE6D79EAD968CBB47B6BDFBFBFDBCB9AEBBC9DCBABBBCCBBB9DB7AFEE9A9A98BABBEDDEDBA7A
col47:   9AD97DD9FCCC7E8FB999F99BAF9DFBBBB9ECECC8AA7C8D7698DDE89ECB5BBBF88FFCB59E9CEE8DB9
col48:   9CB986999B9B899DB798AAB67C98C99AAACEC9AA99DBF98CCABDA9FCADECABB7BADC88CB7DAD88A9
col49:   96988679B78AA9CBEDDB9B897E8EAEDAC8B9EAD95CB7EDBB8DC798E7699BBFA897B7BCFEBB9DA9E1
col50:   ABDB8587BBDE79B88BB8BCCDDBD7AA9EACBA9BAEEDEDCC9CCFBCB9F9D9CB8BA8CECBCD7AAC98BA64
col51:   D5B6573A4797AB6A7B964C8A79A47BB6794A8E486A5C94D48C88C99888876AA69A487BBA87B4B497
ROC:     BPix_BpI_SEC1_LYR2_LDR2F_MOD4_ROC10
col00:   576944453848A6AAB59666B7969798A777B958DA8B9A5BA4C69AA9A7FA9AD7D9C599659A9729858B
col01:   A7B568AB9788D6668A6BB9B4798CA998A89EEBCB7AAC98AADAABC8859DB8A8DA7A8A9D769DAB9899
col02:   2986667BAAAF6AD4A7A8CA7C8ABD8BABB9C765BABBAECAF65B8669C88E7CCA78E9ADA7A66CA8AB7A
col03:   396849936488AB677C9A98A4B9D89D8BAE87FB9AAC8BAFAECCAC7AEDB96CB9C96CD9B8B969967A76
col04:   49287C679AB9CAD519AABB8D9C998EA8DA6F9BA9CA96A8A9CAA8B9ABB97D7C8BD4ACCB88ECDAA49B
col05:   5278BAB899C9B5A9D97B587BB99A98AFB77CA67BCA98D68AACDCDCB587BEC7A89ABA6CD9AA768855
col06:   775586658CA95C9CCBEBFCDA9BAAEAC9E889879B6A9EE8BBF7A97DA9CCBBC8D7ACDAB99A8A2CA9A7
col07:   8699868987B8BAB86BBB8C9CC56CB7D78C6B9CD8BCB7DC9E7B96997F9B6C9ACBC5ACEEA849D9AA75
col08:   7677599584C88B8A795888679AA689888C77BAC6978CCBF67EC6B6BACC7A7893A9A797677B65B576
col09:   676698B9B98A75478998677BBC99CB7BFCD8CCC89FAFBA8D99ACBA9BA9ABAB6BDCB8C969CAB88B87
col10:   6556754567A9867B979A8F9BA9A9EC7CB7AD8BAFF9599A8C8CA927BDA9FA79EAAB897BAACAA87788
col11:   697A36656668A98A3989BBD8ABBA5BE99CEDF9CBCA96A7A9C999C5CC9BB89A7BBA9A9E7E97786A66
col12:   65C864954A597AA9CD95CCACAACDBB8CB89CCFB8CFFD79BCB98BAFA8EB99B7CCA5BAA89C7B67A7A3
col13:   A9B762C995BB49A689697A9D99DCBB7BAB5CDABFDBBBDE8D8B8BBDACDB89DBE98ABC5B8ABAA77A78
col14:   787995A4A4A994CBC9AA6A9796DA78BBDE8EA9BAC9A648949F5BCB899D9CD8B8689A8B69587C8697
col15:   473687566678A8E9888999BA8AC67AB99B8B8BFAD8B98A987FC69BFB9B9ABCA67ABA9A9BB8C8DA72
col16:   4695BA1CC8A4C6CCA739799BCDFD78AADA8BCBADA5DC399A8B69B99A89A8895BB8BC8A69CCF8A184
col17:   79759666B7CA96596385A48EABABC98F9999C9AFC9877BAD9CA7BADABAE89BDC898BCC4A89588675
col18:   76496B84774986C968767A998E99A78BABCAE9CAE7DA9C49CFCD99A7A5EAE6ABBBCC86A58B8BA936
col19:   9A686B9D685536868549758AA99A68AB96DA4EA5CCECEDBCAE99BAFBB7B8B7BA9A8E9D9BD86A793A
col20:   38B144398946A597BA9278BD56BB8E9BABA89DC9A9DFBB88B79CA9BACCDEB67A556997B559767982
col21:   5569786679ACC7B9BA969A8BCA9DDABBA57CC98AAD9CA79ECAAD7DFA6CACB8A9A6C5697997BCA68A
col22:   7679A37667AA8317B69A9B7CCACB89D7CD69889AADC79E999897A99AA9D87768B65CBAA7C6789344
col23:   5754581A8566A785C65B35C976689FB9B789E78BBA6AADBBBBD898EEFAB7D7B7A966B7986DA49937
col24:   546675A8898777945949A89A97BABF998B9B8BADB695976D8A9986B8BEBCB497BC7BA897BBD729B6
col25:   5A776755776679955A9457BABA79DAC7DBCDBBC89CF795AEB99CA89C7C96979C776AB68588A98593
col26:   6594968989A89AAABBD696E99CCAADBBB9BBE8CDF9CFBBADACD988CE7B9ECB9D8BCDD8BD78A8BB76
col27:   8669875977885877F897A55D7AB9B9DFABC9FADB7AC598CD6B7C7F8BABBC98A8A88AAD9B51A7B959
col28:   975937B879785BD9BA6A698BCBBBC9B8B8FBACDDBDABB9D9BA8ABBB7BBDB7BDB7B98699BAB5D9B98
col29:   3488938C7B9AABA7BAAC8C9A7A99BDEABEB7CE7BDBC8B77BE8CDBD9E9CC59CCCBB9DE7AA973E8AA5
col30:   38B97B57C8999BA6B986ABE9DBE7DBBEB96BCBAEA69CBABEDACFBABEAA6CBA98FA9ABBD8A98967E3
col31:   89C9678C7B8CAE99AB97ACB7DF9AADF999A8DB7AE99AEBDF8C7CBF9D9EBCBAC9DA9A79A9788DD9B5
col32:   68589997A6969AA99AA89AEC68FACBEE9DC98ACBCDCAD6ACAE8A99A5ACDDAAAB896966B99C98E684
col33:   7C677769DA6A8B7C9B6AFA799CBB6BFE9EEAEABD5BFFDC5CCABF7DBCCEBAEC9ABAA9CADCBB7ABBC8
col34:   9A9AB958C87B97AC9688B7ACDCBBC7B7A7CADCEAF9B7ABC8BBC9BCDB9BAC6AA89A7CCBD5AAB7B896
col35:   B77687AA8B9B7C92DCACB98DEADBCB8F9DCA7A86ECABEDD57B989BA9AEFCDD9ADF8ABCB9C97A7469
col36:   BDB989A7C588C78FA8CB99D9CDCDECEBCEC9CC9ACB8CFCDBC7BAFCBEBA96BECAC7BA5ABA89AAA6ED
col37:   6D76478BE99B7BABAAA88D9BBD9DFBB7BDBAEBC9B6BBBAB8AABBCC999DBCB9A8979797888B7C9686
col38:   DA8B98AC77888DA88D8DA8DDCFCE8A88CDE9ECDBADCDFFCAA7DABBAC9EFAA8BADB9B8EAB8B8A7666
col39:   B88B76AB96BA69B89A8AC9F7C9DDCB8EACB9A9EEF986FCCCC89BBA79CAFAA9B8C7A99B899DACD368
col40:   795578B94AAC896BB88877B99AB5CA8ACEDAAAFFB88EABEA8CDABAB98C9ADAA6CC65CBB647B565D7
col41:   96AA957AACBD7799A5C95CCBD6CD8CCCABCCEDBCA99BD98B8CBD8BCFC8CCAD68AA38AB87B885C979
col42:   63D7A8CAAB7EDFC76BB39DDA9CC99EC99EC8AEA99BBCBEE8ABBBBB5EAB89BAFCABAF9BAC9A747CA8
col43:   5A6AA4895A6AA8879A6B8CCAE77ADC8BA98DFB7BCB988D9ECA9EBD9A7FBCB9C8A667B99ACDBDB884
col44:   9A8BAC68997AA8698A9AC9CCBB9D97CCCCECB8ADACCFADCCD9BCCBAEBBBCC88A999C8EDDC979BA75
col45:   9888BB87A86AB98CC66CC9ECFA8E96CBBB9E98CCBCCACAECFCBC97ADABFD99A879BBA9CB9B5C9A59
col46:   B9B6C97979C6CACB97B869B48D9DEA9F95ADEC8EDBA8A8C66DB9D6B8BDD8FA9ABAE8BC8979C6A798
col47:   9B7E5A966BA7E89DAB99A98C98C7BB88C8EE9E9D5ABBEDCF7BD8AC789B96DA8CDD899A68A7B878D5
col48:   C89CC66868BA5A7B989DECCD8BB9C8A79D9F69CC9B9CDBCBC6CEEE868C9BA9B7BF59BA5D6C987AB7
col49:   64D999788695A78A998B9AB99DECA6F75BECEB86ABD9C9CADD9AAACAECA5CB79A8DA8BD7C7797588
col50:   A8A79A79C7ACD78CBC7E8F5A8BEDDEBEFBC8EBD7C9CBAA9BB98C99A99BBCBBA7A8AB7CA5791859BB
col51:   895477677A78B9449A84C8C867BB9B755ECC73ACB8B898A66788BAB5B777696B6A87636B5974A774
ROC:     BPix_BpI_SEC1_LYR2_LDR2F_MOD4_ROC11
col00:   975747682737A994685553A75D446879585BA97B54A965A99327A6D66A777C86698D895435665414
col01:   9AA66754CCA98A79C59D88A67A2AA899AA6AB86CA7B9898ABA7867A886DB4A9377B4A78996995333
col02:   9B67675779AA88AC78A8999BA97A9C658796A6A8BB9CA299978C9AC7988C6B994687175788873482
col03:   B966679AD782D8C9AB77CA7C8899A79CBB3A46A97B8989B677915B57BB88C8B78568566977634A85
col04:   773949BC66C677A75868A69A6C85ADBAD96879DAA3968AA998ABC8789AA79D86C17488B794626765
col05:   38A876E69848A65A8ABA8786CA8B6688BA5BABEB9B9BD65978A577AC97BA8968AA898B5A89156656
col06:   FA696479C786588A4A6C6B7A8B8A79A8CA879A7DA9AC5BA5AD3C9CA9586678B9768BE76A55768753
col07:   AB78B956D79987E8889B98CF8ABA9AA9D8A9C8AA84A9A85C95CA85E9D7EB93646BAB9C4579742816
col08:   A684A58B59A7A8997769C76B8B888AABAA9869AC5B77898AD43A678AA9CA7AAC89A23C5989556533
col09:   82BBC598889977799B76A8A956997AFB49BA7B5A8A8A7FACC8A99B95A8A8D678A9946CB447823758
col10:   5997C6B76B997771876D99AABB7C86CBBC9A98D9BCACB94B89AB58CB888AA8957996768568A84625
col11:   AA96DA9457C6B989AA988DA9A989E3D377EDB9A58CABD9B8A7BB8AE7989C9864AA75685C677D56A7
col12:   5C7885AA66665EF7B86AAB78B9ACC9CB797BAD6786A67B98665BDABC6786DA84CA997B8658586992
col13:   37B585B8A6B89CAE886887DE989798CEBB99B89ABADAC86778A6787D6995A598987BB86C6848A879
col14:   79BB8C788BC8387AED83984AD8CDC8889B9AACF8BC68A956AAD9B6BC99B96AA678AA685851756936
col15:   73B468B867988A9BB8BBA99DDDBA79B94BB74BC584AA7BBEA9886998665799956899889846416767
col16:   26A65D7CB8A598B88AB9587A6DA8AA7CBC8CB775AAA99CA6A5598767BA58BAA88A968C6B54598576
col17:   6487B76BB687C6C73B8C9AAA57D5A89799E69AABDBCBB878B69A798896A487ABA778417686762463
col18:   85668986695B9B6B7595A89E994ACBB8A9AE7C878B4EBA999CAA7AA8979AB9AB98AA677959867585
col19:   5A9C86AB8BB6B86969AD876A9AC86BCADA8AD8F99D69E69798BC869AC44A566C889A48592C957688
col20:   66A7844C7ECC599C9BAA96A8BAD8AAABB8779A859A7AAB7984989AA9A8A57B75665B68937B746261
col21:   66448958DAA346FB878AD97BCA8999797967AAABC8D7AA888B879C945BDAB8888777549AAA7876B2
col22:   574B9ABBA8F4A99C899B987A7BBCADC6D779B44B7CD6A8895B999969A8A76673998CB877767A57B7
col23:   AA74A689775A48A6475889A99C8CC969D9BB4B9AA76779AA5C64A996DC5A96B97A98665545626733
col24:   775A7A8B7975A988565C95C88A5BC89B78B68DB7AB8C679999896FD687A76689659654C577AA6775
col25:   A4499678B9888E9BA95E9BBBB8AD66C9DBAC9BEFB968BEA999B9567768878BC698A49AA88B834386
col26:   BD9A88BBC7FAA489FC9D9BBCBC7CC89FADDBCAACBA9FA7ACC9E9A879A7BB9BAC5695AC878B6A5985
col27:   B88CA5CBCBA978C7A686BABD9BADABCABA9C99AEA9CAD9BABD6AA8AD5CAAB759A9B987B29897A436
col28:   988576AE9E67CD7AA98A999B5CBC9B97ADED87CAFCCA88BB9EF99A8C8B7EC9C9C69A9BAB8A6C5979
col29:   49C769CAACD8C3DC9CA9AA5D8ECACAFAABAFDDACB9C9C9AA898EBEDA9D6CAB59A8C8689BBA7CA974
col30:   B8CC8BBBACDA7DD9AFA99C79EE89BBB9AB7CAB87695EF9CDBBB98D9B9BADF65699BBCB96CC95A576
col31:   6BDBDBBBCFBAECCAADACDAC9CCDACACCEC7EC6FDEBABC98CDDAB6ABA956A89E7788BB67BB8A9D887
col32:   697BBB9C9A6B9BE9C9AACC5FFE98DBFCBB9ACCEC9CCB8B6C8C89DCACFBACC699D9B9B686886885A6
col33:   9A7BACBCAA8CCD8BDD6D8DAFBBCDCBE9CBFDA9B78BAFBA9A9F7BCC88F98B97AB98A78676B98BA53A
col34:   B8CC79ABBAF9E7D9CFAADCBDCECCBABDB8CABADD5BBBAAAAE9AEAB996ADEC8CA73B8C4AAB987C94B
col35:   AB9C9A98BCAB89E97D9CAE9EAD96ADDC97FBECACF989BBAABD98BD5D98CDBACA97BA89AA866AB881
col36:   A9BEAAEB98CBB9DE84BE7989CDA9DACCACEBADDD8BC68DAE9E88CEAACABEBBBAA4B8B987C7585C94
col37:   BCD7C95FC9BAABF8ECDBF7CDB9AD8ECCDBACCBBFDBD9DBF8CEB8B9DDBCBFBB8F7A6D7C877967BA92
col38:   BCCECA9CCAB6CACFAC99ECDFDADBFDEBDFEBC9CFCCCDCDCBD898CCCCEEA9CCEFA8958CBA9CBAAA67
col39:   9B799AB98BEBBDB9DABC8FCCCBCBFBFAA8AC8BBAAF7CFBADCDEC9BB8BECA9A4A86898D4ACA87A786
col40:   A7BCBBA9ADAFACDFCD6DE9CCFAFAEA78EDDDEBFCCEC9CACAABFCBBDD5C9CBAAD6A9A8CCAAAA8AA95
col41:   EFBAEDCDBCCCB7A8CABB4FBFEFEFFEDDDBCB9CC88DDDCBEB9EDAD89BBBD9EEE5ABBC9ABABBB69DCA
col42:   AADBC78CEED7BAAEFDDD8F7CEAAAABF9DDDCCC9DAC9DCCBAAD9BDCBDFD99AB98988B89C9A9B888B6
col43:   D9EEACDECCDBCFACCCBDCEEDAACECBDEEBC8CEB9DCCFCBADEAAC6F8EABBFECCBCAABDC9A65B4AE83
col44:   7DC8CBA9FE9AC7AD8DBCEEDFCEFC8FCCFAAACDFFFBCD98DBB9ADB9AB7D796A7DCBB4D57DD7B66895
col45:   ACFFDBE99EACCBDDCBCCAEBAEFDBC68EAEFEF8CDCEECBBDABFE9ABFAABDBB9B88ABEA878AEB7766B
col46:   CF8BEA8DCBADEFBFEDA6BACFAFBCCACCD9CE7ABCABABC5BBCBEADFBDCEEAA988BEB7BB9ACCAB7A4A
col47:   9B98CECCBCBBD8ABECCABC8DEFE7C9FDBEAF7EBC9BFDDECB8DDCCDBE9999B8DADC9AB5C7CBB856AA
col48:   DDCC9ABA6CABDAADFABDDFBFCABDBAD9EBDEABFDBFBDDB6DDFCDDCC9B88AADBD8AA8A997BA794866
col49:   CEBBCB9BB85D9B7ACC8DABF9EFDECFEEAAEDBFEDBDDE9CBBFECAE9ABA899EAA9CCB9C97AC877C788
col50:   88BCBACCF8CCFBC9FBADCCFFDCFF6DFEDFCBFDCDCD9FBB9FCCC9DD9BCECCBD688CD9DBABA885B966
col51:   898AECB9CC77ABB79A99AC98BAAEFDCAB9DBD9879CF99BC86A78FA8E9A9C7F5798A5564A9A663586
ROC:     BPix_BpI_SEC1_LYR2_LDR2F_MOD4_ROC12
col00:   644563767867874697A6589978C99846883AA7475858867A65445453453912265333346346347531
col01:   64688744A486B666B3BABA5777B4CA9B7838866699656936A9683856168677674593874277564676
col02:   89665767789778A767794679AC58B68BAA7656A77B757668674476785477A737C536556745643566
col03:   9784678A6D86A888B79779B9876B866AA658668AA868768956A39B679A4A62644973115663587235
col04:   76B8A6999578A7B7A898C799A89688777B8686558878ABA88897898675687A644868556636688462
col05:   67355378798467A6624899757986AA8578886A6688954B948BA56865946867457587676847131741
col06:   666665566A986898885A689899A89799689696A77996A6689A8898B689A684647484578755425651
col07:   47B57757496A79759869B5249698678988B37659A6787A888BB7CA7AB57779589795738665787237
col08:   9774A636B764C75694A9A7A87D556BDB87986A7B97BC6858A79A748C64488A684784169934848422
col09:   637699969974765444799A598AA96A6A78859B68469957B899B7A6A9983758668465796353455866
col10:   7575779D697889C6A97BA8799A8877776B8798766AC8789A6669A478567B9765A557766957334254
col11:   254864884C679D89869C2BA6968A68B4B989888AA8968C7A89A868959777767A97A85B4675483383
col12:   74558763C4C887A5A7AA8C6DAB4A9A9788CA857988898A9998CA95979776D6458516985477568651
col13:   88668AB74397879888989A8AB8877B6889866796A4786BAB7799B8788568764A395C6AB886586835
col14:   7685659889A66B6AC9A9AA9A9A9A7B888BABB7AB7B88886858B999A9B7A6B8A9788A77656864A746
col15:   74777648396688A777B77CC8BD9B9A68778A898888989B5A879A78A69979C6BC7996696768A87666
col16:   786647879C795BC87799BB8BA78A9BC7A88A4984878AB8C5996BA88779AA79578789677956776642
col17:   565644775977BAB5CB8AB69C957D9B99A749B798C87579A997B5E8A948C686BAA7B78AB24A573151
col18:   7486777989D554A8A98689ABACA9C789B99AD9599988A93A9A68BA5A99986678956688B974559781
col19:   595647B998B878AA6CC95A8C9EAE5BB7C686798DA8A9BB999D7A899677BB998A989A869A36A5A724
col20:   69656A69998989B666A99AC97A98AA859C896ABACAA8ACA7968BA58A489BA9BA9779698782615875
col21:   7A65785C7D799AAB98A8979DBBB8AA99BAAAA77C94B875788B9A9B95775987A9976C976842357414
col22:   55865888A87B66778ABB9AB8A9AC888849B98C6C8BDBB778AA6587B949C789B9A95AA8A997967964
col23:   467A68AA947B878DBCA89BAAC7CCAB7AA785CA99898A85C68879787698969B785775669679784553
col24:   B7989674699A87749DA77998A89D98C9A8A99A68B8A9ABB77899958B98AB787598D888C265966969
col25:   58877A89C9BADBA989B6989998CCCB999BB9ABCAA6CA9AA9B7CCAA88A6A8A87597B8AAA657896464
col26:   8C58788697988A8AA9CB967D79BBBA8CBCCCBBB8CC78EBADCB7B9BBBAAB7B9A8BC8886B98B789656
col27:   68A9B67CBA79AA7BAC8B9879B9A7ECBBF7B9A9ABCB9AAA989DAB69A97BB77C67478A7A9475856B47
col28:   99B788B7BAB7BABBB9947B87C78BBCCAA9C9D9C7DBABAADC7C9BAA9AE9A7879C9B9777597A7885A3
col29:   69699C69997C89CCC8C7B9B8BCCB9CD7AB8DBE9CA9CABFBA9CB9B9FA9C7A688A957588997855AAB4
col30:   C94AAB87AB9B7C98BBAA968AA79BC7CACC9CDACFBABCCBB869AABB8AB7946BB76B9898468C6678A8
col31:   898A9B9AA99ACAADD9BBBCA86DDBABE9CBCBDBD9CCADA8C9D9D9B9B98AB84A7ABA9AA8A89EB67B95
col32:   C88CBA79AB7AAACA9A8B7BBAB98ADB9BC9DABCCBCCDEB8D9C9CAAABD899B98AAA9959AB97978B989
col33:   79B8AB9797A9BAAC879698BBDCA9DBAA8ABBB9C9A9AFB9CB9CFCCD89D99B99959AB78A889986A9A6
col34:   797898CC7AA98B7C99A9BB8CA9BFBACADCE99CEAFCC9BBCABDAACBA8E7E87A78B7A9BCBD9A9AA7AB
col35:   64977AB87AAAC98BBB6ABB9ABAB988EDA9ABABB98BA88DC9BEBAD9AB9BDCADB8AB87BC9898CD4986
col36:   8989A8BBBBB8898C8BCA998B999CBCBAABBEACECEDBCCFBDCBB9BBE9899986BCD8689976A89AB567
col37:   6AA8C8AB8CAA7ACAA79CBB7BD9CBEBABAAADBDADABEBABAECCCCA9BAC7DAB9A88ECC8797779757B9
col38:   9AA9D9BAACCBD7A9B9BBD8EA8EEC8CF6DBCBDDAADECAAABABAAAA9A7AACB798B9C8AA79BBA9B8978
col39:   B7EA87A89977ABB8A8D9C75CBBBC89ABDEFBBC8CBDC88BC8BAABAC9BAAB89A4A9B9BA88996758AB7
col40:   BA8A999CAAC9AAAC9CD7ABD9DAACECFABBEBDBCE9ECB8BAC9C8AA96DB8ABCAC85CDB98A58A67D9A8
col41:   8AE997AAFBCCEBACDCEC9ADECACE9CDED9BBCBB89B9CA8B688A69978A9B89B896986879D669A9897
col42:   7AAC9C89899CAAAAC9CA9CABCC9D7AABBA7EEC9BCCDACBED9D7899BBB9AA8AA6AB99B87C45777AD8
col43:   B9BCDC9EDFD9BCDCCA9FEA99ABBCCBBDAFBDBBCBCC9ADAAAC9B89DAAB9B989BB99D898A975A77855
col44:   B6979BBBBBABFBCDABDBBBE9ADACABDBBBDCBABD9BD8CEE9CAA988FB8CCABBABAD96899999788AC8
col45:   89A7778FAA89CCBCCDE7CC9BB8DEBADAAFEBDCABB9A9ADCB8AD79ADAA8D9697B799A9879B978B9B8
col46:   6A7B87ABACADACA99AADBE98FA9B9C98FDE8DCA9CCAD88979ADBACCBE9989D884997A997AD9B7999
col47:   95A699A86DB6ABDAADBAAAE9E97CACBEECCAC9D9ADDAECB8AABBBA99DCA9CCBABCCBC99B999D8AA7
col48:   9688D89CA9EABABCA9B8EEACABACA9FDABDCB9AAABAA969A5A7987ACBC8ABDBCC4A69CE8A87B9857
col49:   997AADB8BBA9CEAE988CCA9EBBCDCFD8E89DEBEF98BCCDCAAA579BCBAA9CC87BC9A989A9969569C9
col50:   89A98BBAE7D9CDCBAABBAC6D9A6FAA9EB8BBCCDCDDCBAEDCD7BCDAA69DAABAA7E7AB7A8A68896573
col51:   85792697886F85C88C8A9C878BC8BCAAA9BABB99AC7AAB988D79E797B86D9968A8A7C46B97A88874
ROC:     BPix_BpI_SEC1_LYR2_LDR2F_MOD4_ROC13
col00:   1635558844286244457471842853566674D7895B3786949CC7722733A1482288B135965355152312
col01:   C53B56767746668459CC77996559C5C8D873AB989B6A78863AB64B71A89579278786537497458353
col02:   444581713897889575597B799A57A796C34A669C473989A9C7A88F6B4CF2A1947916656969124492
col03:   BA2546C87D77679789785768AE97C8668A968BC69888AD5D325A858A8874B8849846795B95411713
col04:   96733966484598575A87A495CA78A69627B789AC4B9299481348B399AD44B879916B875464754445
col05:   75963766785658863886B98A442B84BC58378D7C63BD45B6A5A94784C887185982497531867A7522
col06:   3767554316684A5984E592985895488ABA9466879A9C8AAD7B5479A67865667896BACB4863A66911
col07:   643454967D789696864857BCAB6AC76C9B7BDA878C88996C9689A99E87C89576979946B669199A83
col08:   567448126787497A44A59B4EA97A884787685CBB6896898ABB46A868A978A74976773945C3557235
col09:   3865767A3A296A7387C6AC6867D77C5BA8B59A5DC883ACA8A7969F875477758A6925C8C353B75734
col10:   47637185B6B4B3A869997BABCE95BEA765B977BA76B8E775D964566686A777246337664455698161
col11:   867456A68987789998BAB398B878AB68598758C97AA77AC855CCB596B722553551D9896696551717
col12:   34A7568936A54B7986558BCB8479488887CDB5DE9CC97B49896C77A7BB9987B5AD86678565347131
col13:   766474617658E5C8676CAB8B9C46ACBB9A27AB6B89B39AE83D888AA6A565B58A86764366A3824891
col14:   518365458669A379AAD875DDB869BBA9B5878588A9B8AF8BBADDB5566F97A87AB895667738357543
col15:   5659A61B5A868AB964BD879BB89AAC669BE7E16867EBD78D79B848986A3477C8786995C147673791
col16:   38586374675D382A5C91AA5577A9BF268BBEC787A4B9DB78487E9489A947514B6597258AA4285351
col17:   795873858666758BDC6787886C8CC5869A47BB847A745A2727C6B69AAC97A4559B75748475923671
col18:   54539757477A638C7958A53B4DC4ADCFBBC888B585C799EA8AF6AC8ADC9486976874A5A966517617
col19:   8646BA879397BC9BAD967929D979799AB7ABD948BBC54DAB77A5B679C1646656748635399A866365
col20:   1547347C5494965A6A1478BC6943377A4D38997684B8B5A79B766A8936538676A5C5374454873626
col21:   BC17394946B614C6997677A76778688BCBD68A8A8F6B998398AA935A99874967B6755853666464D4
col22:   526586C673578769BB6959A68873559A999B4888A8AC8AD58C5A367A39CA5A9766A7774651139661
col23:   3B5957A986D5135512A5767AA2A7A8B198AAD89AB8A77689BA59778C9945C9654576A63493559231
col24:   7495B3A71B765CB898A3A6792A554ADCAA8CA758964A8B77A3666D96153B45586558441325675664
col25:   483AC5442764C965EDC5577C7ABB7A667CBB5337AE846CD5A769AD6AC9BD9AA9689446657B786934
col26:   896B88B798A89C7A7EA98C9B87D796DEDAB7A99695898BAE89F5AA996B8C9A8B9559AA7A2A9C8752
col27:   8464B5CAA971B2AA75B5998259A7A7D5CB4889CEAA989D9CE888A9CCA3D6B8D9B7A875896595BB52
col28:   1876D99B95975822D8BBAAA8B9ACEB9ACD7F9BCAACBACADB87DCD9A7B9BE9F58598A55A6965C5665
col29:   852BE894B786C89B4DAABD58C7DE85B57CCDB9FB8B688C78A979F7BC9C9CA9A47C7BADA86E2B5454
col30:   528899B7588E2AE9AD6AB9898A9DFADDAD6AD88A78BDFBBACABC889695AA97C674B7B79B78A69694
col31:   69794BBBC9BAA8B58C869B6F9C99A5CEDBCA89E8CAF8DC5A7BE7B9FC95AD9CC999885E8337798A67
col32:   878198989BF6789A7DE8BB99AEA888BA8AFCC64CE88CADFB7CCA99FA9DA969ECD78898A6BA278678
col33:   9B9875CC99AA9679AACB9877A7BBCD79ABC88ABCCA87B6B8C8A9EBC97B8AB88AC6D6B96A9D87A446
col34:   98686D9937D869CCB7AB8FC98E9BEAEAE9D8DB779DF7BC8BC9AFACB8B9E8CAB9CA39789B44886865
col35:   75753A7AA7674D8A8CBAAC84CAC39CCEAACBAA995876D67997AFC72B9ED89C689B6DA8DA4A958697
col36:   A8A9B986589687997435A7B9CB624786A4EDCB8B7CBAA8BC7E6BDD88CF8BA928BBABC7A45A6856B5
col37:   64589D69A4AB6A89B9D9B7995DAA88D8FF79BDBA8BCBDAAD67DAAEBCC7BCADB99CABCA88887A887A
col38:   869A8A74B7965F96A8CA99B9685BAABFA96AD7DB9AC7C67D8ECA97DB8CCC98CC9B9A9AA3888C7AA2
col39:   136FDB98765BD49A3AAACA576D4C7CC8AD8FA8C98DFBDE8A74C6BAAABA95EF9AAA9976C97B57CBC4
col40:   3A3B9996ACAF5B9A89AD79BCAD89BCBAA79D9E899BADDEC9A67AAB7ECB9ADACBB989B3876969BA6A
col41:   A87BA68835997CFC6AABF9FCE8FACFB7C7CA89C6EF7ADAEA89C98CCBCCC9A6A8EC9F9A9A79955BBB
col42:   6A69C888462B8ABCF9AC4A6A8BDACCCBEBEF967978B989E8BEA74CBEAEACFAA99A9B7BBA64889796
col43:   9BA97DAE98C8BC99FBABB9D9AC9997FEDBBB8BFDADCCFABC9CEEE9AACDD9BBC78C59EED977B7A487
col44:   7689A77C689B679DA77AA6F7AB7A6D764B57F9CCEC9DD8DBBB7C8AAF8A8E98ABB6E9777DB8B9BB95
col45:   6B6756887A8876CB9B9B7A6CA8A3BCDACE89AA5B95D9BBAE59AA7F98BA6AAFFB99D9B53A7DC8A667
col46:   7A95D868CB9BCF9BB98EB994D9EACA9AA9DBABFCBE4EC59BBABA7CFBBF7A6778788BAA89A9BE3867
col47:   A7577D879D876DCCDC99BFFCA89AADDC6BD888D68C98AAD5BBBCB9CA9EDF8D789B953C7D95AC9A72
col48:   9BA967784A6C7BBA787BAABD9BCF9FC95C989C9AE7CAD6B9BCBDDACBCCABBA8789998AB8AA977793
col49:   67A58AAAAC89DA54A678BFE489AA5D79E7A5F47FABBFCEBCEAC7E88D99A9E9A7B9CAB9A7A6C76954
col50:   8B3428A8BBA7BAA988BFB87A9BBCF9FFD9DB9AAA9BAAABCFBAA89BA89BFCCA5EAD889CC89A9BB9A7
col51:   7B58A527349667D9989C88896B8A9BA997F78B995C8588A7A99CBB48DAB8A8A5B67B693989684383
ROC:     BPix_BpI_SEC1_LYR2_LDR2F_MOD4_ROC14
col00:   91856524A9266B555969AA6CA988B5A75BAD97C74976889588ADE9B6795265977768A837795989B6
col01:   3A7698A88ECBCA6C46AB88A777A8A9C9799888F9E9BBAAB98ACAB6AAA9919BC863B9598945AA8AB7
col02:   3868597A788A6D997686B96B9B99C7959899ABDC97AE597D778AB7A8D5B9A67C588B997B68936596
col03:   7696988B777758B9884D96B4EA759677B957E79BA9BCA9A99A97C6AB9A7789997A6877968C69B862
col04:   8A9467C83B7979A578897A849895A8BB4BB5A98AA6B8AB6878D868AC6DABBA7866D4868679B7B777
col05:   C884989A93889865B9F97CAE7A86876BA4C8CF696CB76A87B3848A85ACB999A778D97AC9C68B9845
col06:   A8A878A9ABACBBA55AA7B976C887AB987895ED78999ABABBD9C88B897C97888D687B779A87AD9668
col07:   9836796BDFA369969A3C95BA86BB98CA58AA62A9FA7486CA6DC9884C88AC99866C5A886BA77CA9B4
col08:   7865A97A9ADB9B9B88CCB7EA88AC8A489876A9B9A798BA7B969AA99BC46DDA9895786A6489BA9946
col09:   8886478666647996B8AC5AC97B96B899C9A9A9BB599A89888885DEB7769D8D599487747792895867
col10:   977641789699D89B696938BAB7A7BCD5A79977A6BBAAB78BDAAAACC8CAA9A599796BCA8C799678C9
col11:   718879A8998819997977A5C868ACAA47BEBAABDA689C767A795A975794C8996A69459A66A97A5897
col12:   87397979B98827A68DFC879AABA7ADAB97AABB92787DA7865585B8CA8D498DB69ADAA8B8B697EA99
col13:   67629AA2868696A68A649C968A9B89779A997A8DBBB8C9C99BC7F97A9AE857864A6A879A698AA958
col14:   A68855B7546C78875FD8A5A9D78BB987CA6BA8AACB8D88A5ADB8A78A99D9AAA956AD59A958A98898
col15:   C587756594A9E75A5B99797AE77DA9B948BE668AB7B68B9786B7899A99AD5588B568B6599A6A96A7
col16:   8735839A88973777858888C6D99587B65C87C7DA69B6B8ABD9CB86867D98A786D8AAA8A99B89C687
col17:   1667496265D8A5B99489AAA88A886699C9997DDACB7394CCA597BC8B7AD769A9A98746C978B778D3
col18:   66665658778666688B78768A9846887959BD7885887889658779ADA8765766A7537C5588B999B663
col19:   63A4368777A7A7587778725A88956989BB8799C9CB874DD8BE832AC98796D74C6AB95993889BA5C2
col20:   937A7466888866B9A4697B7AB999C5B8865A9BB7C897BC9999B9978B9A9C9B848CA679D77467B958
col21:   3754B79C77B9928C74BC749AAABC7BB6BD877DB979A878B8A9B9748CEDA9996656967798C54794B6
col22:   35688656678852577886D4479A9AB7AA85698978D987A6997AA996BA99B769979C449DB88E9789A7
col23:   75664894669994789CAA9A7A68E79A8D8DAA66A9B838987697CAC96BA97699668896A7A88968897A
col24:   6267899569777A6D845A5799C8A989DB87B8CC689988DA58AB7756B795D67AB8E98A789B87698B87
col25:   62689689723888AA98AA93A87AC78ACBA9AABBBA8A86E6CAA86388AB8AA77AA8798B5E7B9CAD8BA6
col26:   86985AA836496957948B67AA685BB9CCA8AAFEB7EADC9CD798E8AB6C99B7BB679D9CCB85C9B9ECA7
col27:   358883B579877979B8AB9697E8C84B8CC86A799C99AAA8C9DCABCDDF498BC99B8ECB58A8AC9D9985
col28:   89A85B7A89C979B5E6B9B9E4CEB6BAA7CACD77DBABBCBBAF7AEFCE8D9AA9ABA8D97BA9DBE957BACA
col29:   486A975CA5B69999C8A9BB8CABE9CB6AE7ADABDDC6BEC9DFDB999D8CC6BBBCB6BA698C8A8CB74C88
col30:   987A99A7997BB9BA7BC99AA8BDA8D9CC9BA9CCBBDDDAC9C8EABC9EE79BB87CE9CE8A78AA7AB79BC8
col31:   97ABA98BAAB7C6A489CFAAB9DBD89CD8DBB898B57BCAEECBB98CDC8AC998D99CFCCCADC978B97CBA
col32:   6B983CB9C8A7AC996BBB9AAD9AAC7A9AADAAFDBE9AABDCD7AADACCEA8BABECABCA8ABBBCC9FED9C6
col33:   56CB997A7EC9A9998A7B69CD9859CC9A75D8AA77F87CDA9D98CA8CFCEBAC8CE8BBCDA9B7DA8C9B7B
col34:   79887C7B9B77A77CBE8CFDDD98A7EBEAABFACDA9D98DCBECCECBDC8DCDCCBAEADFCDCDA8BBFCBB98
col35:   A89786A87AA96B9CCBBCB8BE7CE9DDDA9B9AD98E7A96D8BAF9CCCDFC9BA8ABBCBC8AC68BF9DCB8CB
col36:   73486ACAA69AC89DAC9FB888BBB9DACCC8CCC9DDCCBBCEEBD88DFBBBAE9EDBADDE6FD8FFB7EAC9AA
col37:   97A7A75D984AAAC9D7CBC99BBBABDDDC4BDCD6BCCF9C9ABCEFCCA9CC8CFF88AAFCDD79CB6BB8D89C
col38:   B8AB397C7CCCE99FCACB7BBBCCBBBACBAADDA8DABA89CADBCCDAFCCCCABFACCDDB8FECB6EE8ADA8A
col39:   867937597A9B9658B8A6B7BBBA9B9BB8FFDCCCDBCFCCA9B99C9BCCDD8BBCA8C9ABAFBCEC8BBA6B9C
col40:   7CB9A7A8C96798899BBA9ADDBA8DDCACEACAB6BADD9BAE8DCDB9DABBCBDBADFAA9AC8C9BCEADCD86
col41:   AB8AC9F9A7A87CC9ABBD9A8ACC9AE9ABBBCACACDFDCAEC9C9EEBFAFADBBDCCBFBC8DD9CBB8AC9B98
col42:   68AC7AB9CCC6CB59CA99AB7AD7BDAB7AECCBCCDABD8BABAB8CCB8C8CDBFEFAD898EE9DDBDCB7EBA8
col43:   9B78D99AAAC6C879EDAC7B8CDAEBB9BBD6ADFDEBFC7A7ABDBAECBDCBBBECCCCA7AECEAEDAAA9DD9A
col44:   A78ABCB77B8BBBACABCFEDE9EAACAECBBBAEEADBEEAE96DCABE99BC99AACFE9B8DCCACD9ACCDC99F
col45:   5CB8C3A7C99CBDC8AAACC89B8BAD8788DBDDDCAF8B9CF9ACEB9DBB78D79BCC9A9FDDDEECEDBFBAAD
col46:   499997AE9B8B96CCBAADACACDCDBAABC9CB9A9EBEBEAEBCD7ABA9BFCAF57CCBAAECDCBEAACC9ABDF
col47:   87888C88A7B7ACBCC6FBD88A9CA9BF7CF7DEADD8B9BD7E8B7D9BE7CBACB9BAD86BD8ACDB99ECC895
col48:   B4989797ABA897FA9CD7AC8DCE8CFCDDDFDDDAABBEAABBE9FDBC9EB98AEACEF7AAB9DA79AE7A7BBC
col49:   897AE7789EA978B87AD9EBA7CADB8BDD59CCEA5BCAECDABADDDCCBFD96BEDBBBF9ED9FADCEDBBBBC
col50:   AA86ABA79BAC98BDBABBBACABC9A8EDDBBFDDDFA7BB7DDECDFDACDE8AC7DAB9ADDFABEBDEBA9CDEF
col51:   768765748B97879B9A979C7A9BA77CB7BA98DAA896A6AB9CB8988A68ABBA8CCBB6DCAA9C58A85B78
ROC:     BPix_BpI_SEC1_LYR2_LDR2F_MOD4_ROC15
col00:   18445454B347162674467C76686727794567963BAA6B86869A884A8ADC964688A932758567675412
col01:   668B89A68978A879536A4B4759A86889AC82DA3A886AB89A988A9A67987AA7CC9AA988C788985966
col02:   3646443769885D89587A88799BA99A8A9BB6AA97589A8A6987697B866B994A8BAA67DC7BB8387989
col03:   3A82AA947679A57657987BAA899878A96B88AA9B8D9AA6A89AB77A97677A894AB9A99CA564774997
col04:   44569959697599355A8791ABC59AAAA9BC7879A9C7EBBBDB67A48DC46A6BAC7B96BC68B636B6695C
col05:   456A9767B6454866AC589987B6599A8CC79B459C9796DB8E8C98BC54B96A86997899A758848676D8
col06:   646895845976699B5A7BCA979778C659AD8A5A7CA8B86B7C7984A79BB8797AFA6E57964B8C88AD75
col07:   A5396BB65998977A8AA83BA7B7C7B938B956C647FB5C96B78997B897C7D6A9A7999B47A96B68A797
col08:   396764A9CB9A77B7578875D9888BDB9A5BA8ACBA6C7AA85BCA7BACB8DA8C7A9A8CB6C7999786A69B
col09:   5855549A7B1977768A985997A789AB68D87AB5589E979B98D77AA7B9977776AA8BA589768985669A
col10:   882598773A27A99A987B87A9E9B869569A7788BA8CC9D978E7CB59A997A9987DA9886C5635BB8A56
col11:   5767517958647896BBBC96768BA8CA7B9ABAB7997AA6C96A55C8D8C8A6B58863A766B8B988686899
col12:   893548454868988BBC77698FD99799A9A7A5A9686B67498B69CD78BD5D869AA79D7F958A87373A61
col13:   567657897799D5B7777996A89888887687896C76B9AD7975BBABAA6CDDA6689A7CA5797ADA357597
col14:   67A877A85A8C9587A85B9BA6CCE6C9998E678B9BBD987BAAB8AAB9998C5CF97A8C787B9AA7795965
col15:   2A39936685E9B867A728996CA96C7BB9C977E399A6A88779BA8D65A86B8B8999A888D6797AC56556
col16:   68694568739637A786478A9A484598599DCA4A77AB8B97AB9BCA98887CB8C977BB74996548687766
col17:   A757673989A95757AB536DB598AAB8B847CCA858D6AB9C5AA59C8968A87A952898777868956B7545
col18:   751877367B6987579A684AAB7677BCB9958B9B99BD9969ABAAA986C77688AC9A6A488E8A995B6758
col19:   B67268949BACA74697A78A967DBE8759ABDAA8C8B89DBA9497A898EC8FAB8CCD8D596A8A8A99748B
col20:   784B2495656657496A88B977A7967BAAA958769B668BA68B9ADA954CAAE873589CB4D8B6755A8A66
col21:   C86CBA78937898982889B457779B58A8BA9B9BDB7899AA48899C996AE7BF693798B99889557868B6
col22:   4929B6B5C69A7ACA78EBC8788997A8A99DDCBBCA8A9C8DC6AA97DCD97BB9A8D98A9874986768A895
col23:   88B568554B6886BAB8A896C555C5AFBA8A8B9799E568BDAE3AB68A7AAC87C98E5779998769678862
col24:   83345687AC98859A878CA8B57C7B6A9CA5B9AACCA69ACA87AEBF7D78C8AC9CB97B7A789665694744
col25:   A7547A8B998678BA66A569BCD8CAB9A8D9EA756EB97B79AA9995BDB7BAA8BBCB999B77AA8B879B66
col26:   898CA89B9997AA96AAAABB5DA989D9BCAB69AB8A98659E589CAACDA9BCA7BBAB9AFA79A8BB69AB96
col27:   8758A4AAA469CEAC988BAB4C9AA9BB8C97AFB7DAA777ABAABA99AEAAE9B9BBCAC97B95C5897CAB89
col28:   969988AB7D6B5CB58D9797CABDBB5BDCEBDB8EB8A987A8B99ADFECD8C99CCE8AA9BCCA7CB76ABB77
col29:   4B988578AAB58C9FAB8B7ADABBBDBDC9FC7A5CDA9C9A99B8B58BACAB9CBAE78A74BCB7AB4C76BA58
col30:   78AAA6A657AF79BA9AAC9ACCBBA9B7BAAAEA7E7BAA7DEE9F899ACBC9BEB9AD9DCBBC9D99CA9A9A63
col31:   9A74D75BB99B9CABB9BB8B8F9A9AC9BB7BB7D9ADFDCDBADB8CBADDD8BBDDBBAAB97ADBBCDCCDEA8B
col32:   69A9B7A76A88BB9B7DA9EF8B8C9AAAA99789EACC9D9ACBA9EAAAC5CDF8DCDDB98C888B76A98B6A75
col33:   87998A675A7C99A6D74ABD7BAD8AB98DDDCBE8C7DECDB8BCEC9AC989CA9DCDACD8ECEAF8A8D9C885
col34:   97BBAC868998AA79B9CCA99ABA9CB9DEBD88E8FBB97CA8BDA9DCABC9DAFAEBC9DBBABCE9BABABA9C
col35:   998988ABB86A9CAB9EE6CA89DCACCAD9ACBBEA6D7A57CABCFFFBBDAAB9ABC789ADEDA78E7CCB78A6
col36:   67889C798CAAC88B8AECB79AC79D78A7DBBC8BBB9FC98FAC9CEEAADCAE59EA8BFF9CF9A7AD9CBBBA
col37:   9B669AA9B889AAB9BBA99AADAC7AC8DEB8ECDB9DAACADDCCFCB88FEAFC99EC98AFB7CAA7AE9BAA9B
col38:   8BB9B9CDA7AC8EDBD99C9CAAAEBCB9EB8B99D8BDBDCBCFCBBBCDA49EDE9AA9698CB6799AEC98ABA8
col39:   BB755A78BDA56998CBBB9ABCBDDBCCEEDDE9CDCCEEEB68ABFA7AF7BB9CB8B4898AB98BDBE7778ABB
col40:   89C7ABFB9AADC7C97AAEBBB88B8DC98CBC8EF5DDAC9989BBAEBAEFAB9F6A9BBB95D8B9CBCC9F796B
col41:   8BCA746AB89CBBABCBC9CCBF8BCEAACBBA9DAB9EA8BBEDBFC9AAFC9F7BC7DFCCB7ADACA969BC898F
col42:   AA6785BBCB4ACAB99D9BCECADAAAC9ACAAAA5FEBDFFF8BDBC6CCFDBBDEBDBB7BCCFDCB7BA9CCA8BA
col43:   8D9B999ECDCAB9C99CBBA98BDCCC9FECF97CBCDFFCDEFD5CDBFDCC9BCDAF9BAEBDBDB89DCCCD8F9B
col44:   AAB8CB997C8BE97B89BBABC8ABFBDC9F9CBD99ACADDDDAEFCFEBBEAAB7F8EFAC7BA9A9C899E98B8B
col45:   869A99898999E8C8B5ACB489FCEFCCCBB9BECEFCBCA5B8CEBBDE9BCAFEACECEF9BB98DBC778CC98C
col46:   BA896D69AAC9BB7DBBABDBDFCBFBA6BFDBABCEAFBCCDCCDCFADBECD8DEAAADBDDA9ABF396E7BBC9A
col47:   78AA6CB9889D9788DB9AAEBCBCB9F7CCDEACC9F8BB8B6CABDE5DCBC8BCDEA9EEBCB7ABB7CAA9FA9A
col48:   ABA3D9B9FBCB7C7DCBD99BEBEC9CEA7D7CCCBBCFBFFE6CEACDFEA89BBDDB78BABAACAF8BC9CA5B9A
col49:   DDDC7B88ACDC6BCFCCCFEEBCCBBDBCDACBBCEDFF89EFFBCE9ABACFCBE9B9EFB8CE96DDAC9ABF4FB8
col50:   77AB8CD8AE9FACFBABC9CAFCAD7CDAAFEECDDBBDDBACDFACEB7CB8BAEDCBBF69BCCBBB8BCDC54DA7
col51:   78D896CBAAAB9BD9AB49A999B88A7EACECE9A9B99A8A9B9EEA969C8997BC9A8EAD89989D78685587
