ROC:           BPix_BpO_SEC2_LYR4_LDR6F_MOD2_ROC0
Vdd:           6
Vana:          85
Vsh:           30
Vcomp:         12
VwllPr:        150
VwllSh:        150
VHldDel:       250
Vtrim:         104
VcThr:         101
VIbias_bus:    30
PHOffset:      156
Vcomp_ADC:     50
PHScale:       87
VIColOr:       100
Vcal:          200
CalDel:        142
TempRange:     0
WBC:           164
ChipContReg:   0
Readback:      1
ROC:           BPix_BpO_SEC2_LYR4_LDR6F_MOD2_ROC1
Vdd:           6
Vana:          90
Vsh:           30
Vcomp:         12
VwllPr:        150
VwllSh:        150
VHldDel:       250
Vtrim:         90
VcThr:         86
VIbias_bus:    30
PHOffset:      166
Vcomp_ADC:     50
PHScale:       77
VIColOr:       100
Vcal:          200
CalDel:        160
TempRange:     0
WBC:           164
ChipContReg:   0
Readback:      1
ROC:           BPix_BpO_SEC2_LYR4_LDR6F_MOD2_ROC2
Vdd:           6
Vana:          80
Vsh:           30
Vcomp:         12
VwllPr:        150
VwllSh:        150
VHldDel:       250
Vtrim:         108
VcThr:         98
VIbias_bus:    30
PHOffset:      152
Vcomp_ADC:     50
PHScale:       88
VIColOr:       100
Vcal:          200
CalDel:        162
TempRange:     0
WBC:           164
ChipContReg:   0
Readback:      1
ROC:           BPix_BpO_SEC2_LYR4_LDR6F_MOD2_ROC3
Vdd:           6
Vana:          80
Vsh:           30
Vcomp:         12
VwllPr:        150
VwllSh:        150
VHldDel:       250
Vtrim:         103
VcThr:         91
VIbias_bus:    30
PHOffset:      162
Vcomp_ADC:     50
PHScale:       80
VIColOr:       100
Vcal:          200
CalDel:        159
TempRange:     0
WBC:           164
ChipContReg:   0
Readback:      1
ROC:           BPix_BpO_SEC2_LYR4_LDR6F_MOD2_ROC4
Vdd:           6
Vana:          80
Vsh:           30
Vcomp:         12
VwllPr:        150
VwllSh:        150
VHldDel:       250
Vtrim:         99
VcThr:         85
VIbias_bus:    30
PHOffset:      148
Vcomp_ADC:     50
PHScale:       86
VIColOr:       100
Vcal:          200
CalDel:        169
TempRange:     0
WBC:           164
ChipContReg:   0
Readback:      1
ROC:           BPix_BpO_SEC2_LYR4_LDR6F_MOD2_ROC5
Vdd:           6
Vana:          90
Vsh:           30
Vcomp:         12
VwllPr:        150
VwllSh:        150
VHldDel:       250
Vtrim:         108
VcThr:         90
VIbias_bus:    30
PHOffset:      170
Vcomp_ADC:     50
PHScale:       76
VIColOr:       100
Vcal:          200
CalDel:        186
TempRange:     0
WBC:           164
ChipContReg:   0
Readback:      1
ROC:           BPix_BpO_SEC2_LYR4_LDR6F_MOD2_ROC6
Vdd:           6
Vana:          95
Vsh:           30
Vcomp:         12
VwllPr:        150
VwllSh:        150
VHldDel:       250
Vtrim:         113
VcThr:         94
VIbias_bus:    30
PHOffset:      168
Vcomp_ADC:     50
PHScale:       81
VIColOr:       100
Vcal:          200
CalDel:        146
TempRange:     0
WBC:           164
ChipContReg:   0
Readback:      1
ROC:           BPix_BpO_SEC2_LYR4_LDR6F_MOD2_ROC7
Vdd:           6
Vana:          99
Vsh:           30
Vcomp:         12
VwllPr:        150
VwllSh:        150
VHldDel:       250
Vtrim:         105
VcThr:         87
VIbias_bus:    30
PHOffset:      168
Vcomp_ADC:     50
PHScale:       78
VIColOr:       100
Vcal:          200
CalDel:        172
TempRange:     0
WBC:           164
ChipContReg:   0
Readback:      1
ROC:           BPix_BpO_SEC2_LYR4_LDR6F_MOD2_ROC8
Vdd:           6
Vana:          81
Vsh:           30
Vcomp:         12
VwllPr:        150
VwllSh:        150
VHldDel:       250
Vtrim:         88
VcThr:         91
VIbias_bus:    30
PHOffset:      157
Vcomp_ADC:     50
PHScale:       95
VIColOr:       100
Vcal:          200
CalDel:        144
TempRange:     0
WBC:           164
ChipContReg:   0
Readback:      1
ROC:           BPix_BpO_SEC2_LYR4_LDR6F_MOD2_ROC9
Vdd:           6
Vana:          86
Vsh:           30
Vcomp:         12
VwllPr:        150
VwllSh:        150
VHldDel:       250
Vtrim:         108
VcThr:         87
VIbias_bus:    30
PHOffset:      176
Vcomp_ADC:     50
PHScale:       84
VIColOr:       100
Vcal:          200
CalDel:        152
TempRange:     0
WBC:           164
ChipContReg:   0
Readback:      1
ROC:           BPix_BpO_SEC2_LYR4_LDR6F_MOD2_ROC10
Vdd:           6
Vana:          85
Vsh:           30
Vcomp:         12
VwllPr:        150
VwllSh:        150
VHldDel:       250
Vtrim:         108
VcThr:         90
VIbias_bus:    30
PHOffset:      175
Vcomp_ADC:     50
PHScale:       77
VIColOr:       100
Vcal:          200
CalDel:        160
TempRange:     0
WBC:           164
ChipContReg:   0
Readback:      1
ROC:           BPix_BpO_SEC2_LYR4_LDR6F_MOD2_ROC11
Vdd:           6
Vana:          80
Vsh:           30
Vcomp:         12
VwllPr:        150
VwllSh:        150
VHldDel:       250
Vtrim:         72
VcThr:         85
VIbias_bus:    30
PHOffset:      167
Vcomp_ADC:     50
PHScale:       84
VIColOr:       100
Vcal:          200
CalDel:        185
TempRange:     0
WBC:           164
ChipContReg:   0
Readback:      1
ROC:           BPix_BpO_SEC2_LYR4_LDR6F_MOD2_ROC12
Vdd:           6
Vana:          76
Vsh:           30
Vcomp:         12
VwllPr:        150
VwllSh:        150
VHldDel:       250
Vtrim:         115
VcThr:         97
VIbias_bus:    30
PHOffset:      166
Vcomp_ADC:     50
PHScale:       80
VIColOr:       100
Vcal:          200
CalDel:        164
TempRange:     0
WBC:           164
ChipContReg:   0
Readback:      1
ROC:           BPix_BpO_SEC2_LYR4_LDR6F_MOD2_ROC13
Vdd:           6
Vana:          90
Vsh:           30
Vcomp:         12
VwllPr:        150
VwllSh:        150
VHldDel:       250
Vtrim:         96
VcThr:         90
VIbias_bus:    30
PHOffset:      177
Vcomp_ADC:     50
PHScale:       82
VIColOr:       100
Vcal:          200
CalDel:        148
TempRange:     0
WBC:           164
ChipContReg:   0
Readback:      1
ROC:           BPix_BpO_SEC2_LYR4_LDR6F_MOD2_ROC14
Vdd:           6
Vana:          89
Vsh:           30
Vcomp:         12
VwllPr:        150
VwllSh:        150
VHldDel:       250
Vtrim:         106
VcThr:         98
VIbias_bus:    30
PHOffset:      172
Vcomp_ADC:     50
PHScale:       79
VIColOr:       100
Vcal:          200
CalDel:        147
TempRange:     0
WBC:           164
ChipContReg:   0
Readback:      1
ROC:           BPix_BpO_SEC2_LYR4_LDR6F_MOD2_ROC15
Vdd:           6
Vana:          80
Vsh:           30
Vcomp:         12
VwllPr:        150
VwllSh:        150
VHldDel:       250
Vtrim:         100
VcThr:         92
VIbias_bus:    30
PHOffset:      159
Vcomp_ADC:     50
PHScale:       94
VIColOr:       100
Vcal:          200
CalDel:        149
TempRange:     0
WBC:           164
ChipContReg:   0
Readback:      1
