ROC:           BPix_BmI_SEC7_LYR3_LDR18F_MOD3_ROC0
Vdd:           6
Vana:          92
Vsh:           30
Vcomp:         12
VwllPr:        150
VwllSh:        150
VHldDel:       250
Vtrim:         111
VcThr:         94
VIbias_bus:    30
PHOffset:      166
Vcomp_ADC:     50
PHScale:       66
VIColOr:       100
Vcal:          200
CalDel:        151
TempRange:     0
WBC:           164
ChipContReg:   0
Readback:      1
ROC:           BPix_BmI_SEC7_LYR3_LDR18F_MOD3_ROC1
Vdd:           6
Vana:          88
Vsh:           30
Vcomp:         12
VwllPr:        150
VwllSh:        150
VHldDel:       250
Vtrim:         124
VcThr:         101
VIbias_bus:    30
PHOffset:      159
Vcomp_ADC:     50
PHScale:       73
VIColOr:       100
Vcal:          200
CalDel:        133
TempRange:     0
WBC:           164
ChipContReg:   0
Readback:      1
ROC:           BPix_BmI_SEC7_LYR3_LDR18F_MOD3_ROC2
Vdd:           6
Vana:          88
Vsh:           30
Vcomp:         12
VwllPr:        150
VwllSh:        150
VHldDel:       250
Vtrim:         118
VcThr:         96
VIbias_bus:    30
PHOffset:      179
Vcomp_ADC:     50
PHScale:       79
VIColOr:       100
Vcal:          200
CalDel:        157
TempRange:     0
WBC:           164
ChipContReg:   0
Readback:      1
ROC:           BPix_BmI_SEC7_LYR3_LDR18F_MOD3_ROC3
Vdd:           6
Vana:          88
Vsh:           30
Vcomp:         12
VwllPr:        150
VwllSh:        150
VHldDel:       250
Vtrim:         136
VcThr:         111
VIbias_bus:    30
PHOffset:      177
Vcomp_ADC:     50
PHScale:       79
VIColOr:       100
Vcal:          200
CalDel:        137
TempRange:     0
WBC:           164
ChipContReg:   0
Readback:      1
ROC:           BPix_BmI_SEC7_LYR3_LDR18F_MOD3_ROC4
Vdd:           6
Vana:          90
Vsh:           30
Vcomp:         12
VwllPr:        150
VwllSh:        150
VHldDel:       250
Vtrim:         119
VcThr:         105
VIbias_bus:    30
PHOffset:      167
Vcomp_ADC:     50
PHScale:       80
VIColOr:       100
Vcal:          200
CalDel:        156
TempRange:     0
WBC:           164
ChipContReg:   0
Readback:      1
ROC:           BPix_BmI_SEC7_LYR3_LDR18F_MOD3_ROC5
Vdd:           6
Vana:          93
Vsh:           30
Vcomp:         12
VwllPr:        150
VwllSh:        150
VHldDel:       250
Vtrim:         192
VcThr:         111
VIbias_bus:    30
PHOffset:      184
Vcomp_ADC:     50
PHScale:       91
VIColOr:       100
Vcal:          200
CalDel:        155
TempRange:     0
WBC:           164
ChipContReg:   0
Readback:      1
ROC:           BPix_BmI_SEC7_LYR3_LDR18F_MOD3_ROC6
Vdd:           6
Vana:          88
Vsh:           30
Vcomp:         12
VwllPr:        150
VwllSh:        150
VHldDel:       250
Vtrim:         94
VcThr:         96
VIbias_bus:    30
PHOffset:      170
Vcomp_ADC:     50
PHScale:       80
VIColOr:       100
Vcal:          200
CalDel:        165
TempRange:     0
WBC:           164
ChipContReg:   0
Readback:      1
ROC:           BPix_BmI_SEC7_LYR3_LDR18F_MOD3_ROC7
Vdd:           6
Vana:          85
Vsh:           30
Vcomp:         12
VwllPr:        150
VwllSh:        150
VHldDel:       250
Vtrim:         123
VcThr:         99
VIbias_bus:    30
PHOffset:      182
Vcomp_ADC:     50
PHScale:       75
VIColOr:       100
Vcal:          200
CalDel:        154
TempRange:     0
WBC:           164
ChipContReg:   0
Readback:      1
ROC:           BPix_BmI_SEC7_LYR3_LDR18F_MOD3_ROC8
Vdd:           6
Vana:          78
Vsh:           30
Vcomp:         12
VwllPr:        150
VwllSh:        150
VHldDel:       250
Vtrim:         99
VcThr:         85
VIbias_bus:    30
PHOffset:      163
Vcomp_ADC:     50
PHScale:       93
VIColOr:       100
Vcal:          200
CalDel:        155
TempRange:     0
WBC:           164
ChipContReg:   0
Readback:      1
ROC:           BPix_BmI_SEC7_LYR3_LDR18F_MOD3_ROC9
Vdd:           6
Vana:          85
Vsh:           30
Vcomp:         12
VwllPr:        150
VwllSh:        150
VHldDel:       250
Vtrim:         110
VcThr:         100
VIbias_bus:    30
PHOffset:      162
Vcomp_ADC:     50
PHScale:       82
VIColOr:       100
Vcal:          200
CalDel:        137
TempRange:     0
WBC:           164
ChipContReg:   0
Readback:      1
ROC:           BPix_BmI_SEC7_LYR3_LDR18F_MOD3_ROC10
Vdd:           6
Vana:          85
Vsh:           30
Vcomp:         12
VwllPr:        150
VwllSh:        150
VHldDel:       250
Vtrim:         126
VcThr:         110
VIbias_bus:    30
PHOffset:      162
Vcomp_ADC:     50
PHScale:       83
VIColOr:       100
Vcal:          200
CalDel:        140
TempRange:     0
WBC:           164
ChipContReg:   0
Readback:      1
ROC:           BPix_BmI_SEC7_LYR3_LDR18F_MOD3_ROC11
Vdd:           6
Vana:          83
Vsh:           30
Vcomp:         12
VwllPr:        150
VwllSh:        150
VHldDel:       250
Vtrim:         135
VcThr:         108
VIbias_bus:    30
PHOffset:      184
Vcomp_ADC:     50
PHScale:       78
VIColOr:       100
Vcal:          200
CalDel:        142
TempRange:     0
WBC:           164
ChipContReg:   0
Readback:      1
ROC:           BPix_BmI_SEC7_LYR3_LDR18F_MOD3_ROC12
Vdd:           6
Vana:          78
Vsh:           30
Vcomp:         12
VwllPr:        150
VwllSh:        150
VHldDel:       250
Vtrim:         118
VcThr:         101
VIbias_bus:    30
PHOffset:      165
Vcomp_ADC:     50
PHScale:       79
VIColOr:       100
Vcal:          200
CalDel:        145
TempRange:     0
WBC:           164
ChipContReg:   0
Readback:      1
ROC:           BPix_BmI_SEC7_LYR3_LDR18F_MOD3_ROC13
Vdd:           6
Vana:          82
Vsh:           30
Vcomp:         12
VwllPr:        150
VwllSh:        150
VHldDel:       250
Vtrim:         106
VcThr:         104
VIbias_bus:    30
PHOffset:      183
Vcomp_ADC:     50
PHScale:       79
VIColOr:       100
Vcal:          200
CalDel:        144
TempRange:     0
WBC:           164
ChipContReg:   0
Readback:      1
ROC:           BPix_BmI_SEC7_LYR3_LDR18F_MOD3_ROC14
Vdd:           6
Vana:          75
Vsh:           30
Vcomp:         12
VwllPr:        150
VwllSh:        150
VHldDel:       250
Vtrim:         100
VcThr:         91
VIbias_bus:    30
PHOffset:      157
Vcomp_ADC:     50
PHScale:       91
VIColOr:       100
Vcal:          200
CalDel:        158
TempRange:     0
WBC:           164
ChipContReg:   0
Readback:      1
ROC:           BPix_BmI_SEC7_LYR3_LDR18F_MOD3_ROC15
Vdd:           6
Vana:          78
Vsh:           30
Vcomp:         12
VwllPr:        150
VwllSh:        150
VHldDel:       250
Vtrim:         108
VcThr:         103
VIbias_bus:    30
PHOffset:      149
Vcomp_ADC:     50
PHScale:       81
VIColOr:       100
Vcal:          200
CalDel:        156
TempRange:     0
WBC:           164
ChipContReg:   0
Readback:      1
