ROC:           BPix_BpI_SEC8_LYR3_LDR22F_MOD3_ROC0
Vdd:           6
Vana:          78
Vsh:           30
Vcomp:         12
VwllPr:        150
VwllSh:        150
VHldDel:       250
Vtrim:         112
VcThr:         90
VIbias_bus:    30
PHOffset:      165
Vcomp_ADC:     50
PHScale:       84
VIColOr:       100
Vcal:          200
CalDel:        140
TempRange:     0
WBC:           164
ChipContReg:   0
Readback:      1
ROC:           BPix_BpI_SEC8_LYR3_LDR22F_MOD3_ROC1
Vdd:           6
Vana:          73
Vsh:           30
Vcomp:         12
VwllPr:        150
VwllSh:        150
VHldDel:       250
Vtrim:         96
VcThr:         83
VIbias_bus:    30
PHOffset:      152
Vcomp_ADC:     50
PHScale:       80
VIColOr:       100
Vcal:          200
CalDel:        167
TempRange:     0
WBC:           164
ChipContReg:   0
Readback:      1
ROC:           BPix_BpI_SEC8_LYR3_LDR22F_MOD3_ROC2
Vdd:           6
Vana:          80
Vsh:           30
Vcomp:         12
VwllPr:        150
VwllSh:        150
VHldDel:       250
Vtrim:         114
VcThr:         90
VIbias_bus:    30
PHOffset:      161
Vcomp_ADC:     50
PHScale:       83
VIColOr:       100
Vcal:          200
CalDel:        144
TempRange:     0
WBC:           164
ChipContReg:   0
Readback:      1
ROC:           BPix_BpI_SEC8_LYR3_LDR22F_MOD3_ROC3
Vdd:           6
Vana:          86
Vsh:           30
Vcomp:         12
VwllPr:        150
VwllSh:        150
VHldDel:       250
Vtrim:         90
VcThr:         87
VIbias_bus:    30
PHOffset:      143
Vcomp_ADC:     50
PHScale:       86
VIColOr:       100
Vcal:          200
CalDel:        139
TempRange:     0
WBC:           164
ChipContReg:   0
Readback:      1
ROC:           BPix_BpI_SEC8_LYR3_LDR22F_MOD3_ROC4
Vdd:           6
Vana:          80
Vsh:           30
Vcomp:         12
VwllPr:        150
VwllSh:        150
VHldDel:       250
Vtrim:         110
VcThr:         95
VIbias_bus:    30
PHOffset:      167
Vcomp_ADC:     50
PHScale:       86
VIColOr:       100
Vcal:          200
CalDel:        142
TempRange:     0
WBC:           164
ChipContReg:   0
Readback:      1
ROC:           BPix_BpI_SEC8_LYR3_LDR22F_MOD3_ROC5
Vdd:           6
Vana:          78
Vsh:           30
Vcomp:         12
VwllPr:        150
VwllSh:        150
VHldDel:       250
Vtrim:         100
VcThr:         92
VIbias_bus:    30
PHOffset:      158
Vcomp_ADC:     50
PHScale:       81
VIColOr:       100
Vcal:          200
CalDel:        136
TempRange:     0
WBC:           164
ChipContReg:   0
Readback:      1
ROC:           BPix_BpI_SEC8_LYR3_LDR22F_MOD3_ROC6
Vdd:           6
Vana:          68
Vsh:           30
Vcomp:         12
VwllPr:        150
VwllSh:        150
VHldDel:       250
Vtrim:         99
VcThr:         94
VIbias_bus:    30
PHOffset:      147
Vcomp_ADC:     50
PHScale:       81
VIColOr:       100
Vcal:          200
CalDel:        141
TempRange:     0
WBC:           164
ChipContReg:   0
Readback:      1
ROC:           BPix_BpI_SEC8_LYR3_LDR22F_MOD3_ROC7
Vdd:           6
Vana:          81
Vsh:           30
Vcomp:         12
VwllPr:        150
VwllSh:        150
VHldDel:       250
Vtrim:         98
VcThr:         92
VIbias_bus:    30
PHOffset:      160
Vcomp_ADC:     50
PHScale:       81
VIColOr:       100
Vcal:          200
CalDel:        152
TempRange:     0
WBC:           164
ChipContReg:   0
Readback:      1
ROC:           BPix_BpI_SEC8_LYR3_LDR22F_MOD3_ROC8
Vdd:           6
Vana:          81
Vsh:           30
Vcomp:         12
VwllPr:        150
VwllSh:        150
VHldDel:       250
Vtrim:         99
VcThr:         87
VIbias_bus:    30
PHOffset:      151
Vcomp_ADC:     50
PHScale:       83
VIColOr:       100
Vcal:          200
CalDel:        158
TempRange:     0
WBC:           164
ChipContReg:   0
Readback:      1
ROC:           BPix_BpI_SEC8_LYR3_LDR22F_MOD3_ROC9
Vdd:           6
Vana:          82
Vsh:           30
Vcomp:         12
VwllPr:        150
VwllSh:        150
VHldDel:       250
Vtrim:         136
VcThr:         93
VIbias_bus:    30
PHOffset:      172
Vcomp_ADC:     50
PHScale:       73
VIColOr:       100
Vcal:          200
CalDel:        154
TempRange:     0
WBC:           164
ChipContReg:   0
Readback:      1
ROC:           BPix_BpI_SEC8_LYR3_LDR22F_MOD3_ROC10
Vdd:           6
Vana:          86
Vsh:           30
Vcomp:         12
VwllPr:        150
VwllSh:        150
VHldDel:       250
Vtrim:         104
VcThr:         79
VIbias_bus:    30
PHOffset:      153
Vcomp_ADC:     50
PHScale:       83
VIColOr:       100
Vcal:          200
CalDel:        160
TempRange:     0
WBC:           164
ChipContReg:   0
Readback:      1
ROC:           BPix_BpI_SEC8_LYR3_LDR22F_MOD3_ROC11
Vdd:           6
Vana:          77
Vsh:           30
Vcomp:         12
VwllPr:        150
VwllSh:        150
VHldDel:       250
Vtrim:         102
VcThr:         89
VIbias_bus:    30
PHOffset:      144
Vcomp_ADC:     50
PHScale:       90
VIColOr:       100
Vcal:          200
CalDel:        140
TempRange:     0
WBC:           164
ChipContReg:   0
Readback:      1
ROC:           BPix_BpI_SEC8_LYR3_LDR22F_MOD3_ROC12
Vdd:           6
Vana:          78
Vsh:           30
Vcomp:         12
VwllPr:        150
VwllSh:        150
VHldDel:       250
Vtrim:         96
VcThr:         85
VIbias_bus:    30
PHOffset:      172
Vcomp_ADC:     50
PHScale:       87
VIColOr:       100
Vcal:          200
CalDel:        165
TempRange:     0
WBC:           164
ChipContReg:   0
Readback:      1
ROC:           BPix_BpI_SEC8_LYR3_LDR22F_MOD3_ROC13
Vdd:           6
Vana:          82
Vsh:           30
Vcomp:         12
VwllPr:        150
VwllSh:        150
VHldDel:       250
Vtrim:         103
VcThr:         91
VIbias_bus:    30
PHOffset:      177
Vcomp_ADC:     50
PHScale:       77
VIColOr:       100
Vcal:          200
CalDel:        157
TempRange:     0
WBC:           164
ChipContReg:   0
Readback:      1
ROC:           BPix_BpI_SEC8_LYR3_LDR22F_MOD3_ROC14
Vdd:           6
Vana:          78
Vsh:           30
Vcomp:         12
VwllPr:        150
VwllSh:        150
VHldDel:       250
Vtrim:         92
VcThr:         86
VIbias_bus:    30
PHOffset:      178
Vcomp_ADC:     50
PHScale:       81
VIColOr:       100
Vcal:          200
CalDel:        175
TempRange:     0
WBC:           164
ChipContReg:   0
Readback:      1
ROC:           BPix_BpI_SEC8_LYR3_LDR22F_MOD3_ROC15
Vdd:           6
Vana:          78
Vsh:           30
Vcomp:         12
VwllPr:        150
VwllSh:        150
VHldDel:       250
Vtrim:         101
VcThr:         82
VIbias_bus:    30
PHOffset:      152
Vcomp_ADC:     50
PHScale:       81
VIColOr:       100
Vcal:          200
CalDel:        166
TempRange:     0
WBC:           164
ChipContReg:   0
Readback:      1
