ROC:           BPix_BmI_SEC6_LYR1_LDR5F_MOD3_ROC0
Vdd:           6
Vana:          92
Vsh:           8
Vcomp:         12
VwllPr:        150
VwllSh:        150
VHldDel:       250
Vtrim:         106
VcThr:         65
VIbias_bus:    250
PHOffset:      166
Vcomp_ADC:     50
PHScale:       70
VIColOr:       100
Vcal:          200
CalDel:        196
TempRange:     0
WBC:           164
ChipContReg:   16
Readback:      1
ROC:           BPix_BmI_SEC6_LYR1_LDR5F_MOD3_ROC1
Vdd:           6
Vana:          81
Vsh:           8
Vcomp:         12
VwllPr:        150
VwllSh:        150
VHldDel:       250
Vtrim:         97
VcThr:         55
VIbias_bus:    250
PHOffset:      140
Vcomp_ADC:     50
PHScale:       70
VIColOr:       100
Vcal:          200
CalDel:        180
TempRange:     0
WBC:           164
ChipContReg:   16
Readback:      1
ROC:           BPix_BmI_SEC6_LYR1_LDR5F_MOD3_ROC2
Vdd:           6
Vana:          83
Vsh:           8
Vcomp:         12
VwllPr:        150
VwllSh:        150
VHldDel:       250
Vtrim:         126
VcThr:         68
VIbias_bus:    250
PHOffset:      157
Vcomp_ADC:     50
PHScale:       70
VIColOr:       100
Vcal:          200
CalDel:        182
TempRange:     0
WBC:           164
ChipContReg:   16
Readback:      1
ROC:           BPix_BmI_SEC6_LYR1_LDR5F_MOD3_ROC3
Vdd:           6
Vana:          77
Vsh:           8
Vcomp:         12
VwllPr:        150
VwllSh:        150
VHldDel:       250
Vtrim:         124
VcThr:         59
VIbias_bus:    250
PHOffset:      156
Vcomp_ADC:     50
PHScale:       70
VIColOr:       100
Vcal:          200
CalDel:        201
TempRange:     0
WBC:           164
ChipContReg:   16
Readback:      1
ROC:           BPix_BmI_SEC6_LYR1_LDR5F_MOD3_ROC12
Vdd:           6
Vana:          79
Vsh:           8
Vcomp:         12
VwllPr:        150
VwllSh:        150
VHldDel:       250
Vtrim:         109
VcThr:         57
VIbias_bus:    250
PHOffset:      172
Vcomp_ADC:     50
PHScale:       70
VIColOr:       100
Vcal:          200
CalDel:        188
TempRange:     0
WBC:           164
ChipContReg:   16
Readback:      1
ROC:           BPix_BmI_SEC6_LYR1_LDR5F_MOD3_ROC13
Vdd:           6
Vana:          79
Vsh:           8
Vcomp:         12
VwllPr:        150
VwllSh:        150
VHldDel:       250
Vtrim:         97
VcThr:         59
VIbias_bus:    250
PHOffset:      155
Vcomp_ADC:     50
PHScale:       70
VIColOr:       100
Vcal:          200
CalDel:        203
TempRange:     0
WBC:           164
ChipContReg:   16
Readback:      1
ROC:           BPix_BmI_SEC6_LYR1_LDR5F_MOD3_ROC14
Vdd:           6
Vana:          75
Vsh:           8
Vcomp:         12
VwllPr:        150
VwllSh:        150
VHldDel:       250
Vtrim:         112
VcThr:         57
VIbias_bus:    250
PHOffset:      162
Vcomp_ADC:     50
PHScale:       70
VIColOr:       100
Vcal:          200
CalDel:        204
TempRange:     0
WBC:           164
ChipContReg:   16
Readback:      1
ROC:           BPix_BmI_SEC6_LYR1_LDR5F_MOD3_ROC15
Vdd:           6
Vana:          83
Vsh:           8
Vcomp:         12
VwllPr:        150
VwllSh:        150
VHldDel:       250
Vtrim:         115
VcThr:         91
VIbias_bus:    250
PHOffset:      157
Vcomp_ADC:     50
PHScale:       70
VIColOr:       100
Vcal:          200
CalDel:        185
TempRange:     0
WBC:           164
ChipContReg:   16
Readback:      1
