ROC:           BPix_BmO_SEC4_LYR2_LDR6F_MOD3_ROC0
par0vd: -6.000000
par1vd: 66.300000
par0va: 8.100000
par1va: 60.100000
par0rbia: 15.700000
par1rbia: 1.090000
par0tbia: 4.890000
par1tbia: 0.258000
par2tbia: -0.000208
par0ia: -6.550000
par1ia: 4.134000
par2ia: 0.017690
ROC:           BPix_BmO_SEC4_LYR2_LDR6F_MOD3_ROC1
par0vd: -3.730000
par1vd: 65.900000
par0va: 3.500000
par1va: 62.900000
par0rbia: 13.600000
par1rbia: 1.110000
par0tbia: 4.750000
par1tbia: 0.280000
par2tbia: -0.000258
par0ia: -6.532000
par1ia: 3.798000
par2ia: 0.019520
ROC:           BPix_BmO_SEC4_LYR2_LDR6F_MOD3_ROC2
par0vd: 3.260000
par1vd: 64.500000
par0va: -4.060000
par1va: 69.700000
par0rbia: 14.500000
par1rbia: 1.070000
par0tbia: 4.810000
par1tbia: 0.243000
par2tbia: -0.000182
par0ia: -4.508000
par1ia: 3.985000
par2ia: 0.023480
ROC:           BPix_BmO_SEC4_LYR2_LDR6F_MOD3_ROC3
par0vd: -11.300000
par1vd: 67.600000
par0va: -1.710000
par1va: 64.800000
par0rbia: 10.800000
par1rbia: 1.080000
par0tbia: 4.510000
par1tbia: 0.224000
par2tbia: -0.000158
par0ia: -7.977000
par1ia: 4.310000
par2ia: 0.027490
ROC:           BPix_BmO_SEC4_LYR2_LDR6F_MOD3_ROC4
par0vd: -4.270000
par1vd: 62.400000
par0va: -1.920000
par1va: 62.800000
par0rbia: 10.100000
par1rbia: 1.070000
par0tbia: 4.710000
par1tbia: 0.235000
par2tbia: -0.000162
par0ia: -7.105000
par1ia: 3.949000
par2ia: 0.026580
ROC:           BPix_BmO_SEC4_LYR2_LDR6F_MOD3_ROC5
par0vd: -1.260000
par1vd: 63.200000
par0va: -0.399000
par1va: 64.300000
par0rbia: 13.000000
par1rbia: 1.070000
par0tbia: 4.550000
par1tbia: 0.253000
par2tbia: -0.000225
par0ia: -0.036340
par1ia: 3.337000
par2ia: 0.034050
ROC:           BPix_BmO_SEC4_LYR2_LDR6F_MOD3_ROC6
par0vd: -4.190000
par1vd: 63.900000
par0va: -2.570000
par1va: 63.900000
par0rbia: 11.200000
par1rbia: 1.090000
par0tbia: 4.350000
par1tbia: 0.240000
par2tbia: -0.000192
par0ia: -6.046000
par1ia: 4.043000
par2ia: 0.027210
ROC:           BPix_BmO_SEC4_LYR2_LDR6F_MOD3_ROC7
par0vd: -4.990000
par1vd: 62.800000
par0va: -0.178000
par1va: 61.300000
par0rbia: 12.200000
par1rbia: 1.050000
par0tbia: 4.660000
par1tbia: 0.236000
par2tbia: -0.000182
par0ia: -4.106000
par1ia: 3.768000
par2ia: 0.029050
ROC:           BPix_BmO_SEC4_LYR2_LDR6F_MOD3_ROC8
par0vd: -6.070000
par1vd: 66.800000
par0va: -1.390000
par1va: 66.100000
par0rbia: 14.200000
par1rbia: 1.100000
par0tbia: 4.660000
par1tbia: 0.270000
par2tbia: -0.000262
par0ia: -5.669000
par1ia: 3.843000
par2ia: 0.023210
ROC:           BPix_BmO_SEC4_LYR2_LDR6F_MOD3_ROC9
par0vd: -7.070000
par1vd: 61.900000
par0va: -5.130000
par1va: 63.000000
par0rbia: 12.100000
par1rbia: 1.050000
par0tbia: 4.600000
par1tbia: 0.249000
par2tbia: -0.000206
par0ia: -2.164000
par1ia: 3.474000
par2ia: 0.030410
ROC:           BPix_BmO_SEC4_LYR2_LDR6F_MOD3_ROC10
par0vd: -5.020000
par1vd: 65.900000
par0va: -0.734000
par1va: 65.800000
par0rbia: 16.200000
par1rbia: 1.100000
par0tbia: 4.710000
par1tbia: 0.237000
par2tbia: -0.000187
par0ia: -8.892000
par1ia: 4.704000
par2ia: 0.017210
ROC:           BPix_BmO_SEC4_LYR2_LDR6F_MOD3_ROC11
par0vd: 1.350000
par1vd: 62.500000
par0va: -3.100000
par1va: 65.900000
par0rbia: 13.900000
par1rbia: 1.090000
par0tbia: 4.700000
par1tbia: 0.260000
par2tbia: -0.000228
par0ia: -5.424000
par1ia: 3.892000
par2ia: 0.023060
ROC:           BPix_BmO_SEC4_LYR2_LDR6F_MOD3_ROC12
par0vd: -2.560000
par1vd: 63.000000
par0va: 0.386000
par1va: 63.000000
par0rbia: 9.310000
par1rbia: 1.010000
par0tbia: 4.410000
par1tbia: 0.244000
par2tbia: -0.000187
par0ia: -2.661000
par1ia: 3.322000
par2ia: 0.030300
ROC:           BPix_BmO_SEC4_LYR2_LDR6F_MOD3_ROC13
par0vd: -4.240000
par1vd: 63.000000
par0va: -1.880000
par1va: 63.700000
par0rbia: 9.420000
par1rbia: 1.050000
par0tbia: 4.260000
par1tbia: 0.228000
par2tbia: -0.000167
par0ia: -4.469000
par1ia: 3.801000
par2ia: 0.033210
ROC:           BPix_BmO_SEC4_LYR2_LDR6F_MOD3_ROC14
par0vd: -6.390000
par1vd: 66.100000
par0va: -3.930000
par1va: 67.200000
par0rbia: 9.130000
par1rbia: 1.080000
par0tbia: 4.510000
par1tbia: 0.224000
par2tbia: -0.000158
par0ia: -7.752000
par1ia: 4.095000
par2ia: 0.030850
ROC:           BPix_BmO_SEC4_LYR2_LDR6F_MOD3_ROC15
par0vd: -8.350000
par1vd: 63.300000
par0va: 2.100000
par1va: 60.100000
par0rbia: 12.800000
par1rbia: 1.070000
par0tbia: 3.860000
par1tbia: 0.236000
par2tbia: -0.000182
par0ia: -0.519500
par1ia: 3.881000
par2ia: 0.030250
