ROC:           BPix_BpO_SEC3_LYR4_LDR10F_MOD1_ROC0
par0vd: -5.490000
par1vd: 68.000000
par0va: -2.170000
par1va: 65.300000
par0rbia: 12.500000
par1rbia: 1.040000
par0tbia: 4.710000
par1tbia: 0.243000
par2tbia: -0.000199
par0ia: -4.609000
par1ia: 3.740000
par2ia: 0.027280
ROC:           BPix_BpO_SEC3_LYR4_LDR10F_MOD1_ROC1
par0vd: -8.000000
par1vd: 65.000000
par0va: -3.810000
par1va: 61.900000
par0rbia: 12.200000
par1rbia: 1.070000
par0tbia: 5.090000
par1tbia: 0.278000
par2tbia: -0.000263
par0ia: -1.418000
par1ia: 3.035000
par2ia: 0.030390
ROC:           BPix_BpO_SEC3_LYR4_LDR10F_MOD1_ROC2
par0vd: -7.830000
par1vd: 64.300000
par0va: 2.630000
par1va: 57.800000
par0rbia: 10.300000
par1rbia: 1.040000
par0tbia: 4.860000
par1tbia: 0.257000
par2tbia: -0.000230
par0ia: -3.730000
par1ia: 3.239000
par2ia: 0.031570
ROC:           BPix_BpO_SEC3_LYR4_LDR10F_MOD1_ROC3
par0vd: -15.500000
par1vd: 67.900000
par0va: -4.140000
par1va: 61.900000
par0rbia: 14.600000
par1rbia: 1.110000
par0tbia: 5.000000
par1tbia: 0.270000
par2tbia: -0.000234
par0ia: -9.321000
par1ia: 4.147000
par2ia: 0.015670
ROC:           BPix_BpO_SEC3_LYR4_LDR10F_MOD1_ROC4
par0vd: -8.630000
par1vd: 61.800000
par0va: -5.200000
par1va: 59.900000
par0rbia: 12.900000
par1rbia: 1.040000
par0tbia: 5.100000
par1tbia: 0.232000
par2tbia: -0.000136
par0ia: -6.692000
par1ia: 4.021000
par2ia: 0.020330
ROC:           BPix_BpO_SEC3_LYR4_LDR10F_MOD1_ROC5
par0vd: -5.890000
par1vd: 66.800000
par0va: -10.200000
par1va: 68.100000
par0rbia: 9.110000
par1rbia: 1.010000
par0tbia: 4.360000
par1tbia: 0.265000
par2tbia: -0.000259
par0ia: -1.483000
par1ia: 2.946000
par2ia: 0.034140
ROC:           BPix_BpO_SEC3_LYR4_LDR10F_MOD1_ROC6
par0vd: -8.330000
par1vd: 65.800000
par0va: -5.210000
par1va: 63.200000
par0rbia: 11.500000
par1rbia: 1.080000
par0tbia: 4.390000
par1tbia: 0.274000
par2tbia: -0.000263
par0ia: -0.950500
par1ia: 3.196000
par2ia: 0.031090
ROC:           BPix_BpO_SEC3_LYR4_LDR10F_MOD1_ROC7
par0vd: -8.470000
par1vd: 67.500000
par0va: -3.250000
par1va: 63.600000
par0rbia: 11.200000
par1rbia: 1.100000
par0tbia: 4.900000
par1tbia: 0.263000
par2tbia: -0.000210
par0ia: -8.805000
par1ia: 3.903000
par2ia: 0.019600
ROC:           BPix_BpO_SEC3_LYR4_LDR10F_MOD1_ROC8
par0vd: -8.330000
par1vd: 64.900000
par0va: -5.770000
par1va: 63.900000
par0rbia: 13.700000
par1rbia: 1.080000
par0tbia: 5.160000
par1tbia: 0.264000
par2tbia: -0.000219
par0ia: -5.276000
par1ia: 3.651000
par2ia: 0.022640
ROC:           BPix_BpO_SEC3_LYR4_LDR10F_MOD1_ROC9
par0vd: -7.690000
par1vd: 62.800000
par0va: -5.890000
par1va: 61.100000
par0rbia: 11.600000
par1rbia: 1.080000
par0tbia: 4.360000
par1tbia: 0.265000
par2tbia: -0.000250
par0ia: -3.075000
par1ia: 3.487000
par2ia: 0.029530
ROC:           BPix_BpO_SEC3_LYR4_LDR10F_MOD1_ROC10
par0vd: -6.620000
par1vd: 64.100000
par0va: -6.230000
par1va: 63.500000
par0rbia: 12.100000
par1rbia: 1.060000
par0tbia: 4.860000
par1tbia: 0.257000
par2tbia: -0.000230
par0ia: -3.582000
par1ia: 3.422000
par2ia: 0.029860
ROC:           BPix_BpO_SEC3_LYR4_LDR10F_MOD1_ROC11
par0vd: -2.250000
par1vd: 63.500000
par0va: -2.480000
par1va: 62.500000
par0rbia: 13.600000
par1rbia: 1.080000
par0tbia: 4.860000
par1tbia: 0.256000
par2tbia: -0.000221
par0ia: -4.099000
par1ia: 3.680000
par2ia: 0.026540
ROC:           BPix_BpO_SEC3_LYR4_LDR10F_MOD1_ROC12
par0vd: -10.100000
par1vd: 69.000000
par0va: -9.240000
par1va: 68.500000
par0rbia: 11.100000
par1rbia: 1.080000
par0tbia: 5.070000
par1tbia: 0.246000
par2tbia: -0.000189
par0ia: -7.514000
par1ia: 3.812000
par2ia: 0.025800
ROC:           BPix_BpO_SEC3_LYR4_LDR10F_MOD1_ROC13
par0vd: -6.140000
par1vd: 63.600000
par0va: 0.977000
par1va: 59.000000
par0rbia: 10.200000
par1rbia: 1.040000
par0tbia: 4.740000
par1tbia: 0.271000
par2tbia: -0.000244
par0ia: -2.464000
par1ia: 3.081000
par2ia: 0.029090
ROC:           BPix_BpO_SEC3_LYR4_LDR10F_MOD1_ROC14
par0vd: 0.340000
par1vd: 64.100000
par0va: -0.820000
par1va: 64.300000
par0rbia: 13.700000
par1rbia: 1.070000
par0tbia: 5.100000
par1tbia: 0.265000
par2tbia: -0.000229
par0ia: -1.758000
par1ia: 3.308000
par2ia: 0.028240
ROC:           BPix_BpO_SEC3_LYR4_LDR10F_MOD1_ROC15
par0vd: -11.600000
par1vd: 63.700000
par0va: -7.650000
par1va: 61.900000
par0rbia: 10.600000
par1rbia: 1.060000
par0tbia: 4.860000
par1tbia: 0.257000
par2tbia: -0.000230
par0ia: -5.454000
par1ia: 3.468000
par2ia: 0.029490
