ROC:           BPix_BpI_SEC3_LYR4_LDR11F_MOD1_ROC0
par0vd: -6.740000
par1vd: 61.900000
par0va: -4.220000
par1va: 62.800000
par0rbia: 12.500000
par1rbia: 1.080000
par0tbia: 4.700000
par1tbia: 0.247000
par2tbia: -0.000175
par0ia: -4.572000
par1ia: 3.833000
par2ia: 0.023260
ROC:           BPix_BpI_SEC3_LYR4_LDR11F_MOD1_ROC1
par0vd: -1.860000
par1vd: 63.700000
par0va: 0.355000
par1va: 63.700000
par0rbia: 11.600000
par1rbia: 1.090000
par0tbia: 4.670000
par1tbia: 0.246000
par2tbia: -0.000206
par0ia: -7.507000
par1ia: 4.024000
par2ia: 0.026370
ROC:           BPix_BpI_SEC3_LYR4_LDR11F_MOD1_ROC2
par0vd: -1.390000
par1vd: 60.800000
par0va: 1.780000
par1va: 60.800000
par0rbia: 11.900000
par1rbia: 1.070000
par0tbia: 4.870000
par1tbia: 0.237000
par2tbia: -0.000162
par0ia: -5.252000
par1ia: 3.860000
par2ia: 0.026750
ROC:           BPix_BpI_SEC3_LYR4_LDR11F_MOD1_ROC3
par0vd: -5.010000
par1vd: 63.800000
par0va: -3.130000
par1va: 66.100000
par0rbia: 13.100000
par1rbia: 1.060000
par0tbia: 4.600000
par1tbia: 0.253000
par2tbia: -0.000213
par0ia: -0.002997
par1ia: 3.347000
par2ia: 0.032050
ROC:           BPix_BpI_SEC3_LYR4_LDR11F_MOD1_ROC4
par0vd: -18.300000
par1vd: 67.000000
par0va: -3.800000
par1va: 62.400000
par0rbia: 7.820000
par1rbia: 1.040000
par0tbia: 4.830000
par1tbia: 0.240000
par2tbia: -0.000196
par0ia: -7.013000
par1ia: 3.486000
par2ia: 0.033100
ROC:           BPix_BpI_SEC3_LYR4_LDR11F_MOD1_ROC5
par0vd: -7.270000
par1vd: 63.700000
par0va: -6.020000
par1va: 65.500000
par0rbia: 11.500000
par1rbia: 1.070000
par0tbia: 4.590000
par1tbia: 0.265000
par2tbia: -0.000252
par0ia: -0.401000
par1ia: 3.111000
par2ia: 0.035230
ROC:           BPix_BpI_SEC3_LYR4_LDR11F_MOD1_ROC6
par0vd: -3.220000
par1vd: 59.900000
par0va: -3.760000
par1va: 62.300000
par0rbia: 12.400000
par1rbia: 1.070000
par0tbia: 4.410000
par1tbia: 0.240000
par2tbia: -0.000182
par0ia: -2.758000
par1ia: 3.786000
par2ia: 0.029000
ROC:           BPix_BpI_SEC3_LYR4_LDR11F_MOD1_ROC7
par0vd: -8.390000
par1vd: 60.800000
par0va: -3.620000
par1va: 60.400000
par0rbia: 9.120000
par1rbia: 1.030000
par0tbia: 4.820000
par1tbia: 0.232000
par2tbia: -0.000158
par0ia: -7.880000
par1ia: 3.810000
par2ia: 0.025660
ROC:           BPix_BpI_SEC3_LYR4_LDR11F_MOD1_ROC8
par0vd: -7.130000
par1vd: 63.900000
par0va: 1.130000
par1va: 61.700000
par0rbia: 12.300000
par1rbia: 1.080000
par0tbia: 4.650000
par1tbia: 0.249000
par2tbia: -0.000194
par0ia: -4.163000
par1ia: 3.759000
par2ia: 0.026480
ROC:           BPix_BpI_SEC3_LYR4_LDR11F_MOD1_ROC9
par0vd: -2.710000
par1vd: 61.900000
par0va: 3.170000
par1va: 60.600000
par0rbia: 12.200000
par1rbia: 1.050000
par0tbia: 4.600000
par1tbia: 0.252000
par2tbia: -0.000204
par0ia: -0.273000
par1ia: 3.294000
par2ia: 0.031430
ROC:           BPix_BpI_SEC3_LYR4_LDR11F_MOD1_ROC10
par0vd: -10.500000
par1vd: 61.300000
par0va: -6.710000
par1va: 62.600000
par0rbia: 12.300000
par1rbia: 1.050000
par0tbia: 4.870000
par1tbia: 0.236000
par2tbia: -0.000177
par0ia: -2.527000
par1ia: 3.560000
par2ia: 0.032550
ROC:           BPix_BpI_SEC3_LYR4_LDR11F_MOD1_ROC11
par0vd: -5.880000
par1vd: 69.400000
par0va: 6.690000
par1va: 65.700000
par0rbia: 12.500000
par1rbia: 1.050000
par0tbia: 4.500000
par1tbia: 0.235000
par2tbia: -0.000162
par0ia: -2.414000
par1ia: 3.768000
par2ia: 0.028000
ROC:           BPix_BpI_SEC3_LYR4_LDR11F_MOD1_ROC12
par0vd: -14.000000
par1vd: 66.300000
par0va: -0.204000
par1va: 62.400000
par0rbia: 11.100000
par1rbia: 1.080000
par0tbia: 4.530000
par1tbia: 0.231000
par2tbia: -0.000158
par0ia: -5.633000
par1ia: 4.026000
par2ia: 0.027190
ROC:           BPix_BpI_SEC3_LYR4_LDR11F_MOD1_ROC13
par0vd: -10.200000
par1vd: 63.600000
par0va: -4.970000
par1va: 63.800000
par0rbia: 8.200000
par1rbia: 1.050000
par0tbia: 4.610000
par1tbia: 0.242000
par2tbia: -0.000187
par0ia: -5.472000
par1ia: 3.486000
par2ia: 0.031550
ROC:           BPix_BpI_SEC3_LYR4_LDR11F_MOD1_ROC14
par0vd: -8.630000
par1vd: 63.200000
par0va: -0.863000
par1va: 61.900000
par0rbia: 11.200000
par1rbia: 1.070000
par0tbia: 4.470000
par1tbia: 0.227000
par2tbia: -0.000158
par0ia: -5.431000
par1ia: 4.052000
par2ia: 0.028830
ROC:           BPix_BpI_SEC3_LYR4_LDR11F_MOD1_ROC15
par0vd: -9.820000
par1vd: 65.200000
par0va: 1.010000
par1va: 62.200000
par0rbia: 9.440000
par1rbia: 1.050000
par0tbia: 4.600000
par1tbia: 0.253000
par2tbia: -0.000213
par0ia: -3.321000
par1ia: 3.302000
par2ia: 0.032360
