ROC:           BPix_BmO_SEC7_LYR4_LDR27F_MOD2_ROC0
par0vd: -8.500000
par1vd: 62.600000
par0va: -3.940000
par1va: 60.600000
par0rbia: 11.000000
par1rbia: 1.000000
par0tbia: 4.880000
par1tbia: 0.237000
par2tbia: -0.000183
par0ia: -5.677000
par1ia: 3.616000
par2ia: 0.027560
ROC:           BPix_BmO_SEC7_LYR4_LDR27F_MOD2_ROC1
par0vd: -7.050000
par1vd: 62.100000
par0va: -5.790000
par1va: 61.900000
par0rbia: 10.800000
par1rbia: 1.070000
par0tbia: 4.720000
par1tbia: 0.243000
par2tbia: -0.000170
par0ia: -6.432000
par1ia: 3.866000
par2ia: 0.023540
ROC:           BPix_BmO_SEC7_LYR4_LDR27F_MOD2_ROC2
par0vd: -11.100000
par1vd: 64.700000
par0va: -7.940000
par1va: 64.300000
par0rbia: 15.300000
par1rbia: 1.100000
par0tbia: 4.500000
par1tbia: 0.279000
par2tbia: -0.000262
par0ia: -4.615000
par1ia: 3.867000
par2ia: 0.018650
ROC:           BPix_BmO_SEC7_LYR4_LDR27F_MOD2_ROC3
par0vd: -4.150000
par1vd: 60.600000
par0va: -4.970000
par1va: 61.900000
par0rbia: 11.400000
par1rbia: 1.080000
par0tbia: 4.820000
par1tbia: 0.251000
par2tbia: -0.000189
par0ia: -7.281000
par1ia: 3.909000
par2ia: 0.022390
ROC:           BPix_BmO_SEC7_LYR4_LDR27F_MOD2_ROC4
par0vd: -5.880000
par1vd: 63.800000
par0va: -6.270000
par1va: 65.000000
par0rbia: 12.400000
par1rbia: 1.080000
par0tbia: 4.990000
par1tbia: 0.231000
par2tbia: -0.000144
par0ia: -9.250000
par1ia: 4.342000
par2ia: 0.019950
ROC:           BPix_BmO_SEC7_LYR4_LDR27F_MOD2_ROC5
par0vd: -11.100000
par1vd: 66.100000
par0va: -8.450000
par1va: 66.400000
par0rbia: 15.300000
par1rbia: 1.110000
par0tbia: 4.750000
par1tbia: 0.253000
par2tbia: -0.000194
par0ia: -10.690000
par1ia: 4.660000
par2ia: 0.011500
ROC:           BPix_BmO_SEC7_LYR4_LDR27F_MOD2_ROC6
par0vd: -12.700000
par1vd: 70.500000
par0va: -9.650000
par1va: 70.500000
par0rbia: 12.100000
par1rbia: 1.100000
par0tbia: 4.650000
par1tbia: 0.257000
par2tbia: -0.000208
par0ia: -7.965000
par1ia: 4.062000
par2ia: 0.020490
ROC:           BPix_BmO_SEC7_LYR4_LDR27F_MOD2_ROC7
par0vd: -12.900000
par1vd: 66.400000
par0va: -8.580000
par1va: 65.400000
par0rbia: 9.710000
par1rbia: 1.080000
par0tbia: 4.520000
par1tbia: 0.276000
par2tbia: -0.000262
par0ia: -2.586000
par1ia: 3.144000
par2ia: 0.030910
ROC:           BPix_BmO_SEC7_LYR4_LDR27F_MOD2_ROC8
par0vd: -2.360000
par1vd: 61.300000
par0va: -7.370000
par1va: 64.600000
par0rbia: 12.000000
par1rbia: 1.080000
par0tbia: 5.060000
par1tbia: 0.259000
par2tbia: -0.000199
par0ia: -5.096000
par1ia: 3.578000
par2ia: 0.023830
ROC:           BPix_BmO_SEC7_LYR4_LDR27F_MOD2_ROC9
par0vd: -14.300000
par1vd: 63.900000
par0va: -8.020000
par1va: 63.000000
par0rbia: 12.300000
par1rbia: 1.070000
par0tbia: 4.600000
par1tbia: 0.263000
par2tbia: -0.000204
par0ia: -2.415000
par1ia: 3.488000
par2ia: 0.024150
ROC:           BPix_BmO_SEC7_LYR4_LDR27F_MOD2_ROC10
par0vd: -6.530000
par1vd: 62.800000
par0va: -4.410000
par1va: 62.600000
par0rbia: 17.200000
par1rbia: 1.100000
par0tbia: 4.840000
par1tbia: 0.284000
par2tbia: -0.000248
par0ia: -5.487000
par1ia: 3.974000
par2ia: 0.013540
ROC:           BPix_BmO_SEC7_LYR4_LDR27F_MOD2_ROC11
par0vd: -9.540000
par1vd: 69.600000
par0va: -5.630000
par1va: 69.600000
par0rbia: 15.400000
par1rbia: 1.100000
par0tbia: 5.000000
par1tbia: 0.242000
par2tbia: -0.000155
par0ia: -11.160000
par1ia: 4.717000
par2ia: 0.009763
ROC:           BPix_BmO_SEC7_LYR4_LDR27F_MOD2_ROC12
par0vd: -12.000000
par1vd: 66.300000
par0va: -5.200000
par1va: 65.000000
par0rbia: 16.300000
par1rbia: 1.090000
par0tbia: 4.750000
par1tbia: 0.263000
par2tbia: -0.000208
par0ia: -6.425000
par1ia: 4.208000
par2ia: 0.014220
ROC:           BPix_BmO_SEC7_LYR4_LDR27F_MOD2_ROC13
par0vd: -4.410000
par1vd: 64.100000
par0va: -0.897000
par1va: 63.200000
par0rbia: 15.800000
par1rbia: 1.080000
par0tbia: 4.690000
par1tbia: 0.260000
par2tbia: -0.000223
par0ia: -2.980000
par1ia: 3.840000
par2ia: 0.022790
ROC:           BPix_BmO_SEC7_LYR4_LDR27F_MOD2_ROC14
par0vd: -7.570000
par1vd: 66.700000
par0va: -2.610000
par1va: 66.100000
par0rbia: 15.100000
par1rbia: 1.100000
par0tbia: 4.630000
par1tbia: 0.239000
par2tbia: -0.000183
par0ia: -8.142000
par1ia: 4.547000
par2ia: 0.017770
ROC:           BPix_BmO_SEC7_LYR4_LDR27F_MOD2_ROC15
par0vd: -9.980000
par1vd: 68.900000
par0va: -4.260000
par1va: 67.600000
par0rbia: 10.600000
par1rbia: 1.050000
par0tbia: 4.950000
par1tbia: 0.264000
par2tbia: -0.000228
par0ia: -3.504000
par1ia: 3.213000
par2ia: 0.028950
