ROC:           BPix_BpO_SEC8_LYR1_LDR6H_MOD1_ROC4
par0vd: 4.880000
par1vd: 65.000000
par0va: 3.950000
par1va: 67.600000
par0rbia: 11.500000
par1rbia: 1.060000
par0tbia: 3.650000
par1tbia: 0.259000
par2tbia: -0.000185
par0ia: 1.191000
par1ia: 3.461000
par2ia: 0.024250
ROC:           BPix_BpO_SEC8_LYR1_LDR6H_MOD1_ROC5
par0vd: -0.079000
par1vd: 60.600000
par0va: 0.352000
par1va: 63.000000
par0rbia: 10.600000
par1rbia: 1.060000
par0tbia: 4.030000
par1tbia: 0.279000
par2tbia: -0.000183
par0ia: -1.680000
par1ia: 3.393000
par2ia: 0.016840
ROC:           BPix_BpO_SEC8_LYR1_LDR6H_MOD1_ROC6
par0vd: 3.290000
par1vd: 59.300000
par0va: 5.360000
par1va: 60.200000
par0rbia: 9.480000
par1rbia: 1.040000
par0tbia: 3.540000
par1tbia: 0.260000
par2tbia: -0.000176
par0ia: 0.238100
par1ia: 3.373000
par2ia: 0.023040
ROC:           BPix_BpO_SEC8_LYR1_LDR6H_MOD1_ROC7
par0vd: 6.680000
par1vd: 60.900000
par0va: 7.530000
par1va: 61.500000
par0rbia: 9.290000
par1rbia: 1.060000
par0tbia: 3.900000
par1tbia: 0.265000
par2tbia: -0.000179
par0ia: -2.152000
par1ia: 3.462000
par2ia: 0.021290
ROC:           BPix_BpO_SEC8_LYR1_LDR6H_MOD1_ROC8
par0vd: -4.370000
par1vd: 64.300000
par0va: 0.415000
par1va: 64.300000
par0rbia: 8.900000
par1rbia: 1.080000
par0tbia: 3.940000
par1tbia: 0.272000
par2tbia: -0.000168
par0ia: -2.754000
par1ia: 3.467000
par2ia: 0.018270
ROC:           BPix_BpO_SEC8_LYR1_LDR6H_MOD1_ROC9
par0vd: 5.150000
par1vd: 62.000000
par0va: 7.420000
par1va: 62.100000
par0rbia: 14.200000
par1rbia: 1.080000
par0tbia: 3.940000
par1tbia: 0.284000
par2tbia: -0.000202
par0ia: 0.871200
par1ia: 3.498000
par2ia: 0.016230
ROC:           BPix_BpO_SEC8_LYR1_LDR6H_MOD1_ROC10
par0vd: -5.780000
par1vd: 67.000000
par0va: 2.110000
par1va: 65.700000
par0rbia: 13.800000
par1rbia: 1.100000
par0tbia: 3.890000
par1tbia: 0.279000
par2tbia: -0.000202
par0ia: -3.212000
par1ia: 3.934000
par2ia: 0.012470
ROC:           BPix_BpO_SEC8_LYR1_LDR6H_MOD1_ROC11
par0vd: 3.130000
par1vd: 65.700000
par0va: 10.700000
par1va: 63.200000
par0rbia: 13.300000
par1rbia: 1.090000
par0tbia: 3.880000
par1tbia: 0.285000
par2tbia: -0.000193
par0ia: -0.799900
par1ia: 3.607000
par2ia: 0.014010
