ROC:           BPix_BmI_SEC5_LYR4_LDR19F_MOD2_ROC0
par0vd: -0.440000
par1vd: 62.700000
par0va: -6.800000
par1va: 64.500000
par0rbia: 13.100000
par1rbia: 1.070000
par0tbia: 4.770000
par1tbia: 0.251000
par2tbia: -0.000189
par0ia: -4.922000
par1ia: 3.842000
par2ia: 0.022580
ROC:           BPix_BmI_SEC5_LYR4_LDR19F_MOD2_ROC1
par0vd: -2.720000
par1vd: 60.600000
par0va: -8.700000
par1va: 61.900000
par0rbia: 11.200000
par1rbia: 1.070000
par0tbia: 4.570000
par1tbia: 0.227000
par2tbia: -0.000126
par0ia: -8.051000
par1ia: 4.334000
par2ia: 0.019010
ROC:           BPix_BmI_SEC5_LYR4_LDR19F_MOD2_ROC2
par0vd: -2.090000
par1vd: 66.000000
par0va: -7.560000
par1va: 67.900000
par0rbia: 10.200000
par1rbia: 1.050000
par0tbia: 4.880000
par1tbia: 0.239000
par2tbia: -0.000164
par0ia: -6.242000
par1ia: 3.734000
par2ia: 0.026330
ROC:           BPix_BmI_SEC5_LYR4_LDR19F_MOD2_ROC3
par0vd: 1.580000
par1vd: 63.200000
par0va: -3.770000
par1va: 64.300000
par0rbia: 12.900000
par1rbia: 1.080000
par0tbia: 4.660000
par1tbia: 0.257000
par2tbia: -0.000228
par0ia: -3.529000
par1ia: 3.624000
par2ia: 0.028620
ROC:           BPix_BmI_SEC5_LYR4_LDR19F_MOD2_ROC4
par0vd: 0.805000
par1vd: 63.400000
par0va: -4.910000
par1va: 64.500000
par0rbia: 9.910000
par1rbia: 1.050000
par0tbia: 4.090000
par1tbia: 0.244000
par2tbia: -0.000194
par0ia: -2.658000
par1ia: 3.567000
par2ia: 0.030540
ROC:           BPix_BmI_SEC5_LYR4_LDR19F_MOD2_ROC5
par0vd: -3.270000
par1vd: 67.400000
par0va: -5.210000
par1va: 67.200000
par0rbia: 17.400000
par1rbia: 1.110000
par0tbia: 4.370000
par1tbia: 0.254000
par2tbia: -0.000189
par0ia: -7.211000
par1ia: 4.711000
par2ia: 0.009188
ROC:           BPix_BmI_SEC5_LYR4_LDR19F_MOD2_ROC6
par0vd: -4.950000
par1vd: 66.100000
par0va: -6.650000
par1va: 66.000000
par0rbia: 15.000000
par1rbia: 1.090000
par0tbia: 4.740000
par1tbia: 0.242000
par2tbia: -0.000188
par0ia: -7.924000
par1ia: 4.420000
par2ia: 0.019030
ROC:           BPix_BmI_SEC5_LYR4_LDR19F_MOD2_ROC7
par0vd: -2.750000
par1vd: 63.200000
par0va: -7.900000
par1va: 63.900000
par0rbia: 11.400000
par1rbia: 1.050000
par0tbia: 4.050000
par1tbia: 0.272000
par2tbia: -0.000242
par0ia: 0.707200
par1ia: 3.150000
par2ia: 0.028470
ROC:           BPix_BmI_SEC5_LYR4_LDR19F_MOD2_ROC8
par0vd: -4.820000
par1vd: 65.200000
par0va: -4.420000
par1va: 64.600000
par0rbia: 14.400000
par1rbia: 1.070000
par0tbia: 4.200000
par1tbia: 0.261000
par2tbia: -0.000223
par0ia: -0.067780
par1ia: 3.594000
par2ia: 0.025690
ROC:           BPix_BmI_SEC5_LYR4_LDR19F_MOD2_ROC9
par0vd: -6.270000
par1vd: 63.700000
par0va: -10.200000
par1va: 64.500000
par0rbia: 9.390000
par1rbia: 1.040000
par0tbia: 4.390000
par1tbia: 0.243000
par2tbia: -0.000193
par0ia: -5.034000
par1ia: 3.613000
par2ia: 0.028640
ROC:           BPix_BmI_SEC5_LYR4_LDR19F_MOD2_ROC10
par0vd: -2.850000
par1vd: 66.400000
par0va: -6.330000
par1va: 67.200000
par0rbia: 12.300000
par1rbia: 1.070000
par0tbia: 3.750000
par1tbia: 0.241000
par2tbia: -0.000175
par0ia: 0.099160
par1ia: 3.812000
par2ia: 0.027810
ROC:           BPix_BmI_SEC5_LYR4_LDR19F_MOD2_ROC11
par0vd: 1.560000
par1vd: 60.000000
par0va: -3.570000
par1va: 60.900000
par0rbia: 12.000000
par1rbia: 1.060000
par0tbia: 4.510000
par1tbia: 0.273000
par2tbia: -0.000267
par0ia: -0.179400
par1ia: 3.087000
par2ia: 0.031880
ROC:           BPix_BmI_SEC5_LYR4_LDR19F_MOD2_ROC12
par0vd: -5.000000
par1vd: 63.200000
par0va: -7.230000
par1va: 63.900000
par0rbia: 12.300000
par1rbia: 1.070000
par0tbia: 4.760000
par1tbia: 0.252000
par2tbia: -0.000184
par0ia: -3.799000
par1ia: 3.665000
par2ia: 0.024360
ROC:           BPix_BmI_SEC5_LYR4_LDR19F_MOD2_ROC13
par0vd: -3.560000
par1vd: 62.100000
par0va: 0.130000
par1va: 59.300000
par0rbia: 14.900000
par1rbia: 1.090000
par0tbia: 4.140000
par1tbia: 0.279000
par2tbia: -0.000257
par0ia: -0.394400
par1ia: 3.557000
par2ia: 0.022460
ROC:           BPix_BmI_SEC5_LYR4_LDR19F_MOD2_ROC14
par0vd: -3.010000
par1vd: 64.800000
par0va: -3.920000
par1va: 65.000000
par0rbia: 12.600000
par1rbia: 1.080000
par0tbia: 4.140000
par1tbia: 0.273000
par2tbia: -0.000242
par0ia: 0.321200
par1ia: 3.314000
par2ia: 0.026960
ROC:           BPix_BmI_SEC5_LYR4_LDR19F_MOD2_ROC15
par0vd: -16.900000
par1vd: 65.200000
par0va: -7.750000
par1va: 61.100000
par0rbia: 10.800000
par1rbia: 1.080000
par0tbia: 4.040000
par1tbia: 0.273000
par2tbia: -0.000257
par0ia: -0.836400
par1ia: 3.263000
par2ia: 0.029830
