ROC:           BPix_BmI_SEC2_LYR1_LDR2H_MOD3_ROC4
par0vd: 2.220000
par1vd: 67.200000
par0va: 2.440000
par1va: 67.400000
par0rbia: 9.800000
par1rbia: 1.050000
par0tbia: 4.260000
par1tbia: 0.239000
par2tbia: -0.000099
par0ia: -4.942000
par1ia: 3.933000
par2ia: 0.015940
ROC:           BPix_BmI_SEC2_LYR1_LDR2H_MOD3_ROC5
par0vd: 6.800000
par1vd: 62.000000
par0va: 3.110000
par1va: 63.600000
par0rbia: 9.590000
par1rbia: 1.070000
par0tbia: 3.710000
par1tbia: 0.295000
par2tbia: -0.000229
par0ia: 0.721900
par1ia: 3.050000
par2ia: 0.020920
ROC:           BPix_BmI_SEC2_LYR1_LDR2H_MOD3_ROC6
par0vd: 2.920000
par1vd: 66.800000
par0va: 0.888000
par1va: 67.500000
par0rbia: 12.100000
par1rbia: 1.100000
par0tbia: 4.070000
par1tbia: 0.250000
par2tbia: -0.000125
par0ia: -7.577000
par1ia: 4.476000
par2ia: 0.008273
ROC:           BPix_BmI_SEC2_LYR1_LDR2H_MOD3_ROC7
par0vd: 5.610000
par1vd: 62.600000
par0va: 3.700000
par1va: 63.100000
par0rbia: 14.800000
par1rbia: 1.100000
par0tbia: 4.410000
par1tbia: 0.289000
par2tbia: -0.000200
par0ia: -5.755000
par1ia: 3.999000
par2ia: 0.008105
ROC:           BPix_BmI_SEC2_LYR1_LDR2H_MOD3_ROC8
par0vd: 3.700000
par1vd: 66.100000
par0va: 10.600000
par1va: 62.300000
par0rbia: 12.400000
par1rbia: 1.050000
par0tbia: 4.300000
par1tbia: 0.230000
par2tbia: -0.000075
par0ia: -3.140000
par1ia: 4.095000
par2ia: 0.014490
ROC:           BPix_BmI_SEC2_LYR1_LDR2H_MOD3_ROC9
par0vd: 12.100000
par1vd: 60.900000
par0va: 5.650000
par1va: 63.700000
par0rbia: 14.500000
par1rbia: 1.040000
par0tbia: 4.210000
par1tbia: 0.234000
par2tbia: -0.000085
par0ia: -1.669000
par1ia: 4.135000
par2ia: 0.012770
ROC:           BPix_BmI_SEC2_LYR1_LDR2H_MOD3_ROC10
par0vd: 6.930000
par1vd: 65.000000
par0va: 7.890000
par1va: 63.500000
par0rbia: 10.200000
par1rbia: 1.090000
par0tbia: 4.050000
par1tbia: 0.252000
par2tbia: -0.000135
par0ia: -4.985000
par1ia: 3.982000
par2ia: 0.015420
ROC:           BPix_BmI_SEC2_LYR1_LDR2H_MOD3_ROC11
par0vd: 10.100000
par1vd: 64.200000
par0va: 7.150000
par1va: 64.800000
par0rbia: 13.900000
par1rbia: 1.100000
par0tbia: 3.950000
par1tbia: 0.255000
par2tbia: -0.000139
par0ia: -4.445000
par1ia: 4.303000
par2ia: 0.009966
