ROC:           BPix_BmO_SEC1_LYR3_LDR1F_MOD1_ROC0
par0vd: -6.580000
par1vd: 61.900000
par0va: -5.100000
par1va: 62.900000
par0rbia: 11.300000
par1rbia: 1.090000
par0tbia: 4.870000
par1tbia: 0.268000
par2tbia: -0.000238
par0ia: -5.547000
par1ia: 3.527000
par2ia: 0.025820
ROC:           BPix_BmO_SEC1_LYR3_LDR1F_MOD1_ROC1
par0vd: -9.420000
par1vd: 65.400000
par0va: -6.970000
par1va: 65.700000
par0rbia: 10.600000
par1rbia: 1.050000
par0tbia: 4.710000
par1tbia: 0.223000
par2tbia: -0.000172
par0ia: -6.454000
par1ia: 3.925000
par2ia: 0.033970
ROC:           BPix_BmO_SEC1_LYR3_LDR1F_MOD1_ROC2
par0vd: -7.920000
par1vd: 63.200000
par0va: -5.620000
par1va: 64.200000
par0rbia: 11.000000
par1rbia: 1.060000
par0tbia: 5.000000
par1tbia: 0.272000
par2tbia: -0.000247
par0ia: -3.936000
par1ia: 3.210000
par2ia: 0.027570
ROC:           BPix_BmO_SEC1_LYR3_LDR1F_MOD1_ROC3
par0vd: -8.560000
par1vd: 61.200000
par0va: -5.050000
par1va: 61.000000
par0rbia: 9.230000
par1rbia: 1.030000
par0tbia: 4.910000
par1tbia: 0.246000
par2tbia: -0.000189
par0ia: -5.853000
par1ia: 3.443000
par2ia: 0.028380
ROC:           BPix_BmO_SEC1_LYR3_LDR1F_MOD1_ROC4
par0vd: -2.160000
par1vd: 63.400000
par0va: -0.275000
par1va: 63.900000
par0rbia: 14.100000
par1rbia: 1.080000
par0tbia: 4.540000
par1tbia: 0.262000
par2tbia: -0.000261
par0ia: -1.366000
par1ia: 3.471000
par2ia: 0.032440
ROC:           BPix_BmO_SEC1_LYR3_LDR1F_MOD1_ROC5
par0vd: -7.210000
par1vd: 62.600000
par0va: -4.750000
par1va: 63.000000
par0rbia: 8.570000
par1rbia: 1.050000
par0tbia: 5.070000
par1tbia: 0.259000
par2tbia: -0.000218
par0ia: -7.171000
par1ia: 3.356000
par2ia: 0.027510
ROC:           BPix_BmO_SEC1_LYR3_LDR1F_MOD1_ROC6
par0vd: -5.910000
par1vd: 64.400000
par0va: 2.660000
par1va: 61.800000
par0rbia: 18.100000
par1rbia: 1.100000
par0tbia: 5.000000
par1tbia: 0.261000
par2tbia: -0.000223
par0ia: -7.260000
par1ia: 4.340000
par2ia: 0.014590
ROC:           BPix_BmO_SEC1_LYR3_LDR1F_MOD1_ROC7
par0vd: -6.910000
par1vd: 64.400000
par0va: -2.540000
par1va: 64.400000
par0rbia: 14.400000
par1rbia: 1.070000
par0tbia: 5.000000
par1tbia: 0.261000
par2tbia: -0.000223
par0ia: -2.339000
par1ia: 3.489000
par2ia: 0.026600
ROC:           BPix_BmO_SEC1_LYR3_LDR1F_MOD1_ROC8
par0vd: -12.700000
par1vd: 64.300000
par0va: -9.940000
par1va: 65.400000
par0rbia: 8.920000
par1rbia: 1.080000
par0tbia: 5.030000
par1tbia: 0.228000
par2tbia: -0.000139
par0ia: -11.050000
par1ia: 4.176000
par2ia: 0.023590
ROC:           BPix_BmO_SEC1_LYR3_LDR1F_MOD1_ROC9
par0vd: -3.630000
par1vd: 61.100000
par0va: -5.030000
par1va: 63.700000
par0rbia: 13.000000
par1rbia: 1.070000
par0tbia: 4.690000
par1tbia: 0.265000
par2tbia: -0.000233
par0ia: -1.798000
par1ia: 3.401000
par2ia: 0.028130
ROC:           BPix_BmO_SEC1_LYR3_LDR1F_MOD1_ROC10
par0vd: -11.100000
par1vd: 63.500000
par0va: -5.550000
par1va: 63.300000
par0rbia: 14.500000
par1rbia: 1.090000
par0tbia: 4.950000
par1tbia: 0.267000
par2tbia: -0.000218
par0ia: -5.890000
par1ia: 3.865000
par2ia: 0.018660
ROC:           BPix_BmO_SEC1_LYR3_LDR1F_MOD1_ROC11
par0vd: -5.900000
par1vd: 61.500000
par0va: -3.840000
par1va: 61.900000
par0rbia: 14.300000
par1rbia: 1.090000
par0tbia: 4.780000
par1tbia: 0.243000
par2tbia: -0.000188
par0ia: -6.602000
par1ia: 4.194000
par2ia: 0.021630
ROC:           BPix_BmO_SEC1_LYR3_LDR1F_MOD1_ROC12
par0vd: -11.100000
par1vd: 62.600000
par0va: -5.150000
par1va: 61.800000
par0rbia: 9.750000
par1rbia: 1.000000
par0tbia: 4.940000
par1tbia: 0.232000
par2tbia: -0.000154
par0ia: -6.573000
par1ia: 3.657000
par2ia: 0.026030
ROC:           BPix_BmO_SEC1_LYR3_LDR1F_MOD1_ROC13
par0vd: -11.800000
par1vd: 62.800000
par0va: -2.770000
par1va: 61.000000
par0rbia: 10.800000
par1rbia: 1.080000
par0tbia: 4.750000
par1tbia: 0.252000
par2tbia: -0.000208
par0ia: -4.664000
par1ia: 3.561000
par2ia: 0.029590
ROC:           BPix_BmO_SEC1_LYR3_LDR1F_MOD1_ROC14
par0vd: -6.870000
par1vd: 61.900000
par0va: -5.430000
par1va: 63.500000
par0rbia: 11.100000
par1rbia: 1.050000
par0tbia: 4.960000
par1tbia: 0.265000
par2tbia: -0.000257
par0ia: -3.508000
par1ia: 3.187000
par2ia: 0.032450
ROC:           BPix_BmO_SEC1_LYR3_LDR1F_MOD1_ROC15
par0vd: -10.100000
par1vd: 64.100000
par0va: -2.590000
par1va: 63.300000
par0rbia: 13.900000
par1rbia: 1.060000
par0tbia: 4.740000
par1tbia: 0.243000
par2tbia: -0.000198
par0ia: -1.661000
par1ia: 3.627000
par2ia: 0.031380
