ROC:           BPix_BpO_SEC4_LYR3_LDR9F_MOD3_ROC0
par0vd: -9.940000
par1vd: 61.200000
par0va: -1.640000
par1va: 58.000000
par0rbia: 10.200000
par1rbia: 1.030000
par0tbia: 4.050000
par1tbia: 0.264000
par2tbia: -0.000247
par0ia: -0.011450
par1ia: 3.091000
par2ia: 0.032960
ROC:           BPix_BpO_SEC4_LYR3_LDR9F_MOD3_ROC1
par0vd: -9.000000
par1vd: 65.000000
par0va: -3.990000
par1va: 63.700000
par0rbia: 9.590000
par1rbia: 1.030000
par0tbia: 4.120000
par1tbia: 0.250000
par2tbia: -0.000204
par0ia: -3.551000
par1ia: 3.521000
par2ia: 0.027480
ROC:           BPix_BpO_SEC4_LYR3_LDR9F_MOD3_ROC2
par0vd: -14.100000
par1vd: 66.100000
par0va: -6.730000
par1va: 65.200000
par0rbia: 9.530000
par1rbia: 1.060000
par0tbia: 4.000000
par1tbia: 0.247000
par2tbia: -0.000194
par0ia: -3.316000
par1ia: 3.631000
par2ia: 0.028500
ROC:           BPix_BpO_SEC4_LYR3_LDR9F_MOD3_ROC3
par0vd: -12.800000
par1vd: 61.400000
par0va: -7.530000
par1va: 61.000000
par0rbia: 12.600000
par1rbia: 1.090000
par0tbia: 4.310000
par1tbia: 0.259000
par2tbia: -0.000199
par0ia: -5.242000
par1ia: 3.970000
par2ia: 0.018710
ROC:           BPix_BpO_SEC4_LYR3_LDR9F_MOD3_ROC4
par0vd: -5.320000
par1vd: 65.000000
par0va: -3.840000
par1va: 65.800000
par0rbia: 11.700000
par1rbia: 1.060000
par0tbia: 4.010000
par1tbia: 0.245000
par2tbia: -0.000212
par0ia: -1.142000
par1ia: 3.608000
par2ia: 0.032940
ROC:           BPix_BpO_SEC4_LYR3_LDR9F_MOD3_ROC5
par0vd: -9.620000
par1vd: 64.400000
par0va: -5.840000
par1va: 64.400000
par0rbia: 11.600000
par1rbia: 1.060000
par0tbia: 4.150000
par1tbia: 0.248000
par2tbia: -0.000194
par0ia: -2.043000
par1ia: 3.644000
par2ia: 0.027610
ROC:           BPix_BpO_SEC4_LYR3_LDR9F_MOD3_ROC6
par0vd: -15.200000
par1vd: 64.100000
par0va: -8.520000
par1va: 62.000000
par0rbia: 9.680000
par1rbia: 1.070000
par0tbia: 4.070000
par1tbia: 0.251000
par2tbia: -0.000189
par0ia: -4.236000
par1ia: 3.732000
par2ia: 0.025130
ROC:           BPix_BpO_SEC4_LYR3_LDR9F_MOD3_ROC7
par0vd: -14.300000
par1vd: 65.400000
par0va: -7.170000
par1va: 63.700000
par0rbia: 11.800000
par1rbia: 1.080000
par0tbia: 4.040000
par1tbia: 0.289000
par2tbia: -0.000278
par0ia: 0.585400
par1ia: 3.108000
par2ia: 0.027120
ROC:           BPix_BpO_SEC4_LYR3_LDR9F_MOD3_ROC8
par0vd: -12.300000
par1vd: 61.900000
par0va: -8.660000
par1va: 61.200000
par0rbia: 12.800000
par1rbia: 1.090000
par0tbia: 3.920000
par1tbia: 0.249000
par2tbia: -0.000208
par0ia: -4.272000
par1ia: 4.138000
par2ia: 0.023350
ROC:           BPix_BpO_SEC4_LYR3_LDR9F_MOD3_ROC9
par0vd: -17.200000
par1vd: 65.500000
par0va: -12.600000
par1va: 65.200000
par0rbia: 10.900000
par1rbia: 1.090000
par0tbia: 4.160000
par1tbia: 0.258000
par2tbia: -0.000223
par0ia: -4.457000
par1ia: 3.764000
par2ia: 0.026210
ROC:           BPix_BpO_SEC4_LYR3_LDR9F_MOD3_ROC10
par0vd: -6.250000
par1vd: 61.000000
par0va: -7.520000
par1va: 62.600000
par0rbia: 9.420000
par1rbia: 1.090000
par0tbia: 3.990000
par1tbia: 0.264000
par2tbia: -0.000223
par0ia: -3.275000
par1ia: 3.530000
par2ia: 0.027330
ROC:           BPix_BpO_SEC4_LYR3_LDR9F_MOD3_ROC11
par0vd: -6.850000
par1vd: 64.800000
par0va: -4.520000
par1va: 65.000000
par0rbia: 12.100000
par1rbia: 1.060000
par0tbia: 3.950000
par1tbia: 0.237000
par2tbia: -0.000178
par0ia: -2.392000
par1ia: 3.926000
par2ia: 0.026840
ROC:           BPix_BpO_SEC4_LYR3_LDR9F_MOD3_ROC12
par0vd: -4.610000
par1vd: 61.900000
par0va: -2.210000
par1va: 62.100000
par0rbia: 11.600000
par1rbia: 1.070000
par0tbia: 4.030000
par1tbia: 0.259000
par2tbia: -0.000204
par0ia: -1.136000
par1ia: 3.556000
par2ia: 0.025380
ROC:           BPix_BpO_SEC4_LYR3_LDR9F_MOD3_ROC13
par0vd: -5.540000
par1vd: 62.000000
par0va: -0.762000
par1va: 61.400000
par0rbia: 13.500000
par1rbia: 1.070000
par0tbia: 3.830000
par1tbia: 0.241000
par2tbia: -0.000202
par0ia: 0.101400
par1ia: 3.822000
par2ia: 0.031390
ROC:           BPix_BpO_SEC4_LYR3_LDR9F_MOD3_ROC14
par0vd: -9.860000
par1vd: 63.700000
par0va: -4.730000
par1va: 62.800000
par0rbia: 10.400000
par1rbia: 1.080000
par0tbia: 3.800000
par1tbia: 0.267000
par2tbia: -0.000252
par0ia: -0.181000
par1ia: 3.295000
par2ia: 0.032400
ROC:           BPix_BpO_SEC4_LYR3_LDR9F_MOD3_ROC15
par0vd: -14.300000
par1vd: 60.800000
par0va: -10.300000
par1va: 61.000000
par0rbia: 11.900000
par1rbia: 1.080000
par0tbia: 4.200000
par1tbia: 0.277000
par2tbia: -0.000244
par0ia: -1.018000
par1ia: 3.338000
par2ia: 0.025160
