ROC:           BPix_BmO_SEC4_LYR1_LDR3H_MOD2_ROC4
par0vd: 4.120000
par1vd: 64.400000
par0va: 13.900000
par1va: 60.900000
par0rbia: 12.500000
par1rbia: 1.040000
par0tbia: 4.750000
par1tbia: 0.257000
par2tbia: -0.000156
par0ia: -2.835000
par1ia: 3.558000
par2ia: 0.018840
ROC:           BPix_BmO_SEC4_LYR1_LDR3H_MOD2_ROC5
par0vd: 4.890000
par1vd: 63.000000
par0va: 11.000000
par1va: 61.500000
par0rbia: 13.700000
par1rbia: 1.080000
par0tbia: 4.300000
par1tbia: 0.283000
par2tbia: -0.000195
par0ia: -0.670600
par1ia: 3.482000
par2ia: 0.015900
ROC:           BPix_BmO_SEC4_LYR1_LDR3H_MOD2_ROC6
par0vd: -0.542000
par1vd: 69.700000
par0va: 7.130000
par1va: 67.900000
par0rbia: 12.400000
par1rbia: 1.090000
par0tbia: 4.570000
par1tbia: 0.313000
par2tbia: -0.000268
par0ia: -2.056000
par1ia: 3.165000
par2ia: 0.017210
ROC:           BPix_BmO_SEC4_LYR1_LDR3H_MOD2_ROC7
par0vd: -3.820000
par1vd: 65.500000
par0va: 6.050000
par1va: 62.600000
par0rbia: 9.320000
par1rbia: 1.060000
par0tbia: 4.400000
par1tbia: 0.249000
par2tbia: -0.000147
par0ia: -4.408000
par1ia: 3.657000
par2ia: 0.021800
ROC:           BPix_BmO_SEC4_LYR1_LDR3H_MOD2_ROC8
par0vd: -1.100000
par1vd: 67.300000
par0va: 8.040000
par1va: 65.100000
par0rbia: 15.600000
par1rbia: 1.100000
par0tbia: 4.120000
par1tbia: 0.310000
par2tbia: -0.000273
par0ia: -0.628700
par1ia: 3.474000
par2ia: 0.014460
ROC:           BPix_BmO_SEC4_LYR1_LDR3H_MOD2_ROC9
par0vd: 2.150000
par1vd: 65.500000
par0va: 7.420000
par1va: 64.800000
par0rbia: 13.500000
par1rbia: 1.090000
par0tbia: 4.560000
par1tbia: 0.306000
par2tbia: -0.000249
par0ia: -2.000000
par1ia: 3.315000
par2ia: 0.015550
ROC:           BPix_BmO_SEC4_LYR1_LDR3H_MOD2_ROC10
par0vd: -2.640000
par1vd: 68.100000
par0va: 8.230000
par1va: 64.400000
par0rbia: 11.700000
par1rbia: 1.090000
par0tbia: 4.940000
par1tbia: 0.284000
par2tbia: -0.000191
par0ia: -5.451000
par1ia: 3.540000
par2ia: 0.015340
ROC:           BPix_BmO_SEC4_LYR1_LDR3H_MOD2_ROC11
par0vd: 1.750000
par1vd: 65.900000
par0va: 5.000000
par1va: 66.600000
par0rbia: 11.900000
par1rbia: 1.080000
par0tbia: 4.410000
par1tbia: 0.294000
par2tbia: -0.000254
par0ia: -1.144000
par1ia: 3.186000
par2ia: 0.021780
