ROC:           BPix_BpI_SEC7_LYR2_LDR12F_MOD2_ROC0
par0vd: -7.650000
par1vd: 63.500000
par0va: 3.790000
par1va: 60.200000
par0rbia: 14.600000
par1rbia: 1.080000
par0tbia: 4.250000
par1tbia: 0.248000
par2tbia: -0.000167
par0ia: -4.215000
par1ia: 4.221000
par2ia: 0.016560
ROC:           BPix_BpI_SEC7_LYR2_LDR12F_MOD2_ROC1
par0vd: -0.438000
par1vd: 64.200000
par0va: -1.560000
par1va: 67.400000
par0rbia: 11.200000
par1rbia: 1.080000
par0tbia: 4.150000
par1tbia: 0.264000
par2tbia: -0.000225
par0ia: -1.362000
par1ia: 3.424000
par2ia: 0.028150
ROC:           BPix_BpI_SEC7_LYR2_LDR12F_MOD2_ROC2
par0vd: -10.900000
par1vd: 62.200000
par0va: 2.930000
par1va: 57.900000
par0rbia: 13.300000
par1rbia: 1.090000
par0tbia: 2.200000
par1tbia: 0.272000
par2tbia: -0.000268
par0ia: 6.152000
par1ia: 3.558000
par2ia: 0.029510
ROC:           BPix_BpI_SEC7_LYR2_LDR12F_MOD2_ROC3
par0vd: -8.950000
par1vd: 63.500000
par0va: 3.070000
par1va: 60.200000
par0rbia: 11.400000
par1rbia: 1.030000
par0tbia: 2.210000
par1tbia: 0.277000
par2tbia: -0.000316
par0ia: 8.911000
par1ia: 2.747000
par2ia: 0.042850
ROC:           BPix_BpI_SEC7_LYR2_LDR12F_MOD2_ROC4
par0vd: -4.270000
par1vd: 62.500000
par0va: 1.090000
par1va: 62.200000
par0rbia: 12.100000
par1rbia: 1.080000
par0tbia: 2.750000
par1tbia: 0.263000
par2tbia: -0.000258
par0ia: 3.900000
par1ia: 3.489000
par2ia: 0.033480
ROC:           BPix_BpI_SEC7_LYR2_LDR12F_MOD2_ROC5
par0vd: 2.150000
par1vd: 63.300000
par0va: 5.850000
par1va: 62.800000
par0rbia: 21.200000
par1rbia: 1.120000
par0tbia: 4.500000
par1tbia: 0.248000
par2tbia: -0.000172
par0ia: -11.630000
par1ia: 5.529000
par2ia: -0.002642
ROC:           BPix_BpI_SEC7_LYR2_LDR12F_MOD2_ROC6
par0vd: -12.700000
par1vd: 64.000000
par0va: 1.270000
par1va: 60.000000
par0rbia: 12.000000
par1rbia: 1.040000
par0tbia: 2.690000
par1tbia: 0.266000
par2tbia: -0.000273
par0ia: 6.304000
par1ia: 3.088000
par2ia: 0.036990
ROC:           BPix_BpI_SEC7_LYR2_LDR12F_MOD2_ROC7
par0vd: -7.130000
par1vd: 62.800000
par0va: 0.004290
par1va: 61.500000
par0rbia: 13.200000
par1rbia: 1.080000
par0tbia: 3.890000
par1tbia: 0.286000
par2tbia: -0.000265
par0ia: 1.837000
par1ia: 3.216000
par2ia: 0.025480
ROC:           BPix_BpI_SEC7_LYR2_LDR12F_MOD2_ROC8
par0vd: -2.100000
par1vd: 60.300000
par0va: 2.900000
par1va: 59.900000
par0rbia: 13.200000
par1rbia: 1.040000
par0tbia: 4.480000
par1tbia: 0.214000
par2tbia: -0.000105
par0ia: -4.783000
par1ia: 4.335000
par2ia: 0.020930
ROC:           BPix_BpI_SEC7_LYR2_LDR12F_MOD2_ROC9
par0vd: -6.960000
par1vd: 66.900000
par0va: -3.160000
par1va: 68.100000
par0rbia: 13.600000
par1rbia: 1.090000
par0tbia: 2.370000
par1tbia: 0.290000
par2tbia: -0.000321
par0ia: 6.650000
par1ia: 3.231000
par2ia: 0.031720
ROC:           BPix_BpI_SEC7_LYR2_LDR12F_MOD2_ROC10
par0vd: -2.340000
par1vd: 62.200000
par0va: -3.810000
par1va: 65.500000
par0rbia: 16.900000
par1rbia: 1.100000
par0tbia: 4.060000
par1tbia: 0.269000
par2tbia: -0.000216
par0ia: -3.509000
par1ia: 4.253000
par2ia: 0.012770
ROC:           BPix_BpI_SEC7_LYR2_LDR12F_MOD2_ROC11
par0vd: -13.900000
par1vd: 68.700000
par0va: -1.250000
par1va: 66.300000
par0rbia: 13.700000
par1rbia: 1.050000
par0tbia: 2.600000
par1tbia: 0.275000
par2tbia: -0.000292
par0ia: 7.435000
par1ia: 3.130000
par2ia: 0.034870
ROC:           BPix_BpI_SEC7_LYR2_LDR12F_MOD2_ROC12
par0vd: -12.300000
par1vd: 66.600000
par0va: -2.580000
par1va: 65.400000
par0rbia: 14.400000
par1rbia: 1.090000
par0tbia: 2.900000
par1tbia: 0.278000
par2tbia: -0.000282
par0ia: 3.369000
par1ia: 3.600000
par2ia: 0.026670
ROC:           BPix_BpI_SEC7_LYR2_LDR12F_MOD2_ROC13
par0vd: -8.680000
par1vd: 68.900000
par0va: -1.080000
par1va: 68.700000
par0rbia: 14.200000
par1rbia: 1.090000
par0tbia: 2.100000
par1tbia: 0.298000
par2tbia: -0.000336
par0ia: 8.414000
par1ia: 3.147000
par2ia: 0.031440
ROC:           BPix_BpI_SEC7_LYR2_LDR12F_MOD2_ROC14
par0vd: -4.450000
par1vd: 68.600000
par0va: -1.590000
par1va: 70.700000
par0rbia: 17.200000
par1rbia: 1.100000
par0tbia: 4.120000
par1tbia: 0.255000
par2tbia: -0.000211
par0ia: -3.922000
par1ia: 4.397000
par2ia: 0.015870
ROC:           BPix_BpI_SEC7_LYR2_LDR12F_MOD2_ROC15
par0vd: -2.520000
par1vd: 64.100000
par0va: -2.320000
par1va: 67.900000
par0rbia: 16.900000
par1rbia: 1.090000
par0tbia: 2.700000
par1tbia: 0.307000
par2tbia: -0.000356
par0ia: 7.768000
par1ia: 3.156000
par2ia: 0.027930
