BPix_BpI_SEC8_LYR1_LDR6H_MOD2_ROC4
TBMABase0: 0
TBMBBase0: 0
TBMAAutoReset: 0
TBMBAutoReset: 0
TBMANoTokenPass: 1
TBMBNoTokenPass: 1
TBMADisablePKAMCounter: 1
TBMBDisablePKAMCounter: 1
TBMAPKAMCount: 5
TBMBPKAMCount: 5
TBMPLLDelay: 8
TBMADelay: 237
TBMBDelay: 237
