BPix_BpO_SEC8_LYR2_LDR14F_MOD4_ROC0
TBMABase0: 0
TBMBBase0: 0
TBMAAutoReset: 0
TBMBAutoReset: 0
TBMANoTokenPass: 0
TBMBNoTokenPass: 0
TBMADisablePKAMCounter: 0
TBMBDisablePKAMCounter: 0
TBMAPKAMCount: 10
TBMBPKAMCount: 10
TBMPLLDelay: 60
TBMADelay: 237
TBMBDelay: 237
