BPix_BmO_SEC7_LYR2_LDR12F_MOD3_ROC0
TBMABase0: 0
TBMBBase0: 0
TBMAAutoReset: 0
TBMAAutoResetCount: 5
TBMBAutoReset: 0
TBMBAutoResetCount: 5
TBMANoTokenPass: 0
TBMBNoTokenPass: 0
TBMADisablePKAMCounter: 0
TBMBDisablePKAMCounter: 0
TBMAPKAMCount: 10
TBMBPKAMCount: 10
TBMPLLDelay: 60
TBMADelay: 237
TBMBDelay: 237
