ROC:           BPix_BmO_SEC2_LYR1_LDR1F_MOD1_ROC0
Vdd:           6
Vana:          82
Vsh:           8
Vcomp:         12
VwllPr:        150
VwllSh:        150
VHldDel:       250
Vtrim:         93
VcThr:         75
VIbias_bus:    250
PHOffset:      160
Vcomp_ADC:     50
PHScale:       90
VIColOr:       100
Vcal:          200
CalDel:        183
TempRange:     0
WBC:           164
ChipContReg:   16
Readback:      1
ROC:           BPix_BmO_SEC2_LYR1_LDR1F_MOD1_ROC1
Vdd:           6
Vana:          84
Vsh:           8
Vcomp:         12
VwllPr:        150
VwllSh:        150
VHldDel:       250
Vtrim:         87
VcThr:         73
VIbias_bus:    250
PHOffset:      160
Vcomp_ADC:     50
PHScale:       90
VIColOr:       100
Vcal:          200
CalDel:        190
TempRange:     0
WBC:           164
ChipContReg:   16
Readback:      1
ROC:           BPix_BmO_SEC2_LYR1_LDR1F_MOD1_ROC2
Vdd:           6
Vana:          81
Vsh:           8
Vcomp:         12
VwllPr:        150
VwllSh:        150
VHldDel:       250
Vtrim:         111
VcThr:         73
VIbias_bus:    250
PHOffset:      160
Vcomp_ADC:     50
PHScale:       90
VIColOr:       100
Vcal:          200
CalDel:        192
TempRange:     0
WBC:           164
ChipContReg:   16
Readback:      1
ROC:           BPix_BmO_SEC2_LYR1_LDR1F_MOD1_ROC3
Vdd:           6
Vana:          78
Vsh:           8
Vcomp:         12
VwllPr:        150
VwllSh:        150
VHldDel:       250
Vtrim:         116
VcThr:         82
VIbias_bus:    250
PHOffset:      160
Vcomp_ADC:     50
PHScale:       90
VIColOr:       100
Vcal:          200
CalDel:        183
TempRange:     0
WBC:           164
ChipContReg:   16
Readback:      1
ROC:           BPix_BmO_SEC2_LYR1_LDR1F_MOD1_ROC12
Vdd:           6
Vana:          83
Vsh:           8
Vcomp:         12
VwllPr:        150
VwllSh:        150
VHldDel:       250
Vtrim:         98
VcThr:         82
VIbias_bus:    250
PHOffset:      160
Vcomp_ADC:     50
PHScale:       90
VIColOr:       100
Vcal:          200
CalDel:        197
TempRange:     0
WBC:           164
ChipContReg:   16
Readback:      1
ROC:           BPix_BmO_SEC2_LYR1_LDR1F_MOD1_ROC13
Vdd:           6
Vana:          75
Vsh:           8
Vcomp:         12
VwllPr:        150
VwllSh:        150
VHldDel:       250
Vtrim:         90
VcThr:         86
VIbias_bus:    250
PHOffset:      160
Vcomp_ADC:     50
PHScale:       90
VIColOr:       100
Vcal:          200
CalDel:        200
TempRange:     0
WBC:           164
ChipContReg:   16
Readback:      1
ROC:           BPix_BmO_SEC2_LYR1_LDR1F_MOD1_ROC14
Vdd:           6
Vana:          74
Vsh:           8
Vcomp:         12
VwllPr:        150
VwllSh:        150
VHldDel:       250
Vtrim:         97
VcThr:         84
VIbias_bus:    250
PHOffset:      160
Vcomp_ADC:     50
PHScale:       90
VIColOr:       100
Vcal:          200
CalDel:        191
TempRange:     0
WBC:           164
ChipContReg:   16
Readback:      1
ROC:           BPix_BmO_SEC2_LYR1_LDR1F_MOD1_ROC15
Vdd:           6
Vana:          89
Vsh:           8
Vcomp:         12
VwllPr:        150
VwllSh:        150
VHldDel:       250
Vtrim:         103
VcThr:         76
VIbias_bus:    250
PHOffset:      160
Vcomp_ADC:     50
PHScale:       90
VIColOr:       100
Vcal:          200
CalDel:        201
TempRange:     0
WBC:           164
ChipContReg:   16
Readback:      1
