ROC:           BPix_BpO_SEC1_LYR4_LDR4F_MOD1_ROC0
Vdd:           6
Vana:          84
Vsh:           30
Vcomp:         12
VwllPr:        150
VwllSh:        150
VHldDel:       250
Vtrim:         133
VcThr:         90
VIbias_bus:    30
PHOffset:      189
Vcomp_ADC:     50
PHScale:       58
VIColOr:       100
Vcal:          200
CalDel:        145
TempRange:     0
WBC:           98
ChipContReg:   0
Readback:      1
ROC:           BPix_BpO_SEC1_LYR4_LDR4F_MOD1_ROC1
Vdd:           6
Vana:          82
Vsh:           30
Vcomp:         12
VwllPr:        150
VwllSh:        150
VHldDel:       250
Vtrim:         118
VcThr:         100
VIbias_bus:    30
PHOffset:      187
Vcomp_ADC:     50
PHScale:       60
VIColOr:       100
Vcal:          200
CalDel:        126
TempRange:     0
WBC:           98
ChipContReg:   0
Readback:      1
ROC:           BPix_BpO_SEC1_LYR4_LDR4F_MOD1_ROC2
Vdd:           6
Vana:          89
Vsh:           30
Vcomp:         12
VwllPr:        150
VwllSh:        150
VHldDel:       250
Vtrim:         103
VcThr:         89
VIbias_bus:    30
PHOffset:      177
Vcomp_ADC:     50
PHScale:       60
VIColOr:       100
Vcal:          200
CalDel:        145
TempRange:     0
WBC:           98
ChipContReg:   0
Readback:      1
ROC:           BPix_BpO_SEC1_LYR4_LDR4F_MOD1_ROC3
Vdd:           6
Vana:          90
Vsh:           30
Vcomp:         12
VwllPr:        150
VwllSh:        150
VHldDel:       250
Vtrim:         107
VcThr:         98
VIbias_bus:    30
PHOffset:      192
Vcomp_ADC:     50
PHScale:       65
VIColOr:       100
Vcal:          200
CalDel:        138
TempRange:     0
WBC:           98
ChipContReg:   0
Readback:      1
ROC:           BPix_BpO_SEC1_LYR4_LDR4F_MOD1_ROC4
Vdd:           6
Vana:          77
Vsh:           30
Vcomp:         12
VwllPr:        150
VwllSh:        150
VHldDel:       250
Vtrim:         94
VcThr:         98
VIbias_bus:    30
PHOffset:      188
Vcomp_ADC:     50
PHScale:       67
VIColOr:       100
Vcal:          200
CalDel:        143
TempRange:     0
WBC:           98
ChipContReg:   0
Readback:      1
ROC:           BPix_BpO_SEC1_LYR4_LDR4F_MOD1_ROC5
Vdd:           6
Vana:          87
Vsh:           30
Vcomp:         12
VwllPr:        150
VwllSh:        150
VHldDel:       250
Vtrim:         94
VcThr:         93
VIbias_bus:    30
PHOffset:      171
Vcomp_ADC:     50
PHScale:       74
VIColOr:       100
Vcal:          200
CalDel:        131
TempRange:     0
WBC:           98
ChipContReg:   0
Readback:      1
ROC:           BPix_BpO_SEC1_LYR4_LDR4F_MOD1_ROC6
Vdd:           6
Vana:          81
Vsh:           30
Vcomp:         12
VwllPr:        150
VwllSh:        150
VHldDel:       250
Vtrim:         100
VcThr:         97
VIbias_bus:    30
PHOffset:      178
Vcomp_ADC:     50
PHScale:       69
VIColOr:       100
Vcal:          200
CalDel:        142
TempRange:     0
WBC:           98
ChipContReg:   0
Readback:      1
ROC:           BPix_BpO_SEC1_LYR4_LDR4F_MOD1_ROC7
Vdd:           6
Vana:          89
Vsh:           30
Vcomp:         12
VwllPr:        150
VwllSh:        150
VHldDel:       250
Vtrim:         95
VcThr:         94
VIbias_bus:    30
PHOffset:      182
Vcomp_ADC:     50
PHScale:       68
VIColOr:       100
Vcal:          200
CalDel:        133
TempRange:     0
WBC:           98
ChipContReg:   0
Readback:      1
ROC:           BPix_BpO_SEC1_LYR4_LDR4F_MOD1_ROC8
Vdd:           6
Vana:          81
Vsh:           30
Vcomp:         12
VwllPr:        150
VwllSh:        150
VHldDel:       250
Vtrim:         124
VcThr:         103
VIbias_bus:    30
PHOffset:      188
Vcomp_ADC:     50
PHScale:       72
VIColOr:       100
Vcal:          200
CalDel:        116
TempRange:     0
WBC:           98
ChipContReg:   0
Readback:      1
ROC:           BPix_BpO_SEC1_LYR4_LDR4F_MOD1_ROC9
Vdd:           6
Vana:          67
Vsh:           30
Vcomp:         12
VwllPr:        150
VwllSh:        150
VHldDel:       250
Vtrim:         100
VcThr:         103
VIbias_bus:    30
PHOffset:      176
Vcomp_ADC:     50
PHScale:       69
VIColOr:       100
Vcal:          200
CalDel:        138
TempRange:     0
WBC:           98
ChipContReg:   0
Readback:      1
ROC:           BPix_BpO_SEC1_LYR4_LDR4F_MOD1_ROC10
Vdd:           6
Vana:          84
Vsh:           30
Vcomp:         12
VwllPr:        150
VwllSh:        150
VHldDel:       250
Vtrim:         120
VcThr:         101
VIbias_bus:    30
PHOffset:      193
Vcomp_ADC:     50
PHScale:       61
VIColOr:       100
Vcal:          200
CalDel:        129
TempRange:     0
WBC:           98
ChipContReg:   0
Readback:      1
ROC:           BPix_BpO_SEC1_LYR4_LDR4F_MOD1_ROC11
Vdd:           6
Vana:          81
Vsh:           30
Vcomp:         12
VwllPr:        150
VwllSh:        150
VHldDel:       250
Vtrim:         111
VcThr:         97
VIbias_bus:    30
PHOffset:      202
Vcomp_ADC:     50
PHScale:       65
VIColOr:       100
Vcal:          200
CalDel:        124
TempRange:     0
WBC:           98
ChipContReg:   0
Readback:      1
ROC:           BPix_BpO_SEC1_LYR4_LDR4F_MOD1_ROC12
Vdd:           6
Vana:          84
Vsh:           30
Vcomp:         12
VwllPr:        150
VwllSh:        150
VHldDel:       250
Vtrim:         100
VcThr:         98
VIbias_bus:    30
PHOffset:      182
Vcomp_ADC:     50
PHScale:       73
VIColOr:       100
Vcal:          200
CalDel:        120
TempRange:     0
WBC:           98
ChipContReg:   0
Readback:      1
ROC:           BPix_BpO_SEC1_LYR4_LDR4F_MOD1_ROC13
Vdd:           6
Vana:          79
Vsh:           30
Vcomp:         12
VwllPr:        150
VwllSh:        150
VHldDel:       250
Vtrim:         93
VcThr:         102
VIbias_bus:    30
PHOffset:      202
Vcomp_ADC:     50
PHScale:       66
VIColOr:       100
Vcal:          200
CalDel:        132
TempRange:     0
WBC:           98
ChipContReg:   0
Readback:      1
ROC:           BPix_BpO_SEC1_LYR4_LDR4F_MOD1_ROC14
Vdd:           6
Vana:          79
Vsh:           30
Vcomp:         12
VwllPr:        150
VwllSh:        150
VHldDel:       250
Vtrim:         93
VcThr:         100
VIbias_bus:    30
PHOffset:      174
Vcomp_ADC:     50
PHScale:       71
VIColOr:       100
Vcal:          200
CalDel:        137
TempRange:     0
WBC:           98
ChipContReg:   0
Readback:      1
ROC:           BPix_BpO_SEC1_LYR4_LDR4F_MOD1_ROC15
Vdd:           6
Vana:          84
Vsh:           30
Vcomp:         12
VwllPr:        150
VwllSh:        150
VHldDel:       250
Vtrim:         103
VcThr:         94
VIbias_bus:    30
PHOffset:      166
Vcomp_ADC:     50
PHScale:       70
VIColOr:       100
Vcal:          200
CalDel:        139
TempRange:     0
WBC:           98
ChipContReg:   0
Readback:      1
