ROC:           BPix_BmO_SEC8_LYR4_LDR29F_MOD3_ROC0
Vdd:           6
Vana:          80
Vsh:           30
Vcomp:         12
VwllPr:        150
VwllSh:        150
VHldDel:       250
Vtrim:         95
VcThr:         86
VIbias_bus:    30
PHOffset:      161
Vcomp_ADC:     50
PHScale:       77
VIColOr:       100
Vcal:          200
CalDel:        118
TempRange:     0
WBC:           98
ChipContReg:   0
Readback:      1
ROC:           BPix_BmO_SEC8_LYR4_LDR29F_MOD3_ROC1
Vdd:           6
Vana:          78
Vsh:           30
Vcomp:         12
VwllPr:        150
VwllSh:        150
VHldDel:       250
Vtrim:         93
VcThr:         95
VIbias_bus:    30
PHOffset:      173
Vcomp_ADC:     50
PHScale:       67
VIColOr:       100
Vcal:          200
CalDel:        124
TempRange:     0
WBC:           98
ChipContReg:   0
Readback:      1
ROC:           BPix_BmO_SEC8_LYR4_LDR29F_MOD3_ROC2
Vdd:           6
Vana:          78
Vsh:           30
Vcomp:         12
VwllPr:        150
VwllSh:        150
VHldDel:       250
Vtrim:         89
VcThr:         89
VIbias_bus:    30
PHOffset:      174
Vcomp_ADC:     50
PHScale:       70
VIColOr:       100
Vcal:          200
CalDel:        137
TempRange:     0
WBC:           98
ChipContReg:   0
Readback:      1
ROC:           BPix_BmO_SEC8_LYR4_LDR29F_MOD3_ROC3
Vdd:           6
Vana:          78
Vsh:           30
Vcomp:         12
VwllPr:        150
VwllSh:        150
VHldDel:       250
Vtrim:         90
VcThr:         99
VIbias_bus:    30
PHOffset:      165
Vcomp_ADC:     50
PHScale:       78
VIColOr:       100
Vcal:          200
CalDel:        103
TempRange:     0
WBC:           98
ChipContReg:   0
Readback:      1
ROC:           BPix_BmO_SEC8_LYR4_LDR29F_MOD3_ROC4
Vdd:           6
Vana:          80
Vsh:           30
Vcomp:         12
VwllPr:        150
VwllSh:        150
VHldDel:       250
Vtrim:         100
VcThr:         100
VIbias_bus:    30
PHOffset:      166
Vcomp_ADC:     50
PHScale:       79
VIColOr:       100
Vcal:          200
CalDel:        108
TempRange:     0
WBC:           98
ChipContReg:   0
Readback:      1
ROC:           BPix_BmO_SEC8_LYR4_LDR29F_MOD3_ROC5
Vdd:           6
Vana:          78
Vsh:           30
Vcomp:         12
VwllPr:        150
VwllSh:        150
VHldDel:       250
Vtrim:         83
VcThr:         100
VIbias_bus:    30
PHOffset:      158
Vcomp_ADC:     50
PHScale:       79
VIColOr:       100
Vcal:          200
CalDel:        123
TempRange:     0
WBC:           98
ChipContReg:   0
Readback:      1
ROC:           BPix_BmO_SEC8_LYR4_LDR29F_MOD3_ROC6
Vdd:           6
Vana:          75
Vsh:           30
Vcomp:         12
VwllPr:        150
VwllSh:        150
VHldDel:       250
Vtrim:         101
VcThr:         100
VIbias_bus:    30
PHOffset:      167
Vcomp_ADC:     50
PHScale:       69
VIColOr:       100
Vcal:          200
CalDel:        112
TempRange:     0
WBC:           98
ChipContReg:   0
Readback:      1
ROC:           BPix_BmO_SEC8_LYR4_LDR29F_MOD3_ROC7
Vdd:           6
Vana:          83
Vsh:           30
Vcomp:         12
VwllPr:        150
VwllSh:        150
VHldDel:       250
Vtrim:         91
VcThr:         86
VIbias_bus:    30
PHOffset:      160
Vcomp_ADC:     50
PHScale:       77
VIColOr:       100
Vcal:          200
CalDel:        131
TempRange:     0
WBC:           98
ChipContReg:   0
Readback:      1
ROC:           BPix_BmO_SEC8_LYR4_LDR29F_MOD3_ROC8
Vdd:           6
Vana:          80
Vsh:           30
Vcomp:         12
VwllPr:        150
VwllSh:        150
VHldDel:       250
Vtrim:         83
VcThr:         91
VIbias_bus:    30
PHOffset:      173
Vcomp_ADC:     50
PHScale:       79
VIColOr:       100
Vcal:          200
CalDel:        114
TempRange:     0
WBC:           98
ChipContReg:   0
Readback:      1
ROC:           BPix_BmO_SEC8_LYR4_LDR29F_MOD3_ROC9
Vdd:           6
Vana:          85
Vsh:           30
Vcomp:         12
VwllPr:        150
VwllSh:        150
VHldDel:       250
Vtrim:         94
VcThr:         84
VIbias_bus:    30
PHOffset:      178
Vcomp_ADC:     50
PHScale:       74
VIColOr:       100
Vcal:          200
CalDel:        128
TempRange:     0
WBC:           98
ChipContReg:   0
Readback:      1
ROC:           BPix_BmO_SEC8_LYR4_LDR29F_MOD3_ROC10
Vdd:           6
Vana:          78
Vsh:           30
Vcomp:         12
VwllPr:        150
VwllSh:        150
VHldDel:       250
Vtrim:         96
VcThr:         90
VIbias_bus:    30
PHOffset:      188
Vcomp_ADC:     50
PHScale:       74
VIColOr:       100
Vcal:          200
CalDel:        130
TempRange:     0
WBC:           98
ChipContReg:   0
Readback:      1
ROC:           BPix_BmO_SEC8_LYR4_LDR29F_MOD3_ROC11
Vdd:           6
Vana:          75
Vsh:           30
Vcomp:         12
VwllPr:        150
VwllSh:        150
VHldDel:       250
Vtrim:         99
VcThr:         97
VIbias_bus:    30
PHOffset:      173
Vcomp_ADC:     50
PHScale:       79
VIColOr:       100
Vcal:          200
CalDel:        137
TempRange:     0
WBC:           98
ChipContReg:   0
Readback:      1
ROC:           BPix_BmO_SEC8_LYR4_LDR29F_MOD3_ROC12
Vdd:           6
Vana:          80
Vsh:           30
Vcomp:         12
VwllPr:        150
VwllSh:        150
VHldDel:       250
Vtrim:         85
VcThr:         87
VIbias_bus:    30
PHOffset:      171
Vcomp_ADC:     50
PHScale:       78
VIColOr:       100
Vcal:          200
CalDel:        137
TempRange:     0
WBC:           98
ChipContReg:   0
Readback:      1
ROC:           BPix_BmO_SEC8_LYR4_LDR29F_MOD3_ROC13
Vdd:           6
Vana:          80
Vsh:           30
Vcomp:         12
VwllPr:        150
VwllSh:        150
VHldDel:       250
Vtrim:         100
VcThr:         94
VIbias_bus:    30
PHOffset:      182
Vcomp_ADC:     50
PHScale:       74
VIColOr:       100
Vcal:          200
CalDel:        119
TempRange:     0
WBC:           98
ChipContReg:   0
Readback:      1
ROC:           BPix_BmO_SEC8_LYR4_LDR29F_MOD3_ROC14
Vdd:           6
Vana:          78
Vsh:           30
Vcomp:         12
VwllPr:        150
VwllSh:        150
VHldDel:       250
Vtrim:         112
VcThr:         81
VIbias_bus:    30
PHOffset:      177
Vcomp_ADC:     50
PHScale:       77
VIColOr:       100
Vcal:          200
CalDel:        131
TempRange:     0
WBC:           98
ChipContReg:   0
Readback:      1
ROC:           BPix_BmO_SEC8_LYR4_LDR29F_MOD3_ROC15
Vdd:           6
Vana:          72
Vsh:           30
Vcomp:         12
VwllPr:        150
VwllSh:        150
VHldDel:       250
Vtrim:         104
VcThr:         98
VIbias_bus:    30
PHOffset:      173
Vcomp_ADC:     50
PHScale:       69
VIColOr:       100
Vcal:          200
CalDel:        113
TempRange:     0
WBC:           98
ChipContReg:   0
Readback:      1
