ROC:           BPix_BmO_SEC2_LYR1_LDR2F_MOD4_ROC0
Vdd:           6
Vana:          92
Vsh:           30
Vcomp:         12
VwllPr:        150
VwllSh:        150
VHldDel:       250
Vtrim:         121
VcThr:         120
VIbias_bus:    30
PHOffset:      114
Vcomp_ADC:     50
PHScale:       49
VIColOr:       100
Vcal:          200
CalDel: 154
TempRange:     0
WBC:           98
ChipContReg:   0
Readback:      1
ROC:           BPix_BmO_SEC2_LYR1_LDR2F_MOD4_ROC1
Vdd:           6
Vana:          77
Vsh:           30
Vcomp:         12
VwllPr:        150
VwllSh:        150
VHldDel:       250
Vtrim:         131
VcThr:         133
VIbias_bus:    30
PHOffset:      97
Vcomp_ADC:     50
PHScale:       47
VIColOr:       100
Vcal:          200
CalDel: 140
TempRange:     0
WBC:           98
ChipContReg:   0
Readback:      1
ROC:           BPix_BmO_SEC2_LYR1_LDR2F_MOD4_ROC2
Vdd:           6
Vana:          74
Vsh:           30
Vcomp:         12
VwllPr:        150
VwllSh:        150
VHldDel:       250
Vtrim:         151
VcThr:         126
VIbias_bus:    30
PHOffset:      87
Vcomp_ADC:     50
PHScale:       44
VIColOr:       100
Vcal:          200
CalDel: 139
TempRange:     0
WBC:           98
ChipContReg:   0
Readback:      1
ROC:           BPix_BmO_SEC2_LYR1_LDR2F_MOD4_ROC3
Vdd:           6
Vana:          75
Vsh:           30
Vcomp:         12
VwllPr:        150
VwllSh:        150
VHldDel:       250
Vtrim:         137
VcThr:         126
VIbias_bus:    30
PHOffset:      100
Vcomp_ADC:     50
PHScale:       34
VIColOr:       100
Vcal:          200
CalDel: 134
TempRange:     0
WBC:           98
ChipContReg:   0
Readback:      1
ROC:           BPix_BmO_SEC2_LYR1_LDR2F_MOD4_ROC12
Vdd:           6
Vana:          87
Vsh:           30
Vcomp:         12
VwllPr:        150
VwllSh:        150
VHldDel:       250
Vtrim:         143
VcThr:         117
VIbias_bus:    30
PHOffset:      97
Vcomp_ADC:     50
PHScale:       44
VIColOr:       100
Vcal:          200
CalDel: 154
TempRange:     0
WBC:           98
ChipContReg:   0
Readback:      1
ROC:           BPix_BmO_SEC2_LYR1_LDR2F_MOD4_ROC13
Vdd:           6
Vana:          75
Vsh:           30
Vcomp:         12
VwllPr:        150
VwllSh:        150
VHldDel:       250
Vtrim:         134
VcThr:         119
VIbias_bus:    30
PHOffset:      110
Vcomp_ADC:     50
PHScale:       40
VIColOr:       100
Vcal:          200
CalDel: 150
TempRange:     0
WBC:           98
ChipContReg:   0
Readback:      1
ROC:           BPix_BmO_SEC2_LYR1_LDR2F_MOD4_ROC14
Vdd:           6
Vana:          77
Vsh:           30
Vcomp:         12
VwllPr:        150
VwllSh:        150
VHldDel:       250
Vtrim:         123
VcThr:         126
VIbias_bus:    30
PHOffset:      100
Vcomp_ADC:     50
PHScale:       49
VIColOr:       100
Vcal:          200
CalDel: 155
TempRange:     0
WBC:           98
ChipContReg:   0
Readback:      1
ROC:           BPix_BmO_SEC2_LYR1_LDR2F_MOD4_ROC15
Vdd:           6
Vana:          75
Vsh:           30
Vcomp:         12
VwllPr:        150
VwllSh:        150
VHldDel:       250
Vtrim:         138
VcThr:         123
VIbias_bus:    30
PHOffset:      122
Vcomp_ADC:     50
PHScale:       47
VIColOr:       100
Vcal:          200
CalDel: 139
TempRange:     0
WBC:           98
ChipContReg:   0
Readback:      1
