ROC:           BPix_BmI_SEC2_LYR4_LDR8F_MOD3_ROC0
Vdd:           6
Vana:          97
Vsh:           30
Vcomp:         12
VwllPr:        150
VwllSh:        150
VHldDel:       250
Vtrim:         103
VcThr:         104
VIbias_bus:    30
PHOffset:      182
Vcomp_ADC:     50
PHScale:       74
VIColOr:       100
Vcal:          200
CalDel:        120
TempRange:     0
WBC:           98
ChipContReg:   0
Readback:      1
ROC:           BPix_BmI_SEC2_LYR4_LDR8F_MOD3_ROC1
Vdd:           6
Vana:          92
Vsh:           30
Vcomp:         12
VwllPr:        150
VwllSh:        150
VHldDel:       250
Vtrim:         128
VcThr:         111
VIbias_bus:    30
PHOffset:      192
Vcomp_ADC:     50
PHScale:       73
VIColOr:       100
Vcal:          200
CalDel:        117
TempRange:     0
WBC:           98
ChipContReg:   0
Readback:      1
ROC:           BPix_BmI_SEC2_LYR4_LDR8F_MOD3_ROC2
Vdd:           6
Vana:          96
Vsh:           30
Vcomp:         12
VwllPr:        150
VwllSh:        150
VHldDel:       250
Vtrim:         108
VcThr:         100
VIbias_bus:    30
PHOffset:      174
Vcomp_ADC:     50
PHScale:       82
VIColOr:       100
Vcal:          200
CalDel:        122
TempRange:     0
WBC:           98
ChipContReg:   0
Readback:      1
ROC:           BPix_BmI_SEC2_LYR4_LDR8F_MOD3_ROC3
Vdd:           6
Vana:          95
Vsh:           30
Vcomp:         12
VwllPr:        150
VwllSh:        150
VHldDel:       250
Vtrim:         94
VcThr:         98
VIbias_bus:    30
PHOffset:      176
Vcomp_ADC:     50
PHScale:       67
VIColOr:       100
Vcal:          200
CalDel:        128
TempRange:     0
WBC:           98
ChipContReg:   0
Readback:      1
ROC:           BPix_BmI_SEC2_LYR4_LDR8F_MOD3_ROC4
Vdd:           6
Vana:          89
Vsh:           30
Vcomp:         12
VwllPr:        150
VwllSh:        150
VHldDel:       250
Vtrim:         88
VcThr:         102
VIbias_bus:    30
PHOffset:      186
Vcomp_ADC:     50
PHScale:       76
VIColOr:       100
Vcal:          200
CalDel:        138
TempRange:     0
WBC:           98
ChipContReg:   0
Readback:      1
ROC:           BPix_BmI_SEC2_LYR4_LDR8F_MOD3_ROC5
Vdd:           6
Vana:          86
Vsh:           30
Vcomp:         12
VwllPr:        150
VwllSh:        150
VHldDel:       250
Vtrim:         132
VcThr:         110
VIbias_bus:    30
PHOffset:      187
Vcomp_ADC:     50
PHScale:       72
VIColOr:       100
Vcal:          200
CalDel:        129
TempRange:     0
WBC:           98
ChipContReg:   0
Readback:      1
ROC:           BPix_BmI_SEC2_LYR4_LDR8F_MOD3_ROC6
Vdd:           6
Vana:          86
Vsh:           30
Vcomp:         12
VwllPr:        150
VwllSh:        150
VHldDel:       250
Vtrim:         113
VcThr:         105
VIbias_bus:    30
PHOffset:      175
Vcomp_ADC:     50
PHScale:       74
VIColOr:       100
Vcal:          200
CalDel:        132
TempRange:     0
WBC:           98
ChipContReg:   0
Readback:      1
ROC:           BPix_BmI_SEC2_LYR4_LDR8F_MOD3_ROC7
Vdd:           6
Vana:          88
Vsh:           30
Vcomp:         12
VwllPr:        150
VwllSh:        150
VHldDel:       250
Vtrim:         134
VcThr:         110
VIbias_bus:    30
PHOffset:      177
Vcomp_ADC:     50
PHScale:       68
VIColOr:       100
Vcal:          200
CalDel:        147
TempRange:     0
WBC:           98
ChipContReg:   0
Readback:      1
ROC:           BPix_BmI_SEC2_LYR4_LDR8F_MOD3_ROC8
Vdd:           6
Vana:          104
Vsh:           30
Vcomp:         12
VwllPr:        150
VwllSh:        150
VHldDel:       250
Vtrim:         141
VcThr:         116
VIbias_bus:    30
PHOffset:      189
Vcomp_ADC:     50
PHScale:       58
VIColOr:       100
Vcal:          200
CalDel:        115
TempRange:     0
WBC:           98
ChipContReg:   0
Readback:      1
ROC:           BPix_BmI_SEC2_LYR4_LDR8F_MOD3_ROC9
Vdd:           6
Vana:          110
Vsh:           30
Vcomp:         12
VwllPr:        150
VwllSh:        150
VHldDel:       250
Vtrim:         127
VcThr:         111
VIbias_bus:    30
PHOffset:      188
Vcomp_ADC:     50
PHScale:       67
VIColOr:       100
Vcal:          200
CalDel:        113
TempRange:     0
WBC:           98
ChipContReg:   0
Readback:      1
ROC:           BPix_BmI_SEC2_LYR4_LDR8F_MOD3_ROC10
Vdd:           6
Vana:          88
Vsh:           30
Vcomp:         12
VwllPr:        150
VwllSh:        150
VHldDel:       250
Vtrim:         104
VcThr:         106
VIbias_bus:    30
PHOffset:      165
Vcomp_ADC:     50
PHScale:       69
VIColOr:       100
Vcal:          200
CalDel:        162
TempRange:     0
WBC:           98
ChipContReg:   0
Readback:      1
ROC:           BPix_BmI_SEC2_LYR4_LDR8F_MOD3_ROC11
Vdd:           6
Vana:          94
Vsh:           30
Vcomp:         12
VwllPr:        150
VwllSh:        150
VHldDel:       250
Vtrim:         119
VcThr:         104
VIbias_bus:    30
PHOffset:      173
Vcomp_ADC:     50
PHScale:       74
VIColOr:       100
Vcal:          200
CalDel:        137
TempRange:     0
WBC:           98
ChipContReg:   0
Readback:      1
ROC:           BPix_BmI_SEC2_LYR4_LDR8F_MOD3_ROC12
Vdd:           6
Vana:          84
Vsh:           30
Vcomp:         12
VwllPr:        150
VwllSh:        150
VHldDel:       250
Vtrim:         108
VcThr:         106
VIbias_bus:    30
PHOffset:      183
Vcomp_ADC:     50
PHScale:       80
VIColOr:       100
Vcal:          200
CalDel:        130
TempRange:     0
WBC:           98
ChipContReg:   0
Readback:      1
ROC:           BPix_BmI_SEC2_LYR4_LDR8F_MOD3_ROC13
Vdd:           6
Vana:          95
Vsh:           30
Vcomp:         12
VwllPr:        150
VwllSh:        150
VHldDel:       250
Vtrim:         129
VcThr:         106
VIbias_bus:    30
PHOffset:      191
Vcomp_ADC:     50
PHScale:       74
VIColOr:       100
Vcal:          200
CalDel:        139
TempRange:     0
WBC:           98
ChipContReg:   0
Readback:      1
ROC:           BPix_BmI_SEC2_LYR4_LDR8F_MOD3_ROC14
Vdd:           6
Vana:          99
Vsh:           30
Vcomp:         12
VwllPr:        150
VwllSh:        150
VHldDel:       250
Vtrim:         100
VcThr:         100
VIbias_bus:    30
PHOffset:      174
Vcomp_ADC:     50
PHScale:       78
VIColOr:       100
Vcal:          200
CalDel:        144
TempRange:     0
WBC:           98
ChipContReg:   0
Readback:      1
ROC:           BPix_BmI_SEC2_LYR4_LDR8F_MOD3_ROC15
Vdd:           6
Vana:          87
Vsh:           30
Vcomp:         12
VwllPr:        150
VwllSh:        150
VHldDel:       250
Vtrim:         102
VcThr:         102
VIbias_bus:    30
PHOffset:      167
Vcomp_ADC:     50
PHScale:       74
VIColOr:       100
Vcal:          200
CalDel:        141
TempRange:     0
WBC:           98
ChipContReg:   0
Readback:      1
