ROC:           BPix_BmO_SEC8_LYR3_LDR22F_MOD3_ROC0
Vdd:           6
Vana:          78
Vsh:           30
Vcomp:         12
VwllPr:        150
VwllSh:        150
VHldDel:       250
Vtrim:         82
VcThr:         89
VIbias_bus:    30
PHOffset:      170
Vcomp_ADC:     50
PHScale:       71
VIColOr:       100
Vcal:          255
CalDel:        138
TempRange:     0
WBC:           98
ChipContReg:   0
Readback:      1
ROC:           BPix_BmO_SEC8_LYR3_LDR22F_MOD3_ROC1
Vdd:           6
Vana:          81
Vsh:           30
Vcomp:         12
VwllPr:        150
VwllSh:        150
VHldDel:       250
Vtrim:         91
VcThr:         100
VIbias_bus:    30
PHOffset:      161
Vcomp_ADC:     50
PHScale:       69
VIColOr:       100
Vcal:          255
CalDel:        112
TempRange:     0
WBC:           98
ChipContReg:   0
Readback:      1
ROC:           BPix_BmO_SEC8_LYR3_LDR22F_MOD3_ROC2
Vdd:           6
Vana:          86
Vsh:           30
Vcomp:         12
VwllPr:        150
VwllSh:        150
VHldDel:       250
Vtrim:         93
VcThr:         101
VIbias_bus:    30
PHOffset:      176
Vcomp_ADC:     50
PHScale:       68
VIColOr:       100
Vcal:          255
CalDel:        143
TempRange:     0
WBC:           98
ChipContReg:   0
Readback:      1
ROC:           BPix_BmO_SEC8_LYR3_LDR22F_MOD3_ROC3
Vdd:           6
Vana:          77
Vsh:           30
Vcomp:         12
VwllPr:        150
VwllSh:        150
VHldDel:       250
Vtrim:         86
VcThr:         96
VIbias_bus:    30
PHOffset:      176
Vcomp_ADC:     50
PHScale:       56
VIColOr:       100
Vcal:          255
CalDel:        122
TempRange:     0
WBC:           98
ChipContReg:   0
Readback:      1
ROC:           BPix_BmO_SEC8_LYR3_LDR22F_MOD3_ROC4
Vdd:           6
Vana:          78
Vsh:           30
Vcomp:         12
VwllPr:        150
VwllSh:        150
VHldDel:       250
Vtrim:         106
VcThr:         102
VIbias_bus:    30
PHOffset:      173
Vcomp_ADC:     50
PHScale:       66
VIColOr:       100
Vcal:          255
CalDel:        142
TempRange:     0
WBC:           98
ChipContReg:   0
Readback:      1
ROC:           BPix_BmO_SEC8_LYR3_LDR22F_MOD3_ROC5
Vdd:           6
Vana:          92
Vsh:           30
Vcomp:         12
VwllPr:        150
VwllSh:        150
VHldDel:       250
Vtrim:         92
VcThr:         94
VIbias_bus:    30
PHOffset:      177
Vcomp_ADC:     50
PHScale:       67
VIColOr:       100
Vcal:          255
CalDel:        112
TempRange:     0
WBC:           98
ChipContReg:   0
Readback:      1
ROC:           BPix_BmO_SEC8_LYR3_LDR22F_MOD3_ROC6
Vdd:           6
Vana:          73
Vsh:           30
Vcomp:         12
VwllPr:        150
VwllSh:        150
VHldDel:       250
Vtrim:         105
VcThr:         100
VIbias_bus:    30
PHOffset:      175
Vcomp_ADC:     50
PHScale:       56
VIColOr:       100
Vcal:          255
CalDel:        167
TempRange:     0
WBC:           98
ChipContReg:   0
Readback:      1
ROC:           BPix_BmO_SEC8_LYR3_LDR22F_MOD3_ROC7
Vdd:           6
Vana:          80
Vsh:           30
Vcomp:         12
VwllPr:        150
VwllSh:        150
VHldDel:       250
Vtrim:         105
VcThr:         100
VIbias_bus:    30
PHOffset:      186
Vcomp_ADC:     50
PHScale:       63
VIColOr:       100
Vcal:          255
CalDel:        136
TempRange:     0
WBC:           98
ChipContReg:   0
Readback:      1
ROC:           BPix_BmO_SEC8_LYR3_LDR22F_MOD3_ROC8
Vdd:           6
Vana:          77
Vsh:           30
Vcomp:         12
VwllPr:        150
VwllSh:        150
VHldDel:       250
Vtrim:         78
VcThr:         94
VIbias_bus:    30
PHOffset:      158
Vcomp_ADC:     50
PHScale:       65
VIColOr:       100
Vcal:          255
CalDel:        113
TempRange:     0
WBC:           98
ChipContReg:   0
Readback:      1
ROC:           BPix_BmO_SEC8_LYR3_LDR22F_MOD3_ROC9
Vdd:           6
Vana:          83
Vsh:           30
Vcomp:         12
VwllPr:        150
VwllSh:        150
VHldDel:       250
Vtrim:         98
VcThr:         91
VIbias_bus:    30
PHOffset:      175
Vcomp_ADC:     50
PHScale:       68
VIColOr:       100
Vcal:          255
CalDel:        122
TempRange:     0
WBC:           98
ChipContReg:   0
Readback:      1
ROC:           BPix_BmO_SEC8_LYR3_LDR22F_MOD3_ROC10
Vdd:           6
Vana:          78
Vsh:           30
Vcomp:         12
VwllPr:        150
VwllSh:        150
VHldDel:       250
Vtrim:         104
VcThr:         95
VIbias_bus:    30
PHOffset:      159
Vcomp_ADC:     50
PHScale:       79
VIColOr:       100
Vcal:          255
CalDel:        108
TempRange:     0
WBC:           98
ChipContReg:   0
Readback:      1
ROC:           BPix_BmO_SEC8_LYR3_LDR22F_MOD3_ROC11
Vdd:           6
Vana:          77
Vsh:           30
Vcomp:         12
VwllPr:        150
VwllSh:        150
VHldDel:       250
Vtrim:         94
VcThr:         102
VIbias_bus:    30
PHOffset:      174
Vcomp_ADC:     50
PHScale:       71
VIColOr:       100
Vcal:          255
CalDel:        125
TempRange:     0
WBC:           98
ChipContReg:   0
Readback:      1
ROC:           BPix_BmO_SEC8_LYR3_LDR22F_MOD3_ROC12
Vdd:           6
Vana:          77
Vsh:           30
Vcomp:         12
VwllPr:        150
VwllSh:        150
VHldDel:       250
Vtrim:         97
VcThr:         88
VIbias_bus:    30
PHOffset:      176
Vcomp_ADC:     50
PHScale:       67
VIColOr:       100
Vcal:          255
CalDel:        128
TempRange:     0
WBC:           98
ChipContReg:   0
Readback:      1
ROC:           BPix_BmO_SEC8_LYR3_LDR22F_MOD3_ROC13
Vdd:           6
Vana:          77
Vsh:           30
Vcomp:         12
VwllPr:        150
VwllSh:        150
VHldDel:       250
Vtrim:         93
VcThr:         92
VIbias_bus:    30
PHOffset:      171
Vcomp_ADC:     50
PHScale:       67
VIColOr:       100
Vcal:          255
CalDel:        106
TempRange:     0
WBC:           98
ChipContReg:   0
Readback:      1
ROC:           BPix_BmO_SEC8_LYR3_LDR22F_MOD3_ROC14
Vdd:           6
Vana:          81
Vsh:           30
Vcomp:         12
VwllPr:        150
VwllSh:        150
VHldDel:       250
Vtrim:         91
VcThr:         96
VIbias_bus:    30
PHOffset:      175
Vcomp_ADC:     50
PHScale:       78
VIColOr:       100
Vcal:          255
CalDel:        127
TempRange:     0
WBC:           98
ChipContReg:   0
Readback:      1
ROC:           BPix_BmO_SEC8_LYR3_LDR22F_MOD3_ROC15
Vdd:           6
Vana:          77
Vsh:           30
Vcomp:         12
VwllPr:        150
VwllSh:        150
VHldDel:       250
Vtrim:         95
VcThr:         84
VIbias_bus:    30
PHOffset:      170
Vcomp_ADC:     50
PHScale:       67
VIColOr:       100
Vcal:          255
CalDel:        131
TempRange:     0
WBC:           98
ChipContReg:   0
Readback:      1
