ROC:           BPix_BpI_SEC8_LYR4_LDR29F_MOD4_ROC0
Vdd:           6
Vana:          84
Vsh:           30
Vcomp:         12
VwllPr:        150
VwllSh:        150
VHldDel:       250
Vtrim:         128
VcThr:         94
VIbias_bus:    30
PHOffset:      167
Vcomp_ADC:     50
PHScale:       75
VIColOr:       100
Vcal:          255
CalDel:        135
TempRange:     0
WBC:           98
ChipContReg:   0
Readback:      1
ROC:           BPix_BpI_SEC8_LYR4_LDR29F_MOD4_ROC1
Vdd:           6
Vana:          87
Vsh:           30
Vcomp:         12
VwllPr:        150
VwllSh:        150
VHldDel:       250
Vtrim:         132
VcThr:         104
VIbias_bus:    30
PHOffset:      176
Vcomp_ADC:     50
PHScale:       76
VIColOr:       100
Vcal:          255
CalDel:        126
TempRange:     0
WBC:           98
ChipContReg:   0
Readback:      1
ROC:           BPix_BpI_SEC8_LYR4_LDR29F_MOD4_ROC2
Vdd:           6
Vana:          77
Vsh:           30
Vcomp:         12
VwllPr:        150
VwllSh:        150
VHldDel:       250
Vtrim:         121
VcThr:         107
VIbias_bus:    30
PHOffset:      172
Vcomp_ADC:     50
PHScale:       66
VIColOr:       100
Vcal:          255
CalDel:        108
TempRange:     0
WBC:           98
ChipContReg:   0
Readback:      1
ROC:           BPix_BpI_SEC8_LYR4_LDR29F_MOD4_ROC3
Vdd:           6
Vana:          92
Vsh:           30
Vcomp:         12
VwllPr:        150
VwllSh:        150
VHldDel:       250
Vtrim:         123
VcThr:         102
VIbias_bus:    30
PHOffset:      178
Vcomp_ADC:     50
PHScale:       69
VIColOr:       100
Vcal:          255
CalDel:        121
TempRange:     0
WBC:           98
ChipContReg:   0
Readback:      1
ROC:           BPix_BpI_SEC8_LYR4_LDR29F_MOD4_ROC4
Vdd:           6
Vana:          92
Vsh:           30
Vcomp:         12
VwllPr:        150
VwllSh:        150
VHldDel:       250
Vtrim:         102
VcThr:         91
VIbias_bus:    30
PHOffset:      169
Vcomp_ADC:     50
PHScale:       74
VIColOr:       100
Vcal:          255
CalDel:        119
TempRange:     0
WBC:           98
ChipContReg:   0
Readback:      1
ROC:           BPix_BpI_SEC8_LYR4_LDR29F_MOD4_ROC5
Vdd:           6
Vana:          83
Vsh:           30
Vcomp:         12
VwllPr:        150
VwllSh:        150
VHldDel:       250
Vtrim:         133
VcThr:         104
VIbias_bus:    30
PHOffset:      177
Vcomp_ADC:     50
PHScale:       68
VIColOr:       100
Vcal:          255
CalDel:        129
TempRange:     0
WBC:           98
ChipContReg:   0
Readback:      1
ROC:           BPix_BpI_SEC8_LYR4_LDR29F_MOD4_ROC6
Vdd:           6
Vana:          74
Vsh:           30
Vcomp:         12
VwllPr:        150
VwllSh:        150
VHldDel:       250
Vtrim:         129
VcThr:         104
VIbias_bus:    30
PHOffset:      178
Vcomp_ADC:     50
PHScale:       70
VIColOr:       100
Vcal:          255
CalDel:        133
TempRange:     0
WBC:           98
ChipContReg:   0
Readback:      1
ROC:           BPix_BpI_SEC8_LYR4_LDR29F_MOD4_ROC7
Vdd:           6
Vana:          82
Vsh:           30
Vcomp:         12
VwllPr:        150
VwllSh:        150
VHldDel:       250
Vtrim:         98
VcThr:         101
VIbias_bus:    30
PHOffset:      174
Vcomp_ADC:     50
PHScale:       75
VIColOr:       100
Vcal:          255
CalDel:        109
TempRange:     0
WBC:           98
ChipContReg:   0
Readback:      1
ROC:           BPix_BpI_SEC8_LYR4_LDR29F_MOD4_ROC8
Vdd:           6
Vana:          87
Vsh:           30
Vcomp:         12
VwllPr:        150
VwllSh:        150
VHldDel:       250
Vtrim:         109
VcThr:         102
VIbias_bus:    30
PHOffset:      200
Vcomp_ADC:     50
PHScale:       68
VIColOr:       100
Vcal:          255
CalDel:        119
TempRange:     0
WBC:           98
ChipContReg:   0
Readback:      1
ROC:           BPix_BpI_SEC8_LYR4_LDR29F_MOD4_ROC9
Vdd:           6
Vana:          82
Vsh:           30
Vcomp:         12
VwllPr:        150
VwllSh:        150
VHldDel:       250
Vtrim:         97
VcThr:         94
VIbias_bus:    30
PHOffset:      156
Vcomp_ADC:     50
PHScale:       81
VIColOr:       100
Vcal:          255
CalDel:        141
TempRange:     0
WBC:           98
ChipContReg:   0
Readback:      1
ROC:           BPix_BpI_SEC8_LYR4_LDR29F_MOD4_ROC10
Vdd:           6
Vana:          84
Vsh:           30
Vcomp:         12
VwllPr:        150
VwllSh:        150
VHldDel:       250
Vtrim:         111
VcThr:         102
VIbias_bus:    30
PHOffset:      176
Vcomp_ADC:     50
PHScale:       75
VIColOr:       100
Vcal:          255
CalDel:        129
TempRange:     0
WBC:           98
ChipContReg:   0
Readback:      1
ROC:           BPix_BpI_SEC8_LYR4_LDR29F_MOD4_ROC11
Vdd:           6
Vana:          79
Vsh:           30
Vcomp:         12
VwllPr:        150
VwllSh:        150
VHldDel:       250
Vtrim:         110
VcThr:         96
VIbias_bus:    30
PHOffset:      197
Vcomp_ADC:     50
PHScale:       65
VIColOr:       100
Vcal:          255
CalDel:        132
TempRange:     0
WBC:           98
ChipContReg:   0
Readback:      1
ROC:           BPix_BpI_SEC8_LYR4_LDR29F_MOD4_ROC12
Vdd:           6
Vana:          87
Vsh:           30
Vcomp:         12
VwllPr:        150
VwllSh:        150
VHldDel:       250
Vtrim:         132
VcThr:         108
VIbias_bus:    30
PHOffset:      181
Vcomp_ADC:     50
PHScale:       67
VIColOr:       100
Vcal:          255
CalDel:        137
TempRange:     0
WBC:           98
ChipContReg:   0
Readback:      1
ROC:           BPix_BpI_SEC8_LYR4_LDR29F_MOD4_ROC13
Vdd:           6
Vana:          84
Vsh:           30
Vcomp:         12
VwllPr:        150
VwllSh:        150
VHldDel:       250
Vtrim:         129
VcThr:         96
VIbias_bus:    30
PHOffset:      173
Vcomp_ADC:     50
PHScale:       75
VIColOr:       100
Vcal:          255
CalDel:        136
TempRange:     0
WBC:           98
ChipContReg:   0
Readback:      1
ROC:           BPix_BpI_SEC8_LYR4_LDR29F_MOD4_ROC14
Vdd:           6
Vana:          81
Vsh:           30
Vcomp:         12
VwllPr:        150
VwllSh:        150
VHldDel:       250
Vtrim:         90
VcThr:         93
VIbias_bus:    30
PHOffset:      180
Vcomp_ADC:     50
PHScale:       74
VIColOr:       100
Vcal:          255
CalDel:        130
TempRange:     0
WBC:           98
ChipContReg:   0
Readback:      1
ROC:           BPix_BpI_SEC8_LYR4_LDR29F_MOD4_ROC15
Vdd:           6
Vana:          84
Vsh:           30
Vcomp:         12
VwllPr:        150
VwllSh:        150
VHldDel:       250
Vtrim:         117
VcThr:         95
VIbias_bus:    30
PHOffset:      171
Vcomp_ADC:     50
PHScale:       78
VIColOr:       100
Vcal:          255
CalDel:        98
TempRange:     0
WBC:           98
ChipContReg:   0
Readback:      1
