# dcdcconverter   default   configuration  PGPiaAddr    PGBit            ENPiaAddr    ENBit
BPix_DCDC1        1         BPix           0x31         00000010         0x32         00001000
BPix_DCDC2        1         BPix           0x32         00000001         0x32         10000000
BPix_DCDC3        1         BPix           0x32         00010000         0x33         00000100
BPix_DCDC4        1         BPix           0x32         01000000         0x33         00000001
BPix_DCDC5        1         BPix           0x33         00001000         0x33         00000010
BPix_DCDC6        1         BPix           0x33         00010000         0x33         00100000
BPix_DCDC7        1         BPix           0x33         10000000         0x33         01000000
BPix_DCDC8        1         BPix           0x31         10000000         0x32         00000100
BPix_DCDC9        1         BPix           0x32         00100000         0x32         00000010
BPix_DCDC10       1         BPix           0x31         01000000         0x31         00100000
BPix_DCDC11       1         BPix           0x31         00000100         0x31         00010000
BPix_DCDC12       1         BPix           0x30         01000000         0x31         00001000
BPix_DCDC13       1         BPix           0x30         10000000         0x31         00000001
FPix_DCDC1        1         FPix           0x32         00001100         0x31         00000010
FPix_DCDC2        1         FPix           0x32         00000011         0x31         00000001
FPix_DCDC3        1         FPix           0x32         11000000         0x31         00001000
FPix_DCDC4        1         FPix           0x32         00110000         0x31         00000100
FPix_DCDC5        1         FPix           0x33         00001100         0x31         00100000
FPix_DCDC6        1         FPix           0x33         00000011         0x31         00010000
