BPix_BmO_SEC7_LYR4_LDR26F_MOD3_ROC0
TBMABase0: 0
TBMBBase0: 0
TBMAAutoReset: 0
TBMBAutoReset: 0
TBMANoTokenPass: 0
TBMBNoTokenPass: 0
TBMADisablePKAMCounter: 0
TBMBDisablePKAMCounter: 0
TBMAPKAMCount: 10
TBMBPKAMCount: 10
TBMPLLDelay: 232
TBMADelay: 219
TBMBDelay: 219
