BPix_BpI_SEC4_LYR1_LDR3F_MOD1_ROC0
TBMABase0: 0
TBMBBase0: 0
TBMAAutoReset: 0
TBMBAutoReset: 0
TBMANoTokenPass: 0
TBMBNoTokenPass: 0
TBMADisablePKAMCounter: 0
TBMBDisablePKAMCounter: 0
TBMAPKAMCount: 10
TBMBPKAMCount: 10
TBMPLLDelay: 28
TBMADelay: 228
TBMBDelay: 228
