BPix_BmI_SEC1_LYR2_LDR2F_MOD4_ROC0
TBMABase0: 0
TBMBBase0: 0
TBMAAutoReset: 0
TBMBAutoReset: 0
TBMANoTokenPass: 0
TBMBNoTokenPass: 0
TBMADisablePKAMCounter: 0
TBMBDisablePKAMCounter: 0
TBMAPKAMCount: 10
TBMBPKAMCount: 10
TBMPLLDelay: 124
TBMADelay: 73
TBMBDelay: 73
