BPix_BmI_SEC3_LYR4_LDR9F_MOD3_ROC0
TBMABase0: 0
TBMBBase0: 0
TBMAAutoReset: 0
TBMBAutoReset: 0
TBMANoTokenPass: 0
TBMBNoTokenPass: 0
TBMADisablePKAMCounter: 0
TBMBDisablePKAMCounter: 0
TBMAPKAMCount: 10
TBMBPKAMCount: 10
TBMPLLDelay: 252
TBMADelay: 219
TBMBDelay: 219
