ROC:           BPix_BpI_SEC6_LYR1_LDR5F_MOD4_ROC0
Vdd:           6
Vana:          74
Vsh:           8
Vcomp:         12
VwllPr:        150
VwllSh:        150
VHldDel:       250
Vtrim:         93
VcThr:         56
VIbias_bus:    250
PHOffset:      164
Vcomp_ADC:     50
PHScale:       70
VIColOr:       100
Vcal:          200
CalDel:        166
TempRange:     0
WBC:           164
ChipContReg:   16
Readback:      1
ROC:           BPix_BpI_SEC6_LYR1_LDR5F_MOD4_ROC1
Vdd:           6
Vana:          77
Vsh:           8
Vcomp:         12
VwllPr:        150
VwllSh:        150
VHldDel:       250
Vtrim:         106
VcThr:         59
VIbias_bus:    250
PHOffset:      164
Vcomp_ADC:     50
PHScale:       70
VIColOr:       100
Vcal:          200
CalDel:        148
TempRange:     0
WBC:           164
ChipContReg:   16
Readback:      1
ROC:           BPix_BpI_SEC6_LYR1_LDR5F_MOD4_ROC2
Vdd:           6
Vana:          71
Vsh:           8
Vcomp:         12
VwllPr:        150
VwllSh:        150
VHldDel:       250
Vtrim:         101
VcThr:         62
VIbias_bus:    250
PHOffset:      168
Vcomp_ADC:     50
PHScale:       70
VIColOr:       100
Vcal:          200
CalDel:        176
TempRange:     0
WBC:           164
ChipContReg:   16
Readback:      1
ROC:           BPix_BpI_SEC6_LYR1_LDR5F_MOD4_ROC3
Vdd:           6
Vana:          71
Vsh:           8
Vcomp:         12
VwllPr:        150
VwllSh:        150
VHldDel:       250
Vtrim:         97
VcThr:         81
VIbias_bus:    250
PHOffset:      159
Vcomp_ADC:     50
PHScale:       70
VIColOr:       100
Vcal:          200
CalDel:        165
TempRange:     0
WBC:           164
ChipContReg:   16
Readback:      1
ROC:           BPix_BpI_SEC6_LYR1_LDR5F_MOD4_ROC12
Vdd:           6
Vana:          80
Vsh:           8
Vcomp:         12
VwllPr:        150
VwllSh:        150
VHldDel:       250
Vtrim:         89
VcThr:         58
VIbias_bus:    250
PHOffset:      156
Vcomp_ADC:     50
PHScale:       70
VIColOr:       100
Vcal:          200
CalDel:        183
TempRange:     0
WBC:           164
ChipContReg:   16
Readback:      1
ROC:           BPix_BpI_SEC6_LYR1_LDR5F_MOD4_ROC13
Vdd:           6
Vana:          76
Vsh:           8
Vcomp:         12
VwllPr:        150
VwllSh:        150
VHldDel:       250
Vtrim:         90
VcThr:         63
VIbias_bus:    250
PHOffset:      160
Vcomp_ADC:     50
PHScale:       70
VIColOr:       100
Vcal:          200
CalDel:        191
TempRange:     0
WBC:           164
ChipContReg:   16
Readback:      1
ROC:           BPix_BpI_SEC6_LYR1_LDR5F_MOD4_ROC14
Vdd:           6
Vana:          71
Vsh:           8
Vcomp:         12
VwllPr:        150
VwllSh:        150
VHldDel:       250
Vtrim:         88
VcThr:         54
VIbias_bus:    250
PHOffset:      155
Vcomp_ADC:     50
PHScale:       70
VIColOr:       100
Vcal:          200
CalDel:        194
TempRange:     0
WBC:           164
ChipContReg:   16
Readback:      1
ROC:           BPix_BpI_SEC6_LYR1_LDR5F_MOD4_ROC15
Vdd:           6
Vana:          84
Vsh:           8
Vcomp:         12
VwllPr:        150
VwllSh:        150
VHldDel:       250
Vtrim:         106
VcThr:         60
VIbias_bus:    250
PHOffset:      152
Vcomp_ADC:     50
PHScale:       70
VIColOr:       100
Vcal:          200
CalDel:        164
TempRange:     0
WBC:           164
ChipContReg:   16
Readback:      1
