ROC:           BPix_BmI_SEC6_LYR1_LDR5H_MOD3_ROC4
Vdd:           6
Vana:          84
Vsh:           8
Vcomp:         12
VwllPr:        150
VwllSh:        150
VHldDel:       250
Vtrim:         104
VcThr:         62
VIbias_bus:    250
PHOffset:      162
Vcomp_ADC:     50
PHScale:       70
VIColOr:       100
Vcal:          200
CalDel:        169
TempRange:     0
WBC:           164
ChipContReg:   16
Readback:      1
ROC:           BPix_BmI_SEC6_LYR1_LDR5H_MOD3_ROC5
Vdd:           6
Vana:          70
Vsh:           8
Vcomp:         12
VwllPr:        150
VwllSh:        150
VHldDel:       250
Vtrim:         112
VcThr:         71
VIbias_bus:    250
PHOffset:      167
Vcomp_ADC:     50
PHScale:       70
VIColOr:       100
Vcal:          200
CalDel:        195
TempRange:     0
WBC:           164
ChipContReg:   16
Readback:      1
ROC:           BPix_BmI_SEC6_LYR1_LDR5H_MOD3_ROC6
Vdd:           6
Vana:          79
Vsh:           8
Vcomp:         12
VwllPr:        150
VwllSh:        150
VHldDel:       250
Vtrim:         130
VcThr:         65
VIbias_bus:    250
PHOffset:      153
Vcomp_ADC:     50
PHScale:       70
VIColOr:       100
Vcal:          200
CalDel:        206
TempRange:     0
WBC:           164
ChipContReg:   16
Readback:      1
ROC:           BPix_BmI_SEC6_LYR1_LDR5H_MOD3_ROC7
Vdd:           6
Vana:          79
Vsh:           8
Vcomp:         12
VwllPr:        150
VwllSh:        150
VHldDel:       250
Vtrim:         136
VcThr:         65
VIbias_bus:    250
PHOffset:      146
Vcomp_ADC:     50
PHScale:       70
VIColOr:       100
Vcal:          200
CalDel:        183
TempRange:     0
WBC:           164
ChipContReg:   16
Readback:      1
ROC:           BPix_BmI_SEC6_LYR1_LDR5H_MOD3_ROC8
Vdd:           6
Vana:          78
Vsh:           8
Vcomp:         12
VwllPr:        150
VwllSh:        150
VHldDel:       250
Vtrim:         112
VcThr:         75
VIbias_bus:    250
PHOffset:      162
Vcomp_ADC:     50
PHScale:       70
VIColOr:       100
Vcal:          200
CalDel:        209
TempRange:     0
WBC:           164
ChipContReg:   16
Readback:      1
ROC:           BPix_BmI_SEC6_LYR1_LDR5H_MOD3_ROC9
Vdd:           6
Vana:          84
Vsh:           8
Vcomp:         12
VwllPr:        150
VwllSh:        150
VHldDel:       250
Vtrim:         106
VcThr:         75
VIbias_bus:    250
PHOffset:      150
Vcomp_ADC:     50
PHScale:       70
VIColOr:       100
Vcal:          200
CalDel:        202
TempRange:     0
WBC:           164
ChipContReg:   16
Readback:      1
ROC:           BPix_BmI_SEC6_LYR1_LDR5H_MOD3_ROC10
Vdd:           6
Vana:          88
Vsh:           8
Vcomp:         12
VwllPr:        150
VwllSh:        150
VHldDel:       250
Vtrim:         103
VcThr:         75
VIbias_bus:    250
PHOffset:      151
Vcomp_ADC:     50
PHScale:       70
VIColOr:       100
Vcal:          200
CalDel:        186
TempRange:     0
WBC:           164
ChipContReg:   16
Readback:      1
ROC:           BPix_BmI_SEC6_LYR1_LDR5H_MOD3_ROC11
Vdd:           6
Vana:          76
Vsh:           8
Vcomp:         12
VwllPr:        150
VwllSh:        150
VHldDel:       250
Vtrim:         95
VcThr:         60
VIbias_bus:    250
PHOffset:      161
Vcomp_ADC:     50
PHScale:       70
VIColOr:       100
Vcal:          200
CalDel:        173
TempRange:     0
WBC:           164
ChipContReg:   16
Readback:      1
