ROC:           BPix_BmI_SEC5_LYR4_LDR17F_MOD3_ROC0
Vdd:           6
Vana:          92
Vsh:           30
Vcomp:         12
VwllPr:        150
VwllSh:        150
VHldDel:       250
Vtrim:         86
VcThr:         96
VIbias_bus:    30
PHOffset:      160
Vcomp_ADC:     50
PHScale:       85
VIColOr:       100
Vcal:          255
CalDel:        149
TempRange:     0
WBC:           164
ChipContReg:   0
Readback:      1
ROC:           BPix_BmI_SEC5_LYR4_LDR17F_MOD3_ROC1
Vdd:           6
Vana:          87
Vsh:           30
Vcomp:         12
VwllPr:        150
VwllSh:        150
VHldDel:       250
Vtrim:         108
VcThr:         89
VIbias_bus:    30
PHOffset:      176
Vcomp_ADC:     50
PHScale:       86
VIColOr:       100
Vcal:          255
CalDel:        128
TempRange:     0
WBC:           164
ChipContReg:   0
Readback:      1
ROC:           BPix_BmI_SEC5_LYR4_LDR17F_MOD3_ROC2
Vdd:           6
Vana:          73
Vsh:           30
Vcomp:         12
VwllPr:        150
VwllSh:        150
VHldDel:       250
Vtrim:         179
VcThr:         96
VIbias_bus:    30
PHOffset:      180
Vcomp_ADC:     50
PHScale:       82
VIColOr:       100
Vcal:          255
CalDel:        155
TempRange:     0
WBC:           164
ChipContReg:   0
Readback:      1
ROC:           BPix_BmI_SEC5_LYR4_LDR17F_MOD3_ROC3
Vdd:           6
Vana:          74
Vsh:           30
Vcomp:         12
VwllPr:        150
VwllSh:        150
VHldDel:       250
Vtrim:         84
VcThr:         98
VIbias_bus:    30
PHOffset:      180
Vcomp_ADC:     50
PHScale:       82
VIColOr:       100
Vcal:          255
CalDel:        165
TempRange:     0
WBC:           164
ChipContReg:   0
Readback:      1
ROC:           BPix_BmI_SEC5_LYR4_LDR17F_MOD3_ROC4
Vdd:           6
Vana:          81
Vsh:           30
Vcomp:         12
VwllPr:        150
VwllSh:        150
VHldDel:       250
Vtrim:         103
VcThr:         97
VIbias_bus:    30
PHOffset:      169
Vcomp_ADC:     50
PHScale:       80
VIColOr:       100
Vcal:          255
CalDel:        143
TempRange:     0
WBC:           164
ChipContReg:   0
Readback:      1
ROC:           BPix_BmI_SEC5_LYR4_LDR17F_MOD3_ROC5
Vdd:           6
Vana:          77
Vsh:           30
Vcomp:         12
VwllPr:        150
VwllSh:        150
VHldDel:       250
Vtrim:         92
VcThr:         89
VIbias_bus:    30
PHOffset:      162
Vcomp_ADC:     50
PHScale:       87
VIColOr:       100
Vcal:          255
CalDel:        155
TempRange:     0
WBC:           164
ChipContReg:   0
Readback:      1
ROC:           BPix_BmI_SEC5_LYR4_LDR17F_MOD3_ROC6
Vdd:           6
Vana:          82
Vsh:           30
Vcomp:         12
VwllPr:        150
VwllSh:        150
VHldDel:       250
Vtrim:         94
VcThr:         98
VIbias_bus:    30
PHOffset:      177
Vcomp_ADC:     50
PHScale:       76
VIColOr:       100
Vcal:          255
CalDel:        142
TempRange:     0
WBC:           164
ChipContReg:   0
Readback:      1
ROC:           BPix_BmI_SEC5_LYR4_LDR17F_MOD3_ROC7
Vdd:           6
Vana:          78
Vsh:           30
Vcomp:         12
VwllPr:        150
VwllSh:        150
VHldDel:       250
Vtrim:         105
VcThr:         91
VIbias_bus:    30
PHOffset:      178
Vcomp_ADC:     50
PHScale:       78
VIColOr:       100
Vcal:          255
CalDel:        135
TempRange:     0
WBC:           164
ChipContReg:   0
Readback:      1
ROC:           BPix_BmI_SEC5_LYR4_LDR17F_MOD3_ROC8
Vdd:           6
Vana:          80
Vsh:           30
Vcomp:         12
VwllPr:        150
VwllSh:        150
VHldDel:       250
Vtrim:         96
VcThr:         102
VIbias_bus:    30
PHOffset:      181
Vcomp_ADC:     50
PHScale:       80
VIColOr:       100
Vcal:          255
CalDel:        128
TempRange:     0
WBC:           164
ChipContReg:   0
Readback:      1
ROC:           BPix_BmI_SEC5_LYR4_LDR17F_MOD3_ROC9
Vdd:           6
Vana:          83
Vsh:           30
Vcomp:         12
VwllPr:        150
VwllSh:        150
VHldDel:       250
Vtrim:         88
VcThr:         84
VIbias_bus:    30
PHOffset:      157
Vcomp_ADC:     50
PHScale:       87
VIColOr:       100
Vcal:          255
CalDel:        144
TempRange:     0
WBC:           164
ChipContReg:   0
Readback:      1
ROC:           BPix_BmI_SEC5_LYR4_LDR17F_MOD3_ROC10
Vdd:           6
Vana:          77
Vsh:           30
Vcomp:         12
VwllPr:        150
VwllSh:        150
VHldDel:       250
Vtrim:         97
VcThr:         82
VIbias_bus:    30
PHOffset:      146
Vcomp_ADC:     50
PHScale:       95
VIColOr:       100
Vcal:          255
CalDel:        140
TempRange:     0
WBC:           164
ChipContReg:   0
Readback:      1
ROC:           BPix_BmI_SEC5_LYR4_LDR17F_MOD3_ROC11
Vdd:           6
Vana:          83
Vsh:           30
Vcomp:         12
VwllPr:        150
VwllSh:        150
VHldDel:       250
Vtrim:         111
VcThr:         101
VIbias_bus:    30
PHOffset:      176
Vcomp_ADC:     50
PHScale:       85
VIColOr:       100
Vcal:          255
CalDel:        137
TempRange:     0
WBC:           164
ChipContReg:   0
Readback:      1
ROC:           BPix_BmI_SEC5_LYR4_LDR17F_MOD3_ROC12
Vdd:           6
Vana:          87
Vsh:           30
Vcomp:         12
VwllPr:        150
VwllSh:        150
VHldDel:       250
Vtrim:         93
VcThr:         100
VIbias_bus:    30
PHOffset:      162
Vcomp_ADC:     50
PHScale:       84
VIColOr:       100
Vcal:          255
CalDel:        130
TempRange:     0
WBC:           164
ChipContReg:   0
Readback:      1
ROC:           BPix_BmI_SEC5_LYR4_LDR17F_MOD3_ROC13
Vdd:           6
Vana:          81
Vsh:           30
Vcomp:         12
VwllPr:        150
VwllSh:        150
VHldDel:       250
Vtrim:         104
VcThr:         89
VIbias_bus:    30
PHOffset:      159
Vcomp_ADC:     50
PHScale:       85
VIColOr:       100
Vcal:          255
CalDel:        156
TempRange:     0
WBC:           164
ChipContReg:   0
Readback:      1
ROC:           BPix_BmI_SEC5_LYR4_LDR17F_MOD3_ROC14
Vdd:           6
Vana:          68
Vsh:           30
Vcomp:         12
VwllPr:        150
VwllSh:        150
VHldDel:       250
Vtrim:         104
VcThr:         87
VIbias_bus:    30
PHOffset:      159
Vcomp_ADC:     50
PHScale:       103
VIColOr:       100
Vcal:          255
CalDel:        144
TempRange:     0
WBC:           164
ChipContReg:   0
Readback:      1
ROC:           BPix_BmI_SEC5_LYR4_LDR17F_MOD3_ROC15
Vdd:           6
Vana:          92
Vsh:           30
Vcomp:         12
VwllPr:        150
VwllSh:        150
VHldDel:       250
Vtrim:         88
VcThr:         91
VIbias_bus:    30
PHOffset:      164
Vcomp_ADC:     50
PHScale:       80
VIColOr:       100
Vcal:          255
CalDel:        135
TempRange:     0
WBC:           164
ChipContReg:   0
Readback:      1
