ROC:	 BPix_BmI_SEC5_LYR2_LDR8F_MOD1_ROC0
col00:   7683666a1683a649a995876a66be788aa669696a9aa49ab88dac89c8dbad99735b9668c54a948753
col01:   75598a848758896bc5cc999888c89babeca5a9ac49ba8c8ce8bbd8aaafc6bb9a998ab87b88c8cb77
col02:   838b64555a8ca88a38b8bdaa6acaa87ad998b698988b7e988db969abe5dbdb8deaaca8a875acd658
col03:   7982b58888c526929b9d8abcd78accec88cabb8ccd9ab6697b657acac78ee8998d798f6b7a58a865
col04:   84a5b8973aa7ccae67e398e8a989e6b77879a97cbb8bfa9ba9d8ac8685998cd8ac78c9748d955866
col05:   a8677679698c91abc856a9cadfa776d997cbac7786cc7ca889977a9c77aaac99c9a49bce88788b99
col06:   879679b57c85a26279c997cbabc69b9d99bdaa9bcba98c9bbaafd797cbc7b4a9a4bc9b99588936a6
col07:   3585698c98c9646d599db9bb96d9b9aaab7c78a9dbbd99c7b677af6c9cdabdbf96aa9ae9a8aa6875
col08:   3269ba696c4a98a9aa58c97abaacdc6a8c6cb979ad9a5cd9ada6858b9aa9c8b74ba5c6989c86796a
col09:   2679679a79779896b6b676cdb7dcac9ef9baabbcceacacaffb89d7bbbfbbf9fa38c4c8dbba8b9cba
col10:   91998b99648ac79c8878aa5e9777c469addcca83dcc9a7d9db99adc7bcaead8867cb58a85b8c78aa
col11:   a673c6c8abb5b96a8998a4abb88a87b99f6c789bfa8ca9a5b9ab69898e99bc9977a8bc3a59897dd4
col12:   5cb4977599acbac7679cc69ab9a7fb5bb89b8ab9baacd8b5daa8cbd68daf99bc888c6cb993ab62a6
col13:   95698ba93bd67887878736b8aa8899bc969d9e98ac78bcb68daaadaf9ba8cb9cdb98cbca9a5a89d8
col14:   98c7b8939989c68a768686ad68ab9b9ba99ceae88ad9c8da9dbaa8c9a9d7988a9ecbcbc65469c953
col15:   78879ac6b7d8955b87b5897bc99a8aca7aabca9879b9aaaca68d7cadac5abab5ca88dbbf89599cb7
col16:   635ac48e39977788b486b584999d8c7a85597ea79a8cd99a9e89debbbbaaea8999888c9997d988c5
col17:   958674986a98a7a558a427968b6d9b9cf95b7b78db9ad8b89aa8bb9997badd8ad9a79a6b687ba967
col18:   56475a6a7888634aa6b979ebc87aa89c98a9a88c97b8aad7ba8649a7d647aab66bc99bb796868997
col19:   5985959a7378b82abe78a4b9389b9a99ebbe9e3ba5dc989e7fddec8c7a5a888babc97a6ec97a6785
col20:   6474487648baacb46f5d97a88998a8b8c98cabbb9a9cda9acc9a97abbf95bb79b747986676854974
col21:   96959756b794b998c99869d896996c98978da98649c998cc7bae78999c59b9b8baa3a696879985cc
col22:   72496a78c999aaa89aa8956b7b599c9887b9cd67accba9a7998d9aba754a9bbd86869c7e85a67679
col23:   9544676977a77a58b9888788767aba4bbb9bb86ba6b9cba8d98b8acc89aaa5a9778bb95d66d58948
col24:   61797958877a8ba8aaa9a898d6c98959977bc9a84cb68b77caa799dd88799ac79ba8998aa83a68aa
col25:   862682b875a8c77bbaa69a7a97cceca78b8a9a87bb998c78889baca8dfbacdb9aa68bb786b8797a8
col26:   bb8755aaca67c9fccaadd76dcbc9c9bcb8cbea79cabecbb9ebbdb8bdbdacdc8aeccdd69bf9a8df84
col27:   4b8c79dd739ba4b9ba88aaab8cc6dba8989cb9dcb9dbacfaccb998cafb9ac9fd8c8ca659ad787b67
col28:   78a7b7f86988688db9a8afdcf98bcb88cecbbb877cd7cca9c9cc9ebeccf95b9c9da4bce8bd9a8996
col29:   97a6b9887adbcaaeb7a88a979b897c9b59ca8abafeaa8aedacbd7deb9fecadb9addd9da76bb7ceb4
col30:   886c8cd976aacbb7af89b759ac7aebac8acc9ac7b9cccbbacdfbcebddbebdda788959bb8a9bbc798
col31:   c969c98b9caa8cbaaf99deacafe9ba8b5edbdacbdc7edbcdbcd8cdcbfadbd8bcbc6ca8bb7bd978b5
col32:   97e89bbb9c7c9d6ce9c94b8afdcbbdebccaeeb9fedbcefebcabf9febfcedeaaea9efc7dabddbcbe4
col33:   aa7a95b8dabc9bebbf9c798babe8e79dccbacbccbbdba8ec9cdbdecccd8ad8bbc9cbaf6ebfcbdbb8
col34:   6cfc59a9dc8badb7a698cc9cabcccad9b96dafc6cfbafdba9abaad7dbddbfdad97fbabdbcb8bacba
col35:   c9a8ebbcceafbfdfcc9bcba97aafb89ab9bd9cfddbccceccccdebeafbefa9f7be89dbbccb9acaa69
col36:   87b8acbbe7d7b7cddc9be9dcabaaca9fccbecfabdecffdc69fbbaceba7efbde7a9bfcd98bbba99aa
col37:   db8cbd9eafb5f8aabcdaba7fbddd6d8b987e99bcdd9cbccdffaffcde9ccfda9ec9da98bcab49fabb
col38:   bbfc7a9dedd599dcbacdcf9bac8bbebbbdcfceabd9bedcadfd9debcdbba9eebc7ba89a9dadae9dd7
col39:   9ab9c9bccaaaa67df9ac9dacbadfddc9baeccaddbeccfffcaa9ced9cfdfebaba88abbbbcbbc9cddf
col40:   6b7abcaba9a9b6fad8dcddeecefbdfeefdfed9dbbfdcfa8bda8b9dacbbafcdfbedbbdf97afacad9f
col41:   b9cac89c8e8dab8bbdcbafcadfcb99d9c97bdcbcbfeacbbf8acfadbc8b7bcdd9e99cac89b8dae9a7
col42:   b67d87c8867acbea6cfacafcfdbcb9fcecedffafeace9a9ed9ddaf9ba99dbdad9ec999a9aca8b6c3
col43:   a7aabbdefcaccc99daa9bfccf9dcfc9abbeaeababccffff7cdbfbfefcffcbdb6bcae8aeca5dc9cd7
col44:   bbcd9abb9b588bbbcacba89cdecedd9ce8cbdddcbd9af9cffeadcccbedcbdbdbfdccdadd7bbcbdd6
col45:   86897bbac99aaacbf8b9bcc9a9acccca9c9edddffefecbade9cd8abf9fdcfaf98bfebacaddcbbcdb
col46:   97af9c7bccd7bad7bd889babd9b9d9b9efe9af9aefefccecedab898da7ebdfedebcdae9cdc5ccbde
col47:   bb9cc8d9ccab97d7f6dccababbbcfacbaeefdcbeedadbbcafb8ffbfefbfadcdcc8afdabcb8dadbfa
col48:   98685cb99c9ab999ca98abffbbcdddfcfef8fcfaa9dfabfacbd8a9bdbcbbcdbb9d6cc8c8bfdac9bb
col49:   aa99e8caa9c9999eddbca98dacacdbbfaebbccfcfc8daecadb9ac8aabfef9f7ffbbccafaa98cabe7
col50:   9c97a9bd998f8d9dbab8bc9f9ad9fdd9cbdfdcfb9c9dfafefa9cd9cfaab8bdadafca9c8d5bbbb8a5
col51:   94a868989897778492998bc96b9a5ca98ad6abdb959ea78e7dccc88ac846acbc3abaa5abb68ca885
ROC:	 BPix_BmI_SEC5_LYR2_LDR8F_MOD1_ROC1
col00:   1484364688983254769897ca967b86b8e8893887986819456896995897b59858b789cc94a87a8177
col01:   b35885c98858879a82a7896968798ad99a679acb89aa8abb8b9a76a9898987b5b9cab7919f6bba97
col02:   7817973897881aa99988875c96a7677899aac78d9b8c6cb7a98b8b77cc98a9cbac7a9b57e865a989
col03:   67879899b869a6aa497cd88b8586a675a7a9869ab99599697aaabce9ba7f87c96a6c899a6e977cc6
col04:   8661797951aa85b9a699a93a53be879baa9cba9aba89aaa6989b9ba6daba865c6da997c786aabac9
col05:   775776899695d7699ab88b8988ba8cab5b79896abd988beb97aa799686a89da6c8aadbb75c59588b
col06:   66867599889946788988a6a668a99b96a77baabbb7a77b9a6769c8ab9799d888c8cbb96b885b9cdb
col07:   3699a2b8778486a69768bbba78ca687acddb887b7ab9d8679b79d9b8779c77c8788cc86b6b99d996
col08:   74559956b87674b6c896989795747a98849acb977989c78a6979ac98bcb6bfbc5597b866c6ca68d6
col09:   8968655998989776ba5ea87b8ba8bab7fbb8e9ceeadbc789bacab977be8bcda99a9a5b96ad74b9d7
col10:   a3a37ba45966698b56c899ac99c6a7688bbca878cabcaa68e65b797bac967b7a8985eab7ab6aa989
col11:   988479857a753987689869889567bb68a89756486c7ca7d7a68b8a98a99ab9ca7889e787dcba9889
col12:   798a8a8c96a925c9caa8566a9b99769a9d5b6acbc9a9d6b7aa8ac78aab9a7bc99b7ac956ca39cb4c
col13:   249857839c6766579aaa78bc6bb8989d899a8b9a87887a7d79b97dafca5b8c7e9c79ba954866a89a
col14:   57655b7796a5b53686a88478a998ebaccaca99aa8598babba8cc7758c7b89cc78a9b99ccc879b8b2
col15:   9679ba8875b6d6539a9a88a6b8d9ab8ba7a9aabb8a98aa79ad77f87b96d96c9c9b779a87b77469c9
col16:   25388887a4b78799774977897978abcc88cc8bb96aa9ac8757dbb99dacbc9a7c89cbaaacc858c67a
col17:   3438a9a847968eaa55998777786687bbcc4b84788b794abacba5a88a57aaaacb57aca378c6c78aa6
col18:   255457b638449ab937c648b7cd66acad79e9d8898be8bd79a8a6886a7fc596ab7a977a9c99c49e89
col19:   b66856b79ba3c57669c9877a6bcd8978ad2986cc7ab989887ac997abcba9caaa7c97bb68b8c97764
col20:   864659678a896b99b638886878b8aecb9dbacad6aa4697c8aa4aa959d689ca79ba95e984c99769c7
col21:   58966964689556766857b79899be79aca7b9b9b8c9aac986b989ab7eaa9aa99ab78aba9a7aa7798a
col22:   39715577874a499854a498b89a9a8dbaa7c79a8e8abaa8a9c758b94785967c759c99aa4986668aa7
col23:   4535b686ae488bb789a65677c77aa9868878abba7958b8db7988abe9de7aa889c579e7a98cc9c99a
col24:   a4739c6957984b55a9986ba6a87a986ba99d9aac9587878597767988d58d7978c99c59b967f75996
col25:   b9896b888679797b9ba698882898a9ba6b66bcca89bc4a8fa9ccaaacbd9ababba89c7ac998a8698a
col26:   87426bc7a8c9ac87b97aaa9d8bbbb69ccddb7dc7acbbca9cd9add7a85cb8fceba77a7c9bacc9cbba
col27:   a64d9a5bb898da78bcdc8b98d88bcbbacce7ac7bde9be8bba8fbc89bac7d8aabcb88cda78ab7add9
col28:   855b7b9488aa7ba97baa8da8cba7b7cddbecd9ae9ddc39d89e86998abbab7bb7b8a6dbdbb6beca84
col29:   b7ab89d77cc78a9badb9cbdc8a9fdcd6facc8bdeb8a9eba9abb8dbcaa77789c9e7e98c8b8eb98b76
col30:   9696aaa677ca79adb8775eabac9cacdcdacbb9f9a86b9df8cbb9b9ccb8c889c8999b88ac997897e9
col31:   7d7a86cd86d98bc96c7ac87b9c798a9b9898bb8aeacabb7bcef8ceadeadacac9baccaecbdc8aba8b
col32:   b53748c98be7b7ba7c8cdc9c9a8cacdcbdfadd8bf7bdbbe9abbbefddb99fecfcaa9afacacbd5bcf9
col33:   979bd9d9aedbbabb7b8deaaadfbcaabdbdcafcd8ace8a9dcacbbbacda7deb9aaa9badb7ecdf9bbba
col34:   a7da796ae7c9acd99bb5bb9deb7b9ebbeabfd7edcdcadb9eeadb9afbb89dc89abba79ebcd6b988d9
col35:   8bab3bcab8daa8a8bbbaebbff9b8cadbaadb8bb98adedbddadbb7899e5dfaaa8778999d99cbeab97
col36:   586aecae78e7aba97a99cbcbea9debdeeabb8eeeeced8fbebfcc8c9ddbbbf8b8da9ba7eebcdacaf5
col37:   58ca6c7999cba997daaabbea9ebd9aeac9ea9afdcdedecfeecdffcfebcacace699bdbf89ae99b9bc
col38:   9785b9a88bbcaccd8ce7ac9cedc9dce7bebbf7cbdadf9dcddaafbdae9cbdc9a9d8dedaa9aed96aca
col39:   9c76ae799bce8e9bdd6dbd9da96decbcfdbfbacafb9bfab9fdeeeafdf99e8d8ac4bab9bbaeacbabb
col40:   3c9b79bcc5caaac9cffbbecdccabfeadfb8adc78bbdaddbe99cafdccabf7cddbcc989dabcaa799df
col41:   da8cfabb7869b9d9fadcbca9ae9b98dacebeccebfda9bd89aacbccbb8dcececd9adaadaabbbcedcd
col42:   a7a99979f9cce89ba6dbcea9ecd8fddcfbcdefebb899ccba7cc97bd98ce97da9f99becbde9ba8eba
col43:   a9bfa9a9cd8acbdcdbcb9bbaaaf9f8daeafedc8b7bfadcbdafebe66aeeecdfc9caedffccefccdddb
col44:   82c49e69dd99f9aebbeeba8cfca9b7bbccabcddbabeceddfcaddbefadcfbdece9bbdc9fb6acccada
col45:   ab89d97cebc6b7bfdcfebbcbcc7ecbacc9bccab8c9bcdcefdebeaace8daa9ac89cad9eca8edcecb9
col46:   8a9adcb9ceacddcbe99cacecdda9aabaddd8abbfad6c9acdb9bfaccbbaacfade9a9d9aabccdbaefb
col47:   948cccb9bdcacddedf7dcaeabaeeeac7ccbefbbbcbbcfbfabfb9bd9dbbdd9bdcacdccecbd8beba88
col48:   89c8b9dc9aacdbccbbc7a9a8c9ded9dc9fee79a9b89c7dbbfbdbdbce6cdcabd9cbecd89cc9c96ca9
col49:   daa78ebc7bcfbbddbbdc879acdcbedb9eedfffdbcfaceadcdaecfebc8accadfaa9adccc9a9aed99b
col50:   cbd79fe8dd8adb9bfbddafc8bacdf879ecc9ec9a8cac96ecf689cfd9cefabc79ddefbdb9ce7adb9c
col51:   4858b59ba9cbe5ba6aba8cb8898968968a4c779ad8b9cbcc88b9b974b8c9aaac88b8a6b898b87cb6
ROC:	 BPix_BmI_SEC5_LYR2_LDR8F_MOD1_ROC2
col00:   46c74745971474555466a788576a88773d5b8b98a87b5bba6ac878a5a98789797868496676965b42
col01:   7b447789558b9487a67ca7d9b9cc8c8cb7aa9d87889997b88abcad58aa78ab7c6a6b59648a95655a
col02:   a7982888875987468786a8987adac986a978bad88b57889aab88aba9ab948dab7e99b67867af3796
col03:   798787c9ac8668987558366e7ba5abbaa497a8a8998a99ca8db9ab8b78e888d8698b9a99b93a7874
col04:   a675688b495bad76a7c67788a78ba48c6abba89ebb7bb78dc686a99d7c96b99d999b979bb9668a86
col05:   5885a932987878c86887a7ba68898578d9c79ac5abda4b97b967c87aea89a8798959799779777893
col06:   7796698c5b767b994b787caad8bbdab699a89776888a6c9777c5babaa9ccbc8aba9a5a9998848678
col07:   8667a777c56986a9d769aab8868a97cd87a69ba97a997a9daaa9ccb898c5fabb8677848a9a8979a5
col08:   464569699c86bb99966a798a55885aba8b9af9bb9778899b6874aad995bb8b889aa7b997aa45586a
col09:   a7954873abb6579a825688b36bdcabc96f878aba989baca89ba8acb66adbbbc9b8b8676b9c9b9898
col10:   47673574746748885988779697597bc894abbaaa799999988889bacba9a59834d85a9a7758c8c335
col11:   475888899877c967ab7a69bbb77c9965bb8c95cc89bccccda759a69b9daaaadeb96aaa797b8b88ae
col12:   5343798a6b878758576897aad8b3c6b7a86bb78aca97787dcb9989cc88879b95a59863ca79584aa6
col13:   4b846869a758663759c85a9baeaa879c8e68c695bdfc9c4cd779ab989aaa99858a7c7a997b8a657a
col14:   a667692528aa867a8b463c587b8798bb879adda6b998b992b66849a7d7c95a7cb796769a698a8674
col15:   714464488554d957a49a8c93c775a9889a88a678ba79cabcad97b768a89878768596b8a888a99774
col16:   798a79cb696a587697799c9887a6598c8ca8688b8899c4b79bb9addb8c9687bb7b6b786a6c885986
col17:   4554a46829594a75785ab876795aa88ab8867a7676aa99858cbb987a778b979abd888aca98686789
col18:   565978d7976768687a647a885752b7c5878abab46ba68aaa9ad8c9ab5cabacdea9c467c7979278a6
col19:   95865858666458b7a8668b6988999b97979798898b8bbb867a8b9ca89a9ea98a989d9ba588a77597
col20:   768536788a62888915968a8a9886896bc89c8a888889aab7c8c9bab8ba7599b35c58da4d87a7b885
col21:   4755687898888b987784887887789bab65a5ba977cb9a7bcababa35d7cb9a7fcab68d9d9ca7c9798
col22:   4534ab69784a883768486785ab97d98776b56bcb98b5b9dcab998a8bbbbd87cc7ac6a995d9879791
col23:   68349978a795ad55ba787a87aab9995d6a9629679caaa7aa9b6898ba9a967c8ac9a88968a7b96ca8
col24:   732825898985856496787a6cd5abb996ac99baada8caac698788a5baa6bc86c6ba4796aaa55a9a64
col25:   257347764ba99588a97dd558879cb78b99a99987b7d7adb9a8f9caeac8b9a87ab8b79cb7a7c78769
col26:   5ba8869d5799ab9be97c89768d9abcdccb8aab899bb9accd8b96cb9d89aaa98db8769adcfb9a8a69
col27:   c56588967aba9aadcb686a9b98abda7afb8a8bda6f78dc9a99b9cf6db88abcdba94cb8685cb9abc6
col28:   866abc8888ca7873a8c4c7cb9ed89e9cd8badbdb58b97ebab898b8a8ccd9da9cb8b9f7abac799aa8
col29:   9298c87a4574dc58968869aa99aab789edcab9b69dbcacbca9bcfbdbbe99ccb7cd7c786a7fbbabc9
col30:   64889a955669caa9e8987b96baa8a7ac9badacb9cbcbdcb6abd8b9acabbbbb7baeaab8aa9b9a8a87
col31:   b78b58969675aa89b879cacabbc9a79adf9bcaabdabba8abc8acbfcbd8dedda89bb3ca896aa9c8c8
col32:   9977aa59a48fbdcac7c7c98c796a9a8adac9aadea8d9ba8aadc5ec9bbb9f8eb899acb99aca7ae4db
col33:   97989698ab8a8925c7bab87bb99989ad7be9badbbda99bbab9bcb78cdcccccccbcacabb9efd99ab7
col34:   735677eaab8c998799a596aab9dbd9d9bb8ca88989cf8ddbfb99b8f9fdd9acddcb9888bbcb6f7bb7
col35:   6987779a78bd8c6bec9887ad9d9ac689eab7ba8ac9eebadacbbfdbbcdfcdaca7acbba5eab7987a8a
col36:   3aa8799a67e789bca86dbe8cdabc7abd7caba9b99bcc9dacbc9d8b97c88efba78cca7ca9dada96a4
col37:   85b78ab7cab6997ab99998aa57adcba89b8b7cdccc9bacba9acb9d7badbeeebbd89c69bdbd9c8bb5
col38:   867ab9a86d99ada978e9acca3acd7989ba899dcfbcfbcdbecaceacfcddabebdbcbe8b9eb9b8aeccb
col39:   9856b9c8da5a8b798a99dacc99d7caceda8cdd8ccccbcbc7ecaeb9bccabcbace997ce88ccdbbdc97
col40:   c896cda9ba88bda7aaa6acb9d9faca6bdbabbaa9ddbcc9c9a9ccdaffbbcabacbf9dd96aaccb95db8
col41:   a8ab9788bb87bbdc977bbaaaa9b99abdd8bab9bbfac9c9aaf9aaacc8cbbedddabcab869b9988bbba
col42:   88a55d9775b88aa9dad897b9abbc999b99cbfcbdbcbcadcbc9a8c8ad8dbceadcbad9cbbac95bbb8c
col43:   bfb7ca998aabb99dba89ba88cac979bc9abeafb8cbebaeaa6ceecccdbcdbbc7cfa7aea99c8ed8caa
col44:   98a8abbaad677b7df8cbb8dcae97cb9bb9dcaedbabcaaf99ac7dc9c9b7bcfad9cbcaf8aefedd9a9c
col45:   895c9999bea7986bacabb5c67baadcacbeaae9aabed9bfcaadafbada99bbdbab987cfdbf9ba9aa88
col46:   cb99b9ba8ba7a9abbbadb89cfabea99888fccac8dcba9da7bcbdacdecb69a8eac7e1b9a7cc7978bd
col47:   89989a99baeea9a998adcda8deb9acbb8885d88ddccbdfb9adeac9d689e9afcaba49aaf6adbcbca7
col48:   b87794bad7ca6c9a79a8db9acc89ca89acabccabab8a58bddbcbaafac99addbca8daccabdc99aada
col49:   888a9b696989b9bb896989bbcbdddabfbadabdc8bab8d78dcebbccbafabdad9bba869aabacc6baca
col50:   6baac6ca8a8987c86bb967a78bb8dbc9debbb6caea9aeabd6bbcdb9ac8cbc8dbabab5beaebac9ca7
col51:   7c57965a856583b9a8b75786a9aba8aa979a9a5c98aa78979ca9d476b979677bac98bacad86879ab
ROC:	 BPix_BmI_SEC5_LYR2_LDR8F_MOD1_ROC3
col00:   633778766771774a8532577145829567424968757a46654a6342373949955465369166987a763174
col01:   8736887567a56577863568997762c8a7c297698b53a75968b96c67a6794994d7aa75599867587445
col02:   c59a88679994a87665679b76ce79967687668b68957a982ca7898ba9d657b8368389777828857779
col03:   76648278ca579477b69898b39869a76767ad9b89c958b9c75775b68ca877c84863ac95a756d97766
col04:   953668681685a868a918885959486798778a779989668bd685a7a6ba658387b7796ac7689835a696
col05:   348568a961764189d569b6a866748ac986994889957757aa788975879996529c57a8ca76984a9646
col06:   94469b893787655155a947658a5599b96b8b734a9ba57a8bc56b7499a887a35675abb77849485745
col07:   9297979666a516c9ab777a9559bd88baddc99c5a8a9ac5bd8b7c9568a898ab4478debc677968896a
col08:   5362b27665a848548699c9a8a667c58b679aaa747bb5c867679da6e6948176848be6698a8a6698d2
col09:   85467775b8a3775984b39accb6a7ba89e9d877979a497b78b7aa97486997ab64ec9c7b49bb76a686
col10:   b486986868877967a6a653ab87a7a77989998738a769a96599abbc98c77859a77199b69ad487a354
col11:   3581688284667677a18897a97a5578a7a95976879894c589ab5764d9a8997a7b58ba6988562b4656
col12:   27b877a96557878757a87186ba886878975ab86c885777879aa7b766bb65a4a686a8747996875948
col13:   3977a494654bb87392bb99c6a489dab88ca6a87688ad96a65689c68a9878799dbc88968873475897
col14:   47847aa866c57a71a977878789bb614aba884ac797896887aa8bc6c89a5898c387bb98987a937c1b
col15:   34568779a65979c4a667a5ab7b967a95a658795ca7997889cbc7b6aab7c98497a88bdbc393689ca9
col16:   947867956d6997478b555bb66397c29b7aa9897976d989cb7a9894988ab7aa885587979a4aa88771
col17:   9664645b879c79b7767aa99997949885b9a7686a898a89bb57c7a6762586b8b7a5b98ba6ba899659
col18:   8844456877679596949668bb545a89a5789767998c789a987c98a6b888a978ad9577c5a55499a963
col19:   67b554948999ba358697b99a9ba79989d86b8a78c976b7797cac97d98997998cabac7a88bab8a5bd
col20:   72b7965556a96a366596a5a8b96899baa7999a4d8aac6a9b978978caa6ac6b896e5c8686aa8ab977
col21:   1b685bc53987586666865b8579718589c9888985dc79ad8a5decb79a67d5a7b868ea76a98bbaa889
col22:   639a64b89765b9aa998a898685a9669a4b959c64a98979ca99b6787a7a69a9974ba86966878a5a94
col23:   96576556a58355b7884987ab6a5aac79aaaacb769bb798787687ab6abaca8547537babaa9d759b99
col24:   75a7957766c686698a7cb64a9aa39a76bb8a88b767bab89aca98b7ee55c959a9aa8797c6abaab657
col25:   235377b8589887dd56788c6969978669c8a8a79bd9aabf7e68ab999997edca885995cf7ab99999c3
col26:   7766b637686c7b9bc3a79b46b87aa9998aca975b88867aaabccac9dac9caccb89c99ada9adbac99a
col27:   9987ab47b8598987669b698996ab8999cbafbd8f78abeb6eaa96d7a8c778c9eadb67bd8bc8998a9b
col28:   a8678aa87777aaeb956b8aaaa9ae986887757aaee6ebb88b999dcecbc78c9ab969abc8b8a8988769
col29:   889cbc969958899ca6a9b8ba98bafae9bbbaf8dcb9c8ead8afd9bb7dcc8a7babb8dab96e8ca9c995
col30:   a986bcdb8c88ab9a8b9f88c8c98cda5ab9a8dd9bcaabc9c8bfec9c6beaca7b9d7db896c9a769ba95
col31:   8886699a977e8dd7a9bc7db7bebcbfb9899ac8ccdc88acffdaacb8cccbfcd9cccb9ecc9ddaa8cd87
col32:   37ab8ca898eb7aec88ab997ddbe9dbbcbcadbc9dcabbcaab9bc69c79d8cb9a9dada9ab9eccbfb98f
col33:   985aa78a9a9babb8cb9bbaadebc9bbb7dd8bdccf9799dc8eba97d7cab79cbe9ca9cda99caaab9b66
col34:   96a998b8aa8c9bc6ccaa7a998bdbbcd7dabcecbdeb8898ccf88dbeadb88be7c9e8ae98c9daccdb96
col35:   a6bc9a75a9ccd88bbc7aaebabbfb7fd887ccbb7cad9b8cbeccaccba5cc8dab6cbcbd9caaeaca9cb8
col36:   788d3775cba98ab899cb8acbabcada7aafcaa8deabc7ea8a9c9cca99ccadaccc99aace9cbc8ababc
col37:   a84dbaa9be99aa479e78dbfd9fccf9fec8edfbfbb9dfccacbbbb9febbacccfbcf6aecdccabdb9ab8
col38:   9c9bbcb7adbf6abbcafacdbccbdedcccdddccd9efadab6cca9ccddeeebacbbcda9aead9ccbacbec6
col39:   98789bba6bdab8a97bcbe4fde78d6efbcfa9fec99bca9ccbaae8ce9a8accabd9ddcd9c5ba8fd69ad
col40:   8aabc88acabd9bb999b9dbb8e9ca9b8c76acda9dac88cdbcdcc8bdebb6f8b9fc9cfabbd9e9b9b8ab
col41:   b7a6a7dccdeb5be7beaddacfadfcef9eccdbd8aaeeacbcc8c8dabeadbdafdd8edaadbfadb6cadc9a
col42:   8b98aeb8bb99dccbc8c99bb8e8adcbf9adac8b8bb9addfcdbeeceeab93bc9aa9aeabebcacbbd8cfd
col43:   daadddcbdcb9aeddbbbacbcac8efeaff9cfccbbbfccbabbadceecbbdd7abbeadefdaccbccbfac9bc
col44:   bbad8acba8cf9c9b66bafc9cbcc8aeecffbcdbbacbcbcaeeeccbacc9fd96cec8edd9ddaabddebcbd
col45:   8b8eb9d8bebacddbd9dacdabdb99adaaedbcbb8cbafedb99dceedbdaedaab97caeb7fafade4cda6b
col46:   879baa9d8bafbeeec8dc9ddaacb9a8ccbcb9cedcdfcd6f79cede7cddcbaceed7bcfbab9a9cc9acab
col47:   88b88c8e79cadc88ad9bedbbacbaaadab8afffcbaafadacfdadc9bfdadcb67cbdfcdbb89bdc7dc86
col48:   4abbab59bbdaaa89bc8ccabaddfdeb9fce6edccabbce8eda98bbecbd9acba9dadbcbedaeaef59bec
col49:   9c9eccbdd9bbbabdfdaddac9cf8baebdfcccbbbebbbaadbbdbacebaede5ad8cecddea7cdca8baccd
col50:   9d8bbcfa8adeaec85aa9bad9bcaabca9cbffabbabadbdeedf8dcabe9facdbaddb9bfbdcaaeca9db9
col51:   6aa7f9b9aaa98aa98da8c8d8a8edbbbc9b5cbab88bb9ab9ab9abc8dadb79a7bb95c4abaca68f7a88
ROC:	 BPix_BmI_SEC5_LYR2_LDR8F_MOD1_ROC4
col00:   2127638984913782698636664747248627498665975276956574687a875565855f77689869839848
col01:   13535596984364457626988859767b89aaa9895c5887869b8888578c539697686985569c8aa6a989
col02:   565199729998481258979367a7949a7778aa74a8995867483999ca88aa87a7a5689986c28487bc78
col03:   1244646229a5a7b6367678999a6a8837a8887b8a8569896c58c7aa9665b6b878558bb5a89586a691
col04:   985358965884765884776565a687a888994689789466856aa99877477786a99a76854a8a85777678
col05:   7536a64863a568788553b469c478bab8979734c486699c977886769ab7a79656a8bc35586497b3e5
col06:   5888849665a667593988467a3984ac53aa9a9567796a7a69b3d788775789a868c97b75a695a683ad
col07:   65873778779a8575769446b887bb5ab8778ab999a9a66899859968b7a7a86898abad8b778b7a8a67
col08:   456667465274a9944873a8369899ba8a9ac68a9558977c6997797a9b7a978aab6858aa9a89a789c4
col09:   36666839988375a446589395a75aa778c776c69a8959a7a85646a97a7a88b76964e66655c5ad9779
col10:   a499a673886999484c589787748577979a4a85a6565a588aa47999a7a6975597bbc648889986a963
col11:   65496656833896a648c57848a66568b7a6a7867686a935b7b9a5897bccb597586957db556a7a99a5
col12:   8574c376879967598ab87975886a576492798c6cd3658a97a889b99b3c57b998b79a979bb468ba48
col13:   3484756857685686b6769a91864599468a979b9db88a39a96986c7886b6858aa9987da97a3676b96
col14:   2859a344a778d59a8c489ac39ab5658ac87999a98a979aa8839ad8c3668789ab98b83735d7798768
col15:   4626787a5977943958959a7ab66aa898666a79867968a6b9866ab667a9aa79ba8577e98a67667799
col16:   a526a747655a9478777a9989697b77ab9976b767967998ba57d89886a66aabd987966695a6757987
col17:   5962849788b358b6c4a88a659aa9a893999acc95996769749798868b8a79da8769b4869897c85585
col18:   7675817758179b57759686a95ba857a8b68896887a87d6a2a89968c88c5b6aaab4a98b867c979965
col19:   6655578727da7856a7a89858677969b9998cd99777aaab8a8baba9999a9968b6b9baa976985e7c96
col20:   71525795b7a75795c95a6486a8e686777648af88ca8979aa77c83a757578998f9595677b99636618
col21:   42a448589898cb8658657b7979979567577a7bc88a84a6985d68b7ea8a86177acb57d694b88997ae
col22:   83778b55478389a8a699989987b987b4887ab6a485b847a8686776b888a997b7aa798ab779569792
col23:   846a5332547a677749475696b679669d766a7978aa7697866b56488daa2a8687a85ca68a8a768571
col24:   789876775686568869a987a975889a6756a6c7aca968b6b89b7da997a5567a989aa698cb49bab7a6
col25:   543677779584b598664abcaba69859c869687b6eb9988b79a78b5787999b79769988bd99ac588c69
col26:   a56598a957c865898996a9c86ef988eab98a9a99a6b8a87aa98b88cea8ba7e88dac7fdcbcba8b6a9
col27:   748559959869a77897bda95cbb7b5b5a9b4bd9a78abbd9687bc8c8a98ae6eb89e7cad9c88c98c99b
col28:   8577aa8b4b6957857473aa8a8babc8bba9bcc7a86967c7a78ba99caac98a9a9696be77b97c989ca8
col29:   64c8ca8a3764aab87b99c7a8699a898885cbca787eafba8a99c8b5b9c7ba9dcceacabcab9ad8aa88
col30:   75b75c76a6dca98738accbd89c889cba7a66999ac68cebba8a6acb9a48999a9fdab65728b8876ba4
col31:   6a9a9a8769bbabe99cb7c6b5bbcc9adc9c5cabc6d6d7edcdb6bae9beb8d9ecb5bb9acaea9c9b8cac
col32:   8899796dc8b8daba9bdb7abc8fddbd98bbbab978ba979cba8db5a6bc78abacd9caccab9a99bccbaa
col33:   a76d9e789d68a88abbad6bacbb9abaad8fea9a6afccb7a79ac6a78a9aaa8ac97c9bbbd8ccc9dac99
col34:   9aa9895aa98a6baebaea77bc9bbaa8e8be877a6cb9fd8cbbcbb96bdfbccca7c8afd9d9bcabedbca9
col35:   c789b997d4c899a79a4c6abaabbcebb8bccdccfd7dd9cb7d7bd7a7bacbacabbcc6aaded9d7aaddcb
col36:   ab78c8d79a7ba9a9bac9a8f9bb59aab9aad8cdaaa9b89998bcce9bcebfaecaaabeecad979ababcc5
col37:   6978c988b5a9a4ad9b8a8956eaf9daba8d99dbdcc96cbdecbaabbdcad98accab9abc98eedeebe89d
col38:   78b5a9cac7aab999abbbc9a8bd7abdbba8edbcec9aaca7bb7d787dcaabbe9ecdcaddaddeab8ff8c4
col39:   586b6768989968ba89cc6cb6988aa7a8b8babbfecbab879ccaabdbf978ccfebca8da9bfcde9898bb
col40:   799a9c9bd8986a9acabeadba9abdbca8bb8bbbcf9fbbbdbaeb86ead7dfa7dbf9aa9be9cbd97cdacb
col41:   ca999b8a9dc987a8c899cf9cad8edabbabeb9d9abcdbeccdbc88a9aaac9bd9cbbcdd9bbdcbaaedac
col42:   97ac97a9a9aa999c886ea8ae7dabca78bacca9bac6ba9beb78ccbcc6dbcfbbabbabbaa8dadadec8b
col43:   b68dbabcbc9bd8aa9afb9cabd8bb9edb9bfbdfddfb98cddbbdcacadeffeefadded7dbbeccaaeaee7
col44:   78587b98ea8b998bb79bf7eb78a9decd8bbccfce9da9ebacbca9cacefaaaffd9bcbeaf9bbacebbb5
col45:   67b9a7a9acacc97bbbddc8eb8d9adbbcab778dbbad9cfb98af9cedaabfeacabbab9bfa8f8eda8ecb
col46:   6978b97bb9a954a9eab899bdfdbd8bf779ddddbebcb9d7badadcab8bb6aacdac8d9bbcca7c98cb69
col47:   8a745b7c7a879bc89b8bd9adba9cad99cdcbebddcddeebabcccb8b99abecec98dcc6a9baeaadbbd8
col48:   d789f89dbaba8caa9cbdbdcd9eb99bbdcfbabdeabd8b9bdaac78cbcddbaaf9dedbaf9bcacaaff7de
col49:   a999b978cad889acdb7aba96cb9b9b7c76bdc9dbbbfa9afbcafdccdedabc9ca97daf9dfabadacafc
col50:   778a884b8e8acecac68ba9898ddfdbbbbecfbafddc999eaca898b9bad9c8bccccdda9bb9c9b958db
col51:   87857889a9babb55a8a78dab9b8aaa79bd97ba79f5989ac9a89c6a89db9ed9d88ba58b7cadbb9999
ROC:	 BPix_BmI_SEC5_LYR2_LDR8F_MOD1_ROC5
col00:   5731125468727bb755b6785574624a589c38b57879983a868a9aa77ad8848a88948777865643a615
col01:   8a5857ab7ababba97a79aca778da57a6ba57a9c78cb86aba8d8a8ad68b7a888a778a89988a2bca49
col02:   7163b97678c7a876979b968785b9e85846b8969a95688b5a6aa79487b97985579997667b7c538994
col03:   683b4758946688aa998a97b9895bdb6c888689cbcaa96e8e99b6a78a9988cc7486b777789599b976
col04:   a6799ca876c995a79b8d91a9a89aa687a9b69bbaad94998aa6a8bba7aa99c9aaa695c67539549366
col05:   443786a29d78bc4a65987949a99b988cb7c799b9ba6b8bba7c858a998b9cbb775468b5a687967a54
col06:   461765a784a7a689843645b98b496cd9bcc8ba97ac88988887748d7c5a89778aa9b52897768ba863
col07:   5658b879aa497aa819ad8b9aa8da7bba899a98ba9efd879c8c4b6a8ac8a965789b6aa5579966b573
col08:   836476859588a4699c85c78a4a77b89989858b788d7bb99ab96a689879c8a5b29787b86db3ab4869
col09:   8a875a9b9d877caaa69a9976ba999aaa77a86ab88ac9a8c5c4ab9b7a9dcb9dc96c777679889aa7a8
col10:   d5987789989b95a8495aa7e79c54465a7cbba9b768ba9c5855c6a94ad69dc79999ab765b68a49789
col11:   78788a67a569782a78888a8859a7aac779a8b8b5adb99a8987ad88ab88a97a96b6566cb85a678aa7
col12:   a8ab68765685567ba9a68a88cb4a9a7969a9886e7d9c998ab9768ac77798cd5ba695c88a785c9a68
col13:   768968996956b98aa88a9a7da967999c8889a8cdc8bab9789ba9bbb7a8ba699b9be668a888c586a8
col14:   57a38898a79b89d66ab97d5b9ca9a899cb9aa6abaa957c9ba7ab769bdd786c97897b86a5ac88a866
col15:   559965a688476a1675a8988a6a6bbacc899daabb8a9b9ab3a978b8b49c688b8978859ac992793879
col16:   49876a7b8a788a7689ac889b59d89bb9b9bb3a7a59da99998ca88e68abb578977b9c57b48a6a5779
col17:   6636884757584c78581b68968f7aa97987af3ba97c8777ac8bb28d8f8a846ba67a4cb987d7a8a966
col18:   5656696995aa9666855a67a779997d9b95a5b6999a9a9668676cba95b8387a9885956777458a8637
col19:   769a76685a7b7874857b9d979979aac79ea9887aab78acccc994cbbad87acc4a68687dc8c948b7ab
col20:   79796b38a968b79b85675888a8fad6c8cd589c9a88789eb6679e79bb7bb6857d9abac56767895949
col21:   71698a386a5798a688ab688cd9e978c9575a9b679947787ab698aa99ac9bbb889d87a7a9bbcd76a9
col22:   78136839356886478a8ca8899a88ab9c8a997ebb9898aa68c98abbbaca67a6da779348b895555997
col23:   566961c58999549a796b958b98696677a59648c8c5b8ac6ab8aa7b98a665ba2b3c7a8767a9756996
col24:   8a68989b524779a7289bc9b66988989676776b898abaaa9f77ad879a8695bab89a76889b89a996b4
col25:   986a6a7a5a99588ca9677bc95d8c6b77bccb69ab87f8787d76998cad7edad986696989a97b97aaa7
col26:   c4c79c58c4c289d9997867baa986c87da8dbaabc98aabdbbdfbc89c86bacbcaca9ddaab8c5da7b8d
col27:   a97a6aab7998dae7b696d8eca6ac8ca9bb9c5dbba7b9eb8d8a7bae8b98adaa98ac788978c8c8db69
col28:   69975989bca6aa986aada6a9c9cbb8aac9a79eca6c7da8bc88aa99afdbc9b7aba99b8caa97fcb9a8
col29:   ba9aa9abaa8ac998a9bcca9dbcb968cbf6b8876bad6bdcbeca6cb8c9cbacdaa86ca98a7ec77f7a8f
col30:   ad78b988a89cb9ada98987adac999f8acbafbed7ceaadac7bb99caa6afc95cbdd8ecd5a9c78aab89
col31:   6c67478a879ba85abaaaacdc8cdfbbaccdacacddcfb9aadbafac8fccdbddcafae9b9bcaacdcebabb
col32:   a6cb698adc9db7aabac6f6cfaac9b9998a99cdb98fb8ba9c9ebea9b8ceedddd8c9a798aa5afa8ac5
col33:   bbe79c94c9c98bb68ada969a8eacabb9b9fc9b9c9b87ede9ecaaa9bbacadadbeaaeb5cca8bb79998
col34:   d9aab9da6accc897babdca7ceb7cdfd96cb88dfcccdceefabdbac9cbfa9dfbbbc9cde7bab59bbcaa
col35:   aa9aa698a66bbeeb8cfacc67887edda8e9cebdadabefbbcbcabb7bb899c8eaafbc7eec8aaccca6be
col36:   9599ea96a578ab7e97ba9a99cfb99ab89bb88cec9a8fcb9adccea8beabcb88d9af8db6addd68a989
col37:   7b5c97887e77ccacbbfdaa8f9dcdcfebeeccdbcfd9cb9dcaea79bdbcd9fbfbaffa979dcbcbc976ba
col38:   79b9b97dcaa9ecb94fd8ccd8cab9fb8cf9fdbfaeaffdbedfbececf9acfebdd9b7ec7a8c8b5867aac
col39:   9bda66a7babd99c8daa8eb9ecabdeabeff8c898ebccc9acedcabccbcfbcabcedff99aacccabdafb6
col40:   b9e696ac9cabadcaaccf8cdebe8c9efd8ad7cbccedbefcbca6cf8ccceace7dca8ababed9e8ab8696
col41:   99c8bbccfdbba8aac9e8bd8decacffe8dacbfefacccccfed8dcbddcece9ceccb9c8adba9acc9cdfc
col42:   bca789888aac9bbba8b9e8ccafaecbdadccdaafac9adec9ddcbbadb9bb9cdbfbc997adcacadb97bb
col43:   a77b88fdbccb889dbbdbc9aaadccfcbebecbedf9faadfccddbbdebcfeebded8cbfeeb8df8badad9b
col44:   77adacb7cb97a9ab69cdbbddfcac9dee88d9fceec9dd8dfbbbcf9cadcabcbf9cdda7ddcdcccdc7a8
col45:   68e8dbba9d8898ae9c9d778e99bedddddfbfdbb9cdfbaac7afb9fdabefccc9caafa7e8b8c89ce7ca
col46:   a98ca9d98cfcac7a8cbcd8bbbb789fbebbafcccf9ceebcbabcadfefcdffbda8cadc9decbbdaafdea
col47:   dc7aaad8bc9f9b99bebfbbedfe9beecadcabdaafedbffbbdaaccabaefeeebdaacedb6ad859dde7cc
col48:   eb7976eaaacde4abb99ba3ebbb7c9efabf6cddea9dbebdd9fdcbbacbbbfcdebceae9bbbc8bcb8cbd
col49:   9cb9dcbab9bacabefccdda8cceb7cf99daaddbeeaefccccedd9dccf9b7cecfdbdddedf9bbce78bbb
col50:   6cb6adc4cbe9abcd8e9ccdecd9faf99fdcfbdcfbeedaccecefacbebdccfeb9fabda99c8fccdbb78a
col51:   dba7eab8a7e38bcb8aa789bbb98cb79a9b8aaabaaacac9afddbdcecbd869b89b7d89baaa976caa78
ROC:	 BPix_BmI_SEC5_LYR2_LDR8F_MOD1_ROC6
col00:   66a598777a1ab9a76594786557c58ab3c66697a758f8378896a8a18677b5869693467653a53a7756
col01:   8475995898db8588a5aaa89789c6aa7ad9c6d87468cc6a69b99b78abd94c9ab7896a46bb978a6ab7
col02:   756887bdab497b986989759c6bc9a99cb9d69a9cb25a9aa7e7bbeb7a4b46c4d5a898ba88b89bea65
col03:   9b8797ba97987c979aa7598a9ba6868ab76a999ad9b87ac983b6a7fcabc7c99998e6cbb8464682bc
col04:   7c9c7572a98d648bb88ac68c97b96656d989a598c7ba8cbba8d588b87694c6989a7829c97b38785a
col05:   61698a98756975a6768a7b6c9a98bab8ac8767acccb797b8b7caaaa798ab5e99b68648a7e7a8ada7
col06:   a3968669a99d956a58988c86cba3a6acc866cbca4b678e97c9a967746799bb85b886779479947797
col07:   95a7c849976c997ab79a666ba98be996a988dba98ae7ba5bca99986c9999b8b7a4bb6748b889bb36
col08:   63c78685daab49799969b684567847b889c8cbaa597969a999a9ad65697989a97aa8768ab6a83986
col09:   a557b7a7bd8caaa9abc5aa9978e967c87aba7c69ba8acda9bc958b6f938ac8a997a781c6c789d288
col10:   56935889c6d8baa99999c7a99a6aa8ae89bab76a5c87a756a47baa89898969a89a7879c7957b6a99
col11:   5977679e688a957c9a79bfea77b9a8a986adaadb5eb5a99c8857baac77ab658b5b5c5789a6f837bb
col12:   67a7a9769a9aadd4747898bbaa9aca889869c9986889d959b8a78b998b5c66567b5a699874498894
col13:   7b86c6b89579789a49a9b97b8977cabbababacb88bba8aa8a8ca86868d6a99975689a8697b956693
col14:   8a79737a76bb45a67656a987478bbbe4d8b8aba999baa798b8898988c7bb9549aba674927778c859
col15:   84588a8bbb54789cb78a466aaaba87b68cbad7baadbaa79b6bd9a8c9ad799a9896c88a85976ba7b9
col16:   965e8676b9779979bbb8c9bb8d5b65d7777a9c9a8cb7a856b9b78996a75454ac977a99987ca76355
col17:   c677a7887a79f77994ab979966adb9bc56a8dbac99b8877867c88dac6ac9b99ba85b788a858a8668
col18:   7568745c396ce5984a8d789a99cb6cbba5d888c86c6697786c56894a9798a3a69857699886588365
col19:   569c86799899a98d78a966a4969b998f69aca8ab68af9989599c95898879689679689c3a5caaaa54
col20:   4a8847a67637675a989b94a97d86c979abb99d993b89a6ba76896987a89aa496a77987a768a5a494
col21:   7458a997abd8895ab8b8db9a6aea6ab66c9aa9a9bb9b8a8dbceaaaa9bbaa65bcab788aa38a8888a7
col22:   69697c679799baba779ab88e989cbab8d65c87ac78d89697ca95a7779a8699d6b95a8779c6543787
col23:   645399bc6a8a698d7aa9b8a949487aacfa9ac9bb749bd9ad7a7a99cbc4ac959b9a7b9479967686a4
col24:   5386789955c8488868a69688ba5777677998759889c9946aa75dda9babc985b8a696687595668b78
col25:   89897a7a7847a6bb9a9b9ab87a8b968d8bad7987869ba7aecab8458d484b694957d86832adb467b4
col26:   6849b7a6a866ac78aafbda7eadabbaeb8afdb8cbeb89b8ab699e38a99a8ad6e6a49b6b68baba98bb
col27:   a78b9c6ababad6b6cad9c9baccb87abaaa9ccfdc86599eba8997babeb8cfc7b9fcb9987bcaca9ba9
col28:   b986b98daaa8b9b988b5abbabc88d9a9a9b8aba8ece8db99ab7b898aadcac88bcd87ba99ad66b95a
col29:   568c99a89898a6cd998c97bd9aa8dcdac8d9aaacab7c9b99abfcea6b8bdbcbaabc77b4d898cbac76
col30:   b68a9b98b979c8d99ebcd8989ab599ccec9abdd9c6cab777b8aac8cb5dd6998e99e5dbbb95ab3a88
col31:   9969d8ad9aca9bd8bafb7abedbc8c88ccbcfcadbadf98dce9cacfa8adbfcaeca9abd4996a5cfdab8
col32:   a7db9bbacb9589ece7adb9cabdbca7ebacacc9beca7afb6f9a8db8cf999da9ad9a66baebd8c598c6
col33:   bacaba7cbaa99d89a9aa7cf9cfe7cb6ad89bbbdedbdfdcfacaa9c7c8c9dbabe9ac985c7fac9e8989
col34:   ac9a9dada997bcaaead8cbbc9ebf9f8dccb59ea9dd7ea9aad9dc8e7ddbd9c9b9c8eb98eb89e5ebcb
col35:   b759b4a6a7dba689bbcaaabccbcdbddeeacaecbbcdabfcabeb97a7ad7bfcdbe68cbaab7cc9db9dba
col36:   bc9a88bb985abada8cbe6dbcdabe8addacbbb9bdadbd9bb8c9bc9aebcbabebbcbba6b9b9dace9a77
col37:   8c59aed87cb7abbe9bdafe9bf9cfeea8aaaaebabcfacccaaabbaef8cddb98b7aabcaf98bfabd8ebb
col38:   bb9cbb7ed78dbac89d86bbb9bddccfef8dbddacabacbcbeadbbcdd9fdaddcceafc978aa9aeb488cb
col39:   ac8ac7bba7ccdfcccacd9bdb8b5eadaaa9a9fcbedacbccc7a87dbcbd9fbad8dfdaec79a7dbcb9ce8
col40:   bb9ba8d9eb7a948bdcbfcefcadbebbbc9f8ffdfd9abab6ccb9aebaccbdeeda8acaf9897abc999699
col41:   97aa99d9ca98c9e7bcfeccc8dcbcbacca8caacfd9da9d9b9a9aeca9cd9fca8dbbce8ccbcdc88dac4
col42:   bb69bbcb9bb9dcddbe9fddbfbccacbbccaddc5fcfacec9beb9bbeceafbec9fed8fdec7dacd99a9ab
col43:   ba499e8dc9ffbaadcddbac9fbcafdeedbdcecdb9cdbdbab8fecfcb89abdbbbaab98aadeacbdf9bc9
col44:   b9786affdfafcdecd9cdd9dba8acfbbfe9aaefcdad99ebcdc98adaf9daffaec7ccbafbcafecaf89b
col45:   29c6667cdb88fa8d4aca88adcbdddfbbdecdeac7ace9bcbbc9cef88daabbde9ddccd9fbec8dcaceb
col46:   7ac8d788fddb7cdcf9b7b9ce9eccdfad8dbedeb9cd6e89eea78daeabfedcbfeccbeea77989ccf99b
col47:   a9a8dcdedae5a7ebbebacafbddcbeadde9fbdcce9d8ad9abffa7eaaeabcbccada8dbcca9cc9a9eab
col48:   59a4a6aacbccdaacbaaaabceb79bbae6aadf9accdbbebbcbecabe5dcadbaec9babdb7e9ecdca8b76
col49:   7bbc9998bbacf9c89dfadc9aebbdcdd79faa8afcc9bae99dcca9ddeabacfcccabbbc7bc9ede6bd9a
col50:   9288e6bbab79bbcc8da8adea8cddbabbdc9bf8cb95db9ad8fdeabb7da8eaaecbdcdc9c7d8bcec9ca
col51:   a76698a698a896bc998cd7ecda5da988ecb9d63786ba5bae8e8a79dab8b7aabaa79abbd9b877879d
ROC:	 BPix_BmI_SEC5_LYR2_LDR8F_MOD1_ROC7
col00:   657a7643824781ab768aa5729597bbaad69ae4997bd7b985aadb95d9aa9c8637992c57879ba74847
col01:   7853a7ddba8ba7bea87773978d97b9acaabbed7aca867cae75f9bbdcbbd78aaf7c975eb4a6857b89
col02:   848b9eab9aa7bc88e8bd8a7d5be7caba9b9bbbaf9d7bacbc9eaa9a897fdec88cd89ac7bb56ca5b96
col03:   8bb58b8868469aa19aab69c7d78dfac9addaafd96bb78acd9db8a9cbabe79eaac99b767fbbbb4f6a
col04:   a8a89c8996aa69b9ad7acab8ba9b69faabdf8bca8c799cac7c7ae9ada6ab84a9bb8ad7668bbb87e7
col05:   699b87a4bc66798a6a8c6b83a8aacfac7ab99a898ea67a8b8ab88c9ae9dc998889c8ec5dc8975668
col06:   8aa89989aacb987a7b886b8bbc8ac9bb8c7ab78ccd88b89aeba8a7cbfbba7aca977a97ad7a95cb8b
col07:   398897abe99b879aa9a68a7abacac8afb69d9adcbb7b9cdfb9cbca8ecba899889ed998b88a8a5a86
col08:   387567ad6566ab8bb6762b8bdb99c7d8aa9bb7d8cdc65daaaec9a8b8bead9ab9cdacb68bcac566c9
col09:   78a64b9a8d7cbba69daeac8cd9897bae99aaeb8babfcac594f9e9caca99e9967cbc6b8db7b3a698a
col10:   69675998a93989994cda999b9a4e5ac7ac989ae99a999cdd98a7b4a5b8aa8a7a7d98b996c66bcb86
col11:   5946a2ab9eceb9aef66ca9955c8b7c6bda8aeba8a898b679fae78c97bce9aa6cab965967a8a7a7c2
col12:   6aa9b89aa979c9569da6796db989ca999bb9adbcaa99debe9d6b99cc8bdf8a5bb7b68696a9dd9ea9
col13:   9aa78a8b7a957bd6c899b89cc8889a9bbdbb9865ae9bbc99adac7fbb9caf8d9cbb99aa79a76b7964
col14:   8785ba666ac589987a88797ba6cac9a77a9899bcd68b6c9e7da9b8cdca99c8c9bdc4a689927b6b76
col15:   65b566da7bd798776a6358a78b97c8bb7b8bca9888cdaa97dbb7a9abfaba89abf5864599648c7a57
col16:   538a88647ab84978c774786caf8cac8c9b5eb7cb9e9c9aed79b69d79bbb7ba6789935a77baa5ba65
col17:   748689a589b597854849a8dbbbc399b66ea7695ca7a78b79b9889d8f79b8a789ba8ab9698889799a
col18:   9e4a987aa886d76b92679bba9cc9bceabcac8d7dc77bcc7db7cc9d9bd88c99b9afa59ac96c77c947
col19:   6a64eaa8986a857877885aba99aabacaeb9ce89999ba6999aabdcb8dc89d96bb5749bac7675c8db5
col20:   94556c6aba9a7978b979589965bbbc9ad9ad3b8bd8bbda99a8ccb6a9bbc6a89b89a98c895a88a7a9
col21:   96887a9899e98bba9c6a5a8699b8c8d9a9ac79b8aabaabde9b88a9b7a9db9cacb7775c9a9a6977a7
col22:   65147887777ba9ba59b77844b8ab799b5bc9ca6c8d8fdc88c8a98abe68dcbabe9ccbaa9cd73379b5
col23:   786aa6579485ab78a7a99749877b8988b98aaa5ad99db9bb8b7d7c9aba77adac58a8de932817d5b5
col24:   676593aa657a889395698898ba9ae8d87ab7bb786a7c898c7988cabd897c9685a9667a88a8798854
col25:   5685b887c9aa76daac3c78c8b878cbab4aab76b6a7c8dcbc6a8a8dabea7b8b59ac99b89a9adad477
col26:   ab96b678b59ba9caa9659a9a8bbe8babbbdb8dafc9b6dc88cbcba6d9f8afaba799b9b9d68d878ac8
col27:   596bb88ab6b76aa97dbce7b56a78cbd9bbdfda7ed99decdc97bfada5f9c9bc7bacb98c9b8889a7c6
col28:   694b8c99cad8c7ec9afab8b87be8cfbba9bd9edbc9caebcdb7ccfcaca9cda9d9cac8b9a9c8698879
col29:   565ae69a857b9f9888898ce9d7d7c99bc8598ede9cbaabda97cb8ec9bc9adefb9b869eb79b76cba7
col30:   c88b9cb9687889c9cac9a9d6fccdce7fd9bfbddbcedccf9ddeeafaeccab8ad9da8bac96cbb975e96
col31:   748abad8b9ea89b788ca86aaa8a57a6dcddabb9adbacbccdbaabceb9ce9baccaebabb86aa7cba3b9
col32:   89b7caca7a7cfb8e88cabbebdcb9a7cfbe87cfc9bdadcaeacaa9ddfeccdbc5a9caa6caa8bac69c88
col33:   ec7ba879a8a9e98aadeadbad8ecccbabeab8beb9afbcac7bfbaec9bffdb9ca9cc7b89becca8c7cc9
col34:   9c9869a47cac8bab96ecbcaafcfdeab9aff9fbfc6ee8cda9ecbbeebddc9a6bbd6eaccecfb9ca8aaa
col35:   9acbadd95ccbaac8ddcbcad6cdada8eacadeedc9bfbbfcccbbdcedd8eaf59aca9acfcfbbc9cab956
col36:   a99bc5b6ac9ed5dcd998c997beaea59cbc4ba8b8cbbdfacecaeabadbcecc9b9badcbaa9ddca9ab68
col37:   acaba78b96b7ade9faaaaabcdbafac9bd8cdfcdcccfaadbcebaedb7f9999b8b7acfbbfdec988ca9b
col38:   aaa9a979c99ced8dabbadbeaafdcfcf9fcdecca8cdcccbbbbd9b9befdbfadfdaeecbabbdbbaace79
col39:   daac8da9a9eb8cdcbbbbffbdfbfcbb8beca9ef9abbaaef9fda6caccb9db8efbacabba99c7a98caa9
col40:   aacc998a7af8bbacbcccbb9cbdfbfccdcdcddfbbacccfd9c9ccdcb9bc8cbfff8ccd789cc9bfba9bb
col41:   a5bbbb7cac69ccccb99baaa8eaa9ad9cdc8edc9adedf8e99baccbaaddba9fbb9c9f8e99c97abb898
col42:   9a887da95ca667cbcaecc8acac99ece9edfe88e9dbe9bbfbfdffbbfbba9eccebd9b9cd5cc97ab7c2
col43:   9dabac8cfadfcdb9cbb9b9ca9abaaccacdccdaccbcaf8dacfddffade9ffbbb8adedbb9b9abdbde86
col44:   9aabcaa8bdc9beaed9bdccadb99bc89d9df8ebafdebffcfaeccef9dcddeecbcbcac99ecbbedcbdc8
col45:   a66d9d7bcc9b97fcaddcbef8bbf9beddcf8efdaadcccdbdcacdc8cbc6ccdcfdabf7db5aad9abc789
col46:   8cabec7acaacbb8dc9fcfcaafba9dcbfecbceddbfbd9b9afdae9ccdceccddf76afe6ab6ab8c97dbe
col47:   b86afecbb6eadcdbfbccbbcabbddeaecbf9fcccc96faded7fddcceebabdfbcfdbcfcecdb9bcbafb8
col48:   899accdcf9fbbdbb8d9caa97cffbfe8bcdbbfdedbb9ece5eedaeccabedebfbbaec8fa9b9cbbcacdc
col49:   aaebc989fecacecd9cfcfc9b9cd9bd9feac8afedcaebacbbaab98cfdfabcccbeb78aada9abcab7d5
col50:   bcbcceccd8abcadcba997f8edeeefcddaebced9bdfcdbebbefcdfeecffbecbcb7b6d9abbfd8feed9
col51:   87a768b5a699c88a9a7a799abcd999b7ecbfdd6ddcd88caac84b9b7aad9aa8cdb9aabb8998a9a593
ROC:	 BPix_BmI_SEC5_LYR2_LDR8F_MOD1_ROC8
col00:   1825145533417774552854325345164457586846a7774793675c7a61aa78642855477447258a6364
col01:   364345258679a755374357a546759578787383a799945758a86498598aab9875b95498793b579485
col02:   4795573241284258456447875534689a396978869697978a83c96797d7779a539776788388895294
col03:   6656733a4616756624a65746954256697724b759869b5898465a65466a76591ab8aa199b696b5b4a
col04:   533457313418275327664548a67598855696479889756a9ab8aa5786577995b4679775b9598d5783
col05:   56287465555444588764a48687148727886576847ba756897778799b8799a6897565a9b75b759787
col06:   6715855155224747285654794a8b995986a8685b846ab6569896544bbb9575b8699695a674836879
col07:   6816435334699154455b39d6a38779b56756799a7889b7aca48cab93888b8baa7757e788b8889879
col08:   3835445653435477385867764577767446a97b998a94e87779b988b578a7c99897a7a7789a9b8476
col09:   5524589334888575a74789753ba9896658a98b9938a5799a5acb9a69c692ba599796aa79a796666a
col10:   53431141485764796439736a6575899859997886789858965598b7956897896588a67ba58a645866
col11:   296925272418485857a95877377359866ba85677764866a5555686699769cb38487a755a75888a64
col12:   133176566677555571551845556486a7968a4c97857b987896879719c9686ba97e6b7989968aa583
col13:   317424143667867456769b858779ba87baa59768b786549ca98b56b7965cc696b7b6c98768688758
col14:   38534633344555683856b62377636767745a9a77996c895b89b69658779579a76975789bbc837484
col15:   3975243585a5896846458a6586988987a8b8ac888387a997c93aa6879626ba97779767b57a7a5786
col16:   3272334563767a66553b678728c88adb85c38965799887866669968bab963a89d47b77aba5776c82
col17:   436376587918447777857837546775b7677997557979498a97989b98558a665774a6a582a865b898
col18:   696753171655667874179856963b7935879688b7746669777a7658a7887c8978865663998a768855
col19:   5384328994a657298695947a7a98987a8a6c699759769979b68a4b78abc5b9a589ca8935a97c9742
col20:   213276454337585a67a7867976789656b97869679b78b668b6a7a9865566b986ba68659668a57649
col21:   897774562554767565a3a987779885487699bc687a9ba78998b7744b787bbb49a69987aa9969b759
col22:   23162654147477677787548a6778776875a97799abb57aa3767c7aa79967587b9a789c8869d36777
col23:   15843663365787866b38876785b8c557b5a87b76a987849698b868a88b8aa6899966699767a86766
col24:   65623165547577a87867595815555987d8a9946686845b758998869969a6689bb9ca5c78849a5734
col25:   45287378658a55a67566998549987777a75b687e8ba789b988a6b7d69a5b8897ad99a6b7988999b8
col26:   675699552127989698879acaa89bcaba99b98bb897a895968963ab5c8bdaaa8656b589999778b9a7
col27:   6363a56c654a667b98888c97b896ab8bac8799cbccb9978e98fddab9ccca95bca9a995b7879abac6
col28:   4797458976698bb497569a8a99b8b9aa9bacca7c8ac6bda8bb8bd8b799ed8ab79a98ccad9aa9686a
col29:   5698599663777a5c7d99a98999ab89c89aa88bfbccca99cacc858bd9d8caceb99e3a7888a989b877
col30:   9575a77b755abb769c8ab796bacb89b58d89cb8d6a3b8c9868ac78b78cfbcb7aa89897aac866a9d5
col31:   673999685dac86b9d7bb9eabbab97dcbdc9acdcdd9d9a78a8af7d8bacacceab7b9aba6ecfabebd99
col32:   849545659998b989968a6799a9a6bbaadaaa9de9a989bbbdba5ccb4bba88adcab9ba9db7adacc778
col33:   576a587d88a8696b799d8b797bc9a97dbe88e88b9adbebcbaadcb9c878d6fcc68abeda8b7eaa8abc
col34:   8ab64898c789798dc8cd9b9a87ac999ba99b8c5decaa8ffac9bfabddbfeaaabbbb95b67aac87b78c
col35:   9a77599a7956babba8daccfdc9ae9b9aaaa9b9adacbbcca7ed9c9a5cdbf7bab9f9a9dd6dab888ca5
col36:   9a75977ac75a6979996b7a5caaaa899ce9c9ac8bccb8cc9889ce9da89cac99ca9da7c98788b89bb8
col37:   5588ad859a7a4989c87999cebfaa97aeeac8bbac99e9bbde976bfe9ebdb8ca7bdda9a89acabba9b7
col38:   738569b68aa8dbbd9b7a899aca4aca8dbacbbbbcbc98cba6cad9cbabd9fbecaca9aadcc9b8bc7fab
col39:   777a3786aab967ca89ac89acbbeb8abcd97de9aacbbaabccaabaabdcaaa9b6cedee9adabca8dad98
col40:   7889878ba995aacc779699b6dd48ca9acca9dccd86bceadaeaecdffccdccd9d9e9d8ac7cd9bc989e
col41:   7998696a8acac89dbad897bcbdcbe8e9dbdcc9cffb8ccebbcbcfd9eabca8abbf9aadccca8bd6bac9
col42:   8785998d95a7688caccdc7c9dc9b77cc9ccacacbd68ed99da9c7dbdefbe6c7d9cdbbbbcad9ebdacb
col43:   abd79778ab778ad8ab9ab7a8ae9babacfcbbbbacccce9bedecdeafebfaacdabcbbeb89ebd89d9c8d
col44:   658797db9a8767cbb45bcedceb9ba7dc9ebabca7fddbca9ccaaebc9defdcfcb8b8ecabaccd9f6699
col45:   89b786889ec7a7c6cc9bbe899a9898bf68bddbbdab7a9ad9ecbe9dddddfabcd9a8cabeee9cad8d8d
col46:   9b788b7acfbbab777ebbcbb9c9bcaa8ba7bb8dcccaebdbbeecaefc8befedeccdaad7bad9bbcd94aa
col47:   a9b79ac8bae9eb89caaeada988cdb8abbdafeab9cbbbb9d8ffdaecbdfeebd9cdecdac9bdbaccaadb
col48:   d6988aa8c8dc87988b9a9ba9ab9ddb9aafeebdbfccbbafeaca7dde9bfecbbdbb8abdd8aabdbdebbb
col49:   9b8adddab88bc9dc9a7acad88a9cac8a8fbfdc9e9cdebdacacbaaedccffdefcc7edddeacdbca9b79
col50:   395679b9b8aaea78d9cbba9ad8dbcce9e79bec9be8bea9baccedbb6bccbcbb8cccf89ccedcfab9ac
col51:   64785a99a87889b5c88b6968d7cbd7aba7b8dedb8ececead9eccb99bccba96adc79c97aa8a8c99a7
ROC:	 BPix_BmI_SEC5_LYR2_LDR8F_MOD1_ROC9
col00:   373645375735968935ba9c8b98c3a6949c97577968838a8846857567486c96759759637747495436
col01:   7d689939477a59a6eb5598bbaa79abb67a485ba89db6cd99a8a57b99a9eb38a97cc896ca86982985
col02:   6783486886a589a589bba8b98ba499ba9a988c68ccaa9a8998bf6766698888598879c8465a9c4657
col03:   94a95757a9aa775ac4886ab9a8ca97978b7ce88e6a799c67785baac8d9f68ba8768936aa7b6a9a85
col04:   66748375aba59b578aa6b977585a48d99a9a88876a6ba68586a898c898d67da729969656673a5884
col05:   668964849969978cca57b98c88aabdd6868a75a4ba7b989d6ba65966c68a65ab8377577587644776
col06:   865529983766a657a7b995b6aabda6c4d9698e97ce7a587998a98697bb8a899692866b7a6a81c785
col07:   49564ac85669cbcbca99a8a8daa68696ad98bb9b6cd7b9ab998c8a888b6b8b4c8a7dd8aa675c5597
col08:   8a874978aba89587ac87aa7d9c9b9a9998d68b49aaa5a886bc976a9c9b7d6c89cd9778bc7a697866
col09:   99987c67976a98763eaa7979cf9a89a599b9788bd9bacac8a776a87e9b5c7897a9ba93a799a8b72a
col10:   68669657891e7796c8b6768687b3777e8ab7cc9ab878bbc7a888b676a986ab988ad687898665b885
col11:   8787aa799897896598a788999ad8a9686a86c7bac7c6cbadaac8a7b88984b9a776b958b5a7a96a37
col12:   65965465a79c57888777bda889a89c9789a9aa9a57a7886a88c6c8988ba9978778688a876786a468
col13:   76799888969caa589b7b98587abda6b9bab46b8cdb8ecac78ab89a67a97a87a7c8b87684a959bab3
col14:   66668855a757448e66899bb6dc79689a99cbd9788bbc8cc6899a88b87ac7ab69ac6e95474aa86957
col15:   67754a5798b8979a79689bed895ba99bed77ac8a8e9aab9baa9aa9957986a59d777d998689c66848
col16:   65898873865b665d878896b68a9c769ab5d99a66b68fa99b859ac9bfb98c7a95b88d8569b6a79a65
col17:   8315b767677595958868a7878b7b87988a7989c9988aad968a78889b7b887857d8894658644b7977
col18:   68554a849a56a76698859a8abb9b869caed88969876cbb9a77888a9b78886b676589878547589685
col19:   66a48775b87668a9e875a5a89a69aae9999aa9a7ebba9989c9ab697d67a884aaca88889b87d89758
col20:   7674677a6a5996b689959b888cb789ac8879ba797b4699a9b5e35baa5896989874985c68654767a9
col21:   a67ea674564885b8aa96c95b798ba8ac8c69a579c9c8caa9a5cb9b5aba57cc592776b958866a37c7
col22:   679368976788626a98859579a7b698ac7cb4a99888696a869a799a8bccb996987b879b748787a974
col23:   597b6869869689a8996a68789b886a7677aa9a4a68aba6839c78ba9a6ac89668837b879668945766
col24:   645676775153877999878798b89aa7aa8adba7baab8b6a8a98ac88a96a98b96aa9587c85b5977966
col25:   399741776a5859a6a4b8888ddeb898a9b8beac7cc5596a9b5ba897a5989bb9779a9a975887676ca7
col26:   6867866899a9799ac6c59c99a49eaa7badc8a9aab8bcab8dba9cbca6bdbabaa6c89a7abab7977db9
col27:   8b58c8655879c79bba8497976a8cb8c68caa67fabaaf9cc66ca7ab8cbb8a8eb8d8bcbbabbb968b6a
col28:   59a7798b89aa98888dabaafddcec88c7e688bd88b96caabcc9bccdc9b6db88d7ae7f99a89b8e9db7
col29:   9a59785785a8ca8a7b9ba9d8b8c9989b8edccba9becab9d9bf9a98acdbba75adbbd6c896ab98a79c
col30:   689a77b748b4296bba6acc8beb8aa8ddc89aa9ce8d9ed7abbcf9ae69bbbbbb9bcb7d9bd8b68c9b68
col31:   9ba669d98bfbab9e99bb9dbaeceacd99cdcdbaebaababb6cbec7e5cbac9cfeaacc9d9cdbb858ccca
col32:   7798da974d8d5ab9ba9878aabbadbcb9cbacf9abdad8bc8dc89d99998d8e8deb8c8aa99c9a9d778c
col33:   99cab88a9e7b89c8ab59ac9a9ccabdf9cfbedaac9ca78eea5dcdadaaa7bbccbdacaeaaba96c87a6c
col34:   75978869a9a6c7799b8cc99ebcacdc9cbfafaabeafcb96f9abdb7beeacbc8a99e8dd8baa99b998bb
col35:   d999cc8a989c6bf6a8b999c7dbbbec7ad78cb9dac8ccfccbcb9cbdcbcddabcbbbcd97d68d7aa7aaa
col36:   8959db7cd87c8b88bcaaaa7bbadcb99dceaddcb8cabdbccceccb9fa89c8bdcbb6b8cacbe8f9cd769
col37:   8ab7bbbb99ebe9addac8aacfcbbaabaaaba998b6bc8decdcfae9ddbbcbaede8cebfda789cafbcdaa
col38:   7a9a9a7986999a8ad98a9e6aad8a76e99addcdc9bfaba7a88f8cc8caddfbaccc86bcba99baca99aa
col39:   67aa57897bdbedca89c9d4abbcbc8a8c9ccac9fcbbcbc9a6aecaacd9cbb8bddd7aaecc998ba59bb6
col40:   8ecc88b8bb6dbdbccf9eca8bbabacc98abaad7fddebeba9edb8ddfebeaddadabbcaccbafca7cabc7
col41:   c8cab789b9aa59fdb9bdba9db978dbb9cecfbf9aedadaea7ebd8beedbaababc98dadbfacc7ddbbb7
col42:   5784aa937ab8abdc7dacaab9f8bab5cd7eedd9d9baefdcdfcab9adecd7ca9decadccdba9eb869aea
col43:   9bce6dd7ebd769dda7dbb8b9cc9bdadd9cbfcdccbdbdbddaf9bdbeceedcbaeee9dfdadbdbabbf79c
col44:   87baad85b7789ac5a9bbb8b9d98cc9ddebde9aebd99aaecaeb9adadafd9aecf8acaab9fbdcb84eba
col45:   87ba7eca89af685adbccb9b8abbbbdbcff97dcbfa9aa6acbeedcbcdfe8ab9bcaace88b8aacdbd89d
col46:   9ac97c9c7a79b9bcb47dba8c9dcaadadeaccceaccabd8aeb98bdeff9dacbb7bcbfb7cf8efc8a6c69
col47:   a99b66699aafcaca7a8bebb9bcbe9dccaecdfcfdceddcafdddfb88c9bbddc9a9ffcf4ebdcbac98ba
col48:   88c98596b9799df97deedcaeababdcdccbc9c9beebafeaddcaadafcbececabbaacacb9aebadedaca
col49:   faa778acdc99b8acb8cabe9fdcdfdbbbdcdcbadcddcdbfaffcaebbacacfbcbdedeacc7f9da8dcd98
col50:   baa76aaabb9bccb9ac9eddcbd7cbdf9acbfaed9d9cdbfbbfaeebfec9cabdcecbdccddddba88d68c8
col51:   aa77977a7db98865588888aaac7bcbbdfa99aaecaba87aaaaaca7c7f99ac98b89caab8babb58d9b6
ROC:	 BPix_BmI_SEC5_LYR2_LDR8F_MOD1_ROC10
col00:   1617288675698476654767854a7557635895566164a8355869a756784559a83aa639854954395771
col01:   8586979759778b9647a56a9a479967caba856c7578ac979c339a58a88b96ba5b87acaa98c9467744
col02:   672779a47954c7753897268798687847b7b8797788aaaa96b7497666569559653a6b88766796a968
col03:   15419875636867495777664719786a889d4a75a966cc8baaab88a8e6ca185c77b6c69c49a5696975
col04:   28477635956834867649896a97c96aa89948a9869a9554788757977a58a77a19a8a97766675647a7
col05:   74444386346787a7865a77d788588789875a989a976a8dcc67ca7b79a8898567a7ba588b76568841
col06:   1957479665432579aa7a8b9999877766ca628679c6878598858677649a8b598a977ca598993a3378
col07:   6a7a4986837b6a8677478ab63a78a87aa7ac8898987989c598c768ac5b977b88956ba881ab797955
col08:   88881686896aa785549799778d8ab16767ba899c497d96867989a7a5488a9cc9984598a7658a9887
col09:   51869435a7968a799779a77946846887b7b5c98c98a89b876caa5a7a778aac5a8976697647134a88
col10:   99296959676c79cb786b75857679c6a56a77a8b69858978a8a996759a8c79ccba698ba67a78b8698
col11:   529667888c458bba89aab75c8668a7a56a8b7c78ca69898aa798468977c69678a987478596849555
col12:   2656424668759855498bb6796c5798487cc68557aa685c68a89a373798cb1593cb89777854875577
col13:   783a35996787359a9b6b895b88aa8b8c76c7b59a974c9a798a959a8649b8e69c989477695a686679
col14:   6969757466268875c966a97a8492ac9ab96d565687b8bbc67889ac874799895ac8a5877b67456755
col15:   454986655a775aaaa7999c897b798777687998be49a57bc679ba9586785788a6788a985b97ac8517
col16:   645488446475465a6798578a6977abaa89c9b87688c88996988b65a8868559938ba44983c9b6b3b6
col17:   84a4b56969b662899b7ae3aa5b9bab9778576b3879c796484689a9ac77979ba6398a553da9427767
col18:   8a156438a9776787689b47367995987aa869a9a9a695999367d688b8996a85ac868d8687b57c58a6
col19:   8655a678b9ba47879798696a7957a9999abbb598c98aaa499bcb678c95c888b96d5cbac687a59484
col20:   867786586769978a7a966ba6b9998a9878abc97959b8d579686b988b9578a7a8bad78b9987597749
col21:   75a67988979854978849947886998a95968ccd677c87c67a876d987c546679a9b8976d87783a7399
col22:   a8675595679a87b578a7386d88c989959bca89c9b79a89c6877988a76c994ab97899648785685859
col23:   5977a9bb999e973897a86a989d879668899aacababa87a886ea9867d8ab7d486b8767879f5b386a6
col24:   63994546c86a68868ab78957989a99788babd9cd9b898774789a4b6499a7b7a999b8a87867763866
col25:   96455ba796987a79879a9bc69a9a96b87979a9c4da8b9a9eb9cd9a6d8a88996a7b58b9795b8a56b6
col26:   a78a7aaa8d9a9dcc9daab8c7bdf699ca9cc896db9adbba97bcdedc8989997a7b9aab987e8b9689c5
col27:   bd8ae965c8e6d8e9b6dc9a99b98bccb8ac5eabbadbe89bccdac9cba988ea7e9aa895a6ba9a7799ab
col28:   7a7895aa88a3b59d7bbdbfca9ddadcba8b9cbeb9cdedddcacbc99a8baa7adec997caa9ad68e9b6a7
col29:   87a89aaabeaa9a8a7aada79bca7fd98eebeaacafaa9adbbbc8fdbaaababb8ebe9ca9aaa9b9bb9ac5
col30:   598bcaa97bb96c999eababcaaa9db9cac98bdcfdebbbaae89bbda8adbda4fabb99baac6c8b789667
col31:   a79a9b9ab9ccdcdacca9a8898ecebdbbfad9bacbccbacfbbd9bbaadedcbdcadaa8b5dacdc958aa9a
col32:   9688bbb88b9e7cbcbfeacccaa5bfacbaaddee9aabcbe8a89da9dbcbcccfc9d9b89faa89cda747cc7
col33:   aa8ad7b6a997d99b8ca89aeccbbad99a6fbbbcdaaacb9c98ca99bdbeacdcbda98a9d7acbaa89abba
col34:   885abd8c888aaba8abbeaa9aeaddcaabddececceefdcefaec99dbfabacbdaabb77dbfbbdb99ad867
col35:   88a8c6abbbebdcd8dacecdcc9cffaedbc9ccbbaacadbc9cebeb8abbdb89ccabacbaacb8b8cb8c8bc
col36:   29cad8aaada99dd9eb9e8c9dda9cbacaeedaadc97da9ccceddcba9dbadcfde6dccfaeebaadac9a76
col37:   9b98a699bbbcb9dbcadc9cddaed9fbdfeb88abcacfbdedbabcabbaffacdc99dc7cbcac9cb9bc8989
col38:   a8bdaa7daa8b98ba9fe8bfd9e7badecedcae7ffccaacbbecefbcc9ddaecbbdabfbedeb9c9eb4aba6
col39:   a97beacac798bd8caaaa8a7dabcbdcbccaaadb9cac9ebeb8ec9cba8af898cab99cddf98cbed9b8a9
col40:   dd9b98a887bb8aea9aadcefcb9cfab6ccd9cfdfffbcaffaebdcdeacececcadab9cbdcacdd889ad8a
col41:   cca98bacc8ccbffcb9bcbabefdecd8ecf9bcdccceccfcddfccddbaafbccebe79fcbabaff9bc9bd9a
col42:   999a89bdca6abbabbb5cebadbcbecde9bddacd9bfbfffb8a5b9bacb7cdc8ccacbd8aacaec9ba99ca
col43:   b9bbb88facd8dbadafbfbdfcbfecffbbedfcfadccacfdcfcfddedbfddcfcadaf9acb7be9b9d8b8a9
col44:   abc797caaaddddb9aedfdcbc89aec9fedbcdbcbacbebb9fecfcbcdeceabdddbe8fdcfaade86aee7b
col45:   acfb8ecac7abbf7ca99cedbeccfbdecca9fcceeecacafcdb9db9ad7f9eafaab9bbfcde9bc7caba9b
col46:   aa8dbbaadabbceb7bc8afaccdcdbf9e9d6fdfddeedcebfafeadad9dccfeebde6db9ccebb99aebab9
col47:   add6ebfaecddb9bb9deaafdcbfccddcbdacacecdabbdddc9bed99addbfabbdecdbc9c8db8bab9c98
col48:   8daf8c7c98ccbfbabe9baacbcadcdedfbe9bebefbbbaedadfdfacecf9debbcc7bdcfd98ddabea999
col49:   ccac69fb9ca8c9bebda7bdcccdbdbfadbbbcccfcdbfad8bdaccdacc7ed8eddffceedb9fbecbebdda
col50:   8bcdcc8cfb9cda9ccacbcbfdbdbdcdb98ddfccbd9b9bc9cdffd9ba7edbca8baabade9dbb99acba99
col51:   999a98a98c8eb9a877cbc8a7cbabdbdd7bdcccbbbbbbbab8d97edca8fabb7af9d9b99a9bac897a8d
ROC:	 BPix_BmI_SEC5_LYR2_LDR8F_MOD1_ROC11
col00:   8a58775393874aaa975a776ac768a75b8a8797579a6b5b9ca757c97d8a94498663a4b8c895868437
col01:   68875996426869bc94a76dc4ea759d97c9caba6eccdd9795af9bc87dabecd7e6c98ac93bd688b6b7
col02:   277384288888669a56c979cd53c77a9985b292cb94669f989d88d96cbcbce4497949ac57c7776864
col03:   a5159785964d78bd7adbaa8a99b8bae888a9bbbeaa97d9999c9cdc68a8ba9cab869868eca8656af6
col04:   a6368885576a8674ad8b868b79565888b8aa699c3aaa4b7aacb349bab9acb68e987a8866a484684a
col05:   5b749627855b485865c9a76a3c9acca47c89cc89afc5a7dc9aba78787b9aa8a976658a5ba898799a
col06:   658957ca4a9ba4a95a7899a8a9cc9b9dbabaa68b886569b9ca9daca88976a96ae97959aaca9a379b
col07:   79a67ac9797556cc878c9b95a4c8befc7aadbacb77ab8bcbaabbc8bca9eaab7cac7bbeffa988896b
col08:   9638185787b42a3267ac977b79acaa9b7aa8ecdc9a79acc8c7797c7c984aab9989d7ab8666ab5aa7
col09:   654a49775ade6487698bdb6d977a8e6bbb8a4dbf9846fcbbcbda9bdb9ad9cb9869db65ab7367b7a6
col10:   7a3659a78b967aba5bf689bc8cc8badc73a5bbaecbb3a7899ad79a589e988ca87aba977dbab166d9
col11:   667888796589c768aeb8acaa99a799ab669ad5bbc987eab9b9a6ba8b65dc878798a86c98ba6c8ba7
col12:   56369785985773a8849a5a7c7dd667bb9b7ebb89dcb87c8787b8bba85b98b9838ac75c3c9b88a856
col13:   5467b667886ba89565876afbedac9d7f988b979cc797cd9ba66b588bcacdc9ca9cb7a9867877f9a9
col14:   959359b2968da998854797ba9a7b8ababcebe99987a99c5bc78b899a9b9888f9866a6d957acd6b26
col15:   847c7695d794ac884a68799d8bba7a7f8eba3e8c9b9afa8798b9cc9c8ad47c67898a9c736a943ab6
col16:   88157b6588765776a9b75ac368b999787899bcb9759c89ac4c9e98ac6978baab5564869b8855a663
col17:   54a89696a97d7a9c69a8b9ae8d98b9976b976667a97b678579da46b8bd8a689687ba789599278a8a
col18:   859189996a86b48772588d547b98c85b9cba9b25aa9798ba87779c53a9a8ab77a69884785a957578
col19:   4aebb7488796a77ccc798c6aa97c8bdbaac9b69bd9dcbac8b779d9aba95c979989a87c89d68ca767
col20:   8e8a759793988a88287aac7a669cc4568a68a9aa78997877987897dd67a879869a98bc8798a857a6
col21:   356731b896b876898d9d8aa9ac8b6ba6cc85c7989bb73db969b5a9ca9ac98bac895ad69675b85597
col22:   45775895785868387a75aaaa6aaa6a9a699869ba6665bdaba6b7ba67bd6878a9b96968aa56777974
col23:   3aa789b27a68765786698bb9aba6b8a9a78db8779a9b6a3787d79a87ab7abf6956c497596678c9c6
col24:   367674699d368188a464c976a959a769ab7975b98c775e9a8b6c7ab7ab75999a36a7a76aa9a78b47
col25:   e874958a69659e75b97a964eab99a99e7aa9baaac88ce7cc89babbdbce7b19c37cadaa999896539c
col26:   87b969b7a48974c98b59bbdac8cbcac68ccbe9dc5c8aceadc7ef96c7bacedb799babeacc6975b667
col27:   6784a87aa787897a9b7d68f9bcd89bddbb7aabbbfedc9d8c8bc6cccbdf7b799a729aaa85da9866a7
col28:   fbcab6b6c96aacedd8686abbb7979ead7cbeceb7a8c69bcaccce9eca8aa79c77997979aa8d89a768
col29:   9966a98a8a6aacd97acdda8caccc9abdd7d7ccccabbcebadfaacfb9abbb9addbdaa8a6cc8facda99
col30:   88842869aa99a6f9bcbcaaaaa7ec698a8b9bb9becaabfcd6e889c69dcebd7ab9bbbb74cbb998986b
col31:   9b4c5ea7a6bb7c879cbbfdf9fee9dbc9f9fdddaa9fdbaaa9d9c9ae9d9dbad9aeeddbab7c54a8ca67
col32:   98ab997aefbb678b9baad799b89c99cdfc9a9c9cdfc8dacebafa6eab9cacd9dae9a9aaeedc9ce487
col33:   55b59fbb8d8abbabcad7dd6a8aabdb9ad9dfeadcaf8aabf9f8f98d9bddb9aed798b7dfebbdba6a9b
col34:   998ec7c7aa9baac978f4baaa79bbddbfba8babda888ccbbb9cf7ed97abd88ab8dbaba5a7c79a7faa
col35:   98887b879cc8dcc7d6eddb7b8ecadb89dceaacf79feafbdcdb86af6dbafcabccccbcd97ccc97ca75
col36:   49d42bcbb69a8e99b9ecaa7e99a876bbeaafc8fcc99fba7ddbaefd9aa6cc9fbeaccc76d6be8cc4d7
col37:   d67b49e8dabba589bebcdeabcfedfabdfdb8aacdffa9fc6ffdeebd9cd8c88af7ba697a7db9fefaa7
col38:   9bc8ac8a7b7bd9cccf8dcdfddbcaaebfc9bee8aebb99ddcebfceaba9fdc9bbfc7c6fb5bc697d98bb
col39:   f65b79bbe96ccb9cdada7d8f9aca8ceeec97ccaac9ecd98acceecda7d9facb8bc6abd7dcabbbaaac
col40:   d4c847bb4f4cdc7b8ea7bac98cefdfab9dcaaaa98db9dfcffdbbacddabfcac9faef8aa39a5acbc9a
col41:   7a7aabfcbc99a7ebbbedacfdfeffccaacddbdaadfefefcea7edab9cf9dccbbaefaa9aa88998c89a7
col42:   b8cc8847fc99b9ba7bfd7bb7ddb9edad7cbabeedaabccb9b7bca6ddbaac86fac8eaaad86b9d49979
col43:   e58cbbabcfbaedfbfe9998acaaceabdfcddcccfdbbbaeccfdecc9fecfed8abfffd8b9abdeaaabaac
col44:   a84c97aa88ca89b7db64addebbbebfdcf9aefdbbebdbdbbebf9b7abe7e9db8dbdac8adc858b88aa8
col45:   9a9ec78b97868bdcbd8cacdbb9cde8befa49bacacd6db898ecdbf9fadf7d6bffccb79ef5e877ba79
col46:   95baaa9c7898c8b7b8b99a9eb9ffbce7adcacabcffaa4799cbca9cc8b99baefb6e9d97a8cb97a8a9
col47:   79b6b9b98af9abbccbaafa8bacfbebdccefedccad9dcccda97ffedbf8bbf9cab8b85caceba9aad59
col48:   bae8b6bb6e766c9ce7bea9befcb6adaacddbbbbed8eeabf7dcbdf989bdbebd7cfed9d679ab78a5c8
col49:   5ba7ccbdbcabab7efcbafbcb9fcccbbddfecc9adcff877d9eacccfddd9ffabfaddfdfaa9da9c8ec2
col50:   cd6bdccabd6d7ada8b9bbcacce7ac9baeba9dc9e5eeae89a6aeacbac9bcbb8afd7bcbcc8666caacf
col51:   a7874a7998bacc775688588aabacbd89b8a989cddc673d899c995b99be8999a99c9b867c66454698
ROC:	 BPix_BmI_SEC5_LYR2_LDR8F_MOD1_ROC12
col00:   6389b9975889a7798db5aaab89898989aa9ca6998c84899a8b83a758796bb774b958a96c79a99868
col01:   aae77b9c8a6abbaadb5b6adc9af8b78bd79cda9a6abea8d98879b8a99a9b87bafc9697babaa9ac79
col02:   65a6653a9a9799769a6bb4b7758a86b9ca6b7aa7ab69ce78a3869267db38785ba9a77a6768889a68
col03:   673569b9799988bb889bb7e979cab9c7accba9b97b9ccba869a9bada77a89a6ac7ac8abbd88bb8a8
col04:   a686ad979ac9abeca7c99a8d767cbb9a7a5bab9aaaa959dacb9bdbba9779aa7a7789b9cac9bb9785
col05:   57678698aaa699b5a7698999b578ad9c6aad7c9c989c88baab99a8dbb888ac7988589a9d8a78a849
col06:   999798675998987a65eba5bcabac99c9a5dba7fbc7aa97c794b8ae898984a678a79bb9ab868c86a8
col07:   7a9979ab7adc9b979e9bb9b6bbbddba9b9979cd8b7caa97b8799ebb88a666b897eb9dcb7a87b76a6
col08:   795a66b98755b89aa8c8a987b87dca6bbca8bc886a9aa9b9c8dbe998b85aabbb8689d977a79b8599
col09:   99769937ab9b78bbc99aec6aadaadb99f8a89b8aab97bdd7badba9679cd9967b9dc7b9ca88cc59a8
col10:   96773c987b797a978ebccecbac4abacabbd9aaa69e9b989ab99c79969b7bb48a9b8c8a8999baa877
col11:   7588867b9b8b988a678a9b99a97ac9cc9c8b8ca98b9bb249a69b9887abb9dab588576aa8db9a789a
col12:   758a98a4876aa99c7b786a78589899e797b5aa949ee7d86c98abda7b8aa8e989abc89798ba8bca85
col13:   77a698968bbb79bc788a78c7b39c8e886cb6c6a7ac6aaab7898b69b9bc99b5aaac7a8a64ac7ab7b5
col14:   629969acb78a9795c8b9c76879789dca6ab9ac8889a779c7877ba49c8abbc979cace77d7b9aa8a86
col15:   546888a87779b88a8aa6bd899a68c8b79aacfabdaa8e677b99a8b779686aacda464789b793a9b97a
col16:   965ac7b9a67a89a8bb99de9aac8a5cbba68787da76cc98abd79e95a9b9aca8b7ab89967b4859787b
col17:   276aabcba9999bbc68989bbca997ba898b7b8d7b98da8a5968c7babc99d8eb65878998ca887866a5
col18:   57754368c989867999beaba9a6acecc7e89a96b87c8aa6cb5ea99a7996949895b759c695a857aa89
col19:   5b8b87b677abaa9b76989c99d7c85ea8accaaca578aa8bbc99bec99d8dc787779bb97a8ab77aea89
col20:   57a899b68988899578b8998abacc9acbbdc7898db4799a78797895999c998cc69a849ba85a97a977
col21:   94668765d888997a895c8bbc8ba998f55e68ada9788a87959c7a986b9a8abaa457b8b7a86989765b
col22:   8876c9989bc77bc998889d7897bae96db6a498b996c3a7989989ec28b768e589a77a9a969998b7b3
col23:   9799a79865bae9aa8788b98b989d7eaaa69a385b9789c3676878bdaad6ba99926b88879b58868bb6
col24:   7478b786bacacbc5aa5abb9ba9769d7b9b8a9aacabb8bad9cbc9aaa8ab8d99a5c99d98aa4687ab78
col25:   8c99a75a7876ca9b9a9a896bcabba88bbb7ac99a7888988cfcccc8d79a97b87db77ebcc8949ac887
col26:   b9d57b8898ad9aa7a87cccdc5abcb8bb989a6ccbc6b9bca8ba78b8a8bd8978da9aea99b888db69c7
col27:   a586c4a6a88a9aa87bd8bd9bcab9ecfdfabe6edcaaebcaaafd99ecdc7baab9db97a9dac977ba7a79
col28:   85adaab87acabaaacababeb9e9a6cedc8c9aabccfbbb99aac9a9cabafaabd97989adce87cb898bc7
col29:   c999c99a7daaeeabbac8bcabcbcddecfaae9caa9baa9dabadd9bbbbcbc9ca98ca99b8bcd99ddc9bc
col30:   aab8e87fd9bac9b89acd9b9addceacedad7cacd8c98acca99a9bbbcb8eacedadaccb99cbbaaacc89
col31:   a98bbabcbedddaebb9effcdbccedeaca9cdeaeca9d99ebd8ce9c8ceaf6bbcaaceaaafbabccabdbca
col32:   c999cbacabdbc99acca8adacbbb9bcebedbcdcfc9acbec7dbbce79cbbcdbdb96abadbb8afd9edb8a
col33:   7ccacadccc9cb98babed9cddc4ade97dccbbb89bb5d9cba9c88b9aa9ffbbc8ea87ab8db7af9d9d99
col34:   e8cbaaacbe98ac699dbcafaa9ccbd8bac9de8becbcbc9a98addc9ccb7aacd7edd899cbabaebadbda
col35:   95aa7edabacdbfcbb7ad9cbafabccffccb9ca9e697aaacbdaecdccbfd9dfda9abc9cbbbaefbfcb9b
col36:   9a8c8a5eaeac8ba9edbced9ec9aebceecebd9dbbac8ebebaeaaadadbbacbabb8cdbaaf9ecc9da9d9
col37:   7b7898aad7bbbab7a98ffcac7cedd9dcbeddbb9ffbbabcd9dbcdd9bcbce98ad96e897ca8db9bbcdc
col38:   caab9aac97edbd7eabccae789acdfb8c8cfcdadbedcecfcbbf8cabfdddfbdf9aacebfbbaedbdbadc
col39:   efabdc98abadccaaef8ffc8adaa9e9facbdbdcddceffcfbcab9bbedcfbe9dfcfdccbfb96bba8bdf6
col40:   99dccdcbb8ddbadf9ed9ecebaccaafbbbb9d9db9decea9d8bdb9ead7dbbf78ddaafbdabcbcfacdbb
col41:   8a88ec8ac9babdcbbf7fcbddd7badadacecaddecccef8acefcbde9cb9eeabdf9ccbc9decdfbccb99
col42:   b7a889c8b7b9eadbcbafba87cfbbebacbf99eb9ffcbefbabdbdddfccaedbdca9bdccce9abd7bd9cb
col43:   b9cbcbe7acbbccaf9dabfcfebcccaebbecdcebcffebadcfdecef9ecabcebdbbdf8d9faadeaacec97
col44:   dcdcba7dbcddbfb7c9daeeda98deeebdbdbdfcbdceecfbcbfabdcecbc9ba9eddddecdcacbbcc9ccb
col45:   bb8cea8bc9baecd6abbccfcbecababebacf6fecacfebedd7cbbcbbdac8afbdccc95cfc98edeaaadb
col46:   caba9b9ece9de9c9cbebcefeafa9acdfbfbddb9fbdcaaddbdede8febc98adcbedbd9acccabdbb9ca
col47:   cabd9ce9a9ebbfedecc9dcbdddbcdbfcdcefef8dcefdacdecccdbbecb7fdbae8bed9eef7fadba7ca
col48:   8a8bea9ab88f9cca8d9dceafcddeefbfadedbbfdebedfad9eaf8bbbbbccbccfceaa8bdbafacac9b7
col49:   bdccccbac79ef9ecdacc9cef8e9ebcdcddcbc8cdecefccc9debefacfdccafacfbc8fdad9bebc8cdb
col50:   798bad7ddeacaecbfec9dbdbfebf9dbdcacbcce8ddbfefcadcbbe9e9ddecc89adaebedacdc8cddba
col51:   567db9e88997c69aacdacdadcaca9cb99afacc98dbeababbab8978ad8ddcacabc99aaaa9c7c79787
ROC:	 BPix_BmI_SEC5_LYR2_LDR8F_MOD1_ROC13
col00:   7557eb85b8ab9c9c9a84aad5aaab564ab68c9ab99aab797ab8a8cadb969b9564b467689b58577674
col01:   94987ba8b6599e78c9cc5eb9898b4bdb76abf9a7da9aaa95dbbbab6eb99bbbaaaa8dab797a4a8487
col02:   685d67967b798bd97f2eb7cc7cb8ab989bab9a9b9abbbba99c7ca8987c95bd99c8fe7bb6b76569a9
col03:   8d47998db9d9c9bb97dfb99ab7bdcc9c8998c96baab8b9cb69a8aaac78cbd99bab8cc99b9fbbd996
col04:   ab8bbaf856c8b9b7799c8dd9aa7bc69cbad999998ff96d9aed99a4abc788ecf87a7c6a88898bc894
col05:   b58b9a98aac376898dbcafacaabab7bac55cc7cabacaa9d968c96a6a79e78bfa9a5bdc7b979877bc
col06:   d66ce768688ac7ebd8768c8b8d68d5a99cadbaaa7ae9a7c9aba9e8b977aabbbac98c6869d587454a
col07:   3a9a593b8b88b97d8a69cb7b674ddfc759bbd7ebcaf8cd8a8bbd8bacbcbbc7a9875dcda977978bd6
col08:   87679b7895b96c9a8ad7cbb89a6c6ddaad98a996eb49a9bb89bc87e789aac99c69c49da5894495c6
col09:   9a9d9aa9bd888aaeed9da9ab9a7b985bcbd9acdfbccb58e9a6bc6cc8f9a8fb7cb89bb98a5badcaab
col10:   46579cd8b379ad9e688a99ab7db834db9eaa98d7d678ea78bd69ba8bb97971baab9758e766ab9798
col11:   a7999e579a95a7acc2a9746b5969db95caaa9f56783aa5ccabbcb877a87c98db7597939b8ba9a989
col12:   7c658566b7d7fcb59bb67aec69baac7ac89bcb6a9dcb7a6b9d76e9a9568c7a79ac985b7977cc72b9
col13:   9799958698a799a976978ba9a589a99abd9ec7cab9dbc3648746e6c3ba3aeaa6ead9a7ebc7ba9a95
col14:   5a6693ac5c8a8a68a89876a9dd6badba95b9da75a96a9da97ac7af6184589abaa977799f9aaa47b8
col15:   95938598a867979a6b6a8a89a7698b9dc8c7a8b86858bf796bd8c9dbbccb89a9c85a8a79877a889a
col16:   787944ae6c99b8ab8aeac85a5a58ab99fbacc9dbac86b69ba46aad8aada775b3bb6c998b96b8cb8a
col17:   12a7697ab975a7984ac9c7889b85ba47a87997b988d8bc16a397677697b5cb977caa584858c9ac96
col18:   b6926a76578987a7998f5a98daaab69bcafdb7aa59bac6adcc6b994b8b95cb8a959a8a8aa8769594
col19:   287bc748cbaa588ba66c8b8aa85858bcbae4ca89ab468bacdab94bca79c38b8b98b85d9988d7bba7
col20:   a7481b5bc882abab936a99c4a9767ad6a13df99a86aca7eb498d989a98abaa6d959b4a656d2b8477
col21:   649895576bbe8ba9ac879a6878e777856989eab9dafbbaca9dac9a78f68c998b64ed8d78ca6978f5
col22:   3765b78a487adad7884b879c9bb89acd8ab688ed6e8c9b5a7aa9baa8897b9bc897b5587d55c95678
col23:   9a67787c5a969987bce88d6d8e9bc98f66ca79bbac978ae97b9ab8997889aa88b87aad6ba897a685
col24:   24216a869a86486a9496a99879ccb79689a9d54ea9bd8ab78c6799e888abba976a455c9acc56ac82
col25:   285795978aa896c836b7ba779a6b6ba4785bbaa47fd7e79977b969a8a89c8aaaac76ba96ba9c8ba8
col26:   b59b988dbfeb99bbeaadf6dbba8bd9c8fd9ea989aabdf8baae96efebec99a9dbab7bdcba7fcfa8a4
col27:   757aac788a7c889b987ce9abaeccebbcc9e698abede7c8bccaf8a75ccca9e8b8bc9abdcaa587ccf8
col28:   9aaaa8a9dbbcc8ac9aaac9addaabac898bebdcbacb97998fe8b9cacdced7bd8a89ac98acbaa9aaab
col29:   698ad79dc89ababc5bca7ddae88dfdebcc9bcccbaebba6d9adf9a8a8dccc9c8abb598b8cfa77d7a7
col30:   99cbc4d5a5cbbacbcbddc7689aaa9f99b9d8bbb9e89c9eb9bce79cca6978a9aacbc588a9a8ba88bc
col31:   ab9488bc9dcdc9d8cbbceeb8ceaacac89bac8c9ac8b7aeaabcaddaedb99adbba9ecbcbcf8faafbc9
col32:   9a8cc78aacd9ccaabc89dba86ae5cddcbcbed98cec8cb5da9cbcbcced989daa98acd979edabeabe9
col33:   e988a8dbcaa9bcb5a8ab8aacce6cfb9fddbadbefc57ecbcbbbd8eb9efdabfc8a5bcbada99bda9ad9
col34:   b8aa9abbabadacdc88cee8e8bf4bdaaaabcddcbad8faa8bcefacceacade8aebcaacc6abd97dc56c7
col35:   6978986b9bbc8b78c7e6eaa99dbceeca7aa78c79fcb9b89ad98dbbd9ababbcacdbab8caae99eaca8
col36:   8c8988a889ac9ff9bbcdbbb99ba98dbb99bbabffabdb9aca8f99ddfaafbbcb86cbcab8babb8caac6
col37:   97c7d79bbfa6fbda9fda8aea6a9cbadecc9beb9c9dfac9bfcacadcbcbdeebebacecb7ce8bbafc79a
col38:   da68abaace9c9f9bededada6bfbbdeddcfde7ecebf9d8ca9bb9ddbb99edfdbbabec6a9f9ec8f979c
col39:   dd6adc9aac8a6cec9e9ad9bbbdacad68dbccbcbafd9b6b9ae9ddbadfcf9ac9fafce9abf98c9abb5f
col40:   b3badadb7eadbc78ebf7b8e7cbdcfa68eba6fe9caeadad9fabfdcbb9eeac98b9ddee8cd98a87ac8c
col41:   a399a9a9ddaa9aef3ce68a6aaaf7dbbe9ebedfdabeb99abbaecf9b9cec88b9dfc8a89d3ecbbccaba
col42:   c599e9bab7aecafc7bfacbdeb7bcdcc9e7bbea88a9ebcbadcdbe9babcbebd8cbcaf9c7ca5b957f69
col43:   b8bdd9bdc998dbdae78ea95edb8cc9cb9aac8fb9d77edce8bc97fdeb8cfe9bce99dafdfdd9bbb868
col44:   7d6b9dfebe96ca9b9adaecfdba7e6ed8dedcbadecfcbf9ca8cfdfbaccbdaab78bdabb78aabedfbab
col45:   498bdbc789cbe78dac97dbcaf995ba8bdaaccacbdadcafbb99a9cadeccf69bebbffaec4aaaba85bb
col46:   9a66bca9bdc7aadb79acfbabbbbfb8ba8ea9a9bd9daa9ffbaf6bfd8dfdbe9ddae7ec66dbacfcb8bb
col47:   9ababd99d9aaeee59cbc999c9b9cad94b7ef8eaedadbd9cdbfeeccebfbcbdbefddbcaacbdbcafced
col48:   69699955ffb8a66bdeddaabcdabcabcc7bfcaec5c7acf9bbecb9a9dbb8b6bbaca8daa7ce9bb9e8c9
col49:   869aadac89b8b79dbdc98ec878bdfdabdecd7cf9ba6afdbbdcddcf9aabad898a997ccbd79c99fbaf
col50:   98db989aae9acabb9c88cbcaa8f8bccb789ee898cc9dc8fbdeecdcaeaeadbaad9acafbedda8fabf7
col51:   7894a49a699b996583abcc8489678aa777acc9c8877dab99af35b989aa959aba89bb668a85a588a9
ROC:	 BPix_BmI_SEC5_LYR2_LDR8F_MOD1_ROC14
col00:   1567651296366569348546369a5656956c8769798789479ca2679978a9a74995897c889a45689777
col01:   987765875a395937c88667aac869cb7a88b656a89b69ba9d9586c68aac98bb787998b8979843bb66
col02:   46b3581675757756c374286b2698676ab8c899bc8b7b793c86b87ab77c689968787895b675998997
col03:   4b67495a993461a286b768ca867ca7798a9ac9b6b7bbfa8a9a97c6acb8bc999a9abca7a78aa6acaa
col04:   443369ac88a486979a57789346d7bb9bb8967a8578b6cac69bb759d99ccb56d6878978caa799666a
col05:   1737643736389b8865775779668e896c98daab696d67d879869997ce89da98c9e8b9ab3cb2927998
col06:   64668869a58778b87cba9659769375a4a9a9939d63ac45789cac4b94ba8a6bc4baaa978dc89bba58
col07:   55b3877877668897786a869975b39799786877979799ea89a8a8bba9bcb8cb788a979a899ab8bb89
col08:   59458757233366889588a959a76b9985c9baa837c9a6b89868bca9979b99d84999877769b975864b
col09:   24b68966aa39aab7887788766699aa789fab99bc8bb78989aa698b99eec9ed98c8ab8acbf99cc877
col10:   54c564458679b8b158a63484a67bb849497c98c9cb6b558a57b7ab897b9bccca9b699789996b7998
col11:   a38743781666728d7637799b79a5c9a648d88a46c7bc9babcb6bb5aa8b6dbdea888465aab9a968ca
col12:   67886538ab2678987968965567a83998a89b68779967b6798ba7c99668de99774c88969c89ac94d8
col13:   364693a967c65876489a876567897b865c59ab2686798cbbab96dbacad7cbd9bdabb7cdacb78ab8a
col14:   a775344ba93534989b5966a48766665aaa977b8b8784bc985698c7f49c8da9a99aa89567ac7ab8aa
col15:   66685a88796787488968887ab864c7bb9ac968a69ccaad7c88b689bdbaa8a75aa959d8ccc9c9a5db
col16:   967379957545286696648b577839b997aa89395e979568a75cd9baa66b7ab9bba78ab8bbc687c885
col17:   bb865c749a65a757699488a68889a8b6b8d78788b7b7889dbb368879aba9cc967a9a7a9ba9a98a86
col18:   63774993c5687589da88688298aa6a9a89aaa996dd8a8abbdad8b86aecbaa7c9ab9ca88698986654
col19:   66697a94627a7a898bc79a5877a6aa8994b58ac9a88b9dd7caa9ca7a7c6d988a8aab56aea99ab995
col20:   358669495685646446784686ca6787456c797988a9c9966ab6a88a7b588695f76968b89b98b669c6
col21:   74979a748b48aa7765b79a6aaf969a9a7899abaac9b99b9bc979ca9a7a89ab9c6ba8ccbab85b5975
col22:   655567a83c654657568a973849636777a587cc98b789d8aa8c9aaa9c8cc6c888a6d5974786794e96
col23:   867749474574489a789b59a7a9ba85995776c899c89898797daac5eb8ea9939a966cc5a89679877b
col24:   77a777a636768667969583a847a7a86c786d9aab7ba969bac79b98b6b8ba9a5bba9799a8aa8a7397
col25:   5457884686b688b67999ae5aa87889cac3aa666a9b8be897d9869cadac998ab6b8ca6b7aa968c866
col26:   8a5877b786959ba8c597a6a78beaab9899aa9abbbb7b99cdedbb9bbebcd8b86a8bc99ad9caa8dbdc
col27:   3a468bbc8777977996a5b9aadca8a86eba99ab997bbbae7c9cb8acebc77aceacb9c9dabec9a899b9
col28:   7b7aa79a87c284aa2aa8b78cbad8caeb99b7ebab9cfdcaad7bcccb99eadbccada6fa7ace68abaddf
col29:   996587799784cbf8abaacc97aaca9bca99aaadcffd8b6cb8bbedb8ca7a9abcdbc9e7afe99c8abd8c
col30:   89863776ac96ce989ac97b999a79bbf5a9bacddfdc9bcdb9facc97ddef9bdbbbebaada98db78999d
col31:   7747a89b8b9bba9a7899b7ac99cdddbaa7cc9c8baaa7df8ccdcd8badeffbb8ccfbfcabacdeaa9b59
col32:   687899ac867c7b9ad6ca97f69ab6deb9c96bfcac6abc9dddcbd9e8cacbcdeec6abb6dd9bfabafd99
col33:   a6659c978be779aa9b9adbac979deaecbebdcdddcadcbdedd7febdbcfcdbdeccca9ebccbdcd689ea
col34:   b89b9879b99aa597ab87ac9c8cfdaceaaadecbfcb8e5bcafbfd9dcdedbb8cc99becc9abdea9a698a
col35:   a5c999ab787c9cbbbaabea86bc89d8dca9dfdaad6dd9abab8bebbdebb99f9b8ccbcd9c9bcc9e7d9d
col36:   472886b8788faad7889ccc9c9ad7cc9ccc9dcba9d6acbadcdbeaccccdca8eddaddac7e8dbcabd897
col37:   988d667c5caaba8fdb8e9c8d9bafeeb8bcbdbcddb89bfbaddbdbfc79ebcdeafde98bca8cd8b9bac8
col38:   a8985caaab9bdab9fa99aaadfa98eedcbebabddebccfcdb8fbcbdd9cdeddceedfdae9bdecabab9dc
col39:   c7699c9979b8ab9bacd9a9ced9bdbcfcfa8dcd6fd9adcccaaacdbbc9f9b6bbeccccad9aac9affd99
col40:   77a9dcb7b7bb6879afca9dea99b9cced99cffbcccedadcbdcfd9c9cdf9daeddbecefe8bbaca9dbd9
col41:   b88a9aaba89799ea9de7bbeeaccbbbfcbdedefcdaacece8cfbaecdfcbbedfdfdd9babdfcbdacee79
col42:   79aa58aa79bc7a9ab88aa8b7fbadcdcff5eeafdeaa9ffdefb9ccbefcdaacba9aabedccedcfcdcd9a
col43:   5897d77a797ad9b9aabad9f9ba6aadbdbb6cafbbaec8ceaaedeffcbfffceedeacccebcbdaeee8bfa
col44:   77a95c9dbc87bceb7acc9b7dd9c99df8eefdbfdbfdbfcceffad9dbeaa9adcfebbabdeca97a9bccbd
col45:   b6a5bcaaa8ab69f8aa8edbbbbcbbbedecda9ffcbcebdeeecd9dba8fedfeeacedf8aa8cabbfcefbd9
col46:   8679977bbbab9ccae8aedbd8ddadbffbbcbdaf99fc9fccac8bacebfccbabe9f9dacfedcacb8bcdae
col47:   bc57da8abdbe5ce88bbdc9dca8aeedc9feadedd9ebceeece9ebfafdcfedfdadc9adaadefaccdd8aa
col48:   968a9b9ebbcc9bbdcc56bafcddeacecedd98afcdafee9afd7ebac6deefc8dcfcbf99fceaaaf8b9ad
col49:   8c999979e9e8d9cbcbd8bd9aba9acb8dcfbdbcaefabddeaa9dbbaddefdb8bddcf8eb9bacd7da8bcc
col50:   9b8ca6db758bc8aabed96ccbfdcbebdcbbadcfedfbfefdabbcef9eaaedbdfebeaacdd8bc88eccc8a
col51:   baca99566866b7ba69a998a88756b9bbcae8b67e8aceb89aacaccaccabc8a8dcdbbb87b57fbbbdb8
ROC:	 BPix_BmI_SEC5_LYR2_LDR8F_MOD1_ROC15
col00:   354767656488a657857956455a1a88618a96597454635c9836a8845968d973697689935765567399
col01:   756386c48797b89a8a976b67a5aaa7c696aa78d9a88aab774c7b76784997c66b9b9a7657b3996999
col02:   3847768a99468b95c78c96a8a5ab895a89e859849b88c678b9a859757796b656369a796856987a57
col03:   b6768669a73a89a78a8b8677a899a4795c68bb9c9687aa8bac9aa78c9595b99b85776c97b3795879
col04:   3638665a7689c56595aaa77b968ab7bb85a98786866787b749c885c6c986aba6c57895a8a46b85d6
col05:   78696263aa5a67b5b79caa76ab8b9cb864a76bba628bc9a9769a56cab974996c99d899895898b5a4
col06:   57455796489884aa76697b6baa6b7a7ba7c799a49b7b98bc379aa4c7a766936685667778aba5a455
col07:   3a97969a897a986686b8885aba9d888458ab5a398c3758c48cabb8899aba9b4979aba97cb6984588
col08:   92732547778988878877c779a8678a68438b5658aa79b7788b8ac78b68b7769d997b8b885a985787
col09:   276677a9588935a5b8bfcab886873b5ac9b8d7665ad8988c7879d9788abc77a7badabdca888bb35a
col10:   78888595cada49b5576987eaa8aabd6688696789b68aa7bb79b776776b9b678ad66588ae9a7778a5
col11:   42599657c67777b75b64cb76968547995bc9a28996b879b3988266bb98b8a889887789768a979778
col12:   55a64694987bdda9a45b7ca479958a8a8c5b7b7768867b85c57676a8ab7b578a76aaa9a599888879
col13:   c945768686b58a98896c79688ae97c78cc86abdaab68d76579c7a78788ac7877a8caa9994577b93a
col14:   114695769ac666aa55b6a796c9abaaa69998996b768a676844b7b2a9aabb975a5c97995a88a48b69
col15:   45458389a5868aa7e98b7b8bb66988ddb78958a78987b98a769bbc79b69a7a9a6b8c8a8a8ac7bba3
col16:   a5671886b886785a7aa79ba49b989bbb6866a9848b687694d9a86978b8aa76a887898c789a7686bb
col17:   8668685b787a887bcca597c3b8a897aadf3989449876cb69aa6778cd99da79957766b6c577b88976
col18:   3596778865387756569a7b598a59899aaa99578bbc979788b6bb936a9999995b675ba969b9a87677
col19:   977778a8aa887899e9a6977aad4a49c6aa8ae49a9a59bb85b77b57686cab79ccb9b77889b86acc59
col20:   44664bb898a882898888598b4887c8a8889bc8495958a88aba8abaa92798a8a8a56a9837468a6b78
col21:   7a8899a858aac635d4ab678db979c97ab58b7c9aabbb87a5a4b988a8779695c9d9eaba8a97b81956
col22:   67a657a88767aac7769759da67dba95c688a66988777b87b76a8988c74979b797b3a967a9897b798
col23:   82958365959e77b977874ba8a868a57a7679aa89888b87ba764798a55a7dac78adab9a67dd87cba6
col24:   7575885ac7987972a728a67b5bca96d96a566a89888e78b87a9576a5baa6478a4b5a9977669cb75a
col25:   5c7689479666697997686a77c828bb9bc877ccbb8cb57a8a9bd7bab8daf99b8a9abb6cbc7c9ac978
col26:   996979b99aebaba7bbc7a9ccacdca8bbaab9c7bbcc8c7c9eacb88bbb558cbc9a48998a86778b89bd
col27:   da858a498a94dc96aaa988b6faceceb7bcf9aacadc9b79c5b8b9aac7cae98bdccadb6c9c7affafc8
col28:   7a76a86697c8bc7897cab99eb9b9eb9cba9bd6f99bfcdaddbac59ccca9a8e9d89999b86dbcabcbbb
col29:   3b969dadafacdda89da999baa8bc9dcfdb9ba8bb9aadeada8c7d9bd9886b98badfea78bef8c9fbc8
col30:   697b998ab7866c9ad99b6bbe897d6aebb9dcccbb75cc97ecc99abaceb9ebc9ca88ad89ccecaa4dbb
col31:   7a9aaa9dbc88e89bceebb9d9bbdbebcac7aaccdbcaecb9baccb5dbabccedabfbcbabddcca5acbac9
col32:   acb88794daadcbd6e7aec9dabddaaa9f8e8eecc9cbbcac6badfadcdbcba8bbcd999bdae8a5acbaab
col33:   b799b4dab99ccccba99aaeb9acbbbbba9bebceebb7ee9babbabcdefcbad8dbd8bfae7cb8ddba9a76
col34:   9c899b979597cbeb8cbabdab9dbceccecbeda9ddcbbabaaedbcbdbdbbcfcadaddbbcb7b9acdcc76a
col35:   58baacabd9daca7dccaedda6ccbcbeccbd99dcbab8cba8bcffa9bbdcbdeccf79bdaaac8aacecbcd8
col36:   8bcabbea9a689c9d99eca8b5eaefee7cdaedfbfebabf9cec8dbea7ac9c9cc8bbcaabdadbbb9dc8b7
col37:   9aabe7d9fbcdd8e787faaaaccccced9ea9f9cfdbeac9cfccbfababbfdad9bfcacacea9cabd98c8aa
col38:   89abc5c9bcabafd9afeead9dbdceec8cd8ebefaaabcdfeadedeacbbdcee9fad6e999bb97bfbb99c8
col39:   ce9baecc9a8c77ca7adbcecb9ddcecafbbdccdbefea8fffabcedccadcbeaccafeac99cbbfbd7eec6
col40:   6daaabdffebcc9cdbaa57adaaed9fbdbbcdfbcffdecbeb9cdcdd9cfabac9eddcbef9e8cdd7c9aac9
col41:   9bbf9daaeceaeda99cc9edfd9caba9eccbdaaddffbdfdb99cccbe89bacbabaeceafedcacdccc9c7b
col42:   8aba79ebc9e9cac7dc9cbddaf9badbfbbcaadbbafcabafbd9dd9eeebde7d9ad7eac9cec987bafeac
col43:   eaac6bcffacccbcbbc87b9cbdcadbbcfbeeecbdddffdbedbcdec6ca5adddabba9fbecdbcfebd8edc
col44:   8a69fcabcbbabdbb9db8fbfdcbced76febbbdfccfbbede9cdebbdfa9a6acefffef9bd78daddaeaca
col45:   b67babbcc9aadb9cfc9adbedbbdbccadb97bc8c8ddabbbccbeb9fcb9dfccefbdce99db99cdab9cf9
col46:   87dafc869a99a7abaae98ca69bdacccbfcdefbaa9eaaceccdcbbacdffe5afecbcbcf8cbdcaaafcc9
col47:   bfe9a7c98cafd9bceafccbecd897aacbeff9eac9abbdddffbd9db8ccadeabedcafddf8bbcbaa7dba
col48:   d9b8ecdc8bd98adbabb9b9f8afdbb899afcbcae8abbdec9faaaabbacb8dd8efccd98dbcea7eadbeb
col49:   cadcc999b8ad9eddcc8eadcffba9bba9e8ccc8f98cdc9d7ffe7ebbb8ecbbcaabca9aacc9acbecaba
col50:   d89d7e78fdbabab9cdddcedadbfacbbcbbfebf6ba9cbcbdabedcbde99d9bbbaccbeb9ebabdcddabb
col51:   67a989a7acc9a7699798dadecc6fca87ca97987ecddbccbc8b4698b7dabbadbb76aaeccb89b989ca
