ROC:	 BPix_BpO_SEC5_LYR1_LDR4H_MOD3_ROC4
col00:   5766887585772776774766b9bdb5b77789d8b858ebb58748ebb88d59bb9bed639e49b79667989569
col01:   82b56855bab6a86a79868386b96b9b8b7dcadabdabcc9baecc9cfcdebb9c8a9b9caba7a79774899d
col02:   8697477878758584a88a8897c9b96c8ac4bce87b9bdd58b8dabc5d9d8bc9d76baab5b7b8b98a73c8
col03:   59469937a9348a6a877ba9a697bbddaadbca7bcb8796abeaecbccb88a9cdbc9bf5f9c686aa66a8ab
col04:   154a9797b39b65b8b99c7a89b9d7aca98c87989c96dca88c5c7bcbb67bbbadcba9b7b7888c991b99
col05:   554b7998879bb5acaa8399a9a9b7ad9b9869bd99b7789cbcc8abccea8899ba9bc8ccdabb9395ab9a
col06:   7999ab56a49cb8a6989498bd9976b857889aa9ac9b69c9aca9cb69ddb857aba7daaab7b7ca89a98a
col07:   776589959969b988bb96997bba999b8abca79bfb9a9bbb9cc9b8fc6cd9de9bca9bacd9bb77787895
col08:   955b77c587d567775696b59766bdbba789ab99b8a8afa698a979dac96c679a6ca4c9ba9cb8b9997a
col09:   99788645696a566a88ac98b7a78b9ab8b9a899bb9c789bcadcbdbdc7ccbaba7b8bfdba8b9ab9bae8
col10:   99788456b77a7869a79b67c7baaab5777aa8daabbdcbb78b7abcdab6795b9989d9a98b9acba77849
col11:   5653497789694467b67498bdbcbabb7b7bd62bcbc789c8b97dce9bf9cadca977dac6a95aa5baa79c
col12:   644615688754364b58883aaccb98395a898c8a8a8ca7776875bb7b98ca6788396c548989ab9879a7
col13:   527724aa76ab8748a76588baad5a69accac8a9a89ac8ab8aacd9c9b98dba98ab8c89a6afc6886b8a
col14:   655877557577a6764b7769a6afd65b8c6aac98b89cf9b7abe9adcb8b96c959a8a6a8b6ba4697a6c5
col15:   65793345568997a7767797b7b8ab9cd9adbacb9b99dbdddcacdcab996a89cc7cfba9b66a87aa6bb6
col16:   7854987844856676498398a788b866aaa6aab9aba9bc98ec9a68bd9ab589cacdc8abd7637aa5c689
col17:   9333669735a95345d99aab785babbc9898ba9addb87ca8a9c979cabbb98a9698bca68cca9587888b
col18:   6666258118664b866ba8988a678c79ccae75acaa798dbda85c8c8747c699b77a9f7aa7a85653b9d9
col19:   7676577767699559c9bac6bc8d896aa99c9d778abcb885caadd999aaa89bbdbbc898ba7ac99955aa
col20:   7759d258763685cb67aa7a799766d9b79a88ab8a9dbbd9acc87c79bbb68b799b7976695ca9586689
col21:   3c757676989855e57c7a65668aba8d99aa9a8ab8cea69dcf9bda87a9bddc8c5bb8daba6d9a778c6b
col22:   35433675836caa8b9bbae99b85c9589bbb7cab6bdeb888bccebbafdf86cc997c897b8888aaaa78c7
col23:   6568585878a987799a8a8c6486ab8bab97bc8566aa8ca9ab7abbead8aae9bfdbdbbb898c8baa89b9
col24:   4568459a98caab5887ba949495c74988658799c779c9a8998bcec8b8bfb9c94aa9e9b8b7bba49a77
col25:   656948755a93b8a79a6f88946a8a9babba8cb5dbfacbbbc9acdccb7ce8aa8dbaefd9bda8ad8be86a
col26:   a98879586c768793985a79abd8ac7cd85b9ba8abdbba6cbdaa89bdb9cdbe9eaaaddda99a9a7c785d
col27:   5478899a676799b7c69969b87d98b7becaeaaab9b87dedab6bcbbbad9bbcbcdccabeebb688cab779
col28:   588a7b6bda68cc9a877a9bbb69a88b9b789868a7ca98fcc96ecdbebcebca7b78bbabedcac5aaad79
col29:   ab988687a8cabc79ba499d8b99aa97abaabcca99ba7acb9eacccfadbbdbcdcfbdd9ecdccc9dcddbf
col30:   98b7989a79a69aa78779aba99bbb9aa788ca97ad8aa9bba9c8cbc9ddcb97fecebbdbbbcc9bbbbabc
col31:   a818667c9b96699ca968d89c99cddcad99a9d8eabba9adb9abcd8abc8beabcebdbafdc88accddbab
col32:   996799a587accaad969b7899aeaa958c79bcdcbabacbb8beb8b7cacacfabbc8c8eec8abb5b9aaa9d
col33:   95c754969499ca89a5de9a898bcdcaeeca9aa76bacbbcabcabc7a9c8aaface8f9c8d8bae9cbcfcb7
col34:   286b563a6a3cb8d99cabb6a8fdd7b5adcb7ca69a9c88e7cddb7bddbbabdae97cccadb9ccbbefb88a
col35:   1955b88a7845777b49ea7bcb9a99b99fc9cabcf9eca9ce8ccddca9c9ba8caabbfeaddfebdebbb998
col36:   889989358aac35aab9cb9b77aa8ca88ad98a9c9dbcaea89bdcdddddbdbb7a6c8a8deaadcb9cbccab
col37:   799d7baa87498a677a8be9bba88aaaa799bb66abbbfadcaeddfdcdacababd8bdbbdacded9bbbccec
col38:   78585656cb69988c89a8a9a9597988a9b8bca9cbdbcdec7abaaeadadeba9cbbb889bdccbdcdd9bdd
col39:   97b7987a8cba889acab97d9eb97adcbaad9dbeb9cdd99facceedfbbe9accc9dc89c8cacd98cafdfe
col40:   a259ab77a8ab584c689b9869a989c7a4e7cccceb9cf9acaaebf9ea9bccaddbfebbdbcfed9babf9dc
col41:   9898aba998b8b69ac9bb759e9aaea99b878afdb9dc9aca6ccaeccfdcdcbfad9cd9feffcffcebbddc
col42:   8a79a867c59ba8be5b5a8d889798bcbb67cfababcb86cabaccabbdacebfbca9ccacfdfaa9feebcbe
col43:   86a8c6c8bcbbc95accc89b5c9cb6bda8dafea99babcaacc9acbdc7cfafc8fcbebcafcbfbfbc9dccd
col44:   6a898ba6b7abf7cebad79cbd9cb8aadacb9cebbebcd3faacbbcdded7cdafacccc9ccdbdedd9ba8aa
col45:   b7b998c9798abedada85cb5afadccaaff6acdbef7dcccab9edfeacdc89bc8cac97ec7abbfaeddca8
col46:   7898a96a7ba9d7bf6eac9aa8acdcba9dcbdcc98b9dddfb9ad8dbccdcb8dabbd6abebb6bafcebcbbc
col47:   98a8cbcaa797b9798cda9b9ea9ca87c8dbad89eceacbcefdeedf8ddbbaeaaebcb9bdbabe9dc9ba97
col48:   6639c97d679b9df9bddcc8bb99db759eaccbcbdacbcdc96b9edfaebeebe9cabefcbbab7b8ccdfacb
col49:   6599be88aacba8acbbac7c98fbba8cebd69cdaceaadffd8efcccfbdefccc8bcd8eebbadefddf6ece
col50:   47977e8daaf9c6bb8bcdacbcb99d98acdbbbbd5ccaaff6fecadaf9a9efcd9cbcc69eacaddbb79eac
col51:   5674786a978a8d85abb599bb899bce87b99ab78dbabc97ccca9bbddaafbbcbbab6c8bbbbab9babbb
ROC:	 BPix_BpO_SEC5_LYR1_LDR4H_MOD3_ROC5
col00:   466596744748b35b4686674b2a9b6bb5877757b7c77bb6a9975b5b68877956bb4699988668495545
col01:   738a976983ba6a47868cb899858b9b7476bc6c9b76a8c6acba999979a8897b789ad8356d8897b4cc
col02:   4675a859516585985c89ba766789799bab9bbd8a795b6c9a89959b978ba719968a9878a8b3478588
col03:   486a7687d95b9a878a69bda66a9786c6aabeabab8cdbbef8ceb6a9fcab8ca6cadb689a667e9a9b9a
col04:   69a6b9c8958a7688a57b488aba6c96a92c8b8cbbbaa97c69c9cb86a9b78a7695b77b9b5c16b9785a
col05:   59d834c9a54db8a9c8994c9c89a88dbc9aca9ba9baa7e8b66aab8b98798be9c6ab9689c8a6a6c797
col06:   83746979244964768895ba96bdb9c8ab69b76ac8bb986abc69ca8c7d97ab78ac8b78c77784a68788
col07:   786a69b4a8b6a67bb73a499bed98fec99eadcec6cb9e9babacacbc69ab97b97c969c67b89a975747
col08:   96477747626889c888bf5ad7bba8bac9a9acb9b8c9acb96849b98dba98c4bb79eb6b867864968c89
col09:   26a9b9679b89676969779a79998a4beb89997acaacdd6cda8b77a99b7dcccf78abb8baba99a37ba4
col10:   58968928a8947779799678aabaa89bd9aac7ad89ba8eca897d9678a79a69a78c6cbaa98b49b77a8c
col11:   9869ba675857a9cc7c9ec97876a9cc99c3a8b6a8a8f8ddec6886ba99bfbcbe976999c9a75ca78a98
col12:   3934967a98867845bb786669b6d989589e7abb9c67ab86c9caf97657bccc68ed874b9757ca482e88
col13:   764c888b77577769a73956bc8687696c789e9a99b99865cbaabaa67abc99bdbc65ba58795a69b96b
col14:   45b98948964766875899945984d467b8999998bbcbc8a976999a9b9958594aaa9898a675676796b4
col15:   a379b86548aa6a64688a58c9c7bd8a799aabbb8abfb8c98b886acb99799ba5a96bcd56a3a896d958
col16:   84769775519b76ab77a6b7568ba9ccb59bd999aaadc885a7b9bc9caa9b99e87789a4947679582765
col17:   688257185697656f59ab849a8c799ea787b9aaa8bec9aececaacd9aabbac995da568a4cb858ab95c
col18:   77626463baa8486b889ab8db99a7eaa78cacc9e8ac787cbedfb6c868d99b9e996d8b997999c77b94
col19:   ae57b1957587a8b9a8ab8ae89bfab89bbdc69adca9a8ace9bbcd8cc9dfaf9c9afaacbbc89a74a8b5
col20:   63384635a4996368ac67be964cc79cbc9bab878cb7babd7b99cca97ad9bb6597acb9aca8a888578a
col21:   899a57b87bb87978955994daeabc78da69db89aa9d96dbaceadcda99dfe9a3a969969a78846ab6c6
col22:   8878679b6a645ab9866bb4a8e838678b899fc985be889bbd9bc6d97b9db7b897f6a7a7975c588996
col23:   799796869679788948689c8b6d778aea87c9a9998bb8c5c9bd99bbab97f7dce5da5d9b9bb9979b35
col24:   7a98d77876699998a45687eb97b6bc778fac99bed9a887ac7c86b88cb8bc8978b8cb6a84755aa858
col25:   552887b2aa957b9d5a8a8acbadbccab9a869c998b6f69999ebcf8a5a899a8b9bb8957e9bac59cbb5
col26:   6ca996475679869d98859bcca9ba59aceab8ca8bbb76488aa88cabba9ba9988cb757dcb78997d4ba
col27:   8aa77b87b9ba88a7c8797bbab9b8ad7adab9cab7d99ecbfbb8edca9dcbb9cb9eb8dcf8cbcb9bd99a
col28:   5757998a8969aba9a66d7eedc7bb9acdcdca8a5ffdcabad9ebecbda89bd9caa67b8a9788788769b6
col29:   76da898da87968b898978aacaab9bd86dbcd8db99abf99b99dfad8adebce8bd98cc599cca7da8c59
col30:   5ab97b67a5abb7bd89b77bc99989eada9cb9b7d7adca9d8caadc9969a55ca96c9999b8b7b8a69678
col31:   776c9636c9758a63a7ac7e69caddcee9a9abc9da8aada7a7abdaada7a9c9bd9ba888c59ed7e844c8
col32:   b87496b8b845bc6967bb8a9c7d89cc898cfb99c8b6aaa88bbea5b8ac7bc8dbdc678ba98d7a3d98c7
col33:   8aacb78aa897a97a75b886dc6bb8edb99d8cdbd8cbd9cbeb968ca9ad67ca9cf389fccabbab6bc9d7
col34:   8a648a8596869edd9aa9eebcbeb9cdccdbc6cc9bdd8dc98d95cea9989abbbbba7ce8cca988788ce6
col35:   2a74469b6879738ac668b6baa9c8bb9ab89adbacacbb8dffb9cdbbabc5b9a988bca9caa9999af8f8
col36:   897499c45888a95cab8b7cb78cbadb9fab7c8dbb799a6dcc8a88ca69dbbea56c6bc7d98b6c75b6a9
col37:   a5ab68bda5ae9a8b7ba68abaaf9bc88aba6bd9ca9fa7cadcd7b6aada6dd98d7aaacb9c9cee79bada
col38:   7aa87b97a94688a7795a8a99a89c9d3d4bc89cbac9bbbbdbcb7faab697d9889da5895978b997d977
col39:   7b5978a98969966ca98759e9ad988cb87a88daccfbc9cc8b99fe7999befcdbba669c998abcf9fda7
col40:   77a9a9cb9879987b6d5b9bc99e66c8a7aa999db6749fb89aaadcd586c97a8a18893b8aab66a79a7c
col41:   4c797a7a966c798b79b9cc5acabb9a9bddbdc9bdabdb9dcbabeadea88bee799d9a8b8f7cae86bdba
col42:   6748a6c867799acd7ca889aacbbe6dac9aaacccdcacefbddef8997cfd99b895ba5d97a8ecb74b984
col43:   9499797d9546775bbca7dd9a8dc8babcb7f8dc9ad5c9cda7d9dbda88f7a7eafc87dbbb7caedafedb
col44:   79899aacbaa6889d9c8bd6b6bfc9aaddcebabb8bcea76abdac97c9db9aab8c9be987d98a959bb995
col45:   5788467ab69c7876a66a8ebcfeedbade79d9ebacbf788bdbbbfcba8d6aba8c98a99dccbabbb9989b
col46:   5b37566ba7656a877ab98cbb7c998ddb9b9ad9acbdc99ebb7aa9b6aa789a8bbc98d9aaad99ab68b3
col47:   88799a866599986fb4b968b7797badcc8cad9edcbdcbebb8cecacadaacabea979e76ab7c9a9cb7a9
col48:   786aeb4788559a8b8ab599ab986f9789c9e9d88d7a8a69ae9adabbd997a6b8bc998888c796dbfad6
col49:   8b999995bbcc59994ab7788cb9b86bbbbd879b9caf8dabf5eecddeeabbdacd78d89b9a79753cb6dd
col50:   665589a7818a156a976888a98a88aabc8f6aca6fadbab6bd9bdaaedf9798bab662bbd8997aa86aa5
col51:   99716b87cb5948a7b56777c6ad8bb6be99b987b9bcabbbfcbac789bc9699b5abbb4bbabd54a8b77b
ROC:	 BPix_BpO_SEC5_LYR1_LDR4H_MOD3_ROC6
col00:   5482854325566474c15748772b6b6b6888bb386885c7b8b7b666bebb87b87b69867bbb86bbb7b89d
col01:   6a71546b5787947979b5295567b8769b7d9497bb57898bb5da778bbcbdac98bcd58b786bb85bcbbb
col02:   1666385776995766456b56b768a8b8b97898a7bb769db7bbb976bb7cbcbcbbbbc9bbcd5b8b7c97b6
col03:   6465587766b7b68b937786495ba87787bb677b86b89956b9a9d76bcb88bbbcbba6cb787bcb875bb7
col04:   789b687667478959864c389b87877db9968988bb968bbab88987b8ebb78cbbc9896e78b7bbbb967b
col05:   3958675869ba8546588b75bb75cb97b8b98b7b9cbb9cc9b74b5bbbbabb9977b8b88bbb9acc98f7b5
col06:   668399c767898a93b59797b7b8bb58b97a889b86a7ab696cdb5bb7c9b8bccbcb948b7cb8ab6bbb9b
col07:   18599b8638b96576773669676986cabb88ab5d8bc6869d7cabaa6bb87c7b8d88bb89bdaabbaaca78
col08:   936586834754664874b67b87698bdab97b5b689b9879b6899cbb58ab8b87dbccbb45b7d7b958988b
col09:   63b98765696869957397549b399dbcbabbac9adcabbba597babc8b8abb75b79ba7bc99ac97bbacb7
col10:   7647636679787b7759a8688a7a8b999c89c9bc8adb9b88c98bd87cc6a9bbbbbb9eb8abb99bd7b99b
col11:   5928b968746569a69897998988abfc66b768cb9bc775b9bbcc88c99d99cb9bc88c6b88b7b7bab8eb
col12:   75418776895da668796b9766498ddb987bc9abbc87b8b75c9b67987bb89c979ca8babbbc78bbbabb
col13:   767b549672758c8694586a668c9b78bc9ab7a8788c978e82988bc99eb7bc98bb68b98bb8d7bbabb9
col14:   85576a942495876582476957babb9b86bb78b7967b979d8c8bbb69bbbcbb8b8ab7dbc59977b8789b
col15:   3b685ab9ba557597bbbb5978a89868697b98c8b97b8b86b88b9cbdbbcb98bb4699c89d89b8ba98b8
col16:   6396666734686b9b7b895b7c96abb999ab9abb9d9bc9ca8d8a97b8c9edccba7bc9a98fc7e8cbbb9d
col17:   83854647b9689689c8d868b6c95b6779caab99bbab7badecb6bbb976ac9ec88a89ad78b6dbe9bbc4
col18:   6722637789b6a36a98bb89769956c4b9c96cbb88c8bba78dcca8bbd7dbbacadccadcdb886cb77bd8
col19:   4885267877b766889c9e97c88acbbbabdc97587786bb9ab9b8bbdbbe9bd996cb97bbbbb7bbbe9b7c
col20:   66646558b87987588c67676c9bb9cda8c769ab797787c79997bdb998ba9dbc97ab98db96ac9cabb8
col21:   4979669549799c96888d76a99a7a7abb8ab87a39b999b899abaddcc8b7dbec9bdadb8c8f4689d9d9
col22:   38967a6686989889bb978966b8bbb8abc877bcb8da988bcd88adadbbaab97bb9abe9b98d8a799e87
col23:   67778b78365498bdb7cb968a9a957eba87bb9fcca87abbab99abacb8899b9c8dbc77c7bb76bb789b
col24:   795897979b9876c27a6699b9bcbdbbbb768db8d8dab99bb997bc99fae98bcbcc99967c9b8b9b99cb
col25:   445cbb7959896b9a6abb6b9889c886bb8cbc99dbcf8ad9a989decb7dbc99cbefb8faccfb9accb899
col26:   6987bae7599b99879886dd9b9ba9dfe7ab8c9b777b7ddbbcbb69bcc9b7babbb7acaabab59769f647
col27:   5886898977b87b998c7a778aaaab7bbd7bb95b98e8c9abbcbc8bbbecabdbb999bbbbadbecfb6ab6b
col28:   787a5b6d887b66985b76b98bbc89dbd8967d9ccebdbbba79b9af9bdbcdbe9af8bffcfbccdcbbbcbb
col29:   4647b4b69c68795a737894b9c9b8baadda8bb9ab9ddb8a8dcd9dbb9f8bbd98ba9bb6c9bbcaacdbbb
col30:   97877588a97c957b77b8a8a6eb9ca69bbdabfcafb9fbc7cbbfcdcbbedbabc88ec9d9c66dbdcdc6bb
col31:   995bc8b4a9b79797697987bfb8afddcfbb9eca9cbbf9bcdebd68bdcdebbdeeccbbbdfbaf9dcdcb9a
col32:   97897b6899ae875b9b8a8d6bbafbbcbcbfc99a8aa99c9cbbbab8d8aecbfbbcddc9bcbe8aacbbdaeb
col33:   36a5a697b946899798b7d69c9bcd9ccbc88b9bcde969a9dbcbd7b8d8b998decedc9edce7ababaceb
col34:   389874a767758747bdbbcabd8ce9dbae9bbccbb97bbbdd7dcb9bfceb8ddbd9b9dbbc7bac9bba8dcc
col35:   b86767ca4a664989aabdc8b68bdbbbdab9accba9cbcbabc8e979abbb8adbc8abdaabb8bcfedd9bd8
col36:   7796967877bb986b8b7cb6c889b8bb7c8caa9bcaabdbeaaba9bbe9e7cabc8fdcb9bbb9dbd6c9c8cd
col37:   699976397d6878976e6bcbabb59acbb99bddccaabd8ffdcacfba8d9dcbfbbbcc6cc8edb8fc8dcd7d
col38:   588996bb9ae9789598b6a8a8a89abdcfdbbcb9addebcc8dc96dfc9cd99bbdcbe97d9ecb8ea8d8bdb
col39:   86b7888c8759b9b6abaabb79c976bcbfc9a95cbbc9bbb98dbcbac8dccccca8bbb9dc7bccabbcb6eb
col40:   b6c87899b58a7cbb899bbb7bb88b79bccc9bccadbcdaa9feaddeeaaffcfd9bbbb9dbaceebcfdcaad
col41:   749c97ab9a6a876469c99cbbab9dcaacec6c8bbbbadbecbbaccbe8ebeddccabdbbceaadaddeecbdd
col42:   787c9a899759979b89e8abbcbabaddb7accb9b8ad9bdebceabb8c9dd8cdcdb79eeebcb8bc8bfe8bb
col43:   99bbb88697a8585a7a999badb7daeccc99daeb8aedbbcbc9feddadd6b6abfcaeabaccdc8f7ddca9d
col44:   76d478b678794c89bbc9dd78cdcabb789ccbcdccff7dad9acddcdbbfebbeacbcbbbddad8c9cdcbbb
col45:   654898a9bb699889b6b798bc7bb8eba8c9bedbea9fdddbadbacbdcbcab98cacccbaededeaaabaead
col46:   6788885a97b8896b9a6a9cb8bdce9c7bb8acdaabbdfb9a7abcbffecd98dd69cdefbcc98ec8ddccbb
col47:   689963b88c8976666a98b56a8698bcab8b8abcbbb87effafda9dcacccad99dbdbcfec7cbbfe9bdbb
col48:   76675bb8855588587b89bcbb9a6b7bdbabfbbbabe9bcbfcd8aa9fbda7bb8bbcebbeebbbb9ccbecdd
col49:   8735b76368679898cbbcbabb9abbca9ebbbacbd8ac99cccbd99bdcdfced9cbc9bfcbcbcdddeccceb
col50:   66a7847998988866997c74a96cd5fac9b6cca89cbdbacc7dccbebccebdbe9bec978b9cbeadbcebcb
col51:   4778256b4846a78799b7b5969a9867a789c9899a5bbcb77bfa59ba7bccce8898bfbcb9ebdbb9779b
ROC:	 BPix_BpO_SEC5_LYR1_LDR4H_MOD3_ROC7
col00:   8346413654b6595979751c8b5bb76b8b546cc988b8795b7b29cb847cbb89999b998a79966b657764
col01:   3576973657679365762b5a8abb6c5c87b8aab99897bc8c8c99c998dbb9aa9386ca979e8559aab79b
col02:   4ba77787b99985b5b55528487b5778698978a58878b4889a66b88898cdaba6d7a5ba94698ab7aa87
col03:   445968a5895484654896668b78d7b9b6bab7aa9b9bbbc8eea7c9ac9bcaa7cdad79ecabd5bb68b99a
col04:   4694756856769696666767887b7a97878aae89ab68b58e99e98cbfbeb79ae8dabfccab71d9ab5a86
col05:   247552658b8b56787db4b6695a785988889d89cbaba948bcbb6cc9e88ad888bfaac8c98cd5a98da4
col06:   4426a8875677c74dcbb5aa666a267bb9b7a8a98948689d977b97bbd8c9b64a9c9c99b79c9bb65776
col07:   6696667963a65598d948a59a8ba8d98cbc9b98aac8a88abbbbafa99dcb9abb8adbb7bb77cb999ba7
col08:   68478776626568a789b9e43a58aab96556cabb8b97a999ba8857bedbabbc5a5c999a7c6b6768c88b
col09:   5866667868b9996a889a449d9aab988a9a6b5bcbbbacba8ba8bab8a9baf79b99cabb77b6a95b8c83
col10:   3c877785b675b97479885559b78b779ac4899688798eaecaaf97ca8ca4bbbf9e8c8b6ba9bad77ac7
col11:   64968948855a96a54c9aabacbab399689aba98cc8bd7ca99a9d9c9cb8cacdbaac989788ae894ad77
col12:   33766768255388b76b8b859a885bb9b7acb79cebead878bb88ba979ada8c878c9c9a86a989475b68
col13:   1a23495388896564878dd7b8a7b58698b88cc6dd9a8bb8a96889cb69bcb9c9acaada79c9b7a89868
col14:   19a7425984334a46588a85a7c9496baa979bb989769bbcaacba868b869de9b89cadd65b6aac6838b
col15:   99934549646b67676979b89aa8789a99baadc879abaa68aba8d7cafd8898d4eb7b996ab5a7aa879b
col16:   48641676287c8884b9c798e73c74aaacac9db6abe69c998766e758b9899ce7ad9aba86b687593997
col17:   64524779768b7ac3b95c97ad76ac8aaadaf7dcedacfa9cd77ba8bbabe997976b6cea898b97959ba9
col18:   771a2463496a9988866b78f9bab2eba8d67bc67b28bab8ab98b5a856d59999ac8cacb955a9a73878
col19:   87956a5b76788876467b769a6cc98fa69ba8e87b8cbc9cbdabd8489b69898c9ab9b7a999d7569a86
col20:   548c636a83795a69978769687a8bbba8bc5a9a976bb98bdcade8bdde6c7b6aa92969b867aa85a87a
col21:   628557b77697c8c98ba7a5aacbea8879eebdadbb9aba9a9dc99be8755a89a8c9ccad8775b7bb757a
col22:   47775453b88b8b6c99878aa788bc98d8ac9b9abbda7bacccddd9bbc79cc97689b79899a689386a82
col23:   767a3875486b884a67d77599969a5778cbb7758dc9cecbf98babccbab8a6b898dadb7c7757bbbaa7
col24:   7688b4a97699a6b7e7c78bab8d3cb69c496cd99abf9b8998ccd79e8c89c97b69ea89acc7aecc9878
col25:   594795abaabc79b7aa7789a8aac698adbcccbabbdadd9acccabfac977babbbdcb7b8bba8d988cb99
col26:   7a968777ad89a8ce9baab87ca779baf7abbacaca7ea77ba48accaecab59ccba7dda7cac9aaceb85b
col27:   8799888555b97b999eb99d8e889bb7ab5b88bb887c8caabbd7acfcec8c8ac8bdc7bcebe9ceac9fb7
col28:   48a78688ba87d999a2cbaab8cacda877ea8ca778bd7f8ea9d9ebabbab7dabcbb9a9b7d979abb898d
col29:   b9687bbb7ba779a8b9cbbaa98baaa7c9b9b87ac9aadc9baabcb87f8e85b8e9fcbdbabdbceccdccac
col30:   a8a887b9a89dbdcba8a89a88ba88aa98d6bb7bcb97cca788886cbbdbeb7ccbaebcecbbe5c8ba9b88
col31:   867d5987a679adaaabb7dbacb8cdab95ec797cceaba9deddbacabbafdcddac9cbcf9acfbe8abaf89
col32:   94ac7997eabdcb89d87cc98c8b8a8cc665a7d79aa7ea78b9d9bacbfab7bbacbea7ccc878a86ac8b8
col33:   69588967b889acb78ca8899bcd9adba9aab9b8aeb9baa8db97bbdaedc7bbc78acb9ca99acdbf9de7
col34:   c852898a897dabac9bf98aabcdacedcb7b9debadbacbcaaca9b99bc78ac99acccc999a8bc8bfc9bc
col35:   bc77995c69ba6b98c8fabdba6c69997ccbc9c8cfa9bde89facedeb98ba9db8dcd8f9bcad9ccacbd4
col36:   9b999e7ea878b78bead78d696aeaab8ecaa7bb6cdc9a7aacbffd9fbcc9dbc5ab9dbdb7cabcb84a7d
col37:   9a69b7a7a6a9abbaca8c9ba699acc9bdcbddcacadcdeddceabeaebac99aeedaaaaac6ecfdedaccad
col38:   a968bc8849aba7799bc9a998dc95d8e999ccc7b9ddbefb5dafdcbedceeb89bb9ecae88ab99bdf92a
col39:   88ac989cb68ab6b79899888eacbdb59ca8abdbbbdca9b9b9b99b999999caebe9cbdebfadaeb8be8b
col40:   bb8ccba8ca89bdc9cac6b9ab9edeeabacacb9accafdcfbcdcfbcdaddccadbb9a9b99fcc888aaabaa
col41:   98ac7a9eaa87aa98cc8ad9e6cb8daadccaacc9cbfbcdcbebafdffaeff99acebadfcccbcfcbecacd8
col42:   6bb7c97d9bc8daca85ad6be8cdaacbcabaaa9bede998aeb979fcfddfc8cadf7acd8c8ffcebabb889
col43:   aac989889f979c98bcab997c97bfb998dbeda9cdacacdbbcbccecbfcec9a9fdfcef9a9d9a6ab8ad7
col44:   c79daa978a9fa6999aa7dfce98c9feec9cbb9def9becddbcadffdba9cebc9bfaebd7ab9dbbdabd89
col45:   9c9a97aabcd7bbbdef9778cb9accbfbddbdafdcbfbbdcd8addedbdddfd8ccbde9bc9d7dcdc9ba8bb
col46:   96b7a9a9ccabc7897a8e788cbadb88ae86b9e9caaac9cd7bcdaec9c7b6bd8ccddafccd8c7dcaa7aa
col47:   4886a58b986bada7dcba998ae98988ccba9decbaadddebcebd9f9dfeea9dda7f9caed799abcddcb8
col48:   699b78699c7a8d69aacb6c9dc699aaa8bdeba9c8c8badfade8cd7afbdbbe887becaaaa56ba8bb998
col49:   75bb788db6b87c98bcdfcdd9a8bb7a9bcf8bb76fcddfa8afdbebdacedda7ddbd9a7ad78acc9baeca
col50:   a846c97bb69784aeabdcb899a88ba9b9c9abd9abcdad8ccc9afcbcefcdd9a3bc89b68c98df9cc8ba
col51:   8979b685ab79b9b7a9bbb8897ab97abc98c95ab6bd8dba6bcdc9cbcea99f48a8877cb8bd886c69a5
ROC:	 BPix_BpO_SEC5_LYR1_LDR4H_MOD3_ROC8
col00:   7244b51b57b7663b3bb518b69b2ef8b565677dbbbd5c9b2b878bb985bb682686b74bb5b6737b7552
col01:   6284a587b392998753c98c7bca7d7db8a5997b9767783a8bcbcd9bbb666dbbbb5b7bbb888a597b79
col02:   3955774667879849976775b7d76bcb7bbb979b858988bb79bceb4bbb8cc6985cd9b7798bd966769b
col03:   6744b7749769b7687b8abb5b5b4799c9c7bab66cb7b95857ec8cbeb98bbbcbbbb59b9a87667b8db6
col04:   756457b69bb68c7b57665b8bb697a8a898b76b68baba68d89bdab84bb878d8b969aba8bb6ab897b1
col05:   7358c6a897bb654989786ccd57b8b897989b8e77a7bba89ba68aee7b866b79b9867bba8b88b98478
col06:   632432bb8685a6785699987f4687c588575a6a89b7b88d8c5c8aba8c99b9bad989c9c6b58bb99a67
col07:   7763b47b7a6a87d796767e69898bb786abd9a77fb76acb88bb8eeb9b675987adb885cb7777a99c96
col08:   9c47566b72369b9b764a88dd9c6d9598338d699b575c9a859bc5b6998c8b8689b899c89b776b9687
col09:   5548765665bb969ba79a7887b9bcb98b78bb88db68998cccc8c9c6799bb96685cb7e879a679b6a76
col10:   6632741683764788ba68b5687b84796695887d9a7767857a9ca298685519587a6a967b6ba9c8d4cb
col11:   47552339b6998886b4b99b87bb386abc8885bb87c89c94cb898c9babeb857ba6bbb8965795a58697
col12:   64341a668668656b7bc6b79d483d96679578d689948856696e9aba76b9c6b778aabaa4b69a698a66
col13:   73946762878565454b2ab8867869b997b6678bb7c8b597799dda7c8998a9c8b87979b8b8b8d87c66
col14:   5778656255746a39687667975f796aa9867b8997879ab57567ca56658a98568857d8795c66b97186
col15:   3151769688ab5b879bda9a769a77bbbcbba8d76cc56a9ca6368bbb676cc789666a989933a38986ba
col16:   5356445441535865cab87678d6b987dbbb89888ab497a778687a9a5cb77976797688486796ba6769
col17:   188389464854496657948579b787cb5c578958ab74bbb7897b97b87ca78951b7cc98764b47649365
col18:   14473b48a73b5868788cab14365bb8969578a664b97687a885b8579678b597a589bab4183474973b
col19:   467479b4596882cba698997bb977b7785b695da97dba9dbab9687ac598b5a9bbb9579a8846767889
col20:   131974453678472676665926875e88bb98bca9786a9a9b4b8d544b79b47b46b7b8387964b8aa7758
col21:   6457715267b8a6bb78ab961c796749b77afc97cc9874be9acb8b85b6326878ea7b9b7aa7d7883658
col22:   566515b5b959c9b8b798888386979477b8987b888799bab9cdbc967658a7a7fba3bb536677646874
col23:   6193141676557c99b77795969baa9687b78ba6823b89677dc99dbb6aa96a8bb688b97498a6d4b689
col24:   b14857975bd17786a78bb6726896699bb887565bb8568d5cb4eb99a659dbba9a6867c997a2573878
col25:   568b796c8a6a947a85a89c64cc847eb999776b9965b7cba9d74b6cbbb8dba878c96c8b6d8a999668
col26:   74679764a797488686cbb737bb9b678b8b7678889bfc5a8463a9e89f97bc86c5bc9bbb8587687869
col27:   79c9568796a69679c7d4ac784d8db9ac888cc98c9c898b398a7ab9ffb6e9b8b89baced876b579589
col28:   66b453a987a6478e9ad84a8cb8f46897a85ec9d7ba9a6996985c98b6a99b88cb85b8c8c369aa5d8d
col29:   b838b76b9c999b9b9c853a83985bcc5bbdbbe8d4caaadbb7569bcabc898bdd8b4ba8cdb37977889a
col30:   765b5b9b7857b8979788979989998ab8b5a7586d7b768994be79a3bdb868a9b97bb8ec99b866998a
col31:   6664b64875a84a8758b778aa98ba7c9c8fea99e866843ab9acbd9cb7b6cee8d7bafdb7bbcfc89a9b
col32:   6815879b77b9c8cb643b96a7ace8abb5cc788bcb67d355d899e76f9ad9a6cfcc68cee48a8bab9866
col33:   5a976dcbc83299b86ab97c6a8abcdb59b8d9ba9b6a99ab896b68979ca9e8abbccec9cbb98a8b5e66
col34:   7b83779b94b8bbb9b7cd987b98ab9997b73b4bcb7bc78b69c7a7c9a96acfa5bedcfbb9ef9dca9b77
col35:   6b6d53b83b66ab77b8d8e99d8b8898dddadaa7cdccbb8cbbdab88bb7ccc48c67fa7c9ecabdcf8657
col36:   3c87b768691a9666e8987bc948c9bc988899b69b78a6686798daa786e8579899bd7b6869b89bcb6c
col37:   877584879754a767dccb746ba8987d67bbaabbccbccb97b6cb99aa9f7b7b49abae7ac96aac8db967
col38:   69a76685966494ac85a849daab65878b88b9998a8adeaa9bebd9b8bb8ccbb7ba68dcbb8bccbccabb
col39:   58babd77666da8da7b8bab989bbecbc9fbcbacb9b9aba97afdcbcbbca96bd9ebba8cca98b4fb8bc8
col40:   8884788977bd7798b97668b879b8999a69c9bad8999ac98adf5bdcdc99b9bbb9ca4bffb9db36a9e9
col41:   74478b86b686baba66c9c9a8bdd88bdcc696779d98a6cdcebbfabedabbcbdaacacce8b79cdcdb887
col42:   46b686778ab7c8b89a79c65399b7d97acfb9b97598e7b98a9dbc7ac9bb8bbd87a8abcac8ceb7b88c
col43:   98ba57adcec9ee9b7cc7b3888dbbdb9ab9dacbbab999ebbe75bfb98cbcb78aadcc6edaf4adacd6a7
col44:   b7b978cdd6bdbb8d9c99c9a8599fb99ccbbb7ac8b77c9f88a9dbd8dcb89bc6b9cbab79a7adc6a8b6
col45:   8a5e6885abb8bb5e899bcbc9ece9b6cbbdee8adebddba7a9bcc989bd6798bd89b9cba4d8bca9896b
col46:   4bbb82788a9f9cbbb9b99787c9b9b9bbdbf4acacc9fba94c9adccc6b8dd5cb768bfd88c9c98c66c9
col47:   a9779c987d69b79bbbc8be78bbbb8d7bcecafc8bb97e6bdb9cff9fb9eb7efbccaac6acdbdc6bd887
col48:   a7698668bccbb9babbbe8bce8978ca89a989bec9acaabbc976bd96b7b3d99a689a67624897d8ccb2
col49:   666786abbab9bdcb9d6cad8eb89e9dbdeabdbba5baebcacbfbb89cbba95cb97c698b99bcd98e99dc
col50:   739647899d9967bd8988998abbbb9c89dadba7cfdc7cce9baba9dd9cbd8bbbbbd96b998a9bb5a6a6
col51:   46757bb756bbd46bb89b4b7f85b4bccb7567cbfc6b77c5bdbbbc99c9fc77be5bb97b8bc66b78b7b8
ROC:	 BPix_BpO_SEC5_LYR1_LDR4H_MOD3_ROC9
col00:   48833256845b67b3966656b949e4d89b587bb9b9edbb9deb9bb8b5bb8bb674bbb7b7b5bbbf8675b7
col01:   364a8837498c94359436c8cba667acb48a97dbba8997b8bfacbb6bbacdb84998abba8c82999c55b7
col02:   645377bb3687789484b88c899b9868b98a769cab99b9cb56895f9a9abfcb956a9c7c7cbbb897dcb8
col03:   84549686c889685a8a6a867abe7b9b699847b7b86b98cbc897b9e9bd88b6c99b9c9b999abac8cdb7
col04:   6b9947666287b58766ab6979c68b88b88c9c977abcbbc89a7787bcb9ab89b78487b9b4489b779b97
col05:   47a35354556b753267b298999677bb5a7cb7fabd898999c9bd86f7b7ebec88cc3899948dc9b9d599
col06:   b5476a65b76d867838377a9599a97889c876bcabcbf7c9fcb8b97bac9dc3c78d9d8dd88bbc6b7cb8
col07:   6186596877487458b9a6776bca97cdb8896ab7ba6ddb858a9bdd67cfb7bbd9bccb6bd7ad6b687b6b
col08:   7477bbbb695b884b5a796578d8585897989bbe9978be9898abcdbbb7abca7fab79c97b99bb5c8b58
col09:   64774862788678752b6abb7cbdbcea7db6787be756b9c7a8888c9cb1fbbbbb7b7d7c9969ac89bbb7
col10:   857775396455489b8759a9db666c9ca8967c89a5bb9b8bdc998bc597ccc8b8bb9fbbbba9888bc88b
col11:   9183b8895873ca7a7898cb988bb8b67be89cb8b8a9ba87bd97be98a9bb7bddbbca98dbbbc7abfbeb
col12:   6778b6b37533789a7b6967ac9bc74ba8abb8b887a8b88bbbd857becbb9ccb7cc8b58b8bb7b77bbe5
col13:   66244a9584b477b4e687c8a7558578a988ab9b9756c8babcd9e995acb69dcdb9b587bc7c4b699cdb
col14:   77574777c99454794853b5b266b46c99796bbb9a9f77c8cab6dcb98bb75a9bbcb984cbb8c756c8b8
col15:   7868b7988294674988795b6778999848989dd8dabb875aba9c77bafb8ddbb76bb597dab67998c788
col16:   5167598581347934a6889766bb5758bb6aa9db8abeb7b3bbbec9bb964588cbb88bae66c87a86c3ab
col17:   7966a268967746488b9b975d59b8a6b789b578cbbbbd9c968ccdaac7beccb9a8bab9bbb7f698b9bb
col18:   24a877854a769867a95bd6b8985d6c77bb89769cfb9c8f9f86bd9b9ebbbac98dbbbc7999b97775e6
col19:   b998457766685a86667babb798b683eb998ba59dc486b6e98ba8aac7cbbb78bbf4b99dccd9b9b78b
col20:   553885894a6ab8788b7799799aae8a33cab796c77bbbcbb6b89b988b5b9a89b69ac97db9bb98ab8b
col21:   574786c32b78669ba9cbbb8786887b65ba8d9878a7978bb99898799ca9db998abc7c97debb8ce9d7
col22:   4545a688577756599877bbb85b8b8796869ab96e4b7be8bb9a5e9b6d7c889b8bb8c78889ab9b8ab9
col23:   4752a6ab89568a7bb7689abd7994b73978ddc99c592d7ce7892ab9bccebaaf99bb7ba677bbbb9b9f
col24:   894267674a67678755e776cb77159cceb88a79cc9ac6867c8c8bcc9b9ae4cdbbb8b7b9b5bcabbbcb
col25:   a7559958569656cca59b6bb8749abd87b649acbab999b8da96a8c67bac8c8baebcadab8cb869d799
col26:   644788a8a86a7778b77b8bc6cac98887b67888767cb97abc97ddd7e49b9bd8c89b8bbbbabc5968c9
col27:   978a6a7a4ab7367b6c89b79e8b8a8fb8798baddc9e8b6b799ebbbbaafa9bdc98b6bbaaadbadc6dab
col28:   7c59a856679b6b38989cb8cb79b98b8b9bbbb4f9867cb967c9d8bd7d8c8bbdbeb9cab897cbeb7ca8
col29:   8794a86987a45a4c4789ba9ccc789d5bc9aaa99a8bccbcbbbda88b9abaabfc68f5989ad899dbb688
col30:   8a88996669b8a9b6ba8d8abcc9abab9a9b8edc888eb9ab8bcbca98bdbeabf9bc7ababc7dbbc8c89b
col31:   735887847998886c68a9dbcfb9cdbbcd9bb79dbdbbebf5a9bbead768ad8d9cbbd9a9baacc9fcbb8b
col32:   8c95876684789754989bb868edbacdb6da7ccba9bebda8ac867c78d9b99db79bd9c98cfaa9ea9cb7
col33:   1555b798885279bb89bed77989dbdbeb5b89d6ab997fb9c8bc8bacc7c98bdc9ddcd8decb9ba78bc8
col34:   879655b899858759c89888bbbbbb799e8b8eebcaddbcbaabedac89cb97ea9babb9b898cefcbbb9bb
col35:   8599bbb7ba594788889c7bb9c8698acf985db9b8a6b99ba899bb8cbbbafb8cbb9697aadbc588c9bb
col36:   76999b7979abbb9b7b99cb6b8d8c9a76adb99cca9a99bcbdb8fa8dbb77cdcfabdbbea988acb8abbb
col37:   96854969b75b7e7767b8c9cb6a98b6b7b8b9ddbbbaa9c9cbabb8bbbdabfc6ddbabebefdabaadbbeb
col38:   689766c8856a89ba3a6989c79b7397a89bce78cc9accb7aad99fc9e8a7bbc9b89c9d8b9678c9a6b9
col39:   688683599bc8a79ea8579d79899bbc98979a79eccbbcab99bde9c8b6a9a99ccac9cfc9c9bdbce59c
col40:   aa47ab8685d9768ba986575597c75abc797bbda99ae6cbd8a8c73eba9bb6fcc9bdb6ebdb8dbdead5
col41:   e7868886bbbc98c7ba99b6998dbb897cd7b7dbe99d9ecbadbcacf99a98bcb69dcbbe89bd9bab89d7
col42:   486b588927bbd779669c8bba8b9bcbbba8a7ab8dbbfac7aaacc9cafc878bb7a9cefad9cb99c5b9be
col43:   886699769946768ca6b8bb7c99ba87da9bbe9599cbbb7f8ca9ebccbbabbc9b9d8998dc98d8e8cc9b
col44:   9b8ba86484966b856bbfb98b99cb7bcb97689baba88cbb99bbabdbb7bd9a79e9b8bbabb9798eaabc
col45:   5588569b9857b996aa8a8c6bb9b8b8e88dabccaebb7bacae8fdacb9acfbcb6bbe7b8eb98b7abca9e
col46:   b8777587966579797928dc7a9bb968b7bbbb7a8689bb687bccfccb9c9aac97ba9bbbac7af7b8b88d
col47:   7726974b86853a7987698abbb89db8a8a776bcdadcdab9ffc9cddba95dca8b9cc898c87cecabadd6
col48:   6b887479764b8d9999b97bc788c76cbc798b9989cebfbcdfbad6ebe7bb7bfbaddbe9ddbaa9d8ba6b
col49:   6778b58883a7bb8967b9a8ab6887d6bbc7d5c9bcaabf98beebb9bcceb9edaac8dd8bbb7ebf7ebccb
col50:   49a86a967796564a589b67b895879c977979886bd99ccbbd96cbdccd9c898bdd999aba9798ba878b
col51:   6b817bb5b68467986b96a8b7b959bcbbd7bbbbbbbd6beecb999dccdbbb889bbbf8dbbbce68bbcc9b
ROC:	 BPix_BpO_SEC5_LYR1_LDR4H_MOD3_ROC10
col00:   557b4575365353631244b53767b5b398455b3859ca7b8d799897cc65889bfe98dfccb5eb7b627bb5
col01:   559654278b5236346b6787557cb866bffbcbbbcb7b87c8c8bedb6cc5ab66d49cf5cd8bbbbbbb69eb
col02:   67364843753773588b253778885686b9545b9587c948cf99bbaa9c8798bc7ab9b7dbbdbbdcbd7bbb
col03:   199b46b6686648babc49494b6669b9bbbbc99bc9b68b7598cbb8cc78c66bbb6bc696bb6b7b677c94
col04:   53b8c578414ab9667b78546b878b49b7bbb69397ac697a98c6b6b9b77bb648fb5b7d828b867cb7bc
col05:   6448cbb498b37862b84c6827bb76bb49bbc67c77bb8bbc87b6d699bb7b8bc98b6bb798bbbbbbb978
col06:   4796376667485bb58bb7b3864bc9cbc66acbeb8d796bd58b8dc6898bc7ecc7b9899769b9c8877786
col07:   637c8bc4b57b568b45b3b6798877e8cdc77cbbb9885697846c9bb9bac885ab7b6479d8db3bbbbb9b
col08:   6b6773587597b49b977b9779bbd9b4bb8b849786d6be7be7cbb95b896bbbe9b6bbc6d974bbb7976b
col09:   759b85ab4457345b59b777c799d67c76bb86b8bc864576883d39b5dbcbb7bdbbe878dabe778ab778
col10:   7b58b684646b8998bcb58788bbbce99b84bd856b9db592bcce688cbabdc6d49cdbabb7b98bb8abc8
col11:   43843b698bb7548cb47d86636669c7cd57bbbbb8b9678ddb8c94cbdd777dbbbb9bc9587bee8cb5b5
col12:   2783c4278268596bbb6ca9b9b69bebc8b7bbaac8cbb8bad25788f647da66c3ed9bcb7b8c9b5b38c8
col13:   684cb945149846568bdb867bbb946c9bb8bbbd48cbe7bbb46688cebccc9bf9bb88b5c5ebbbbbd488
col14:   c37477977888375c757b548b86495bcdb6757bbb69588b67967a68fbbdbb9c78bbe5b7bc96bb9637
col15:   437695569b655646665b358668b98b77689c8b7559b8b998b898677ba99bbbb5e765bb87758bb5b7
col16:   7b5b755665b88877b7977799c9b8a9ba89967b8ca9b8b593d8a8f88accb9cbcfcd889b8b97b8dcbb
col17:   7c44557b5479b977c958988b77c8986b99b69bb9c5db8a8b8b795bdbbb9d7c298ba55bba8cc9c957
col18:   753385577253547874b877b75db777bb388987dafa5c8885b9bb5b9c87cdbdd8b7b8b469ba7bb76b
col19:   678e9b776782b4b7948bbbb76ccccbb766755bc898796cca7c79c6c4bc9b5b79db8697e7bbb674bc
col20:   9b5333465956d3b69b8bb6886bbcbb6bd778bb58978cdb9bb7b8b788db9cb9cb7c8c87bb8b678ec6
col21:   5885871c488b96778876b96b16bc998b77bc99be8bd99b49b7898ccbedbb9c99b64cb548a98b8972
col22:   1b7437688d7a89b87b5b8b685bba78776b75b866a6bb886888b977bc9abd69ddddb789db9989bd5b
col23:   634987c86b6662b6656a7b8b958c6cb9768bce8cb9fcb898bf6bdeccd89bbbb99bb8d6768964b688
col24:   68745796869879b9289867bbb8b77b496aafbbc9d6bb47c75d87588dbcbc9cbcabdbb59b86886bac
col25:   7b5c8c6b75399b8788794c44d9988bf5b78cbccb7869dbcced7c7bad5bca949d8d7a55b8a67b8b59
col26:   75b8576987768b6bb95bb8c9cd99cc95969d98bbcc68b9dd6899baccbcebbcb98bb77d66b427d98b
col27:   5378b7658b79bba89b45b5cb7bcc88df9cafbbcb9cb95db8b9cbdbeb7d957ecbb5b9e79bc59c8897
col28:   6b9bbbb667598b966b777b88ddbcbb777b89edb8bbaabbce5d59dac9e87cbbcfbbd9bb568c8ad9b6
col29:   86567ab9b8abb78889b3bbcad8b9bcbb888ebdb8a759b6b969c8ebcbefcdd8cc6bcc97c9d9bbbcac
col30:   88c7685b98848ac48cbbb8cb897b7998ccbdbb7d9bb8cc6ece89cbcbfdb8a788798abbbbccfcb668
col31:   947986b7786b97759c78af7ef8b8bbebb9d9dfdc8c9ffcfa9e88fbdfdecbf69b9bad79c3b9dbb588
col32:   78698369db475c66c7998cdbcc7bf999bc96d8a8bb9fc9ab89fb7c99be9dcd5cd7cb9b7ebcbb7bbb
col33:   7e6bb6eb79893bf9bd8db6fbbbc6ceeccc8bc68db596bcbb9bad8de9bc789a47ce9bf988bbc895bb
col34:   27b488989597b56b889ba2c869bbc8cfbbbb7cb978adfb8cbbbef9ddbd859cd9bfbb9b9b6abceba8
col35:   458685b94b89bbbb7885b9b9bdec9ccbcabb7bf8fd7dfcbddfd8a99cccddbab58cdac9ab6786edbb
col36:   9495bcb96b77788899c856ac89d58bbe79bc98c9cdccbefccfecceed9cfc8abbf9597babb8cb9c88
col37:   8687bbab9a776979aee8cbb8bb86b8bc8bb6a9bb997abbdcccbdbcfcbb8dd79cddddbcd839586899
col38:   54467977b764bcdb8797bb8988b87ccb9bec8dcbbc9d8d9be8fcebdbecd8cbb888b7c7a7c6cb99bb
col39:   8589b98859bbac97655bc6b3b97e88abbffbab9bbbbcbddeebbf9bef7cfbaec8c9a8ba5dbb675cc7
col40:   586bb9b8b7998b78649abcbdb8b799ccdc896bbbc8dff9bbbdcec9feead6bba9bdc9b4d889b89e9b
col41:   6a8373ab7765878a5bde9dbd8db86bbcacbbdcb6deceedbdbb9fbab9bae7986c79ecbbb9fab8eccc
col42:   b879b788d76c99d7796a9c69be9e76dea8e9bebcffaf8dbbbec9bacacbcead7bdfbda6b88facb59b
col43:   55a66c659e8b86b49b7ba9697a957d87cab88cbbbb9e9edefddb9bcebcfbf8c8ddadedd77cfca98c
col44:   6b9898859ebdbaa77ba999bcb97bbbbb9aa99ddc9db9ebacfdec8b89cdcb7c8b4bfb4bcd9c48bb8b
col45:   88789997659c75bb5c89d978ad8d98ef74b8bf8ddf7d9fdefdf89eb9bdbcdabdcb9afabd45bd9be6
col46:   b7b4b7676787b699d595eb5b8a5946bd9b9dbcbee8ddc5cfcdab7cb9e9866b969cbaf8977b4b99cb
col47:   5936b68b6a566cc77ac549cc98cbb99b97b7cbaceda6efbadcdad9bcb6e69abd5bc8beabd47d8da9
col48:   875b86b6e3b747c692b9a69d7bebe9d9a8b78bbeabfabf88daec8ced7b8aeb9f9a79b9cbba7885bc
col49:   8756662843bbb7b96db8cbc96dcdcdab8decb89bfcace8dc8ecfae9cbdbcbcbbe88b8dc7ab8b988b
col50:   877b5cbb94b8ba7a85b29aa76bbcbbf99b9bc7dbe9bbd8bafaed6aebbbfdb98c9c7f7dbe69bbbb4b
col51:   b73b6786587598b87bb6c8bd9df9bb8bbddb889b8cb6dcbcb9b9cce68bdbbbb96bb6876b5b8995bb
ROC:	 BPix_BpO_SEC5_LYR1_LDR4H_MOD3_ROC11
col00:   b25444136b623b2abb775177b878b55b586b6b38b2dbb5bbeb77bd6db6b6b6744bbebbdb6db876b8
col01:   b854744bb96167b538386b98bb9b9b6bc886b48c7bf86b8b679c7998fcbfbbbbbdbcbb8b57dd4ebb
col02:   9135743314745445b875713b4b458cbbe8bb88c5bbbe92b8cceb67d9db9bb8d67725bb7466b65b5c
col03:   7971b4253874bc73227579b57b8bc7b69bbb5b98977bb9bba7bbbbbdd7cb8b7cecbc9c8f7646b8cb
col04:   15466b77591b26686539bb34668cb75dbd78145fb7bbd5eb88b4bfdbc6f7bbb6ccbbd9df5e598ccb
col05:   943385545b66977957533bbaa65976b9bbb8c5bd9ccb9589b9febebd75bbc9fb74e47bd9b9d99b8d
col06:   71bb28744b28b63b745243659116768817276d3cb47b8567bbbbf18b895755c5a9dcb7cbb676b666
col07:   6bd45264b4766737b689465bb968bab66b6b59b7bdbb98bbbcbcdcbbbc7d886dbdbf6bdbcbbd8e75
col08:   997556652158598848954b6528787b986889c8b859b799c5958d6bb95c8b3d666b9b8d97a98dad8c
col09:   568756b2846839bb8786634975669b66b5bbbebc7f9997b99fbbb8bb87cd969b43bf89dbc8dc6985
col10:   61647172b65b94858b3464b6638b3b2889c5798b66dbd5c8b5bbe659bbbdc48b7ff8bbbeb7d86846
col11:   24743946b28726692838cb6b86b9a78b78bbb9c6b8b6a86c5b39bb796b6916b82a679bbb99d97b88
col12:   45212353554b867668a7564b855b71a564b9b64889b6589b57667bbe77b877496498ca6bbb557867
col13:   1643bb26654811857b663a4b68187bb7866d7789b9abb77bebbcdbb77fcb98b9be8496fb88bf686b
col14:   47851413121564864b6b799b66c77957b68bb6c787b67cfb5bc8c6d57568e48bb8f8819957bb7155
col15:   34592253857673457954469897d4ab7bbc99d19b899e855b69c6ae49b558bc998bb8b86977994584
col16:   1371654826516279b98585699769ca4cdbbb9898d7b838e79867dcbb98b788b857722548b9853365
col17:   143846525278747662288646b886fd6baae9bacbd6bedc9cab4fbc7cc426a7b897cca7e636b69887
col18:   57334792434847667a86394669638559bcb98295849589767ab65bbc7886b5867bbc897b76944887
col19:   24416326665b5938c5966b5ba99b7678bc4977a784b7d9dbdb87be98bb9869b9bdcbb67764b88745
col20:   215277756215859746456938738398674b745a176db7b786d9b78938b69b98979784b979b6275265
col21:   6656a375875967847b78a368c6cb38b878bcb6b4b789cd6c76868d685bb8867dbca76799bd979898
col22:   6252124754575b697567b83176a685675c7c79b988b7bbb674693938887849b56bd8579b37b63bcb
col23:   5387313735797867ab76279b915b848b7e77b9988d9c68bc8ad98589cb8abd3bee6a47b698b88588
col24:   257c44646b6388569682661298619424a76b43b6768ab8797bcb6ad557568988d2478797b98a5a62
col25:   6828784c96174e56799b85b9699b656b683bb89bbc7cb5599779bc8fc8b9b3babcbacbe767b9b884
col26:   356b8633c66676295b678668b88b5883a7d4455bb3bb6696a5b8bcf8ccc9998bbf6b885c8cb387c8
col27:   986b85a99439bb9778848d4baa94b9dbc3bb99c87745967b7bdb4bad8d9acd8ce9dbbd96b87bc7cb
col28:   831579b55b74495b7cdb795dd7439999b677ca58b99f599876787bbd7ab7bcb8f7cef9cb9371b881
col29:   57bb5b8bbb8dc4d9b56bac4587b7867d9db69f96d8e69cb78b8787cbd68857abd78bcebd5b9be787
col30:   5275b7cb675878bb66639aa99bb697b5b596c9b988998c75cd63e9dbdbd8abb772996a84b5996578
col31:   8889887a98b8898b8e9bdc8c8acbb599897a7a88a7cbec9c7abb9be8eabd87dbf68bdad8ef97cb9b
col32:   877955487799869695559c6579b8db4e5bbbbcc9abd5677d89eabb8bf94bcc79e89bd4c6bbcb7bbb
col33:   b8976b77a727b4ce86565bdeeb99cebc6b98986bd989896c5a6bd76bb5ebcecec9bbcbab958b69bd
col34:   7643733b88878878748b8485b788e9766778998b9bc577829b9758b9368567bb76ecdddd4b797c94
col35:   836b71ab9b6797883587a5b75dd97cb9b6db7b67c67b84d8bccddbd77d9bb88c9e79dcd9c56fac6b
col36:   5b766986678866cb876bc59a85c8bbcbbbc68778b8d7cbb7ea9c59d97ab9bc98b8bd9cbbf5b89588
col37:   88b98b95987b6685887998c9bed99d7d846f4ca68998caffb9ddebece8bbdbba7bcbd8ab9dfcb99b
col38:   98b59867b6869466b9ab846bc976779b85b8babb45bb99eb9bfb8bbeced4bfb9cb77a76ecdc879b9
col39:   578b855b542b7c69bbb8b98cc9bbcb7b4779eb88d97dc9d9bc7cfcff9bdfb9bea9cbffab96cb8cb8
col40:   85b87b77885b9b879b875858bba8b7c9c8b97bfd999a7e8dbc8ddc89ecbcba4b7dabab9bb4717c47
col41:   8bb98edb8d97d5a79898547eb19bb9dbcaa8478a779bcd86cccc7ff8cbfa9cf1cc8ffdbbfcc8ce7b
col42:   b9bb8c237bcb8789b879898c462bcb567b79899892b9cfd67bcad9bb9b9cf96abbdcdda9eb87dbc7
col43:   b65bc9fb9ae8187b694b99b6becdcbbdbd9be3bc98ebbefb79ecabfff6bccbcbeb9bebebd7dbbbb9
col44:   76b5dd96cb96b7c6954577b78c7b7f99bbfdfb76b9bedb7df56af9ebbb7bbbfb897ef7cbfff7898b
col45:   bbbdb56c8b89bdbddb6bb65d5cb8b9cbb9bcecb9bacfbbb487c7b97dbcbbfdc88cbbbc89ebf5b8cb
col46:   88b6bb788bc7b56bb5a958cbd6799ba8bdebe988d7cd9d8b9b7bbbca5995d8ce83ec8ca9bcbe7bbb
col47:   b88661bc6b3cc6edd9fb7bd9dbb9bcadffd78bcd99bfdf8b6abfddceb7856cac97bf88c69adddc78
col48:   7549993c4b975c68ab7ddb6b7bb7b824bcae49a9eb8a6db8addb8bdabbbc699ba69ec5baeb9bdd87
col49:   b3667bb866bf858793ceb8cc9b7b6b5f8e9cdb89998c87f9bcc9c9df88dcabb5a36ba86cc7d998ab
col50:   4116584c37b8d656686889bb9537258669c5a568babb9e989dbbbabbbe89d874ba43c8d5d58c8887
col51:   1571b67bb77bfb3bb8695b1dbb77dccbb9b978bbb67b6999bfbbb89bed7bcb6b6bbbb477bbbccb8c
