ROC:	 BPix_BpO_SEC8_LYR4_LDR32F_MOD3_ROC0
col00:   78a6a7789b8598a777799759b9278a77da9a9e57f9a68dbab76a55867a88a76674688c6845a55887
col01:   d97798978877d6a898bc699db97cd8a8cbcbb8aaabdd98bdae9acb997de7b5baa9b8baa58ab7a8c6
col02:   4aaa59ca776c7a69cb8a79bcb7ba6a8daa9aad89cbb9acc988bbbba77cbc799a7a649ca398774887
col03:   ab79b5986b8b5989a87ba99669c7979aa9c89cb79e98b8f9cc7dbacc9ada7b96cb8b775a997a5798
col04:   989baa89c9b789ea8a9a8889c9adabeaae88a89c8ababb9ac8cc99cbaec6dca8cd78bb79b9a67986
col05:   6798a954999aab889989cbb88aa999abccb96ba9ae7b678aa9a7b97bab7997aa79dc8889ada68644
col06:   9959b79a9864a8989dbacb9baa9cace8c9aa99ecbaec77bba9a95a9c8db7985bd8a5b7bd7a6a7996
col07:   96a6759b876bb48c7a97ac789a7bad98887abaab7a9c8bcbbb7aa8ccc7a858a78886589399667866
col08:   75789cba6cc677bcb8a87b79ba99b67c6a69cac87c8cb99ea75996968ab8989c97bb5b8a68758b64
col09:   abb7585aaa96757a7a8f7899caabccacb6a7998dce9ccbdbbcbcc9b99cac9887b89baaa778ab9997
col10:   6c798c5a6967678ca688d95b797ab98b6b98a9abc77b8a7cecafbacb7ad8bba96ea9765a74667b76
col11:   a48878975ae977978988d9999a8c7babb8ab98a98dac99ad877c9c987aba6a8b8965a7955a659aa6
col12:   8aa5b6769b5ccaa6458b6d879a8ab8b9b7b77a5b7ad7b8a99bb98b7899a8b866c967769878898579
col13:   58788c83a986887a98776ab7c98ab69aaafdb7d7babbbce9dc9ba96c9b7ecc49998aa77a98799675
col14:   79a793b8759b86c79bb5975a99a8c8aa9abda9b9aaababbda9bb8b78d8b99add9ac9bb77ba758696
col15:   a995789a497398aca97b7ada5a88bbacabcab986b989c69b7a97abbd9bbb9c6aa97a5a9e7b8a6b94
col16:   767b87aac7ba9c8879a85b77ca96c8bb8adba9b8ac8d9ac89c8baca7ac997795ab67d8c8ba583999
col17:   979859478963877887abd867765a8b798daab9ddc6977a9dab8997ba9a96d664b9a6996766766545
col18:   98799a599b895b67d9a7b8c697988545978ba9acada49d7a98b9e6da78aab9887ba6a89957a57887
col19:   7567a45778ad79abab96e797a98d5d97c858bb7aa97d7ccebaaa8bda3c8ad98dd787657a39a76744
col20:   697577a9867a997a9868cb9988b999a8bb996697959ca8cac969c77adcb7cc795ac74ca878838a76
col21:   96a4745657b55b7aaad998a98a9baffa9a998bd9c989bcbd58cc8d98999b7d879d66796899568b47
col22:   983747466aa6469d6caa98ca57789787986995c9cb899699cb669b8baabaa8ba686585766a69a646
col23:   686747775a974975ac9568c9a8a9b9ccad999bcc9b99999c9378a89897b8cd959c77b887673b5859
col24:   659877966377439365889a5798ba8b9ac988a989b96cc98b79d87b99bb79899985b7878498978643
col25:   88739757578c98988637b6a755b7d99abb985bbb899acb6b9e98aab5b9c6a978cc8e9a9993b88776
col26:   5aa5cb8995d998a7cabcaadbc889b78888bba8ac7ab7d9c99bc89cdcdb9aaa8c9985aa9979a67999
col27:   46977a997c86a3ad9ac99c89a8aba799aaab9be89adbe9bbaaaaaccb9cca89546a8bd9a988776335
col28:   794778a78957888a9999afad8bc7bbaeacbbbba9fb8dc8ceca69ab99ec7fba79dbcab998ea867975
col29:   3a76868879767a8abebcd8d67da8999acbd9cc98b99bbe9ad8edbaa7aacacb9b7bb889b87c89b764
col30:   c99a788dbba8be89aa77c99799aacab8eba9caabdabccaca88dadddba978babac979ba5c87b38873
col31:   4799699978bd9cc8bc8accbbcb99dbe99caabfe9bdb7bdacab9bdcbad9c9cac7a9a789aab7788559
col32:   a999a8a8aa978a7ab9c9d9bb8eb6d9baacbdaddcdedccaa7c89dbd8cdab8ba9c889c99a6978b9b87
col33:   58cc877baa88889c9c9aabdc95dca9a7e9cacabc9ebaacc7bd988e6bdaadb9ba9cea7dc69b77d7c7
col34:   89a994a3a9a98a75cdbabaaabbaaaeabb99abccc9aa9dbbaea9cb9dcc9ad8d87ba66cba789abc698
col35:   889889898888ac6b98ebbabaab9c7ceecedcbac7fcebebceadab9c7dabcfcfc8e9b9ba8897689797
col36:   6a9798aa993bb9bbaaca87bd7c8accdcbe8e96abac8ccc7eac5acbd8cbcb99998dc9a87887bd8789
col37:   aa775cc7aa7e893e8a9babaad7dcaacbeca8cabcbadcbdbad9dea8c9bbbddd9ae988b8c896a78896
col38:   87c8c86d9ba8badd7b9b8abd9e898c7c9abdeadccc9cc5cf9ebabccbfeabb99d7cb69c5996d7cbc9
col39:   c6a7a99aab6a9cccddecbabbbbd9ba9d778aa8dddaaadda7acdabedbfbecebacbfacb979e8789723
col40:   7a9965d899acaebd9beeccdcbea9bb4fd9aaaecfecddbd8f9baccacbbcada9fafb8aaacdcb9988a7
col41:   788a9cc8b78bda9bbadbdc88dcbb9debebecc99ab9bae8ae8dcd99adefaab9cbe7b98b8ba8b988b7
col42:   9a89a8aab59bbb6a9b98da9baa89c9cba9bccfeca69caad7adbeaacb9ca9deb697aa88998966b8a7
col43:   a459d8a78aa96aba7a999aaab9cbbbccd9ce9d9caceccddbbf79aaa9ed7baac99a9bcb9ca9d4a9a3
col44:   a997d9979b98bc7abe9aaa56bbbabbabca9aaccafbbacc99feaabbcd9ccadcba9a77a7abaa8a9666
col45:   847c67c77aa9c9d87dbd77e8caacbaa9cdbaadbbcdaaacaadac87eebd9bbca979bac68cbb69b79cb
col46:   a9967b88b9caba7cab999c8abab9bacdcb9aaacfef99ca8badbaa8b99e9ac99f67bac9989ea85c76
col47:   779a7967b8b88ba7cbaa7ca9abc79aaaacbd7ee989d9ba868e88bccad9be9cbccab7bab587c69e67
col48:   899759778886788a97bdccb9898ccbedac99c8db8cacbc8c7b7feca88c7bdb868c8aa88aaba49748
col49:   7786d7aa8b6aa9a9acc7cbecaab8b89db9b9cd8deac9cd7db9dc9cb9faf787bbbaa8aa7b968a89ba
col50:   5c8a78559ba9b98e9ebbcb9a979bf9dbbd8acbc78c9dd9b8cdd7b9bdaa9c9a87d99aa969acc6aa86
col51:   357778a6776689a87a669d99c878998697a8799b98a988aa49bc67adadb7a795a85a979477499359
ROC:	 BPix_BpO_SEC8_LYR4_LDR32F_MOD3_ROC1
col00:   553833444964856646767697156496589779b67a85777767982353787975636d8524a24965459415
col01:   6355a776536698a5688c66797655b835989ea58a4b8a6a6b8b676d59b9888a8a7988517777685a54
col02:   54544275716a889ab769c8b8a47a9a97a69c8679c75a696a6ad9898b55898c8884868975b9858864
col03:   4777932454939851a7787467a7878898a86abc753679598c9aa5a89a98568997c8c68967354685c8
col04:   6995437316467987896829779888a69bb8b67bc8a59988ab88ba6a6b8885997877748a7a87954745
col05:   8757562825497745876385939d9795a88777664bb9978b897d588987b8636779789796c646768488
col06:   34492679775796668877b997968b54baba7aa899ac7a1abac767c6d871a88678d8cda675b8664664
col07:   569656649a57cad7458486a697945e74b9c89869a8ab9a9c7b999e9568879b6b886898448878aa97
col08:   5912675344565a966976986a6557bca99bb879d85bc5ab8abb6967b498a6686968665787776a2a69
col09:   647868596a71b98774898958a9979a89c9a8a68588898d7a47ba9abaabaa79b825669dd97bb87496
col10:   4866864946686a8a973a76499a978a7a897e889aa796b6878779a68a898ba66a377778b638699975
col11:   76757a4175a54676a46777b85a8a6a95bc978a9798ca7897b6a99e797b789a69bad7576698949755
col12:   a537963566828765764689bd969ab9b4abaa9886684c9b949bd98b8858cab975b7284a4435586549
col13:   956896975795896585b6988755aa7d89cc98d9c8eb8b9ab6ca999e6c9866aea69595496867933a96
col14:   4867397777579745637876b599a2997bc98698ac9c598a9cd9864b658a589b866b3b879375638844
col15:   97747a667758a97abb8b79994a67bb9b59cbb993b6abc7b858979aa9bd86b9886a45a3a878468569
col16:   96688957685367ab878845aa897a5c9a9a9795ba59bacbb9bdf65996a99a7a99ab96459979456978
col17:   5843974617867883885597c778b97a969b6cc9b57c86daa9ab45a8c98884ca99a84853976431a767
col18:   2735665654869888776b8d795d894f7ac85bba496979b8a9796867acc8a4c87a6974458772636465
col19:   8854567476998797889b87a686aa7aac8ba7bb9dab9b89aa89999cc9d6aa564a89567792b5899884
col20:   3984866548767877566c9869878888aa8b9739dc88589b998a4b9c9766a2cc93865da66667296246
col21:   276668724775755b568999b8b8c7b6675c987cbc989877a98769ac996b7782aca475796679537655
col22:   864486a77979786a967c4ab5b779b96b979889999979b978888987d5997acaab6c5766347485b535
col23:   872993a963a88777876659768594bbbab8aa9acab8abe7ba98aaac8fc9849a7867889798b8523733
col24:   76126248386485a478a7a89cbd767b887ca86b966a6aa7a597c9966ab88cc8788a7969589454659a
col25:   379b7697a8546aa6675998bacaa6b8acca97b9acaa898c89aaa4c67ab6dc875a9caaaa94a2554464
col26:   a7b8a638919569a5a79a67aaaa77c7bca96bd9a99c8c7add9bc9d9e9bdcbaddc6aba95876b986a64
col27:   748859679496b99879a9bc9cbdcb897c9c7a6babccac9c9bc8c9eb69bad8997b5c8a67aaaaa358a5
col28:   876c5868a8ba5bdb5688a8a4bbd98a7bccafc7a7cb8cd99d9fa8dd95b978a976894868db96798ab6
col29:   885a797986a9986aac6bc6decc5cfc7bcdacd9ccbd9bd8caca99ccb7c9a9cb7c4ed9988b6a6565ad
col30:   77a488886aa74a8b9d775b7abc998ca9cba7b9a9accb8998a9d7a98dee7ba997ae7798aaa597aaa8
col31:   a43ab8abc9a587bbabb9c6bbac8999bf999e6eb978dbe7cbd8ccdcdea8ab97dcc9989a9679c7a675
col32:   847999ba8b8adbc7adbe3bb6bbaac89da89db8d9acca7ac9aefeaa4cdbfbbc69dbbd8b6bd87695bc
col33:   78abb89a897b8b5c97d7b857c99b76cabe9bbabdecbdab7ecddcafcdb9be89b9958e995bca7b5869
col34:   2b676babb9cbc9b9cab88bdb67ebce9bcaaa6a7acd9acfc9ccefbeabcaa9ccfdf9bba998ba5898c9
col35:   9888658866d898cb97ccdbaababcddcd9aadbb9caaeaecdafb9eb99aeacd8add9997789b89a9c658
col36:   c7b875c69b68bb7789fba6788b9b8b8bada7bd78cdafcdcdb9a8b9ddabeabc9d48988a5687a788bb
col37:   6a8996aca46a799a8dab9bbbada9d9bdbdaadcdcbaa9ca7addb677ec989acb87cea88c6fbd98dab6
col38:   856ba8888a99aeaa8ccacabbd899a9b9be8fd9869cbaeea99cdccac9dabb98e89adb9fbb6c7b8b9a
col39:   8a9d9768ab88a87b699b9abab79b87cbbdbcabf9da96af9bcb89b78db9a5e67e7a7897b597b89ae7
col40:   96a7889d9b7bc7a869ca8ab9aacbc8ce9aeecb9d9bdafbacea98bcccd9a9ccdbbbcbaac8bcb869a8
col41:   9a7988a9aaaf79cc79789babacaccbd9bdcbbabcba9ce8adb989fad9c9bdcea9cd56a785c976a87a
col42:   7768949b89c89a7ebab89bb79a99dcaccddcbb7baaea9ccd99b9dabc9fbdb8c9babe4ab998996e89
col43:   99a5bd775cb8c7e7bedbdc9bddeffb7eecaffddafd9b8bbc9cdaabb9eeececdadb8a76cbd99b9c76
col44:   a9ac79bd898baada5f6ba98f977edace9cdbc8dacedfbdae8accbdccf799fd8a7c5a99bc28ac9b7a
col45:   7a679be89a7ca978da87adea9cbddcade7ffc9aebdbac9cacc9bbdf4a8cb9fab6fed999baae68e38
col46:   97596a7669aad87898a9896daac98cccaa7bbbfba8cbdcdccc9cebc99b8ac8dc865b69a67dbc8986
col47:   8a69788a75897688aa8cd9cbbfdc7bbb98cbecccccfae8ebaaf86bbfddabfdccc8dcdebaf8ce77c9
col48:   5a99cc889a57bb99f9cadcd6c7c6ada8eaac9dcbaa999ab99e95e7bacb988ceeccbaf87cbabac847
col49:   a9aaaab9b887bc7faba9a98bccb9f9bdbb9cefbabc9dbf9a999db9cbdbca88fd9cabc9aa77f7b898
col50:   a858bcca68389ab9998a99bbbbefd9eddb8c9baa9abacbcbabbbcd9caaf9bbab97ab89abaaa7cfac
col51:   4b49867a4a8b67a576897861588aaa95ad9979ac79897a79cb7d6a9b788c79987a5b9979758b5836
ROC:	 BPix_BpO_SEC8_LYR4_LDR32F_MOD3_ROC2
col00:   9237495a4a7a76ab958c78895963ac59b968985a7759c98b69b8a5a8b3798579b66968b7955b3514
col01:   79676789b4567789b9cc69aa87a97cb876999ba7a7b88c8bbcbaa89867c9768599669abb8e5a5a57
col02:   c977ad7258d78868259c979b78b6bcdca7af7ca5cbbc789cc88cabb89c8bc8d58a9dba85885a6788
col03:   5aa6657c997b797986b667ea65e78aaaabdca9bbad79b9ab7cabbacd79bc8e8697ba9b8a698777b8
col04:   8694ac996aa77c889776a87a9b8debb6cc9ac8ccbafd97997b9b79d7aacbd7aad895a6a9a8776899
col05:   9899968b8d5874a5659aaa9cbaa7ab69d8a8ccdc8d9aae7adbbaa99bdaab9ac876cb857849597798
col06:   669b98b989a8997998698b99d38bc9998c86db989ea9ba9a99dbcad479b984b8a8776675699389b7
col07:   755855677aaa9ab787d998898bbbccbdac67abfd85ccbbd6ca87abbbb8cbdc788a439ba948757ea4
col08:   77568396996a8a99b899a99acabda798ba859ad97a89a8a988ab889adb76ba99b57b5a9598844776
col09:   97a3758888a869c79a9bb96799e9b998bbdab8abcca9b69bc9acca997beba7caa768a7aa889886a6
col10:   47784aa3776aa7ca7b7887b8dbadb78d19af8ca9ad6bc98f7ca8bcccc76c99aadb7867ba45d76b67
col11:   559587a8748b696c7a76a8b7b4c8dc899b99da89cabaa49de98797cb99ab8a57bb9c99ba79977875
col12:   6367585b67587687978bc86b78a89bcaaabc7a98bd8a9ceabe9b8caaa88b78655f477965d56b858a
col13:   8568766498866799a998889dc9aaac767ba99a9b69a86988a9baaaa889b9aa79b8875575695985a8
col14:   87646689a7b87a68867a98886b9869886aaa698cb8a7bd899c98a587ad976b879d9aaa8868c78844
col15:   868b373c9688b8896a9abbb7799c7ad8edd88a86788b689e6a6bbcd7ebaaa99ab88a586379d9678a
col16:   5ca757b4949c9876838988b9aaabb7bdc9a5cbaea4b898b3c96aa99a898ccbb89a6b5b5568988596
col17:   51676598ab668545789b6b9a66bc996d7977888baaa75bcc99fcab997cd9bb98ca99aaa555776844
col18:   5a9a84c389788969b8ac7c897aedbba9baaa9c9d87da5b9ca5bbd899be9a7786698b669779266946
col19:   79853667785677bbab7b88a8ac487bbcd6a89cab8cd9ab88cb8b399bb7a7be6a897688677a799977
col20:   45765278a456994a6a667977b9cc8859a987698d799ac87aa79a9b9a888988a778a267c966553882
col21:   8745858a7a8597a8d5797398887a796aaacbc89a868bb78867b898dbce75d9887c838a76c8966665
col22:   949547c36866495967baaa5987a67e688aa8bc7ae7cbca89d9bbd68cb98bad897aab661c95527855
col23:   765764983759a77697776a9a9bcca676a89bce78667ea8eb898769a5ac9d8ea9aaa96c4586856775
col24:   6353944757b1859989a99aa8599daba886c9dd697a8bc878cc7a9c9a9b997baa778c9d3998893883
col25:   516987998b94599779888ca95aa95bba597a589a79bdb694aa6bb5a7dd7aa695a9898899694a6465
col26:   8799b88ca767685b8aa7ca9f7a8accaa96dece9b6aad9bcc9c9596bb9da99da9bc7ba8baa9579967
col27:   7a69899776ba4a9d7888ba7c776a9ab9ccdcbcb8ad869ca9aa6cca9ace8bae7c8787a7aa98d89697
col28:   66589859cdab4b58b87c9dabd9879acb7ddbbc89e9acacec6cdaadab9b7dcabcbb85b777899aa952
col29:   792688ca8a77a9998c7adaccabba8a7bdaa9b88dcbcbfd9dbbe6cbaea8cc8a49c69dc6b89a5989c3
col30:   55acca796e896b96a6bde587db88c8acbddb797cadceb6779ed7869fa7a7878c978baaca69ad895a
col31:   698989d888989888b9bdcc9bba9ad9a99cdacea8badf9aba8bbaf9e9da999ae9987acbdeaa98c899
col32:   a79ab78c8ab5e99a898988dbbe7dba75ddc8acafbda9aabcdbcbb9aadcfbaac7bbbaac9aab8aa888
col33:   b99ac89c79a7ad9baad9a7e8cc9b9caadccccb99da9b9b9bcb9c9c9ccbaf79fabbabcb772aaa8697
col34:   aa4878cbaa6577a5ceaea79c7a9ecbaeabbb9dbaacbeddc6faaaaada9cdbd79daaa8bddabd966b98
col35:   89559776887baaba7be8989fababad7abec8b99ce9cbdeab97ce8979cdd965aaadaaa8e489a8cba9
col36:   8b5aa998a4c899aa6995b98eccabaaa9bac99d9edbadadccfbeac9cdddcbd87aaeb8bbbdb68958a4
col37:   9378987ca2dba8aa9accbb9a9a97aec9fbddabe9b9dace8db79ffecced78cddce6bfacabacbf8a78
col38:   b897bcbacabbc9999dada88caaccacec8df9bdfdc9ea8caaad9ccdcfdccbcaabba8ebb7968ecc9a9
col39:   9869989a89c98aaab7899d7afbd7badab6cd78bbacd9cbda9ccdeb9adaea89bad8bdbe96c9afabab
col40:   78eb55a5a69b8c99ea87789c8fabfac78ccaaacdcdfc8d9fc7ad9eca9999b9afc97b9adb76b778ea
col41:   bcd6cc8c6a7a997b779b9a8bcb7bd9aabddcdd889adebcbabefd9bbb9a9bccccbe7db88ebbaa9394
col42:   ca799a698c99bab7babbebba9fcdbbbab8a9abdc9ba8bae9fcbcbfcadbdadcbac9a8a8a7786969f7
col43:   5ab587ba79a7ab99acb88aad9bdcbedc9acbbe8c9bdabd9bdcbbcbc6cebecb88deaf856a69cd5997
col44:   88a7db6accbaabec8bad8cbe9bf8be9ee967efdcbacddecb8ebb8abebdbcaaabca9c79d9b798ac8a
col45:   97759879d8d7ebb9afbb7b9bb97dfeac8ddaaacdcabcaabcadbb9bdaaa8f9ca97ca7eb8aa79badab
col46:   7778c9c99a8d7ab887a99e7ad89d9bbaeaa7fcb89e9ccdacbcbd9aadb7ca7aeddc99b5fb7868ba9a
col47:   89b498889a6a9aaaca9aa7d9ccb9ec7b88e9b9b9ebe6bcabc7be78edeba8abcbbb7ab68cb7ea7797
col48:   6849857c9a85a5be7ab9c89aa8a6b9dac9cac9b99ccdd8a9e797ccbdbcdeac8b7d9eeac8d9a8acb6
col49:   999cbac4886a7c95a5ae9d8a9ccba9bfbddccfaddcbbd888c9cb9cc8c8bb87e95998697a9c79a5a8
col50:   b987b988688c99676b8ccb8da868a89f87cba99dbcabe8d99b78eec7b8accbadbdbcaedce8c88599
col51:   7786995c68767a686988aa6a9a8a78acacac5b7ab9abb9aa98c899aa977c987aa8a59697c8a8679f
ROC:	 BPix_BpO_SEC8_LYR4_LDR32F_MOD3_ROC3
col00:   39876888875646679c59777e88595c78abac786c88b5a7b59b97a9b6959b58948798785559977774
col01:   49766797a686757987da399588c69a7b98899a999b9bd797abb78f797cba6ba8588eae7576696b32
col02:   7c9a995599c7b8787b778a99789a8bca777895daa95a89cd8ba9a947bac96857cb599a66595bab62
col03:   78a993799967cd798aca8cc75c68d688d898ba7c9997a886baacaa98baacc89bd987667577788749
col04:   867b755779899667c8969b64aa9a5cdf87abc898aa6d9e8d8aaa7a7899c99a67879bb6659c6b7669
col05:   535836bb788665aa46aaaa8ac839a9aba9ab8adc8dbafabaabad8d5aaa9977987786598788458a18
col06:   7a65948b657ab6a6798acd99899a698ac9ccac98aa996ab9995a79b7967857a977b9d5bc8b785666
col07:   18659b7778787c6648399296c6a9ac986b6cb69b46ba9b8969d7fbab6a8b65d96a886b6639379938
col08:   889565894997bb8778879988cbb988a89b877a83bc99a7789a8b9a9ea4b6a456895b859c78996997
col09:   a9962688798e7879b7c97b88689b897998a798a8a9ccc9ad7699ccacb6b86baa8b668a8993aad7a4
col10:   7676977a638742394986ca69abd7979ba9d4896a9c99aa6a998bab5ea78a7c43598875499b958896
col11:   5754a3a876a7789376687678d8ca929a8c7976c78887759caa9aba9ac668cb9c6895589718699986
col12:   77b7a86ba998c7b8a987895ab79ba5abc5ab88cdacba9b8ac8b99884b89b8788b799cb87564b6637
col13:   55696765623555a58b5989b8a99c977989baaaa9a9a979ab8acb79a8baa98d8b7aa88748a8888757
col14:   37567ba4956d779a89b66b568f6bbac76c95caae8cbb6b79a7dab679855bc9aba696aa4986558a67
col15:   684968855785a766688b65b476a6969b6bb6cabd9dad78aa9ba86dab9538ca8966c9686467368a76
col16:   a7889655878a8567b66a85585b8667bc964dbf97c9a96cbaa8d9baa7a977cb599bacb9a668964979
col17:   43886257887699767c7944b96a6a8a59c8789989b98b6ebb8b6aaaae769833a9987ba5a897684466
col18:   36538248843a465599b8c76c78a879a9f895b998b68da7999789987f5a7895b879868767b1567681
col19:   55a589758c776b78c7a6ba7aaf98ac766ba9ba9a9c8afc8b678896797cb8b977875b376b82583368
col20:   6945553358a6b8b994c96958877678677c7964a69537c899b978a9ab8996a7a88899a89547587943
col21:   61649756b4778876a7769987ab7a8ca999ebc86794888b3978abbb8ac7b479c9355c9a1774656876
col22:   527874a5488a587c978b9763a886a7b99845ad9786b5aaba8b759469a7cd6885b77482834a656664
col23:   699b546687756776c8874cb9b7c8598b79a9a6985777868a889a77a85a7998565478568977b77377
col24:   1566995b5768568769c596696677a8766a7577859888a8b89899ba88a9aaa5a6b5a7a69995695878
col25:   8777654886a8765588965a9aa99b8c8c9ab8999a89ba978beba69a5b9aada679ac49aaa652687a39
col26:   74496db56e9b69b9ac39b8a78a5899dbb9fbc8aacba98dcab5b9ebb9abc94755bae889b9c76aa766
col27:   5687a957846d799b6cad6d8db79bba9a9adacb94aac5fea9dcbc9879abbd5676478b75a98a58a974
col28:   9877a693b79cc7799ba5a9b8ae9ccdbacb8cdab9baab7b89adbabc6ceac9a987b8a89b5afaa87882
col29:   773898889ac8858adb798a8ab9e8d6ea8a99dd6b9cadaadb9c76fd9bf8a4caaba9ba8b64378aa38a
col30:   862a3587a976a9a7769ba79889aad5caabda98ab6ab7f9aaf9c7bdebdaad79c6a879ac8a978a7889
col31:   ab657ba8a683cac59dadc9bb6adc7a9969e7a9b99d9e9c8cbaaa7aaae6cbaab9bae9cc796a9c7978
col32:   a966487a586867cb88ab9bb8dc7daeafe78dcceab9dc9bafeaaa9999bddaa978bcbb99a97a78868a
col33:   b8c898a6cb99ac8a48baa79ccdbc9cbb9ba9de8eb6bea88f8a8ac8ba7faca9977ca7d8cb899b8a99
col34:   799965ab5a89fb97e7acabda9988b9c9ca88cab9bba9accbca968baddf8c9caba78dab8debca8997
col35:   6b78679cbc8589a9aba9897bebccaba99ab9acaebccc9caba8e7fbdddadba688e6cb887bc8d9d8ca
col36:   8a889487c77779bb98787babb6a9db77acc89bcdfceb6b99acae8bb9ccfdeb78a8a696acabca788a
col37:   66c67967e8997c8d7f9b8a9d98689beadfbb9cec6bf8acfca8edc6b68ebfb898dec9ba9abbc4b799
col38:   c99a4dabc6bb8e999a989a96acabbccd79a8ac99a9ccabca9a8deecfcdb9cbc9cbbacbc7bccc99ca
col39:   69b67acaaaa9ac98869da9faccd7989b97baba8bbd8ebaebeab7dd8acbe89dcbe9748a97c9999888
col40:   bba98868889ae8aa7b9cadc9996ba99788bcddb8cdfadcccddd8ba9aacdbd88a6aab86a99bbbddab
col41:   c698b798ca8c97798aba9a5a8c9abbacf98ddcc88ceecc67bbab6caddb89cb98bcac7ba98c689699
col42:   875bccc998a9c989988aa9bbd989a9ecce7ac9be89b8a99cde98dcc9db79ebbac97bf8a999aa9a65
col43:   a8999989aac9db9b9c9b78f978aebb6cca8dcbdbb6acbedbacbecadc7dbcadbbcdccab89bb799856
col44:   67b7a888685ebfab9bc598cdfeb9b7fceca7bb8afb9cef99cf98cfd998d8dccb7ccbb88798e9a785
col45:   65a96998687cdbc7ebca5abbaadbdbbcbab8bcabcce9decb9bbcddc99db9accdb898b95a7b9a5795
col46:   88565a6977695b6b99bdd8baeda68bacbaabccb76acba9ebdd9bdcbe9baba8cdb9a8c99aa9aada8b
col47:   7a68476b598a786889a7ab9bbd69da9ba9dbdbcc9bbebacbfdbd8afadccd89ac9caca799aa97cc93
col48:   5779578676b49867789dcd6ad9b98aa9cbc7bbbbceec9c79feccded6dd8bb757daad96ac99dc8d96
col49:   a2a8b48a9b6b7a99999bbbcb9c6b8798878dab9bbaa9a799d9f9b8c8debabdcd9df7ea9c8e686835
col50:   a4b988696b8a96aa99cc8c97bb9bd68a7a98899b9dc8e9bbc99dab8edbd89eababcbc9cb57bbdca6
col51:   69677888b94674bc466695a9888878988a7bbba7da9a7798778d98acaacb6ba9ada86885c8bcaa66
ROC:	 BPix_BpO_SEC8_LYR4_LDR32F_MOD3_ROC4
col00:   645432462658381723655596765848579645778663a774898b666558469ca757879b59b886b877a6
col01:   2356459597566584566497a774698b5769ec7b796ab8a5768387ba89988a9ba8a88ba889b8a69aaa
col02:   645656657492368747745ab74965788b87567788c889ab99a5bbc67cdb78ac869a9b67598a89b879
col03:   148757857756755655b689879486ae8889887998a7a9ab996899587969b78a8968a987dc7db6c9d7
col04:   66641568a676598956a5874b849a5997aa867986aaaa9a5a87a9a99993a9ca988898989689aba695
col05:   35884595558b8849665877d69966a76a8ab687767a9d88899c6b9b8b88aabcabaaa8b55b8b8c96b7
col06:   939656781488875a686aa974945a766a86a95a7a869a89ba689879bab9b98989a6a7babd58a98976
col07:   467677a755764874a8988b9985b689b6abaa7a8888c9978bb996a97da9eb998baaab8aa7967bc997
col08:   9344673587474686997daa899798987798659b968a79b7a98bbccb786b69a9baabaaa9aa789c98b7
col09:   8837865355767695788886aa938a7b9a5955879999ac689a98c778b8cad747897999bbb95aada79a
col10:   466456276a64669855a9aa7b9787a6e7abab9a5ab8c8987aabaaa8897899b6a987798a8a8b89777a
col11:   56a587a6777b939595688948a9768bc68a689ae87ac8989a56b7858aa88c988acaa9dbbc98788988
col12:   57588578753746674a87996a95777a89b787a8ba97c686a988dab888c99cb9caaa899b778b99db88
col13:   66738698787776a958866bab89b6aba9a9576b798aacb7aeb699a96ab98768489b9b7abb498bcaa6
col14:   4467576799a64c88756669a9889a987b689b999e8597a9b8887aa99baab8bbdc9a99aab87456aaa6
col15:   676765865688789a986b978887778877b9b8788a94aaa997c9988dbabab89eca7e6c8a9a886897b8
col16:   55868476968847757887b799b9bc6b99d9669ca8b999cc9a79bcbc8ab98aa8aa8a78bbd9a9ab99a7
col17:   5896774286a8637876968ab77b78aa98689998b98bb9baba8899b68cb9788a98a79778889b9ab8ca
col18:   57449767765686a889a4989a7a96aab4aa88eb76a789aca8a59877d9a8bb9a98a8a9a584bb9ab7b8
col19:   6958646a549b64867689a977699a9ba7b995b8a8ba8897bbb7abc87daa9a99cc599a9987b9b8bada
col20:   674576568684a7a965b889bc957c9b88884998bbbba779a686addbbcb867a989a7969ca698b8ac86
col21:   67785655369793593a8ac77b4a97bb9ac9c98b899d88c9a7b9cab7b8a9a98879598aa99b677787b9
col22:   867a6579666a96675769a888aaa987c7b9a7798aa7987a97ae7b98aa9abcc9bb79e7878878a69957
col23:   86a787776968a57645567695897a89c67799a889a7899babb798a889b7ab69589b9887988ba8b489
col24:   7356936965a6785a7899799799a49b8c788aab65dab9a8ac59a9cab8a6baa699a9979b986bb978aa
col25:   a346aa85879678a6868aa996b9877a9aa697ac9765caaaac79978ab77ba9c7caa8aa9868aaca79a8
col26:   8668957884767893d8b9ba89ac8a9d78c99caaab8ad8dcabd8c9d9abbbebcbb65aaaf8c7aabcaa6a
col27:   6a7ab8b778667a9888ac97879bb789a9aaa898999988c998c6afa9d9a8a8b8b9cabbb88bad8aaacd
col28:   67659788ca8baa976489cdad88a9989bacbdbbcacfdba8cba8acb9cbbaad9999acebdfbb89dbcda9
col29:   7b7a9787896888978a9998abb9c9bdacbdadbcbc8cdd9aac9badb69dd89bc8cd8bdd8caca7d8abbb
col30:   97a797a5855649ba89b99aaa79999bbac7a9caa8ceaa9bcc9deacdadebbbc6b9aba9ec878be9dbee
col31:   648968877ab89c8899a9aa8cbbbeb999b8cabaa8ceba8becdccacbc9ab9caceacccebadc9bcdc9cb
col32:   9775a7ab987a89aba988dab9cbccb9eccbb8eab9cbbdedcccdaddc9fba9df9ba99a9cabfbabbacfa
col33:   6979a899daa9899abaf9aabd99cc7bc89dafdcfb9bac9d8d9bbcebddadbeeb7cbdca9dfbb7cafeeb
col34:   a98b697799ba7b97aaacb8a9cbc9a9cdaec8c9ca9d9cca9babeabbaadcda8dcabaafddcbabbbaac9
col35:   a77897b89b7bb8abdb7bb8babdadcddbbccccec78da8acbccadbbbccabdc89bbdddafeccfcc9eae9
col36:   76c8cba797a9ac98d859c4b8aa9a9ebabdf9da8dccdceddfbe98be9bdd8cdfbb9ba9bc9baac9eed9
col37:   989b79c9879ab8e8cbcab8aeb9ccaabdcbac989d9e9acbcdbfc7cbdeccbdddfeadbcbdcabebbdec9
col38:   89aaa697d9b8ce9bbbcdacca7cca8b9dafddbdbaa9bcdcb8deaddbccc9a8cffcb9caddfbfbea6bca
col39:   8877a896769ba569dac9dcc8a8aecfbdbccdcabcedacbbaeacbdbccabcbbda8efbbdcbbb99dcbcfb
col40:   37a698887a79c7bcbc8cabb9baccabcedcbb8bacbbc9dbcbb9abddbaddbdbb8ca7deecacbcbcdebe
col41:   77a7b889a98a9b9caba9dccbbdceccdb989a99babadebbbd9bbbcefafdacbcbacabcdfaffaeafe88
col42:   5878dbb7baa9dabb49abcaabe99bbaec9bbbecebccba9afdcdfcb9e9e88ecbdceadebc9bcddcceea
col43:   89a7a8a9c7988adabbcc9aab9db89abfbdbcdbdcae9eccbbeceefdcca9bcdbecde9efddcb9dadbbb
col44:   677997ac96b9ca7ad9ba9abacc9daabb9cba9ddcb8add9ebdcceeadaddefdb9dabfcdfdddcbeebcc
col45:   9959a8968dc8989c9b8cc99b8daa8cecacadfdb9ccabce9bedeafbccddecbdeacd8eabfcedc7daba
col46:   9ca9db8b9aaca9b89baada9cbbecdecbacdebfcbd89dc9ebbfcadbd9e8ececcaefc9bacddbdafeeb
col47:   a9b9798bacaa8aa8899ccbdabbc7dacfbe9aeddcc9acbccdcdfbb9abaacceefbbefcbdbccefd9ced
col48:   77b89bbabaeb9ac98ccaeb9daabaa8bfacd88e9b9dcebb8d9bddbfdaaceebcadbcbc99cdc9dcdcdd
col49:   aa579a9cb99bb8dbb85aec9ac8ccdd97eceddcf89cacbcefceafeadeaefddcfeccca79d99bbdfeaa
col50:   6ab3c7accb8aa8aa98ccf6ba9bbcbc9cb9bedbadbc8cbccfebdfe8ddbccbdeadebcccafbcfcffcbc
col51:   7a665585987798aa8a8daa9cec8baca7bdc8c9dccba8a9ba67db9ad97dbcbbbbcaaabb9aa6bd9ea8
ROC:	 BPix_BpO_SEC8_LYR4_LDR32F_MOD3_ROC5
col00:   46146796668468777453768a7587959b689869656756a89a8aacbab5867d99b69a679a5a9ac9a95a
col01:   6666943467a5b9656777998979689a989a998997a887a97b6b79a8b9abd8aaaa867a849b7b95ac9a
col02:   36789327359397899862c869c95694768686acaaacc6ca9b796aa68ac8ccb97ac7a3ad76a8799478
col03:   57b65667517662a658a754aab8799897a76bbe87988ac977aa9968a997bdc8cadbb878cbcaaa9aa6
col04:   228863a99466b78379cc8b9879988bdb78868a8c7899cb4b8b8ab69af8eb86d49c7a67c978599d7d
col05:   82456353644786655957899667b9ba979b498a96867bdc9a8afcb9bac57ba5d46699bcd8988aa9c7
col06:   78b7449597bb6568534a888925989b958ba97597778ec887c7aa8ca8b657a57a8ccb899caa9beaa8
col07:   7575857a766986a7868489958999aaa5a9999bb779a8b8888a7ba89a8e67eba9ca98d96887cba78a
col08:   114253688677969849a96798396ca8aa957989a7788db98a8caaaa7ae7647c677b489967d987b986
col09:   7a66856487879a8366687a798bc87b899a99dc898baa799ab9b8a8ccbabbc7b767c6c73697c995c7
col10:   728569836688459b87697a6a877a899aaa9bbba9a996eabbc9ba877abad97789a579aba8c7bd9bb7
col11:   9675525665695b767694a6d6c69994aa9899aa67cbca97b98b8dacb9a9aa97c77dba799bb8bdbcb9
col12:   64666947276ab6676939a438ea99a666e98eba879d9899d898d78bb6a99ada99a7aa986784bc7b89
col13:   6724581666a758396678768bab767b97a988bc977bbbaa899a98bc75a9aac7bdc87cbc8b8848d896
col14:   7516658866429185a87c779466989a8ba68899798bc6798555b9b8cbc6ca8ca9795c8b97aba9bc97
col15:   274889564785748876886677a8bbda997996d78cb479c668ac798dcac99999faaaa6c7cd9ab47988
col16:   8367b9656a76589a777558858a8b88a899d978a8abaa76abba5cbb99db87a79ca8a5c3bd97c7d79a
col17:   425454b3551ab658765798699a87975ba86b699b698ae37a6865dbbb7a7b59695aab9a9b86656997
col18:   767735376b389976898a5578578976ad8397b577959c69a5ba7be95dbab85aa5bbca66aa99595996
col19:   453667577639948989b889b5aa8aaaa969b787877a9dbabaec785a9b989bc4ab89ab5b98768a489b
col20:   2567863b5893a87a8c9ba99699a97a67a76cc9296c9c997ab9b6ca7c58679d5b979aa68c999a6ad9
col21:   823ca65a48296867a85a4678896c997ca898b88b7aaa8889c9b9c78da99999836c76abbb6998b8db
col22:   3835b597b867a77785678d9b86a78e8b889e676cb787b99d798778ac8bb6a7a8a5acba79a7a88796
col23:   7568644a98528557798797a63abb5ca65787aab978a7668daa6ab8b97798995898a9b74aa899886a
col24:   436247557697467749aa7a78968d877a78979a778877c6d68859c8a98a9d79758aa6a7a699e8789a
col25:   4689346965586696a967688994a99969a87a8caa7ab79bbba99adc9b8de87b97b7a697c8579af8b6
col26:   994897b9b86fb994aa79b6b8dab9ab8d79bc9c9cc888a9d7b78ba7bc8aca9768b69adaa8c8a9997a
col27:   65478659a797aa92a8d8bc499a98e9a9aaf9c9daa98ab9a9aa797be9a9a8acd8f7dbda5ca89abbc7
col28:   a392379764847978a9577886a9aba9b9d79adaffaa7eb7fcdecdcab5c998accaed9accaa7a9d7978
col29:   367449b6546abb75867ad66c995995d8aab6ba997acaa97be6abcb98e87c8bcb99a78ad9db6ab969
col30:   685575b87878a6cba9a3ac9cbab99ad897cdd7a7dbfb9cc79b7bba9bbaaaa7bb89f89bcab87999bb
col31:   867899b7596988aab9b8b9ac8aaad6bbec9bc9bcd8adbce9c8bccbadb9c9bdaa8c69ccc8a9b4daa5
col32:   5659458a8a9ab68bdbb887f958bbe9a8a9ccabaabd99adaa8abbacaaebbc9c6d7bb7aaeb8b9c8efc
col33:   aa78a8b7b7d6d7b9d7ea7c8789ba8e8cbba9a9e6bccaca6dcd9ababaa9b9be5ab7bcdaec98ad9a99
col34:   a67389a999cc96b89aa7b8daf4ca6a9bb9aebcdd9ea87df8cbad89abdaa887c7bcba98ecdbaabac7
col35:   399a8769ba99997c9b8dc99ebdcaadae897caccc99daaad7ebcec9ccab99aeeabd7af9a96b9efb99
col36:   685a8657898768a8b8d6c5c8b5aaaa859daab7abe9cba89a9beada89699dac6ad9a9ae7dcd7dceba
col37:   769a9859e9edc6bba8a9b86a8ac9dbebba78dbaabaebddebcad8ebebabbbabccbcfcdcedb9cd9adb
col38:   9495787bb89d89abb9a9ca9b8cdbfeda8cdaaecabbbec8dbdc9bcdd5dcc8ca89cacb9bd6bdba8ccb
col39:   7764549a9b999c9b8a9d7bb8caa88f9c79b9af99b7bacbb9cf7afdcdcbffade9a97979badbbad9bc
col40:   68a6b9878886a88d96d9da9dc9a6adccdbacdcddadfdab9bbbbbabc8dc8a8dbaaacbcddd7b8a9bcb
col41:   754a689589d9aaddb87bd5c79a89e8de99cecadbacafccdceddad7dabeab7b7acabe7bb9decebbbf
col42:   a79a7a988ab99d99a89ac99ca97be8ac99de999ca9bbadfababcbd9d8f9aaffaacbaa9bbbaaba9ca
col43:   7a9ab99879b699a89aff9cfe8fb6cccbf9eac9aaeadb7aaafb9bfbb9adcad898bddfeaccfcc9bbb9
col44:   65567798beaac9c6ae9979c99a79cdeb8dabcbdacc7a4af8d9fcd7faeeebcbfabadd9a8977bbacdb
col45:   7847baab5aaa88e8f97bb9ea7abc8ba8addafabbcaf9aaadfac9aaeb9e8b98ed89baccc8caf9d7a9
col46:   777c899ac7d9a7accc9a87cc89b79feabbea9adca7a9ea8fceaba9c87ecabaccdfcb8a98eead9be8
col47:   78327888886998699b977a8dc769ab5a97b9cbaca8ee9bcdcfabccca97bc99cb97c8ca9bb9acda99
col48:   b7398a8a66bc5cc867aab89ab9c9cddaf9b6aaca7faad9cba9ef9caabaa85a8ac8ba7accdd9c89dd
col49:   997897c8dcf9c7758bbacdb8bca7d78ec99b8d8fc8889ccdae9abe879ce8b7b9bc9a68babecc4ac6
col50:   9c5a978696a7867587aca95b889eeccbaaadbbcaaaecbbba8b9acdddacfbeddbaaa9f8ba9ddd9999
col51:   63394a7d8878bba75ac687cb88b98b68ba99da298abe888ac6a9a9ccbaa78e89873c669d67c899a9
ROC:	 BPix_BpO_SEC8_LYR4_LDR32F_MOD3_ROC6
col00:   25562676267568854838c88776796a89697b896464599a69683684c88469662917854789263a7697
col01:   6568574568949787a9bb696a689889ba59bba666786957b78da889a8985998747698aba769774a72
col02:   52443645a5a38567887d7ba56a9868678b66993c68b5b5877a877795b697973c7876bbea67a74584
col03:   4a77a87c5699a7853a53ca9bb9b9d9c5c8aab66787aaaa867c84a8d8a75986bb65c78b96ba98a994
col04:   235689779487776864568988a877686894982bb7ad8877888c9a997978aba68a4b699ab947a79974
col05:   7365756559887b67544c69b67b5999eaa998b8a7a8c789872c489bb664a8b977358d68a15a964584
col06:   7474ab779868ab8a7698779869c76a9ac9b698c59899a8d9a96ba6a9c84199879879a65a54566967
col07:   57496876665986bb59ada7858c99a7c89879a998ca996797cba8cabb7bd5ab496a95a798cb8b7b66
col08:   557658a77a5795419f8a8987ba8bbc79bbb9795799b886ba767ab98b6896a9c99967ab89b6996786
col09:   788988725aa376b7a79a8ab7a49a687c98be7587b9b989994ca968d66899987b9caa97c988679686
col10:   7485566964663868969a7b8d95d867b97975baacb6db8a6cc8b7ba978b898a899b4898679878aab5
col11:   7643675576886879b5968a876869999889996474a789599b8b27d8ab98a9ce889586b89b78b45778
col12:   976433885576586b76c69975db579af47a77688888bcba7bab974b8ab8ac69759ca6a9b8b9857c34
col13:   635488557746a7aaba3a99565889cc987976ac867ab94796b8dab87a799e6aab6a789ac8956a6969
col14:   3759a5a87b78596a796ba99b69a977d77cab6879698f99c99a789ccd999c9dcac89977862a7b6c76
col15:   444988a3788696a3c87a8999799ac9d49abb8d5b5aba879a8969abaf8955a58b7aaa8587b69a7c98
col16:   8678568ab5673a4645bc8d9b98aba9c974c8a9abc689a598a78888a896c8d8988ab97d87788cc2a7
col17:   6a4378a76a96677b9bb9b97b78899a6b87a99b9c8d8bbe979b58baaabdaaaa7c69a6c46bb887aab8
col18:   123778885456977495888c6b866bd898b7adaab787985e8c9baa9546968d7a9d7c7998d724851683
col19:   454575a77b444697b87c7797996c69b989b899b8a5e677cceb9b97967865b68b799995968c899867
col20:   34843775557b74757998c99899aa989ac8b7a69697baa6976ecc7b8c6b859689a66577a77a16b8a5
col21:   6677785988919685599b47987da8d8c978b8b959869a9bbb5c7a7879c857b8b76684c567d5869b59
col22:   559865886a2a6766599c976baaa9a9aa7a9caba87cdcca677bb977ad8a7db99aa98a769978a7a899
col23:   41447579593478718359b9387876ba7975778579689eba7c965797a7b7759278798a968a967896a8
col24:   657345a34964716b6b65a884673977797ccb77999bd5897bc7a9ddab8a7aab8b85a96dc9b397a768
col25:   45558789889797ac97a4a689be7c99897c9a5bb886a699b8abb69bb9cc5959bcb795b469778c4b56
col26:   89584659548a78aa8599e996a98a9ae97abaac8ebcab7a9cfb97989a9e77be88babbc997a9bfb8c8
col27:   468788b8bb9876ac8bb8c8ab7acbc8abdb4c7adacecc89bbbbac79ea8779eacc6accaac977a77959
col28:   7658968b7a999aa8a979a96869dadcb8ecebbdb8bb9d8d5998c89cabc78c7c9bbbcf98eb9bacdb9c
col29:   5776888879ba99cf5da6c7cb8cabc9cbb7ccb9b978ccfa6be7c66b9c9bbbbc9abae6ecbbbab9c8a8
col30:   9845787baa8a6598baab879a9a8dcbbccdbf69a9accbcbedb9fad7addba7cc97a98b9a888b8dbaa8
col31:   7878b67bf677976bdaa9cebbcb9ccacbdb8debcbebb9c7badfdaacaa7cccada6d886aada8cb877b9
col32:   b69ac789a8a8777d97a9cbaccbcbcaadcacad99deaada8afccabdbddfdccdaaa7a8a6eb9d9baae8a
col33:   348978b3b8c99a9bcca8ba97c7cf99cccdc8c8d88baed9aed8dbaad9bcd9cc7cadadacbc9ecbbabd
col34:   b89aaca9ab69879a9997a8b8d8bbde88aacaacb9d9edb7ab8cccacca8ebdda9dbbea99da9b98bba6
col35:   87a5bb88aa999e3bba5a7c8ccad87fcfcaaabb9b7dafbbaca8c7bc9debbdddcdd8bb9998bfbbe8c8
col36:   9da99aba579b7aa89dccaacb997ce8ab8ca97cecd9bbf9bccc98a9bbbbbbecda9ba998d879acf9e9
col37:   897969cbb8d99bcbbbebaacbaebeccb8eadeb8b9aac8999dccfdeaccada8bcdeadebbbbacdbfba99
col38:   9b88999ac9bf66b76b8bdad9cdabb98cfecbdcabc5cb9c8cdbc89cddbdceecbbacccebcc8ac5abd7
col39:   c876899699dabaa9b89a7bb99baf8acccb9fece8daea9dbee9babdda8daadbdb8bcbb7acb97dbba8
col40:   599d5aa89a89899adebcb998ee9fd9ccab98bbdbeeb9b9fa7bebccc6cafaa7cbcea6c68cababbeab
col41:   9a7ab9979ba5aa68a7d7efc898decbcbeaecbeaedf79cbccff9ab9cdcbcbdaccbcccdd9b9ee9aebb
col42:   79ba879ab8b898a7ccbca9ba869aabb5dc8ba9ad9bcbb7eacfaadadbeae8cdd9afb8c7fbcaadbeee
col43:   d74c987897defdc6cc9debcecd8aaabaafdebeaf8bf9fcdfffbb9bcdbecafdbbdfbcec9bf8cdefdd
col44:   87b89d9a8dd99bdac9dca9dbddcfee8bcbceefbbbbcccdabaacedbecfcdbebfdcc9feda7a8cced77
col45:   55988a8bbf9cfacbf8ccaad9cdaba9879daceabbfdbbccaeccddeec9ddb9e9cefbfb9899cadc9cd9
col46:   6a9e98b8cfc4ebe8b7afdb9d9be8cdbecdcaeb7bcabbc8c9bcbdd8cc9fad8eeefba9deabbebadf9b
col47:   c888dbc8cc99b89dcbce8daec9cca7a99cbdfb8ddabae9a8a9bcce8ee9eacacb9d8bded7eaadad9b
col48:   6698a858b1eb9bbcb799bb8aaf9cedb7d8dbdacbc8d99aebece8ade7d9cda7acedfcabcfdceac6c8
col49:   999b7a89db7cebcaf8bc89bde9bbccaadfdabcaccecec9adbfa9dfaca9dbaeabb9b9abdbccadeccb
col50:   998c9abba9dc9bb9acbaba87c89cadae8caaeaca9aabc9cdb8dbc7f8ca9bcbadb99cfafc7fcdebcb
col51:   6a874867b78a9b9897c898947bd5aeab7a9699aaa8aaa849a9aebc8caba98b68964a99a9a67996b8
ROC:	 BPix_BpO_SEC8_LYR4_LDR32F_MOD3_ROC7
col00:   92468255939a79217469886758989859989899c76896a458a798768c7577b798457975777b46ca95
col01:   766a47a6596998a8a9bd888c84e8bb9495aa79e6b7a8674b8b656f68989cc9d955a88c86b8885b66
col02:   4366396788c8a8c568479acaa2d9b8bc98abcc98b79d9d8929a5d96577b96bb8c9ac99cb9ba5cc7a
col03:   6469a798b979898757a45779aa986e9978abda76bca99cbca8bb89aa7788b88c9ca999aa59638967
col04:   47b99b488a958ba7a64bc78b8acc92887897e9ab995689a9bcbbb8bb8c98adcea8a6cc9958398995
col05:   6662599686d78967999b67998787978a965afeaa875aa37ff8babbb8ae7ab67aa98978649a7a8d59
col06:   34859ac57475b8dc888b8b9b68769a89b68d76eb7b8bcad7af98a887d8d8d6bea9979b9286968669
col07:   85984a895b627a8a9b698685ce95b7a79e97abbb8a9587b58b8ae95865ad35d8bca6a4a59739aa55
col08:   565688957965a474997abbc97987f68a8c98c98798bc68cbd6c9c57967abcc3d9a9877758986d4a4
col09:   5a43888a5677a77697985c7b69b9c9b9cc8998cb9beeabbe98ccc5898b6ac9cb9965a85d6ccd4b69
col10:   b77666778a757bb785a8d76aa618aab9b7a8a76a7a9a97ca6bb69b8ac7b8a9c8b8667d7cb87985bb
col11:   3aa194aca7d8663c8486a4a8c587976b7a9a49cc6898a6cb7ab895aaa9975aa789bea9988cc97665
col12:   5862584c79757768958996877bb988a7a788c87a64a88ccaa667b968bfb859c6bb379da799767b96
col13:   a65974849a48c4aa96899699688696bbca796cd65aeca97b9865bca7edb78ca9897879786aa721c4
col14:   783b817899853ba2896aa876abc5aa999895ca79aabb776abe89a5dcac97a77b87a58884949b688c
col15:   7996b69878a8994395bc9c56b65a679768b69998ab8889bae83a78bb969a84c85667847a987baa55
col16:   c679a97aaa7799a8a5a88ac776b75779799bac8799dd9fb8a9ba68ab9c9deb99b8968bb4c9a798b7
col17:   73586ab8b7966986688986ca7b778a9c9a6989d87a9999a77dc86b867c668b79949487b789776944
col18:   645884789b7a77e567847ec7e76c7cbab787f9c5e996c9a78b587c9cb76a8955e68d77ab56949775
col19:   7674785579a664777857788986baa978ab89a7b77976a98cf688799796d5ebb6b748a8779779c596
col20:   68943786585454b6696b69b9b7577a587bbc9679d75995b6a898da8cf8aab7e669b698a88b8cd983
col21:   6357737785879895b98996c9969bba79daa67adcaa577996a9779b9b896b898ad877b976cb99a6c4
col22:   a46a98849d9a979977b769b89858a7a8a899699788a8ad9874bc99b9aa9d7788c6c8968b89ad4577
col23:   332958553b58c855b7397a448687b9abc765a8aa78b8a6a9854869ba8999653468888ba855748863
col24:   589846b68589f8babb6a8799c87c6975b3aa868487f77968997878b857759d6876a677888b779792
col25:   688779878b6c46cb95789b66aac8597bbb9c9aacb96a9996689a4ba77aa68499a988dc68892b8786
col26:   8aa6a9aa8a9ac48888494ac8a89cca978a7cc9c6c8ceed8c8c95cab6baacc966bbbba9abb89d99db
col27:   88948a577d788cea88ba8aaaaadac4bbbbacab776ccd6bd999cb9abba99bba8b7a6a9a9e999988aa
col28:   398a594cb39a88b774d8eac4a8ab7acd8c99cdb979aaedccbbb7b9bd76c898b6bb9cda799ddbab9b
col29:   5784437aa6a989ccda9676999acd65c998cbec5bc7e997f9bb9aabed9babbaca86a7ca8699aa6687
col30:   a2588875b7a9ab89ba9acc7b8ccb9e88cbb9afbbb96aa79b8abcc96b6a479c7b97a49a899a98a894
col31:   8b67a58bb97b849ec98cec9aa3af8cc8cdcdeabcdc7b97cb67b66bf89bfbd7fa68cba77ba793b9b9
col32:   8a9769c9b688b896cc46caa9abd978d8cddc9acccbb6ada6ecdfb9bcbcd8b8dc86ac985b8bbaccbb
col33:   9ab88b89b98ba9b998b8bbaba9a9a99bab9dcda7c9c9eebb9ae8bb8ceaba989c9ad8bc9baa489977
col34:   cab99a9a9b9b2a78dba7a8ba9acaa6daa9badc89addcca8ecdada9f9dcab89a68bacebb8d7958ca8
col35:   aa7a6979da988a6a588bbbbac9dbcaa9a8d99cb68aeca6a989b79abbccaaa7e8e9b7988ebc99ccad
col36:   89a965696d99ccea5d7c9afaab998c8bbdababbc9bbeae9dafa8a69b99aacda89b8e8bb9aa7aa6b2
col37:   77a8b996acaa78b7899da88c9acadbab9b9acbdccb98f8bbc9eebc8e9d8fca7aaa9c7cbc9b7de9b6
col38:   ec98dab89ec6dc7a99d9cc8cacb999aaeaacdafb9e88aebafea8d9bbb9bbfac9be9d8b99a4ba7b88
col39:   ad76a9ac99b99b59c5a8ae9c8a77ebe989d38bbaace9b9b7beaba862a9a99a89c86789eca8ba697b
col40:   9e5ccc978898d6998aacc9aeec9edbcac499bae6ba7d878c9cdbdabe9b8a7e9bb8cb799b78a97ab9
col41:   7ab968aa99ca968764cb984dabfbe8fb9ba7cb9b9beaacbddafe9a6b8dbac79785bfb8cc89d99dc8
col42:   555898ca78a9f7aaa9bccbba8bbbb9fcb98aaac8db9bc9cbdad9beccbdad999cbbce7ac8bbabd9ac
col43:   9b996bc877d8d6cfdbadcba9c9acdbacab8dface8ddc99c9cbecbc9adb89bcc7ccabd977a5bbb87c
col44:   6a779698c99a8a99eee79cabeac7bcda6b97bbaeccabcabddddaba9bfabbeb9bcc9abda75a8ebc99
col45:   a97579786c89a885d8bcabf5abcc7bbaccd8dc8dbbed9aa86b9abac8a8d98aabb5b8a9878887d8bd
col46:   54a49797bbbb5bc8abf7b7b9d79babec9ab9dada96ca7aaaf7a8bedb89dccdc7d8e9987d87bf8d59
col47:   377b4689b88bbb79cad8d9bc9d58c97aaea8bb7bac98b8bdbcd8c8a8b9b9bb97cbbacb9a8abb89dc
col48:   889aaa997964767999a9ad6bdc89a799cac7cbddbeeed9d8adcc6877a7bdfbdb5aefad886ac878ca
col49:   98a773aaa98a889a5bc85ca8bb89857ca8a9a9adbbd7b87a8b99c95aa89d9cbb9b9ba8b9acbba768
col50:   697baa89ca977aa995a9b99a79ccbeba9acac9be58c8cbbca8c9fddbdcaacebca8baaba69677cc88
col51:   78d95898a564d8a49768758ab5988a8734a89b96b969ab898995bdb7b36a8a9ca39969657699a8a6
ROC:	 BPix_BpO_SEC8_LYR4_LDR32F_MOD3_ROC8
col00:   53668a87469b392899494685a986686984265676812a638667446686694447585972454345642562
col01:   a9789c8ba885948aa568b8b58866b48748956b65a98c9b87656a9596a677678966615b9459878856
col02:   5888873b8a997576946546c98847858977598749489889267885c6577786756767745a5a69a64649
col03:   56897cb98a79749776675a87a596a4ba9867c5b2676796a979997a7667b75b929566b94955474778
col04:   559cab5ba6b955a89754ba9889b7789679995967937a17477188788a9375a7949995898516384684
col05:   9579a888357388557758788397789734a978d945c3487827a4559a72857778967363694753543595
col06:   a9998ab7ac877a37875b4996776788494aea774587a846859a8966a5998888837876aa9448855889
col07:   66a79b8758548869b2769a69a48967ac7b89967869965a9b68679697659688695475685c5486779a
col08:   c75759889a73777878959786a336c886bab9889b938a3595a8a89993765789ab35469869564a9235
col09:   887da49987797585da78d5568ac879793867ea936557a9879a596b9773964976668b766b7865569a
col10:   8c68b9897865a7987ab996b98a457a4c7a887b985aa6865bb79389a6548686878847c5a85965b884
col11:   676b998aab89a673bdaa76886b58767986a7899a873bc98547795a77578b27843698897376688799
col12:   b48ab747ca76779989728a999a9a49a679c99c987b45586976a78a64878853884ac9679866814483
col13:   577aaa6a66a79a9a89747a56baaa99aa77698766a788ba877abaa9a7a9c64677b85786a7a5773487
col14:   766766a478b9677aba8a9a57877686b997859b96785968a657975883a9a8a85897649185875555a7
col15:   485aabc77a5977b6a6aad76a99877a9b9a69885788ba98c9378a7683657687876646616a9a442789
col16:   6958a866a94a7778a99885376575867b797677a795b77aa866da369784c498b88565867968576777
col17:   79a7c6567889987967587b87959aa96698b8b59784b8765a794ac8678a94b7638c47536686786585
col18:   b99555969a9667a889565aa567597acc89898aa79a785ba637646588446a86a78a7857a573638a56
col19:   95663586766b7759888a985899a9b695a9cae8b6c666c999abca6688b66679b775d7b74ac9ca3397
col20:   4a9748a6578999699896a366c7b98a7889a6aa98abbaaa7a77894878a6665669776b8b8798487365
col21:   57a8b7946775879766b7d8776aaab57bc89b6a86688678e946a798999899557aa895b87665986644
col22:   a97c8686a637a878b9769778876996c99cbb97879489a5a99a695ab7796897a99896c8956867659c
col23:   295579577b97997689696ab8777b6965aa49596a75a8778992787576676996584725486448686695
col24:   6567868888a5588b6746779797878786b7a7a87db7c8898b168cbb8a95b6695b6977599835889782
col25:   589978a759996c7558986a88b3c9b6a98d9a659a5999878988999b8b758564688a73b875659bc777
col26:   679a8845bab8d7aac986999badbcab9cbcb999bbac79a9c8668b47a67cb97845839789a837858a92
col27:   889b9c889769a7698987aacb68a8b68bdcad5da897c9b79998bd8abb99e9a8a6679879977c6ac747
col28:   8b8c86d899a89a8b9789ebbbabddacc9afabbbaea9daa8beb7b8b9c7da8b98bc75ca8388b596aa57
col29:   8c7979beb7a9ac79cb87eaa96cb988d7c8b9b9ababc9c7cb788d7c9a987d82aa9a799697877b9ab6
col30:   88599aa9b9d8e79aad6cad9cbbcabdc979c6abbb9c8abcc78cbfd88e9a997ba8a7ca88895b78d6c7
col31:   7775db68997adaabbf8dec8ed9fa76a9a8d9ecaabad98e898aab9ebb7a778ca4b5bab955b9a387b5
col32:   9a9bbb6d69ae6c67ad99dc9b8deccac7dcabb8aa7abcaa5da7aabbccba87acaafababa8a5698bba4
col33:   a9abac9888b7c9b8cccd9b7eca8aa8baadcb7969d98dd8987b8988e99a8ab57bac77b8a889986688
col34:   8b9ab8ac889a7aca7f9b9ab886d897c9baf9a8adaadbad9be5dddb7eab5ab979ca7779aa6b8a9c98
col35:   abacd79b9c9a989aaa589b999ed88bca9a9ad8968accda8c7adba6bb9aaa9abb794c9ac798995697
col36:   5a98a8c88abbb76db9bddec9aca9e999a8af8b9bba989cb6b9ceabab76b98697cbd8ac9b95a88999
col37:   a7b8bbc9b8a6a789d9caacedbbacdd9ec6adddac8b98a6babaaacbcd8aa7a9b9bac9ad999b89d999
col38:   8ba9acdca79aaabb9dbabaca6bebebfaf7adecbbcbeadbdb99bbe8c98bb8bcbca98bb5acc68bd8c9
col39:   a868bbb6aa8bb88a7a967aca76da7ba79ae9f8bacbbaa6cbda96b9bbbbbaaabba9ada98979797766
col40:   7ab9cdacabbaa9babb888cc8abcccb77bbdd9b99dcd9afbcacadba9dfc8cdbbc9bba7c98a7aa979d
col41:   cbab9aca9a9ccadaecbeedcb9bfbb97abafeeb77799bbc9c99aadc899aaaf7bba9ab7cccc7ba8999
col42:   9658fbc99abbab9c98b8b9cadababaecaaabbdb786e8fccbadcbcbb7cd5899d97b8a8ac8ba999b77
col43:   cc9cc77bca8abdcbaaceacdcbeeaadcceefbdd7cbddafdbe99aebaabcaa9aeba8bcb99b99cc9f99b
col44:   8aacaa8bbb7bb8d8a9a8f8daacebc99ff9d9badb9a9c68ab4cbc99bccadab8d8badbca6c7878789a
col45:   db69aa9ababeba99aaa9eb798ddbaaceca9ebaa9cedecbdfce8aaacac9bb97c7bb7abc8b697c9767
col46:   aa97decbbca8ebcbbfaaacb8ffa5bda9dedddbbdcccf8a8be989a99cb9ac98dcdabcbcaab5ccc9b9
col47:   c8cacdc75aabcbaabb5b9b8eae9bacd9f8ecf9d8bceb99aad8cb8cd79babbadb96bfa9be6b5acaea
col48:   c8bddab8b9d879a7bc99bbdcccc9ec6bdcbacddbeddcbc9bd9bb98bccac4ca8bab9aaa8a96da9ab7
col49:   ecacfcabeca9b9aecceacccaebccabdabdacacb79ec9bb4b8ebccaeaadcbbaabb99a98abdad79876
col50:   f7acfaccaceab799baf9eedcabcedbbabacabecabac8c9ad9fbcbe9fa9cbcb79acbaad85b9ba7b6b
col51:   9b99aab87b7b799ba9a7cd8c4b75aaa7ac99c6ba898667bca9a875b68ad6789a789b8a76b9d68ab4
ROC:	 BPix_BpO_SEC8_LYR4_LDR32F_MOD3_ROC9
col00:   3784425687c431a7994a985347686659b6c4744784b99348b391884528678a345497766583691739
col01:   fa1a5dad9b758a88c994979a77b6789a8a5a59788577998875958a8d7475a969b64b5376893a8963
col02:   3b87a889b979d68968b586a4ba87797a8a886c985a3b978aca75597b7aa792787767b7c64375bd67
col03:   4787578998a4bda78a759b96bab8a68a4b7dab688e85a286969646a99a7ac86c8389686798658c76
col04:   a3b95a95896aaa87b7b8cab7a8fb8688c8986aba77ba9ab86998b8c7aaba4768aa969414a947ac94
col05:   a1a688a8768a58b746968a86b786698a5b8986cebab9b9cf7aab3babb8a8b3889478859659c3a188
col06:   ba4999a99768a7956767add89ca87698879b76ab889a78bdb57aa6a9a8aa6756b6a769aa57547793
col07:   6794c6876a89aa8b89779b9acd789c538b93598a49ba5868da66c599697c946a7d7cd967c79a9658
col08:   894667b77a87875856cd9db8a3a498c676688b4a9c754938a2b5989774b483846a78335678464484
col09:   b7468765aa59c6abba7dcc3aa9d6b98cc87bb94a9c26aa9c4a66ba86ba676a458c6a58b6679b1657
col10:   796e4a84adc9b993c988796a8bb8c86a8899d9a9d7ba996894a97a88a19165979972b37988a265a2
col11:   b287a788c5cab6a97957a365a576a99557868897aa74a7545caab676687a9657bb7749957a542858
col12:   ab9cc79ac467b7886977c9a7c95ba5c66a979987c65b68d7b638a7888b39a479b7668487677a98b3
col13:   67969a56768e8b8b6897588b8a997986d86a57db8558a9e6cb555b797487b964a9a545447685c734
col14:   5b4c38564b5da856b96489d6a59bd6868b796ac8bc888c8857bb9b589d6172854659a6651a8a6ac2
col15:   a584bbb997a5b5bb889b6d6a78a5b998f7799a688583929d76ad8b996b9662859857b59678977866
col16:   9976995e776b8995489c8bdc7aad5ca39777bc58ab956997796a776497c776c889898457a3975748
col17:   98474b682ac69b685898899b6d577736cbb76b69678b63a2b2a5588bb8633b59b979348872989664
col18:   968758b88aa76bb667cc6b68557999879c758a48978da6ca868c9b96c979736931b7577445a9a537
col19:   968c8b77746b77a778985a977b99b687879c98b29578897a3ac7aa6888678b75832886795678995b
col20:   669779867857976a67a8f6485c8a9984b5ab667387788e9963d2ae4999b9896858c7677862517719
col21:   98a12b586897c88ca5879a9668d778b5ae87a7b9779a84a9b679b86586797b969485773769746852
col22:   562764b376a979ab4b7a98aa8b9e779797b669667ccaa789bbab867ebc4c78a676a63a7ae8757678
col23:   848989a6aa5a5879a876b87b899aa5ca9788aa77a91a96c7b5c487d99557a77a8696a77866486366
col24:   95579ba9ac98689a5799a8c18accaa5895aaa77abf8724376aaa69999995785763a9576777a94584
col25:   c57588b7a455a8bc9b788587b859747cbd688aaab73aa94daa83c82999627785a1a89697173a7886
col26:   69a4dc8598c85bcc68ddba45e5699bbb88fbb5aa99daacba95cbcc7bb898aab8b964c87696af7596
col27:   aaa69a7b9a8bdb7797ccbbbdba8b86c9c99a97899ab98d799a98d9b985aa9999bab8a5c9b9699798
col28:   685aaaa5a66ce8a988b69adbabf97badd987cbc7eba9daa87c78a8669cc9b7aa696a9a97a8749aa9
col29:   7d9b64999a7987aa99ba97ca9bc9c878e79b6b99a98894b9b58e8dda9747acc849a597f7975a7677
col30:   958ac91baaa9dcbe896a96a65ac7c99b67bdc87ddd7c7ab8c7b9baa79aa59986b999d8b3a7aa6b86
col31:   aa597986ca8a5e8bbcbaad8ca8abbb78a7adbaced99caac8efaa6ca996c79c89977bbc799a49c799
col32:   98a788aebc8689ba59887baaab7c9fad988b9cc8999a9cdc33cadbe9d88a8ab768ed9975a7a749ab
col33:   aa7778accbfab7aa767d7cbda9c9c8ba58d9bd7ebcc7989db6bbc97777ca9baaba98887c6e77b9b5
col34:   cba6acb67a8ab99aa89cb8cddacca7ecd8e99bfabc5dab8aab9afb98ab88bd697ba8aa76797b88c8
col35:   6d7b7bccb9a9abaa8a8bc65aabca8a9f8ac8aac7889cd6ce8a56a6cb9a8bbe5dbc77a56a78a9a587
col36:   c7784abc888ca6c9687bbdb7eac8aaab8fac8987cac7a888e7cab5bbc998c958e8ddb8b7656779b6
col37:   6b85a9d6c788b83a79b9ba6dc9b7bcac7fcecbcbcdbca5f8a6c4c976ad92c96b78879cb17a98d874
col38:   87d69c99a958ebbbb9d7acd9cd9ce9a997b9c88999badbdaeda9bc8cc9dcacbb9ab7cca6bc785a29
col39:   598a7abac8b96ce99ca9b38bab7a5dfabb9a8b79cb7a78a9899bcfcead89c8cab897a9ab8766a7ba
col40:   4ab99a9699cce9bdcbb59d7d99d9abbabdfaebeb8acb9b6aa8aaaae98cb88ddc8ac7b9aab2aaa897
col41:   a9ccd99de9a5bfb9d179daecbaf9e978c9b99ac9b87cadb8a68dbddaecaab9a87779aaa795cb8b99
col42:   579a6a8c9c68dcb99d9ebc8a97fabd8988bbbd9ac9cbdaa68e879ab5f9abb5baa7a9976388c5ebc5
col43:   b9c8b778c7bdaeb99b7cd8bdb7ddbed5f9eaa8b8d9cba8a85889759b8ab6a857aba995589a98b1cc
col44:   5bcd99bccc86777abaa8c9cba88e96ad9c8999bba7bcbb9796a8cd9b8588b8be6d9ce67c637669c7
col45:   6c99ab89bcba9ba6d9a9acead8d8499db8b6aa8caba9a87aaab94cea8855aa9bd89a669d75b9a679
col46:   a8a969aa9b7ad895c689a8a8abba7dcb7baabbcc8a89c5c9769dc98c9a6878a9779ab8879297d646
col47:   784798cc76a9697b69da576999cba6789aeb8b8bbb98ca7cab76dab8967f8978ac9a688584bd7595
col48:   99a7679c9868bc77abbee67babcbcb7cedc938c9897d899d389a9ba95d9978896b847a8a7a36a6b7
col49:   9b9678b8c9a764bd8c99b8d866dea9b59fb7a7c89ac987c89d5cdbd9b579a99d99b9687cd87b8868
col50:   36aca8d986848ca89b8dbda799bc9cb984a9b8e9967886c7addb56ac99d857938da991add6767698
col51:   8896c3983ca7c48a78665576768a85a871ab998675aba4787b89929775a8735751537966747758b2
ROC:	 BPix_BpO_SEC8_LYR4_LDR32F_MOD3_ROC10
col00:   393555597723853465574156b465b8444277523376771996677277747974538342857565a4212456
col01:   3735645449766d747796579a67d4c899c6641979497598c57864595865676a5886163a5775569257
col02:   17a46a6667865868473868a87687398874a5a6679a675974377665895597a5c38556468175b64411
col03:   935656b6887958899b9685286595a8a65a81b8a67dab96a6b25c95966b9256a7474682a665937626
col04:   8775986a87a9468297799b5b85687c596993b98d7246798a48788665859897877a7637964658a724
col05:   53768886846788858897587879aa6a697869689a6a669a8777889757524529847887671545446534
col06:   a82345a1a5c6579a81447884b788787544a77845a56598a866a7975676848576ab87542631528683
col07:   c686569392465868b9778b58987aaa69a8b77c8d77a7758bd846875886a8a5a7ac39868845732a66
col08:   45a7b698986885c597697a74b79848798876865a9383784365a85854b8488478894924645678c675
col09:   564946abb96495937a965975d6876aa5998687898677639859695993969994b86bb9756123647774
col10:   5666b88a96c8776645a6664457d7aad75798456a999588a88687b479469c8865b6b6914575996142
col11:   4556a7867a893a3579aa986b9a6899a9687686a88968876856c5664699b48629763944334a89a721
col12:   537398b9a1868756a7556b6698959666ab796a599657a4894696d6a479a3479b9789386399619845
col13:   9269b8aa8589866a67899859ab869688ab98669978a659a56bbb35369366a8747b8c744987468668
col14:   57874a9aa97c86779da1792dc7986589b8d8798b989a8aa95c95a9586699ac5475874a7664866a21
col15:   666698bb857b74b967667857b6ba628575a7867a965678b76966676a92a656a979a8768545a3418a
col16:   17a85685b8b16986686ab7c66b788879abda5aa8a595a6b8472bba93b83796881541776669547365
col17:   886a9675a61765957b586ab4a8b77c79a78866518a329b767669487b774695767a24493a7ba79669
col18:   864466898926b77a6778b98b88a686a769ad87a7ad78778488966875267752554896a58642648857
col19:   796276977978b4b3664647a68456997b9cd7c87789a7a5a6a8a79c97a747967588a957a486718458
col20:   96568a637667769749896c896785b86964889b5b7b78455689b8987a89a865aaa8c57768757c7a47
col21:   68469977bb4769876dc5b889c8a5896a564997aa45e89677ba6ba884847796c31236963578944762
col22:   4667a9598ac2495868a793e7896999d7b98c967b859a97979358aaa49758814648a554c459589634
col23:   9a4754979b45a6a8926875468a97497cc7989a6aaa797a48a69787a965987c5657855a6667515333
col24:   445688877aa47775887895ba28cad47696aa89c688aca995858ad6b999697898a9836373a9669b88
col25:   66b898b991999bbd98a8b398c98a99cd5a7ba67946978aa689b78a7788b98989a932965837b66877
col26:   9a768fb8879ac888aaabc78add45aa977cd89668aa8b76b98d6b89a777dda856679a9cbb7488b678
col27:   86869cd8778988669c6c8e9988c9af8ae8aa8989e8abbb6aaca7859bdad9a8d99caab8ab739a6778
col28:   97a8877a95a9a9aad99b9ba8567ab987c8a98b87c8a6a7bb9daaeacb97658696aba969cb77ab9a84
col29:   795879969b969b8d9cb8c7f7a9acd89ba7c8ac9ab7789a98a5ac798cb5b7a97ced6baab79b9a57d9
col30:   67988bb839daaabdac8d9dafbb986999bbeabb8cc7786dacbacba48a9b77ca5698677d7d8693a8b7
col31:   4ccb9a998ab78ab9a9acbacb9cb7db9ab97aa7da8ab9a6c996b8ca689bbc599c8a874897b9977aa6
col32:   99a979a79c9ba6dacb89bcba8cdcbb9caca7af9fabf9ada7aaa3aa78cabb8ab9a97788c856867b57
col33:   95b9bc88a9dcb7b6ad77fc56d898acd8bcfcafd6d7bd98b9d9ab9b9da87abccba89d97a958855988
col34:   b897aaac88b399fabdeccb4b99d7a9bdecb9ba8ebd9e85a9fc78ae84d889dcd7cc3aaa865ad678b7
col35:   c99afc68b9aaab6885a999bba98489ccb8bac5ee9cc9d8bc8b6bb75a9ad59b8aefa99777898ba885
col36:   a85589a888c7ae9bbba5beea8b7a9a9b9a8bddaa79cfcb97b9d99d87bbb89abbd9a76bb597a5d628
col37:   b9eea998addb9c8dcabdbabbfdcaec9b89aa8bbed9cee798c9bd89ab99b9a7bdcbadb5caf8b79499
col38:   bb86a86fabc97cbd78cbb9ccdbf7dba969d78c9c9abc9cacf98fc668acba9cbad8acabb5b7c8b888
col39:   cc388aaa93ae99998addbe8ad9abbabaaacf78bcbceebb6b9acd9899bbbb86a7d86c9a99575aa9a8
col40:   bb9c8788a5bcf8ce98dcb9e47bcf6b9fc99bacffecacccc9a99ab99fd8bcabd6abadb9888d8ba985
col41:   a867eb94cddab99b88bcf8dc9ac9eaebeeabdc6da9c59babca89ac9cd8bcc49baba56bbbaa9b8f74
col42:   9958a6b79ecbbd9a9cbcaaaea9f9f9a98ccdeabebc949bdad9bb8ad7c9afa7c9b7a7c7a68aa98777
col43:   79be9aebbba8a9b9ef8abada9ce9e8cfdbdbeb6c9a9ccfd8e99faaccbaabdac9dbfbdac8c7a9bcc8
col44:   698bdc79a9dbcd9aadac9a9aab7ccdabdaeaf9beb9ebdffcd88d8d8b9caabab9a9ad9a8ca9b768bb
col45:   769658f8bb7bb8999bcabda9bcebc99a79cbfc89b7bcbcabcbea98a8a66d988c99b879acabb89688
col46:   b64bab798f59b9a8b99faabab889c8f99cfc9cbececf8bbbaa98cafc8bcac7acdb87b87f9eb8abb7
col47:   8bbbfceaa8aaddc8dacac9d88cd9cadbbac9cdbeceacdcad76dacab8caa6fbfccd98789ac9cb88a6
col48:   9bea9eaddffbcea9abcabcc9bed9a99aa6abb67bcbb999bba9bcbccaabdeab9b95888cb9b9b8acc9
col49:   dabc9fbfbaad9c79a9bdbbccdbfd9cbbbcced9ffccdcc9abaa7cbaa8e977abdcaa9aa8c755b6bfa8
col50:   cc9aaaada9cf8ac7edbf9d9bacdef8be99ccabbbd9acf89d8be8acc9da6ccb88aa9c9d8bdad89a8a
col51:   9b9c798eba97c8c4898c999b968887a89aaabb5c88b897b7865aca8a94878b86973389bcb7c7a9b5
ROC:	 BPix_BpO_SEC8_LYR4_LDR32F_MOD3_ROC11
col00:   7ba99645887a877646768c5798a7c8d5b7598c99968115479ad9a778958a9a6b86964878476ab95f
col01:   a3b7e9b67597aa8ca777677bb5bdea9cbcaa97d899899cad88d8a69597c886bac6abb59a8baa6979
col02:   8bd7a8a58a6977b7c657bb7887b6ac9998a78c96e9c2a68a996864a8589a94cbb9696b779b875736
col03:   7767c8c886a98ab989a87967acef7c79bd9dc78fc7778fcade37fa973775ab79755a1a7db5995a56
col04:   ab64a9c7b5788956cc8a7b889baea674cb88ac8ccb75689bf88b8947ccebb8b79b3477a79d695348
col05:   a663b6b678489ac788d6988b7a9cad98ab8aca66c889499aaac49ac8da9ba67a98d95956594974a6
col06:   47964fc7a9579ac447bb9a9ba77ab89a6eb6bc96a9eab7c9a959a98c69bae6e7a87a5756655a93a8
col07:   56c9d968bb5768b8889b9ecd7ce8b7bd88ea899cd8bbd9c8779aa89bac734ab97fcb984d95c66987
col08:   4c3698978a8a566c9b87ba5896b85a53b57b867979acb7d5996a48665a6cda6979a5868386969a58
col09:   6e7996767ab5a4ba7b9cda57b8b8c9b9e8ccccca6497947758abaa6db59ca887356ac9984671a898
col10:   a747a47699aa9b6df557495a85baa4d86ae9ab95b9a97a78b7aca7bcbc38736b8687b78998749856
col11:   7266857b88d83454858ddaa7d6d88627b7988d6d95db978ac797c397787b967569b57448b7986584
col12:   5d3a579be6a99558aac85bcc9868a697d5cae9a8687aa88babdb956bc669f8ad2a95b8a662b5b454
col13:   86b6caaba8ba49b5abba77fc68a89aab6595687d7f766d8e9a9849b586bb8788ac96a86c858d8a61
col14:   b86e3b6db4d695bb65a889a3aac8a98d66f6ab7ba9d99d99ba66d798b8898abbaa969f7537478a73
col15:   a8b678a74aa6786bd58a3a89a68d68d6946de2adcbb959cfa976999597c8ccc827458127a1c79562
col16:   8fc874bb79992a9e97976ceb8d7aaa78bd997b99b99b77a6bba89ccc74a9da7895a73b9d8b569ae9
col17:   7c88dba6a87479a9bd6b8ba782a97cc96877b78c74a6a49769fb8876bad898c3bcdc688998598a54
col18:   6a8a68ba37557786acbb9da7c949c4d86569bd7a4ac8956a999dd984bf98896cac9349b1778255b4
col19:   959caa94a6777a5cba99c6b79c9b869b88ba5b88687a89c469d89959ca7a68779a69a999a76bb67a
col20:   5476c9887da4d999d4aa95b9999a996c9766b689bb7785755556999b8896b547b5553ea866758676
col21:   8e6996a6ab48ba7c4aadc7baeea88abc5a9b9eabaf685686a77b8aada774697558a79a86c798b673
col22:   669a98549a89ae689867ccaa6a7959db89aa889d4cbb84789bb567b96986a557786c877855bb8862
col23:   79c75aab97b79a689b977ba96b69799d9ca687e67cc7b769c8ba688a986b8f8859383ca939874964
col24:   a689699b96ba677759684c8899cacac898ab7769aa9799b864b8c6e68c554a6686a564878c82b885
col25:   65c489788e8d998babb86a9eeb86b9a8adc87fb9b587a85867db8aabd846686b4a8b6969568a7483
col26:   788a7f957c9dfb89a69aa9b999aaceaac7bdbb7af9a988964acc9bca9a9eca98ac9eab9b9acd9d38
col27:   9a759a9b8b7b9edadb76bc9c8ac7ab97bb9cea7baad89d9ffd98aed9d69c7b8577aaa69a88a98751
col28:   99bac792bcfbba7cbabac996a6c6c6d58daba8fda8899b9b6a94999cacc8999c7cd9a57659ab9779
col29:   d96cc878e995798b67abeef99bebca898c8bacfdbaa8a8eaa9f9c8cc88d9dabc8b9978986594c348
col30:   5adabd798bcc9aa98c8fbcffb7b7ca5c9a6acbc96aba5bc99d8c8ca8c9cb56ea86498ba78a786e89
col31:   8d7acca8a98be9b9b9bbcbfdec9ed7ece8caca9d699bdf9eaaeda6cfcfdd978b6cdbcb8b9b8aaa27
col32:   8989bbbc8b9989bbea68abedabbbd9cb9de8bcacceabcaa757d88aac978cadab9a98adb68cbbb984
col33:   7bf8c9e9b87c5ccccca9adadacb8abdcabfdcbcfdeddabbaa99cceebb79bb8959aaadd58ecab79b2
col34:   98a6a77e96c9eabdc8beabecdebfdabbefc9ccddcf9de668aecaa8bbaab89dd7ad9d84dcd58bad54
col35:   99c98ce9abaddadd8f8dbec9cc8f9788baefde8abdfae8e9dcfacabac9a9fdb96e9cb95b99ad9798
col36:   eb79bbadafeefbc8ea7f6dace9ffb9cfde6b8a7dcc9db8ccbad8bd6fdac2cbb4bebd9bbb76abc68c
col37:   a4889ae98a877ca9cacfc9bfafbdbfdfbf9bbadf9dccecaaca95cbfbbeaa9f78aabd758a9a6b867d
col38:   9bedcb9be6aebca99edcdeac7edccccef8ccbdc99aeedd8a8a8dfbb69a88ca699bacca9b9d87ecda
col39:   daaab9eadafaccacdc8b89db8daedbfdc76be6acfaefd769efaddcc8abad878998be98a98ad9aaab
col40:   6b8ad97f5bfd8ea6c9b9ce7ebcedbec9bbb6a9ddf99d9cccfb9ffdabd8cbbaaa8d5a69eac48bb9b9
col41:   9b789dcba966eac78ebadababbcafb9cf9dcccd9ce98c89ea8db98c9fe87e9fb999b7a78ccbd7b7d
col42:   ca6584fcd8c77ced979aca9fcf5afaafeefe6aeabdd9fab9da7fcfecccd9feaa769895a88c988588
col43:   a7a8b7ab9e9dabefa8dbacd8dbebcd9cdfdacbbedbfbacbdb8cef9fbcbe3ab8b9a977999a9697769
col44:   fbda7aecdccfdb6acaccdebcb9dbf6cecafedbf7ace8f9beef8dd9fd6cabb8889dc867be99cbaa9c
col45:   96bb9b8ad8ccbc78c8ce8bbdbdedd9b9eefdddabbadcba5beb6cabcd87aefde9db797be7dab9dcf6
col46:   cb8cb5cea8cbaad8f7d8eeccbda89f987fd8ccabb9886beedd9bd6dd687af87768b99aa86568bd68
col47:   7b7ad5d74cc9c98ebebaaae9caddaaa86ddcaf8adcf688faba7b6db9f8bcd98b69b699b678dabc59
col48:   d6fdbb7dfbdd6dcc898d4bbd87abdcbfbfbac88d7d9eeaacbce6cac8bdac788cf7fa9a8aacc7896e
col49:   9a98d93cca6bcfaacba9caa9cbfcddabbb6acfaad8accccbb7d7e7b9dbcbc8bacbdb9c7daacdbac9
col50:   cdca88ececdb6e8d8cbc9fdbbbbcafaeebb8abbaab8b9bb9dba9fbdccc8cb7cbb998a7cae9b7c4b8
col51:   85b97aa97ab6c9998ba798c9796ac6aaa8e9d89ca9c7d79c8b79baa9249a6698a6868a3697aa8978
ROC:	 BPix_BpO_SEC8_LYR4_LDR32F_MOD3_ROC12
col00:   666a75798a9673a647693a847587666675aa77637987998667d5b46485525961687a758428374595
col01:   7a979998868bb9b7b978bbac7bb79899ba9a9675b697759557b88878869d88476756956a47889154
col02:   699979858ca8a69895996975868a86849caa9c768aa79c799a98a876776577889979a8265858c84b
col03:   76a68a7998aa27a67769597c998cb687ca8cc7b6a9956b9a8697a79769a787895967aaa766777878
col04:   8699588bd9869b848a8ad798859b9b7749897aa9868867698995a6a8a38a9667ab6a5765a86a976a
col05:   596787878787a1b887a59796849a8b9999a64997959ccbb9a9899897997898a58878847687697755
col06:   3a88a96a8bb67865a588989997894ab959567a66a87557bac9697dab567d5a77b854564766785494
col07:   b77594a9c599989baea5a9c9ac86c4797dac9982bcb6a97589887ca7bcb9a7897785688688664776
col08:   aa7667b85a768b97877a96ba7899974aa87ceb88ab8a9979a99bb576b89a59b85697965796888b98
col09:   76787a7899448a7897a78aab96a57a8879ba795999abbc59caa97a7bbb85b97c999a89756a864798
col10:   7a7779aaa7999977abb589a6a89999c5986cdaac79a6b6bab786c59aa987896a48887b738b78678a
col11:   697a545a578c59989783889896aca9779a79969a59bc8a9478a8b46ac8968a797776998356c97b56
col12:   7c89888cbbaa587586b78aa879899ab979979ba99ea9bc6a68b8a978ab99777aa987b98477c7ab56
col13:   bc8ac9b66979a7a7aaa8a9c9bcbbcbc998bb9898baa68889a8a8b777b8a7b9878a58a79768a8b958
col14:   bd9487c699da9a69b879b8569c97a7999aba99879abb89a698a9868579a9979988866c977797a7aa
col15:   8897a8966aabcc7c8c7c75bbca4b79999b9aa977b9c9aba76619c849bb97a788798699889266bd69
col16:   68b7c97ca7798cdba98779898987d88ccbc79999db99786a978cad79a9c887ab97a78b77c9a99a67
col17:   997ac857b899996b888ca88ba9787879a8c76898b7a596ea69a99acb8c69b59a5cc8a8977796a777
col18:   6d69a8ab889a9987b7c65ab77b9bcc6bc9ba7a8aaaa98aa98b97d79ba9987b568a688666898b7886
col19:   898b79a8799888bc8a7babaada9dc86b7a9989b76d97797a7887a99aa8ca8bbad7b7774884d67678
col20:   9485b7aab8969b9b98488998ab9bac99aa678b52a667b99988acaabaca7aca7abaa6bc9a77a3c876
col21:   9b78ac84a9b97a9bba989879b88aba6bbdc89b8888b99c7c8aab9a988a79c8a736b9798586754b86
col22:   6a98a5967b87ca679ab8a7977b9697aea9da8697a7796bea7bc8769a89b895a78a86a9696b779896
col23:   88d798a9aa8b7c67cd99b886b9c6a8a8aa99899b9b8aa8989877988daa79669ca85baa547bb474b4
col24:   7bb88aab967b9b5aba978ba97bcaa9dbc8b79d9689bb797adaa9a979a698799aa76cab87857948a2
col25:   aab88aab8868a8a887947a9abc8a79b8b99d89878abbdbecc8988b88bd8bb7a8685ba79a78a98a98
col26:   b699dbb99b88a8b9ad688bdabba9cdaeebaaa9aada9cbf9d8cab7aaccb8bc699db9cbc9cbcd9b889
col27:   6779a986cac8899dcccaabb99bd6a8ecaac7daaab9cc89b99b8baaa9a59e5ac98aaaa8b9688b8ad9
col28:   899db9b88cb68bcae9c8beb99a98adcd989b89beddbab9adb6fddaaaa6ebc8bcac799bc8c9988b98
col29:   c88ab89ca9aac87aa9bdbcccdbe9baca9bbce9b9baa89ad7bb99ccc9ba78dabc7b88989a8caaaa9d
col30:   aa79baccacb89d9ddcdaecb8c9ccdaa9bbcebc9a789db9dbfbb5b9da99ec98bab9ddb8c7c889ba8a
col31:   aeacbb9adbae9aabdbcecdcb9eddb9cac7bac4e9ccdaabadcbb6baadead898aca8c86ea6b8ccdbb8
col32:   7ad6cacd9cfdcba9bdbedadd7a99fd8aea9afedbaaacba9dbad9cb8ca9cdcbeb987c8a8bca87899b
col33:   cdbaaacab9aa9bacfd9a88b9cbfafdeaedadadfaaaaccc8caad8cd9bdab9cb97a9b978b9bbcaaac8
col34:   aaa9baa9bf99dfcacfbbeffadcacebaabcabeeb9cbabecabd9bbbd9decdd9ebbdbddbed8b8bae998
col35:   a97bdbabcbbaaaabcddbcddbdbbdeebcacc7ecf9ddcc7d9bfc8fbabacbafbcfafdbcfb8b9888baa7
col36:   9987dccd79bcacbcccdfcfbe8fecec7addebdcadacbccac99e8aabaa7abd9c9cb998bad88bba9c8b
col37:   9bdcba9db8abdcbcd9dccbdd8bcbcfecdcaebeeccffdeecbca9dbbc9bb9bdcdcbfbdccad9aa9c99a
col38:   aedbfdbddbacb9cdcdcfeefedbdbcf9bbceeadefb9ecddbbddeadcded8ccbdbcbc9bcbdcabccbf9a
col39:   97cfdebcac9bb7db8cdbcceecbcecfdacf9feddaeafebbaa8cbf7dbdfbae9edb8bc87ccbba987c7b
col40:   889d9dcbdecfcf8b9accfdbff9cacdccb8dcddbcddbedacfa9caaab9fcacb9d9ebabdac9799acce9
col41:   b89cbcddad9fcbccabddec8fdbddce9eebcdbadcdcaccaded8cadafdacccabbf99dd8cbcadcbcba6
col42:   86a9ea8dcddcebcacaabc9d9bdaaea9bcbcbbdbdcedfdccb98deddb8fbcddb8ecbabccdc9ddddaa8
col43:   bbdc8dfadcebdde88dfcfdddaacfacedfddfeeeedde8eccdbfdbfafcfabaf8ddaadceeddddbab7cb
col44:   e9addabcbcdcbeddecbdcdcabadecaacabffdbeafddfbceecccb6dccfcbd6d9b9cd9ad9fdbdcbd9c
col45:   9cc8cafbeddda9a9caabdbacddeddffadedeeebdcefdcddadcb9b9baccaccdeaa9e9c8cbcb989bcb
col46:   cb8adabaecd9bcd8efdbfbbdaabccdebdfbcecadbfececbcaecdabdfcadadd9bbfdbcbbbb9baa8d9
col47:   8c9dfdccddc9cfbfce9fddccaabee9edbecefde9fdecdbdddcca9ceacdccdcabddbbcbdbbb8aab79
col48:   cb9decced9cc97cdbdc7dccdaf99bbddeddeddd9ecdcbbbdcbbecbadaee8fccbc99d8bdcbccebbbb
col49:   9dcedbbadcaecdeaceebfe79fbcbcddefddafdce9e8fbaccfdcbceb8deadacc8ccbacac8ecce99ca
col50:   bedbdcddfabdabbfeedefcd9fddcafeeabf9dfdae9dcdd9bdabdceabcbeeb9cceacabdc9dcaddccb
col51:   6b89b9b9bbccca9aaa8a8debebcd8bddda9bebacd7ecdbaed9fcd9caaab9adecdbb798aa8b8a99ba
ROC:	 BPix_BpO_SEC8_LYR4_LDR32F_MOD3_ROC13
col00:   245473675625516656834a3566449336448551633847465888a8a1b5735548647a47333734356953
col01:   63776965978b98a77766a87975a8a56ba595a5a7699788578b38494767685696c8888586aa337657
col02:   6237567565586668597563a55779baa77b6567975b9b6786684587677696863767744c4595745978
col03:   5585972a963a4b48771a967878b8b99688778898b98b9895996687c7b775687b5786996756993495
col04:   5776879b587585b878347779938689a8876ba7778678a9c887853a5876b576746b77539849667951
col05:   8854657b65739465a96449b558777967b49a66b55a87aa765b67a8895598a83915954b6453875584
col06:   478758497a639644b786b966977786a2575a998b766d7995981256665627b987a668b89686649748
col07:   476997b77b77784998978699a966b6a6bb69b26599cb7794958a76a84763a958768b957766578672
col08:   563967945a8597557b9a495962949b3876789996a6db58695857a7b96696886aa686c64462354b54
col09:   879a7374596679b68a5ba5c89a76877a89c9cb7a6b79b7745566999977a4263778a4477478777734
col10:   68799976988a876762779778897a9ab5a975675774b8767b6699b879ce8559955737246496848452
col11:   a8787786c6897678759387889baa6bb96ab8a6695b996989a97a78696456a6859755774655466365
col12:   659975a7ac986747c78a8d978a9b88a8d7a57aead7c3978a876ab67b99b8a536687768a529737a87
col13:   39878999ac898a8883aa9a7a89b8b87999ba787666a65874e668784a4a67c3889695775a674256b6
col14:   a6976a4566777a8ab69ba9799a7a95a98687a5688a765b67a6689377988caa38daa69a88967a6556
col15:   35868a96977988b99a9898578a7637db65c9bc79978579877796a5b8ca98a6b57bb678558b878694
col16:   7a76997a5868aa68c7b8a7bc9679da46886a999a96ba8968998a88a698b3779aa555686561658483
col17:   b78824ab863a9a9aa5468b6348a6a5967ac8d79988c5a89958788bc898625b6478b9848276868785
col18:   995986668b64776aa866798799965a8e5987ba9779b8878a8a59787a47867268439557a8a679b864
col19:   936985a999788979b5966986898ecb76977955c7cb9898c9a9b89b6858b87c38aac764d638877645
col20:   4386959556ba95759989b8aa5888b65a86c99869b774a86b878696867a968468b998778738a57848
col21:   5673978588668767ca4c66a97799bb896858a7996b5a989c849935a68d767a85aa69678647a78597
col22:   c7656896c7937ac79a67995ba77899ab989977aa79d9bb56ab6779bad6d8789875a8a75999669893
col23:   78879878978784c997b9baa8b7875c87857796ba49bb9578a698989a97c797978a59966799697857
col24:   a5475997696aa85a475776b97a589ac5a8a8878978c997a69bac6e78aa996aa9788894698694756d
col25:   a5a5a6a76654887bc9686799e79c998a86677a79d78a7796a7a7c99a989978b8659748787687a978
col26:   899a7a3a599c98996dad9aaa92b9aac9adbbbbbedb9cbd99aba897aabbd98ab54cc9777979ca9576
col27:   4899b97b998b899a8bae9cbdabbcaa998998acaabcec99b99ab8cbb8ca89ada7868a88bb8c7999ca
col28:   aa798accac7aa9bc9bcb98ccb79abbf97999abc8ee9abccdad6a96889cc88bdb8bca999aa8b89ab9
col29:   899acabaaacbbc7a9bbacbda8aa698addaac8f9ab9a9b799babdb8bbaca4bc9969ad89d9598a6888
col30:   98b998aa99aa989bad9bdccdd9bab9aac68b688be9bca8db7b997aa699bbabab988ab98a5a8ab9a7
col31:   699bebe7697ca9a8bcd89bbebbc9afd9fd9abcbdddb99cadba9cabaebddad8a98ea9b8698a788ba8
col32:   97a9b89899d987a6bbeabcbb7bfd9acadcdb7bbcbdccaacbbbcbca9bda8bebadaa789ddbd8c7a8e7
col33:   9ac7a9d8bbbb9bbb7cbcbd8ca8cdbbaaa8bdaacbcb89b8b9ae9abdcbba998985a6aa7b88998899c8
col34:   c6b7cbabc889c9ccc9bdeafbedfc7ebc9c8abbadccdc6ef6c9ac9b9dd89acbcbbdbcfbafbcd995e8
col35:   b969daaaea9cb8aebbe8c8ddeb9acbfcddcccab9d9babacad9becabaccbbd9dfcebacc9abcb68d98
col36:   9abc69cbaecda7baacfcabe8ebdbaeba9cdca9aabeaaebf889debb9bda89cec7a8adf6bcbaeaabeb
col37:   bca9babc9abb8cecdc7bdddbcdcdfae97cbf9bfbc8bbcbdab8cbde9ccc89aeedcbcbaaca9acbb9a9
col38:   9bb8adebbbab6f9a9cabeba7babebaacdb9addbdecbccccba9ac7adffcfbde8a9abbb9aeb8aadac9
col39:   9978aa89bdbecfbaabbbddca9adcbadccbabdcddcecfbbabbbbbcdababcacdcabc9a9aabaaa89a69
col40:   69989b9ac7abbbebcbcdbcebbdcb8cb9addfbbbcedcddacaad85ddf8cdacafdfad8785daad9abb9b
col41:   bcbaabcccced5ccbedbdcc9edbbdccbade8faefcddacdccacccaceccd9cac7ddbaedc8cdaabceaa8
col42:   8a7e6cba89b7c7cecaaadccbecaeaddbfacb7aaedbaa9d97bcafc7c89a9bdecdb7d87bcbbdcd7bab
col43:   586b9eab9ba9bbe9cbadddbcfcdeec8bbcefdcecdcbedcbefddcddcddccdf8db7bcbaeafaadda99a
col44:   b89cbabdbcaafdabcccadc9bfefcceaeced7cdbbeaacaebcea9bedeecdd98cdaebd8bcdcbcabedad
col45:   66dab8cddabcb9cbecefdafdbbcceaeacfdddb8f89ca9da9fccacbadbbdaeabbdceeaccb9cb9bd99
col46:   f8cbc9daa9cbac6bdedbcacabbdecbbdaeadfbcdaadcbc9dfaca7bdbbbcacfcfdab7bbaadbccfccf
col47:   bad79eef9ce6cae8dedcdbadcdefceaddedeffbbcbeafbebeafdfddcbfb98dab9acdcbadcec9fc97
col48:   abcbcbbbeadbacdcbbdddddbfecdacdebdbdedbefccfdbedbdebbbcdeeebcaddabc9babaecbabedc
col49:   ca7cedbd9e9bbfbeebdbdc9dcaafcbeea8ecdceaceccbedbfddeaefdfcabaaf7b9dd89ddbdbf99d8
col50:   b8a8bb7ecbabaabbbd9ddddeadeaecaaccebcfbecfddbefcdeebceaeebd99dabbcacdbddc7cafbc8
col51:   c7889cb9ba9ab9b78a9abb9debbab9baeabcbdb9a89edbbadbdbbcb89aaa7cf7b6aa89f99c9bcba8
ROC:	 BPix_BpO_SEC8_LYR4_LDR32F_MOD3_ROC14
col00:   5885685668386657767a67966879988b89677978a7866c874486648b58556946716543547753c357
col01:   a656c9aa654767aa58698979677a8aabc9978b788c5a9b7b686a6526a7747b6b688775a778366848
col02:   85468677549475768698a7464689ada99a96a8966973bbb589ba567a967497556543b59454b77574
col03:   a596b96a7494988ba9b67487d67d9598b986cba9b5b99a594b9ba8da589aa966c8b6679882865956
col04:   c677433a8c996baa74888aa7bca8b6a678a956b96a88ba9b788775966a555557a47999756656834a
col05:   4a37887968795857986ab598867c48c76868787ba98ca27a7766a8d7b96a8776344425a7b7657665
col06:   67579568a657868b6a89c25dcab9e57c679dc7876969958ad88a45a47889868887a695454845686c
col07:   8ca3ac38bb968b76997aa898c89d8abc9a8a5ad57ac9b9bb99a88ca62797ba976986aa886a76a956
col08:   4766b777595aa7b676878566b9b999a99779cd7aab98ab978bab96b9654938a87978688a98a68967
col09:   86aa68bd8876bd9c6a9a7cb94c9588a7bb98a9aada57ae8a987c59d88788a89898567a73788a88a8
col10:   58567a689a7bb9698e9f898c697999bca99876a998eac789577ab8c9686957c6c667771555674798
col11:   6d6889a8679436562aa9c8997b3cca9c99c97cab9a6967aaabc79979889ab5ab669687a69554b7a5
col12:   6a8aa788a83d7e47a96777aa86a79aa7c8a98d597a4d998c67b6b988aba95ba5a857b9387698739a
col13:   989254c8ba9a68b69a78996d679978caa8da86b868786d769ca88baa5b7979a85789a99665618875
col14:   77a9ab6aaa768e8959876aca6878b9b89a99a8ba3b9bd8a89cb9c8889998ca7c968a9a9698884693
col15:   8a9898789878cada98a978c7b9ac8c97b83b8c98acc47b895a67c99a596b879777965694a4a89657
col16:   8a6587448448b69dab7b9a8da84a96837c959acaaa95988979b967b9a7b4ca688a85a47688689987
col17:   9599b789799779a867988b88c7478aac78caabab6a9baca97564496bba87a8b975587a9795448836
col18:   786668a67a8b558a86a789789b966919d9bbb7aa8d99ca8a878966c874b8b96a8586d6b436874466
col19:   a75b9889697bd748caa7c9cc9998ac4e95aa8cdceb79677d87b77659bb779a74689a87aa76355382
col20:   49624c998bd4aba9aa7a9a88a9aa998b76aa7ce89ab989ab9c7ca965675647865797c575aa5a5787
col21:   a78464a8a689aa65ca97b5b899b8779ca9aacb88c89a7b89a9c56698b56868886a79593795899696
col22:   7a56466787688945998c7aa69c9767d99acbcac89c7b9779abc3a584688cb86b4988acb9a5784352
col23:   99686a6f8884a68b97a998b4ac887cb8b9c8bb98ba9b8a8bc9a956988676978549a693769854b576
col24:   6ca75749a99aa9495a88c97a968aaaabb898cea8b6e7a88876b57a888568b9b87498789861689637
col25:   49683a699869abbd7c979987a98adcaabbea88a79b9a67bb8b979a79886766cac9a5b69a9896b76b
col26:   5ab7a779cb46d8979a89ba9c2c99eba9beadc9c9bab8afb879ada87b99cbab85b788ad8769a35586
col27:   85888a79c9999ea6cbac888aecba9bb7baa7bddafcab99ab8cd9987bb7cbac9dba8896a686a88546
col28:   8b78b99aaeb8cd9bac936a9bccbaacabb9bdabba9aaa8e97abbcd98cab8b8946bfbb988a6b659656
col29:   599dcda977977b97bacda9bbbcfd7b9aaeaac9c8bd8f79fbce9ebb9aea7ef9779a98a8a7b5aaa7ca
col30:   be9b889ae48da68bcb6698bcbdaeabd8abedaeadd7a9c97cc7d9fbaea8c69a9cdb8cbcbb66479698
col31:   9cca87abaeffbc9fadada9bcbacd9dcabccccbdbdcef9bfc9bdcbbf8a8d8dbad7b9bb8bb85aa9874
col32:   8a87ab98bb9eca99cbdbcdddccbfc8a9adecb99b8cdcb7edecc7cbba8cba9f769ab7cc69a56c6b57
col33:   89b9979b8abb58d5ebdbbbbcfdd69cab8bcfdcd9aff8adceba88b96dbbc9ca8799b99a6ac977a896
col34:   99b8ccdc9bc7cbcdfdddb8cbbccfccc9cbcbbeeaaaeddedccacbdb6ce8887896c9899cbcbb8a6cb7
col35:   5baa9d8bbaafedf9cbfeaafceebbcfadd8ddcacdd9fbdefabbcfaffb9b89beccc9a9879cac88967a
col36:   9888997fec9edfd39feafdddfa9cbf9d989fdd9b9ab8b8caba9b8dee9a8b9d99bdb2b8b96cadd987
col37:   bbdaabbd78baa8fedcdcdfdaec8d8bddc8a99ca8cba9cffdffcbb8af9aef9cbd9698bbcb8e8cd8ac
col38:   79bcd9dfacbd9cdc9cbbdedcae9d9ccbeee88cbcfadedbe8cccbabdcdb9bbb9c6ad7cafaa4c698a5
col39:   d9b9d7b7bacc89dffeaeadbefbdd9ba8df9fdcdaafececaecebfe9eabbab9ba79beaacaa94da9a96
col40:   cbcddbc9acbebdee9ab8aadc8fddaddb989fddace986cee5bcbcba9d5bbd9bc8b7a8cbaa6689aeaa
col41:   bcba9aeeadecabf9efdeccb9fdccc9ccdebda8ccb7babe9e99cdc88edcdabba7e8da7cac7c869977
col42:   c7daabcadcacacedacbddddbddda7dead8fcbbc9c8bebdbcac9b9b7ccebcb89499d9cdd9789a66dc
col43:   eabbeeecd7bcccc9acaafbfdfeeddeeceecccbdcddfddad7bdbbbcbbbcbedf8b7a99ecbbabb899c8
col44:   b7899bbd79c9ccbeaacdcadaad8cbd89fcdeacddcadacceceeacdbaa9fcdd99f9bbb9b9cbca78aa8
col45:   ecedba7cadbedcb9cafdebcafadcdedbcbcadcbebd9ebcbabfd9a88bb8dcbadade4ae7da98899e8a
col46:   cadc9c7c8ef8d9a7bedfd8aacb9beaeaeacfddc9cd7babb9addbb9ab99bbf999bbac8bbac9779bb9
col47:   8ddc9ceaa5eccbbcccbd8bcd8afacbdceafcfccbbdefefcb6cdcebbdc7becdd999e9adcdab8a99c9
col48:   bbcccaae8eacbe9bbfadcda9ccebcbbaaefeefbcf8cf8eefddaac88acb8eba9ad8bcaa99a8cb5d69
col49:   bea9edbbdceecfddcdbacaedbbb7cabcdfcecfecffababddda9ba9efcabea69d9bcb966ddcab6d8a
col50:   bcaeccbfaacddbfa6daaafdbbdacdddb9b78cccacdbb8cbdbcea9eeaeddbdbdbf7bd7dc6c66a9a79
col51:   78c6b9a998b9aab9b6baaed58adabdc9b9c9bbcccbee8ff9979b97b77a4a9bbb887c7876a89abc58
ROC:	 BPix_BpO_SEC8_LYR4_LDR32F_MOD3_ROC15
col00:   c88a8a88aa7467a9a66989b7ae98b9688c997aa37978bc77adb36dd7c897856b6557322589a55424
col01:   b7a7ebb9cab7c8e9769bacabaab9eab7ccaac979f7997c8997b78baaab8969aabbd9777aaa984454
col02:   7a6ba98a9a79a9da3688889b97b948c9a8a899ca9ab5cbab8b75b3c67c97bc76789a66c789989241
col03:   7adca8a99d8aaafb9c96ba8d9f7c76abdbaccbbacba9abbc978ba56aa778dabb96a8b8789598677a
col04:   a867c796e9675a6fb8b79bb8ab9addbcc8cdcd87d8c95a999b68aaa7adf79acba74c6775865ca399
col05:   83c9b87ca8548a8bb9889a9ba996c9eedba7cbe7d673c7b8a5a98a8ba8b987ae788a69567ba88955
col06:   9bcc94979c7a9becdc9a9e99a77de9abcaa8d7aaacc99a89d787c4b88cdbb88f79d9649496695565
col07:   7cba888bab4bf9b8945ebaaa9c8b9aafddb88bbbd96987a89a5cac9da86869ac99996366a779b985
col08:   b6daaa6a497979b8beb76db6abb86a7ada88b7aaca7cb8866b8c8bd7cb7598764998bc998a58a954
col09:   99ba99bcac7c67aa8fcc9eeb97accdacfc98ba99d996abba7abb8bcda9a589a669a8b869b89c2546
col10:   997dbca648b99b97acddcaca777ca6bc9a8b7c8bac8bcb7c8aba99bd88a8ca2c9987bc985a7b4759
col11:   9abc688ab97ca6a97885dd6bb698da79c669acdc998aa8ca5bdb88e98d897884b977be6b75886625
col12:   7d7b7ccb9a578bd4c88ba89b88cb8bbb6a9e9987babac9ecd7796889b5d7977a98a9a95b24374aa5
col13:   a646a9ba5db9dab6cb7dccb788b59a99d9bb8aaebcaaaadb979b76aea86d9d88c879877c94558887
col14:   74e6ad77b9bb9b88dc8c898b79c69acaadab9ccaa99bd6bda9bc7b9c97caab97da57b67848679446
col15:   ac97c9abb8d9bc9aa989adbb98a9ad99696dd8b95a9979aa999638ab7a8ac878686c46a596b46b96
col16:   a8898bf998a9bba9a5a8b6b8bdbbdb88d9cc9ddaadaa85aa8b9de8a6f95b8b96796b76d7a9152778
col17:   a389c7cb97a8b87e796988a97d588b98daac99c8a7678aa7c658a7abca9baaa7ab84874a58a96451
col18:   ab9a8678a4dcd797dc9887bbbba5998dad8f85ba3a9a8ad7796aca99b688d79698a8bb6978862898
col19:   9ccc8a87a6bb7abadb9c98b7aabb7ebcb8fc97d5fb87aca78a66977aba7948b85c897a87a9587645
col20:   8b97799b6db7897aca8ecb9989bbd96d6abc6aaa68cae963bb86969d8e897c9a7769679a935a6454
col21:   8aa78ae6aac5dc97cba9bacddac9caaec9ba99d9bb68c7c989cc7989a78bb6a7b678b87287688596
col22:   a9bbbcb9a898adcab8a67b98d9aa89cff87a7abaca796bac8528999ed8a789bb87a988aa38986a87
col23:   d88887a96d99889eb96c7a9b8a99a7bdad89aab88b67b97999a878aa79979978a464ab8592566374
col24:   86a3b85a89ba89869aa78a8da98c7a68a6ba6ab67837b5bc89ac9c9876976bb7677997b786686764
col25:   6d9c8ba8a7bb97878ba7d89cc7d8cdbecf7aa8a698d8da9a76b99adc787c4aa78ea756876a496481
col26:   bbc99bcbfb9bb9ddbeac9989eeabbaebbcbda97ddadfeeadb9bdcaaa8baba9e9d52bb8c37baa5b8b
col27:   b8afacea9aaea7cc7c7eecfa9c9aacc67cf86b9daecddc9b6a9f6cb9db4d8998a897ba47bb464977
col28:   cbccb8abad8fea9bbadddade9d8cdfdddaadacccbda8aacdbbbca9b9cccbc6a8ca78baaaaa6d6765
col29:   e8ecb9c89f7aa8a98c79f9dbcdfc6c8e8bc8ec7a9caa9ac7dcb79bbecadbbcaab9a968b668896489
col30:   8a8aa9ccd8ac9cbfbcc8acf8fcc7e8a9fdcffbf9a9bac9db9fb9a879ef9bbbd8ca995db586bb9788
col31:   9cbc6daacfdaab9998afcbe9ceef9eaabcacaddebdc6fddaeabad87dfaebefabf8aaaa8ca9a7d874
col32:   a9a99da9fcb6e9ba8fc6ccd9cea787cbabecbcbbd8bfdacdf8eefa9e9faddabbdc6d8a9597a9bba6
col33:   ab99adabbcbbdb7ae6cdebdcadaddacddcdbacda7c5dc69b867caba5d869da98bbeba6a8a8bbbd96
col34:   fc9c8fbb8cd88bbb9ea7efadbdbb8abdaccca9ce9acbcd9dcaaccbbb7c58aca7ce9bbdd8676b9768
col35:   caef7ba85dbdbbfacacda7b5a8daf89c9feca98ebdbcdfdaeabca88cd9bab889cc87a899a8799997
col36:   c8c99a9d9db985efbacbdbecccab9ddd8db9cdacdfba99ba9c8977fcffce7cda7cce8d9c776b8886
col37:   bb969bbcfccb9fbfbfabcceebdfdeccccccbd7ddecbb9aafddbebe98cb9d7db6ecfcbbbc8a759b47
col38:   b9acbcaadcedab9ce8cfdbacbb8efcbeeebfedbacebcccf7cfb9fc7bec5dbdb96db68a8a9c8d95a8
col39:   bb98cc6ecbaafcdbdcfffbcb899bdcfb8a9d99ec7ffc7d8cfcccdbbfadb59cc99ab9caba97f998c8
col40:   986ec9ca89ccbecadec9ab7adfc9fcbbdbbaeccaeccba9baccfccbbd9aacdc997bcca9bcb9c59bd6
col41:   67aaabacbcaacb9cddd98ecfb8dbbcd9ece8aca79bdccfbc6a9bbb99aebeccbacb988e884ac9a5a6
col42:   7aa5b989b987bbacb8da8ddedaefafdddf9dd8c8bacfbcbef9bdebfbb8bbb8ac8bc7919a949983bc
col43:   67b7fd9cab9ddafbb99adc98adbeddfbddafbaebcbcfbcbef9bacccdec9dbbadcfba7babaed99a66
col44:   a9cbcf9fc6beaabbdbc9bbbb9aacdffbbabbaf9da7c6beaa9deda9b8cd8abfccd899cea665768a79
col45:   8bbb9addbd9abfb87dbebf8bcacf9cfcfcbe9db8ebcbce9b6fd69fa78febaacb866a8b88dc78b8a8
col46:   aeeb8bd8cca9babdeefecf8afacebfedcfdcb9c6b7a9ad9dd8cdedbcdf99dcedffc988a98b7d9a8c
col47:   8eacecc9aba8adcdbbacafddefbddff9ab97d8c9eb7aecfbdca7ebcbdcafae5999c68a8785db99b9
col48:   89f7ddbaabc9fdeccfaba9bfd9c9e8e6dbdfddecbcac68cb9cea999cadddfc95c96dc7a88f67ca98
col49:   99bbcbecc9de9d79cecedabdaaacbac7a79dbafccae8aaccb8acd7bca9fcac9beaac9c968998a5a2
col50:   ccb97ddad8c8feea7d9cdadfebbefdcad9affb9fcde6fcf9db79b8cbbcd89c969a89768cba588a53
col51:   988b6bab688c995a9986a6ba98ba8b5ba7cacbaac87a7999b8b9be8a89b4d679a7b5796957356574
