ROC:	 BPix_BmO_SEC2_LYR3_LDR5F_MOD3_ROC0
col00:   6666494724773277646a89468696692359957585568aa988787756794b799a6773676a7768977464
col01:   998687c4798a7a96777598d8aaa5ab867adb6997f9c979acb567b8a9bbbd85a97a7a57a9a779a835
col02:   78668532699bb67d7b7b756a778996599d97897b89796497c759ad77a68c2a7b9888659285288767
col03:   76948185987978ac959b797b8ab898a7d67b547d4a588cb86bf75b789ca6ad6a7a7777a779747554
col04:   8567689576c79925684d9898dc954b8acb9b8b987b9a49acc8a9784957da9683c6b3754355658736
col05:   b6a4b84866747977ba746875559a3676a78addd66b9da69a869b8c84c3cca7a794598a5848659251
col06:   69894947937a7878589767a88696ababb979da7ab9da97937b98ab788b89bab978675877444886a3
col07:   765b7bc51985a99597ba78c579778ccbaaaca98c99d9b884a5a9aa97da566b8798b6647a97397763
col08:   b4cb7995777b5856b94ca98775a9b788caa668ae5a99e9a89a59ac9836a97f69a586894c66674872
col09:   18a67679748638b99779768b7bab768bbb4ad8baab7d78998b9a79a9cbab8daa98a74a684b8855aa
col10:   555639489ba6658586ba789a89bcdb7b97959aacaaa987ba9caaaa98cb8b574867988a9975cb7a78
col11:   5987a565997b367996b59a9d985ea76cadb9c7cd9c8888c58a8a6b8aa86978a75db6787958967454
col12:   3276656c37b8a49ad76a598758b998a976b7bdd9d885f8ac9bc8798666a97b6767768ca4947a8b32
col13:   4766a5557779889bb87ba799c93cc98b8b995aca94868998a688bd88ebd9b689798779cdd5688893
col14:   aec678a677789779998a6b859caa56dc8acb86987fbaba9a76c98cf499ab8e8c9956a7a65aa86445
col15:   7aa69756749a8a748a5758748ba987aaf99ac89aa6aa73a99cabba87b8b899877688a97947967687
col16:   3738989a5948587a99a89899659758898aebaddcdbca77b58ac9ea969356994494a7c87d46866764
col17:   5924a9d2687566597a977794b67e887b6aa5bda97a6db8b974778bdaba8e66797683789a9c655664
col18:   497755637367aab579468da7d4638aa6db6ab899bc578a89b8c66cb9b997c9a6948666bcc7a98796
col19:   b699a858599787abb75b77ec67aae99679ccd9c6ac698e889abcb95b6ba5e78c888967a7eab85787
col20:   6967b518b7669a58bd86d6b5fb6aa8ad896da97aac89a7b89495caac97e778695976475858768758
col21:   63895a758a67969596998b5b8498bc97a977aadaba8cab4cb8a9a7bcc9e88c97773898a5548794a5
col22:   768a78677ba5597659ab48baab8858ca7ba98abb8b779d68aa8aaa599974a9ba8998496857697448
col23:   56447678966754b8c7889689967a7626a999c77f7cba977a997ad59597c669464474b99a56bb8783
col24:   2858a9676568569849da48c999db966e58775a95bb9daba98bc9b6468d69b8983a67544545a6a782
col25:   6aa5689e9595297869878789d59397b8c8c7b7487aac997b99ad99ba8ca9ea7a59aa98bb34668688
col26:   aeaaa76676aa9a9baea99f9cccc58dbaae96ceda8dcbcfba9aacaafabd7dd69785ccc989a8878749
col27:   978677ba9a58a8946a8aa9abe89eca89dddd7dd8df7dd96abcbbcabba9cfaccabb8977b79ab8ba86
col28:   a8b7b86b65759cb9c8bbcbaecca8ca7de8bc8bc969bacc8dfdea9aac9adbbadb865bcacc9867bb54
col29:   c9a77886c686b98d988d99fea6caa9a96bbb86bda77caaabd8b9ecccbcad79ceba7cc889aa859975
col30:   8b88aabc9d9795888cbdd9b9bccb9bccbbbccb8d39bc99acbbdccc7acec8b99aa76acb8ecda76a9b
col31:   ccbbbfda66d7d8aebcbdef7c96ddfcdcbcaba6de8deebaadcccbdbbddc999b99bbaba9aaebabb98a
col32:   fd7786aab5aba9ca8feccefcdcc88e98bb9e89decae8ecbecbfbb9b9fdcdba898b9aababbba98aa8
col33:   d8decaa9b6a9968a9dab978bc9aceaea5bddddccaafd8dcbbc89dbaedcb8998ae7eab95a989469c7
col34:   c8c7c898d897c89ddaeaabc9cadf99ca9ea989db6dacbcc89bebbecfacd98b778a8a8b7bcab96bd7
col35:   9a87a998cadbbcae9f99ac6dc8bcfd89bbdfceaeafecad9bcddbbccdfaaa8aecaa77ac9aa9bda8d9
col36:   5ac7da8a6dcd7b79c8daebbbacab8bce9dd9bafced98ed8bae8d9d8eb9debce9bbbd96f78db99b58
col37:   d98bb8a9cbdd9aedbcbd9fcfbda9d99afdacf9cbbbbebebaec9ad9eacfc9dcbbc8babaceadb799d6
col38:   86a89bb9cabcbdd9ec98bcccbcfdbddaec9e9dbcebeafbddceff9eebabaacff9adcfca899eaaa7f8
col39:   abb6debac8a9b9dbfc9de9c6abb9b8ecabb9dbcbceabeebeadfdbdffcabe9ab9c6ac9c8c879a8ca9
col40:   edddabda787989bcc5ddbcadb9c9bfbda8bf9cbac9acacecc9ebc9ab7998bcfcdc8aaabcb9b7db8b
col41:   aacaaa9ecbc86dbdcfa7bedb9bacdfdcbdfbaecff9b7bfdcec9ddafdfedd9eecbbfdefdddad8b98a
col42:   a6b7dbc6dd9bb8febadbaaa9ed9d9bcbcebbfbde9aebccbcecffa8bac5b9baa9d7cbb77ebb888a47
col43:   8c9ab7cbbbbdbeacfbbedb9cf9fb9cde9bfaec8ecbabbcfdebabfaceefbcaa9badb7cebb8d89fb9b
col44:   aa9c9bdada78fbbacdde9afefb9f7b9cddcafbadbcede8daababfededc8dfefcb8dddcaa9ba6cac8
col45:   78dab8aaecfb98cdbd8aaaadb6bcd9ead7dddacebdbafabebbf7abcabddecfabaebba9ceb9a9b8e9
col46:   d5cbd3bbabeddcdcdb5aad9abcaecbe9bdbebfdfaed8ebb9ffeccedd9c8ee8ffdfb9ab5dbb89baa7
col47:   abd7bddbbb9dafeebf9edebcdadaeedacedbf7f9aecb8edc68ebbce7defdbcbccdc9eebbb8aa9c75
col48:   a9bcea7cbc9d7afbcfb7d9cafcccdcef8ecffbfacccce9cb79eabe8d9afca99ce79db9d9b95889a6
col49:   99f8cc8c7887fe6acdddc8ac9bfb9cbfebfc7eccbeebdf8adcecdaafceeaceadb8da8bafecbb9aaa
col50:   a9cbaddbfcdaadcecb8adcffdfcbbbabecfceadee9bbcfdbee8aae9acdbfd8b8e9fbbb9adca8bced
col51:   67cc7f8b599cf9d5979a979c8bbc97c9b9cc8c8bb77eadc798dceaec7edaaa69bb8666a499958995
ROC:	 BPix_BmO_SEC2_LYR3_LDR5F_MOD3_ROC1
col00:   8164584959759525949168a99775a978767a9384a567859777b94767767849b9b569726598537794
col01:   7a8475e9b17888699aa81b6bb987a6968baa677bde98aa9a57ab66ba9ca7abb4686775aaa57466a7
col02:   a4bb988b3755a8d6685a575966bbaaa8b6594b898acc745b9c6c798999977a46b987a9287c764686
col03:   98678784c5b579677d8a8a58ac98bddca797a9a999a8884d7aa8688a8896abb9b769c94698579771
col04:   9868795b9946cb68a7ab4d6bbaaabbaba7b987adb68677999a8a894b66958855bbc88467a786aa75
col05:   aaa469664b5b856766b7577a668d7ab879889a87e6b9bab9a898968b9b9a98a47a94846766478652
col06:   979c864a8676c98967758ab5778a998b79aa6ca58a99a99a8a6998743c97b896365672a878a86967
col07:   665969c6b66bd9a7d97d88c57b65b9badb4bbac885b988acbcba96979c6b5b878669d9a499768569
col08:   7847ab858688999d9866b7b847b5678bea78c7a8c9997c789c6c8949cba86cb9775a957768a86843
col09:   59986c77ca8dab7e5acc7aa7a848a8b9bbad9abb5d89a5268b8aa8988cc97b99ba778477b8887743
col10:   868a867818a584484576a676568a8e6ab8a7499ab9aa7b9a8ac9ab8b997e9b9a676846577aa97361
col11:   347c568a3a6868a285b36a9a8a97aa96b7a8999579cb7b899c5d9aa888a46799b7a9a894842a8a69
col12:   79a97986899668569d7b99be77887ac9da999b869bcd9977c59bd9a9b695aba8797796363848a378
col13:   5a9ca8864c9c8b978abaca5989a6b96b3aaa9bbb98cc9889b4788bbbb9b4589d8b88c748a3b8866a
col14:   95a8a89786678a786bc8999a5aabae786d787c87bc4797987ac87a88cb4a587a8869c464ba5a9354
col15:   69788ab66c7885baa897659b868b7c87b8c6b5c8669885889ad97dac78798978b6a68e697658c772
col16:   7659a98b7aa6a797698427b8f996a8a8aa8ac87c8a57bb779acb8a8bd9d4ab77ea3695a766777696
col17:   6c498978669b97b59a887778b5bbad8bca779baa9bbdb98caa9aaaaabaaae87568745a98a54a2777
col18:   6b7a395b99984799d55c799ab998cc99ab5b9888a98587b6ab9bd8aaac57aa6999469856aab48557
col19:   b6949b8975868ad9986949a9ca84b88ab8b679b68799c98baa7a8ababd89997a8a88965857279673
col20:   76686aaba8777cde8999ad58bab6ba7dda7cba9ccb6abcaa8c89aeaac7c8b677ba9969aa857856a5
col21:   7d5d9569a996a778698dba7b7f9998b895989e4c7ebc8b98a9a878a98a9ea5a967ba89645787543a
col22:   89c93aa677786b7b9739b98acb887b98c897867ccae997b7baa99949ac88a87797ba5a86866aa697
col23:   c8c394a684c47c9666955a8a7db8a796988baa6cb7999889ac87b98a9898aa9a87775b2889667a93
col24:   77552c78aaab7a7449c55898d9a77b69ab8b9db96abaaac58c896d9949abbcb95388db9965997789
col25:   cba6788875a89598abdcd7a8a9aaddcecbeb7697b969dcc8b8ab9aa99e7bb8aaac7b9b7899979aa6
col26:   58ac9695a4cea8966acbabbaadaedabbca9c8a96d8bcdba697a7acecb8b8bb5a8aa9de989ab2b89b
col27:   7a87956cc974a8a6694a9a9c8b9b96ecab5bdaab6bbb8beb8cb98aa79dace99ad767adb986986959
col28:   cc9be97bb9a9a89df6ccb67baa6bbcf8dbcc9bcfc9dd7bb9eac9c8c9bbd69bd9aa9a8bc59aa68ab7
col29:   aed889a8d96a99a9a4c998ac9b79ed8c99b8eefaadcece8ddbabcc8abdf8d97be578cb8abc9cb7d4
col30:   4a9878a6b7bcabbd9a88cb769a9aba9aaeab9c998d9cbfabab7a8a8cbdbaa79bbca8879c57d58bb6
col31:   b9aba9aa758acfca4e79babcbb8abcaaf99dbc7ed6ccd9aaccccaabdbcbbdbaccadeb89bba9b9ab7
col32:   caa7fbeab7de999b9cbdceaacfe8cccbdedbabb9999eb86cd7e89cacaa79ba8f9999bcad789589b7
col33:   bcdda7a8d6899aacb7accbc89aac8abacadceb9fbbccacddbdec9fdab76da9a8b8c6f79bdbabc576
col34:   af9976b89b8c8dcb9a7aaad77cbeac79ccadfaccbcbaebade8dcccf9aafbdee8a97a89cecaa99c86
col35:   adbab9bbbe6e98bc779d899bbabcd98daab9cefdd9ddbbebb9d88ddbabcd9ca9d7b999b8d887b77a
col36:   aba8b9c8899abb99f88abbabdd9addbbcbecdacdcaacdab9aba99ceadcaabba7a7e9baa98baaa888
col37:   a7abcdddbb9b7eb978bcbcebabdaebadb9dfbc9ddadffbacde78e7cce9be98bbecbc7bb978598987
col38:   abbbccbeccabfa9dad9daaccdabbcbbacabcdaedadbcecbadcdbfacefbacdaaaadbdc9899bb69cc8
col39:   9ab7daa8d7bad9bdd997daccef8afdbb994d8fdafcdcd8db7cf8b9c969bd7dbd97788c86877da878
col40:   ed8b88cebd97a89cbb76ccdbb9ccbbabbfaceefbcefacbdabdb6a8dabebfabdedeb9cb8bae7ac656
col41:   ad8c7ca8baaaabadfa9edcb6aedffdbfaaabcb8bba8a9ba8acbcdd99ebf8bebaebe7bdadca98b9a9
col42:   cd898969bb6abe9ace9fcec8aedddcfeb9abcccacdacbacd977bebbad9cc96dc77c9a8b95bacec95
col43:   aaadabcb8bbafd9bdf8bcccec9adc9edd99dfbdd8c8db9edebcb7debcbccd9e69f7c9acbd9ac98b9
col44:   e9cabdbca9b9afcbb7db7ef9ba9bcac9ddcdbfaaadbaebdbdb8ebcb9ecccd9c9bdbc999bbbd957a8
col45:   a9ea97aea7aadad8bbd98dfee8adaaeabdbccc99adaebd8e9dd8daeaccdbdccbaa97bedbdab99894
col46:   99ebb5cbb69a8ccab8defaceecb9aabcfcedcaaafabfddaacef9dc99ddc8dcacbce5e9aaaad889c5
col47:   8bcbfa7989cab98c9cebacc95dc7cc4dafac9faab9ddbced9badcbbccfc9dcca8fc8abafcbc9d699
col48:   abd9869bbbcbbac78ebbacbac9cdecfbfdbdcdfcbebcbcdeabbfaaec9dccc95eaacaebaa89b8797a
col49:   8dbbb8a8dbd8aafcbdbb899c8d9e8cdecfcfbcaccccfabcacbaaedbcdcae9aaaeb8d8f79b88bbd8b
col50:   9ac98a7b8aabc8bab7debac79ababccdaaffd7bcdb8bdaceaceaaebbbdbccdedba7c887ad6b8bb9b
col51:   5d67b786579ca969b78b89acabaac79bb9bb9f9fabccb5da87aaab98aaaaa9b8c6a9a79967558784
ROC:	 BPix_BmO_SEC2_LYR3_LDR5F_MOD3_ROC2
col00:   736946846584174538667767668753463397673579465a64954489875717682495645537966a8765
col01:   a5876879677879c47777798a9b976556998a688768b9d977a386a9a77a9657bbc985879688659864
col02:   656755683683736c79886848a66779898877567867c98857787bba78997b88897766273a854a8563
col03:   9677b54462865659871956b6ba56787969635eb95b68c99999ba8b799b4bda86869667468536866a
col04:   8755767a9a95677688b8887a99878746775788859887a989a6376668696a588c8a78979a33a58466
col05:   55769a77357589b5b8a976ba79a8897965b8c9aa9797948aa95a558c89aa77995b95863a62657692
col06:   8a629676849b489656637994793a889699bc756ba7ba88a946949697694777b8a6b9467654a75486
col07:   5556647867887b953644a59796ab4b89b5bb8888b8a7b6c898959a999a696688a87966c798977889
col08:   7ba8a8936594b8588b79947f39d9759b8d9b8978bc786a9a79a8be5b97a855775776a68978777645
col09:   6666887898874ba6b84867478ba99d87b9a79c9a49a85499b8aa8b9a7bbb787768568576b499a8a8
col10:   68765889c89867794584a739988bb659b7872b8789892987abb9b876d897658979698a478a565867
col11:   999d5a89766576879cca5b4d79998a87c7869aa98d9a7687bb9b77c87a877b95ca895a4849a89478
col12:   a93b65765777794b3768c89a59a84678a79aa9a7b98b5598877798949a99a8786b57b87787827299
col13:   45679666688a8a5967796cb9796aa78a76ea87b8a464788b8b7c8979788b85599b1776645b9816b8
col14:   358777869a9c956a8754947a6a4bd6a89aa7aa98b597789754a9b84a74ac99c68667a5b5a99aa575
col15:   8575967b4878569a67b8965798aab7aa9a9aa89a7a974bb8a7888b89b75864a7b87c956885787a5a
col16:   43569668595a686367885779ca69987a9774a8a89787cb885cc4bea6d76868ac7a8b978778898579
col17:   485328786658255775787965b9cac7b7b74766bb67a4abd77c7b64765896a4d995a5897595865682
col18:   71785394a9766984a66775887879a88857c8988aa9778ba5888a9888b954aab597aa574789559463
col19:   4979b899bab75968abaa694a889a88898598b898b9a8686954b797966b6aab6b8665a58bab869663
col20:   5a569685556578a65a64896574859777a8b899a679b64b4a995cab9a876aaa8aa548ba9997767665
col21:   888778878b6a637a8767879baba9696676c999d8bba98a47785969d789679859a786555878887995
col22:   77b85c688669996798698ad48777bba896b887a55b899989a98478679786a9676753774594866639
col23:   798635877c99888a9582b77837f63698786c8887d5a6c857977986c89b798776a7655a6876977945
col24:   397985b38848ba963a89785797ca6b6469b779c9dcb9c668777598856bb68a5969986936687a7663
col25:   9476548759845798b999968b7b4893b999c99aaa7a8bba9c76779ca7b76aa89388886648969b8877
col26:   6db9a6579a8c7b8d999ac9c7aca88aabba88b88aa9aa8aa8a9c7c7bbc986fb6dd6ac897968a58797
col27:   6578987b96db9889a5bc8988ba9abba6899d97ab9d8c989a7c7bc9cb997a98a7b5c858a93569a799
col28:   95a7599799c9ae6796aa6b878b7ab8a88da9b9cb979a7b8cdbd9ecc6d99acca99cd7a769868a8875
col29:   68a9689b5ba68a9a8796d7c999c6abbdea6998a98bac8b8ababaac9ac9b9a9a76699778857584986
col30:   968879a78798a56ba6a889eaba887c9a8498b9a999abdaa99ddcbb9d5c9baba6bb778578ab999975
col31:   88c98875a7bbba9ca999c7b999b9bbd8cadddaca9dec9bacba8ccb99af9c9b9caebcb8b99a87978e
col32:   3988a9a797a9a7aacbc7788a8cabc9d9a9b8cbacdb8dbd6edaeb8aac7a78bbaadb9a88caa567d767
col33:   b9878697a998758a99b77c6bba8aabaaaabbd9b888bbde9caabababb9c9aca87ba9768bc6c8b9bb7
col34:   c96baab8a98c79a7bb97b69a887c9899abcdaaeab78bcc9ba77babba9b9acaa65596c89788abba86
col35:   b88a7a6ca9c7bcbccb4b6889b6baa8cacfdfbdcaaabcaea7bccfb897a9db6ccc67add8ab967a88b8
col36:   a77cb8baa87c798b99bdd7bcba995e9cac998f879afba9cb8c9cbc79aa79988d8bbab9ca5cb79665
col37:   87859b9baac8aacabeacbcbacbc88b89b9cbbceedbebfa9d9caadc8bbcdbaaabdc85c8a868c8e774
col38:   8baccca9a7cb99bbabb9cacccbca9ab9b878bb9dda9d9cae7abb9ac9adab498266c98b99b9889c98
col39:   a99a8babbc9dc87e9ec8ba8c8d9b89889cadcbcceec9bba9d9bc7bbde9b7dbc899a779c5a7979b9a
col40:   5a98878a6cb99dba9b9bcaca99acdcbb75abbdacaa9adadbabdabed8cd79bcabc9b98bdaa7ca9a64
col41:   ba6869998bbcaaa8aac7dcabcac7bc79cac8cbadbbdbee8dca8a58cfaabfb98b8dca9a79c7ab9d78
col42:   abb98b7c9998e8d6bac888476bb8d9abbb8cafacceca8fc5dbbdceba8a9c988a69a58e7ba8999948
col43:   799c98a89efcc6aad9ad9cdcdbbedbeb9dbed9c7bebeebcffaa9bbabaa99dbcfdec7ab897c9bd6a7
col44:   788bc7a6dca79fcbb998da8aaaaae9ebdbacdacabbbdc97beaca99aefa99aaea8de899b9bb7b9a76
col45:   99999ca9d9cbb7e8bcb78efabb7ddbed8ccaceb9a9dc57c8bb9bed8ab9cbbacdadc9a8bb9a87aa99
col46:   a897a7cc8b797ba89a8abbc87aaca9aa9bab899cabcaa99bccabba9796ab75bacb9b7e87db688676
col47:   ac78a9bbcabbba9aedb9c89bbabbabcfdb9efcbbcaccecdaea8ccebccdaaa99dbd7b69de9d897ad8
col48:   8e7789b9baa99d668c9d9bb6aa6cf8a9adeafccaefefbffcd99cfdaa9aaaebccdacfabd779ba9b76
col49:   c9edba8b9bb7bcac9c97dcab9bdbcbefdafbbced99cedddcc8798accb98cbb9a79cbb8cc8a89a958
col50:   aa9c5779c9889dbbacc7b99ac9c8aa8aaecabbf9cea89cbbccbbccca99dcaaabdbc9c9ba8d8dcc95
col51:   ca7b48a8976a69897a76abc865c8c998a9abb6b9c97a8d989d9a8a9bbb997c795a88678977954899
ROC:	 BPix_BmO_SEC2_LYR3_LDR5F_MOD3_ROC3
col00:   a59786747818a435aaa74795a9a83a36a68998a568358a873a787bba994a136a3ab56a4852695756
col01:   3a7889c8a765896a57b97db4ab98abaa7999cda799b557d78877d983898b778c7b79c5836939a975
col02:   acaab78b7b3d568b7cb676b95bab8b9b9bb66beb899557dad98a9a8c68555a393b89878396779b65
col03:   a9b98999a8676aca69996cbab658aa7ba86bbaa8b8899d66b9748c88c666389698b9c7acb7b95687
col04:   787b873c89889a8c89e56ac49b888977c8bd5b9c8b89aa8aababdac7acb77babcb898b7cc6877745
col05:   583d6971b9594a59c68d5b688ccbabaa98897a98adad858655656988ea7c4e5885669c8569864a83
col06:   7c467968669b7b9b8b777ab89a89accbacc7c2ecc9b698749d82aa9ac5c7ea9aaa78b69a79218757
col07:   b8687578796a4d56baad7bb8f8ccacbbbeacb98b9bf5998678e9e9beb9d59b4a7996a87a659a6cb3
col08:   99974b56c67b757786ab6a95aaadbad98b92bec8a57bc98787bbceb65bca9996965b3866754b5d86
col09:   9986988a868876779898a7bb4b9998c87979a8b9aa68da9b9897aa3db7bb562a87979948a86a55b8
col10:   857b4158627b4899cadaab99b9ac99a9987db78abab78ccabaa9ab3bba9b77cb4cb649a888496787
col11:   6495ba6765ca85b7a9c8667667c799b7c9d88798b9b9775d7cca79a95c6bc61cfb96a798b996977a
col12:   989486b64479778b7ca99959997999aaa5799d9a4ebd9bb786986786ab76b76ab5b96a899a75d64a
col13:   4b5777849338a979686cc8c67bda99ca7fa94dca4a7da7aea94d9586648c9b979979787974c56779
col14:   36466b866586a66a1776875ab9a776bb9c9a965a9ba6aa99bd9e8baa8a5a8b2564486b7757578648
col15:   7476a54a95878697b96b9b8b7754a7ab9ac89baabbb76a75ac8a5789aaa77aae87b7b95458796934
col16:   6866969575de4989998c9b878c8b6badc8a8ac878bc66d8787d7a78b6ba478a634a7687478748bc4
col17:   76885667a4857479678b956589b6957a98786688cd9adb9aa79978cf896667679764b83587588961
col18:   779177b87186b7b9acb8a7ac93689e979a966f837ab77a8b7758ba4a85cbc766d8818776556a5d95
col19:   77b934898b654b358dd77a5bd78b86a8d876ecb9a99ac7b9ae8aa699c9ec8a8b88a567674966b866
col20:   35848988978a6858c48a883998c57c869c5a9a8f47c5fb7b3a9b679bb59bb72695a9862875aa9a51
col21:   3ab63588bada4b578778c9ba74ba6a6778bb9577458cab45a99d77998d69ab59c6659a8abc74a978
col22:   794e56565757856865b975565b5e5ac5988a866d4975bb88979758aa89bb69867b7c7454975ca896
col23:   a94aaa6b59569326765884b7c98ac1e68b9adb9a5649a9cfd9886d349a5b793898a8a997787b5763
col24:   7b465995a9766b57767aac86996d7c96c7ba7cb9b6b6b96aa97739a8ba7988c3598d77763ab66a37
col25:   4875587b45b6b9c4988a6894a9a96ea899859f8a6f69cae869d667899a88c9cd48d9a7b9ca8baa26
col26:   ae6a8a6e7879ccd877baaac9898a79a9e8cb997a99ba9ba95676688cb989ce99ab3ce87a9a898b74
col27:   5a46bd67b94a688c75a89a8b9a898dabccab7b94abb8b899a99fba9cbcd788b877698ba7688d7a7a
col28:   a4778b4598846ae7db78bbadaee98ea97c89ab89a7fad7cb99eabb8fdbedb8b9ba577b69c5c97d86
col29:   95aa9ca9beb4aaca66ab9bdd9a948b6edb69abc8c8a878adf8cedbfadcca9b99abcc9b76cadc86a7
col30:   868a77caf44995968bd88aabbcab778ca9ca999efcc89acbaadaa7bb97d6ba97da8ac699c8b98c8c
col31:   b98ab78867785aa9aac589cc4caababcc8da89abcb8ed8caa9dbac7aecfa6edbe8d99bba9696a778
col32:   988bc5ab6b7d7bbc69ba99b9bb7578dcbca8dcbeabd8cadcb7cad997cccfa7cdcba6aebbeb8bb8d5
col33:   8a869a76b7b46d5d878ac668ea7d6c9b85a58abaa9bfe8d677bb8797e7a76dddb6a897a688a89b68
col34:   9972ca9788aeb9678beb9bcbefd8bbcbedbad6babeaeeaddbcdda99ceeff9d9bcbc8ba9bc9dd9a59
col35:   88d997c8ad97ab9bbcd8aabcceeb8d6afc8accacddadd8dc7fbfcadffcefbcbdcac9ca6baabd6aa9
col36:   7edc89ab899bb8da8ba79bb888ba99f89ab8bd9aacdd9bb68aeaaceca9b998a7b8ac888a3786e999
col37:   6c9a9bbc695aea66af9cb989ccbbb7aacce9bdbadc9f8dbbeeeebdafcaabb9dbdd99bb8db9c85988
col38:   a9db9a9b78989b568ea7aeb7aabbbcc6b8fda97ac8ccb9efb9fafeaccbb8efddbb7dbddb9c7a978a
col39:   b976588d9a9d6b9ad689bbbcdac8acdbedd9bfbefddbdd8aeb7d8abefdd9bfcccbcacab95acd8a79
col40:   88689abcaaaccb7a8a8abbbe7b5a99b9aeacacc7cceb9cffbdaddaadcf8fbf8deda9ac69b9c9dd7a
col41:   7b8d998869ae79dbccadcdeadbefcfb4bfeacd7fb9cdcdedafcacfbfffbedbaecfdd9a9fd9ec8aa9
col42:   ab7ba7688baa79b88797daba9d85dbbabbb9eebebaed9bdbea99dcc8fcff7b9ad88bb6bbc99579b9
col43:   778a9d7babdbe7dafcaebbc989cacdbfcaedcadb9cdef6e9baecaa7ce99a9acbbdaaade9df9cac98
col44:   e879b9d8fcc8f985a7bfa8aab7efbcceccdbfbfcccfcbcaddfbceacdea6accb5b9cace88aa9ecb9d
col45:   e9687da8bbac97fda7cdabba7befedcbcabdf9eabca98fcdbbedcfcfecce8dddaadcafdcbebf98cc
col46:   cebafc8a9dd9a9eaa89ba9d9cbbcf9beaffaee9e9caf7cadb88ddadfddddacabcddb978b87aaba9a
col47:   8ec8b9c8e999b9daa7cdb88dadaeabccacdaeacfedebc989cbb7eadefcfbaccdf9c8bebfaaadebda
col48:   66dd7b9abeacbaa7bdda989bd9abaafb9bca9edcafafbadbefdd9bd8bbe9cccbfbdf9fae56c7b9ae
col49:   d7e9898dcedbadaa9b9bc999cbadecbfd9ffbbecf98d9adcffedeffeedbaabbdb7cb9cccbd7abe7c
col50:   6ac8eda7ab7d7b69c7a78c8abbaf8abcbdddca8cccfbfeccbbbabdab98bfacfeacc5dcce7dadbcd5
col51:   869a4d87758995aa66977b9ac98c8dacbceb7b9cbb7cca178ac85ca97bdf6d8acb9a99c867885185
ROC:	 BPix_BmO_SEC2_LYR3_LDR5F_MOD3_ROC4
col00:   c674688a7843aaac7a874a44966955976869694c679854898a63a89659a796788547ad8786c75736
col01:   a8d6675a9b66945b9bc778698948babb9899a888d9c85b57b956aaa999aabec4759577a49563c477
col02:   c74abbc94bdadba99a776a6aacb86bbe8a5ad888a9b98b898887b5a889ac97ca959b664b78757745
col03:   9726aa7397ace696abc977679576acb4899c988d7d6a7ab7a89a97a76c75b9665869a76887265496
col04:   8aa6676689b7b9d9dc89958cbc5795cb9baabc7cce957ca7d868d98c6a8869c97997b764a466a754
col05:   5939cd7b6a7796878697835c7858aa9997a99d8aabbb5996aa3ba69a88888869945766b678637984
col06:   56879876977a95699b78b7a9847e867a97aca99897798bba9ba79a8b29c8679768979d55b56aa962
col07:   7957a9a8de77bbbba99558d75899d485d685a9a94a89bb8dcdbb99b8b7ac9a4a89b93956989d89b6
col08:   be96859b886a5a767b5a59c8b6979996aa78aa9c9b8a8d8a8b2b98bcdd8597db791bac7687675577
col09:   8b996b8cb876788baab46b9876c96b96788c1bc68798aa8c798dc8baa7a766774a48bbc634b5a885
col10:   8b87cbc998999765487ac9ab7b3bba998a8a58b8dbaa9c9baabc9baca7aa7a887aa7866557686875
col11:   7c9753576768786a6b8aa9b569789d89987a6d79896a9bd8b749ab88b6bba497a8ac7b56a957a59a
col12:   985764876a89a797a68b3cb56f8b998c89a9aa78a999a8ae8cbc77cda6997a78a97865898ba55774
col13:   7a5c5bd76844795b87a996a679a5887889bbac69b885a97a8a77859db99ba7ab8a789668c8649a55
col14:   9998acb7aa877c9a896667baac8a8aea6ab668758a975bbc867dad8965a8695b9c9576ba7858c849
col15:   a9b9589687974997b7ac6c7929a9b86775db8978bc9a954c95c655a8edcaa8c9779268a85a668918
col16:   75a8aac89599578aa9a76cac999ab7a78977aad789799b79896a886698d55ba8c88a675ab9736846
col17:   a89399c786a98b5a7a9838c5699af79a9557696857978977b6469a967997a6359656862798aa8767
col18:   7a9eb54976cab69ab8866876776586a9ab88a988b9787a1586767a8aa9496984ba75676a87555689
col19:   c76a65a86baab6a99aeaa9bdaa8a9b9b6d88a9a95f79a856888668ab3d9a8889867379988897a996
col20:   877666cc66486799a52b5d79a57684a5babc9dba978987a58988aa798ab96a979898634467646887
col21:   87b975696d78ab6ab5979a298459d7c876888d8d68b6d9a65a899e896c577b6ab99a57354a4659aa
col22:   5b8f8c34865a668aa7789968c788a6bab7a689aa8a8a55957a98a78667999769597687d678777277
col23:   d8a886aa778997a5b65998b988a89b67c78b9a9847a998c88b867c8a968799ab67863758644b8a63
col24:   689768a7c649a8bba76a5ca5b85b9ab76789b7b89caea949884987889a667b6777bb767a58528788
col25:   a9888abbaa84a69aab88156b8c77a6aba979aa8b8579b86aa99ac9baac8bb67659577987b7683377
col26:   aa899dab9accb998c97a9abfa9bbd8cc4c9c99cbabba99baaefea7abcbdd98d88b98a987b69aa695
col27:   c8595acb99ba9b9d9aaa98b98a9a9b97a8b7ccaaa6ade9a8bcab9599bfb989aacc869875e851855a
col28:   a7be6b67a89c8d978b5b8caa8cb8b5baa8ca89cadbc7aa99ac79abdacac7677da88a89ba548ab997
col29:   79b676868988baddbd99689eef79bcda8c9ccc7f46adab8d98ded9ad9bb9a9a8b8c97b3a9b8ac873
col30:   b4b99b8aab9994cc9cba9bdcb78c7ddbe8fb96cd78ebbaadbeda989e8c6aabe7c5ca9a69d8748879
col31:   a76aa7c9699bd88d98ddbdcba99bc9adeabf6abc99dccbaa7cdc8cf98aaaa8da8c77999aa8878856
col32:   bbfca8a8cba4b9aaca7d9c9b9db98cbc8acba8ecbda99878be9ea9dabcda9b88dc9fcaaa8d987885
col33:   997ba7b75f9ca788b9ab978c99adbae899aed9cca88facbbabaf9bacab9aaad9bab6c8caba6987a7
col34:   8a7595c9f8a89989a8eabcaf759cb9dabb8eacabadb5debcffecab9d99ffabcfa99557cb5b6a9877
col35:   a77abd7b9ca99e999b9998a6aa9a7b9bbbce9ff8baac8cafdbbbc68abc98b8de88a8bd68e88896b9
col36:   dc8798be39ab87dcc7889cdac77db9868a69caa7dccdebb7babdaaafa98aba9bd6bc3b9db9a69688
col37:   8ac9888bbfdd9beba8bc56a9ccc8eeaca987ceebcba78c9a7cb7999b8c8f9d7ccafc9697db976a64
col38:   a9cd89988ba8b8ca67cedac9bbe9cea9b8cbdaa8bf8db6dbcdecbe8faecbaccaaaa9ccac9da887b8
col39:   b88bbbcbb9867dc7bd99cbbbe88ad8ccdcac8d7bbdfcd8f8abb8aa994bcaae989999a93ca76a8869
col40:   a869d989dabba9d979edbca99c67bc6d9c8eb7badaad74bd99b9bc69bb8a8a8ac9c97a9aea79a766
col41:   b89cac7dae999adab9988ba9ca9b99ccc9aacf4baaddbd9fdbda7c99a7cab796bb98c987c669a97a
col42:   8a7c899abce6a894cb79bfeccb9b867bdbd87bbfdbc5b9aa8cfb6ecaf99bafaac9b9a88aa9d598c9
col43:   9a6aaaa9cb9ccdbabacfaabccdacdcabbc8fd9b8fa9d9dcc7aebbdbdbc5ceaeeb7bc697fbab8984b
col44:   99da4bfbaac6a898be8db9baf9cdbc9c8cefbbfcbfbc86cf87cacec9a5dbdacfbadd77679a8789d8
col45:   8b9b9a999bdbb5ad8a9b69a9da8aea8a8c6cc8dccacb9b768bc9ccbbb98adaad9c89cdc7babb9d95
col46:   9ccac8db5899bb5abcfca6eecbabdeacdc8cac9b5db79bcdaaac6c8acd85bbcc9abd96899ca886c7
col47:   caebaaaa898ae6965dd8bcac7badabeab9abadcccae9cb8cadadaacd9db99ca8abb9acbde7c7b9e7
col48:   7bbd97aca8a9baac9da8abca8ffba9dabacacdbbaaaaa7dfcb9bcb799aac9aaac7abd8cbbba7ad7c
col49:   877dc9dba5b79a8dba869eb9dfbbb8ba9ccc9acdf7ea9ca9eebbdadcc9fb8cbd8967a7889aabca99
col50:   eb9acbca999b9cfdbb9bbbaaaac7bbabcdab5bc8cacec9ab948abe9bbbbaa8c6b7a89ab9dd8dcba8
col51:   a6b9787469ba579c5bc9ab78998b4caa7c8a5bc7488aab628889757b8b5a5b6936b79a54457e6656
ROC:	 BPix_BmO_SEC2_LYR3_LDR5F_MOD3_ROC5
col00:   2667395757438765256438252686398677536654a63536646a44489798583337964a4555778a4844
col01:   9a786535748e27468387b687859988ba8899876b999277d695b8797ab9b68777ad2779659765a77b
col02:   5648895878667468659889a8a567277a3c48a9a73697b896c98996c76878c58a79a5796655889747
col03:   77896769655955778797777685786878d79da9b79cb887879599788777a4798c9ba4567476463688
col04:   a569355a657a659864a569b785885869748898b9a5b39679978a95879dba78789abd8a6a87a86639
col05:   577986259a939459971b5a9774b737479a87a865a8881578999a69897987b8777695755847279956
col06:   68798886964a6176747a5675789a6887996a3997647b95ac776597aa89576b64a98b998787779796
col07:   687b4a7866997789a59a9786688a8cba9a7a7b6b7b697b686c66ccab9769876cc6a9868c79877988
col08:   95aab83aa79428bc38773ce8765858a6c6876b7ba81c9698a85cbb7778a56873a9a85ab6ba997776
col09:   a78b84b358768997897b9a668b798b888b9a5899fa69d8c7bb8b7ad868968ac9969789a97a696855
col10:   894a999459659472788569a8868a5bb75899a9a9769a8788766aa477a66abc6a7ba3487898597697
col11:   8a9785b5aa87859cbb89697789ac5a3656b987cdb88ad7a686c777a7a438c6a689b79a8d98657775
col12:   a69ac6a4886859944867b5a89d7866978ab8778c85868ba95d89c67b9ba8b7daa99677d774885959
col13:   696ba8649587689a54a68699897979b58d89d86d797989b7c7bb88b8b7578bb9bc77a79aa696aa84
col14:   577788665795c769885b89986966b989ca6b9abb9788988b79c9adaa75aa577bab4cb89577672896
col15:   64b79a7446988a5c46b64974a688b889699bc97979b48969c8b969b78ab9978858b9aa9795848ac7
col16:   47497787598987a757945c46a778567bb6b8cd77467a7baa8a789a69858899b668539c6b8576a567
col17:   5828769564672598ab495a89885b997b9b799a88a48b98875baab8a9c9bb86884588b748635aa769
col18:   a9a4c732788368677688b97894b856bb89adcb98a99b89bb7a7b697489879bdab6957577a9936a88
col19:   6a9ab788a4bb969a76abba95bb9a9dca8c9b9a9cce9c8a8aa55aa9aaba9caa6a896c9b8856a6a5a5
col20:   67868476a77a772776568a67969787cba8a67b7dba899aa99aa698898ca99ae85767bcaad385699a
col21:   a569588a657397735655bc788876a867b95878a5a6a797a89cc88b8ab8ba977d8bbca792a689cb66
col22:   48668559b479878579b9897aa6d875b8978999d8a65bfba959aca89789c9b9586bbc997d99b96988
col23:   8a66879ab8b7469a8b98786889ab5b77c885aaa8a7ad586a967588ac6988c874968b8c7b9a5a6655
col24:   7a7295898586bb69365c896559b68ac9b5867869997a9b99985b8b79a8a68ba886877a9984b14e77
col25:   8b8a6aa58a8aa98856aa7aa796897a78999a9968989a7c7fe969a8abaa7ac9b7b985b7979ab9caa6
col26:   b6666774889a7c77889979b9998dca8a9ab8a9abe9afacc8adc8eb97a9abbaccb8ba9e6a69899ab7
col27:   88a86888cb96a5a98cd8b959aa39778baa9c988bbb6ba9bb9bb7a8ceccbaaaad698a78aa7899a886
col28:   b8bdc8897978cc798b98a8879dbae98ab9cec8ccab6cbd6eca8cbcdcbc4acfbaa8ab85ac6aba6d98
col29:   9a8989caa896b4889888c6989bc9d6a89a9b9ebc9699cabbaa7abcbaacbd7fbcbacac9c976a77877
col30:   ba56889c66698b85b58ba89b8eca86ad9a9ea8c8a977afcbacdc98bbbccbc89b795a9cb6fb98787a
col31:   995b7bbaa57da7689c6aab9cbcdb88cbf996ccbbb7c9ed39dd9e99cbacccdbbb8bb9d9a79b8a986c
col32:   a878887aab87aa888cc6888bdbc88aaababcd68eddeacbdbbccbdadbeaabeaa9e9aa9aacfcbc8ad9
col33:   7898aa99bc6aa9b98c7b99bbafa9a87abb6b8a9cc79c9ac7aa8ea99aebdfa7baaabbcaa6e9c9e969
col34:   d676bc8a8c8abab9ba4ac9ba89ba9dbd97bbcacbccce9cabc97b9eafbb9c997bbcbbc7a886cd5ecb
col35:   a9899aba8b79b6bad9aa9998bb9bcccab8dbdcccbdadeceebedacabfa9eb9bb7cc9c7cbae4688b6a
col36:   98999adb787d8c9a79abe99d896a98edbc89f9d8cdccaadebe9cc988d9bc9eb9e8aa96d9d9a8c787
col37:   c9aaa7ca97cb9bebcab98ab8d88abdebdcbc99bacd9acbdaad9ce8cbdcdc7caccdbadb8cf7c4baac
col38:   6a698aca886aab97989d9bbbbc96accda9d8abacc9bdbbb88adbbab8dccac8ae9cbb6daef9acbc5b
col39:   bc6d696997aa9aa9a99aacab9a9baccaaa9fcc8bbac8c7ca8dadcfdfcabceacbccd77c8cedcceec9
col40:   a6d973baf8788c89c7b8a8bacc99afb9d88aca9ccda99e9e89cbbcd9bc9cbc9ccbc6abb96aacb9b8
col41:   b88dbc889acbb7abb8e9998cde8cdca9f67edb98e9cbcccb99aac9eacffb9ec8cad9ddd6b98dabca
col42:   898e48cac76c6caad78bd8eca7c9bab6b9ab8c7aecfded8bd9dcbcdddbb59ba9cba8bacbaa979bec
col43:   76fdb8c6ab8aab7c689c7cbbcdfdaafdd8a6bbbc77dacddcabdbefbfacefcddad9d9ac7bcfafda87
col44:   7a97f7ea79c8c8dcc8adb78bfabbadba7fbbb9aeeaaadde8daeddcbbbaccebabb8b9ebacfac9aa75
col45:   9eb7cda99d9aba7e89ab997b77adc9ec8beabdebc9dbecfbabdbb99fbcbbef9fcdacba89adcb99ca
col46:   a79889dae7abbbadbb9bcdadb9bcebbc8fccfd9aafdcabbccadcccafd9acddcbab8ccb96ba8bcbc9
col47:   9cbb9c999aadb9ccebcf8a9cacdaecbbce8bd9bcdd7cdfc8bdd7bbecd9cdcfbd8bac987ba9b97d9c
col48:   999b9bd796aa87c8b9bab9baedbbbbd8cabbbbba8cfb7dbea9debfdcabcbcbfc8c99fdb9bca887a7
col49:   a97b7abed988daedbae7edbbbdb7abc9ddaa99bcbaefdecdcac9edd6ef9cce9ebca9ddcbcceb9b7c
col50:   e96886cda8b8d7adc8888bbc9abdaaaebdebcacc8e9ebbbdacea8efddcdadfd79ea9bcd8bc9b8cd5
col51:   7588c4557b999888d7ca68bbcba98b8a99ba9aaaedcb9a4b8ccbbb8dabf8cbacc79989abb6888a9b
ROC:	 BPix_BmO_SEC2_LYR3_LDR5F_MOD3_ROC6
col00:   17184566b65322946765857b97595918a85858879a85978b779749ab79a49b86857968a966976996
col01:   767446567ac4e57b38786969c9488588977b19578aa5699ca9c377a7c9ebca99678a86a8b89746b7
col02:   484754364a658a65aa9b8a977655998b896969a8ad8c9ca998b479c8eba6b5c4a96589678a5e8348
col03:   3659a694536874955d4746977a8656989acb998a89b999477989958ea58c9c68a7a825e769789757
col04:   25212b68895337b6888ba6ac99bab88666bccbd8684c79b64b997999bba365e798b8879bb94e35ca
col05:   b8395966367b77ab555395ada88d8667a898ba8986a5747598a99569d49859b98196e2698944a976
col06:   54d3726386685b875ba74baada45b588cb99896879b998ca7b7779b89878ba6a9b8966777899a749
col07:   9967586586643c658abbac889c669ac99ba6ba997ba976cabd88a96cca667a6679ba49b97775e378
col08:   3b98876a9565497599a9584866b8b797ab7b897b999a9dba8798a78aa899a97688a4968889c59769
col09:   3292576a59a758969a77c8ababaaba857ba9c67c989bab8899ab7868a9aaab9e87aaab7b97586497
col10:   544348889b7868a98a96a7898b43b8989efb898ba967aad8c7787a77fc9e787c747b8aaa97489766
col11:   43568597482879578abb9646e7899289958aa68ab8888c98a69c7799cb67abb8a4a56bad68c767a7
col12:   a563d36eca6767b836e9786889948796797abda96c95996a9669968dcab877787b588b9ccb98674a
col13:   b4967bbb6974aa8a6a3869aad756ab887969a99acc9789b938d8b9aa868978aa989bb44796787754
col14:   9479a4655d59678456a9c498c9a97b7ab8ba99a99b9b8688cb9b8a7b96c6499a7856aab697c87998
col15:   9466a6bc7c9aa79aa9868799e943abbbbb89cb8a8878a9ac8956bb99da79894b9666b567668a8698
col16:   84a872448977875ab5a566dc8898a898ab9f97b879cb898c97daae9899697a7baa6a65aa87786974
col17:   6a684b484644957426c693568a7c5789af59b97a4b47979ab58dc88cb99946c95b9229a7d985a565
col18:   9156648a68a765689b477a9a4a697aa789da95b5b748c9a56a7959b967ab7bb65a894464868435b2
col19:   98668a87896935b897666a788eb9bb7dc9dbcba9a99da8a5a9bb69c7bbcaac997aa87a58b56c9898
col20:   524b6977379557b6877a6598877bab9a989a978a4a977b98798a8b98b769bc49a77c9d86bb495765
col21:   94742577748572798938cbac9a86caa7beba78997a9b96689b79b657b7a9b99ac949c7aa767aaa56
col22:   778897b3963543a8b8a9697975768999a9aac7cb8f879a8dcdbb96c98999a468c8aa879886775bb5
col23:   368786767b64b93b789494669c89aa9abca8b79bb3b96887c48baaaaa95b6995a8b869964d974997
col24:   736787649898b8a9699a557b8279d368db6698968899ac78699989b757a66776a97b953988a46985
col25:   7c86885756779bd7c58ca8b99b7c9969bcbbbbbb9cb988aea6776b7cb4aac88bb4b796377b9697a6
col26:   886a5ab6ac7c7c8a5cf9affb9dacac99ac98cbaafdd6a89acbba8dc9cca9992bbb787abda778bdb9
col27:   9c97b8a6a9b86677baeb9997be8ba7cbba9b6abbea9da977e89ba88ba79b6799899297977a76b737
col28:   d98a9966779a7caba8aca9a96aeaadd9aebc8eaa98b7a9cc8acabebcacd9a9aa7b889838aa7c68e4
col29:   5e5b5a99d67d98b99cacbc6ad99ccbb77dbeaabf798ab9daa8a9bac9ba978e8aa97866978bbdb5a8
col30:   9675b6a8a7ab9b9c9b89cb9c899ea3ebdbdefed87bbcaca6a9a67c697dbb8da9b597bbc688a88a9a
col31:   bd88697bab69bea8abdbdbaa9f9ba6cc9caa9dbeddba7fdebaaf9caf99ab99885ac9be867bbc66a6
col32:   aab8b97e87c8b9ab9b8f99a6caea48aa6cd799edcbbe8bef9cdb4bbbb8b9cc9cdea888dd99a69ca9
col33:   9acacbc77ccb8886ba9ba8b8bccf97c8ccaebd79ff9e97cdb9eceeac8c8ac9799b7a96c7a8cb9998
col34:   cb768b9a7c6bada989acf75bcfbbabbbabaccaccfcac9c9f789ddbc99f4ce798cbcd9a7d799d9689
col35:   88d8acdc7edbaac9acc7aa9a8eadbbe9dd8caabedbcc8ac99c89aadbc9ebab9cd99c9b7c7c8c7c94
col36:   d9b3c8ac78dbfb9ba9edadcbb87ca7becabcba9c9fc98ccb9cea7fcb9fd7aa8e8eccbc58ac9bbdd5
col37:   8a9acbae99ccdbbbaaac9bab9a9bc7cfcfe9cacbaad9ddbbafcedbcdbbb9be9da5e89ab87fde99cb
col38:   acbbbecaaccfd8cdcca6b8ecdf8eca8f9cabe9fbc9ecbdebbbcfadc9feadba9eb8cafbac8bb9a9a9
col39:   dda75bea67bab9fc8d9cd9d9eaab7c9eacbacbba8bbdabdbbebdbcaadbdad87ba6d89db6a87aac96
col40:   9b87cffada9abccbdcdecdcdefaacbfeceecbcdc9b9bb9b7adbcbbebebe7bdbea8bd99ecd9488ba8
col41:   b789a9cab8a8ebc7b899cbcfdbd9cf7ecabbac8ddaccdcceacbdc9bbf9be5d9dc9ecacda9be8abdb
col42:   a5b99a89b8aa99cea9999a9dd8eccdafbbbafdbbccbecbc9ae86e9ac6ebcecbbda9adbac9bccac59
col43:   acadcbe78fbcbddedebfbe9e6bdcdd8be9ecedd8dbbbafcc8cbaedbcedabdccb6dfc8adcf8cc78da
col44:   9beadbc9898dbbadbea8cecbb9baaabbecebbfabcceeeeafdcbbdcc9dbfd8deaf7e9ccbeede9abb9
col45:   b9cdabd98a9ddabbabf8cc97aabadcaa9b8cecbdd99ac9fc6ac9cebbfcdbdefaef6deb9bccca9bac
col46:   cc897fea7cca9adb6bbabccddbccebebacffdbd9ffdb879dccbbf9edca9ccccfecd98bbfbc9dac7a
col47:   c7bbeaa76aab8dcebfaebd8beceeebe8ebdc9f89acfbeeadedcdfebd9aaacffcdcceaebc9ca8f8e8
col48:   cb87bca98bcae7cb9bddec9ccdb9caedfbabfbfdf9b9ded9efdfdfbc9dabdfd8bdebf99789dc898e
col49:   7c9e9ed9ad88dcbabcd9fddcfcb9daedecdfacaedceec9beeccbcbeffebcdbaeb9cbf8ab9d8c9fcb
col50:   9b879ce8dcebaebdbbfaecfbbaccfbbeefccccfbfbdfcea6ffbcdbcfca5abebbdc9caaaacb9a99a6
col51:   98658aa9a69a9bb65cecebbcb7d86aa5bafd8accadaaa6bbfbdd9a89ddbbb68bfd9987ac6b799b89
ROC:	 BPix_BmO_SEC2_LYR3_LDR5F_MOD3_ROC7
col00:   87711147981561667b692675ac686655b997758865974857a9a7ab767a99467b9b78685682946813
col01:   745aa664b5879b67786476c931986a5898bba6a9ca789786896ac959aaabbd97aba96435868b9992
col02:   27b7a95688a78372939487a67b49ba94a77857f9abaa97a89996cae96b89b87aca8866646875a563
col03:   891767767867486a4773b783aa87aa678bc468b474c85789897659779ebca8a77959a776aaa579a4
col04:   36836a5a677997486685caa7b9a6a89b778aab6cb889cb849ad85aab886848ba97a6c98a59685694
col05:   7264727b74a65487576b8466858498a798bebab66476a8883a29895389a4c688568a98aa9a5899a7
col06:   68569b7555943ab79c967b78bba369c767978767e8677998b84b9957b874ac567aa98597888979aa
col07:   866765484b86cca8669759b7988a8c7b5929879e788bad89c77a5689db79ab6578d37aa8ca7b6a4b
col08:   75b9257961876561781c99b79636ac8c9ccbb8bc78b88a67c96789dba77a76d47497da5978799771
col09:   48a48876c67a81869b79859c738b7aa9c99acc8ba869ad76a9abb96a5a999a87e997a67196a79ba8
col10:   4675653a966a779d9788999a9b6a789c6c89a74d85d7b8768688a99aaa8a8a369987e49865679461
col11:   47795a76a9988a65896989cbaca8bd8a7d9a9786b859966b9ca87ba98d8aa8b978c8ca67475a8755
col12:   85635a8475566997698887789da74a95d99bb99cb8478da6998bcc8d8aa67a8a7956896696a95665
col13:   54267496896abb97a7b789aba95aa8999958777bcb9a989999796aa6aca98785b997c87997867738
col14:   888965a68a9348b88b79ba667ba7c9a9f969a4ad985b89bab9c8c88b57fe849ab68877a3679bb675
col15:   b53a369656989977877e599b59889ba997aca88a4b577bdba9a79d6b9b4a787a789a891b764885ba
col16:   88777b129877489a492a78aa799ab69dd98c89658aa9cc897b697b9b67746aa81ab899a767156a63
col17:   28584bc2b73c9866a89888655886999a76467888a6a99865967b7cda8d767c79a9d9777a86478755
col18:   77862ca8aa878b8717b899b8a829a7bd8aa8a579769b69b86cbaa96aba7a876b6997978998676a96
col19:   688aa9554897a8947aa9a995798aba96d99a7a7acb978379ac4b477abbe988a77c84857696654446
col20:   793b75657545936778596ab669ba76799b5aeaba7d7976ba99ba7b9b65b99a56a8468b79b877a662
col21:   3778677597b7657aac7b477b56858c9998bb7368b988b9ab99ab77929ac76ada5749838a78938696
col22:   94878857889678977cab76ba4c67a9469cad789a6a8b7b897abca48d98b85676735ababa959795a6
col23:   e78a291a6c68b9b7c99a4b959b99aa7c8b559aba78ba96c3b857f7898a43969748755c3778953992
col24:   777ab8356967b8b9636d2b679a58a868b6ab97991b976a6af9fa89a58da856abac89785484676b95
col25:   646b93388c7a586aaaa4c788ab9a9aae8c9979988aaacaad9798c9989b8a8bcc93b979865677c88a
col26:   67aaa6999bd8f7e8ba9c98d9ccc9acfbbbc9bbaa999ca9bbdeaba8db7ebaa8c7a899989b8999ca46
col27:   ab68b798ba9c897ab975e99bc97bc89cabcc89abbb7dbabb49b99b78bb9b7be886c46b877759a737
col28:   7977aa88b889889b8799999ac98ecbdacb8d9cb89b8ad8ab89979bbcadce8d996b8cc99c8a67a7d5
col29:   76cda9abba37a68ca9958bb8b9ccbadcdcad9ea8a9dea9bbd9bbc7bba7d2c5988cdc9f75c9899a9a
col30:   b887c9a76ab9a8c99899a8baa6bc9acc9dc79acb897badac9bccefabc9cbc8bdeda778487b79ebc7
col31:   69a7adc98f79b97a5abd988a69eb9ca6eeec99deaa77cbbbb6796d9bccccaa878e875c88cbce9aca
col32:   8d68a7c87999e7aa9e97c9cd9aaad8cbd999a9feaeb8ce8aed7bed7a99dbabdadb99a6b88aedbaa6
col33:   7a9c577aac489dbc9b88aa7eddbd79b9779bb9acccc49c9ebbeba6a9bcadaca978d7997b89799e88
col34:   bc87da88d6a99c9bcbfcba8ccb9dbdcaacabc9ce8ceca999bdcbc7b9c97abbbc7a769ccabb79b998
col35:   9da9aa79799ba8afc7e9dba9c9adbabaca89bcbaa7d97be9bb8abcc8dcce8aafdda797a9c984bbf8
col36:   ab99dda9a4abaccbb7b8d9ae6bdeadaa99a9da8aadebeec9d9edca8869b8b95bab7a6bba7ca8ad8a
col37:   7b9ab8b9ebb98a9eacce9bdeb6ade9bcccbadfaab8aabfbb8de9ccddbd9e8ab899ab99ccbab77f64
col38:   eeddecc8a7cc7cfdc8aad9b9adacc8d8b9ccddbcfaa8bbfe7bddeecbdbcb8d69e6bdab9aa6cbda96
col39:   83b8bbba9d8c6a9abcac9c9bcbcfabceb9bbcbcbffbbecfcbb8a5c7987ca8c9bb898ab68a8a58b9d
col40:   b8a8bbcfedafadb8a8b8acdb8ccbacbc9ddfbbbdca8dfdca9cb8bc87489bccb9ac979cada9ca6ba9
col41:   ac7bba9ce78d9aaafeab8adbbbc7bdbbadc8e85ddeec9df8ae8caca5aac65f5cbad87ccdbba8bb9c
col42:   bcccbca8bbb779ba9babad4fd7afbbc9fcfbebadaeddcac99cfdb7db8aa9aebfc987a99cb4a587c5
col43:   6bab6aad8bdecaaacaadfbbbdae8bdecabac96acbcbdcbdfeccaecc5e79aad799b9c9dcdafa9e9aa
col44:   8bab6b9d6bf8cccbde7da8acbfaf99db9ccd99adedadcba8fbae8fbeeed8dd8d7889b7ee9da69aa6
col45:   8a689abd778ba96a9dbd9d9ebabbcdfdaaaccdadb9feedccdb7dac99ec9bbb9b889ac5e649b8a798
col46:   8bac99bacdcc998e7999a6ebfd7cbbc8bccfedacaacd9aba7ebaaeaac8d7d5ad7b999bda999ab889
col47:   aa38d98b8b8ebb9bbccdabce8ddeab9cc9ceeedf8fdec8abb9dbaeb9c69afc8a9dea868ca69c8aa7
col48:   aaaa99bb98bdaaef8999e9c89d9d8dbe8bbaeaac9bc9ddccecbeaaba5bcbaace7ab9aa8aac58ba6c
col49:   cc889bbcd8aa7fbfac9c7afba8aafebbbace9dacfcaca9aaddaccad9cb8a888ec5a6bb9af7a9dbaa
col50:   cdaab9ac9f97cc9d69ca86bbaf8abfdbdf9bdc8ad9aabfabadaaa8cca9de9dc67abbdaccab89dbaa
col51:   968a9bc869878697f85a98a57cba99ba8aa98aa98bc9b8babaa27558b858a8a76c976989ad779a67
ROC:	 BPix_BmO_SEC2_LYR3_LDR5F_MOD3_ROC8
col00:   5616567886a759a8557855888b9786935777a5876489978565668738778777426765278755994455
col01:   857669478674caa86995bbba6a66a9b7a3d6acc9879b7a8b6c9bbb66679c79aa8595b9c9b66aa773
col02:   6888895777a399b7a4877c978c77a88aba54ba8bb8cc4978b6d6746c7a7599aa7a489a7995689555
col03:   6864559b66699b766987866c7a4bac99eb8a89eac86ab9888a676c9c89a9a6a77788b5946b878857
col04:   96566a8a65645958bac757868b94389a9b38aba965bc69b78b8b5bb4949a9a898979879968548c82
col05:   586785a6a7ba66683777b9878a999998868878a7995b55999c79a9a78c985b7655a7979996558715
col06:   db65836693788a7685dab8a88c99daa9ba66b768d7b97c88c8487b84b7ba67b769aa7b4464666755
col07:   374a8979d9796556689aa79aa88ceaabcba898b65ab86cac9b797a7aaa8987868a8869876b888668
col08:   68757594bb97b9ac577a69a869946b9b7a7ba7994bc7888488588879a9879985a55b6a67997a6864
col09:   588657756a6787849a765698977ce998c8bb5bcc791dc79a689aa7e77996c695768999ca97194866
col10:   8787567aa4984877a48799b7a999588ec99c999cc768a98aca998b8a738987744a896a78866a8a57
col11:   4888a8822b69777998898c98967ab999ac98b8988d98a7b9ccb69689899cbb858679b6a688a59488
col12:   668938589a7876d869b57c9d8a8a9678c3697b8a58da98b97b4c886aaa9798898c7699859aaa6774
col13:   7754a57769ab55e79bb89a7d77c59d5979bb5a997b889c38ba9788597797a766a765587b777868c7
col14:   787c7978888879977979bb86a87996779bfbbabcad88c7ba8998f997ba779a98ba777867a987a575
col15:   7aa785677a6c88aba788bbb75987a99578aa67a9ccc686ab57a88cabb854775339659a9ba9746155
col16:   57527676758a6975a656acc78998aa7ba8d8ba877b887bb9b9ab8bba99a7c7b6d7796797a96aa792
col17:   796784685c48689aa997c967a7b9b668997b8977978aab694c9c96beca66b95896749ab48566775a
col18:   65b4656a7896677994c69979968968a39d9768bba9a5a8ca889acb9c6447888878b9a6876b867564
col19:   8957468a7b778967c78a459988498969aaab979babda87a7798a69b8856aabba4a977a56898b979b
col20:   84365968978aa5a58b998ba7ab8c9e9bc88d9c986aaa9776da8898ba87aabb6a979b69aa78764766
col21:   62c667a8b787b6998778a688a9987a5abcb96c7c9b896998bca8795946e7a86b7c889a98b3656584
col22:   55589672458996a6a9a87b9c7a7aa988659b58bbad96777c5989888979b987b8658876a985676656
col23:   577674b69988a9a475579b8ba77e86b67888b36667964aa98578eaa98a8784896a9865248c678767
col24:   a65845873995a86978b89a99996a49989ab476a77a8a978896b699a9b99b989a9898775498984565
col25:   76a7b88a9986b9b4caac789b698a9a28fa7888aa987a89a898786c567978b9c6a79a68766b65b774
col26:   aa86cda8b8c98989879bbaafb9cb898ac9aa6a8a9bb9dd8cba98a789c9b98abb569698974ab99b95
col27:   85a829b5995b9a898d9b8bd8b7eb98ca7d9cacbabacaa9a9ddc76a878a88a789d7ca879a9875d86a
col28:   89a98cbaa96c686adad99b9bd9b8cdbfd9b8ba7cbaa9bb78dc8cba9d9ba8cbdbb986a97a7a59876a
col29:   4aa799bca8a77a9aa7ac9bcdb9baaadbb58b988abc58b8ce9b68898d6ba687bdba857cab8a829bd1
col30:   799a8986b69f7da9a6aaca5aa9bd7aa9c98c8dcacaacc9c7e9c6a7b7bc9a9b7aae969878aca8a8a5
col31:   bd9bd89cb4a9bb678cdbacbb5cccaabac78e6ed7988dbc95d99ddc98d7ebaa9bdc976a9ada8879d6
col32:   99aaa997c9baa788a68b98abdbb9bcbdbedbbad9bbd87abeac9b99b8bbcbdc9bdaca7a9993c7b688
col33:   9aaacde97b79bb8c899bbaac98cdabc9b5daaa9eccaa9aa98e9fbfaa98abdc5fb7699a665a7768a6
col34:   8babbda9d97ba9c7bacabca8bdcbe7e9ebabea9a79e8abce9ac89bda8cbc8a8bb9d9a589ba667899
col35:   7a49ca7dab5aacdea8da8a96cb9ddcbbddabcfe8c9bdcdb8bcecaad9bb79ab78c799ba9dd8ca8ca4
col36:   79abbacdccaaeabcae8979ceabc9e8abcebb9d8fdba9a8a6aaab7bcbddbc9baab9bb99987ac5aa89
col37:   9ac9cab8cad9a9bca99ccad89b8cbcaefdf8aaaccdba6bcca9fb4daec8ab99aacca899c8ac7a9c75
col38:   88baab8aaceb8bcca97dfab97cd7ddebbc8bccaa8dabeeee7bc99cd9cbaa998bca8b8acac8999cc5
col39:   6b58ccbc7d7aaa9dbbc9ad88889ab9acdebddbcb9abccafa98dbbaaac9c99bab99ba8c8ae876bab5
col40:   89c5ac8e86dcbda7b89ececd7ce999feb9ba9c99ce8ccabdeddaac8aedaae8c8b99d969aab8c7758
col41:   9976be6a9b98a9cbbf9fdab7bcd9dcbbbd8bccedb9bbcdcca7b9cfce6bd99fb66ab799a99a7cb798
col42:   7a9aaccdb7879ab9997acc7ab9e99ae8bdf8ca9caceea6c9ba99a8a7cdabba9a79a9bbaac9a9a98c
col43:   afdababbc6fbcbfadbbbccb7ecaabefdddf9eebbbeacecac8facfa8acddfdfbb8aaba9b9b8db9988
col44:   97ad9ab9adbcadabcabcb9cbdccabbdd9bbddbeefcbedda7ae9ec99cbdfced9da94abbe9b7cccc8b
col45:   9bb78e9bc7cc98bc8adc9d9bcc8bdcbd9b699febcbcabdbaaedda9a8eaaabddcaafa9a9bc8a7ab6d
col46:   7aabbfabb9999d89aa8c9cededaca5cabcf9bcbcecbceababaabcebbb89bba9caf688a8a7a997d7b
col47:   dcabea999aaaddbdc988abdaac9adcbebabadbdfefccbc8e6eacfffc9faba877fabc97abb9dd8c88
col48:   7a9c66794a7dc7cddd9aacaadbeadecbcabeeafddcabaacbadde69ccbecad9cbaaa9cceb974dbedc
col49:   bca79cdaa9aacbbcb6daefba9baaa9dbbdf9afdadcd9eccacaababacabc9baa7998aafa9c5e77a66
col50:   788caa8b8cb97a9adbebadadacbacde7dccedbbbbcbcbccceb8abb9daabcda8bf8cd9aa7abda9ab9
col51:   7a98995766b987b78aabc898ad6687a98d89c59988bcc9bbca9a99ca6acb9ae877895889b69889a8
ROC:	 BPix_BmO_SEC2_LYR3_LDR5F_MOD3_ROC9
col00:   b68746554a728536564b46c7778a7678bb75b7884ca654b48978584888da97a69955588484654458
col01:   789659a9b78e3a7c3aa9d99d867885a85aaba6bbdaaba7b2aa678aa899879a8d6aa9ac88fbc797c2
col02:   5448993928c685795a9847586c7a6a86aa7995aa9898b9caaa87c9d9e8af675b99c8a788a7739584
col03:   ab86634b65966788b46d9b84aa6addae758da6a78b6c6868bc9cac97d8b6a86aca3a79cb79b6684a
col04:   7a756a65768a86485d7a9996b898a8ca9779689daf7a49b7c88a6baaaab8ae89aaa88d8d88b67a76
col05:   378563759785954b878a8966b9c8aa99fb49a9bc87aa95b89b98978b8997999c873658a89ab884db
col06:   97977c5899759eac586c956b6a77a8ab8767da97babacb66c9adb69a6aa898a77a7dbb9b7688bba8
col07:   a8b64b7979b9a7b896499b79989c7bba9aadd8acbb8abbcdc77fc9998d8ded9c8c96b76c68da54bd
col08:   3a938766a71b67787a87bcb777877d8899ba7a8dac7adb7994ddb8c7a84ed95abbb77bb8885b79a7
col09:   63e96468b6b4cb86baa869abb9bd5ba8ccca98bbd8c8bedca9899cc8a9b7ab59896a8ba488b586b6
col10:   c677e67ba859a75aa4a76c6b8677699d97ca86a67c7b77cddab76bdb8966797bb89688736a848686
col11:   55a799a99a296aae97b697ae9c8b6dacb99bbcace8ca9cacc9a99d7aae888d69aa8a9b78589898a9
col12:   7847977979e38c8c7c9b697878a5486869aaba97c9a979ba9dcb889a87dc789a2b4ba74397b8bbac
col13:   93777b97899aa66cbaaa95aaa99accb79bc8a9a8c7aab979dba9a98dcb977a69bb68d8e76a956767
col14:   aa57267587b7cb75769986a867a7888a7cacc8db8ba3d4a9cc99b9ab8b9aa9dabdba798b66866c75
col15:   46aa59856545489aa684ac6c79e4bbacaa9acc9b9995ab99a97ababa7b9bbc978b776d669688b599
col16:   76a6584ad7869989688e67c697a8aec7a96a889b88cc8bcca9bb9a9daabea8be9aa97a9684986874
col17:   74785699aa7a9897567965a9786a9b7a96a8b967aac7abcd7a7ab5d7b88c9abac6899998b6b75968
col18:   58747a775abb9c89976987ac9999baac65997bababadab99b959cbcbaa237b769798677a33894762
col19:   769798c86987499a9977a957ce88988a9bc9887d5b99a798aca9ac66899bbab8c9cbc569b6877987
col20:   858a7578a8ccca87a97ca77afb6d8c9d9c89bb9cb97a8ea865a877a978a89a86a88596c7aa996784
col21:   a36893776d69987c9898b879bbc97a9a9b998ba8ba9b6aa98a978c6867cb8b9c9bc8c6e89a98abb7
col22:   69486b859668b87a929789eb599cb769bcaaa9a8db99dada959b89795a7c8d795a9668798a9733a5
col23:   57739589a77878b98acabbf9786c85d7b99a5bfaa68788978bb99cb85a8d979b8977c764987875a7
col24:   394518544974879a858598b56c7bbacc68b6ab9cb7c8da88c89ea8ca887ac8c97776ab67a68b6b64
col25:   ab9c8b79886c4cac8d6f99ca86786dccc9fc79adcb8cdabcb8aa7da9acbb6aa9bf889887aa766977
col26:   69497aa97a4caadc89a78ca8c9779b99da8bd9cdd6ce6cca6cc7ccabbcdc8ac9ad99a79d7ac975ab
col27:   ac797988a7a6bc8a98abbca86b9cbb8bc8bccd7c97edb8bb9a87999bfba9977798bb8bbcbac67688
col28:   cc69b9a9e6955aee8aaec679bb6ee8adabfc8dbbcbb7b9e89add8b8dcdb7badac7c6da59bad7aaab
col29:   896cac89b79ac689cdded9e9dbcabebdad89edbafbcbbaf9abcbf8aba7dbc9eca89bdcb5deb8bb96
col30:   889bd98399d8cbabeac888ca7baca9c9ceabc9bafbc9e998bbbbdbaaacaec8dcb99bbe9999a9caa7
col31:   ab967cd7bb8ebfbcafdcb8bdceabfdbbcc9ceaabeeddfbd9ebbac7acbddeedb8a9c88c88d79a999d
col32:   aa9bca7ebdcbbac7bceafdc8dc7c9beacbdebbe9f8cea9ddf9b8efcbad7fcbdadda97ccaa9e9a9a9
col33:   99baa8ae9b7aecad9abf9dcbbaadc7d8cbcef8dfffdb9bfdf9caabaceaab39fc88aab6bc8ca6bbdb
col34:   a9a6ac9ac98adbabcfd9c9f98d99cebcccec8edddcbe9d7ed9dbb9fedacaa89caf8baae9ac8da9ca
col35:   db97aca59dbe9cced9bbdb8db99a5bbd8a7ac8bb9def9eaecadfccbbfad8fbfebdc7fbcace9c9b7b
col36:   b899a6bbcabc89a9a8a9bcabcff9acdaccfdefbfbeae8b8bed9f8dbbbccbb9c98ecceb4dd79caa7a
col37:   b7a89daaeb9bb8bacbedbdccccdbbdcccd8dbafb9da8cddbaeadfeaf9f9cacddc98aaadbbaad7f8c
col38:   ada8accb9ccbbfc9a9b7bedceebebdecdfc88efdbdaeebcdadaaebcaefadbdbabfddbcacebadaea8
col39:   9ad7cddaa9caf99d7bceadfbedbcefbafecfdbbfaff89edfedeecafc9eceafadbdaa8cab9cab84cb
col40:   8d9ab9ac6b8e9bbbbdbdcd9fed8cfdacedbecdbebd6bbfeecfdec9acfbde6bbbebcb9dab7cafa9c9
col41:   8bbbcabf9c3ed95bccb8bcd9fba7df79c8cfbebceeeefbd8ebe99decde8bbdbbabb6bd9a9cb79dc9
col42:   9aa9babaccdad9aecfdba9cbc8cfffccdfc8aaedbceaedbcafbfeebeebacb9eadbc96b9c8a9ce9a8
col43:   8f8abb88cdaad979eee7aeeefdcefccebee9ef8deac9fdefecfbdadfbdad9cdffa8bddbbbbcc9ced
col44:   acdd8aaa8debce7caa8bfebb9cb8dcdbffbdefeeefe9fdd9dcdbedeeefeabbf8f9bdceb9cfddbc9a
col45:   7d997aaa9bbcdabcdfdb9f9beb9ddedfacacfec8dbadcbf7dfebaecfeadafceccbb9adbf977c9c9d
col46:   f9bcdbb79c9aca9adccbb9d9cacedfccabcfbe7bbedcbddccffbdbbdababcbbbe9dd9abba8edf8ca
col47:   baafbabcdbe88bbcfcbbfbbebdfeeccbccfcfaccfecadcceecbcebdffbbceefaaeeffff9bea8eaa4
col48:   a8ba99eddb5bbca98fddbacf9feffd9fbfdcaecce7fcadeeebacf9dedbcee7dcbdd8ecdc9cc9bdfc
col49:   ad8fcb8bd95f8ddf8dcdcbffa6af88ff6adfcce9efcdddfaedbe9dff9cba9ecfdbdd6acdcca8bbda
col50:   a8aaba9befb8accd9dcbd78dcddbecbacfedeea6cdcdbbedddebefbebdcbbfbbd8fbcbefc9acad99
col51:   6a9b6bb59958968b99c99adbaee98a978d8e99addda9ad879bcca9baea99d986c99ab778c7489974
ROC:	 BPix_BmO_SEC2_LYR3_LDR5F_MOD3_ROC10
col00:   385777378782586486479a7547545837987777997579863544789746648767422575655635763844
col01:   76688bc57b698645896674baa8777a95a9a7877a7a876c986895764b8869a7c9174a145954358445
col02:   9975488665699647a58577576a7689b7666566857899695676667668a79485566768783669736346
col03:   75875886554689458a6778998a7a6774c7aa77787a699966495683778648967864a67538468a43a4
col04:   889737b5927a9a48b7897a9887ba5a8857968a97758a845a85968656688563549946635a27575725
col05:   96757467a68aa8a898876957a8676d776898769739aa5666877686968776654b4565555564334636
col06:   4686486499548968b78bc89676789aa9788897a68455779a33677668959884268767666566665346
col07:   874994cba9997b99a77aa996679da8988999978ba7668bb9b67988a7a9179ab99884775997797742
col08:   ab87c58757988a79779986a87666798a974b957d86868786467acb7a978a86a76797965366714844
col09:   5998a3b885979a9769b8c79a8767697ba87977697689c689849b5654a9784ab56886746755778767
col10:   486a586586967978a78776ca67496a8876b79a9874357689836887767a867b86b657888567465256
col11:   6879787876a8a8abc7a79a879ba68a85a9889a6778964b8a96685b78a877677847455477a7775629
col12:   66886884999a6189894886b86ba9777c6aa5789567889c886a699584768675437958638a86775437
col13:   678893a98c797597a89b76e889996896983787b58a8a77b6678b75777676658a5676464584657355
col14:   ab99858a869579a689a5889679aa88999b79987587aa87ca3895955998798c866978868557863575
col15:   6969a9575a88a6798a4b9798996c97889877a8696a75a6678c87a847644775799397966787835854
col16:   769979677888994a87a9598ab6765b88977979668a4a56a6b9a66789989896476b58559965676865
col17:   95da887574763758869598897979a86699878959a6886968756897997839a768176c999266944745
col18:   788888775a848997a96a96a799aa77969b6b8866a9a7aa6674967984597569366728576755661277
col19:   7a7c765866597986778aba8889ab97a95c75798a7b8998798a9899683a774694679367363a894776
col20:   888d4589b9878864ac8a5aa897868c7a9c8678b8c77a386587b5a9b7a97687588265857489484346
col21:   89a7a86a6b9a8775988a6779b79978bbd8896765bb6b65baa9aa6986a8bb78c8688a38c589658522
col22:   97987b8a865a699799b88a99b9a67a7d9aabcaa9a7b7989ba9758957978698969466449788789525
col23:   3989ca8778965a975987a75969988b9b86899799799a876a836b75a8885859547a8578677984c765
col24:   888867979966397886798c76947c597976a799b9887a4855876b986366a9679a599a762354177267
col25:   87579a7786cb57a8667978789967b75aba8a77d95b9968869969aa79ba99864cb9887549a7855979
col26:   aaca9caa9c877d5a8caada8b99a6bcaa99ac9b9bc99aab898a9a8499abd7a6995ca76b7a68678968
col27:   a9a9b7baab79989c8f9ad9d99e8bc6b9976b9a8abb8b9aaa9aacea998ac996a684676a9959a88898
col28:   aa7a9896ab5bb9ca9c99acbb9cc9879a798c79cf9bb6a7c9c9767bcb97a88ab8e5ac596beab956a6
col29:   98699a6bcac8aaa9c9b7ab9bc98aaaa9a99b9bed79ab7aacb876996b79b4697a987ab9a78a97aa54
col30:   5a9aa9da85488997a8898cc9aa9aa9eadccb8c7bcdac77abb698a86c9cb98a7a9ac9b6b98ba89656
col31:   abbbc9be99aab9abb9be9e9cabab69b9adbbc99bdccba89bbbabdabbba9cccb8ab99c599a6ac87a8
col32:   896ac9caa9ba7aaaa79b8bbb8e6a9abfb99bbab9a89ccbbba77baab8ccadadb89d95d8a886d9c899
col33:   adaaa9dc9e86cadb9ba9a9bcaaca8a9bbdaab9b9cc98a9c9cbc9778898bbcb8b9b96c79a8985b796
col34:   bdb99b9bc8abab98c9aaabcbc999a98cbacdabcaa9bcaa89c9eabd88c67b8a987b4978c7a7797aaa
col35:   bad9ab7a8a888babdacacaf9d8eb9bbccb8ca9abc899cbccbbd9aac87baa9b8b78a66a7998579968
col36:   bc99bba97bca8bb8c9ba9dcbcccaca9bfabcbecbabe7a9bb9babc9bacb7a8cba89887e88a9a9c876
col37:   da89abaa97ce978a7cabaad8eb9bbbcddbcabb9cbcba8dfcbb9c998cba9c99a9a9896ca9b9a79bb8
col38:   bbabadcc8aa9daebf8baa8ccbbbc9d99bd8deebec8bb99cab9badacbabee79bac9e9b87cbb9c3b8c
col39:   c9c9adcdacdd9ddab8c8cebb8c9bdceccaba8af8bb8bbabc9b7cc79ddadac979b7cb9ab86cf978c7
col40:   de89dc87abab8acacbdddccd9abcf9abac8adbca9bdebdbb9bbeab9ccbb8aba8a9b9968aaa9ba97a
col41:   ccadabaabcbbaad99badae8acacaec888b9ddc998bcdabbbbfcb7cdcecbabdb9aa9dcf97789a8989
col42:   68dafbdba97c76dabbc9aacbcd7b8cabcc8ac9daab9dcacabad89aac7da9ad8a9a9998cb98878a57
col43:   bcaabcdacb9bccabdfdecd9cccacbbdbdabcbaaa9dafcce7ebbbddabdacd9abc9b8a8caba99cab9a
col44:   caacd9c99a9cabebcaabcb9cedaea8abac8d8bdcddddd9acdbe9cc8cae7aa9cac79bdac89bb976a8
col45:   cd9bcaa79bcbeeabd9c87dcebbecbbcccbbcbcccdeddecb9c79988ecbacdd8caa7cb8a898daa9497
col46:   7cbdaadbcadbfcbcaabfceb9fdd7acdbebbe9a6baacbcfa9eeadbd9ca8ac8b7aa8a9aa99a979699a
col47:   cbcdb8cba5bd99babdfa9a8bcf9ab9cdcda9b9cabcbbdacba97dbcaccb9cccfaaaaabc98a8aaba86
col48:   9a9feab8a8bdbc9c9cccebbbcbdbccdabbadbed9cbb9be99ab9bc9cbddabb8c9b8babbbb7aa9ebbb
col49:   fc9cbbcaabdab9dccbb7aeacbabde99adccbbdbcbebeac9eeaceac7fbbcdaaabe8bbaa9badbbbba8
col50:   ac9cbebdbdaacbabf7cbdaca7abaaaacbbdbda9dabddfcb8ccbcaaacebaab9bccc6aaabda9a99bbc
col51:   99b78bdbabaa9c7a97aa89dbabbcba99bb5bda99aca8c8ca8c8a9a889aec9ad8cb788c8ba9ab66d6
ROC:	 BPix_BmO_SEC2_LYR3_LDR5F_MOD3_ROC11
col00:   1346799341264818a871c6789688a769575c8db6785ba76a899a897b6aba899657688d6559769714
col01:   9a89b78a67436a6486b7bb6b84b9ccf89dadec77cddc9ca9866c698bbc8c8a994cb66db6b9a69cd8
col02:   7c56a6c9263ac6785a977d87888a6a77ba84cb98c5e9b59cb7bcccb9e67b77aaf59db7d87867686a
col03:   9b98a65664777779ab8c8344776d89aba9b8bcfb66ab33a59ac999bcd8adcc69bb9ba7db978af676
col04:   87779661588717658599722abe9d8f88aa8a97caa74dcbd88a5ac8a7dc57afba67abc7ab885e5963
col05:   94567957c51a8b18656c5398878b6a6769cb98e95ab96eaacbd7f677d6bdade6ae9cb798f974daa9
col06:   48a645a6182aa57a9f255bbb668ab9eaab7ebec9b9ab7ab658d6ed7ca55da97c798a5999b8ab59e8
col07:   9853686617987a98d7815886c67a8c8a85a8f76c7aa588cbdbaa98bab899a8a88ea9abacbbaad997
col08:   8966488877898a97487b8ac898497caa7778fdcbca9cb6a88b578c59a8dc6b66877a86594b997df6
col09:   6c37c3b78776b55a287a77bc6fb6b98a95997679ea89cafae9a8a65aab9a8b5fc8a985d9885b859b
col10:   7887915446797548969682596f5582ba89cacca7da7bad7986aab88afa98f677aa6868cbb97bb7c8
col11:   949aa6c77663969967b6566c8a86cba66bba796cadb6989a8bdd7e8cb9e9af9ec9666c9abd88ac99
col12:   a6984b31a365656b597c568879a853cc97a9d699d9cc6b83dd8a78ca76789b8ea8bc9886bab88dc8
col13:   4569747887747aa785a79b99ca9a79b9598b97cbde99aafbb99acccc89aaadae7556ea9ab937aaa5
col14:   89649a16848b96464798997a58747796cecda8e4a9b77b96aa9dac89a6ac97b55c77c8a7e5b7a899
col15:   995b81681a35377539978767a964a96ab79798db6795abbb9d73a895ba85aabc986fa6b969958b89
col16:   255a5534ac67285798868689b6a7bb858a9ac9798d77a9b9c37a8ca7afc8889b989d8687a6a5a294
col17:   988ad8a18ba556678b8bb66658bbbc67579fa5b7c8587aa8cb9c96eac79c9ac6d7b89b8696889894
col18:   69763776565386438974937a5b61998d9a95a9989a6a5959ae766568ba97798b6a7a6c5a8a86ac34
col19:   a7537898686a7a54879c7a899486ba8579797dbb9c979b9b7778badb89aa8a59ab6d87aa7cba889d
col20:   b6369554695663678887a466784497ba7ea88be56d54c79a988b5888897596498a8cb895cca783b7
col21:   caa484558a8989a38a7696b7a69bc5b9a898acb9c9af99c8f769a6c6bc9aa78b9ecb5ce79b6aa923
col22:   7878829496867b782787586b37ba999776797779b68dbae946acacdbb69da9a769a9c8767a5a788a
col23:   3922147655985435578687768c787ba86b6567988575a9f7dcabc978aa98b9597caa6b9baa45b967
col24:   47687667594a714577988819956bb4978aa97a7cbaaa9b9799548aa499ccdc9acaa49b9688958586
col25:   b8279797153598c974956ab86747b398b76798ab5a799eaa8a9ccb7985a88d8b6e99d8e79879a798
col26:   97654a87ab879936568a9a68af8d59abcca79978db5b9cacdbc9bcfd9ccabe8dcb99cead88ab4ab7
col27:   c559b696976758953aa79ca68b7f8376777ae6cc969c976b7fe99cd99b9cb6baabb848ba8c737786
col28:   398a887988aa966cc965a6b6addc57cc6cba8cddcddcb4c8baefb6cc8888df97fc6ad9cef9698892
col29:   8774d897c9bcba9998ca79aabe9c895ab9df589cabaa9bbdadf9edceccaeb9cabd9c8afda9d8c87d
col30:   76a7d7796a599c899eabb74b697a967cbaceaaa9da98aacb9b8cabdce8adbaabce7e86b8758b6897
col31:   75957848ba6bc7c6f99c99879bccbfdcfbba7b97cdda9d9aae79c9af79ffdabd8a87bef8aa99aac8
col32:   a577fa85c99cc6ac8a8abacbb959bcbaadbfa98bcbd7dfcc9abbaa8bbabaabdce49bbaaa68cd6799
col33:   c576d818c4c85ccbb99a99a7797aad99688e7a79be8befaadb9daef76bf9c9a8be8bd7c9bcbbdb8a
col34:   68b998d8a4a6bdd574a879bb69b9bd8a989dacecc9fbb6ccc8ffeabac9beec96dcaabba8dabb87bc
col35:   78b949b79c9997ba88e7d8bebc8ad978d9c9dfd9ddf9ca99ae9cad9b8f8b4bbdc7abecbbab96dcaa
col36:   b69a8b8c786898b76a4eba7bc8fa8bbbcabefaaceea7ba7cecbcafbc5fcca8a8ccca8bbda977e9cb
col37:   767da698d68da6dba64afa79a76aaaef9bbfa8ea8b9cbcaabbdeefcdf9daaebfcbb79b8bda79aa2a
col38:   496766a89aa87bda9ba77d97ac96aadfafbee99cadabbddcbedbfcddafbd7bebefb9feb994abd9d8
col39:   9968a28acb8bab969badc86999bb8896e89a9ab8cd7cffacce79beec9c98ebf9b8ddb89aaa65bab6
col40:   9a9abb8a8a99997cd99ab9a88acbafaccc6ccabb9faea966aeaebded8facc8d959eadba898eabb97
col41:   896a99869eb6b977d9c8b64a8cb6dcbcf7dbebb6cfabebedee9dacdacbbfaabba7bfbbc9dadbdcc6
col42:   997a79bbba96b9659aae899ddb97bb97bb57f8c7ef9cf7eab7e9789eceef8eca9789a9abfb7bb8c5
col43:   4997ac77a95b94aaaa9656aab98cbdd8cda7dbfe8ffc998acdcbedcbdec3fdb889f8afcbd9daaebc
col44:   98657a9acb6a7f8cae8bad68f9aabcacbffeb8eaccaccc8ab8ebbdedb88bfddabca9bc98bcfcd789
col45:   8896ad7a9c87b698679ad999cf9aabddaeeaadf9cd8ac4a7a9ddbb7b8b99faccdbda7dc9acccac6f
col46:   578559b95b5babb9a9d588b89abaff9bb79dcd9ad8ae9bac9e998c9cf7d9eacbadd8caca957c66ec
col47:   5bbca894bdb566aab9bc88e69bdce8ff8aecbfcb8adcecfdcffda3cbaedaa88ccdccaffacbbaabcb
col48:   fa889adc78a9b957d9a7bbbb9ff898d8ed9dc5bbdda9ddbc949fe9efbbcbfcad6bbafeec6495ecb9
col49:   69d598999a56789a9daac6eac9cebd79ee5dacbdcfc9be9aaafefb8ada8cbdc9abeccd98dcf87cac
col50:   c4a85afd9a55778e6b99ace9afabcbb88dd89f8bcfdfcfcbcffeffeed9ba9daca9bdac8cfc69b96b
col51:   1b987c8766477c59b59d7989d576a7a48b38c8848bbad5c9ad7a8bbaa96ebacaa78a8af9885be694
ROC:	 BPix_BmO_SEC2_LYR3_LDR5F_MOD3_ROC12
col00:   3553472555357254647129567944664184547673867789a7369a445569597655a644763675687577
col01:   77bb888ba681655884876895a598b988866578977d8889b8a9c8789ad77c89378d7888699768593a
col02:   276785578576763a49878a27989b6797a8897545b658c8867d6753988695998aabc9685989798876
col03:   1727169b3874768d6a79948897a588884a99aa8b8775899a7a9983ca9699689797866696d67679a8
col04:   5633457764546a77a481778c3188699b4857a8b8958688a869c8978c7a755787879a897757365781
col05:   677aa778467477ba47679a8786494577588ca8a597368679a759bc74594a8b896685996699593986
col06:   9739667b773575787875a9685867a7978869a8a88958b7a5878a457a48a68864957854a649698685
col07:   7653666558ba6246796aaa566bbdc79a9a467a7b9c7ba787686c8558997b9d9b66b938b95a9b799a
col08:   876259656959629572794b758a5b468a8989878787755ab9496a87b667898989c9a77b9847686ca4
col09:   76926a79a5b1a567a6387978688859786b698869b688aa9d56a788959416988b99a575487839b536
col10:   26658579828a68679a4668884a66aa47993c24a9377799585b986686a9c7986b6889a86776695797
col11:   365563953457b7541763888867a78758887b8799ab499895a85b979b68bc7966699979d686694556
col12:   885763766a2966659784a887caa946896a8a8a98b7627877cc9436bb995bba895a8a676889974958
col13:   66857745876767a85a57889599858aa79996a6cac979878967789c9c88a79b758b89ba8aa78946b4
col14:   7687456655387a75a88b66968869a8ca6ab7a76abb99aab47d6b9d97b68a8a8879b7979749b979b8
col15:   335578878969598a4b79b44a58ca897b96488aaa7ac7569a9d754866b78837593987b67a68696a44
col16:   8677468583888778a76b6768987a9997b78ac84664868c7a7657989a8678b7379584b866977bb499
col17:   4552a7965685a766878b97a6453ab875b56b889a588678a66caa576757897977b4946ca477679554
col18:   832486b654683689876a9d8a897d7b8e789c5aa69a467897558c9889385b9cc849585a748877b966
col19:   977949699897874389eaa68d6a487dc8b8b67b96aaa9b7688b698899c86a98986997a78776692754
col20:   986636384683666778979585763579a78bc95db76a8a8a65879c88a996a87996776b6946b84569c9
col21:   66954877998a77a7775558685967756699b68a8a95a6a788a9aa8cb8ca96887797b78888738577b4
col22:   4a77866597766b66576a88698589baacb757858687898c88759a7986b998ab8b9897997987678356
col23:   684758856868566a77779668a7c5a57798898abba9799abb6aaa599596c97c8787477a3a78a586a8
col24:   95a5899988b757885a599438864878ac8783a559869b9a7b785aba376da7765a77aa8caa398a4996
col25:   6a86597967777a7867a79ababb89988c78c8b2a9a979898a7698a8787b68969a9c658c7687479c66
col26:   897799a7977a989aaaa6998ab9bae9999898cc8b6b99c687689bbaaa9b6baac9db7aba759b48caa8
col27:   868b9859b58ab9867887687c8aba7c8ab98d97a8d8acb8cd98bbbaa888bd9aa8ba8a488a7a768884
col28:   78664b97a999896b9b7c948b9b697a59ba4999cd7797a9b98a8cbbca9bd9b9baaa8bab59bcca9999
col29:   88b89b97a876adaa7a897777abbd6e8c8a6bcaac9ed98aeada87cd4caadbcd799c6789cbf887b977
col30:   879788968886968a898aa6bacb8a7caabc999daa888cc977a6bbda66989bb9cbb998778a868cb7a9
col31:   79aa795899a8cc9a9ab8b9b9b898a999caab8bc89ce6caaa9b99c9baab98d88bbcc99a9a9be7657a
col32:   79688a96c8697796aa8b9bbaabcc8aa7b88d5cf9b9aabbcc5a8dc9a9ab7b7b8ba7ac9accbaa95a55
col33:   978b8c84d7cdab6ad7c97879dca97bbbcddb9bdbbb6b9bdcb79c99a6ab8a8daab69a8867dbab85ab
col34:   eb8bc8bab8cc7a787bcbbb7ad7dc669cb6cfb9a9bbeb6aceeb98b99b7aa88a8abaab985caa98a9a9
col35:   fbadacabba76b97c78ba5acb899abaa8aca8aa8cbce99aba8d8ec84e8bcba8e978baa9b9a8e7dac7
col36:   8cb9a888aba9cb9b889d6fcdb7acdf98bb7ba9a7bbdbbcac8ca89dacbcbcaca897bd96b8898829c7
col37:   bb898abcaa6799e7b98ba9689bbaadacdaaaccbcb9cefeed9aca9edbab86b9bbc99baa95ada998a5
col38:   bb58a9a8eaa87b9babbba9ca89bfcabdcbcbdc9a99bc9ae8dae79a7fcaa9cadaa57bbb97a98a5b79
col39:   6aaaaabc8b9568c88ba7ccbb767abdba99baaadbabb4ccfe69a8bdc98ca99da8b8aaa99a6585c962
col40:   5c87ccc96aabab9aa99aacdb7bbacdbcc98e99fd7ba99dbafaccd889acd8bd9bd8a8c6cebb699ba8
col41:   a99d7caa96a88acbcab8b99db9aaed7efabbcbabbc9cacbacce9ebbbca7bcbbbc98ca9ccb6d9aae8
col42:   abba8f98eaaca8edb8efba899ae9e9baa6bd8cae9a7a8c8ebedcdbbcdc98bca9bbebba86c6c895a9
col43:   89abbb9899aa88fabefaddbcbfec9cafcadac8bbeb9b99beeebec7ecdfcca86b9db9abd8abab8cb9
col44:   d9caad97aab99baba8d99efcdcb9daab6b9cbbcbbccdccaeacade98dcaefb9cdb9b99a9daa99cbb8
col45:   fa99aab8bc7ab98cbbad7aecbbfab6a97be8cbddfd9caddcacaccddd69edf97bcdabbad68dac9c5b
col46:   d8b89b989fb79cba9bbbac9a7ebae8aa8abbf9aa9a9fcbeabcf9a9bc7c9999b8cdb8b8ccd79b8979
col47:   8dba9a9bbbbc9c9bb9bbbdcc7aac9ccdbaaadb8cb8dbccafbc9bebaebccbadecc8bdb899babd59d5
col48:   eebaabdcbbcbd6e9acbdebd99dba9c8eabcabbcb9fbb7998adab9c9a9fe8b9a67ca9cada66bd789c
col49:   cedccebc96fb8dcabbaebcdbafbc9dbbfbaecabffb98becbcac9a9c7abcb9c9cb9aac9979b8b8aa8
col50:   7bfcca9ca8ba98c9baba89aecd8cbcaecabbbd9abb9cbcb8adcca8edad9aadafa7ca8c788899daac
col51:   c59a4a9988a8b65989c9a96bc7b7caa9b6978bc78b96bb89a98bac99a66c5b87aa9aa897897ac6a4
ROC:	 BPix_BmO_SEC2_LYR3_LDR5F_MOD3_ROC13
col00:   2314664862694152396216744461474567465264a185889147a465466374796a5592a65957574953
col01:   9597768619816a666669743766964b948641667ab6a78a59764977b7c96587369577988a6aa6a697
col02:   98413678983384936634948546786859566c755886428965579796295a9958847a655ba68758a875
col03:   451932666367a4176347c44477699479b986c6678955b897877aaaeb8577b987f848caaab657867a
col04:   45484746432617667666555869563499a868aaaa87378a8997aac78aba5d34458875b87676786598
col05:   52567a56551298526745648a6685a66894869b97689d94569a9a766aa8a6ab69b86573957ba68365
col06:   765435156b5868453486b7a3574657898a666687a86389888699786b879396769555a69b4863c989
col07:   6496515b776575646488588487275c8889a99757a8a9b7d9957ba94798a984679a7a887676767996
col08:   6721435741559488966855678557a649789a875b778767ab588979bbaaaa6786997f7b77a9bb4564
col09:   44436887486729689596c565988a84b49a97b4884f989cba778a958a997a4aa78896a64c88698596
col10:   517955558335454b5666b8776556a8aa6d8a54ba7b4bba49b9a8885bc8c6a68bbda9697998644958
col11:   56b427868929677355c53a676a866997899869c68c9777a7488a64c88bd83a76895b764669987684
col12:   7546194657643879966569a9586c95558657684ab98cb78b86a467788398ba7785a5589b8aa666b8
col13:   562546465154a7968aaa968b999a96b5969c78789b6678777b68b66a7bad8b7758995b59a9676988
col14:   57564533368178653858b65a5c99b889db5466a598de7d88ca8a798b977776a6aaaa9a4a983a6947
col15:   855ba776796664788477673c887a77ca6675caa7756c78aaa84b88979ba86677999b8cb1a7786788
col16:   213844968566649888878686659a76777b8c85ad96878a98bca3a987a9969a7a9b5a785b99c64998
col17:   58194772797988585785795c445a56788a96cb6677989cb685897956599a6c68779738a779876b79
col18:   545155635723386364465a65848aa9659d7777389a7c8978c8c98968aaa5d8685966a7e57a939762
col19:   75797415b5375799896939998bc7aba716399bbb9888b47c6a7c396d67a98da879a77a98cb4a8a79
col20:   66849476846a42585a7c776b77989858a99c59c97978a6b859e8994ba6787b77266488a5648888a4
col21:   2254327758865843c676abbb28a8476ca68a897979698796c4c987c779997899aa73998945986796
col22:   596569663565c825859979a5a8777977898b9879d79ae98999b89c78a999985bb7892aa86876a476
col23:   27155646448796859286c6987a5796b67b9b9696adb6caa78798aab84b968aa68476949673788876
col24:   685665415a66886637724d8a6a77b68958966794b97478997bcda78ab58b7a779d79bb7865365b67
col25:   6478788752667ac77a378b78b6ab868998756aaf8a8c8caccaba8a97a87967b888685acd67679779
col26:   958827679c6baa67898a99b68a7889b78b99bac78b99bdc9dccce9ed9c99bc9b98aa79a8d968ba87
col27:   78777377462668a3a9b77a998985aaea9aa56b9bae6899cdda9fc7e88c978ca6968998ccda949ad8
col28:   8a6a686968b75c876b5c77aaabad7bc8e88e89bd9aa8fc8fabab7fca89aac9a8797abaae98ba93c9
col29:   b4688d6a8e57689b7c8bba9be789adda9da8669799d9c8caeba7ababaaea9aa897a798c99aa9a6d6
col30:   27969a836597a868eaaa477bbd66cbdab8abe8eb7b7789aba8b5dad9cb7ccd9bc6aab76cc8aa9b89
col31:   a88977e665a6978a88ca9b8bc799a8bdedb9db6effdbdbbf99babccbecc9a96bdea8bbc79aabc997
col32:   8d559b899668cabb688d78bbbccba9abdb9cbcacbf7ccedda99cacbcbd5bccbadcdc8968868ebc76
col33:   88a858a77a66998a6aa78b9bba8adcbcac8a8c9d7bfbfca9c97a89cbab9ecd9aa89ccada998aca98
col34:   6997bb96a9aca9c99cbc7ba6c69abeaaabbcbd9c9badbebaabacaeb8db9daaaaccbbadc99e8deaa9
col35:   96b78b7b7a8c7ba767ca76f9bc6a9eac88faeaebd9998e8adacdc9dddbbcd9ea79ecada9aca89de9
col36:   9cba99d5a87ca9da89b969ecaabaa39ccf9babdcebbadbdbbcb9bcdeacecce89ea7cbdba9acccabb
col37:   ba734878b82889bc9fa9a9d7b89fa99aaabba9abcaebcacbdf9cdc8f9cebbcadbad79bdcbb6ebce6
col38:   7ba9688aaba84b9a78adb98b6db9d9eaabba9dca8aafdbad7beecd7cbd9ededaab9c8b5ababbca97
col39:   499777a99badcbda4ba99bcccbcbcfbf9bbccbcab8cbcc9dc8c9cb8bac9abdada9789f9e8dcbabe8
col40:   6a387bb8a8879a5edb76b8babdbbcfbe8e9cb9a8dedfcfdbab9ccbbfdafbd7add9ba8adc9b789dd7
col41:   7aa8ca586d5c8abaa8b9ceb6abd8baadccc96ccdd8eaac9ffb8cceeebbaafefbc8cfbcbd9abec998
col42:   854d7a65bb99ada779ba9ab99ba8db8bceab8cb99edcd999aded9fcffe6eeacae979cba7c9beccad
col43:   577c9caa88a6abea9eabe978d9cd8fcdb9affbcbcced8fbbccaeecfbbcfecdb6bdccfcdc7cdfc9ae
col44:   77ab745a99a87b9aa9e9c9bcedadab9aca8ff9dfbeb9bdbaff9dcccfdec9dddf8d9acb8cadccdc87
col45:   79a67878acb5cababa877ba899cad9bbbdc998ccbcfbbddebcdfcedcdefececddfadc97dc999bbab
col46:   bbb78aa988c8bccc88abef99aadaf86aca9bbdd9ec9ecd9fcadf5bddbeccefccdbcc9b7ccdcec9ab
col47:   67b9b898c98998c589bbcd9eca8acac9db8daad9bfffeabdbecdcaddec9fbdadededccbcdbaedac9
col48:   67b98ccdabdaec9acecbb9fdbfabcdcc99dcdbcccaef89eaadcedcddfedeaeca7afebc78ae8bc9cd
col49:   a77b77a9ae69c8abab9cc899acccebaaceac7ccededd9adaadeb9bfeeaaeebceaaacbcbbba9fdd97
col50:   98cfaa7abaaf7cf7aa55cdd7ae9b9ce9fccea9cebfbface99cdf9daccdedfbbcaecac8d5c9cad9bd
col51:   7b8a47678747989a678b9c994969ab7bcbca8bdc8b6a7b999979cdcacdace9bc9a8ab6889cc9c996
ROC:	 BPix_BmO_SEC2_LYR3_LDR5F_MOD3_ROC14
col00:   83671996b6d477787a7899863876b6486b54597798ab86c9b7a8976795a3968a878646894b9554b6
col01:   6978b968a4a564599bb38b8ea94a39aaa8977595dea5bbf6aa98895cdbc99ba99b9859a79998a727
col02:   e59759967b1a585857bac79aeadb396989ccc5caecb679abd8cab659adb98b8b5b5a579b94555945
col03:   9899588a529aa86885878b89699798db7a6cd5cb7aba84998a9a975a8796b598b897a64777976597
col04:   69776b653bcaa7bb8ab7ba5945679bcb9779877b656998dbdcab8b5b8ab8789595461a9a68aa6844
col05:   756d7647cab489788b88778979a8a75b8c67b48cbf887bc8979c8999a898b9a55a996ba7878aa88b
col06:   7668577b789938788c89989cd5a8cb8aab8f9a5cabebcec889a688c7ab7b96ba9a698c7777467668
col07:   68655567989688b7b97b5786cbec7addccbeee679a9b97bfb788d4abab6b9479ba887ba85894cc76
col08:   d8197a69797b6758b6f9c9467b97b5cca7bb9969bb7c5988bdaa868669ab9a988b7d988a97a78867
col09:   5cb9b6989754776b9b5998d97d9a96ed8ca7c6a6bb3ccba8bafada6a8ba9dc97b797a979a7998bb6
col10:   8658697b7baaa798947948a8a8aac9cc7686b7659a9acb9a929c8a8aafbe69768897a7857659a577
col11:   7a97c85899ba7888a85888597aa7b8b468c8997a9e7a7a8c8a75ba7a968bcb675c9d288976567778
col12:   c5637bb775aa3bca397ac78a859c8b7b8bcb8ab776477d7779967b6abd5cb6379a7c87847a875667
col13:   a7877b6a73963b7898a899bd3ff9c7bb9ca87cc8d8cdc698cc9a78ace6baad54a754879a8ab4455a
col14:   99a5989868aa7996af8d8dd8a9a8eabcb98858dbba8ba99e9a68cba9bbb9968dc716797b4b279866
col15:   6d986b7aa767879bb53979a9867e656996aaed89a9468a7b98e39544aab7b877a3ba79399a749673
col16:   bb76896c6a5aa99bb84ca6da9769c8a59aa9ab98ad9b8b799bc7667c7a79998ac7867977429c96db
col17:   7c4b8773ca6684ab9976a9b68eb99db85885a8d7ac994ccbb7a79d89ea899d98949a9a998a755798
col18:   b9757a585c8dea9988ef88cd995ab888ab9cba978cab8a8c39cafb96b74ab48d7a6a8b873567b496
col19:   4766a8987a9d99b6ab9ca9675887684a6aec789bb8c8cbba99ac9799b8aac5b998b5868a9b785aa4
col20:   5a49db5de9878584c89ac39c996a99baabcbb997e9aa88a8a884997ac8d9dbbaa6a9b8336c8c6789
col21:   6678bb5ab8ac4878899aabbe86ba6c9c7adcb9cfaaab4989987a95ec6a7be5ca9888ab869a5959a5
col22:   c799997977b78e9797b8d9baa678aa9bcacb97eac6da649ccba37bc6b8c9ccb9886b4787a9aa4785
col23:   8daa29b6469a6a3c6d385b5ba5796885d8d6a9caad986678797cbbae7aa9a7a98a666286686ba653
col24:   677b789836ba3899a6d9775d8987ba9fadceaea97c8a8be67c8a999bbb6bca6d8985c8888a887882
col25:   b6968a79988bb88d96bbcb5bc7b7b6b99ba9d8964b99bba79e89687a98819ba7a7795786d5bab47a
col26:   8b69bbb7a8ba9936c9dab7b9b98eadc99ccbc9cbadcc9cdabdafcadc9aecbc8e79c6c998746afa68
col27:   a8ba998cbe898cb969fcabe9ccbb8cdf8e3ceadda57ae85fddacdc99c8dbc9b97ad8acca87979996
col28:   cc89e7a7babd674cbeccbeabdea968fafdcbbb8b9abd9dace9dcb7b89c9b85ca87cfb9ba587b79a6
col29:   bd97ba9a9a6a8ddcc7996c9abb679c9cf8c7edbcdeb7cead9ec6baeeccab9cda99c979986b7a7789
col30:   967ca9988c8aa9a9bea87bacc99c8aaad579d97c8ab9dcebb7a9baa7aceba6baca98e6997be8b8aa
col31:   bbd6aabc875dca9dde8798ff8db89ddff7adccbdbcbeabbcadf9baeba95dbbacccac8bae858af8ba
col32:   bbcd9e7ba7dbbc8dd9cabaacdb9acbab7cbcdc9cd87af99ecccabead7eb89779fc9baa98859afaa7
col33:   7d889df989b8c879f8b8dacbc8feacae96afcddabe9cd76fcdfafdddf88ed5bbac9cecbcc699d8eb
col34:   a9aac6adbaab8c99bdeeaabccb8aabbadee87dffca96f99adbb9ca9b7bfebedbdd9f5a998c9dbd99
col35:   6a7ba8a86bbbaaecbfdcdbabbeeebb9c7ddadfafbcaefaadeccfaabbfcdeabacbac9b68bd978cad8
col36:   a97cf9a9978c8a9acb9add7b6deb8b89cd9ccacccda8ecdd9bac87cacdcebdad97b9a899aaa7689c
col37:   bf9ebadb989b9bc6bbfbae9fbaec99c9edddbadde9aedbcbdeaccd6bbf8fff69fbdcca9d8db9abb8
col38:   aacb684dcc8dccccaaeed98ddbfacadcf89bbccd5ffb8bccfaaccbcaddbf9da9acaafbcaaab9acca
col39:   aa9ab99f97cd8a9daa99ebac8c9dbc8aba3cfadab9dcdcc7ad9dbddabcabbebace9ba7bb8a9ee9cc
col40:   cc9da6cdac9ac9eb9acddcf8aedcce9ed8adc7caefdeefef7cfbd9cfeefc9fd6c8e8ca8dadabbab8
col41:   7cadbd9b99a98babcebbcadbaaeadeeabccfbddedeeedac99daf9cbaec8dfb9bcc9defd99bcbebef
col42:   6a69ebba87bcfb7d9bddda98bd99dbdcebd7babbbd79a9aade9cd89efbe9abcaca8bd9dacba9aaec
col43:   cbfb9dbdcdceedeecbbbcdebaffd5cccbfb6bdcddacfabdbecaabcb9bacc6bcbad8cb89ccecccad9
col44:   8c3dbe98d9c9d9abdedbdeb8da9cecebafacedbcb9cbbbbdbc9acadeababc87bafdaccccab4bdbb8
col45:   6dcb8b987bcc9979bdbdebae9c9efadcebafefd9999cbc6ddbdbde87d8d9fa9bcbeeca9edbcbea8d
col46:   bb8abbbd787d798bdc999abfdc9dadadbbdbcdbfdb9ddfccdbcaf97ebcbacddabcacfadb9df99a7d
col47:   addbcdbcbf9abbdbbdddffdadafbdfdecc69fbdcfaefedcdfcd9bedacb7cebb9cdab8aadabab7e88
col48:   9c9d7bcba9bbabdaab9cec8ccf9bd8ddaafdbcb8dcbcfdedadbddbddadedcbedffbd8c89bccfedda
col49:   87bbfea9abcb8aac6bdafabb9ababdabbdcdccca7bcbbee7feccb6acfdecbacc98a8a8d7cca9c9eb
col50:   dd7e6adccecea8cc9abebfb9ef89fed7bcddbbadbcfdbffea9dcdc9dc8cacdaadb99756cbcbc98c5
col51:   aab78a98ab7b994cfc5b7d8a7ac8abbbc8aa7bdc67ab9a99999e8bd8e989ca9ac96b4dbcfb9ba9d8
ROC:	 BPix_BmO_SEC2_LYR3_LDR5F_MOD3_ROC15
col00:   6959554858875464914491786647464ab93aa973558a6c7518b8776998a65969446b8b9845866768
col01:   86a65858b57f6956a59a7768bb78e98cb9498a9887dcd9b888cc9a97b9d7abba9bc9ca7977b88774
col02:   567434b64a6778a8348a77575a7c3898b898b8a3aa9aba889ab87a7ca78baa88939a7278b5bab8bb
col03:   19865b48536496a5795269b39579ca997988a9c979979b88d8bca96aba97ba98b54a887977685a56
col04:   aca4a679867b668478797a757aabab9c96959b8786a6969ad9ca99d69d5ab9388c75a68797b78aba
col05:   3695758479679a8b888798559855ca9775a66da79c6688b986a7a977a988a896b9d89a478b9685b6
col06:   56855a9159698cad875476689a6986ca89b89aaab89c8b8a87aa768898bacac98b798b48447789a6
col07:   1b67357e798a9c59864bbb989c75789b8ba9b5cb9caacb8fb99bcb8b6d9a8daaa68adb667999b989
col08:   c95778817899a6798a759a6799a5997777a79b7badd5d87ed9a6aab8976a5596ca7458ac9a797786
col09:   664669955973a865868b899369796895a879877f9ce999ca8cd87899ccbb78a78ba988c63b98e7a7
col10:   28465766c614a48496299bcb87b99899884a87aab77797696b6c6ab9b7b8967886868a3b4b765a95
col11:   58675589a89976988a5568b4482c686896ca9da6ab8a898a9d38b59aa8766a99996b758c89a38599
col12:   6929948a8755857596b77bb89976867886889b87ba49cb96898db796895c8963c8837c7485778862
col13:   8a97a569758b69774656b9a8b8d78a99977c79ad7b97988b9bd7aca9cc75888989a7758954885a5c
col14:   945795787728594a595d998c3567886caf87bb8aa8abca696b8d7b9c7657679ab7899d978898b8c5
col15:   5916467278a4576aa9a99a7754b77caab75da9aa99a7ba8b7cc89cba57a54c4ac78248c8ab779647
col16:   738388734985a88978573b79564a6c59b8b7c577b8a9e1dfc88977798987a4799a867c7689687946
col17:   4966655a66799428989ac67777bbc978a97aaa68a967d889b878c998958b67758ac89a8878946796
col18:   7655697969915a59659867877bb8989a9777875c977b6ca8ce8adc3cb98a876b76379ca78486a965
col19:   649765688866257575778764c79498586b8999eb9c5a9b5afca7cc9ac8aac387ab7697a88a7aa49a
col20:   4957858b69b9697a5b97677a889a8c7899ad8ca54ba9c6e5986a8896d769bbaa45cab86779a57b97
col21:   6976487c868477654995856987b99869aa87b89c699a79d69877b998acc687998596766373786769
col22:   8b868778477588768a97b8a9998699a67b96a79db9779c988a7847999657988a8c588a6697999978
col23:   77b769776579986767ad7b9757917ad57aa8ab8b868798c998aa8979969c8b9697a6868789a58797
col24:   56786679773a9937a79b799caaa9a997987aa8777597a8a8799875ad84b88d695a9c9b7686985788
col25:   6a98aa66257a87464899987ab788caa87da9cab7899a98cf79a9b8babaaa7a877a96987b8b99b78a
col26:   9ca799226aaa5ec68d8969c9dc8c9a99b97daad7cdddbdb8989a897baacabcc7ee999d7b9aba77c6
col27:   96649c8ba979c39573a5a8998bc77ace9daa9adbc8a69c978bc8a8b9888bb78b99bba68cbb9e8b9a
col28:   6c88c889a8987b8e7a6cc8bc9d6a9d6ba9d9fc9fdb7a6a8cacdfae7dceb8adaed9989c6a9799ab75
col29:   ba8a8a476c5689688be98c98ab9bc9f9aab6d8aa89d9ebcaccaaea8bbadcca97e8ca8ba989c7aad9
col30:   a899c576d8e79c8c87c987a89b6a9bc8cb9dcc8bbaca8cb8acef9c9cbc7e89c6dbdab6bb9eaacb9c
col31:   a77596a68a9a9ac96b79d9abcabbe9b7ab9ed9dcccfdaae8aaaabbbbccbcaaacadf7cd9ca9d8ab78
col32:   ab79cbbabc47c7a9bbbccabaaccbb78d9ea8d9eafcc7aac89eccbadab8ccf8c6abdcafd87a8a9a9c
col33:   667baaa9787a7aacb9ab7aaaf9dcc9ddb5cdd9dc8cdbb9bdc8ccedbd8d8ccbbbd7cbee99acbbbaac
col34:   99bc98a8c8899ab86e9a84c7caaccaeb9dcbdaacadbcbfb799d986b7bcd8bcebabaacc9b9ade9ab9
col35:   aa99b5e7a979d89876bc999aabdfc8999a9ae87e9becfbacbc88ababcc9f8fe9acdb8dcdcbb9ab8a
col36:   75699a8ab9bdc8adc9acaadac9bfde8cadbbc4bbd9df8dbbd89caabfa9a9fa9abadc9afa986ee9a8
col37:   aa9aab68b9ccb9ba7dbabb9b8aabbdcbbbdfdebdafcefa8ecea9bad9b9dafb6cccddbca8dabccd9c
col38:   9bbbcaa6c7cbcaabaa5c7a7ba678bdac5ddeefbcba8bca7aaabbdfacbcf9be9adcd99d99bc8cb8fb
col39:   b78b78e7b77c4b8ba9bacaaeeacb9cfcfab79ece9ca6b998bbbacddbdea9bdaab78f989a9c8adebe
col40:   8bb8c5a649a7bdca779cadb9ad8ddbaadef98bcbf9ccbc9cdec9c9d9cdcdccfd68c6b99dcababfaa
col41:   acaa6846a9796d8cfbba9bc9accddad8bd9baddbccdd9dec9e9afcdcbfffc7a98b9caf98cefc8cda
col42:   86bd9ca8c8b7c6bcaa8dc98bcdb7cfdbbebdcabcbbddccbeac88b7b9bc89ef8c9ceaa6acc9bdb89f
col43:   78bb76b8bcbbbdfdcabca99ab7bbccbcecbebcfddececed9fccbbefc7ddfbdbbbcedac6b9ffbff99
col44:   c6b8aa4acaafbcbec977b99cd99cccbdbbcbac8adcdedcfadcafdeaaacceddcdae9fdcbba8bcc7db
col45:   a9c9bb79c8aaccc8ad7aabdb99b9cdde9caccdeeeb9adedcaabababbb9d5d99eceed978addaef9a6
col46:   5ba59b9a78ae9babb8abbc9abdbccc99deeecdfcedbefd9cef9bbaccdbccdbacdcb7bdbcceefdeee
col47:   9c9aaccb779c88adcbadad8adbcdaa9dcd8e9ccfaca97eba9ecb8bbfdfcc9acdbdbaacaffadbccc8
col48:   aae9abc3a7c88ba69acaad8feb8abd8cbcedcfceaaffebfde89dbccdadbddefcddbdebcaabbcacc9
col49:   c9ecbca9878fb97ccca989c7bffdaabfbffabcedbbdfcfe9deaaccaccadcde8dacabcba88c8cbccd
col50:   a8ccbdbe4cbc7bca799daedcfbbbab98cbdceec9dcd8ad9bfbffcbafdceafcb9c9aac8bcb8cbdca8
col51:   ab689964b5c2a9999967b9c86d7b8e8acdbcfecaa99c8aa888dcaacb8dc5a87a8cb8aaa8daa99f64
