ROC:	 BPix_BmI_SEC3_LYR2_LDR5F_MOD2_ROC0
col00:   64672191564a6876776898776c67b93976798a7da787a8534a79b48a966b77a8c776889316728916
col01:   5682a9b159889888868c6ba688b8c89989a5bb8a8c9b97b86aa7ba8889b98628956d7a6a97589976
col02:   3789687758687c8897896a5a8cacda998c88abb8a9a989cba59bb588b98d7aaa898ba8996b867a78
col03:   464a6997b8886d9bb9bbc6899a9c9cc9db979a9aabbbcc88abbba6bc9dba95788bb7889899969537
col04:   76946b43679778b79a89698777a598866ac775baadbaa978a77ea8c6bda78888759a4aa789ca6666
col05:   46a9677d8797799ac6a9b788a86a669a96bad7a6b9a999bbb56679abadaba68a7a947a8aca8b5978
col06:   68759b7957877d7c88a879a987588f798a7bdcbcb9bcbc88a999b8eacb7d9a6d786aa499b8856b69
col07:   85934aa663588538d6a77596a8aa6ac9b7ab9a7c9ab78b5a9c8796a7b686fc76956b759997798a26
col08:   94656ab698bb6347a5a65a865649897a99c99b9a97b886c9a56789a78a96d6abd673587688e66486
col09:   673c8855874ba85aab597689ab6d969a89bdaaa97abcc888d9c9be9baeca979baa567b466978b664
col10:   9673766755a856bc77a7aab7cb9bc98a9498a9985a8886abb6caa6bbdad9996ae8a86658c97688a8
col11:   667958ba877aaa9a558a89b7c6999767a999a86b98ba7bb79a9caac7997ac9c7a5dd9aa948738765
col12:   66469989967b45cb99ab8aa7b9b9c7a9985bbb78f879b9d9b99aa8da68a96959a9a8c9b5e7a886a9
col13:   684553573a875bb78459aaa99ccaac7a5858ac8bcb8d7cca9b8b978ad8baa8a9b86966ba9b569744
col14:   9597b564578ab349a7c6a2a6c8c76ba9a976bbcabada999ad7ba988879cc9c846897aa9b58c85785
col15:   8b764977897aa88a898bb5b58aacc898bbaa95b99999acb9799ab7cc9a7a87dc5ab9657777a694a7
col16:   757849886698c47b89b6ae988889cbc89aca9bc69d5cc9baaa69987ae8bbb9a76aa6b3bb788a88b5
col17:   643779b65357bb2989978777786887ea79f89c8895c997a89968bcd759a8a65969b76774a8c77996
col18:   b75676758b58b59aaa87aaba9d9977ba789b87898698a8c76977a8a97ab9678a9eac9b9762867999
col19:   67a57684978879a697aaa99787c9dbd7ab76d6c76caa9975798dcdba9c9996c6bc884a89a9b8b47a
col20:   79955888b667886b76da9b78796b675cbb579aa9ba59daa9bd6a9a9ba9cc9b8ba888b8846b685773
col21:   69777789998d985b7a9c8a79858a96c8a778b98b89998b9b7baaaa99c88dd8887aa89968b7a878a5
col22:   9166798537c969b889a898bcbda766caa8d99c9aa977ed6b9489799c7ab8bcaab77986c7c78968a8
col23:   578656a683aa8959ba8d798a737987fcba9a9789ade8bab87b8ba7cea478b6bca9964b7bb55b4656
col24:   43798685c56b8898a78b99b78a598968887b888c6dbba7ba578a9aad9998598a699638594b7b8587
col25:   754565a845a75699b88c97b7d9adabd8a97ba8a8a8d7da8c97997b9adaab7a7a9875aaaba6585866
col26:   8469a8765a99a7897a779dbb7acbacc8acccadab9b6acc6bb88c8d9bcdbd4ae89e7a78a67bb9899b
col27:   888768c67ae9a98a8dbc9bdbcd7d9accddaaa79b9cdba999da5bb9c8998999a9aaa67eb99ea95da8
col28:   4967b8a79969da6cd8997789aa7dd9ceae9d9bbd7a9ccc9969aaaddad9caada9ba9bbaa68a7c8b95
col29:   898775795c98cb9768c9c9abab9aa9e58c5d899bbe79baab88ab8acecacaaa99bc6aa8a6ab9ab5b7
col30:   a9c9a7a6b8698ec1dbca999c68becddb986baaba7d7aa8bb78ae6daada9dcb9988b8c88a9bc98ae7
col31:   c57b6bb987ccbbceaadf5aa9c989a7ebfcad9aaa9bdcdbc7bddbbfd9da9ccaacacba9898b7b9ac99
col32:   b958c8578987a6bbd897fbc7abebeaabd8ac9da9eccecccacbe599dddda8899dcc8bb86a78888847
col33:   998c6abc867bbc8b8c99e9a8fdccdcdcbbaabbacecbba8adc9d9bdcbeebabab99dc9998cb9acba79
col34:   c67abbc9b8a2abb5998999ec898bf9bdccabcfbacbc9b9dab7caa7bbc9aa98c6a788b78999ada5a6
col35:   c5aaabaa7798ca99d9b99bbcddea6afaecba8a9b99abdbfcd9a8cadbbbbcdcadc78abbbaaaaaa9a9
col36:   a89bc8baac87c6d9ab7998c87abfce9cdbeba9cd9d9cea99b9bad9ba9b8c8bc9be8c99ddd898da97
col37:   87579899c9cbd9d7ccbcbea9cdaaaaadcbcfdc9e8d7cbc9accbbbb7bcbaabebbaacbb89bbca989a8
col38:   97cbacdac9d7ac79abcfbddc9abebbccbbbbb9cba9cbb78ddacbafb89ccedf7aabca7bc7aca7d8c7
col39:   8a8b79c6ef7dbcbd8999dbaea9eabadfdaa6bbfbdacadcb8ab8bb97b9ab9d7bcabbb9dcb887aa9bb
col40:   898c698bac9b9fbde89bd9ce9e8ebde9ad9ebddacb8ce7e9addc89dbccccc97cb9bd9cbaad9ad986
col41:   b879a97c7b978cac979caeb9abd98dcdcbdccaabab7afee9daabafaa9c99ca9bb8da9cd7b98bb898
col42:   a944967bb798cbc9a9a8bcb9bbfa99dfcbce9e99bac8dffcc8ba9abcd7c89dec78ccdbdafaba88bc
col43:   b797a9b979c9da8b9deb89bacaebdcbdc9cbeabefdbc89dcadbbe8dffcccdfc8bb88caa96dc9ba87
col44:   8ad6aa88c9899ab789b867cabcbbecace9bbc8dbcb6dabaca7ecababfdbbccdaca7acbb789a8ac84
col45:   8b7caacacc6aab8d9ae9adeaabca9acccbcfaabc7fbbfaacdfcdc9dceaa7bc9899b9adc9bbecac88
col46:   87cbc9889c8aabcab9989bacbcaaab8adae9bb978bbbdecbcd8a9bb9eccddbcbbac9a99aa8b88ba8
col47:   a9bc78e98bb9caa7a8ab88dcabafbc9f9c7afabeccda9ccdcaccbcabbcebabbabbaaed897b8cab9a
col48:   7baab6995caab877a9dbb79ac8d9ebaaadbc8ca9a9da9cabca88cbdb8b7bdb9aa9b89997dab8a9b8
col49:   aba58c76a7989cdc8b9aabaccdaddadbbba9dbc8cad9d6b8b997c988bea8bc99f8bc9baca8ac6996
col50:   a99b4a8c79a8cbac6bdaadd8dbdbdaede88baaeadebeabeacabddcc9ac89ca9dbe9ed8a9b8ba6b89
col51:   48666379a99795b9b7659786b9a6db98889a8a948a8babaadaa488c9aa8a5c97488779a69aa89a67
ROC:	 BPix_BmI_SEC3_LYR2_LDR5F_MOD2_ROC1
col00:   4878b8568478a5758b7c769758997a86355786a7aa977b647a8643747577c48775a89b878683b171
col01:   344687739a7aa7688b9aba4c8acbaba48dcbd997c867799997786b4a78b6bad8b9e9e6c6a679a769
col02:   25867ba679566569566864999a8a6ba68878ad78adbb479a5777ba46f98bdc8a598a9997c78665c6
col03:   8865c7aa9aa9588b9c6c78a7a7ba78aa699cc9b69b9c8b9d78aadd6cc96b8ab77798a99aada9a859
col04:   197b56989b7a64b647b7a7877a6ba878869b89879a75b6aa4a97a86d76c8b8ba89b7b7a7797ad766
col05:   356778d7777b58b877b97ba78a8d8a7898a69959895779e5adbba99aaa99bbe89b896e8e88975597
col06:   95368bb977a775789865ea4d68889a788a9b8a9aa3b69c8d8a8495c86a97d7bc9587adaacc88b5aa
col07:   54666765767668aa887ca9c7789968d89a4acd96ad8a787ad9a9dab7ac8ba54c699b878a978679b6
col08:   993647a8545799b9778aeb57869dba7a599a798a8c99cb7a87c8a8da769bb765978997a3c645a976
col09:   9a74a8b98c48b78999ba78b95b9a6d9985b897dab7dcb9acb8c9ac97d79c7689c798758a688ce878
col10:   7648b36b9566c63944bbd68ba8babb789a8a8467baa777676c8a8bc99687b856b94a695a97b79796
col11:   44277747979668c88686a8a8b8d8a5757b858cca9aaa9aa9a79c7c5a6a999af858987c9798ad8877
col12:   728a88875a85769788798c9a8bb58aca999b888a97bd99c9a9a7b7e6acaa99a78d38bd7a93ac7986
col13:   85c6467a539598696ac899c99b95879b892a9d99999a9759c9b9889c777798a9abcaa988b56a887b
col14:   27366458995a687647a87ccca7aaaad9a8a9789498a798aa9b967a8b8a6a266968a8ca745796ba51
col15:   958798a658657a4799bb56789a88a9bb4aaa7bcb7abbb68aa68799795896b977998958a8c998a7a7
col16:   b3a778a8b5588559b785d756a9a7ce948cb78ba78a97b9daccacab979a66a989ca739c98995aa8a8
col17:   343465944496d8a9bca5a995888a7799ba99baa9aa7ab9c39c57c6aa79a999a9b4b697b959678975
col18:   48b9b475b669aa888a799bb7c85ba9d99c85be9b99e8a978587aa778c84a88a7769b889786686ca5
col19:   764188c799782699a599b8eaada7bd7ae9a89a57b995e8b477899977a989a768a9d7e8b3a6c8cd52
col20:   9176a24797327778953c7669888917874bbb9ba5897a8687675897b9997794baa8b898894e86a8a5
col21:   64b785987aaaaa68889c76bb788a77ab7778a8a859ba8bc7c9aca88da9b9ba78aa78675457899767
col22:   15a25847a5685b8baa7a486898a669ac7bba9a8a95aa887867969a975465aa5ab8a4646a86b98f69
col23:   6665374786a7ba655d9989756ba96b99c979a987a9aa78b8876dc9bbbe88b4885866866767ac7757
col24:   8387495459676b58b8a8a46984a66a87e8897aa8cdaa679a99b43796b5ac536358679c8736798a55
col25:   665546da576a43a9a75c7a99879869bb67b9ca68a8997a9a67aa75a85a9878a59b587c95a788a987
col26:   66c7ba8bdb5996c8776a67b99acebb9cb9baaa98cabc98f7d998577ef5caa9895c7768bca89bb99a
col27:   5777aadd7b89c89cd68bb7898aa846cba9c6ebb8aaa899bda7f98ad889a987bb7b99b79a7b589b9b
col28:   a8997798c99cd68ad9cdb8a8a997ba999b89b9a6b5bbeae5aabbacd7d9a98aaabccaa9b98a78b82b
col29:   7899bab8ac878aa9ab7ba8c7b9c8edba7d97dab9ebdbe98cd56bce4cad899bcbaa9579a6dafabb96
col30:   35ac89b97ad9a5d569b8a5a9ac7ea5c9e9a9bbfd7d6caa9dab8b86c9dc799ecc999b9bc9ab87999a
col31:   593aaabb9cb989afbab68ecbac9ecac7abc8cfcb77c8bc9c79bd89bfcab8ce98bd9aab8a87ae7aa6
col32:   3968d9845c9b6e9ab8baabaacaaacbac7dcfebaabd9cae87bea9beeae7788aa9bc9ca8986ba987c6
col33:   49c785abb898978999bdcb9bd998aa9f9dedabcc9bdba5ab9c8dfb8aecaaa8eaccbaea97bb6da7ea
col34:   dbbaa79cbb9d8aab9bc98baab9fc9bbb9bbc9dbaabc9cac8a9ab99989da68a9cbedbdbadc9a7da8c
col35:   8b6b97787c8c9baa4dd9aecdcca9ba9cd8ccccdb9adbc7ab79da6dbaadac99c8a9a59fcc9b88ca79
col36:   ac8777bcb8a99aaa56b8bb5bcab8ca8e9c6a7b99cbb8c97cbd9cfbc99eb9eb6adad6dca98d6edab6
col37:   976bab89bc8bbcb7a9bc97ac89bee79ca5ca96bdcda69a9a97acbdddbabd8ebd69b9b98bb99bfbc8
col38:   c86b76aabdaabb6db6dfcbadbdeefec8c99dfebbabea9dae9edab9dbda8b99bbddccc97a9fcbacf4
col39:   c78b9b7cf7967ab98bbb6bf6bbad7caaebfbbdabb97bccbfd8bccbfbcdccabd99be8cd78d8aecba9
col40:   8aa8aedaaadc79da8cbbd8b99adade7bb8979b9adba8bbde9beafe9faaea8899dcab7c9fb7aac997
col41:   699899a9bb98ab9b7d9bcaaccbb6c9cb8ab99bb6cbf8b9dc8fb89c88ad9ecdfc7acddcaa9999d8b7
col42:   9cb88ab99a8ae7a997b78fd8969a8ced8b999c9abcaaacfbd8cb8cabaa8bdddc797cabac9b8986ec
col43:   8a5977a9b8989cdca8bddce9aabbdaca8d9accdbccfeaaccc86cabfc8acbfbacedbbcbacc58caaea
col44:   8bbbbab86b59f7dd7b888d79e9fbaccb7b9ac9a8caabccccaaebebabcd8a7b9bbdaccdf9cac98ce9
col45:   8d8979ab78babdf79b7aaa6cabdfe7b8bceab8acf8affbbe8c9bbacbbdbab77bb9b9cd98bcceb7c6
col46:   bbb656ab88caba99c99998ccbb79deebca89c9af7cecedc8dabbcf8aacacb9ed5a79de8f7dbc97b9
col47:   dc58aaa9bbdab977afb7cb8adbaf9caac96bcefb9ebf8a6a8c98ca69a9af9c86eeacafc98cdaec9b
col48:   868bbba998ab89a78aa9c77eaaba6bdd9bdacd7bfa88accaafb8a8bcbb8cabc6aaca97accc9cbc9b
col49:   74c7c6a9b97abacc6ab6c9dec989dcebc97efa8cc9ddcbadaddbfecadea7f7a8de8babffdadc97da
col50:   97bdcc788ad6cb7e678edcc9ab9f7d8eedd98eb8abddedccab4abb8ad9db6aae7cd98eacaba698c8
col51:   665776686669a9b37c975aba65ebc479ad669cdb8b9c9c8a9899b8a689885ebb987996aa9b9a778a
ROC:	 BPix_BmI_SEC3_LYR2_LDR5F_MOD2_ROC2
col00:   55316446687646778555278757bc7783485799668653433673a94435747857532535446121764652
col01:   656455a7a319458ad7848ba465948485977588a677a8759c29577776b9c964775869696623818548
col02:   478835677974267493b7a355a9989787a49497478d6778765b677b5989567476dc536b576849a524
col03:   58347628677899a8657866a7964555895797479789698c6a86566ba996c799b79738583846656b63
col04:   65663668287789962755784899969baa6b6b898876b8a936664a97989766c6656865a85b37587431
col05:   78485688749a879a8aa89ab96749a85985668a795976686b9876b7869c87368977756a9a95834641
col06:   745339569a75966789ac7769b9a59ce98777a5a99969b8a68979595765b5729566928726728a7886
col07:   2a89c169a67366369a4897896486b9ad87639b89b598667585777354687737857b86a888656524a7
col08:   67365656a84486958785b64659a676a6a658796767497797628776784596a4586688968497585987
col09:   894a368657a7b9999466a8358c27574829d56556ba7a38a85789758ba98968987547695478549361
col10:   7655657453598a885575c585585758537689bb64ba58558ac33b66a47796958988a6468473425233
col11:   655215357b67895588b7975557598669756397978673955a4a5467847576b5834757772a569a7514
col12:   95767699a5985b47a9899967769a757a6a5778487a68584757a57896b94737475364617697284189
col13:   799377a78a8a7b86c89a96966b8998644b9456599898887ba87a865c78961a7a8997a39538555485
col14:   69698266764482a749b55697669a5476aa287667c968a98a85a659b66a6879987436773662758464
col15:   8755575559a24576578a8c56877725887a556a9665889b748698786775aa675675979968844b4313
col16:   266441867899a878898657a69598ba699b6567a8a742b898a6a4a998956995aa48a3154866762716
col17:   7334865586975799ab827698896868438854c49667598877687859a8654773676363457a41141561
col18:   2492645585896669a6799c82879778a56986846a6775987866895b737d9ba8776742859776134464
col19:   93464965668456858365774746476b88a59b3b79c8865897877a594a947596457a7974a467568752
col20:   836663723a6a6594838b448b4946797889ab9b87767ab74956779279942877695955554257377492
col21:   87854647576577a66766958667598856898c956978989c54a8b97aa8a55799667567849751993566
col22:   779a12a8738779779687866a938568ab38a5869aa6b9a895792a567c8636687b8574886177543264
col23:   563164886574798573774677685949a289675a766aa88896c66a48876493aa864785864478441365
col24:   456758465686734777682648a856a6947b6667876979a8994975969a65c868537a72743863757355
col25:   66457756ab4a76746c37c85bb9584679d96879cba85769ae67786864c657a868679659677a862623
col26:   4858888888b69887467a95957689ba6bad8ca8bb8b9caa9ae9b8c738a95baa9ba568699b85a8966a
col27:   5465a78a867888a97d78b9a878367489a969c98b68a8b79698c9a6b9baa9b99aac68986c86854545
col28:   87a67778895a789bd9acaa49999ab9bba68a97cbaab79a97956c886aa7c59aa7995788b8aa91d886
col29:   665a48378ba5ac86978847c66685baac78d869da9b8ab98c8b988866da68b486a787a87878861564
col30:   4697572677a9569a94788c8a86798a78b9b6db97b679dba9b98db88898ada9bb99bcb75458aa6489
col31:   8566a6a46aa949d6aa88a786aa89a9aa8c8aa987aa89dd899da78a7ac7b886989866b9639b564677
col32:   885aa59866a8739aababd9755ad8aa9886a7887965dab9899ea5bcbbcb67798988b88bb969867da3
col33:   78786b765c675a77b38cb92995a6adac67b869c8aaac7b8ac597499bbeb7a85a8a79c8aca9a998b5
col34:   d956537a9867a58596b88aba7995da5a66b66b6c99bbb8b7da6b889a99b9e8aa7a69ba9998957447
col35:   5738ca586a6985c87692aaa8a56adb9a88899b8b8989ca69ebc968b99d88aa7c9ada9a669a772847
col36:   378887b58c88b58ab96b976c9f7787bce77bdb6baa76b8dead8b778abbce8ba79dabd77b975b4a94
col37:   98a977697998b797ea7977c9eacb9869a69aba9baab888798cbb9bb88967a9a99bcb5d58658a796b
col38:   99a9569779ddbba997d75eba9b9899a979adaa857698fd8a9da67a8d8ae89ca97a9787b6abb5c99b
col39:   99567bb9b55a79aa8a78ba68bbbba95947b6bb6cbaaaac58dcc97aaaca69cabb78a8b7b8aa889a86
col40:   a9974887786a788875c89ba8ab9eb99e8eb96b7ccaacbadcc89b96a9a8a8bcabdc77a7d965aa5873
col41:   85a637768657ca78a788aa99aa8c9aa8d39cacb6b87addbcda88d9ace9bdbbaa88a88b6776b8baa8
col42:   97357894666768a79686954edab9daaaaea9b8fb7baba8888aa4b7caba99b85acdb4894c75b58894
col43:   8738857858a99784ca78968a9ca9c8bba9a8eba87756aa95ba9a7898c9cc77a97abbcb89a9c7c9a5
col44:   a85a576bab9ae8caa9dc9aa998ad8c9ebcaca8ae6aacb9bb99d65ab9ca79b7aac979ca5b98889668
col45:   a4696479499ca869a89d7a97773bcec96bb8ca78a8ab88a8677a989997aa65688aca997758f348c8
col46:   a6875999a8579b899665ba8abb9a9596a9aa9bb8ba9b999a6bb77b9c9a6b9d7a8889567b7b889761
col47:   5967675877b7ba7a7c966ba879d6957d65a69cca7b8faddc489a8a7497aaa5a67999877675ba9674
col48:   877a85b99bb899a989cabab9a9b89bb76aca799b997c77aa9bcbbe677969ab37a69b639574bc98a9
col49:   6b57582a8488b9ca7ac7599a99ab8ab9864a77ac9699a9ab5a8aa8a5a97976b7ea5b8a6a67879955
col50:   948666d59a6aa6a5ca7969d7ad7ba7e87a7b79b79b7b886e45a878b9a9cb7d9bb9c9c8abb7894643
col51:   835359689488834887b47587313642b6b5b94979693a8b66a6958997a5b4828569685875558576a3
ROC:	 BPix_BmI_SEC3_LYR2_LDR5F_MOD2_ROC3
col00:   9986b6a7859e97abb8b6dba9999a8db789d7b9bbe6caa5982fd82d8c8fc2ca9dc976a48968c29e52
col01:   9bbbea6cabadd78eae8bbb7ca7cac89cd8a7aae998baacab87cda6b7cae7cd58ba8dfdabcafbeaa6
col02:   9a7c96ead899fab7baebba9edb7bc6bcced5ce99b7af98c26a9c999f7ca9cacb96a7bca7b9b9bd9c
col03:   b459aa7d8ddbacfbebb5ecfce8aaba9d9d5969abdcc9bdbcbac7abed99c69bbc69799bdc7b7bcfac
col04:   9aaa9e4bddbac79bc7abc988bf9bdac78ddee67bb9bceab8fab99bbaaa6e5b8bd9967dda6ff5a656
col05:   b557aca7c78adc5a88bb9ad887bf6ddcdbaecfcda89ebe79ec9aaa58bfbad9b88c9beebd99d8ab97
col06:   589589a8a6a67ae39bdbabcfc8efba95baeb7ec996bcbc8c9aefd78aa4adbcb8c79976aa69a7eb86
col07:   849c9abd9b669c7dadbbad989aacc8faabbd7bcb9ebef37885c96ddd8bec9b5cc87beaa7e6dcf5a8
col08:   c59899dcdd6cc8798b9a9b89789b6eb64b88c786dbd9c9daab9c7d898bc7bc85b87d8a5a97bc79d5
col09:   ba9cb63a8f8a63a68b5d9cbc5eada9ce7ead7bcc9bed5fabb9abfab7daccbbc4bfc99c899ba9b7b8
col10:   683c58e8bbada9bc7b9759a9875bb9bca8cb3d87a6cac97bb9fcd9aedaa9a9bc898684b77d893989
col11:   858aacd5ad98a7baacdc98d94a9da6ca87badc7a8c568958fbb7bb778789cc99dedb7893ebb9b767
col12:   98b8e6a87977a9a8ba8ca8cdbbbda875dc96c7c5c9a7cdedcab7bf698996b66d9878bbf987c897d1
col13:   58abd6a9eb48b9aac7b6978ab9bdf9cdc7abb7bcdcfaeb7b8c58cbac7d8ce897a9d6caacb9989b8a
col14:   896997558c7c38ab6a8bf8aadb7d8c97bb9b7cbaa6bf87d8ad8b9b7a8cb48dd6a8fbe9e5b8796898
col15:   9d99c8b8bba7996c59bdb76979c9c9ad89d6eca9fdeb9c6b97fdaadb87adce9b94b6889bb98ac6a9
col16:   67a86cb6a8abc8a69abb987dbbed89b8aac897db98c95b68aac97fa7dce69b9a8b97694c6b94a995
col17:   69649ac7ada77cc68a768a89da98e8b3cfbbc666a78cb9d77cc88777be9a5d999997b687998a8bb6
col18:   768767a4b88b37894bbc9a6b8c79d9dab9d8bd949dbdbb9cbb79bcacc9c99949b89a9b77ba78c7d5
col19:   8da676789865b858eaab8cab87b8ab7b8baa98c9add7aaba7abc7959f7ab98bc9789997676d9a7c9
col20:   a858668697a67a7b9a3aab9a95b6c7bc7b9798c8eab794b689e7b9994a7864d8a9cd3aba7c7bb555
col21:   d89778cc9e698b98a98cc875e8cba9c8997aa78becb9cbb7a858b7867858feaa4bb78aea899bc787
col22:   8585a67b75a8e8abaacb7d97aac9acb99f7af8aeab8bebc6d9accb8a999da8889b97a898b9685b58
col23:   978aa438ab8596698699d6cbcc79fea9a885a8f89ba9fb98ac3a8b9878857cc69b8989675a6a6698
col24:   666a2c7948ae4a96ad9dcb7a29b88b8cd7fcbbd69bb98e9887aa4a97fbac74ab48929869eab8a77a
col25:   7b8bbd4a3887aae9b7e8798aac9a9686a76e9c68ac98a6d898996bca5b999cc47d6bc777a7bad935
col26:   b85b8a8d997cc899b9fc8b7facfad7abc9ca9d89cac8ca8cfacdee7c799eaaacbba9ac57acec9db4
col27:   c554779b8ac99997adbd8b9df78b69c7e8cd87c699efc8fdb7e6bfc66ae5aaae9acd6c8bd795aa68
col28:   a977fdde798d9badaaafba8fefacb7bf87cc8ddddeccdef4abb9a8bf5bcdc9c7e9d7aa8a9983597a
col29:   5a569abbabb97677ba6b6abd84aaadbe9cbefb89899dbdd888486cb6899cdbbc6e6bb9bc78595c79
col30:   5abbaab9899bbcddc9ccabfa86dc9b8becc87daeefedc9dbaacffead9ed8b9adacda7ed6ccbd9de8
col31:   a8898b98ddafabacbb97acab7fdccb8facdffe5db7eada9cbde8a8fa9cfdfad9ce3dcc99ca78a9c7
col32:   8697c999cc99cd98cb78fa899febafc6ecdb99b493d8dbccd9c99bdeba6bbebc6eb87dabcd8edae5
col33:   d97c899f9acbc7ee8b8b87f7daebca9f9a9fcbbcaceb789a89feea9cd8f9faaa5bb9b7bbfb8d99ca
col34:   95cac97b8a99facabb9fd9fbde9fc8ca6dcbdcbd9ffebd9eb9aeaccccb9ce9dbbcab8ab9cda8ffe4
col35:   68b8cad78789bcb8d8efbbeaeeb98ebecee8c7bccddfed89cacedabbceebea9fc8ccac87a8cfacdb
col36:   994ab8ccdb8997b88d8bceb8ddbeeb7aee977dbcefc9b9ec9dedeafb8cfdc7ec98788eccaab8dbb7
col37:   a674fe7afcda8bcadbcaacfbbaa6ddaeed99decb9b7d9fbda9feecafad9dfaeefbbda7e96ab7bdb9
col38:   b6aabcc99dffabbccabbbccecceaa9efcbabfcdf9fda9ebfefe8fb9accf99dfddaabccecfbea8ea8
col39:   788cd9d7dccde8beab9cebdcec4dbfcff9bcff5eddeacdcbebeaffdcc8ea9bdaabbe886ab99d7977
col40:   6a65c8787dda98d9bb98a8fe8c78bcbdcbcbef9b9a67aeadb9cd9c9ab9cdecb8ce8bccbab78bebd7
col41:   9ab9febdcc8cfb9d9a9cc6eabdfba7cfcdcbefda98bcfafbdcba57c6c87d8dd9d8da9bbd89b7bb96
col42:   8b83b8babbaabc9bc7bc8dcbfcb79cc9ed9f9bceadccb89f7bad7cafa9bc98a989a9ca9bfbdbb9fc
col43:   688cda7dfee7a9c8a99abccc9eff8c8ab98bceeeacc9baafe7ae9bdbaaacd9a89fdc9cd85faaaf68
col44:   eabe8adaacfcd9aaccb87bdcacbfccdddffbf7bd8cdbfbeedfeeaeaba9bdc7afcabcfcdaedba8cc4
col45:   6cc8bba8c9a8fcbaddbc999cbcbdcaaaa9bec8afebbdba99bfa9babdc89bb67daa5c7aa8dafa7cb5
col46:   79b58b9d9e869bcbaaaba8edab5bf3aaafefaaedcefccec8ebc9e9a9adbdf8c9bccc98aba589edb6
col47:   ebc877997959bc68abb7c69edf9aebf8bde9eadeccadebcb9dfdfacbd78abc999e6f9ab6aacbd6e5
col48:   8adaabc7b78ceafbd8defa9e5bfbdfdfc8bfaad8faafa97bcac4decbedb7eb9dd9b96ab9aadadc5a
col49:   eca9f56b7acaaaaaebf9babb889b6bcbb7cadaabccd99cbbbcacbfab89adc7abaac9aa7c8bbd97ca
col50:   a82b9ab969ba897999ddec89fca9dbbcdfefecbca9facc9ba99cdbdbdbaccfde897aebfa8bcecff9
col51:   5d43a963b9699cc95babcbc76a9a86ba796fdda8a4c99b9d5a949c98bc5a677a59a6ca99ca75c9b5
ROC:	 BPix_BmI_SEC3_LYR2_LDR5F_MOD2_ROC4
col00:   487596997aa175754656747c8588aa676787894a886779e98a7789468868789746646575998d5651
col01:   a23953e978b8749a64b74c6b97c97ac7ae8a88a66777aca766e6b869b8786899b697987b5436d766
col02:   966b5797556a58baa68b867aa57ab8a54893989ac369e687b5a968989a89ba7c86b597963b847a66
col03:   4748534a94d99886577dd7798a6777997cd9c3aa9c9db96389b9ac55b79696a7dbc68694856c7595
col04:   678976764974b97b99a6858449a7acba9ad9c6775a89babeb78a75a98769569868595969977b7d97
col05:   88786669dc3ba7999888b8abcbdabcaa887998c685974789a9b9daa5b7877c977b6a69b39935b866
col06:   6686a679b65a757eb855ab867969aa98b9a9a6879ab6c99697989b6d8eb9ca6978c9b9cb57766974
col07:   c69865694897995f587c7994959cc98abd7669999aa969aab8aa6b7b9aa676bb889b89d66acab75a
col08:   9a7e578a86485a88a7dcaabc9adab88999999bb88858b99badb884d7b95c8cba939b78a96a5764a6
col09:   668891575798c589787789bbc8a8b6a8d6ab883878ab79a8bac9a7878775698a6ad89c74d6ab4895
col10:   8999759b8887985955abd3ccacac67b8a58aa72bc9b98867a8d67c78aa4ba89a66a8cb83645b9193
col11:   78685397ab7887479786a98869b8a98aa8bc649bc787b969c99688896da8aa88ab55897588974886
col12:   b519d3879378a688a95b47a87889b5a99a9c79594989a6967bc989c87778a68597d5ba687947a754
col13:   8646789ab87a84aba96cbd698597ad9c97987ab9bd77ca7b3b7655a6b75d59774679989678999975
col14:   45b4864849998698b988978a8ab59683cb99b76aa98f84c9ca8b9798a78a579b6bcab8c598397573
col15:   77a9ab98a8cbb27997866944a9a97b9b9a6b879898e98cbbc87878a7a7a7aa687b47bb5966c78ab3
col16:   67b8797785ab87ddb986999cd6ee549b69799779ab8b88a979978a8ca8a876c78685a5c88c97b8d5
col17:   8865a685b9626aab77b8a69a66cb899879ac99abb98859987977d66b999599b7c97bba6a824988a9
col18:   188a8837a6c983a681c98898eba658c556a9a6a99bb879bc7385ca9b9868987985a5798aa5a785b6
col19:   48795788698dbd89bb99c98bb9d98a8967a988d9a8a6abada78b889c8d9a9da5ba9aaa7597978276
col20:   66976a9797449787679d77c668caa9879bcb99ba77cca9b7c58b886698849367a9b9b59b66597a66
col21:   3aa575988797a6d788734aa67bb8aabb9d6896bba3ccad76b8a789a69696b999a8888a69a4965439
col22:   599a9579789244a6ca4a86a8b9c7566caacadc88b6d68ccaab79ccbb898856b897825aa777869b89
col23:   53739a988329a974886d78b8ab974ab9a76c5e978d56b2987698aaca887c7b987cb9995c896685a6
col24:   664447a15499cb66b788469b69899a76a8d87897b76a767adacaa7b8b77b8b8e898a957ab68b8537
col25:   578599c65a96c5aa86cbccbbbdcd9abaacb9c99a3ca6b99c779b89ab9665fcab78baedbb7a8c977b
col26:   89ba57888a88bca59da48ccaaab8a9c8ccb8aacaa9eebecbcab9aaa79cbb98697bd9aa777d968556
col27:   6656a94aaabb7ebae8bb8a8baeb888bb98c8a99adebabbbcc85abce7a8987bd8db87cbd78da898c8
col28:   6a857bb8bb67aba9cbaab998aecdcaaade9ac8eabe9dee7ba9ebc68cbbca9c86578bbebc8c99c9b6
col29:   b8b74a8bb58c5caace8dab796a89bca769bbccafb9ecca9cdb8fccacb8eccaccca897aaa6a99dbbc
col30:   658ab7b67ba8c98ba9bac99ab7cbccdbdca7da9caebfbacdd979bec9aabca6cca97ba8c7ab6ca9ae
col31:   d89a8ac8bcd6a8abebcada9debb99a9ddcbed99fdeb49cabccb9c9ac9adae7bd9ab9fdb7caaac9ed
col32:   66f8a3bba766c7aab9a89deabdcababbdbdb9ddba8aadadbadb8b98bacbdc77bcddeced9b8be899c
col33:   75974adb8afa9d99e7caaddcbd5bebc9c8bea79788ab6cdbdcebaeb74afce588cc9cdaec986dcdc8
col34:   7b7889adbcabaadaaecb97dacbcba8cfc9da9ae8abfed9fbbbcacbaaacbafb9dbbb8abaaabcccdad
col35:   c88fac9fbaa7eeccdd8ebbec8bf6d9d897b7bb9c68ddec7dcbfac99cfaccec9dbaecccb898cefb4a
col36:   9a76fb6ab8c9ba78cdacc9cc96ad5aaddad9cdec9abc7bbcadbdbfe6ccddd78b9aba6be8bcbfbd88
col37:   b9c67aa6abe7fe8e86f8daa9ebbcebed9eccac8adf7acaafca9ddfaebbcdedfdfbada8ba97fcae97
col38:   798889baccaeaeed9a7adbaebcbaccbdbecfbbbace99dbdcbecfdbc9eb7eeecfadd5c8e9edc8c9a9
col39:   a67ac6a99a79d99db87fcadfc6ba9f97fdccaecc8bff9beae9a6cdbcacdc9ceadceacf9aebfbcdd9
col40:   b7b8bc99b9b8c8dc6aac7cbccbbfd9cacabbdd9fbd9bdeca6dafaba8accddbabfffea9cc8cc9bace
col41:   a7b6caaabc9baa6aaba9cfdcbdbbcddbafbfcb89ebcfbbcefceceacdcdfcccd9dcd8cd89ebc9badb
col42:   9d6a9b97cbedfab997b997accdfeebcfdcdcbdbaefd9efefbac9b9bbedf8ceeb8eaccbcfaccfcaf9
col43:   89f9f9b9d7aaa897dccdaea9babbc9dfdafedbdaaefbc99ece9bfabeeaefaacdcaecd8dfbe9cfaba
col44:   6cd998ddabba79edcbbbbedfcd9deaedccdcffcecdbb8ea7efdbe9f7daec4acdcff7dab7fcf97bab
col45:   cc99bbd897bba9aadbc9dddb8afeaadf7cbcbbdfcbcdefdddfdbbbe96fecbabaa7bb7babccfcdccd
col46:   a7a9baa7ddddacbdc9cbfcfabcabcbefdddbadbdccddebf9de9cbbecdbcd6bdcccfbcdadcacdb98d
col47:   d6898caf7dddbabbdec9fcebbedbebdefaddbbcbec99eaecafb9faedddbdddedcaccdbabfdfbebba
col48:   ac78baabfacdcd77eddca8bc8baae98bd9cedcfcbadbee9afcaefb8ca8dc8ca9feec9cac9bafbed9
col49:   eb8adaacd8cc8baccdcad8bdd9fcdeaf9acbcbdeebdecdedcecddfedccffefeceabadffdbbccdefc
col50:   ca9cb8ad59cebabbdeaadbebcb69f8afccdcecae9bddcfddddd9cadacdffdeadbfed9fbedbf8dabe
col51:   9989b7b9abab6ca86c889e97768a9dcbcbbbe98d9d8beb7cedb9c89daeaaa999d9ba78c48b8dcaab
ROC:	 BPix_BmI_SEC3_LYR2_LDR5F_MOD2_ROC5
col00:   434448945747453745874a7515997858878a546759c84b4898477899757868b45667447758187558
col01:   7678367b685346787255757a94a88788a67678968aaa878c779b797bac95897d578a79a865d997a3
col02:   4563926479653786888b49a794a8eb6a498996998978639ca648b977d7a9cb599a5a685a6c756881
col03:   8436454677667646655a957977ba8abb8ad4a67ac9c8889bc7ab96d57985aa6ac997a699688a9578
col04:   55578562674a967547a8965548348aa8c7bb9979785a6e5bcb7b6c8d8138b7bb598b9a8847847aa5
col05:   68346383722773a47a9b5b5a854b79eb939bac68889988986c898b77949878179849abc79a75e863
col06:   6378444598a9699978756b8a98ab56878cc76b6e8786847d797b9897cd7c5baca494479b97597667
col07:   b8146697555763d486e788dbd54994a99b8ccc97a97688da98adc79c9b9b98c6c7b4996adac9a884
col08:   7555843946797a44a8a9598b979c78bcac9b66798d5c86a5a98aea8ab9a997ca84c97978b98b9d5a
col09:   7a5566a399a53766a84895887a9a76acaa79a9c8acba7b9688aaaa778bab5a9867a8968793cbc865
col10:   72556b772558568643d974a85caa8b79e94a758889ad97778a99a7bb6ca78d4ad786857a76398727
col11:   6373554a76a688762767866879a98a6aae969aab9a7b89d888786798969b5aba8899967798463981
col12:   8747439558998596694945a99a8cbe3a799e84978a8cc5a77968c979b9679a578a99f888a77ab694
col13:   b99515ca6974887aa597798a886568c778989599aa87bb5ca9967caba577bb97b8b97a6888888756
col14:   352556196877a7898c6b9978c79a99b7969a79a9d6bdca5b469b63aba8c4bcb7a55b599674477963
col15:   58676a89576a88888b96cc98a89bba9aaab9aa8bbb6a8aaaa877a8568cbab655987bac4977666757
col16:   95579846686598c9997c9a9abaa9599a89479cabcaac84b5a4a988b9ca886c18947b458389487298
col17:   6429136773566a78878d56a8557c7b886cac89687a98997857698a7c7989c9a7a9786a6999889744
col18:   22346455aa778991547998837d8556a7a56abca78798a5a6bbaa7a999ab98b6a747b6b6a66767345
col19:   57785567b7a86598a9f6ab95cb5a77866896aac8ac9c9ba97b89e5cab9a7a87a7869869686856396
col20:   347a57694538756b758a7ac787b5994d5696775c966997aca69ac77a99cb97ba69b8337885849985
col21:   a44b384b73669795a6c7ab8689aba6bc87b4859c788b8a69858b7a887db887988795578aaa988361
col22:   77267658a596a7b47a764b6a998a8d777b6799ba956b799ad78856aa9ba3a788965998c787967575
col23:   4a659786797a86a7a779759d99aaa99bc9baebbb57975499aa79ab58846777888988c78b69a76941
col24:   b5465c6725579c6999aa89a8bd7488bc95aca7698ab777acacca598b7ba649aa83959a967865b466
col25:   854888bb999aa69777778ab988899cb7a9cb767fbaca9a9b988acaab7aaacb9abb6855999c4978c6
col26:   9579797c975b99b9db8ab9998dc88bc9bd68da7ecbd9a999b9fea8b9aaa76b8ac77c7ba59c4997aa
col27:   25846b785478ba99e67587a9a7b96b97a9cdda9bbb9bab7996da999b998badbbbd77ba9bd8979865
col28:   9b688c8cb59b5dac795bbb889cd9eda8bdcced85ac9acaeadbccae6c9cc6888a9ba7da9984895597
col29:   977768bab76beddb9ecadabcaaeaccee9acccb8add9beacbac8bcbabb97c88a6964ebbb9aab867c7
col30:   b348978b6b99ba6988bdbfbcb77bbab989b9abbec8d8cccabbece9a99a79e8a8a9bb985c78e87996
col31:   a997a87aebdb76aeaaa7c9fba879d98abdbeccddbbdddacba8bccd7ffbbea8888cace8cbab9ac9a8
col32:   979aa7e747a65b587bfbacaecbc9acdb8d7fccbcbcb9c9d8cbcbbb9bbbacfcb769e68c8acb69b57b
col33:   a89767b7bd87989cab8aca5c95fda6c9daca7bbababbecbabdb9cbecd9b9c8cbca99ab9bbe964aa9
col34:   b5a5969b89968dd9c7c6aed9aa8e7cc5bdacee9a8db9cadacbfbbc4aeaaec99ca6bbd7d9ebcadb96
col35:   b6b6998768a49c98bdd8dabfa7aac8cdada99bfc9addcc8d8ae9cbfcbbbd7d899ab9dcd9b978a79a
col36:   9abaaac9e9949bdad58c9dcaecd7d9e7cdcbccaaeac79c6babebbe9bdeefb98b8aa89cbc87986565
col37:   bbd9ebda98a5caacfeaabbcbaaceba9abcc6bbd79dcbcbbfccac9edfdab88bccdcb9d9ecabb96afa
col38:   98985beb6fb5b9bbbc8dc9ca9eaacaedbbcac7b999bdedaebbddbebbacbcbddc99ccc8acc5aa8a94
col39:   baa9ab5b77b97ccc9d8d9bbc89bacb7b6bbbd9bbcdddfcdacc9d78dd887bacaf9bb8bbca8ac98a9b
col40:   4884aaa89aacdc8dadbbde9dbcdfcdacdeadaccbcdcd8d7cdbeb99cec8dc7cdbe9bbdd8e9a9c89c8
col41:   c8b8998b8a9c9bfb8c9cdc97bddbfbe8abccbeebd988edbedbbfddb7ceeafca89eaaec9f99a7a98c
col42:   bbae88aab8a8c8bbcbbc9a9afad9eeab8a9c9edccc8dbecebfbddbccfacbccbba9bba6bc9ac7cc8a
col43:   afded9abdc9ec9ebfa8b9eaacb9fbbae9cb9f6fcba9fcfbdfececefbccb9ccdbeb9abfaaecccfa89
col44:   889b99a9bccd9cb8bee9b9ccfa9bbceeecdd9fccdffeeedff9abe9bdcaaede7b989accd9cbc8c8b6
col45:   765d8baaaacd8ca8d8dfebceab9bd89ccfeecbbc8ceeb9cadb9deaabfcdabeacaadfc8abebb9ca87
col46:   e8aba7ddcca88869bbb79febeaccbecfb8ed88fdfdd9eaabcecbecabadccbcc5ca9cba99eadd98b4
col47:   b9bcdb8bbe8acec7ddeba8bbacdbdeddcfeeeebabcaccbcaffcfdb9bca8b9adacddbb8dc89fe8a68
col48:   8b9ae9aab889c9cd9d7e9c8dbbdc9caafaacdebaefeed8bacfccbfacfeabcc8eba89c8dbccd8eb7a
col49:   cafbf9adc9ccbadd9aedcbcafcdceac7aeedcecdfacbfedbddbc9cbe9cbcbcdcbaadaecf8fa87cac
col50:   79c89bab99dc9beba6eca6cd8cdbcddaafacbdeaefeefedfaecddfbbcfcbafbabfaac6ca7cf7cbca
col51:   9bab79a683ad78adc899bf89bacacdad9bc8bbbbabed9ce8c9afca9caaddabe7a79996c9aa88934a
ROC:	 BPix_BmI_SEC3_LYR2_LDR5F_MOD2_ROC6
col00:   3636a46657684698548977928aa78bc85a846968a9a89a58657896869aa68967876977a95987a451
col01:   569749999a689a689ba7cb8cb9d7789cac7bbadc9bac86b98cabb89498377c858887a9a6785a75b9
col02:   2944a77a54fb9b976997976c9a9cb8fcc89b9bbd88cca8868abcc88be987b77d98c9995889a787b7
col03:   45987c8a84a775969a88b7959997bd9dcaecabcac8d799da87bb99e4a593aa998a69c7b8ba97bda5
col04:   79677698466d89ac8bb986bbabdbb9bcb56ab9db9b98cabb9bad69a67789b8a589b8b8a6759a9ca7
col05:   377468897b78a973887ba8bea8acbc9aaa79aaadcab959689899aae8b7c765ba987ab8a8b8caa867
col06:   757786559799cb7488c49a9a6b8da6ca9b6d4af6a7b9a7d775b87abda6b8757987b6e8b5b848bc77
col07:   6678a979f69b9488baa9a68aa9bbaa79cad9c66cccaaa8ba8ab5789bbcca9698cbdca9c6bea58b8a
col08:   a7ab26a9c5849a669699cca9cbb6bd9bcbb8a9ba99d9a97ab8a8bbfbb9c879aac8d7d6c879c78ba8
col09:   97699d9b697788aa878a988999969898a9bbd99a6ed9c8bdaaccba79b544ca98bb5757977a995775
col10:   666ac6d796c9789669696ca879fdcc9cc965aa9bca87d86899d8a9b9caa658b9bb69aadc9a8babb7
col11:   66947878daab6ca6997baab5c99aacaaa79fbac969ba888a9bc8a7fce7776c88b97baaa58a8cb773
col12:   978368997aa8848c8a7c9a68bdcb94dc99a7babacbb7f886fbaaa9588ebab887e8ba9a67a9b68976
col13:   9a78c6767578ab5a9cc8caa99caaaa8a88a99cb987d9888feb99a77ada66c7aa8c96abab996cad37
col14:   5c9467c7bc78788888ce99a799ecbebbce9cd6cb7ca8b999b76abb9a8a989ad8bd6977679b4bb788
col15:   6667a9b858a98a97aa6a6987a9a95f8977c87a5a8bc9eba7ba5bca59a99ce688a7c796cba9857998
col16:   b7748669a9b7787a698da7ba9c9dcc756b786b9d97f7b8ca8bba99b9db98daf7cb8a487ad9989894
col17:   99975756977789ba8aa88a88a7abcaaaa9b9ea9c6daaacaa97d8da6a6bded9bb998aaa758b797a97
col18:   6a8368778a9a8c97c9869b78baba8b9c68abcdba9ddaed6ab99e78a9d7867cba596a69a7778ba496
col19:   bb9ac7b7788c58a6caabcec88a99b9c968bbaba7d8aa8a9fb896bd5afa9bbcc937bda7788b997aac
col20:   99669859b78b7ab5886855b589ba9988a8a89887c68abbf89ad6a8a67c8897d6996986baa5876785
col21:   77764ea77b9d789797789c7acb76aaddb9cce9e6cadaa6abd8a9ca898acfab6898b59bb9794cc795
col22:   935a99a9aa8a5b9678a87b6c9a879d8795b9cc9abced7dd9ab8a996698879d57688957969779abb7
col23:   6b762a17c9a6a755797c8aaaa6a769e6acfcc9899a8774aba96c5abb5caa83aab99cd58a8abba857
col24:   987b7b8884aa84a88bb88947ac9d8898fba9a9d9dc9adeadcb5ba8cb9cb65b3776b479769a99b979
col25:   66d7a9ab7abaaacb7a8d99b9a9b9dcb6eeaaeea59b9c7baa8de9f6caac98b9bc9bb9aa789aa8dcd5
col26:   8857aa5a7b89bb9cbcbabb6db6c89dda7dda7b89dabdd9a8bbdeccbed73bcbc8aa9acd8acd886d98
col27:   88957a7bcdeaa98aba9c8b9b6cc88cc8b87db97c99f8a89dc9f999a7ebbcbda9da6d7bb95cd8a7e8
col28:   71866e9bd66b9debd8b889cd9b9afadbb899f7ddbb8bcbccfe9bbbbacccfd9bab7cdc8f979bd7acb
col29:   aaaa67e87cfbada8b9bb98b9edab9ddafaa9aebbdbdbb98eccebc9aacdbf8ef79abbb9fac9ccc999
col30:   859a7c9edb6bb9cbddb9cedbe6bcafed9cb7acdaa9cce9afcbedfd7d8fcdafbc888afca7b9a559c9
col31:   b699b867dcbcdace8acbfbdcdbbbfbfacdcbfdcbcccbbe89faed9d9dacbabab9cdbabae7cddc9dc8
col32:   b9c98abbecddcb699fd99bb9adbdccabaffaea8babbfcbdac9ca9fecb9b7cc7acb88decebb9eadb9
col33:   858988babccfbaddc9d9eb9bcaabd9ccbcadccc5bfa8eae9a8789affadbab8d9b9cda6b8a88aac96
col34:   5d9cc8d88d8acac75cccdbafddd6ebf8ccbdffbbf7edecaeacceeab7c8dfafdcbefbbaaebba99fcc
col35:   babacfaeafcfb8afa9a7dce9abea9ccbbbd9fadd9be9cca8d98ccccabea9fc9cdddbcdcbcfbcb9d9
col36:   be9cdbb9baa8a59ade99ccaa7abccbccdccdeed6cb9dd9bdac6eeeccbdf9bacbbaadba9baca6bca9
col37:   999a87a9ebccfdaddfdcedecfadbeebcbcdefdf8b8cceccafc9eeebacbcaccce9ffcdcaccafb9beb
col38:   99bbaadbcd8dcedccadb9baaecdf8ebcca9dfdcdcdbfc7cfedc9ad7caacee7faebdbcddcbbcda8e9
col39:   9ba98facdc99bbb9bdadfa8adacdedef49ccbfca7dfbcbafc79decdadcdafbbadd89aa6ca7a5db97
col40:   4b97adbccacadbabd9efdbfbcefddc9b8e7bddbd9ddae8b9bddd9ddfe9eddcddcfecacbcb7cacf78
col41:   acaa97bfab99cdaaccfabb9bdacbddfdcbbeecfcbefce9dcccb8cdfcccfacbdfba7ddc9ccddd8d9b
col42:   799abcbb9fab7aba8e9aad7cba8bbaecf9fcfacefcfdcfeedcc9deabfdcadad8f5fcbbbaaad8c6d6
col43:   bab9aca9ddccdcfddeefcabeaaebf9fecfddcfefefebfcdefcecb8bdcdfdebdedb99dccdbddbeaab
col44:   ae6acbacb9fbee88aff8dba9c8ecaec8eccfdbdfddabf7dce9cdebfcfbdcecacdeefe99fd7e8cab7
col45:   9b7bb8a9eb8c3d9afb8dfebc9cdbe7ebcbbdecbddabccfadcecbccadd7fb8cddcca8899cfb8b7bdb
col46:   4c9bb97ec8d8888b7dbecbbbbbca86feaceefaaa7cbfccbddcfcaefbd8ffd86dceeddbedcdabdbdc
col47:   7acaccebbd9bba7daeddbabbddccf99bddfacbfddebeaf6ddedeecb8c9a999bafccf9eae9dacab98
col48:   9b7caad8b89fdc9adcdcbbbeacbfdabcdabefde9bdeeeeebdfcdfddddbabad99eeaceaadcb8a8cea
col49:   6ab99bdcbadca8cafacddbdabaecefec9dbfdf9deb9fcbdcbceedccdccaddfafcd9b9beebeaedfa9
col50:   aabb7cbfcba9cb9b9ff9d9bbefaffbecfedbfccfb9f9fd9b9fdecbb9bbbafbacb7bcaccdaecacdeb
col51:   b9a577b9daba7b8da9787dafd99749b699f8caa8cec6da99e77aabb7789cda9a9c9879ab669a9ac8
ROC:	 BPix_BmI_SEC3_LYR2_LDR5F_MOD2_ROC7
col00:   7aa86668857957888aa7658887ba676c677988ab968a987699a66d67554789758657887958736764
col01:   7b7138745979f9bd9accc9aaacd89aaccbd69cdaf98aa97ac8ab77b6a76674a9c4465487a8678aa3
col02:   6742427396e6ab69799998bde7acd9a8bd9bc9ac6987799c8aad8c9baaba99496793674758586d39
col03:   65855777798b76a87b96969abdbb9aa3bac795bdacb787aecbb9b78ca898bbca7769c87b85226524
col04:   c88875a37899b76984c957b889da8a88bbdcc8ab785a79d98aa95f79ac9e7b9d845896bc981ab482
col05:   8a59b959867c877b788b6a766bad89ea8ca9da18fa99b7e4ba9d889a88a7866bb5978d6453572977
col06:   7454794667953a6783947ba9bbf8896b968bd7b96667baab857a77a98b7acb95764a4a6885586681
col07:   89a9a46885aa58aa88ee97a76b7b8899aa69b9ab9a99787b999ab38ad97c8ddb76b4987839538987
col08:   5b636298ab57a9aa8bd97745ab569ac99fea8a9b9aa9856879a99da8b5d988a5cb26ab78a4675755
col09:   6937898a84b9cb979a897bbb978babc8bb4c67bdebc9bb6ecd7a4c9987e87a9a7abab39775859556
col10:   877a889896a38a789cb879a87b9fb976bbcda7bca88a798a89a3c98a967596bab961683a876ab555
col11:   878546a898bc969c97598c9848dac8ccc79aaba99c97b96cab48ba4ac986896adb97599a9675866b
col12:   796845847b6885b5b83d7c598a7db9ba9aebca7bbca959baa8764a5d74aaab79a75b957585974881
col13:   b95986eb67757cab9ba9979c7a969a8d8a5e8aba9a78aba89aa879aa972798bd79569b3977956453
col14:   96a5b43927798b87bb9b969bc96887a889bcf8f6cb98ac84dc8d69caca95975a796799a9a8aa7665
col15:   3a9b5c987ad8bb965b858ac8ab52875ba9bcc7a8c9b7a99987964d5caecba6bab665857a56992523
col16:   c8e58727776796998c699e9c8668ab6ba99ccca8cc49ab88ac988ac87987d6775c8a7b64985794a7
col17:   8485a497c78ab8588aa76889696a77ac93db879cd68cb88ba9a8875c8856c986524abb3dab898134
col18:   455a893877539a67a799ac7999d9da8bab68c8e65b86869885d3797c9789a5698868b9737b995578
col19:   49a687b98a5598c8c7ab9bdab878be7ecebca988adfcd99bccaa8998c6d64b9787659a8397967966
col20:   66a27b9b77a6966a9b89989b7b8ba5d997aa69869898ae699486bb7899ba8a579aa7749a57582836
col21:   54bb4364bb96592ea9b9a8a7ac8a5aa9689b89896958b977b6ab793957599881ba73aa87b7996862
col22:   b64797c875666a6768397b5b9a9bdc9dbab96a6c97b5976bc7987d9aa9c78b999587597475754291
col23:   6637a56a97686bbba779a75799d8c98bb78795ce9ac77977ab4a2597b864b86c8a48989349453965
col24:   6a777e899686989896357a64ba9c7bacdacaab87dabb8998b556a95c8976b753893ab44579683781
col25:   a6a749568c4a6ada7978977daafa778dcaaa8ca99bb89aab98799699889c8dc7759d73797683c936
col26:   c5999aaabacba6cabcdcabc8bdba6c7cda99bcd89bdbdd9dd8dbd9cdb8999b8b9bb9a87c89659b66
col27:   69797c783a8da6ada4b797b68a6e8befabbeca8dbbac49a96a9997d88aa8a7b9a7955c88a7acb674
col28:   6a6a687a788a6a7bccbcdc6e9ea9ce9caa9e98e9dafbcba8a9fbd7af7a8bb89baa88a6a9b59a9743
col29:   6859a9be8ab44d99aa99999bba98f8cbeaeb9cc9de97a8ad8baa89abdac7c977758ca9ea6957688b
col30:   b5aca66abb9b789497cc7ebaa7998bbaa67cbd8b8bbccfba9eba9aa6aab99a5b7b9b68868767d765
col31:   97b8dda8dcf7aecca89ba95da6f9acccb8cafd698ddacabaccb89ccb9eaaaccabdbaabdda87bac86
col32:   978bda969869a6cbcbafe47789deae9b98dba77be9b9aecedcbaa87d97cdb98c987be6789c799b46
col33:   8a9ab99c9a79beb96dbcca59ccac7cadaeaeadaabdcadd89eacdcebc7daceb8bbcc9aa5b8ab8b4d6
col34:   698986dacbae9c7beddaadbbff9dc79ec8bbf8dd9c9bfaebacbecdfcdbeb9cbbd885a97a948bb496
col35:   eaa9aa98bad9bcaf9c8aa9c99dcfaccbcbadb9bb9deabf9aebdaa8faaec8dceebfb88bb987a98aa4
col36:   95a68a5ba4b7b8bddb6d8dcddbecc7ac9d99a7bac9fdafabf69ded7dac8ac8ba786ebd74869b8a85
col37:   ac9b7bdc5bdaaa8b8798bcbaa678a9bddcafbbbfcdfcefccbbeacf9aea8adc9ad9bafb96b8698496
col38:   8998c97e6cba86cfcdcaddcec9dcecaa8f9c9cda7dafebffb8fcacabdecfbdb94d7899a98e82a85a
col39:   c9b89eccb89b9cdbb7abaacacdd9bfdbe9d8b9edcbac9adbcbbe7889a6b9aaaa8aa8f99f87aaab86
col40:   5d99b799f9cbbaad9da8cbbbe9b7ccbabbdbfcb57bdffdafcbadfaafdbda8fefcdb8bb99978dba4a
col41:   4abb96ea8abc9a99aacadcac7caccfbabbccafbaf9cd9d9da9dbadbdaccacc9c999accc98b9a77ad
col42:   a9cabbdabde8ca9b9b9abbdcdeafadcbfedebccabbdccdedddddacecadc99e99bbba9cb9ccc9677a
col43:   aaacecb9b8eee9ceaebdafbbadfebbcbffdbaa9efb9cda8aeeaebeefb9adcb9dcaabbbbbac7b8cbb
col44:   abeac9eaba7dabb9cacbbdcaeaceec9debd98cdfddcddddccdebcfbcd9d7ef9abdfc7a7c64998ca9
col45:   bb7dcccd78ba8a98a6fc8abf97d5e9dda5ddd9cbe8fd9f9fbfdbac88fd9fefaca8fbdbc88c7a88a9
col46:   ec598f8abb96ec9c9c8ab9aadddae8cdcd98f98c7e8fccc8f9adbdadfceae8abcc8be9ab8997a997
col47:   7d96cdceaaab8dbdcfab9cc9bfcddbbcdccedccefddebefcfbabfabbbbeeebd957bfcdefa7aaaabd
col48:   c885babacaeb8ccbeeecffcfcad7acabdade8ddbddfebcc9cdbacca8bcfccddc9be5ce69887a8ba8
col49:   9b7a7c9bbadbdadaeda69b979a69caabc9ddcdbfbbecedaf9ddbeeeacc99acfab8ca8c9baeba9da9
col50:   c8ac6bba6dbcdcaa9dfafb9aeecdcaffbfbdba9cd9af9accda9cdedcdd898cececdcca8cb8c877b6
col51:   9a498cb9b5ca8684ababcda76bc95f7daaa9a8dfb97eaabaa86c959ba889a8e788854669b79d598a
ROC:	 BPix_BmI_SEC3_LYR2_LDR5F_MOD2_ROC8
col00:   7764933766582669a55593894387787886569ba9a9c95387d383686a8346894898869aa666772444
col01:   7696884b5bb865b7a68c8b666a999f937895acba8979bf99c8aa9696d999c7d689786588696c9769
col02:   26698616b8386c68678cb78d8a5bcb89c48cbf88ac89a868bb779ad8895d6a3669c8594977687665
col03:   78755569eb69945977dbab9c8c77dbaacfd99ad9da6a36b8a78a988dde68bc9b8c99d9599887d865
col04:   69873886636ca9bab695aba8db986aa96866c7b4c7997c87c58caa6969a5d69798aba778a8bb58a4
col05:   47785455b7b8977689b6ba8ac8a8bc9a8a57677ac6bb87cd7bc99999cc99988999da99c799945893
col06:   674c3a8b8678a8978b95fad7984ae77a69d79a9a94ca6697a8cd69bdc8b86bc9b98d8c998a7a9994
col07:   829a29aab89a974ea7f6c8a785a98cc99a85bb9a8957b58ba8ccc5cc788aa489c7e877c934466853
col08:   948565859a56b79478629aaaaa8aa9ab69c9c5a96ba5c9ccb6769b67d79c7972a7c15654989b1a95
col09:   aab69656a76857a7b9aac79b99ba9a9cc9b799d99bda9d5ea9c8f92bc9a6c75f8baf887aba496bb5
col10:   529a678ac7ca786ac79d9988b76bc97744c7d879b96ab84a78a6989b687967b57ba89aa87a958986
col11:   7168a472b776a4bb6bdd49977b886588b5d86a9a7d6cacd9b689b47b4a769286b475978746978b43
col12:   898588ba9666589a6cac887c47798c5bdb6ddabf96bca9b6cb86ab7b8a45ab96589c8a6764f9fa8b
col13:   8578a3769ac6a997b68b69786acc8cc977b6c799eb65a967db657c68779aaaa8ea99aba9f9b98695
col14:   8769b975a59878896997bb8cc7a9c8d5cbc8a857c96aae5a8cab9a6aab7897d778989479a86b9997
col15:   874346a9c8a678c8a78c6fb47a9ceabcdb7889c77e6a879b96a7f9aaacaaca548da99899c875bc88
col16:   8735937a89a6793555c9db6ad885baa9aa78b9a3bad9aa9a777b689d88bad8b6aa7b87a87ed88747
col17:   645478876848793159776683ca47cc89979bb9b99b9d78a6c88ca7ccd955a7d9a8a956a7956456a6
col18:   296284788a778c9898b985d97e66d6da8d9abcd858acca87edab9c7b73a9bbaaa758a788855b9c68
col19:   4483ca4b8b75b78a68aaab6b8b779c69c957a6786ab7a9cd6cc9a599888788ab3bbbda99c9c88c6a
col20:   368248d99e98b7888b987a657b7cc5a78cb89bbb67a876a6d4aa9e88758777ca75a79a6a9a775ac5
col21:   6897876a75cb8a5a788a7ad79879aaa65aab7a677b7f8985ecfbcba988c99b5b8ca87749bb98a661
col22:   9b378783c9a7698aa6a89879968bc7976b76aa9aa68bc4c8b745aa7a9999ea9c9995896936799666
col23:   8877558945d7999b7ab7866788ca87bacc8b88a87b698b9686cb888ab57aabd9a88aa59db96a3696
col24:   4a55595c956b96ba6566a8ae799a6ab79caa559abbc7baa78a869b4bba6be8bbc9c4a9759c73678a
col25:   55ab1768664a967ba8dbb888ca6c7b9e9b5cb9859c7f5bb9669cdd966b97c9ab4b9b6ab8d8b953a9
col26:   555a589aa5caad7cfdb99588adc7c9c899ebceabceb9bcad9ca9d896d98b9ab9bda8b978b9a5bad7
col27:   6888c8a7c9798ca9ddcb7ca9c8dbcba99c9ecb8cda98ba8bd87ba977aa99aa9bb89ab8cd4bd79c87
col28:   596ab8ca9997bc8e769b7bbba99fd98ebcc687da8dcacbdab8acdbe68a879cbc9ccb9aba7ada9ab9
col29:   78aa6796a9ba8a5888bb7c9a8ae8a8bcbafdaab8ab97afe8fb7cd8b99799989a9ad7acba9ca8cdba
col30:   85878869ea6aba7cd9aaea88bb8ca8b9a9debcabaef8cfcab9cb8cfa98c8c9db8cdae9faa87ebbc9
col31:   a7b47abbebab8dcbadd9dcdbc5b9abac8cedd6cee5bcbdcc9aea9eabcceaacafb9cb9ec6bd97abab
col32:   58caa9b9c9dbaa8b97ddcfaffdca8dbccdbdaceab9dafbdd997cacfbab9aae7f589cccdf9dcbd9ba
col33:   4779d6d87bcaafc798a8b66b6bfe999cbbcbeb8cdfdbc9babdcfdeb789ecdc7a8b98cb9a9ea9c6a5
col34:   c889b588cceaa9a96dc4abaadfaaaff8e8aa9c8dcaabbaee9c98ccbcbbedfeadaebcde5aacba5baa
col35:   cc7855bb8ebe9cfb8aa8ad9bcfe9ce4adaad9b989cc89dbfa8cfc9bb7abbbb9c77c89cbaf8a99ba3
col36:   965b94c776cbdb6caacbaac98edeac88dfeebbebdb8aba7dfdda8acadb99beacabbcbcbc9d9afd7a
col37:   6787e7ced88e9a9dc9a98d6abcddcddec8ebeeaaeeddfcbfda98bcee9adccacddfebdaafacb99aa5
col38:   a4bbd8eb9de9cba99cc89acddeccdccbadf99f98adcebcefbc6e9b8eddc8aecaefddf77cd8c68cba
col39:   6a7d8bbcc8ceb9ebcabfecbaab8ecdbbdeeab9b5adf9dcdebfc9c8fdaa87c9eafaa99eecb8cbad6a
col40:   9b8699abaaefa8ec8aa7ca9a9cbe9a8fe4eccafdcfbcfbbcacab9cedccbbcdeae9dbaeea98aa9b7a
col41:   989d86acbb86a6c7cbbd9ebdccdddffddbdcc9bdbadccdba8989dffc8babcabbfbc78debb69a9977
col42:   8cba5c9dcbb899abd7cac7ebdfa9bb8bdda8dfbbac7ccb6d9d8dbddea8fbdfde6fbbc9eb69abcaad
col43:   86c86c9aa9cdc9ccc86ccc9d8eebbd9dddebdcdcd9cdd9e9cbcceadc9c9c9cad7daacd8cde8aaacb
col44:   697988ad8babbba9bfbce9ca9bddc9dbddabcdcefceec9cbccbafecbbbfaebad87aaae9e6eaaebe9
col45:   ca7c89b997a9a6aadbebbf89cbdccdadfb9ad76acdacacb8d8adfaabacecd7b9b6b8b8ac8a7f9ce9
col46:   878da79cc89d5d89d9ebbcdebbcaabcdeeea9bdfabbbbcbeefede7d9bbdbedf8e95adabacbedceb9
col47:   9f84ecadbea9a9ba87cacdbbabd9efecbcb7ccb9dabbfbdcbeadaf9b7beceddad9ebf98dc9b9cceb
col48:   a6b8bcbe89a989e8ebdfde9dbabbacba9baeccaec9deaea9bccbb8da7e99aaacddbbba89eacc7ba7
col49:   a9bb9cac9b8eacaeb9ada8bcfccb8fbbbbcfbdbb9bedb9fadbb6ca9d8e8cabd99a8deab86abbaaee
col50:   39cace9cc9dde98ffaa8dedfe8ebb9bbeafe9bccebbbbdb87ddaffefccf9d8ddb9a9eb98efb7c868
col51:   b669a8b6c9eab99bc9b68789728a6a87b898bcd8bca789b8cab7a887a6bccb5c589d98bcc98d4bc8
ROC:	 BPix_BmI_SEC3_LYR2_LDR5F_MOD2_ROC9
col00:   b796773618654a6596759d7a399aa8b99a864ccb97398485869754788797a644baa9a64571244741
col01:   7ac8687b55976876cb9c95b7a86a7898baaaded674a9a95c6e348ba88ac9b537a7781a5389664394
col02:   4ab95796748978a59aa8bbb9edd6a96879cca7989bc9d9cd957b87968fa6b7fa768f4a81a5759534
col03:   9b68985786b497bb9cc7858c86bac9b9b6d68a98597bccbde59dc78ba788799aab98c76a98764a78
col04:   6a6746998f956ab8a766babcd78877d96a69c78eba9988babaa9a4acaae8869b5a99997a4a969897
col05:   582588497854698c7875a75a6bac89a899aa5ba99d89ac6d6b6d5b69778999c8a7bb864686d79715
col06:   734358a7495975a57a98c679acba8aabbba496c5afcaad89aa75878a86aac99a8779c7289c537986
col07:   857a58848858a7967a79b6ba9b7cbcb877b869b7a9b5aa88ddedcadaa54a5663bd5858b948947986
col08:   66662867495ba4897878958bac6a9659f9ac66e88aac588447aba799b58a87a858c9b99a66856856
col09:   4a7947689576cac5aab66865ca4bbcbc798ec987a7c7db889ebfa79b7cabac79a96758c779a64756
col10:   87b77d9787aa68ac39879acb98abad6c6a8a499ddcaa69999669dad8abb939b6c56ab77a95858532
col11:   67679889685775669757987575a7a3aa789a7b7dc888a4c6bb8c55b89a68a54c9787b894b72988a7
col12:   7485379aa7856ab8b9ca9b9cc7a8f696979a5a8aca5c9b7e77c7a489a99977b657677ca6c9324a93
col13:   66746a5a99bc97f9698b687a7af8d9b89fba7b89abcab7a4dbb99c689d796e899ca8b7737b5c4b85
col14:   3aa55577a678c8d79ab6c7bc2a68cab7b7794a9bcb86e8baadc58848779ca5b66878c94a39557c54
col15:   8467ae797bd9689ce8b57677557aa869a9c2468b989a8aa6b84717b9edaa964b79857694b8462577
col16:   6877a57aa9798be78c7a84b5b96c9c77ba9689accbeaa989acaa9b65899987689b7aeb877875a875
col17:   49796997979a877a7957b7c7aaa56a8a99d87b688a58489a589dc667ad9b76b5579421a389575824
col18:   5889998694b5aa6aa99b67b9cd769a8b959b479aa8a798c996a799788a4a668857aba587a6694667
col19:   56355959956a8938997599b94c876c89969aca849b86b6869897a8ca97689c864a567aa8454aab84
col20:   78c7a779898649a8c7b6cda7cdbbcbd7adb9cdc68badb987b5ac87bca78e79696bbb8a5935655776
col21:   7a65927696b6aba88ca9baaaea97959bcafbb9869df9788ca8aa685b788ca88eacd455678a9876b3
col22:   375783777a6686658da69ac6e6858979a97a9bcb8a8b99a88bc77b54aac89b47ad4ab699a6996465
col23:   4797838c58887c96968799ab88b7abeaabb9b798b9afd9e99ab95a898c82b798b4a9689ab7357684
col24:   77867c7899a67aa57a99b7fba68699abbce9d788789bcd9caadb8c78bdb89c6587b8677577478573
col25:   6477645db97867a75a9598869c7ba8d7aa8b8acc7a79bb9798ac6a8c9c88a69b598b5b8937975363
col26:   69878669bd9ba7adc5baab99fa5ddaccb78d8b9a8eeccd8fbca9bc8adaa966bbb98b98879a993866
col27:   8e97b9cb9748979b5f9bb9dcbd998c8baeaeaacfdfd9eea6bcd9b788ad5a987fabbb6b8aad68b896
col28:   acbbaaaa66b86ac6bbd8ab8bae9dd9ddc8dac9bac6c8cdcbeddac8a9beb9bb9bfcbac98a798b8698
col29:   9b6b9e9a9ac7c9bed687b8aabe9ba9aabaadeeaacacb98cbeb9badfbbcdd7c9bcb9b619b9aa89554
col30:   6a7b9c89ca7acd7ad9cac8e9d9c59afeeebbddc6ff98f9c99cee9c99ca8b9b9c79668b5ba95d7869
col31:   787cccbacabbfc8cbd8bdabadfafeadaabbc5cdeaf9dcbd9db6aabd8b6e8fea8de7d8dec97ef7567
col32:   c99989bbc7bbee9acbcba7a9ebdecddad9afeec9fbdcabdbbbc9a79fbc8ffa9bc99999c6a9f698b8
col33:   988b3786d96bbbdabcedddccaeeb97cc9decfa79daddadeedcbbbccccdbfb7a9b79e9f6bcbcc7bc9
col34:   8ab99b9aaf98cca9c9cfbabccadedddddbdebbdee8fadcf9bff9ca6fd8d9fccb8bb6798e8657a8a6
col35:   7ab9b5779b87ab9aa9bab6efccddbcdc8aea89dfdffdabfa9ecdefcaaec89bebe8aa9b979b9ab597
col36:   98babacaccaebb99cfcbcdccfbaddcfbbcacecfededeaadeddfcaffc9eb98edbaaa8fb98ca6ab5c8
col37:   ababcaecac97999ebfcbc76fcecdacbecfdfbfcca6afdccedaddadd7ebeecc4faaadc8997c969bde
col38:   bcdbacbbafce69db9accc8defe9eedceedcaddcfb9fbaccfcfdbbdedcedecceb99b89c9989ab9456
col39:   bcbbb7c8bc9ca89c6bc9addeefcdfbdefdbefdbecedcdbccbfd7adeeddbb93adbb4ede877b719aab
col40:   98bd89fccbba9ccee7d9fbeabcf9febccce99fc8ddf9ea6dcbfbbdeefaba99bc7dd99babe96ab6a4
col41:   aa978c9b99cb7bcbe7cdbdbbaed8bc9fbcebddbbffafecddbecadad8e98b9dfecbe7aabaf9b68c68
col42:   a77abdcdd8ba8aada9c997adecefcdcfecd9dfffbffedabe95ebabe9fb7d8bbdeabde9bf9d878895
col43:   b689bbe9bbd9bcaba97dccdb8a9bfcdbe9adaeebfd7bfcebbdbb6dcdafbbb99bca6ce97c69fc9cc6
col44:   aa9b6adce4cbccbafee7c9ac9cadcdafccccfffdfedcabdffc99cccefdc9a999c9cbdddea99cab98
col45:   87bcbeec6bdbabc99b9dc8cae7cad7dddeefcffbd6afcefadaca9c9bfc5ecaafaafeecdacdc9ebca
col46:   8a7ab3cedcacf8fbcaa5ab9cfab89cadb9daefbc9dbbbfbeef9daf8adffc8cab89dd68fae986a8ce
col47:   ca7bd8bd87abcbcdcb9ed9dbbdbf9acbbcefbcfdcadbefbddbcfeabe9ebc9c98beccccc998aa96a5
col48:   999bf5bbbe8bb7abc7ceba8aadbcedeeafb8bbccca9edcbdb9bed9e9dbfc66e9baccb8878e7fae96
col49:   7b9cd5fb5bab77bab9abcf9c8ffcfdbdbfecacceedca9dbef5bea9f7fabeb6c989c7c896ab6fb797
col50:   99aaa887aeacb8a7a9d9aacd8ddeefc4dadcbcf86ccfaec5cbcdbebfccdebdca9dc99a9bbaf8d797
col51:   65858a2e9799beb9aa9d6b7cca7dcaaa99caadba86796d999888fbdbbb76cab73b9a9c878722ab85
ROC:	 BPix_BmI_SEC3_LYR2_LDR5F_MOD2_ROC10
col00:   144547536642558597886b53847a675768578966a66896799427b878567667586748646665936182
col01:   77868a88a3667a78a8b677a887b97bb878566b7d4a9ba758976b7c9978a8a5767a89b6a667849743
col02:   68856945647b7987869a8baaaa9a974b8b578b897c596b5867889798858a89399a69938837685827
col03:   654a3315588887597e5776a96c86a8a87875b78987996598388b7999757aa4677787966875737769
col04:   54aa647898757669879a6976a86cbaa8788bba9b69768bb77a96b989977979974665376698458527
col05:   4558878698474646b984859d8779968a9976c6a9866aa9b7757969767957862767996a6576477345
col06:   465667595aa43647a97a766747aa8bbd8b894a8ab89a795577bca89c969ad877817475785b7b7735
col07:   888b96938bb62976696977ac6d6865c58a4a67767c8ababc999bc8e76395997ca689886678777774
col08:   68297774ab78469c6556b879aa778b88993467b8869678cba967c496968c4b6b99aa88a768b35516
col09:   6875976666b767258658999ca84989aa57c7b77689a75dd68987ab567b89896779d9a898598d8645
col10:   557c59586589974ba7777769778a976b859d6a89abda97999678c5b5987578b754577768a7583786
col11:   62a5ab568aa9891b88898a8b9668aa99d5988989ca97abb889bba6cb73588968b568465789664651
col12:   b656293965788a36779a49987659c867988d6b9a7a366c776bb8577c8aa8668a8777655ac82e8787
col13:   9667768a68689578989cb6bc777a58497a7a9cc98aa7ad8a99a97aca9a67895b86a54a3866a9a465
col14:   676974c7a59c779cb799a8d989777888468897978678bb6aab78779a7b96a97b6897765368747b5b
col15:   48a45a846a97a9987779a8a788acb7963ab9b69a86686c58aba889795a8a78876574697ab5857765
col16:   75597558698a97775868879dbb8b69968a9a9a78889b8848a79ab499a6a76775839745747aa75869
col17:   236766a845a5a9ca8976a477b68947aba69ba9aa999da8cba89699a9799aa843668d799b774b5687
col18:   657a977487981a89897969aca876989ba9b6b8a79959688a8a7898675a79b89b35776385a9798474
col19:   5466747b73768976a99697ba8b969ab87499ab9aaca79aaa9699d9a786ba9b9ab859a6559989674a
col20:   878748c48a7a577665999979ca87b84b84a66988bc679bc9c69e5a6a5998b76978b747c6586557a1
col21:   2657986577566694787788d897b79a969aa98e8baabba8a7778aa58b6998787a9435c85565696885
col22:   88668996289b989b66ddb96b669699c78bc4a68a9a8a675a89da9a8885868b8945537c76a8497245
col23:   77287849878a5759b66a969ba77c6a797883ba99989a88b798a8d99a99a667a97a9366687756578a
col24:   67685637757788797ac989699789388b88e87979a968599699baa79778867b6694795477284785c2
col25:   5577378857986b8da59a9b7c9ba7d9896879bcb9cb598a9bd6a899c687c95a85897778a957797646
col26:   37869b7899d888789c9c699acc76cdcc89a8898aba99a7a5bd89ba8a9dab669897a9aa89769a8786
col27:   665a99775a9c99a96a79448b7799c7c899bb798ab879abb9aacd7ba9cabbdb9976de77c96994a464
col28:   723777658b889859baa9bc8b9d9b9baa8b9998899baaadba8989b99caabad9887587b76a56976779
col29:   728568bb977b97a9dcba998ca997998bbc9afba7a9de9acc9eada7bcce9d8bc8f998aca9978bba88
col30:   689ba69678b8ca8dec9bac86f9de776adbcbccdbdcabecdb8999add9bb899c5ab88aabcaa686888c
col31:   798667d98a89a79c9becd7dbaeaa89d7c8ba8bcdb9ca99a8bac9d899b9abcd9beaa6baab656a9a58
col32:   89a9a5aa8bc9cc48dc8dbdaabb8ebcbba9abaa9b9bccaabccbab7a9cbbccc8bace9f79cc879a7a9a
col33:   bc7a8b89bbb98cca69a78afdba9b989b99bdaacab8cdac4a8d9aaaa8bb9a978cbcb9e98777ab8a9c
col34:   a88a78989f8c89dd799cefaddcdbfcfbadebba9aec9b6f9e9db87c7ecd696bbcd888bcbb8aada886
col35:   a9cf59c698b7cb9a6bb9ecb97c9aaadbcaeacd99b9dbbbac9babad9cbebb9e8ab87c9a8997a9a966
col36:   8bcc67b9a9ba7bb6d6aa89bad8dcba9ad8bb9bc9bbe9aebaaa9a8dcaccfa9699bbaab898b7c59db9
col37:   778bb68a9a668acbba77aa98aeccc7fafcc88cac8b9fcaa9bbbcbb8cdacb9afcf8c58c78cb9a9ad4
col38:   baa8c99babab8cccb8dca99fbadebcdcabdbfcc8abac6d9fbddfcc8bb85799cb869dddb7cc86a7a9
col39:   9a8ab9c965aa769bd98d988cc9dbe9a97bacccca9dabaaedd979cda89bda9a5b88b88a9c87b6b787
col40:   ca8a9baab8c7ca9aaaa9cbcbda8bdfdbdfabb89aabaabbccafbdcdc69dcbae9d8bacba89b9da968b
col41:   9c8bb8abba9ab7d7cb8cddabdbcac9dbeebaaecbecba9cccd88ecf89fcbbdaae9a8ad9cdda6d9798
col42:   8699cb68867babbaaa9cabe9bdccc78ce99fbd8bbbcbc88becafdbcba9adbb98cccd9b88db86aa87
col43:   abea86ad7db8babdddaeea8bbcccaed9fadcaebc99cf8bdcbfddbbdfefeba8dcdbddccacaadab9d7
col44:   8967eb999cc9acbc7cbdcca9dbbded9e8cccca98dbfceacfebdbdcfdabccb88bacdab989a7a9a96b
col45:   899a7888ab9b78a8baa6c96aadd6ddbbcc98f79a8e9bcc7ba7aded8bdbdaaea8cdab69abb8776997
col46:   aabbaaab889cabaadcdbadabbadcabaaaba8b8dbbbabdcaaabcb8d9abbadcd9ba8c87aaa87bb9bc8
col47:   bdbd8c6f8b98bb898b8fb9bd99cbfadded99cdda9ebf59fb8ebdaecddaacb9baab89bcac99d6ab88
col48:   aa77cb8c9ec8fabc9a8a89c79b98bcafcabbdaccaeadaacedcdacbbecdfbaa7fccacbccbbcabc887
col49:   b8bb97bdba7caaaabbfa7fea9c99cdcbcda8beaaaab9a8abbbc94aadabeccda59eb9bdca89a699e9
col50:   9baacb7bbacaaa9ba9dad9bdfe9b7dbbd97e9ecfcdbcabcfc9baccf8bdbbfc9b799be89d976ab6a9
col51:   69a777b8dc6a86a6c9ab8abeab8bb88caabba97a9abadaad9bb88bbac5aaaaabbbc67c7d8b7c98b9
ROC:	 BPix_BmI_SEC3_LYR2_LDR5F_MOD2_ROC11
col00:   32363584366731533467867446586993858531234746235666475896157354376957634447663922
col01:   6364741d7548a955187877878a788892988738647978843979454d596788ad753a568a14836469c5
col02:   3357662464769563867558a666645567967296467c9d5366ab5565978696b696966a778583955645
col03:   654331444655398379a849887789695673759158783696983668696887a6659763588457631a6643
col04:   23731487465378a256a3b892739a8c558a9b8c6546a86678b8955a758598aab7676879a583488a57
col05:   4674335443c9b5548666b9898664983a757664996585656575496784749799489387699677584971
col06:   564416a42343756a5758777987899869976776a492a645777758387845849c998596935a4849a794
col07:   17574754674a65884867874d869582c9b8a4689889a3a96a3aab96882b3669688a9b88cc68489997
col08:   51479a21369634538786b79675a68a65977974674859889262b3879a96675a859d15c7678c68a9a3
col09:   1137a672567261a7986777777c9989665a98679d748867656836692537696558976c6865bb79ac41
col10:   8265665571947538658686b3a589879889d5a8696b2466787986686a766539a7957379486866a447
col11:   6a75674379547a478669695a7844664b82a35587865966ac6689a551887d5a7795848735728d6783
col12:   3424444997568782a5a697a5659a9889798a897b6a9649984699545734cc49d5aa7788a73c922795
col13:   132364724969a59487d8844a8789779585a8aa98a3b5568848db87789678775669669a6885995687
col14:   86557835579554158465987658a94789c87c7a9b886975695687578799689b6a688d58b6a4579c57
col15:   342594166117877717297976648b775675498655a54849768522978a8695a9566475296444a65963
col16:   461187769174798869964a98846879888697a748b9736a1585365868848766765835889559779979
col17:   43764b387836695554469955948a438a186489785a8689a67726a86154639b768664b7b782799636
col18:   35735761161817788587e7835885b7568678a836945638696a7974535866469715a83737a4619258
col19:   95357b6878771998743976576678a7777c7c8697579667a4c88b96bd76593a259866969455438976
col20:   64716956677656a587a6757a95633b8888998b8486a93655778a7397847656583979289a91769376
col21:   471698849a95955987a57691a48483c5442887768993659488a99763cb5ea4b7283754688a755896
col22:   5628645695896678776794b68669559a9595547a4898d77945b8738c979137a9596b7b693766a774
col23:   7948574986a46356687796a4856798a6b86c95586a5548a4488c985ac97898888749847477a47855
col24:   4778865894c674a668585789677866889b2679aeb87a89aaab69a979a798845b8758b85466677772
col25:   52b7a8a87344478c98ab5a976846a66a7779a89685a78da89bacaa777977896745b85877858778a8
col26:   67587a858468aba8aac776665ab97a7ae4b8c9b5678b5767bbada8a8a5779a67d76998654b87b576
col27:   837675559a475945566a698da88aa9dbb69abbb7ba67ba8b78c9b969776ba9aaa787b5b86a877a73
col28:   6665856b98787c985798b8aa5959acd94a787aa899a9a78cbb98b988a98d89aea75667ba579ab9d7
col29:   7847758a99858ad98d8b996ab9a7aba8a8b5aa8bb85aac867a77c97887497978aa69b77699ba8996
col30:   9637758967886adb78956b7882aba8d884c88bca969a8ab4b9dc7ab737a786a7c5b5785ca8997d79
col31:   397774a4dbba88988ba9dc97cfcdb8b9b8b79bb8ebb6bbc9869aabc99d66d7daa9ca9de9bbc75967
col32:   867374a5a7c79a6987accadb789a8aaa9598aaca88c9aa866ca878a7999698a8cf9a96b98bb2bc68
col33:   a8688b7a8b8ed9779589a8da989b96cbbcabac8bab9eb4b99cbd79895bbaba9aa8aaba7ba89b7ba7
col34:   9348a979b99aa8b76a9a7b85a7c7ed9d77a8f68aabdd89cb8ab9ea96ba57e9cc9ca688aca7c8bc97
col35:   75a785689979887b8ccba9acbb947b779a97d8ad969a8d9acabeb7a8b754aaaa3c8bb987a5887a48
col36:   555858989bb968987ad6fccc8b9a9bc4998b989396bb8bbaa7c6a97ccce894a9b99acb76cab6b66a
col37:   68868a9b67aa888bbbaccad9bba8adaad877fea9e9b8afe8bbaac9d9bb6e9d8bac8999aba988ad75
col38:   8878bbca69b94699adb6c998b5bb9a79788ab9ebbcc9fbbfe9de7bbb9bd7798bdc9dbcec858ee799
col39:   7878a467a9b5aa9a88cacbc7b8a4b79d87b869a8a7ecbba98b9acb876d9eaa9bad8b7878a9c8b788
col40:   b14744a768aca6aa4a959abcec9cf9aab9aab9999f6cdd96a9c8d9a9e5a9bb98abc7acccb76bdc98
col41:   a69a9c6c7799ceebd98aba9bbdb9cdca8c99e8aaedbabda9d6aa99d7b6a9acbadfca786ec8ac8b68
col42:   ba598778c685899a96a6eaa99caedbab9b6b88caaafcb7add8a8d97787bdaed9df7caf8699b87dc8
col43:   a969a8c8aa77d79fccbbbda9e8cbae9fe7b7cd98abacbd9ccbe98ebbb9aad99accadcca9ab7caaa9
col44:   76c6c9c98ab698b5fbbacaf9dccb8adbcaae9dca886fdc88add9b9ccabcb97bacceadaaaccceb9bb
col45:   633a6ca8b5986a9768a9999bd6cbd9d8caa8d9d9ccadca98bb9a9a78cac6e7fddb94eacb7986a698
col46:   5ab9894b975988975cc9abe8bbaba8aacdcdcaba89cbbd9cdaabf76a9ac8babfb9f79b8bccab68c9
col47:   6ba87aaababb7bd99cb69caa99bb9bba9aebcddcbfbb99bc9c89a9ada8aba99f6a88a8caec78a8b9
col48:   da668a8885cdb8657caa79d9c9ccb98a9b78bbcb9a7abaddbcbb3ba8aaccbebb9af73aa88747cdd6
col49:   36a4bb58787d9ac8ab9a7b9bd7be8bcaba989dc5da99d7dcc999aaeabebcdab9b9cdbdd99ab9bb99
col50:   549597badacb4caba6a7dbbadc98d8b8fbabc8aebb9cddd7befaa8bccaabca9ccbb9bddb789cda8d
col51:   72748a876548c984a989ac9698b38bbb959cb7a7d89bb85b9b9bc669aab8a7b9b88b9bf7988b6887
ROC:	 BPix_BmI_SEC3_LYR2_LDR5F_MOD2_ROC12
col00:   46988575649796828c896a967856889bba897c8687987899876b573b89487a868886667678776972
col01:   b64655777875abb798876a66c9888d79c7ab6c58baa99bd8a7b6ba78b6988bba78788c89b4817a69
col02:   794a7a8c884d99a8b948b8aaac8bb57a86aba79898859bac69c8a84b7c6b89da794988884a764676
col03:   6555647672983ba8859a8996c9ac49baa68cb5bc98c999dd7578d69aa88c8a76765678b28a68d865
col04:   83596854467a75776b958a7b86ce985aad976a498ebbd9cabcb78ea979a84889998b967a6a787a88
col05:   4a565878a9874974598c797a77a888c6d6b948a968866aaaaaaa585776c9889897a7577877686884
col06:   78984976847965878894a9ab89677968889ab9ccb99aa69f86aaaabb9aa94a996b4c78685967a5a6
col07:   9aa988578976bbd9a89b96a8998795bb99b9db9a79bba7b87bab8ac898896774dba9978b95877595
col08:   58b8569677498977886d894a989b7798bb9bc8ca888997aae6957bdaca979855ca675ac9b76aa487
col09:   9c79a8f78c9888789b8a8c8a9d9cad7995a59a96664a9f5a6dbc7aa7c799b9ccbb7699c4677a8739
col10:   9a88568758cbb8683c8b6aab8a9ec7b9bbac98bb599c8db9bbacaa5ba88869caa98a878749538542
col11:   9649aa7977aa8999b9496aa67f7baa9d58a6e67886769b9c6768bab91778bcbe8ccac96375a77985
col12:   864d569887279b82bb8758d68b9b9ad8bb9a8db7cc8da79a9bacc677bb997ba86b8bcaa725962861
col13:   685937ad5988db87aa9c7bb579b6ab987aa89aaaaeb8ab9abcca9bb8ab967b88b7a87a8a6587da74
col14:   4766978988b56a67a8b89797bcbae888c8959d99aa739db879e8c9a7ba8d98acb9a5967895799785
col15:   97589b8a74baaaca6aa9c96aa68987bea88b977c96988dab8668e88dadb8899aa96a9a89695a7b97
col16:   748957985887d6889a8c8aa99c9b7baad767dbb97a58975b6bbac88c886ac79f9898879987668574
col17:   89899b799e79cb7869ab798a3acbabbabbbb8ca79b7a799cbbd877bcca988a789ca9cb6959a78856
col18:   663886749857c863779b99997bb79c9a7c89ca9a98b679b9ba9b7d767cc4897988c996a9b5679786
col19:   47b948a99b8ba8d698879b7ba9bdabe99a9ab9aa7aa8d69b6b768b58c948bca7c6987875864a8663
col20:   9b8589aa76bb6676bb7aca7a8956a9a7b88bc85a79aa9ccc896b66b9a5c99a758c778a9977468687
col21:   8586584aab9ab9a99bacb669fa8b88f867a96aacecc8c999a59abcacab9899bba668875678a596a4
col22:   987658758997887868ab689797a9a8abb84ebd99a9bdbbbac9aac57cab779b56bb7988b9879a6777
col23:   65a6c6ba79798a78a5a8a99abb7899a7bacdaaa8a889ab8a895ac9bbbb689789c77cb96699873858
col24:   b58267989884b88a8aaa8d68ad78d8d788abd7ab66aa6a89ac7a99ab6997ca895a69767695867666
col25:   c897eb9878b8b99a8aab9877ecb98abbacbcaadb98b98bcad89b77cdb9b85aa79776797ca9867a35
col26:   9977867c988a9bc6dbbace9dbafb9b99bdaccdbcbec7cbacdaceadedbada9cbbc79d78c8b69a5997
col27:   89abbb689a9889a99a7ca7eb98d6c8dba9abddaabdac6aa99aab9baccacbbc986968bcb9a9c3e6cb
col28:   7ada8bbb888ca8da9ac9c76bde9ccaebccbfba9ecebda9d8bdcd8fcbb7babc7cabcaa89a8a99a7a6
col29:   9c888ad98da6dbca9bbaecadbd9e7aecdccb99abceadbaabab9bcbdcd9c8cb9c98a7a696968c9456
col30:   b879b98aacb6a6ca8da8a7a977dba899daadcbac969cbc8bdcaec98a89fbb879cda89997f797a987
col31:   bd4ad7ea7aa6c7c99ab9accccd9dcaf9bc8dbdcd9aabdd9cdac8998cacbcdba99dfb7698899ca9d5
col32:   b9bbac88bcbfd88a899dbc8efeafbdfbacbcbafbcf9cb9a9eefdaadfbcb896cccc8b7d87ba7a98a8
col33:   88b78aaa7b9ebccc7abedecbebd9afbd99ebdbbabacdedca8c9dffbeeacabc897bccaa9a88c789b7
col34:   b689a978d6a9ea9cbdbdbcd88ddfcd9ddadaccedcbfd7dcc9dbcadaedbfab89c8c94aaaae9c9999a
col35:   89aa9d9dacadbe9aa88f9cbbfdcea9bbdbbc8dbedddddcefd9dabdaacedcbabcaac99aac699a8c84
col36:   5986abcecbadcf699c7cdabe9dfabcdbc7bebbffdcd88e9bcbcf8999bcbdedbab8cbc8b6e9cbcba7
col37:   bbdb9aaaae9becccabce8cdbeccbcaecfce6bd9da9dcce8ceca9dd99daac9adddd9c97d8bbba9778
col38:   a9cbb8c9caddbdabddbad8bfcddfecebecdfddcfbbdbc9cbbccebcbbc89b9dc897ecfecdb95bcc89
col39:   aaa9cab9bbd9aebec8ccaefaebdccefcc8bcadcbcdbd9dcad9cacd89dbbdebaca9979bdaa879c686
col40:   dabba6d8dcab99accbecaaecccdcfdb9fddcebbadfcecbeebcbcbbf9c9bddeadcdaab89cbdb988a8
col41:   dbbdabbbdcfabbffbcadedefc7dcbeebdfbadded7fbedcbbdcccaeaed99dcecbcb9ac6aaa9c9c8c9
col42:   abbb79cb8c9bdeaddfecdbbebbd9beabecc9fdadfbdbbccbffecbfebdabffebdbba69cd96ac8ab9a
col43:   9bb87dcebcabbefb9cca9bbebdbbadcbbbcdeeddfcdebfefcecefcbfacadc9daceabecff9bcacd86
col44:   9ddaa9b9fdbabdbcfcdbbdbac9cabffcdddffedebcbddccaafc9fdb9fcecdbeafbae69eadddd7c8b
col45:   89ab8beaadb99cccf6cacdab9e9fcf9ce9bcbb7fedbcafbdaacafdceabdc7cce9bacba988ea7b8b9
col46:   c6ea8abbbdbdca9abbbdfcedcccdbf8fbddecfd8dccfbacbeabcbdbbdeeced99cac9feeaabc99996
col47:   7cadadabbb8ace98acddaebfdfccddbcfbffbffdfded8ceadce9bcbddccffbacaadaaebf9abdfcc9
col48:   adab9ccb98d8daadabeabeeddcdbdfcccffbedacabeedafcfbfbbc9dddcfbbbca9bdadbbbdcaac7a
col49:   8d799bdc9aaeeaacd7bbbefcfffbcfdcdbfebeedcecfbfaeebdaeafbafbae7ca7ebad8cbaebab895
col50:   ababcdecbea9beedfaedcfcbfbefdccfaefee9edceefecfbeacdefcacddedbaddc97dcdcdbaadbdc
col51:   6caabaab75b8aad7aa8cc7aada7cad9ba99ccdce9f7bbbf6b8bbc98e8ceb99cba96a9798c9799899
ROC:	 BPix_BmI_SEC3_LYR2_LDR5F_MOD2_ROC13
col00:   6248695273875588998577862aa9675a4b877658a69b3647686796666587b35c9869579866a8a758
col01:   7656968859698bc89375695774be999a6ad69699a9aa8abd9b877ab79888ac9769a58896b7756756
col02:   94659768a685a9a7ab9c665d65696894566998958aa5b78a76788a86ba67b9b5675976a65679a8a8
col03:   8565756599a688756b9578956837679aa789da95475787c78897a97ba99acad67483748a68877465
col04:   4676599b8995b85a98a48a8a9a87689886b76874a8c9a88a59bb787ce7ab96bb6c8aa868784d8a7a
col05:   5675378a6967a48569899777aaaa67978ec7dc9b7799566bdc56798698a8ca7a966c495a9948959a
col06:   8486827686668a79778aa8c88a97c6789b884abb8a8ab6a9c897878a8f95b89988a677aa5a8746c6
col07:   886958a2ba78899a67abad779a698caaab9a9a976ab7c9bb5bb9b766bb5969c8a6887c8f5868a797
col08:   65952a869ba77b7a78caa7a84c75a7bbb4bbd77669a9a8a879bcb99ba657b965a6ab5a6b97c99ca6
col09:   7777a787baa566a59ab97997da9aa7d8988958a7b7a9989a7a896d598955d6a799a69b96a7885232
col10:   4699885a47a7aaaa895aa67797989cac8a894889989a9997bd88a8bbb965ba8bab4989b8a8838b88
col11:   573549a668478b799b9976aa74865cb98acbb9abcbb89848bb9d7687bbc88aaa8668a5a284b79854
col12:   396a7746c967587a787d97a7975787c9aa9a8597b6a798c9aaa97a9a897977887bb6b68896b7a9aa
col13:   7368699859875a6697ab98979a9baadaa9a998b768a9c99cb5b9a988a757ab988aa9798594978975
col14:   844898a9b487a8abc7a6c96aac9bc855997dfb9889b5a6beaaab8988d5869c7798a856c799748c67
col15:   4964965344787676db77a99694a88778a9b9869aa6888c6995b598eb67469f7c7988a4a51b787965
col16:   5a655878b97a99aac8a6875e7aaba96768b18bacaca5b988a874989b98998ba9948668a8db787b69
col17:   47799536aa779786667cba6b99899885b98c55696998885d6877449a77865a689c9597a6688acd96
col18:   887888498c66167b79a8ab8a999ab8a77868aa8a77697d5a9c858c7967c898b7b68ca98867dc8665
col19:   879ab899848996bbab79699a85c89999ab899a9ca7c8ac6babcacb9be996997497cf8775557a9845
col20:   897688485846c7959897b86794cb7a59a6956ccb976bc8e7ca788bae8b99866798ab8ab96899b9b7
col21:   7676687877668b87bc86599689c78c88cab98b49bab49a97ba98aa9995b8aa9b7959996a8a855354
col22:   7979579865994b9a7a9868b97bd67aabb87699898c8a987698ebb878a8a779749a797a577775c789
col23:   64b77c797797495aa9647a6869ca7839b77a9a7a98b99979caabd7f6769c67c878888ba49672aaa4
col24:   675987a699aaa49999b5a99997b9a77997b9a69a6ca7aba97758a8b998aaa999c584b7955daa5677
col25:   7564a4897678449bb6be9bb7dbcca89ab9d789bba995676966ea97aa98a8b98adc9997d9798aaab6
col26:   b877b9988bbb9c7bb999ba99bcdbbabba7aab9ba8cb996cb9c9ab8bbbbf98b6cbaaab8ab5aa98a88
col27:   88c8bc899d89ac87b9bc9c7968899c889abaaa5daaca879baacebdab9cbd7e6daab895bd4b6bb878
col28:   7a3cd9c9abc7adb6d99c978bbc98ebddbc87c98dcbbcdc9e989bc9debbc7bcbacca6799dc8ae6697
col29:   b996479d9ab9aa9d9d9ab989c9e9a9baabc8d9c7cd9bdd9dba9b9afa7d9895bdba969479db4ccbca
col30:   5a69abda679a7daea9898d8c49acb87aafdceb7bde86cacaddcaac88eac7bca7c989cc769a8caaa6
col31:   78b7b99489c87bb3ddb8c9e8abbcb97dbaaaaa96f9a9dbbc98f9cbdc5cdaabddcb989a69cba9b9b7
col32:   eb7b899956c99abbca8bcbc99aaacbeecd8ccbbbabbdbab9eabbbccdbeb9abac98ca8aacacc9db7a
col33:   ba9ba9b7cbabac87dadabc7ba89bc9abafd9b897cabdccbcbbda9ba7f6a9e969e89c7bccaca7d985
col34:   b7a5da98aaaf85a98aa69edcaa8ccbc8baadaca8eabfabbcd8dbbeed89c89bf7aaeeb9769afadfcd
col35:   469bba8ab58399ccdcac9fcaa7fccd9babaac77ca9bbccc8bda96ab898ccdd9c9c6b9a899afbaaaa
col36:   889aace999a9aaee9daabeabad8fcba99abfc7d6efa9ebbdbb9a99ca8daddab89aaacbbccc9b8ac8
col37:   699ba7a999e738bababbcbbe7bbd9f99498dbacbacbde9cbecdd8bbbbbbdaabc48bcccbbcbdb9bc9
col38:   9c88d76bba7b99b9a9fbddb7baa7ddd9cacdcbb6c9facaaccdc9db9cddb989cadaacadcd5bcacd99
col39:   6c6837a88aa7bcb8b8cdb7bbad8dbaebe89accbcc9adb9eccfc8fcbdbaebbe97bbdbdaabb99fd8d8
col40:   7a8cd6abcd8dbada97bab8aacba8c8bf9b5eaac9bddefbcccbdbcb9cdacbd7c9cbcbcadf8a6cad95
col41:   bbcab6abb8a8caa9dafdd7bdf9dbbce9eabbbc6dfeadbb8bd8cbda9bbbb89e7e79aaa9e9faff9bb9
col42:   7f6c877ccab7a8bd889bbcaac9da7a8fd9b9cdccdcdddca8ece9bdeabbaa9dbcadbddc9a679ed688
col43:   abd8eaa8cda98bc89bccceec99daaa98fffbfaba9fb9ec99ecabcdb9ab9accbcb9dafca8bcdcfaba
col44:   7acbb8aedaab8c9beaebad9ddbeba8badbdcfd8ed9dfbd9dcbdb7dddfaf5ce9dcc9ead9bbbbce8bd
col45:   bac9c789aa8a6a7bbcdbd97ff9ddc8a8bbb89ecc9bdbcb9afb8baf9accb7ebababbd7babdbacdbb6
col46:   86a9ba95c8a897a99daa68b9dbb8bda8e9dcddbcfd9dedc8abfdbfabbcbad7cbbdc7cbdccdbcdc5c
col47:   7be8a868f978bba699dbaaba8cc899eef8a8c9cbecbcbcb9bdbbebfca7ddaadebbbbfcdedcac7d99
col48:   bbabaaccda88c8aaadbaabcadc7dcbccccdb9dab8dcabeecbfbebafdbbabdcbdcdf9bdfbefcaccc9
col49:   9b779accb797a9a879aae9cabcfcedbefcbabbad5afecbca7bfcccbdc8dadb9b9be9daed9bfe9dfa
col50:   9588a9cbccaddcda8db9d9bafcbe8c87aeb9eba9ccbed8dfddccdadabdd8bd599adfbcbedcaacccd
col51:   87798abbda7b99c9ea8c8c7687aaab87c76b8b99d98bab9d9f6a56d8bbbbbac986cca97a9ced78a7
ROC:	 BPix_BmI_SEC3_LYR2_LDR5F_MOD2_ROC14
col00:   655847774c88446666a68a2aaaa75fa68786caba596749775ba8763578979a86cb2758777ba87761
col01:   a94c74d6a86959986a59ab7954b6c86a8db979859d59988a89a7a1b86acb77a6bc9586c87bc7ba5b
col02:   a36659b68699a3585b445b68687d97a8899c9daec789a896a9a278a489756b7b998ab65579c88a94
col03:   256b957a957a6ca4cb888b9db797e9bb8b868cd9688bbba75b87aa99e7aa96a39cb69a9bd995d384
col04:   78da87a79765bb98b4889c6a99918779884cb86c98378bddbae67da8a95646b9b889b6584957cb79
col05:   32797996a798d5e7bba68db6775d68fcea8bc79bb85aadc98c83b8b9b8a878cec87b989ab99b6599
col06:   7357ac788d88a695a37689676569e8a98d77fa9aab9d9976668cdbceb8b5b9aac4aacc7a969778d6
col07:   b7a126b65965737b8ca9aaa79857b9bc9a57a987bdb88c77bad8b9da9587eaa98a955a19978739a6
col08:   5387836a69a69976bb99957a7586a8b98b8aca599cecbb9a7db8a7368986387899b8b96d799b8575
col09:   8768aa5aab98da97cc7b99bcea47cb9caad5b9abfcbecb74e6a7dc5a85a889bb7da9da56988aeea7
col10:   576756c678c9788a586576b86665dcfca5b65aada59cb9bc837abca6bb9ae988d87247a98a986968
col11:   8295ab968159a85a767c76ba8556a78966a36dab8777bd76a8a6889b87978697b7987b46b5a88b26
col12:   4549948788a9979856ada45bb648977a649cb57cab989acd8ec8bb7b885e791c36a95ea67a5d87c6
col13:   65758975656958a5779989a5ab6a8587ba9b9ab6badcd97cd996aa947a7a86899a6989a896b8b894
col14:   3284577495a58273b889dc97a69b89279b989bb956b97885a85365a79787988789a6ca88958a7677
col15:   8569966e7875d973a49a798dbac9ac6baa7898ccc8a8baa9a7b188aaa64bb7b77577caa9593788c8
col16:   246466c158bba969c7868b7a68c989c944599956abaca6a6b98a8979da76ccb9c67a7b7887896695
col17:   39963787838139ec77cb95c6a897daaa5788b5c7b9a3dd87b952989aa9a98796ca6a69398b46c785
col18:   64a99786cb96879b88e6acb98acc95ca78489b8976695a767a889ab5719a7c66a896765ea9a98879
col19:   4799937569996c795cd6acb4948898acb9acbc7893b8b8bcaa88c88c8aba867bd8768ab64a799375
col20:   616975c9461d8775a886965ac6aaa8bd69a6a48b7ca17967c5a9aa49b8ba65b41a5dba7189b7aa96
col21:   445423b947b9667a69b7b89ac89c8995b776abd864a6b8b9bacb9adda98b67c79dca986c557866a6
col22:   479759575a9686aaabb6a8899b5d9a8ca6989a8b8ac89cc88a6ade9498bac88698cac77786c97298
col23:   76746765976637885977599b9aa7652497687669884aba99abad98a9dbb88da97999a9a9d7489399
col24:   859775858435567a99a67b559767869ab999668b9587b6a65a73288755c877b98c87a85586865983
col25:   895d9876499846bdba899a7969696588b7ba76aa746bc7bc65694b56a79798da98b476879a6c9938
col26:   57376878c7c7d7ba86cadceba99ca68bba7bfa898ad8d8aacbccd9ac9bb8ab98be799abac9897a77
col27:   6638a8bc699989b6868cbaa868b96bbb6a6dd8cac9cbcd89b6b9accac6b9cbebc7a6887cbcc69c85
col28:   7577d99469499a9a75caabb8885acedaefa8ca7b878ba9a768bbb8cca9eb899cbaa8a6697897dca8
col29:   68a797bab2788b78688c885c9bebcdc8bba8ddbcad9c9c86f6dcdac8b7e769b867dad5b6c78b9489
col30:   57468867db8998ca9a9abb6ca9b8cca8babeb85accaba698b789caccb87c88ddb5d9afe76aa99d95
col31:   c87778a6bae6a8d76bdc9bc86abbccd9c8feeccd87eb5eeddacab9b7d8f8bc88bca9a8df897b7c65
col32:   887998b98978bc4c87c86b977dd8acaadb9ed89a98cbd9bad79bcda9aaa7dbb8b9c95dbb87d8b896
col33:   6b68e7a9d99ea7b6c8cbadcccebbe8cc9dbabc9abcd9989db9edccc9daafb9ccf8abf998ba978bb8
col34:   669b7a796a8997ba8caaa9cbacd7bbebbcbcbdaeadaa9babc4c8ac7ca8b7b9eaabbdbe78989aaaa9
col35:   68b9846ac879cbba79957ab8bb9ddcbc89e8cab99c8c8abaa6ba96cc9b8babb4dcba9a8ccbd6a8b8
col36:   76a687bb7764a4aba888a9af7a8e7ab8acdcb9a9edf89cbaaabebad6eac99aa99b8ccac898baab95
col37:   8c7974a869cab5dc97d75ad5bcebcaead78dc88ff9cbd8bdddaeacccb8fb86b9aad9bb9cd9cd98c8
col38:   b69bcc8b9ea9b9a9b76a5af8ceb69b8aaccdd9aa8bceb89c96bcab965bb6a69acc8aaa88b9bbeb5b
col39:   b886ba9ac868b9aa75a99bba7c8ebdcbdafdd6dadaab9db9caec98accbcabcb9c8aabf7cbab78989
col40:   2949a6677a9cd26d8c5a86ebb6e9ab7cbbdbccf9adac8bca9ecbea9afccddabae7ceccedbd9accdb
col41:   6a296aa8559ab4667c8b9b7b6b9bddcbabd79cc78bcea7db8eeac9baba89fc9edf9a96bdabdae9a7
col42:   baa8a7756b79ea8b885868cbebbeeacccdfb9bba8b9bcac9a9c8dc8babebddaddc65b9db9adbd6fa
col43:   784a7daa669c6bbd89cbc8a87f9cb78bcfacdfee76d9dcaddca79aacaa7bc9aa9fbafba79977dd7b
col44:   8387ab98abf9bb76bbb987daa96acea8a7bc8bfbce7bbdcdbcaa9ac7b8cde9becdbbdecbbbaaabb6
col45:   9aeeeaaa87cd689887b8d77c98a7b8cbb99b69c7cfcf7ecb7be9a9fa9b9ddac9ddeaaaacda976bab
col46:   a88a965779b47bb6ba68a787ccbb9cbd9ad9ad8abbab6d5eb8aa8859ece6795cacb7daabb99993d9
col47:   78a7d83b8a8d489aac9c6c884ac8ccac99e699fbc9dc977d78aabb9bbbcc8bcabcea99babcadb8d6
col48:   ab66595a978e94ac7cad54768ddc7798b9aea6d8bc98999cf87babf8dd9e85ca59bebbcccc9c8b97
col49:   526977a7996aa56d68b7a9879c78e8cbdcb8cc85abbab8ad86dba98c88dbd95abbbaadfbbf8acbd9
col50:   759bb7a8b8af88599c96788c8a8aa96f7dbd8bab8dbbdccbabaaec8ac9cdaa7c989d8ba9789cbbe6
col51:   6545814379716a9525b4158498899a8ba9b687879588a6b6a649a98d7d6a79ba849b8e6716a7b896
ROC:	 BPix_BmI_SEC3_LYR2_LDR5F_MOD2_ROC15
col00:   76aa9479686874875789b86aa9ae979e849a7a9a8a78aabb897888b8bbcc8b49aaa9449a787a8851
col01:   88b5b7b7a979be38998487cbc458cbab98dddcbbda6a9db97bac7887698998cd89ab8b9bba2a5db4
col02:   6a5998a4b85cb88a6ca88a66c6967c999ccceb7bb987bc7aa798a8997c8689ecb9759cb7997b9786
col03:   9f57c87596b9ca7c98aa6ca88b49ac7cd98abbcbec8aafa7768968abadab7a99aa789f599a589887
col04:   97b579a9bd5c6479f8b9789ad6aacc9ce9ab86e87a7ba7cac9baabcaa98ac88b7cbbddbad4889b53
col05:   989899a677a568a5ad87abc8aaa8b9abadd97ab8dc9bab9b9c5babc94bfc887867897a9d97797975
col06:   4399797992aa9a88989b99aa88bbab6997abc9abc9cc9d8897eaa7d9a78bb86c9afdad8c9ccb6cb6
col07:   8599996ac79ca49ba689adbb978aba9d7bb887894789c9b9cbdac799ad9997db58badb87b77b8aa9
col08:   78bb78ac7a8878aab97dda6c8e958ac8bbcccc7ba985a6bba99aabadb7adcbaaaba9c8dc867a7685
col09:   68389a595997499badc983da3b8d9a96aaabbceaca99aeaa8aafaacdcbacd9797ac9ae96889dcaca
col10:   a676998a979cd8c67a869dec9babaa7d979a9a98ecc9a6ab78bbcfec9c9d6798988d8a97bca79b84
col11:   894c9a46a58acb7869daa9ead67ae9e5edac8c779baa7887d9c79a7677896989a698487a96bb77b4
col12:   b3766a95aba97a667c88876b85cdb6ab499d879a9bddad959b9ea7b5bc7a99c999d8ab5ba76b978a
col13:   887677969db97dbdada7987cab79b947e889a7cabb97b9bd9c5cbcaeb6cca99968bacd899a89a855
col14:   97569a6cb78a72998acb9db839a69b5d797b679bcae9aa8a9ae9ac99c86cdbb7779bb889a98c9aa6
col15:   86a5899677869979aa5868b887aceaaaa89dab6dab99c78aa789cba989cbbb8687a9aa4a988b8888
col16:   97859b875da99969668bb9bd7bb9c8badbac8bc7bb9a99bab9d9ecaac6eabac98abf65bc95ab7784
col17:   686c419777a89cc989aabc8eca4bfda6e9baa89cba8967e8cca886a8b8ec6b9b7879a7aa589688b7
col18:   66a69987b898a9782c9766a897a76cccbc8b89698d9abbdcacaa9c7c994a5778aa96965aa36b7785
col19:   a4b856998a7ab758ac8c7c5779dab9aaba9cdc9c98d7cacec9d8978aadb7aa59b98a63d988ba7d86
col20:   74974959aaaa7c8bc8cb99a7397a9b7ab78977a99cc6db67678b7fad97eac94a9a4ada86776d5885
col21:   a8587794a74a766acb8797fbe869aa7ddcd9ab9cbcbfd8cb9bca98babdabca8dca9b97acb79768a8
col22:   94b67747a88577bb5bca88cb6a8caa9aa88bdc8c7a9cbc8dda8a7c8ab6c89998bd84bb9c77e57c65
col23:   684765888ab57c8999c6ca897ab5886ec9c989a7bcacca7d7cbda98998aab899bc99a76ba97897a4
col24:   496575a7869a83bcd6a8b6bb7979688abaaad9c9caaa7ab6cac7ad6a9babab98b96b63e8adb86776
col25:   89387888c9a7b97cc5bb8968d969b6daabdd99a9bcabc9b99888dabb6ba8ba7a89b68ad7c4b7bcb8
col26:   89b888a75b9bb7aa87bdaac7a8bef7cb9dbcabbadbacdabc889cccc8be8ce5db88cfcb9ba88a99ba
col27:   b6897a78899dac89afb8cbbe9bbfab8cad89cdba9acd99b99b9bccb9caacaabb99eacca99899ca68
col28:   6a6b6aa7a8a69b7a9afeb7aa8ccacf8fdeb9bddbaadcbcdcaae9bccddcaeadc8dbbaa899c899ba87
col29:   896c77c8bd8a996ccaba9a9dfeaeeb7adec87fddbc9cbbf9ddecfbbaecbb9acab699a9ab9877d8aa
col30:   b896a7a9ac99adc998b6cdad9bccd8dfdbea9dcaeacae897dccbbbbbbaaccc9aa6cbb8a99c85ac65
col31:   a597a967bb7d8899fdabd8b9ef9aaaefcbeabcd9fdecedc89a989c9acdebdbbdadb867d7c89bab86
col32:   ab6b8978888aa5cced6997caccc8a9bd9dc7bebdcbd9c9afabcedffcecf9acdfa6abbaaa97ca9d9c
col33:   899adab9cb8adcbadcc9dc9dbdbbbbebafcbdac8be9cfcadeeba9b9dcfcdab9ccc8b7bafcbd9a585
col34:   99ccbddb8b6a886aba9a8caa9bb9caddedd9bebadaaccaeaeadcbacb9e8d8e9bde8a7abfcbb9b989
col35:   c977e97b8ba9aabcaaeab9afcab9dacb9ddddbbcadbecbb9bdccaacbcbbcbe69af8babbba798d7cc
col36:   77587aa89a9aa8bcbabbbbbb9ae9babcaab999c8bef78dabda9ecc9cebdbba7ce6cabb8b9c99baba
col37:   69a6bbcebabcfaad8cccadbe59abdca8eaefa9dfbcbfcdc9aeddccb8bfcaefbccaadcdfe98b988c7
col38:   8aaaaa89b8c7adcc8bba9b9bdefafddcad9bdcbbcaf6fbfecbeeee9ddfbda8edccc5a9dcf89c8c8b
col39:   b869acbb9abade9ab98c79addaecfdccdded9ad9fbfbcfedfcffcee9dbdeabdb8cbdbbb7ccb9cb6a
col40:   999b79a8accb8acaacbadef8abbdab8edad998c9bbdcdbdeadbdfbddfbf8fca999cbd9dc6acbb8d9
col41:   876f797b8bccabe9afce9ecfddfaddba6bbcafecddcdcd97b8debddbbdbfdefd9c9decceaa8b9daa
col42:   999c75c59acfec9ddcddbc7ccea8dbbddddadeaecd9df9cad7abbadfe9aefcdd9aec86cb4785b899
col43:   abbb7bbcc85ded8ddaccceadffedfbddcbadbfebfbabcebeccefdafaedb9cadabdbbecc7abcccdb9
col44:   a96b997cbcaa9abc9bdcaebdfeeaabafdedbbdcbbcefacaabcbd9eddacbbbbbdcac9aa9b8bbdabb6
col45:   497cd8caaf9bbd9bff89bcbecdccccbcdcddeecf9deadebcacfdfab9bdfbfcdacebfbccc8ddbbfb8
col46:   9e87998b89d9988e779abdaefbefeebefbcdcebbbeccbfbcd99cc9adff9bed9eacdabcbcc4dbccba
col47:   b9cbdc6bac8bab5abfd79dba8cdfbebcddcddcaebabbeabfaffacdadbdbc8eadbc9dc8b9abb78ba7
col48:   75968bda88c9995bbc9a7daabaccaeabcc8bebf9fcddadadacedcbeca8c8ceab6d8a8aba96cdab77
col49:   bc98b78e9b57cd8b8beacf88ec8bd988bcbd7dbebdde9fedfbcfbdebdafdaf9cac89869dfd7cc9ac
col50:   cb8bba9a6bc98d97abdc8aacefdcbdbccc9badacdda97ed9cd8d9e9ebfdecee9fabbe8ca99daea7c
col51:   5727976a838aca7b859678bdb9adfacdbcb9abb889b9b78df5aabaa7a8c9b897bc8ba85a9a898579
