ROC:	 BPix_BmO_SEC6_LYR3_LDR16F_MOD1_ROC0
col00:   69834375678894446343756b98659569415866816595566577b4a488127645646654417459124661
col01:   a48a5768a65349798596a9b892787a977976661a5998aa568b8865797a5975a674849998b7737b85
col02:   85778456a966489b467759728a97485886a49643c8946576a46395436876386484682924374a4567
col03:   966895985b9987a9588679565866b8c46aa98a47a837457a3b8887b9668565779889558796d38ba2
col04:   577767a6469471877a49b6a5c676671c897b978757856b9a6636a9a8a697b4957494745835858932
col05:   47836864786763567b67a97866966a755a96879a7596a299835688536375344a6769626363879759
col06:   57a36959869768979778598a637b6875926b78797755369d54d88783a31665929732787254973675
col07:   6786598a98a7c8397a4b88599ab5b9997da8896888b759a9798886546786946c55b999799487a7b3
col08:   75aa779486675b8899aa978aa8868847caac87d7938687698687457a55b9aa77587678759ab65585
col09:   ca568595599898795899a976a9b886997aba6a8699aa84b97b686a5458ab955976596a9874883b16
col10:   8776689557b686a882986a99698498a777c47aa2bb6699836a4b997a9868596878b4554968967384
col11:   896b5a89979499895b8abaa6a5c78ca7458aa777ab76758879b76a643796976c57668796a986a746
col12:   8266589997a3b8a77a587675796da696b788c68b668898749466877399c977ab8aa88864384899b7
col13:   a85599b6589a98a98c95a7a7b884e799797897878997676596b63964a75872854c59a688da795758
col14:   887a869999979736b7b5b8b68b8698689a8a9a8ab9a894a6abb8855696d778b776b8a58a75a44774
col15:   cb965559b89b6a96958bbbb4b799a69ba4b5a99b6b499985947d9bb6ab564768966a567867a89693
col16:   6689a9879886596a89867a9858ca7797b57c63879eb88a9956466a6867478b973d9a56669a74a284
col17:   55a99567886514788a79c6cc89455b977a539796678a76b969f497caa96996c986457a867b5a7798
col18:   7a4a9aa88c469856448b7595638aa65aaa574cc6877868986959976a8c98aa66859474a669938396
col19:   7966da89bbc6667988898747a7a89bc8a7b9798b6876ba9b978b38a9698a6aba76858a8877885763
col20:   59b964b76ca97996a85a687578a6b6aa786e98766967a9bd77a7aa6978977b7579aa6b9685a84b83
col21:   46a689799aa666aaa9c88b6789b9788cbaa7bb84877cabc9a489a85acea8bb47476765959b966973
col22:   7957787d9988b8aaaacda69a9ba6a8889788d648a8c9967967685b7bb88a9877759956574a995b98
col23:   866985435886c9c89899b6845adc897789c8ba3c7ae98ab87bcb68c7c92ab8a865c9ba954768b398
col24:   38a873aaa95ba789d9cb7b98399a8c999b89b859654da5776baa8896aba6495aeaa896855a8aba58
col25:   579977ab69b968c58b9db7a8a9799a8bca65b8b688c84bbbb978b7a9ad68996177b6cc8c99c9a8b4
col26:   d6b5ba8c85ab688ccba77899ee868dbbca99ce479ab7aab9aa887a77c8a5bad8abe79ad2bb6bc8b6
col27:   8ba6b977a8ca78aabd6ba9aec5c97a8a97dacab88aa8eb7999afaaba6a89895caac77993a99d79e9
col28:   9dc5acabac989c6dc9c9b89ba94d79dbbcabbdccd8cadb8dfa87babcabdcb8ae957abba89875ca86
col29:   7c66b7aea96db848cb89bacebacabbdca8ad7ca9c6ccba6fbafaaaf97bc68ab8989dbbcb9a848ba4
col30:   cb8cb79bdbb66ccba98bedc69baadcebbca99ada7d899bb8979bc87c9bb9ac8bbbdcda9cc9a9c888
col31:   9bb9cba9bdabadcb99c99da99b8baaea8bbcfecfaceabacbc9b97c86fb9abddd9cba8bdbabd8bb78
col32:   a7bcac8be8dabb9cd6b9d8aca999dcb9bbaa7c8b9ba7a88a98c9c98d9b7ba9dcacb9bcb8aafbb996
col33:   e68adac86b789af9ac9dbbac9bc8a799c9daff8dc8ffcac5dbbacabdabbca89adcbb99c8dea9c9eb
col34:   cfb9d9dc6b8ca99accbb8bad957aa8bcb9cbbacfcebaadacacfeaacec99ac8bc8adb899bbfa88db8
col35:   cf78bd999baacacbd9d9b88c9c9da8dcdbb9bacbc79ac8ba7cc9dcbaac7aeba75eaadb999cb86b5a
col36:   9bda999daabbbbacb9c7aa9debd9bcc9aafe99acc9b8dbb968aacbcaddacabcacb8bbd8aa8aaacaa
col37:   a8b8cbaaba99ca8b8dcbebfd9cbabbeb9cebebdb8dcb9cb6e6bc9e6ecaba9accaacbb9bbccccea9b
col38:   bb8abdbba9bacca9eaeceacebdbacddebad8b9dfdbbdabefb79a9bed7cb7dfedbded9d96beefb8cc
col39:   b877ba8a5bad5bb8dd96bbcacaa9aabecdae9abbaca9b9d9ddcbdda8bcdcbb9eeab7aebc99ca9ec8
col40:   e9cfdd7ccbb6f7d7cdeec9aadec9dfdd9b7bcdc7dcbacc8fccfd88ccadadedeefdcfae9de79b6cbe
col41:   c9e7babddd6abbb9cfda9cbab9baabbdcb9cebbeaecbefceaaddaadef8ebeebfcbdfbfcccdaddc7b
col42:   bebb9f9ae9be9abcbabea9ccec8eabc2cdabdbefccdbccecdd9cca9d98bcbdbadcbfbdcbdedcac88
col43:   9cfdc8bedcbecacbcad9e9dcccec9ceeedffe8dcfbd8fbef9efddbeedbdfddabbcca87cbebbddcbc
col44:   97aabccb9ecda9adfabfdcbfdddeadc9fdc8eebeaddadcceaedcbecacd8dceddfafeeaefba97bbf6
col45:   9b88ebddfbc9a7aabaaedcebd9dead8eabc8eb78bde9eaae88c9ab9fdcbbacdb8babc9dccefedbda
col46:   8ded8a9bdcafec7d98dfd9abcab9b9aec9acfabd9ecebdcbccfadcaddcccbbd8a9aa8e7cab6abda8
col47:   fabfc8bbadabdcedbededcadcbddbeddcdbddfdba9edfcaaecdcfffcdbcdbadcbdfadcfa9eadcd9b
col48:   eacc88bdbbebcbcafcedcbaccedfdfcb5abdfcbccfbfabfbf9edafacbdacbedbbfedbe9bcafbc8cc
col49:   cad9cadbbbabdcd9acbc9fddbfdfbebccbcbbcffcbceecdfaffd9eeedacfccdcdccebcebcbefab8e
col50:   b8dbbacddabccddadafbcabdaf9ccdce9aacfbdbcceaffcfcbecca99dcc9cabbbbbfed9dcfbdb7cc
col51:   a78699c8ba97ba99bcabe7bbabbebae9bfb7b8eb89dc99dceda9978b7ae9f789b9dfab966978abb9
ROC:	 BPix_BmO_SEC6_LYR3_LDR16F_MOD1_ROC1
col00:   2437554444566a438777699579791b578a7b7b9796878849465846968885478686579a4947857774
col01:   96859a8549787877bb7969889c8a58a9a9a7969c9b99576a487686b978aca8aa8763769ab7666685
col02:   435956175678a775a7a8467399a98b8766888c876b7a97a672476a996698a9cb49a6739987a47476
col03:   554576694a878989c65667b5988ac8a876959a8bca9837c88bab799a9b53a94caaaa999695a88844
col04:   775496a8568875757757677747997978959a78a996999a9b9994b89cb8c793687997a66896776745
col05:   6648a45558ac8679748789694a6caa676788987897a77a966a6977a7b9959a8953a8797867489a75
col06:   47347657458887a9388864787b8ac88989977996a889a99a9397785aa68769879677675867886546
col07:   978845b7ba77a9797688848c794c9cabaa988a7b677b676baac9a89aca9a9b79ab84a48598977576
col08:   766b9449757a6669596aa698c787a885894788a9889aaabb776b6d76a789a8a67675887594849744
col09:   87869978459657ab778c8758a9998869a99aacaaaaaab9bb89d7958b879899798c55a698694a9877
col10:   838984676357949869a98899797a76a9a97a9886a876c6b57889a6676d88b7887c95d7b74a986766
col11:   852a975869856ba939a59a6999a57a9869a9c9789a4997a86a98997ac87687756a886758658b8655
col12:   98578964553888a598899b867b79c6996a768c8b7b8789558ba6b9ab7879689996b898758a666876
col13:   65558b98979876889a698779abc97a79986996979989baab9a898b7a78967ca87749876693887563
col14:   8a7647845867858a889cabb698b99a986ab9696b89767b87cc8875b3ba68799c8979aa37b8b96a8c
col15:   59774b388b9b6bd57969a7849a879bcb59a9b866aa5b897c968a9c5c8a795ab76a79a6a977766986
col16:   48679688965444bcb7b68b6966798759589ab5aaa6b7768c98b8b9977b796997979856a8b8576886
col17:   758744bb8aa655ca9b75658bbaaa9c67897aaa95ccaa867c89b69a6bcb9cabb686666ad577588774
col18:   56876456798a782998b8a69775b96b7aa7c8cbc69aa8bc999897aa6967cb75c479b6876cb595ba65
col19:   5a68a985996a6a7a997a679a588858bcb9b8b9999aa67ab8b987a89698877b9969a98888d78a7887
col20:   8655675994765575699978796859968da897a988ba898b98a46696c98b99756578877948976897a5
col21:   96b3a8bc76ab9b77865dc7c788677baa69db9a699ba68b688a9a99b888a8d97a74669aa877885986
col22:   b8a67877679976998c8568868a78bc777a789c779ab68a9b888a7a7a9a6998a77559dc9688878c75
col23:   6a899588677779778966a6989b486a97a895aaa8a849a9c858a98bc886898966687767659b8a9873
col24:   5948a7b567a95a9a5d9595997a9aa87ab756a49b7988a99a69baa787b7799c9b96ba875998a88763
col25:   a769ba779788b979c776ca7998889c7badaa8aaabcda7a9799d8d888aa868ba8b86a8bab99aa8366
col26:   9997887778acb9997979aacc899c8bda98d9baaaa5a9cd8abdbcd998adaca5a99bbe798aa9989caa
col27:   aa88b878a8b97997a9ca7abb9cba8898caaecbb998c8da76bcabcbaabccb999bbb9a958b5a889998
col28:   9b7888b6b8bab7b7cb9b9b7aa8aa999a9ecfbaa9a8aeb7ab9dae99aabaccbbba96bbbc888a4abc48
col29:   87a8a8aabb97badbb9a98ac9aa9cab9cceac9a79c9cfbaaeccbdcbbcadbabbaaaa9a9bacb99a799a
col30:   8898657bacabdeb8abcc7987abbcaebcbecddecccebd9a7b99b9bda8c9accb9aabbd79a8ab789979
col31:   da9a9a798c9babbbfac9ca9daadfcaddacbc9dd9b8cedbfca9addabcdadbd7da9ba99eb9a6a89cb9
col32:   9caa99b86c9b6a8b9ad8aa99b6bc8bbaea9bbba9b9ecc9b9ddbb8d9c98bded89ac89a777a9b87ba9
col33:   fbcac77bbcbbb9dcd9fa8ae8cbb9bb9989cdabcdcda9bdcdcc8aacaceecabca999bdba86d89bcb87
col34:   a97d87acbbb88bbecbb7997e8caef998baddcacd8cea9cbbdaecddad8b97cedba9b98a9bb9aa9d97
col35:   8dcb8a9bb7babecc9a9cbd7a8bcbccdcac9fccccbddfaabbcaacd9ac9cd8ab8cae7bac9cac9e8c99
col36:   a8bb9979999b7ac8979dd9b7deb9abbdca87bbab9acdba9bcdbbbfac6ceacbb9bac9b6ccaa7bbaa4
col37:   9c9b9ea6bb8a9bdcbe7bacccbdabebbdedddbbbdbeafafc9fbedbcde9cdadacf8fa8cbbc9c88ccb9
col38:   abcaaaaa8cbdabc9cc9acac9dafc8decccccfdcebaaacb8bccddc98a8cadabfed9c8dccbabeaada9
col39:   9ccb9ad9cbde99bcbbffdcfaaaabde99cddbaffbcdcc7ccab9ebecdca7bbacbb89eabc8ccd8b87b3
col40:   99ada8dabfaefddeacdcdadabcedbdbebdbb9bababbcbcdcbacbdddbb9dc8b9db9e7c8abbbb8bab9
col41:   cdc5b8bdc9afccfadeacfeccbfbbbbdcbebbdaddebaceebbcacdfbdbbfbbddbbebacdbaacbd87aa8
col42:   adb7adb8cade9bcdbdaa8cbdacbb9b9bbccbddabf9bedbdfb8aa9bdddddcdbc9cedabd97bb87899a
col43:   ecddbabf9eaccbc9bbcfacfbee9fefeebebdcfdbffbeeebfbe9cfffcfcbffbfadb6eb9dabb9abdd8
col44:   a9cbbbaa8bdccabccaacc9bfbd9cab8eeb9ba7bdfcceddcdacbdcebbcfd9cea9b9bcccbda9ddbd98
col45:   7eebaebc9b9d9cd8ddef8bcb9f9cbaaaceefca6fccabddccca9becbbbfafbdbcbafca7cda99ada97
col46:   beddbbccbbcacaccdbcdcdb98bdbabbbbdcbeacbeedfcdcd9bbdbbcca9bda9ac8ddc9dbaacbeb8b9
col47:   aaedacbdb8bdaa8bf9bcddaeffcdb9cbfddfaebdefcbcaeddeedfcebbbedcdadceccbdbbfcddba77
col48:   faabcabd8bcccaedaacbaddbffdcbdcdedcbdcbdddcbdebccdcbcfcbfeddbcecabeedc6bbbac8b7b
col49:   99fdfdcafccbbbdcddbdc9e8b9fbbcebceebedeecaccb9dcfeebddacebebccceda7ccdfebafdcaa8
col50:   ad9ad9adbbaacedaceccbbacddddaabcafbd9bcaddbadfbcdeebcb98fd9dcbeedbaaeaadeca99eba
col51:   a67abd8ea97bbba8cb6bcadecab89bc9e9db9c9abbadbadb8e9f9e8bac9cfaa8b8d7bb68c89c8989
ROC:	 BPix_BmO_SEC6_LYR3_LDR16F_MOD1_ROC2
col00:   5584d495683153676659779656585767d7aa96c78ac6a7bbeaabfbca787888ecdbc4949a6ab67eb4
col01:   a764a797877779bc7acad7a9b7dcc68ca6db6ccb88bc79d9ba9c79aa9bcabd8a29babfb968b7a5a9
col02:   495c888a94b9ba75896a8795b68878c8bbba8cb88cca8b7ac7799b9abba99864789ba9679a74ab68
col03:   985a859876a6a9a7cb76c79ca48788b8d8cd589699b8cd5ac7caa79b67bad9c7da78c8666788c898
col04:   947674b29e4858967996acb6d968f9c678a876b6eb8989779e977a7abd7858a759b9fa7ba5badbc7
col05:   b39b49c9ac28697866966e9769a878799cdbcca7d7d6abfc65a948aab9cb8a8b75fac8977ca76ac6
col06:   8788cab668778cbc558cd7cc89866a9b8cabcbacba9a7667cca76caaa9c6cab8aca7c98d79f75ab6
col07:   a9e55b66c8e58997588abacb76ca56b9b7ab9cdd8d588da8676daabbabaaace8a978aab7a87cab4a
col08:   3a829898759ac5d3bc8ca78597888abbbceba99a58cb97ab88e8bb9c489bb898a86bed797687aa87
col09:   79c794a57b6d8789e9a6b857b67af6698c9b9aec7bb8aa7aa79dadc7fbd7cbb88cc599ccba9ebc8a
col10:   8746b94a57b789b789967a9a2af29cc6d789fb799c89bb8987bca9d6abdb986b59885498b9a897c3
col11:   7b885d97b7998a95276cba99af7bb7ad657a7b9d97acaa7ab67ab99fdca9acc97ab99cacaaa876a8
col12:   848533656baa6a698c9688cccb7a7ceb78979579ab7bd8bba9b6cacd99a6a7879b998aa6bc64c9a6
col13:   677446b96957a45b76db9a68a4abb5ab9cb56c8c89b97aa78b7acdbb8b69e9c7cb75885bb97a7979
col14:   5496bbd3a999a8a95bc3b76839eaadf888b9b89b8a7c9a9ab998a8aabdbb7c9ab789776c9695aaa5
col15:   875156a7b84da7a989a49988596b765765aeae9aba978a69aacb6eaaa87cabbbcacc77a95d87ac88
col16:   8a8678c8aba6bc788ca98b6987b669b79a9aa88cba7966888cb85bbd9d96ba8cab87a7b677b958aa
col17:   8535a6987a6da967997ca3588c96a553b93898c694aa57c8aca798b6ba7a758977a7c9579dcab495
col18:   ca557b5ca89e856867a99a8b6678a53ac99787add8aa979aa7acbd7979a9aa847a5da7b758889565
col19:   768599a722b8988768f5788ba5b77ba39d7aadabba899c998a7cb88887de8ea788bac6c56cdcbaca
col20:   68a35375b951666c86a9aa57a87aa9a99268ad89ad58d89ca9ae777776985a97a7b59f8b8568da66
col21:   26199a51da79a99b78ba56ab7b99bab9b9c9aba7ec9ab979897b7b8cb7edea35f779989758e8db93
col22:   6959776bb4a9a96d8aa8eaca8978aca5988b9ad9d8cccd6c3bdab9b9bb6ab77abbf6a769cba5af88
col23:   c57a75587e76764a948ca786968c79988d97966587a66bad87b9a8ac7bba9827b6ba8d758888a9b5
col24:   3368567957a9a73a58a9c997a5abc997a9b7b789979abade99d7aaeacfcbb9a9fc7979abb66b97b9
col25:   3278a665a88b6578686669951cca9a88afd787b4965ab5daa9ebc7cfadadd9bb6af881cd9c94b67a
col26:   7478797989b678da5a88a9bec7a96dbbfc9aa6b9b9bac799cba7bb9afee99babc7c8cac8ebcc6be6
col27:   a4a969a6987ac9baea78e98d8bbbb6eedbcae7cb7a5a997d979bc7cf89da9badd8ac8e8dbead9dbb
col28:   ba8c89b98ca98996a7aac65a9f7b986c6999babc9babccddbde9bdadad9dbb99caba9cbdd89cc9a9
col29:   59868b6788ca8a74be8c7a9869cc9a99c89bbbd76a8bb9aaadaab8ba68ebeb9dbbcdca8c99bebabb
col30:   78879a667ea86b57768b9769b7c7a8fedb94fcbc9cbd87ec8be9babeda8ceaecf75babc9cfbbabea
col31:   85bbbb7dcb87bf69ba9d9cdaadad8bdd9bddbbd8976c9acec9bee9d9b9d9c8b9cedb9abdaa8bc8d9
col32:   8a598bb6b79989a8a6acf7c5a798ea7cc9bd9bebdaec9d88ca99bebabdaa9a9bca8ed48abc9bcecb
col33:   ab7ad9ac6888c77c9bbbcecbbbacb988b9bbb7bbaeabccc89cc9bb99aacaabacecebbcb8bcdbcbea
col34:   8ca9756a7a99787a7da9ae989997cce99ebababebdab7cedc999ebbdb9a9ccddcbf8b9bbebabbedc
col35:   97b96d687979b7abacbadb79cbc9cdc8deaad699afccda79cdbdcbbcca9cc9cebcbbaaeafadcad6f
col36:   3cb9a88d7a7aac5bea7ddfba99dec8cdb9a887badb9cbd8cbbaaea9d7eda9ddbcdb97cebdcbea888
col37:   a6bb9bcbab796b6b9bacaa9fa7b97b9aa9efdbddfaac8ffb977b7dcd98fa7dfddbcad679ec8c8cad
col38:   abcaedef8aba97969ecb6cbaaeabfacbadfbd8bbadfcced8fafbdc9ddceeeaecb9aebad9cdb9bd68
col39:   bbab57b9ad8987cfafe9c8bbcaae8c8bcdabeabbcbaa87ccccaba8fce69ddecbdc8a9cddabbd8ccc
col40:   acaa88b7c7ce8bb97a88dedae8cececca9a9e88cab9bbecae8bceddccc7cfbfbbcf999abfcbb8bda
col41:   994b5db8b9b9bcc866fd9bcb9da9c8bbdaafd5cf8b96d9acbde7dae9aeff7cfc9daca897e98aecc9
col42:   6778b89cb8dbac9cabaafb7799fbeedbcebbbfb8ad99bcdf9eacfdacfbcc898ebbabb8cc8fbcbfbc
col43:   a9aac6bdabbcb795b8eabbadbadaccbeebb899ddfcdcfab5bacf6eaeddc9cc9dde9dfbcdddcdacbb
col44:   b9bbb59dfbcde79e9bcbd7bbabbbbcdcf7bcb6bedc5ceccebdd9afca6aadb9999ddbfbccfcdfa6fc
col45:   acc79baddf7bece9b9c8dabbcc9c8ef39abdddcbeac9ccbbebb9b97addaacca88eedbdad9996dba9
col46:   8d6789d7e9abc995e88cdca6dbcec898eaddbdbaca9acbaeb8bb7ddbd8bd9e8fa8f7ceeadbec9ad8
col47:   79789a79ae9aadb987caf6c99cdf98af9bdbadbcbbdceba69bdbdca9c9fa9bcabbdcfecfcb9eacc9
col48:   77c94ecaeaf99ab95dba5ad79bf8bcdf9ecec9dbbdc69acca8fc8bca75aabdacb9868a88cdf99e9f
col49:   95add5c88b689a8699dabb7bba97dcb88eedccd99ea9fbdb9c8dbbceccaadb7bdafc969dde89c8eb
col50:   8778d87b9abba86b69cb89a9a9aaa9b98cbeec9ddaccdacdbfcc7be9fdcbd999be9affc9cbd9ee6a
col51:   56b5899a676b9a7a776aaa6bb7995ab6cbabcbb9897cb9d79897897aa5688b8ac49789798a6a8bbb
ROC:	 BPix_BmO_SEC6_LYR3_LDR16F_MOD1_ROC3
col00:   7764885565747693587775454a535678733877897437674728353235356616627827586638886321
col01:   67378589b854965678a865887da6687789977822d776998865696b58989951b7455351a664677656
col02:   79778c88a8557878767a84ba569b7658ba74858869687868aba9588157455d679176954b78825671
col03:   77875476989496959a48237943887758b693838899a66b549a988866976789987648799496414286
col04:   4ab8a5d886b78254cb896688b948ad986a66575c9789632646658baa85a837666852a75635342a75
col05:   986374536a95a9a84d5377c774585a8759a877948669777596765562977b678977a4552676867593
col06:   8575798a789b39778867737a66a798968589a469a753a9a7a7a777789766454957a8684365855844
col07:   96595b4b49a5988aa9a947adba8ba6ab7b689784467a89a595a7ab7a92779798ca85964365795748
col08:   d95b879ab5887564769a9679995cbf79aa779b8a9788cba489977b6476b755649a93984b3684a995
col09:   39539a5ba992b56bcaab948287c6688a79cadb975875ab75bacba9a8778a665997a8594962735755
col10:   5842666988964795a7897893a25687997a8aa87888b98876c789874889ba86696768825697837966
col11:   658b827a698b8725659887e8955587a87bbb89a559688b767c8888da7ba67746996976a8758a2945
col12:   863476788ab76677eaa977877a76a96aa955997a7ab69dbc6775697816aa99c3a7a6567654758786
col13:   3ab66f7ab76b8a867588979bcaab69999a8a787b8996678979a95686c484b98776879a9759788c63
col14:   3797a9a9b7886899869a6768a7bbba5ababd7caca86cba5968677ba87a5977b9a977897784664966
col15:   7667575b578d668b85ca59a89b9984e8a5ba75bba99b8cb7934466b8a6a69aa8b77885aba3752886
col16:   77b8a557467a567499889688c6a8b598797a888798899a8db67a79798a574b985cca58698bba8466
col17:   6a589b6999777a84567676d8779a79879cd78997b769977689c989a786a7717ab6768579b7973734
col18:   79378667884486a6ac59b4b439ba78b55655b8676b88ac59a886b2b4a588baab7383b7756799a79a
col19:   6a79598bb9b6c7857a888c96699889b7c889a97a8ba7aa97c9ba83db6b8a87b7b877b7aa91845476
col20:   669b89988878bc88898979d29965ab7a886a9ba6d9669c849a9a98679c784a868aaa455486658b65
col21:   4c5977aa5e9949978b9956c7999b8658997976788a6aebaa848dd688988a96ac888bbcb969d8ba94
col22:   587695b968b6bb5588778789b569558ad696c65d98c59a88777697878bb4779bb6958787b8859774
col23:   8448677889aa857ba7ca67a7a8ae6a6a9a664e588398aa86774c6988a8868b757874899857677978
col24:   966a8766ac7595a6c48899a676ac568698959666659576ac7a68768b77a58666934aa495da684874
col25:   997a7b69c8997976bab9bb998a7b879bc6789796a8c8ab69a9ce79c9a795bba888cca9693ac99a75
col26:   a9bc7af4a8a9bb87b995a89bc67caabcc8cb99cabb9b7a38a58996fd9699da58a7b99aabe8b76787
col27:   b7a4949978999689a99caba9bc98e8a9abacd99b976a87ccb7b9b9ac57897b89ab67cb8aaa9a58a5
col28:   b9c64ac9b9a89dab99796caba97caa6c9cbc9aa38d98ba9b6aab8ccac7baa9ab8abb89a98b89b98a
col29:   879a93aa9a9bbba8babbdb8aba9b7cc6d978a9a5c9aaeedba58dacc6a9b9a7a7bb9a8d7e79878dd8
col30:   99767899c7cbcc8eb48a9a78b8a9bba8cb8bafc8adbeda9c9ab968ae89a6aad9b9b97a99abc79a99
col31:   a8aa96998daadb9a8cda9babb85cad67adabbaaad79ac98aaadbd6a67cc99ab9bbbb8ccaa9989b77
col32:   b8b79abdaa9bdbbbcf65baa9b99eaacb9cebcecabacdbad87baeaae6eb9bdbbacbcbcebbc7779bab
col33:   b696caa9e97bb898a9a877ca96c9cac89ba99a8cbb7b9ceaca6dc9a98ba9a9d99c8a9a99bd9798a9
col34:   9ed879dcc688a98cb9eacab996c989ae8cbbeba4a9a9a9bb889a9dc9dbec86f8aab57997979b99b5
col35:   daaa84778ac9d99aaab88aa99ca8db7bacae9eacdcd7a9dabb66caabdcdbeda9bbb7b9db7b979cc9
col36:   4997b7a9a9c8ca87abcada9d698a48da5aebb7d99eb988cb9cda89bdaa7bd589d79abdd8a78a9ac3
col37:   ab7d4d886abac99b8ccac6cdccaac7debb9de8bad9b8daababcc79dbbbcac98bcbdabf9c9d98fa9b
col38:   a7cdeb9cbc8999ecdbacd7bdcd8bfbbeda8edbddad9cd89fc9bc6be9bbecc9cbbbadac7e8b8ab8f9
col39:   cac698ab9ab9aacac5aabb9f88bc6cfbcabccc7dd9aabd9cec8bc9fcc8ceda888989a97aaaebabba
col40:   b5d99beaccaed8c9d9abbde99dc8ced6c8bcd8dbcaca8abb9abbee7bcbbdfa97bbd6aeda86bb9bcc
col41:   cbeaa8aaa8c99bc8b8ee98ca9ecabcdafaadeadb6ed9dde9aa79ababcccdb9ab89a9bdeaafb9dcaa
col42:   c87797aac87b8bc6bcd7bcdbca9bab7bdc7bdaab9efb9aaeaab88dab9dea9bb9ca9bb9cac8ebbe98
col43:   6c9be8e6baba97b8ccd989daddbeddaaab8ab7eaccddcedb7ccdcdd8ecb9efc9bab9d7cba7bb76a9
col44:   899c99b8abbbb88ad599bbddcbebcceab997ddc9b9fb8bcfbbbbe9ab7acfadbeb9cac8cbaabcbac7
col45:   85aa7ac8daa98bedcdb57ce9abeacadcdadecafabfabbddaac989eabdafbc9dcecf8ccbca86a99aa
col46:   e6bdaccaa9a799aaa6f99ddda57bcbdbcf79eb9bfa98caccabedbd97d7a9a7abb8cdbcbd9dbecaac
col47:   867a98a7abc9a8bbcbffcbd6cef5bf9dbcecbc9cdacd9d8dcadc99badaac9bacbfab98ba8becbfba
col48:   aabd8acc98dfccaa7c9dcbaba9b7ebabec5d7bebaeefecec799bdbbefbcafcbcccc9cbcabbecdda9
col49:   c9c7baa9aa888a8a9cbccead77ccedcdd7a9aaaebeebce9beb9ae8e8acb7cfdcaa9afcbf7ecda9be
col50:   bf79c79dcb9aa99ac9b9a999ebdbdeccddacacd8bcdd9edccccabd988fdbecfcfdc7c9aae9d88cbb
col51:   87c3c97a8a49e78888aaa699f979acaaa87e8957f6999998abbaeaebc6ba9acaa878bbdaa967889c
ROC:	 BPix_BmO_SEC6_LYR3_LDR16F_MOD1_ROC4
col00:   552768594771557868685675669a95396b58ab9a47a899a689ab757978a98867785b457897558562
col01:   95555a76979c7976b468ac8aa8699a899eccb9aaabac9978897898a78a79aac5b99a7b586889a684
col02:   6586a847789696ab89b995899cb6baa86797c7bb967abac6976bbd8a8ba57a9b69ad685476aa97a8
col03:   ca73686563d959758867abc977a5876db99b77b8b47baba9babb5cab88467ccd88d785779497d747
col04:   ca9c9897a9ab857aa9a5b7b89aba9faca89a999bb9d7b8abcc97bb7898daa7caa8d4ac576c82a635
col05:   5a6c8b486756a98a7baba76d8de7a8dbe88889b87a799aa9558ab9add9299da6566486cbb978b965
col06:   8ab8699a669c2859885979cba799ea8a8a7ab696b9d978bb9aba9999a8aa8979885c4aa784767646
col07:   976797c96597b779894b9a8bcdca7b8ad74d78ada8caac8cd8c9bb995489c997877c765cb868c972
col08:   785888748996868999c8d6973748ababaebb76a98ec87b77cb6a88adccc975e858569a9a45684844
col09:   6c9b5589d8acba9a69bdbb6ab6a899886ceaaa57a8bdaabe97ecaab9c969ab8bb74b9a6987a9a878
col10:   96774463a5a5a86888687c87686894bad4799787d9ba698cc877babf6aa966cbab78689a4774398a
col11:   75668749879868bcba78b8668b7977a666b977a7989bc89b9f9b9cda5c7c99aa88866396585a6ca4
col12:   6b7597878ba679989fd576b488ba99a7bc8d88bb788a698886aab968e99fc68ca486948889888797
col13:   896b6889a487b7866cda78bb6a79a8a4ea96ac88a9b969c8c978a758ca96a8886a8866886a688614
col14:   4a77579895756a8676ab79b897b7699679bbc8acbbc58bba8b67b998599d7aa8a9787aa6cc7a8685
col15:   7786a98689b889a7bb99d98aeb58967ba8cb9aba89da8ccbdc998ab988375669bb89a881b776398b
col16:   ab786b5a9a8a87699a85aaa68c56c96b3ca9a7bbab6ba8a87a9b9a5c6c77a74b8aaa76b8c6285775
col17:   9994857529aaab8a699978796999788567bdd9ab89677988883c3bcab6b95798a9aa9865667a6a53
col18:   555754ab84aa898798c85a68a5b7c97a9bca998ad8c85dcddab7b859c7497ca7a698623667b67456
col19:   a67b796886578b6776cc9cb66c5abb88aaab878cbbb8787e9698977ac8b7778a69a9857899693738
col20:   46466986442a799bbb78a99a856989a68bac998784a9c5985679888c97ada6b7aba676bdc9796254
col21:   77b6ba435687789768aa89159798a6c869aaba98b89bc699bbac8a7b8dbb79a78978b49769757988
col22:   65887a85b7a7a95b65ad9b86836a9cb8ba777aa9b9888b898ddc698dd87b867a676ad7733a695995
col23:   695b586456aba96989789795788795c89a57dab9a67da99859a77747c8cb879867a9b862ba55a752
col24:   959a476686a99b776994b486999b66cc78a999b494b89a99aaa77687c989c6686b89c7997c9999a5
col25:   7888297499668959798b9cb77878dadcbbca99bc8c6b9a98de6aab868765c7b778c69675bba2a856
col26:   6888a7b698998fcccba8aad89ab9e99bdc9879c89989a8a7aae8fea8dac7bd983364797b8b883bb8
col27:   c21857aba8bd9797f979abc69b8b9b9eccba8b87a6e8b9999badebbecc6ebcab86d9b6679a8b8875
col28:   6a6abc8ada7d8aa8ba89b7baa9bbabdb5b99b9cc785b977ceb99acbbbca5b69c868699da9a89886d
col29:   bc8a4996a8a984d8ad7b879a9a59bbab98cda9a6ba8dbe9a8ddada7efedbbb4cb698b8549678a9a9
col30:   998dbcba96bbc78aa9ac8f98d99ceec99869979c8d7bb9abdacaaaac99bb99a95da9abaa67a7a296
col31:   a988a69aa79b9ba998caa786cda996f99ccbb599ea98cac899bc9cbcc99a898da8689bc6db6aae76
col32:   786a466fcbdab99a9a8b9ac9b89c7be89ccdb5ec8b9dcaeab79ba9d9d86b8a5b9589c8ad87986d89
col33:   e9aa88a9b8bdaacb7bdcd99aeeece9aaebcacedbbb9cc9caa7898dcaab88daa6898989bdc9897976
col34:   b667b89a9c77c998abbb98a9cbc69fadb9bbbb99c6c8feabcaacc99ffbadccb979b9ab89bc99c797
col35:   8a787ab77aa9ac9abddb9babbddf9bbebcbeefcaabd89a78eab8bcc9afd8cca8bde998ef8689898a
col36:   a9a979778a8bcb749cf7dcadacaace6bddacb8fccceac9b9b9dadd9ab7adba7ac99a8aab7e9a7b9a
col37:   bbab798d9a997a9c9c3c8a9cdccd7ccad9ca6d9bc99abaebdfdaddcacdb8db69cbba7c9a9788a789
col38:   878db7e8d7af89b67cacecb7dca8c7a6aacbfcadda7cbf9eb8ce9dcbc98d9baac7698c78d7a6bac6
col39:   59cb7abaaab798c99bbedb79b97aeaa9ebabfcdafbcd9ab9dabb6ccbcca99bd8daa999ccaa8b9599
col40:   8c877e6c97966b9eaadaa97689ba8bbcbadaccbdadd9aeb9d8bbdba9bcd9ba7cd9ca99cdbda8caaa
col41:   99ccacbbdaa8bc7b9c98d69adb8bac7bc89cdb99ac87ccadab97eb9acad8a8bc69689c9ce9a9a9b5
col42:   9bb8a9a9ba7b9b9eabbb9c7c9aab78b88dbbbcaabd9fbdccbbebfc7978cdedabd9e9b97ba9898d89
col43:   bc998dc697d89bad979a99b9bb9afbfdbb8e9cdd89ff9d59bd9b88d9cd999bb989acab7fac76aa89
col44:   85ebcba9cdb8aaabd98ba8acbb9ccc8bdd9c9bcbcecca9bac8ce9cfcedbadcdbdcaccaba8ba9b79a
col45:   879ddb898bbdcababaced99bacac9aabedaacb8afdececaab9bbac989fb9de99cb7acbdc8ab8ac78
col46:   c89b9ac98ba979baa9bcee9adc9abd99a76dea8ccadcadb88dc9da98aad6ac999899adc788d7788b
col47:   d78d7c99dacbbe99ba899e8bbdfcacbacc9eafdbda8fcddedaf8d8ad9fd7df879affd7bcd8dcba98
col48:   98eb99b94c8c6aa798acdc98bd9bcacbca8bab7cabac45aa9a9cadbbbdccb98c8cbdbabca979b558
col49:   66baa6ca8badaa89d8cc8ebdadc8abccb8ca9b997aaceaf76cfcba88cbb8cecfbbddbba8b896dac6
col50:   9a9aa97689c8a88c8cbcf88bdadbcbcdc8abbfdcdbcdfacebfdddecbfbdfaaeac9bbaca9bdaa9ca3
col51:   7578c95abc5aa55b96645dd7957ca99866a5dba9b9e9f87a887a39a8eb9995a8987eb687979759bc
ROC:	 BPix_BmO_SEC6_LYR3_LDR16F_MOD1_ROC5
col00:   553a697989b85275697168b7b9d87b9a3c74cda9adba85bd69a7ca7799ba969796a38479a59b5571
col01:   6c35639885757776485796798cdce7cab7687b867c87c68878a88a68ab67cad9859a7baaa8aaca48
col02:   6698847888b6787579866987487ae779c9d6aac947c96caa798a7bac5778696a7b968875a7889764
col03:   b6674b984b5889a779b979b99b99bd9b9987edbfc95bcbc7cca97a79b469ababa45cbbcbbac8a875
col04:   9a65a856778a9889489c8898999bac8c3a5899d9a5dcd7a648bcb9a69d7879698ba9689ba9ae86a3
col05:   97966848bda8b68648bae9b37be699da979ad8f5979c67b588dad7b8cc869ab67d9787b8977d85b9
col06:   658965786847545baac86cac9898aaada4dc9d9bc968b7c88c98bba97c8c65989b89c98baaab9884
col07:   7789bb758787665697ca6aa9a9b9cc5f8aaba9d7b4daca898b94d9ba68b4ba7caa86b8c8c75a6a6a
col08:   285759a587966987a8a797a88368abaa8a99bba75ba87caeb7d97ba8cb59aa93b7566cdc79bba898
col09:   496497686b78b79bd7888b997a8d478bcaad8ad57b98ba8cabbbbc978a8946c698ca8bb998998898
col10:   863b9a598686eb77c57dc79e9a68ba7be6bab6dcba9ab7d85c8a9b9a49595d8a9a95967a9498ad76
col11:   95aa5876ab85769aa87ab89ba58b9cd3a6bd9a564da5bc8347b7ab55c7ba9caaa7b8d7c99ac68978
col12:   4779776bbb4365b99ba5c98ab79a466656babe896b9aa8aeda76c57a97ab5d689aa68698aaa78a68
col13:   684a7786aab6b689959b968aa6997a97576af977c4b79ba9a69c79b67e79b6ba8a734a87a4cc8686
col14:   6558d37aa5a6737996baa577ec86a997799f96bb98586aab9947949cca7a9b884b98aca68ad699b9
col15:   8a66cb96c76969594aa79f99ac7a589a6a66acacc7c7a8945ab69cdae5ae97e99abac7daa69da996
col16:   988b9567aaa896666aabab86aa29ba659c9a8a679888fac988c687d8bab8aba8a7b8688b97b99ca8
col17:   a7c9985887c99c67887ca88899a98add97cda99d78598aa7b37b7c9859ca767b8a99c8bc8168a9b2
col18:   588768999a8b5a8c86c687a7788a8f9ca99b8767add77dacccc75a88b7caec8c5888388599b898c6
col19:   9d499b4c6589e69e7b78a67cb77ea8689b8b98b886999a8b87b87a7cc68a877f8a5a98cc5888b9a9
col20:   99da4658786a98bb67b76888999bdc99488bbb9997c6b7a6dbb987a99bc4689aa3875a8676ba98c9
col21:   5559b5a5ba7bbb8888a3b48b4c8888a9a8aaad8b57969bdb7e889984c7eaede9bb89a9aaa7b79aa8
col22:   aa79b6839b5989babc898c8da36cb8c9a88c9caab8b9bb89829787bbb77ec9ba778acaca93974a77
col23:   7645ab27857a7c7b887c779699b8c6b4bdab7b6b6977c7999ae86897bcc9668dc854897ac98874c9
col24:   35776939ac7a98937a4a97ca88c7db9b79aa796bcc67ca6a895ba78a5a99c38d997be97bc66a7ac9
col25:   a9a4895975b857699b9bb8b5aa89da9cde98bb9a88d9da79b5b8cbd58a6aa9a9b8cba79a9debedac
col26:   b57968c9a9aaebb6aca8aca89afd8e8bebd79cacdbdab8baeaa8e97bba9b9ccb8cacf98b9deb6ab8
col27:   7766a99a677a856cbc9ba99abfcbec8bbddbd9a7b8dcbb8da9db9cb7aa97babb8abcca6994c9bce8
col28:   8aab7bbc99879bcdaabcf9c9fc89da99cc7b9b9cdbfbabccdfa6c699eacebedc9c99dbd4bbd7bca5
col29:   ab5b7b5da678b6e998a9dd8ed8caa89bd7b89aeb9abfaaadbfa8cda9cabbc9ac99acc999cdcb6bd7
col30:   7d8abbb998dbba97db8aa9d9da9ebfacea9dcab7ba8f8daecaaacfaaa9adad9eabbba7abcaae6c95
col31:   abac8bb777eb79b9a79c9eec9aacddfc6bacebdb89abc9ebdb9bc9bbdae9aefebbda5cecacb9a8a9
col32:   c9a8cb8a5ca98bc9dbaecdddbae7ac7df6adc7ab98acf699fdbefaec76bbceffbe39fcf975bcba9b
col33:   a9589989bb7bbfccccd7b6dadcb9c9dacceacdc7d9cab9e8e9eafbe8bbbcdaac8fd8cdd68aecd8ba
col34:   b999e7bbca549bbad5dfbdbeadd7fef8bbfaedbdefeadebccbbbe8eb9accbcfdcde9bdccbcbfbc8a
col35:   9887b686eb8acdadcbfcbadeadc8bbab9bdacdbf8cdb97bbcde8ccacbca7e8abbb7fc9c9eafac8da
col36:   6bb88c9a98bc8bdca9a9eeacbfbcbd9ee8f7cbbdd9b99bbbac99fadbbfab9b9bba7eda99c98deeb8
col37:   b78abd4b8abc9abccefa7ebc8ebfccc9b8c9fb9b7fcfaa8bcbddbbbccbbfa5beb99bcd9ab8b9c6d9
col38:   daa8babb77a9abc8f8beabc8fecdfedabe9f9eb8b4b8cb98bbbabbbeafeddcaefcdadc9fbedecbdb
col39:   a798d6a9d9e8bcc9c989a9bc9ebbabaeddceba997aa9f9efa99eebd79fedcae9af89bcc8c5e98a7c
col40:   9bcadcaab98c9ccbdbb9cdd8afcffdbcbacedbdeb8abccc8bb9cebcbb89ab99b98adcd9b9b8f8d7a
col41:   78c99b5de8dadacbc8d9db799e98a9aafdeeccbd9ae9ebd7fae8cbd9acdda7fedcccdaa9bb8b9afc
col42:   999bae9acaa8bbdcdabab889b7fbdefcebfbaacdbdfaeceab9acbbccfbafdcacaacfcceafecce6bc
col43:   9b95d9aaa6bd7eaac8ddfbbcc8fcfbdddbdbcbdfefbffaf7acb9ce99b9bf8eee9eeaf87dfbaaa8db
col44:   b97beab7b9b8cfab9cdd97bbb96cfeabe8dfaafefbecafdfbeaedacbddbaba8bccadfa8cf6bcacac
col45:   ba98d68bdeebccc8cfbbcaa97caa889ceefaabdcaaeedadd9aeea6bac8ebbbb9be9adcbb998cea96
col46:   8aabfbdc7cc9aeabcaf9ebcdbbbefdbcb99ccafcfaecfbaaefbefadc9bbbddeffcfbacf8fdcffedc
col47:   95bacaba5abcab996dbcaa9fbceaec9cdcdada9cbbcafdbafee8c9aacccbbeafaace8c98c9abfb4b
col48:   6a9f96a69ab9eebcbd9fee98bf7adcadfcdbbeeafd97dcacee9fbeccebbabc69ac9fcc9fc8ab8ceb
col49:   d5fdaa8bcab8fc7cac6adc98cbebdb8bcabd8b9c9aab7bdbac7befddb7bbaa987acebcbcdabaedb9
col50:   9a8aba97abccc6ab9cc9f99a6cacbdcbdeaaadbbb9deecdaaadd89e5fbaf99bc7cfeeacdfdeced8d
col51:   a584a8999a48879e899b4587a67285e57ca79aa9ab96a6876887a8785a9accaaa8898b87e6556f78
ROC:	 BPix_BmO_SEC6_LYR3_LDR16F_MOD1_ROC6
col00:   6b528286a666628655c56689748ea4677d7a87a78a8b78b496c788588589796888996658a9842734
col01:   949468a9568c8ac595a4a56a5699c6acb4c9898669797c88c79679968a67b87799a8a57868876598
col02:   57a87768575cb8aa889ba47749a58ca496cac79ab9c7a9b88df5695a696ba8a6398878b186678545
col03:   8978ba798775998a6aa6a989a9cc74879879aa6bddc7bac87a9b87aa965864ca69c8a58aa966a496
col04:   97b69b28a66a9d947574dbbccb6bba8799aac9d799ba869caa898da9a898a9976a6a677568853b25
col05:   b6a464867bb257574ea778b7985a8a99ca8ca88b4c9aa6abc788a8898998883a576297a669796568
col06:   994c3688e7979a96a85b95777969ca87a886b96ac986c6ba79668988a8ba6a98d9aa57489855a428
col07:   aa9b797966668778ac98979a9979cac65bb9efdc7a88c87ead6b899b8cc566cb34a9a8acc9364887
col08:   9938878789c892abab88696b6eb88aacb796d8cb9a77aca9dbbb6c7888ab9587a589a82a589155b8
col09:   a578779549976a7c8cfe97a88c79889bdcc6caaebacb989ac69878badabc78d8fd948aa8895876b9
col10:   59766795697a7c9999bbc769c9de987a6948c88eb7ccaab7886bc9a9a8998787c6932595837a5b85
col11:   95656797796a88a696a777799a9ba9b7a9987a9b769bac97a6988887988aa789978796a6887c6343
col12:   798555a68959a7788aabd8bb87888689aa895da8bd56a74ba9bbb97689855978aa77666948866551
col13:   aa3845995896a988a3cd9cc868a8d87aa8c98cfb6adc8ac9aca69b7bae8b9ba7a988965a76686788
col14:   873746a87a8565798697b5377baacdabab9ba8b77cbeabc885abc6678aaa861a97c5698934689754
col15:   678888ac7a8cb8a8ac66aa89a9db8b9b88aba87959cb98c867df7b8966a977777944578938297347
col16:   9a645c9bb9b9b7ccb589c9e899b96fdbba9aa8aca5b7698b676c7b999bda9a75a6a5756872265478
col17:   c9996aa878b94a69b8c967b9889b8b98a4bba799877ca6c9abb59daa7c7a6547776a68776a34a6a4
col18:   ab74abb59845caa6abb7ba97985daaa9ed79bab796a6ab9da9697b79bb9ba97996a9655664a85753
col19:   688559a9a57b5a97a7a28b99d4b6e9b9d9a48a268bdba86ac4aac9b9c9579b4a87874935899b7bb5
col20:   27789a5575764aab86ab7aab989466678eb8ca96779b7fa88aa8aba9ab9c7865c188a586686515a4
col21:   89b88b839aaeaac753b7bd88baea9c9bb86a8a9aba7cd6a9bdcb7b9ad888b877988568789447c574
col22:   46a4588868885769a869996b9bbecb898a7aedb7947a4a95898b6968dba7647bc868b38698786453
col23:   4964b9748877a7baba665b46b9a7d8aaaab88d8cc997ca78a7769bb9a66a85b6ab685a5899a76277
col24:   68a6669aa8ba4c7a6d976a898cabbba9c797c4cb59abb889888a9b58577696669a87a565472c6491
col25:   9968877879d9dc6acbca7c8b9cdbac99adc8daab9b9ab9c959766cfa77789868799a759a76555938
col26:   9b8a69cb8869c7c789dbde7b8bda888bec7b8bcdfb9dba989ade8b6ab8a69babbd77a786a9977767
col27:   69c7c8bb675a4baa5babbc77b98ac9c8edbc9ce9cab9febaddba6fcacf977dc789cbdab6b5564559
col28:   949dc4977ad6fbec99a9da98ecd4c88fbdd99daca9cccafacada995ebaea876bc486a66b88754946
col29:   d8c96bc9a8aab7bbdaacdb9e89ccaa9ca898c9bd8cba9aeebbbb79c88d9bfd7ba79a864956a79d87
col30:   8acb998a699aa6a9edbcfd9caafe8adb9ccc9eacbba8bbcbccbbc9e8b79da799a5b8a78978455875
col31:   ab6c8898ba9abbaebb7eecce6dbb79cbfacb9aebcbdc99faa9abe95ab8abb9eea9b47bb759647885
col32:   9a88b7dbb7a6cbccceaab6e9d9e9abbda99cbebdacd9abcbadcc9ca99b9cf7ab79a77a889999b797
col33:   7768bd799b88999aa8cbcfcbfdeeeaba8cdbaccba9cacb9acfc97abbddc97c9b9aacaab8b8989a66
col34:   aab8bcb9a8eb9bea9cabac7a6adceedacbbfc5fafcffecda98aacfaaafb6e88cd96c9dc779c56689
col35:   885e7bfa9daa9aaaa9bcefcc9d9dfaccccd97effceddbdefc9cc999b7bdaec89aacdbc98979bc977
col36:   cb885dbb9b779a97baccdd97afcbcadb8c8bc9caabda8b9ce99c9ac8dbbdb97e8c8a9bb9c9b78794
col37:   9af7bc9aa88ade9cbabcfcc9cbcaaf9d8fdbfcfccefcc9dac9bcc8eda8ecbd897cdda8b9ab886826
col38:   69efbdabecab9c999eaceaacebcbfabad9cafb8dcbef99abfdcddbd95aeddca5baaf9d985b5cd3aa
col39:   f8d4cdabacba8dc8ae8dbb8bcb99b9cc8bb79cddddcdcecaeddaabcfbfcdd9be9ccec987978966c4
col40:   aaacbbcbcccadaafce8acdab9dedeb9bdafa9de9bbadaebadcabddcbafdbbd9ca7dc7cbd5c9a3a76
col41:   abbe6abd7acb9feecb8ab9aab89accec9cabcc8acf9cdbdbbbadaca9cae9cc99c896ba876878a769
col42:   b9b4bcacccc9ede8bba8b9cd9ddbe9dcc9ccadcdebbfbcec89bdebadbafbebab9db9a9c56aaaa878
col43:   78bbcbbbbbeaabccfdb9a7fa8aeccbadddacbbf9d99cc7d9a99ad6b7a9acbadccaacd8a67e978964
col44:   7c8eacdcdaaddbdabacdbeaecedbfdb9cbeebbd8ccdabedc6cd99acbd77ede9cb78ca8b8aa9b6e88
col45:   dd898e8bbbbac7dbcbaeafa8bb6caabfab6dd9ecd9fddcb9ecdbb6dcbccc9ca9988fda7cdab7aa74
col46:   a99bb9bbc8a7c8b9867dcc9d8bce96bbfed9fdfe9cbcfecbca9aaa7de7ddc95cabbd98aa9b2acea4
col47:   cbb6cf99aabddf8faa7b8dca8d8bedbafcecadddacbc6d9d8cdedbdcca9beddafe68ca6bc9b87884
col48:   98b97cd8a9c4ccaa97ffbbbdc9bbdbebf89c7bdbeddedc99dbadbcc9bebc9babcc8a6bcb768978c5
col49:   8c9db9bb79aebb9baea88dadddc99ebbfdceeef9ecb699c8abfaede7a6b999aedbae7ca6a9288bbb
col50:   abbadeacacbeedb7babafcda7ce9aaa8dcba8af8efefbcbc8caddbca9ae9a9daabbeac6c984ad7a9
col51:   68a9bab87879a968775c8a788889b9b9f9cebcaa7aab8aac96a89c88a9a798c8baa57c7b85c99436
ROC:	 BPix_BmO_SEC6_LYR3_LDR16F_MOD1_ROC7
col00:   3865444327876477b376899976a9894a6689887d78897b896a97ab44ab976899b597a5a7a78c8888
col01:   b665a8848897cb9ba356637876d9bb699cbad8db79bdcb9856686a8ab7bbca57a8c64fbbe6c7c286
col02:   47874b984a8889744a88a894ac6cb799a9c8acd78bac86aadaab6a7c624cc87665a8aaa3b9a95b78
col03:   a55688d75e883c5ca8957987b87adc79686c99967b675799a7baa8a7ea99ab889979a99669a8b997
col04:   6c5875797914d977637773b588a8ac579ad6b9c9b9e9bdc6aacab95accba96fd68b6b9896cc796a6
col05:   78a6796956788a56aa665799abc9a9aaaa894ad5d6cabaa99788dca8a9f49879e8ce9ad976788799
col06:   b888ba758a3a76ea9c18aaba689aa8d4c9b98bbe994b588bd9ac8b7c859db8c7b9e9a9a9d869b899
col07:   73467998b496ab868aabba9e9b978cc8dbb8b7ad888b6aca87bed99677ca85bd867754e876b766c7
col08:   75767b766196b6a66d8b7677b797adcf8a7c57699687eb9ab8699a9abcb9698ba7a9b7a9aa9977d9
col09:   55d77a89988a7a79abb79c89a56ccd8bb6e78b7fababca8a599b67bebb4688aca8baacf99aaaa7ab
col10:   865c79cb79a6776c88bb8b9dd8a699c8bbbbb7aaba876ad5bab9bbc46845bbdb9c98677a8767c4c2
col11:   548a57a7b8a597a8695a95daaa7857a7c99b86cdaeaaa7a467bbb8dcb9c789b9b996aa7768799f77
col12:   689796a5798334acbaa99a8b6ab9ccbc8958b9bab6acba695aa6bbbcf868876ead87b8baa493c986
col13:   9994858777a657566a7aa855d99e8a2789ad889adb6cab85dca36b978c8acfb84abbab8fd9c476c6
col14:   67545364a64a79caba59aa8479668864bb6d999b79ca7bb86695ab6778a98b87bc887a999cc887b6
col15:   54584779877a688dfa6888baaa69adba9ab959aa8c7b69a8aaafa87bbaea8b79d89a6a8a8bd77a55
col16:   9485b88c65ac858794aaa947abb9c8c9cda89ca5996a6977e5c9ec89aa98bba596c87d878b4ad977
col17:   698579a648758a94b749a888654bc89c4a9acd577387c879bd6ccacfba9aaac9c7a88b6a8889a5ab
col18:   55798798791b6546b4a87579bba956c97ab9b78899b8dc9cb97578868a98a8bc587d9a88968bb875
col19:   67b9d777a675b9769d8c698bcca54cd9885fc7c67797a6888877db7b6a845a75889aa68ad98989aa
col20:   5b448578798a4c68c965b695b59ab8b8db59b7cca988babd9a9e5ebf98ca559c7b957a95562b78d6
col21:   773a787539847aaaa9aa879b4cb7b6f8d9b7aab979c6a99a7578b8c99c869ab8774b6895949baaa8
col22:   57886577188653d78c488d788784889dd4bbb7a7b9a8c9bacaad677c8d9ad89ab77c957aaaf8ba59
col23:   9978c8a87c87466c6888b79969a9da57ba77c73978a847a7989899c6a7bc7b99b6a9bad888bb7a94
col24:   6a48756766a9787a92956c9878dab68ae8c99f9799c9a77b69996cb9cacab1a7a878e698a8b7a778
col25:   5996876996a7a5a677976b489b98bbd9ac9a878ba787a897b69a9b98e9c95787c7ad98ab9ab888b6
col26:   c88975a8cc96cc9da7868b8c9fc9f7bbc9bb8ba97acdbdc8e899bb6ab8bb9fbaa5aabbdca98b99b6
col27:   7ca76a9a8a8ceabb1d9a967aa88ea79998cea9bedbc6daca6e999d97dda8ea7c8bba9ead89dabad9
col28:   999bba7b8779989d6b768d9befb6a889caabadaafebbac9b9abcbca7aa8a9869a9a5e8e9b5dcbf86
col29:   6689886e948f5db8aa98bbca59daa8a988abaabb98ea789deaecbb99cb6bcbacabaa9abc9bbadc8e
col30:   9889b988ad9b886d7a8c79ddca75acdaeaafbc99fcd7bbebabbcdcdcc9cdb95d9ca34ba4ed8899fb
col31:   9986aedf76bb876ccb9dbafbb879a79b8b9dd5bbbaba8aaac6eeb98ecfaa9cabdc8b7fbba98cdcca
col32:   9a9a89da763edadc8aecaccdcae79f9b9abbbdcadadfeabadedcbbdd8bceebbc7f8ccedad9aacab9
col33:   88dba6ec89b8be9b7eacbccedd8db9b8df9abcbe6dcbec8bbcbc8faaededbacdcb9b99b9cc98daaa
col34:   b66b9c6dbac8a99bc58a7cdac9d5dcbabbcbc9a5edbcbb9efbbac9a8abfbeaba9cc9acc9fe587add
col35:   9c9699bcabaf28a78a9ad8bbaee9cfcd9cb8b9c8c9ecbcdfacacabaa9acad8dccacadaabffbfbba5
col36:   7b6ab8779da8ab7aacb962cc9a9af78bcf97ddadd89df69c8bbdebaa9acfc8da9dababeb88bfe8c8
col37:   7b6775996ba99cec9dc8aac8aeddff9afcacaaadbccbcdcaedaccfd6beaab9dda8ebaa7df7cbdaca
col38:   ab5edb7aa8a9bbabc9efadb9ca9a9dacfaca7b8cddcccbfecaaaae9bc8fb79c9a7ca99ccba99dbda
col39:   89c7ba3c6c5b789c7acceca889abcba9fa6ec9d9caba9ba9b9eb8bb969eeb9ab798bab9a8d7dbf98
col40:   9d27bcbdb98ad9b7eada8989cdf7dba9bdfb9dabd9aa8dfdcdcbaecddbcdcd8dfaa9daf7d7ca87aa
col41:   63cacce6c67dcfdecd9ca89cd6cbd9fb9abaf999aeee9ebbdea9ed8a7cdebcb9f9bdabc99dda9ad9
col42:   a7ae9e5ec8bcd79edbcdacb78ece7fafcde9d7cfa8bcabecccaaaca8ccd9eddbcbbeab9d7bdbabb5
col43:   7ace7b9ad7e8eee39ba9aedd8cbc9eca8bbe7cfcd7faddcecddb8edfbbfd9ec967cdaacbdb9adaf8
col44:   8b6cc9abe8aac99bbaccdc7bfabdd7b8a9addf8abfcd8cf9dd9dcadcbcbcc9bcdebcdaedccc8ddfc
col45:   8ba7ba865fa7c8a8acaf8ccdbcfb9feacfc8b9acfb9abc9ddacbbfb8a6fbcfacabb8d8b8f7ecc7c9
col46:   9c99db68cbbcaa4b8d8c8fadabaabaaddfc8bdcdbf9fcbafeabbafcabb8eb9cee7baa9e88bf9f7dc
col47:   2b9b69cbabdad98abad7d9c5bbebba9b9acabc99aebabe9bb9cfdd9ae8fac89cbcdb8dbcd8ced9c7
col48:   9bba88dbcfbccb8aebdca7a8bbcbfec9abcebf7ddbbbc9cecbacd9b9cacc9beb9d99ab8aefccabb6
col49:   b5379aa96c8ababaa8bde9a7ca9bcadc99ddfcbcdbc6faed9fbabacb9dffbcbabbbcd8efea79cdaa
col50:   c8a799bcba99da58a9cdbffccbddbafeaaadff5ddcdd88dcdd889e9daacaefadca7d9fae999fcaca
col51:   8694b566a8667a977a94a7a77579993ca88658c9acf568a867f8c7d6bb88dac8aa7bb5b6a6ba87c6
ROC:	 BPix_BmO_SEC6_LYR3_LDR16F_MOD1_ROC8
col00:   55664886a5357798a67348a9775685479557ae7c9897765687a8a8377aab879985b996979a98d777
col01:   478688488a9a768953a76a4a7c967657a97879a5c88bba8c9baa8b84caf9b7c9c7ba45ba5bbc9a89
col02:   6a165879674a7a55968889697767b97a4b6869a9ba8d8968b4599b88daa8c6cb9957c8a4539a8762
col03:   876a4688698b577a9ac79d9ab6e894adb9b96d5b65b9be9ba7db99bdadaaba388967c8b8b787cb65
col04:   685577753a7745a698e9b8b8c675a188889aaafcba7b7a9bac97a997a78797987b998b8579baa638
col05:   878867b695689669b895a8b887879fb8b86aa9ac86876b989b9abad8aa9aa99fa9d6898867889a88
col06:   5484786476589998669569bb8ba94aecc996878a979aa8ab9bc85bc98a7b4a4997a5c379a9778885
col07:   25354a96b87499a686bd98a769cc869ca97998758b67b8a87793acb6ba8d85898abdbba7cab96c77
col08:   164719b96968c98e4d6785885c759788754a9c58694896c88ba658a4c6497bb8765a9a8a686a5962
col09:   3467a596aa977946caba66d87aa89a97a889ca67b798d9a9868ddebc9eacc9ba9a87a6a6a9aa9997
col10:   94a7859789597878b8d7aab9db688a689b69768d98768d89987788989898858b88bc988a89985a9b
col11:   7967c6868932785958395677889ba665a7acb88a95a69a99a68a78ab99c867a47aa994a59c696647
col12:   1367586a85acaa8a5698c699b6a86778a6fbb9844bba86a7abcb7aa544cac9578a88776337b6a686
col13:   467851348668953887c8988985e4b8a996ba89b9766bcaf95999a8aa79cda8699449a697abd694a2
col14:   879718699486b65688b5a247a778777a699aba99ebb8a377a9a668999bb66ecb63a4b596a748a8aa
col15:   27245795755794a9a497a75aacb899889896e8d98b8ac9a7b5c69a89aa6a9827d7788999b777967c
col16:   b78a67a7c777165888ea78bc99686adc8b7c87aaccb9aaa359a9f495b9dcc7be7b88a787a8b9d871
col17:   543bd85b998b7674c69976837c9bc9498e57afb762b69aac896678b64eb898a8a6a689b579a87a75
col18:   4666688c59786a8b26ad8ba6975c57bc99be7abf9b9ab68789a971a95b778978988599976b44c768
col19:   4a6a4777b98364b989898a7c5b99597bb7cb88ba973bcb85b7a1d8ab5589d8878a88b8b87bcb8877
col20:   54964796576b8a94ca57779877a4876b799ab9979b6854aaada69794a9a859a995ac78bc83b7cd93
col21:   69a6b95886d9c68ac4a68db7566da998887ad69a59d9d79949aa97ea99cb9a86eac5b7c8957acb84
col22:   7887476b84889a5589a7aea5899785a8a687b867a7988aa3b9cab79b75a87aaa99a4569995887877
col23:   957367698a86b69486795688689aa8a96476764a7ba7895695383c99b765b9b8996aa97565b8c8a6
col24:   a795875a77d5989a9ad977a4789969cd8bab59aaa6b67acb786869996aab27957c599a978c75a991
col25:   3697ba57f395879987476d789ac5798a5b69abe99a8759d85698aa78976889a999989cc576699769
col26:   a58a9d89a7a99ab9ebbbc6889b99c94a8c9b8ed9aafacbce5baae9b9e9a88acaaabaddbc8abb86cb
col27:   a779777aaa568a6ac9da78caba9ace997d66adbbacadabacd989aca97baaaad7ae998a7aae9bdb57
col28:   b858b8a968467a9d579ad8cababb8bdcb7dbbfac98cec999fbcb8cfbbcc973c99df9cbacb8b7b9ba
col29:   37995797d77b9ecbd798aab899789d98698fe9bc97baf97aaeba9a9a9dbed8d589ec8b9adb58d99c
col30:   76d684a8b5769acbb7d99a8c8ad8dc9edaa6baf9c8ecab9da788cbbb9ccb8abcdcd5dca8b8ec6fbb
col31:   99b5e997bcb9a889a9baaa89ccabed9bbabbb7ab9e69a9b9cbabd8acbaabcacb98aa86dad8baddac
col32:   9899997797b9cbbdacbba79cfa9ab9abbbaa9a9bc7aacbcdc97dde9ce8cbdde88a5dcbb5d6aac8a8
col33:   8bb9789aecabb9faaacbbbcab98bacdbe8b7dc9b9c9bac7daadbdcbecdbabaecabadbcc9ca7e7af9
col34:   3bbeca8a9d8cbad9cc9fddbacac8c9bddd79e9dcbcba8e9bcdae69ece8bcadc9aadfcbbecccabc98
col35:   8a98a6a86976c97a197c9a5bb7ddbc5bbeabf9f99afcbbda999bd9dacd97cb7d9cabcc899c89ad6c
col36:   a5788a9a99995c89b4eab8afb9bcbcbc8acb69cadb7bfefcba5fccadfa8ddf3ae9b68ce969ef9b9e
col37:   a6b9cac8bbf9ccabbcdea97c5b99ca99cefdbeac9bcbaeccb9c96dcfb7dccadc8bd9bafbc989e9c9
col38:   c697eaeab96d9bc89aaa9aaaaffdaedabefbabcb9abfbcbdeccf9dccdcedc7a79caaaa99bdeefad9
col39:   e57ed486aab5978c7aab9b9adbc87efdbceaedd9bab9cdddcec9699aabdcafd9eeaafc8ecbcb9de8
col40:   79b88abacba5b88898be9ada7beb8dfbdeabbaaabbadf9bbcb979cddccb8cdb9fcbebaaffbbac8db
col41:   b788985aaadd5a89aa85abbaa2cf8d9e6ccecbfbea77dfeccdd9fbcb89adbccb9eaa8cdaddbbcbac
col42:   78f898ba7b9cbcc9b89ffa7acaddab7bdcabeefa9c9d8babafedbafbbfce79dd7ab9ccbd9ca7efd7
col43:   aaccadd8dbd888bb9aecabebcaccb7dba9acdee7fe89db88c9badee9dddfb9acacceeda969abce9c
col44:   aba7ac567b7979d769dbdecc8cacc9ca6ba9babdcfeadadd9d7ebedccdfcfa899cca9ad5abcbbad9
col45:   566a957a8e9cc9aaecf97aa9b9f5aefaa99dbcb9bbad8c7ba8baac9bbcabe9aba4bdc8c9ade8ba98
col46:   ab6dc9adf88c9addc9e6dccbabc87fba9c8ccbab7bdbccede8bedcaddc7dbc99daccbbaf7cdcbc87
col47:   b8687cb79ebcba9dadcece68abcbbc9fbfccfbaeeddccb9ae88c9da9bdcdbceec8cf9cdccbfc89b8
col48:   87788e8cb99aea7acbfdbccbdaedebe9aa87fedbbed9dbafc9ca94ccdaf879fcbcd87cda78aaa9bc
col49:   c8b668ac8ff899da8aaba9d999ebb99bcdfcfccac8ada95f8dcc9ceb779dbbb9b9b79eccccaaab99
col50:   9c56c9689d8dbeaf9fbcb49ba8ccfbf9d78fdebc6cf4fd9bb9fbad9699aa9ca6d7baa99ab9aab9d8
col51:   56599887b689a587598a7667b89aca69e7abcc97cd87bdcc899cbc75a898cb8da9b6977779a86999
ROC:	 BPix_BmO_SEC6_LYR3_LDR16F_MOD1_ROC9
col00:   4889735774877579316585684655663716a969a495a658a55575a88817492a64b725136113691631
col01:   64ca769a7859a877698a7c7a585a88655b77b8d7996a28b78989c99d8b9ea89d489b947b29876595
col02:   b67a38a66746969639c9978879a979c99cd77baa77979a63ab778359946aa997689543686a264878
col03:   847774576495b994b6a6b6a6b57a6877a8aa8e9876785a797bb6b79995878c47ac64977677924a83
col04:   1a95568794759859a78679b3c5ab8cd7789aa79489897766c576886799b7699938677a97a9517965
col05:   874b9867378756866ae7a74798659b77b9794d788d89a887699695d6a98aab9679a687b458548686
col06:   45549767562a17b4786678a78787aba8faa867aab8969ac9b8c59a97566795b87787667562491376
col07:   a85bba9b7b77b99b858b9ab7bb9986a9a69996ac99bcab58a9a777c88aa9699ba5a783c67a7b6672
col08:   a8968566587667875797a938784ca96b9ba497a89c8a9a8ad96c998b87997a8c8885799878aa7797
col09:   6a6678779995941a7a8adc776c5b6b99ab8ae798789c99b898a7879965a6a7d958898695866946a5
col10:   44a848987687887bb67b9a97895883579ea64889696dc9939bb6bb9aa59998883b79a93647999b88
col11:   997627aac69893a868b597a7aca9abdcbb996db9879a6b8776a98bebba556ab77897b78876416867
col12:   5678743847644a197879898598577677689b6b98c89a99bc9bc99a6b8a6b9a9acb4678b4736b8a67
col13:   27346b99ab7897658bab8a799ac9c78b97bd9a9cac68879fa8847b988db8aac89aca9a9889587d57
col14:   b77554a8676a3a86388b984b856ab7b888a9b69a9a6a99d958a77e7669b87969588ba7a4997a667c
col15:   57767657a8c777aa995cc777aa3aabd87a6a53a747e8a7c7559d42a9b796a3887996858892b44775
col16:   594775397597867ac96a46678c9676badad779879b75a73aaabb8ac679879899c9a85677a9697956
col17:   7a668656448678ada75a9898ba74887b988eccb88abbdc9877998b68788a7c696a9984d84a4aa754
col18:   624a9a8589586958398868b7a98ba7ab7669788cb87c46bf9db7b6b6a93a87963488ab7a71728545
col19:   5846c69738787b97b69998d978caa95ca98996db5789cdabc6678aa888969aa3a18a8b658cca687a
col20:   86584643785744457abb9688b777ba49d76aa5bba8487ba77c9782569b875886756667a754388658
col21:   85d76c8897869a789e99b5bb8799ba98b86aa5cb8757b6cc39a9aac886576586c86b699577648a5a
col22:   774b6aa5756a736558b8897d774975c6bc9cd9beb89898b6b8ab99cbbb9659a89473b757d665c645
col23:   679385a55a6a77b69b5c99dcb8799b7499b9968ccda9a67ac966828965baaba68ba48aa879728994
col24:   65889644a7b78858aab7b87d79ba7b89aa98977b6a866778b99aa777858c97986586b79576892933
col25:   87bb57c7b9c48a96b8ba8e5ca7aa879aad8baeaabd98b8a9b8b7b969a7c779886ceaa97b8a885937
col26:   98a4aa7c4e7bcbd788a9c9c9bb9bb8ab8ccac98cb88c8c79b9cbcb9cca89a6b89759b6588ac7b989
col27:   68ab9b9d99cd89ea979c7a77c9afbeb7cca877c5deae9e97ba9c9a9ac8ac978bba996d8a89b68944
col28:   afabf6c9ac8a98acacc8aadab9cb7d8c6bad9a8ba9c7aa7abca5c9b79cb79b69b89b798579ba7a64
col29:   98bde8afc88a48b75e9b97779d9b7eaabdccbe99b9cfecad9aaa79d9dca97b9eaab88699a7886a48
col30:   a75735b69c78988888de9769b79e9b8cacc8ba9f9cbddb9ba6aa9eab82565d99cc87ac89a87d5881
col31:   8bc9ccbacbbcaa88bdc9e9ce98ebdbdb79fcddcec9ffecaacbd7cae9cdccbbace8ea7689a7898aa6
col32:   ac89ba6e9d98ec8abc8d8f98bbaeeadfde98efebbaf7e8d98c9aa989abeaadfcba8e9a997998ac45
col33:   7bbdaa8d49b7b99a8c77abaeb9da889b8eeaadc978abbcea98dc99bcdaaada7d6bcbbac6d87cb884
col34:   aa9ddb8a9b4abec99e7a9bbbced99dc7b9acbccdfdcea7cedb8f9a8ba885caabd8d99998797b7ca7
col35:   abaad8ca9ba79dc67cdcedc8ecddca8aab9faeecedfcafad8bbd9a9cbcc8996aaca98d753a79aaa6
col36:   7899aa7894ab7cafdaac88abaab9be6ca89c9abe9dbd9cc9b8cdc6a86b9c88e89a8ba9a97989d88a
col37:   dc9cb7d999759abbcbdbaadbc9ca99cbddcdab8afbba9d99acbeeafebafcdabbcbcb95bc7798b86a
col38:   acad8bacac798bbabedfd59cde9bdbefcadbacdfeffc9d9978cabcafafd8bdb9b6dacb58a9a6abba
col39:   89c88ba9bbabcbddba9ebbdabc9eccd9d79fbbbaabcbe97e7ccd7a9a9be88c7dc8788ba7a9b598c9
col40:   fbb978aae618b8d97ecabdec9a8edefdfebbec88afbcbcdabdc98fbaffbde8beb5bbbc8f987957db
col41:   adcadacba997eb8efaabadedce9fdacaaf8cee9cb6cdcd9acbbcc9fdbec9bfaacfad77dbabe9bcb7
col42:   b9b8b9db9b78deee8ccfdda9f8bcbdcfbcdbb79ace9b8baacdc9ccafdabb9eacdbdc9a9fd38898b8
col43:   9bfad76aafba7bcc8feccbbedbdaabbccebdfec9cacffcceda8dfefbebecfdbcdf6bcbbbfab889c7
col44:   d9afbb7cc9aafbb6ab7adbba9dacfdaabfb8ddefbd6daaeccbbcceefcbc9fabcbabb99687ac6ab77
col45:   abbaa9b8dbab9ba99acdbdbd9785dbaafdcbedfedfc999ca9cadcbcfba8ba8d75f8c698ac9ca79a3
col46:   a9ddc8eabbb9f9ddddcdcecdbaebffcabcfaff9cbbbdfcbefcfbaadc9dcccb8bfbcbbba8babc58d6
col47:   dddb8bfeecca8ebdcdeea9aceefff9faacbc9ecfd8ddaecedbca9ffac7ce99cbca89ad8ba9ba988b
col48:   cb889aba979bbd8bd8ccbbcf8cecaccdcd8ddadcbbcfdc8a8afffbdbdf87cbacb49afc9d9b8af7ab
col49:   9bcf89fc8eca8bde89cbf9acffcadcdadd8fdadf9baebaaaeccebefceaf8fccfeb6dcb9e7b6cc9a8
col50:   9ccaabecab6998a96baebbbbdcbcbfafdc9d7abfecefd9ccebdddbcbbcdbacda9db9d8b9aaba8a59
col51:   c9aa79699b999896697998bb9a67dcabdadaadabab79bb88d7d895badeaaa64b59888c79a6855baa
ROC:	 BPix_BmO_SEC6_LYR3_LDR16F_MOD1_ROC10
col00:   1364a476a975649668767664969756593653855549576582548a4784969674643399a48551245385
col01:   b7b68679c8ba7a696768b7786979aaaada6757a776b76a88a95b896879865788861587978181a968
col02:   93836666a5958c96898c9866476a99688a897a8349577866ab85976a5566894544a6869987538a76
col03:   97796767977897a7a46d76a5b8a798a96ca65a4738a59748a75a486a69b6a69b5a7749ba57867a26
col04:   3a57789b4758a59148652698937baaab948aa86b8a768a168985b89aca74a9587755377773858982
col05:   99789874967a5397389697638789a897697a897768bb994964b87787999758ab6548b4ad8a667767
col06:   5579967799657575549768676458aad2d99db66f56b5676b58788763867569995c96388355717988
col07:   46299b56a958a73797aa9c54ba8c4e7897aa788b6a78a5889689c869879967b5757885aba7397a68
col08:   b234a765685882aa5b84986478b488899896b9489c977bb886aab9aca96a7888759b87b894458686
col09:   76a78869797694cd89b8c989b8877439aa87c49b9e69a79663a7bb87e87799676867958b87658797
col10:   659b867647b798b9569acb7da7b8b67d747a579666977895b94a78b6577978b987568c67a7787254
col11:   4986c3669747779b869b7776987798769a866a7cca47657a77698879c5995796a665664768a86682
col12:   66855858a76696995527ab9aa7a97ac6a889bc9c76a794a98a898a7887581858a569296ba7684664
col13:   856b77b5748468886887c37a7996b7a6a8b8bdbc87aab66a9867a9b8a757579a7ba957a87b76ab57
col14:   7886a75175466967b88784777b87a88dabdaa668895a6789958998a8bbb76883487a9936e838c585
col15:   714787b4956888668876996777b9a67977967979b7a7ba7a89857d6797d99b9b86ad89569889ba84
col16:   8ca4739584658a8a974b89998b47887aa7ca89cc887b88996858b6a89559b85886b6abc79a58a868
col17:   675a36559a77367769567a88e96a7a598657abbb97b68a66998b78965938b6795899896643895894
col18:   59b4479483985531b47676ac6877b69796aa76aaaa9798987757aaa78587479a74689a7a84898484
col19:   96998798a8587998b95998879774e98a99989d88a8879ed669ce6a9cb8a883876698696aab6f7864
col20:   37699785a68a8446989a9696662d9a897479988ba7769b7a79bd8ada6786655885779658a9566487
col21:   88878589a887a84277688986a697cb98599ca8a899889bd6a68a89a8ac8c8b859378877c9995c5b7
col22:   77688796578ba58a9687a88aacb6998b9997d677888aab5974cc9aa77a799687b586baa577796645
col23:   65687b78b75679546585b9939877779c6b78b655889cbbeae7cba999b5c8564789ad6b88c976da98
col24:   76876b876797547656939769b6a6a7675b97a8a784b8669a7b787a8ad7a99b7a7c887588a6685797
col25:   9768739c85729686a998c69bb76b7cda7795989bbab7ab69884899ad7998abdb7846aa7837859265
col26:   886557689a69718ba5dd97ba95799b989399d8a6a7999897e9c95c6a76aa7d87c95c9a88988bba77
col27:   76878796a9796c99aaccd8bb9ab968beba9898e98df9a89ebc7898ebd8578b998668a9987bbb8b44
col28:   94bc8aa8a6b579988acda9c48acbdabccda4aaa799daa8a8ca88b8cc7589a99adc877e896e98f9a8
col29:   bbb5959b96ac8c89acbcaaa79acabcaacccadab9e89eca7999b8dabc9a9ba968abb89b6abbadce6b
col30:   868586b59c68897789bcb878ac995b98dadb98abdbbbc69d97a7ba9aadabf798baa9ba9b98667977
col31:   7b957aab8987c567a8b8c8daeeeac9bedb97a9bd9ae8ccea9d9bb6a8acbdbeadc7adc8accceeab88
col32:   8b85adaaeb9c5afb88bc7a99bacdd8b7cbd8edca86dbd9cca8da8b859adabce9e9a8acdaa9daaac9
col33:   574798997aab75896ebcb9bca9bdcaba9899d6b5c9a988ecabec8aacbca89caa9b7bb96badaca7aa
col34:   8c4abb8979bb957bc9cbb9c8bedd869d9ddbe99bb9be7ac89abae7bada8cf9b5ab9babcd9c8b7c8a
col35:   667bda8a78d9d8a9aa8bcc968bc9ab9df89cadab99a9ca899a999aa8faeccccdddeccb7bc8c9acab
col36:   bada988cc97aa69abb787b7b9da7b9acbbadbc699a99bfeaaaa9bbac88cbc7ab9e7d8aa59faaab89
col37:   b8a8dbcaa8da9b89a97fdcf9fefabeeedaddcacdeffb9cdbaa8fedcbcaa9ccc96a9c8adbdb9baaba
col38:   ca9bba999a7db8a9b9ffa79dcbcbb9acec98ad7cc96bb8daa8adacbcfaa9bcb8c899dac6bcccb9ee
col39:   9ae69d8dd9d9badb9ecfbabcbc9cdc8dad8bac8fe9fdbfcfcdafedeaea8db8dca9defbcabdad9998
col40:   9b96d9bac9b78c89af8dfcdabbbcc9fba9bcebdadab9b9de8b9fbbcefbb8abfecb8fbebddebd8f9a
col41:   a6ba9edcbabc9ae5abbccebdac9fcecfdcbddcfccd8cebefe5ee8ec9fdcabbd8dac89bcee8fecfb7
col42:   aa9b6da796cccbba6a8becacbbba9bc9b9aafbca9dadcaaeb676dcbdaddb8bc9bcc9aacae9dbe8fa
col43:   ac9a9dddc9cb9dbfecffbbfa8dd9bbabbf9bdab9dddfefcfdaebecdfdbfec8fcfedadbbcfbac8ade
col44:   8ba8abcb9969bebfc99dce9dbb8dfedbbd8bcafacbfddcbbeffbcbddcdd9ccd9ceeebcdebdebadeb
col45:   ba8a6c9aab97b98ba9dfcebe8ebbfbdbabafabcbdcccfc98abc8ddabbbf98dddc8be9af8ebe9b9a6
col46:   99c7ccaada9dacababedcbac98bacdbdafa9bcad9cfecccfcca9dd9cfdbbd7cfcabf9bfe8bedd9ca
col47:   aaccace98d9bce7bc9db8bdcbca8cecfbc8bb8cdcfbedbcdbffccac8baedeccc9cdcdcc9cbb9cdca
col48:   7e88caacba7b98abdaedc7befdcaeaacafaeeec99c97edf7caccdc8ecbddafbbaafcabcc9dcaba9b
col49:   8a7fcb8dccaaecddadba9d9cbdbbcdac8dfcbbffe9bbfaccdcfcbeffbdcbeecfdcefcfbeaddfeaea
col50:   7b9adcad7dbcfbcbc9acedbadbebc9dccbd8babccdcbecbad8d9dba7ae7aa8cbaaebabaafebcedd9
col51:   886968caa7657f7b777778aa8a56aaadbc98c9c7cbbeacb88ac895ddacdea9bbb9acc9f7c8ddba7b
ROC:	 BPix_BmO_SEC6_LYR3_LDR16F_MOD1_ROC11
col00:   46867346128251216768433587958ca7873768736984887553966546485756562366337441363241
col01:   4488867a44668975559429b5346799b6ba58b7d3a8785786a7759744a466a61dd8b7245486754685
col02:   77185187589a199535846239688535696872867b97a89996888886767941665666899359854a9478
col03:   42365727464b86656aa577869a5698867b979a79cb878b5876798867cb87b8a89572968576384873
col04:   42711296671a4444575586538898955989678b797655d6965c54388594a799766878478384773767
col05:   697b5449a897247b65266b578656a73caa748d66d695d8aa547877575967787a6576a29789765142
col06:   7655943674535674558b79646792666794753686799b7676979555877a9689747595765b76566695
col07:   c77699794655448a468b89987799797878885778ac97a67a56b66ad9aab74885959b648796669364
col08:   56497635534583b9397884a99693daa8899c67ba5a8696a887a558958b57584679ab967548949a53
col09:   6378767a667374479a65d8686c596976a88a8f69d258b69658789579897b87847588871487936762
col10:   655624477651877928b65737879a87979868a6466b56769b9bc89949678685975798958555456594
col11:   6766755565647585a49c696b8a668999bb9b7c925597787a6a565b9baaa7aa57a555766379579637
col12:   27b848b7a76447168b767a9957475a853879545588877696b76aa8ad88649746a9585b374577866a
col13:   6356888679648978b98c985699a897966877767a57593979b756a569899c577568169534b5846852
col14:   65557673747776a878738a674b9865977aacc676686aa97834b779687a4b75a6b95668a397a68835
col15:   445387552462778768875a9778285765b688498aac637713985876c7aaba878987345a58644b7492
col16:   7b588653a387683575b785986647939b95986d697978ab8686aa17aba7a655986885788557998751
col17:   674582275583836999a887956698899875b896469688c5388a8889c98a5d7789994734675455b875
col18:   51635945568946665ac796bbb44ab6946dab78998a7b97966c88a3778c8778688948696642612c64
col19:   4947475a457c777677699d9996967b84b95499a977d8a9589b7899689899a9689926968865b78896
col20:   36753515779764895756899699787869884899aba69696a79797994a9987679b874a769697678875
col21:   45a66767432766464797a87479c8779698aaa5a96aa8a898b86564b98887698796b8978465996667
col22:   61768558666496a58987673aaaa69bb95768387b5b688b68aabb678c9679978869a73584a7857a68
col23:   666417755565396286677715a5aa97699aa977788857883b77a9bc725975598a768757a98775a8c5
col24:   a546676789645596789a794a5594898a6549995495862865a778aa68ba647ba6c5b87557a7373643
col25:   a77814754766746958b88454a99b6a98c675ba879b587c79a9ca9bb99979a666968767867686b988
col26:   9667764874549947ac79b578956c5996b87abb7abb99b8989a746cba9975799774a89a7c79a6ba81
col27:   7598854b75858556a87ab9789999a8bb9775878bb79b7a9786b778b897785b9956995d9c76b68726
col28:   79a84669656a87ba899d965c58a6e97889a6abc9d99a7ca6ad9888799c4a9cab8b965a99799578a4
col29:   6a7b6957674c9b83867d8a89a7aaa9b8b5abbaa6c69a69cdaaaab89a4b87b8aac99aa4968c79b9a4
col30:   7777689a98693628aabaa895c7c697b5c59ae8878aabaa968a6bb7bebaa998bc889a54788676d298
col31:   9a879775a489c79dcecad98aa7ab9bbbacc69abcbfba9ceec9adbad9accbaca8bb89c979ab997a17
col32:   8d5d9a9d8566b98b4a7aac989878caa7db98d8b7988aa59ca97badc9c96aac99c66997b8a77897b4
col33:   879ba89a4ea7a977b97ab8adf5b9acc8cbb75a98ad5b9aaa8bb8ac9bcaccaa8a6d7b2bca89868acb
col34:   7889db57a86ab448ad79c99a7bb87b79bc8b6a7ab7dacacebabac8ecd7d9bcc76acb988bbb8a8aa6
col35:   a77787aade997e8a8a968a5c5a987b555a97bdcaecc8aac9da997caddbcbfa4a7c7b799aaa879394
col36:   75878388af98c6895baaab6999bc8aba9bcbaec85eb87896b98655bc8db698c9978da7b9aad9c897
col37:   6965a99b78aa5d7cc9ac99cb98a9b7bdfecdc8c7ddbbdb9bcae9b8aaaacb9abe98a98799b86cbc79
col38:   8a9ba37c9da9d6887abba9aaabcdccaec76f9a86fbb88bc8caadf8ce9df987a9cdc9778788ab7ca7
col39:   9a17a95ade99ba496a8b889bbddbdacb8b97bd8ee59d9badac97ac789d8ba7d979a6996a58a79987
col40:   8a2789a8aa9ad8bbbb79aafea5babbca9dbcc979db9f8dd7ab8cb9bcaaab9c79d7d7caaeeb79a759
col41:   96979a86aca7da98ddcd87bddb86cbb9b9ac7adca99ecbebccdacca98995c7dbbaec97aecca8a8a7
col42:   b9448998a779888db897a6bdc9dd5d7b9ab9aba9cbbbeb9d98b5a98bc98be8e8b9d7ba8a9b899a9a
col43:   a7898a8bdb9a6a5e9bacab6bce8f899fecc9cbcbdaaaa9dbabbcecdbfaaaab988beaba896ca8a9a3
col44:   77777b65b8a95789adbc9bcd6bcbbbd89ccf79ecbeae8edeaaac9bb7aadabc89dd88698abbbab877
col45:   8cb9c8d9ab97c9c98aaba96cddcfaedbedcec9a8dabfccd7da8d69ac88da9a99f9679c999ad9bc95
col46:   cc9ba779bdab8a99998ec9dbb9abbba8dbba7da9df8c9d998d98dc896bdaba7cea969cbabcac7997
col47:   89ba7cc86a66887839dae97acdc9ce8dbcaececeb9adcbdebbdbcace886b5bba99a78d9cc9aaa8c5
col48:   7888757b7cc8c6c88ac9b888baa7abbdb9debca69ca9d8adbabacbcabbbbaadbb6c7ba87ab6bcd78
col49:   885dbabcc9ba8ababcb8ccdd8c8abcc99b9d99b8eaabb996dfbba9deada8bd9bcabc98d9daa787dd
col50:   899879b778bd9c9bb6b9e9a9b9acbeb9b98abbac8a9ddeeec8a89b9cf8b998c79ab9b9b9abab9cc3
col51:   4967982999a7485c8999689c39799aa9668b99a665aa9c988987d7d769aa7a5a5566b558a5579682
ROC:	 BPix_BmO_SEC6_LYR3_LDR16F_MOD1_ROC12
col00:   74456459585488647569a438569978da4985797688a7797995694b97969826816a834734aa474254
col01:   58597ac66968b6567a789b6988b6ab5ce7bf8acaa7b96ba6ac4b8987c5976957856a686a66b33765
col02:   5689667a977948b8a4775aa858989abc89bbab48aaa367ba675686b688ac6acc64858a7846842625
col03:   64d7ba68fc65788cae879c78987bfb9ce9b97576bc8697e5da7585a7cbb859b88666974915a73745
col04:   89894857aeb7a584867778a97c976a97aa598a886adbab9c979a9a98577b84a675854a8478456652
col05:   98765778668688a8987abbbe9da9fa88ac756a968956c785b6b7685b8ac77887ea4b249577996984
col06:   89b5b6b63c97aa988a99c956969d8c6c9a79db9bb79a9a9ab7956a89da74988988866a8d8796a64a
col07:   64557a7945879b958ba98793947b8c9aa5b7a7b9b7999b77a99a3948b86c96d877a889a6a9744239
col08:   457695758677a5b7cca7d5a778ab7999b86cc9786786776aa7ca8a84a8969679798648556a956837
col09:   7caa9448449a98967a9cc589cbbbcf8dabaa7ce99889a89d9f977aa94adc8ba899a9573662987546
col10:   aa5a68c7868544aa97987a598a69798a84bab768c9c8a8a4997978c68358d99a4664877a556a69c2
col11:   172964b4ba5757ea97897da798984b6a9779a59789699cb34979c762867863579b495855abb76642
col12:   6588a487a58986779b887774779c89be895c679956a87b895c988cc7a5be89d8968644659da55491
col13:   6a73968952574b7b379ab9988c5a7b8598aa98a987bbabb5a7a75896b5ba97567cdb878aa638a795
col14:   47574aa652975386787aaaa699867d788a59bb7d57b86cc89b8849a9ab9b64a96777a65839689678
col15:   5985548689b766ad4b8a69b79a89da69abe7a6649775a4bdbba88756988ba68cccb5969785559b92
col16:   19c57767576988b978989c7a9b8b668998aea9c6874c8c7a89c85a8c17a77aad6a7598b7c654a771
col17:   57a6855997376867556977995347b68a76986ab7779a6a9bbb7598788894c8c84676b89a63155656
col18:   47757a4a478a8682857a9b998497a6725b79bba9c6a79aa799596c67b68a89394656a85787898473
col19:   a72684aa798756719a7b69558b9c5699b7a89a8ca89acab8e4a77799b84786767779b77688773399
col20:   364418678825768895a772499b78ab99969789c94c96497baaa98915999868847576798877675268
col21:   659855853556b6ba2a65858a9a9a97999a77965f6db4b88b953bcc79b9a6b87a7a53989722b5d513
col22:   74364467586445a369aa64b89caab8dab69899ab67666bba687936898888bc65d75766b6a4887454
col23:   e4b893a78e6565b799696968977b8c887b599567699637479a9c769a49838537aa587545aa645533
col24:   66175653517895b9b7568b3b5bb98858989a85b8ba29b5b8b9997a5989c9686e9886b89973a69973
col25:   873558b666869373ad46a69baa789897bc88766889ac679dbe8b7a8b4ba89b77c61652b5a9c637a6
col26:   83a79783978a9ac7b25aab767f99cbbd8cbbbdbfc9bb6c8dba8b9bbdd5aaa7788b65b855bc7b9166
col27:   77798da6ba9a3a7ae97987b6b9866db8abb8a6ac4cc9dae88accb9b9afab8989ba689a7989898666
col28:   5c9468b8a6dbc5a586b878998d9bba95cdee9abb95986a84eaca98acdcc65a77da76767ba4986674
col29:   8798b69c657b96999958b7c9aa9aa8bc99bc87cab6b4988aa89b8cbaa89a4c99a8bb7898bdba9c56
col30:   6687979a819b948699a8cac86bc8b98c94988796cacdb8d7e89ca9babb9abba367ab7a95677aae85
col31:   d9a48a75c5b9a5b96aceca7878996fa7a8b8a9adbb6baab7888c9ef7c8a88ab8bc79b9dcccd89967
col32:   917878b9aa885677eca98a89eda5a6b4b79c9baf6e888adc469aa98c96acabdbb99b8aaa7b5a7865
col33:   a99ba868a49cbbc697c8aa9cbe98fdba6bc8ac898bdbbcab8d6a8f9f9a78c88abad8bbcbc9d87a87
col34:   c5a91589678b89c7d996ec9accdc5fb9cb9cb7c7cdb994cecba98eb67bcabcb6c9ca6a497b76b869
col35:   953666b878a9adfaab9a9cd88ce69dbdc6f99abbab8ab8bcdafb98b98ceecf8c5c9aa89a56879ab8
col36:   797887685ac78bed67cab9aa8bda7b976ac9d896babbd9c79bc8bacc69cdaa56baadaa7875986567
col37:   bab7c688c9b99d77bc96bf9bafa6bad99faebddbddccceb999acbc8a7e7acbab7bbc9bb7b79977c1
col38:   74b996b72a89d79cbaaaababaccaabcceddffcceafbcbbb6fb8c9df9ae999686abbc6c87aca5aa96
col39:   678b87bab69d29acdcbba7acdaffccba7798b7b9cabfe778d78bddda9dd9afaf9d98aef977e6ac68
col40:   ca8969da8b86dac8a889ccf8eaacaeebc699bb9caadebcdebbfd5abdcdcbc9da7a955eddb7a8b798
col41:   6b98868a857b8a5b9aa9f56a99bbba9dbbc9bb9984bbcbabcdc98898aeec9bcbbb9ca788a8ab7866
col42:   692d8a899789975c89a85999daadaefbadfb5f97d8b9ca79cb7d6b9bbcd8aa87c6b8ca99b7797a68
col43:   9895cb8b59ca9967aa8b9bdc64db9c9cecd7aaafedebbbfcdebbbabadfa5bbbfa7ab69b5c79bbb79
col44:   77ba88757ebbb68de76bb7e8978a7eb96888ade8ccaaacbaf679e79b8d89b9a4aebc8bcd9b6797b5
col45:   ac97897aaaa4abc9aa7d6c89cebbdcdddaae9a7be9dccc7eddc8fcb99fb8bc8ba8aa977abc6aadc5
col46:   8767a9a89e4cdaa7ab99fa68add6b99a9abccbd9fcbc8ba7c8abacba9b8b5d9b8cabcb936a99d9b5
col47:   996ac8da8ca9b9a599cab8ac98ccbb9c9b76a9d9acbaca9dc8bbb9bf6abc7ccb89bd8c86b9bd6973
col48:   49a9a8b8575b98aaa69d9b79cd688866daeb77bd8a9cc89ba8a898cbbaef7ab999c9968598c8a898
col49:   6799b9468c497cc79868c9789f9db6bacc9dc79a99dc9baaa8cd7e89ca3bb9dac7ba5d7a99ccb979
col50:   b5399a69ab68cd9788a9f98a7e8a8babbd97bcddbcb78a78bc76afe9c6de78ba95cb986e8b788ca4
col51:   a8747b85538558878659614a774b6574a8688884a6899878758787485b7b996a89a2557779666b55
ROC:	 BPix_BmO_SEC6_LYR3_LDR16F_MOD1_ROC13
col00:   2485726315665683266236343692717767655567a797784365822652735678685547673146864911
col01:   9443534463c567658557459438456698996776676758994549647539727868a979589558665a4671
col02:   7675764851556555177845499957847735477688646557986649865858a577846675669353478676
col03:   564845443185467546745a872a6967774ab3a5988a77779472558567a78688868848596768276394
col04:   57553495556545579546b46889647755571985596844846569821854458254878634472345469663
col05:   35921561676a36665824572638b676b77862579478a7765763659484a176154747566566316335b4
col06:   75569615225537658465366655146243677aaa87a8994a7592556777666134766535288544446764
col07:   646966364484874556a96677566455786b498664777554a89a9771a85678a7ba6678677785679214
col08:   2767465668856585577967659537243839888455785748787483454756927763677a445b56b88765
col09:   5876458526865344654876a965936587668867698577686598b967756679757a7467867685699655
col10:   68747956945265476746986881a94655697686658764797b8746547a958695766783959477824b64
col11:   54839243614854645566479567899679587757a56537c7866888784489629656666798489a866654
col12:   236884585745563617588675a56567887a5665355369376748544539a69c886947857256a5586b62
col13:   57825553625457565556764597658595585558a65695866a8475a767a8786558a7495b7757747677
col14:   4486535594374757684479464667aa5569554844876b2584763675b9566654635858873485653451
col15:   666533873889434546568969777548668786869a77974b94346588b49996695b6748598657194955
col16:   4576866345676674649867736647565a77646995795768677965669546677a776834876539466394
col17:   55354675545533387696374876897569979986a457659575976545547a2388576a63775642435713
col18:   348231a483847354955282759674676454b66766359654468977798568694696a345768346557585
col19:   574365489443496776976355a56685866b89566a485a4895478b47958b4d687797b9942445548562
col20:   655586664567888886645677877487775656773857a5366566788955544856658867999a5514b645
col21:   271718972268636684677a8548748786477479496666776475263476947677541537765768726576
col22:   58645641566b49856558679787766778864686c979476576435538457946777777689a7486597469
col23:   61578938b8573786767557b87488b8897a7765695485398685457786687768679866697756334576
col24:   4668368666469963a7963779875588b889954748648a7696785868966364577948743864717a96c3
col25:   325665637663a77396977454c69896688438a9878ac7958787ac9594686a9c9679c5b7998588994b
col26:   b4579a68b799768a778799687a8aa78ba68a9ba97667689ba79c8ab79a6599887a8685789686b4a5
col27:   5684c17587857b6472759989879b86677bd689b588bad5a986a76b98c4b796556b73a75a75569682
col28:   363697a988a7b8566755798878799698b996697853aa848ba9869b889c8a96989a4887a899877694
col29:   49227a965b5b475658997a98a98ab797a89aa8899498798ca694b66a7a7b98577a79489888a58769
col30:   976a8a667448c594638b7bb7757993c8878c9898665b99a776b99aa8d64979576a6769769d56996b
col31:   8876564477888867ba996cc4779c966aa9a9c8b6da5a846899999879c69937779c6987869486cc7a
col32:   86566888487456697c9dc899856a7c977b969697c89c9796639ba49a97a79587887767746a988576
col33:   688959aa7692b88a897bad9a8a7aac8895a788b7d4bba699e986b88b6a9787a96865568b786a9964
col34:   56b4a877666a566b7a9a78a9988857a9ab577999999bba997aea8ca98645787aa77aa9a977b9a9b4
col35:   a88577ba7a8987b69dd87389b685bb8e6a738859bd97cc99d8aa76b88aa9ba8b7a89d89a8ab486a9
col36:   93765a47958ba867597b97aa67a868965aab6b78a8c66599babcdab857baca97b9b8679696489967
col37:   7575a9b9a79984aa99d7969a89db5cba8abaa96a8bb777b8bb99877ac89a79678a88a6999c899a78
col38:   65b96876787a5689a9c7c7a868c78b87b5a6cd9cbbda7a9d9d9b9da78787a885aa6d7799abadb896
col39:   85865967aa6688c9697ba69a997c7a798988c8a86bbabc779a8888b7aaa79abd8a6996b657a57785
col40:   a98876ab68ca8cc96785b9b88ab99bda8a7ab9b8bb9bbb77ca8ac7979bec888a8967a4785a5999b6
col41:   79549c6c6b6a99b7bb6ac9b9c7875a79bb9cb86bb797aa998c99bbbcb988b85977785699578a8985
col42:   7588a78b994999799a7a8bb89879cba7cbb96a8589c9bcb8bd6ad76a575aaa96ad9a9aa9a5aaa57b
col43:   b787a98bab8a79aa68aa8cd5aac3cbadb57b89a998aba9a97adb8a9babad889a87ba8ab3cb8999bc
col44:   6616a787b97a79b87db7b96c9b7a6bcceab9b8c9aa9ba89a6b7ac98a6c989999bab6aa5aaa58889c
col45:   6519888877b698b9796a85a5a8a78db69a9d8aacad8b9896bb7a985acbb677a8e6a77b88676b8754
col46:   8a67a7a886b88988988dcb989d38ada8ca6baaba9d86a997b58baa69a9b9aabbb59aac9788c6daa6
col47:   5169a7a8a889ab89adba69b997988a68bd8b99ba99abab97a8cd9bb9a88a889899da89c87b9ab8b8
col48:   7897ab659a76a9667896e7878ae9b7ac9aa8dab87a8799dd8a7aeaca8887abaab8979ba78958ada6
col49:   9777a8966a896bb8a998baa89b8bbea889ca875999869987987b9cab99b9bc9aa85b898cca8c9da7
col50:   8897a68ad886b669a58cb78cb77aa8889a69c6b9a8d8a689ba9ac9b88669c7eb7a77999d99b9aa96
col51:   7828895873a7789878797678785575a8a888aaa1a95a87a4b6b88a7685b55b778aa8ab94558967a4
ROC:	 BPix_BmO_SEC6_LYR3_LDR16F_MOD1_ROC14
col00:   9697698946977774ac895ca8687698bdc8c989cb78ead8fc99a89a69a8d8a7795ba7b698685688a6
col01:   73b5d99c795c979898e7a9dbacd7ec8abc8b8f9abccac8afaa9d89cafff8ca8a9aab8d798a6587a5
col02:   98b998b98876b8b9e969979d8785c88c8aaba98b6ccca6ee97ac7bb8caae7979b88cad699b9ba442
col03:   889c7898687999bb8adab9acad899ca9cb9adce9abcf8bce9acbbdcba9de65a4fc7976aa3a877dbb
col04:   b95834b62b8bda76de969bc8ab8288c9dabaebc9e87d79bdca78ba9daf8aaba8ad7b8bbdc765b7c6
col05:   9989765587ca57d7a98bac8a8ab67daa9c98abdac777a8c9aba9bccc979bdaa8c7db9aa8a8a9876e
col06:   a5a6a9d9d8b67aad8a9c65ac6a7f9ab9a7aa8abbcce78dbe98aa99d75daad99a999d48baaf47ba97
col07:   c159858587baa769d89a967bbdac9ad9c59aebbbc77a1b9bae59dccd8b88e9bbca99cab88a698969
col08:   89aa559a96765b888acca889b8aacaebbecba9cbae999b989ceb9d89ca79c9d8997b88988a8577d4
col09:   b959be488da7ba8a7a9ed7aaba5a7c9bc9ca79abd9999a8daaaacb8dba9bbc6ba58999948b78b664
col10:   8759a4669bbd96a8c999a8dbbdfc4ca49cc76ef6fdaed98b9ca96999d9dcaaa487b74c97858baa37
col11:   56aa994a677679b8ecc9dbaa879baaccafa8bbc99b9dd968999c98aacb75887b9aaa4879b6349482
col12:   78b997868b989b7b5c89b75a88f787a8c6fab7ccfe9a8badb99d87aa8997ab9bb9da38b9c9a75627
col13:   999978967b8878c7b8dab798997b8aab9c5ab7fac8cd9a8c9cda8abcbae9a877d8caaa86b985b392
col14:   b48c69a28c7a8957a7d578a9989b9c7a99b8eb9c95edbbcaa6aa389c8efab4ca68d898aa75a9685a
col15:   848a849a59ca88869c88cab6996ad7ebdab59aabafbeaeba9cb879a7ac898bbd7c6cbb9b8c894995
col16:   4468b6a9a649a9ccaacbb65da885a6e898889c889b9bb8dabd98cb7aac7fad8aa89ac776978c6487
col17:   a88a788849999877ad9a9e67c969ab95adaaacf6daa9abcf9da657aacb6898e9a69b76a86757a854
col18:   5bd84aaa77a56a6b9997aabb9b787bb8baa6a85aa979bcc989d8778b9dcca939bd959a8969399a73
col19:   58a66b6c6625876bbe8a8ca78d99686bddce98cab89baba8e998b9399d6888d78a7ab9bbbca85971
col20:   a48776756696667b96ab6d98887ab8a9bdca6c99a689b6b9dcc695cba869879a7969666b698dc975
col21:   778979b9ab9899a9a938bdab6c9bc8eb9db78f9da9788ab8c7bbd99bbcca779697a9ad5757ba8884
col22:   98987877a9986399b8abcbba9aa76cde79d76caa9989a9c9c9abcc85bdadaaba6ca1998969ba67b8
col23:   678588a85699a87558b889b87aeaabc885ddcb7b989ac88ae8ab78b7779acb99c8aaa75656897644
col24:   3694389478a968eba4a88a9aaba9b769d96dab8c99a8d597957daaabd978b7bbabd7c97a88845974
col25:   655966b6856babf5bc78dd596ed9babba9799b9abb77ad86c8a8ca8adcacaab799a8969698696b88
col26:   79cb98796ea8b9d9ccccacbcdbaae8daab7bbbfa87ac9e69c89a6dacaa8fbad677deb85b95adda88
col27:   ab7b9aaa99cb7ab75bcbab8c9bab8dfba7edcdddaadbc8dab9acbbd9b9ebf7da88969a8bddc88d77
col28:   9697b9ba8cacaa8def899b9fca9ba99edeb9aa78aaacd9ccdd68ed8cbfedaebc8e78daaba9ac6aa6
col29:   8a97d89daaab78a9db99baea8aadcacc8efddaffd88aad979a988aa9e999a8a9ab94aafbbdc68cb6
col30:   d68a8cea7fcbbc79adda9ccbbfb779a6cac9beb8caadbeda9bfeb89abbccab9aaccb9ab89ab87737
col31:   a887bb85a99efab899768a99c7bbcaabaafb8cddc7b9fcacecaaaa7aacdcbbdbc98ad9b8cdaaaba5
col32:   8b685da99adb9c8ba9edafea7dcecc8bbc98eded7bb8a8bfdfa7bcabefafdc78acabaa6b8a789eda
col33:   7a9bbe9b8b8ccb8dca8c8f7ccdbdeb88ebcbca78cabecbefceed9aaefabbcaee99b99ba67997c9a7
col34:   9bc98adb887ddbe999b9ccc9acadcb9baddadbacd7ebdbea9acfaebbadbfaba8e8abab67dab8a839
col35:   bbea87ccbadc8aeeff75cbdab7abce9cabdacbbdadbabfbd7bda9bdbabdaea8e689d96a9d6bb8a96
col36:   a9ba689a69dc9eeafc5fcaddabbda6c9d9bfce99bcdecbbebabcc78ccbbbbbd6c97cac588a7aa8c3
col37:   6a898bb8baccc9eba9acbcbcb9e8da7bcd9fb99bfe8abcbdc9ddeafeabcca7dd9ddae8ac99c78dd9
col38:   a9a99dbac89adbdbcbe6dafaafbfabdeb9af9ffadaccdecdf7cfaebacf8fddc5dbbabaa68baddfd9
col39:   7b88b8abdc7accebbdccc8da8dae89ebeebeafb9dbeecfeadb9bd8eb99d7bdebea78ad979a997979
col40:   89868eaa8bfa85d9abcfcaecfdbac9bce9bbaaedf9dadb99cbfeabfbcbda7cbcabfcb74eccd9a675
col41:   899bbae6e9b798e9edbdcfcab9adebcefaccceacccfdbbabbc7afa97d9cbaced8cbcbca65997d7a5
col42:   d8db9bac9ba8a87b9c7e8cb96eea969cddc9dac9bcedebbdccfebedf7a98cbded9dda9bbd75d9a56
col43:   abbca9adaa998cdcc9eadeddba9fc9cd8ddbadeaedafef9ea9a9fdbadcd7aaaced5ae8ba899aae95
col44:   c79af9be99adfadbbcdaafaacaebc9dfdeeadddccc8ccd8eeaccbafeefbcae59789c96bb98c9a99b
col45:   c55baceabbcbaba9bcfdc9cd9dad68acbcabedb8deda9efba8dacbfc7cabea789dbdacfbb7acbfaa
col46:   b97bf9ea9db58cdbbba8e6bcddcdedcccdcda7cebb9ededcfccccdccdc8bafb7baddcbaa7b8cbd7c
col47:   baadc9aabb8aaaaa9dbee9c9cbbbfacbcebafdacbfcbaa9a9ab7c8bb8eafedab9bbabac6677c8bd9
col48:   87769eccebccafabbdadaabddcaade8ccdabecceba9efceafbe9ecdcae8c7ecdb7ead68dde989cb8
col49:   97b9d896ba9aa79c9eab6dbda8bbca7fbeafbbb7fc99cc8abdfae9bd9f9a79acf898995fac968a96
col50:   a9699cbc7ddba97aa8a9dcfbdefacced8edaacacbfbbbe9dacaacbbf8aa7a8abb7f8daa8aab9bbab
col51:   6a737a58a7754687988b7857b889ec8cb9a7aa8ae879d5acabb7adaa7b9c5a9599c8765a8b596899
ROC:	 BPix_BmO_SEC6_LYR3_LDR16F_MOD1_ROC15
col00:   67768897a89a5787b6474b637665b7996565553898854733466a4d46979698c3694a787b78a84834
col01:   ce3b9b898b6ab9abb7a79da99a47988bbaa7a8c58c87aabaa7a89b9a6a589ca9d76867428ad8a666
col02:   988489999592667a78ba78c588aa97b88a9665c89bb9b9baa6bd7b8899d98ab58568a86846848894
col03:   a997497797ca87aa9b8a69ba85a6a944d887c9b69b5d6a6a9995756868968a8ea59a98766cba6787
col04:   8899a8ac6668ba8cb66977988b9978aaa87a87bc6d5a68ac866b9c898a7879cb7a68c9988b57a888
col05:   69985a87b9bc68777a64acb7a67ebbb895abcbac9bc78cc95896b8997a493aaa4bb8786aab934b53
col06:   996679746767947ba98c9888a5eaca99997987ba9da79b76a95a97989888eb668497978a5b9989a7
col07:   bbcca9c9b7bb986bccb9d9c6b9cb4b9accca96aad99abdbdbcaa8d797ac9b7a8ab9d96b79699c987
col08:   78b684278869bab8889daccc3c98abca8b87cb4c988b8ba98b7aca985cd76797878b7b59968a7776
col09:   99667947aa88a8c888cc58a89c999bacb59deabb8997bcaab89ca7a9aacf59a87878aa7679aa5862
col10:   7a6856a88d98a789d7de986967a866bc9b8d7cb7978ca6d47699a9c77775a7888ba8abb8999a7823
col11:   bb7979ada9789c8688a6caaa6a7c8ca7a89b7999d8979aaaabb9aad4997ab78695697a7c77669767
col12:   6797b99979a876d85da89a968578ca7c967a9c7b8bbd7b8abf79cc9c9b378b5b88884a79b38b7855
col13:   799a7598384aa93a987d59b8d76bb8b9aba87889a88a4c9abddac696baaac97995a99a6984955816
col14:   8686587bc88b5aa7a5bda9ab6c8ceb9ca98b9a8a6a88aa8bac999bc89dd9a9988794898a89baa9bb
col15:   aa786a87bab58a6e65c6979acc7dc89a6b79885ad76c8cca37995abbb98c8b8a17866a95776745b8
col16:   3c5a7787958867b7ac79b589a9c7ac6ad98b97dc9699a99cb8bb9a8bbca98aa9ac977bc567469b88
col17:   9466b898685ab8cb6ba77ac9797b4cba7daa97ac8a9bba9899a79cd98a8cd94dc35845a8b977bc6d
col18:   6a949768bbb4b87578aab99a688bc87d79b659978c8eaa7888a9a5b89958989ac77a99a975566a6a
col19:   88b99998b77ad979599696b5bbaa9a9bd9dcd99adbbc868aacd8bbba8a6ac866b977b4c8987daa97
col20:   89b88a888959797d677b8b9a6a9ac79a78cb5c9c88b6a3acad8d9b8a92c8bd798a47a988483b4955
col21:   9c4e96a6a99a79d99bdd9986ca8ad8ab8957989c9d7978abd88caa579898b854a789b59776648663
col22:   b467687a6c8a9a5797a7dc6e85c9c9ba7abb799e996a7a798bc8aab8b88658d6a7778b8844466757
col23:   678568c9399ba897ab5a9887aa9b9aabcbd87cca6bd98b9bcaab69ad899a9a567b89886478755799
col24:   8b696b97c6977a999986cccbaa997e9b998d5b9caa7dac9cb8c7c96d9ac7ba8778bbb7a977877784
col25:   69a9998ba7acc9ab99c99959c8aad7e95bbfde76b97daddeba88abb7a779aa355b68a89889888888
col26:   7788a78ac87cabaab98b88ed89ea9bd9e98b7abac9eacb99daadddacc9cb699db96b6b8baa98a775
col27:   6a9a989a58ba9b8babecdbdaaca8bcc8becdab8b9bceec9a7dacb9caaa6ab9ddb89a8e6a7c8ab589
col28:   7d6baa8cb89d8b87d9d8b9ac9dadcbafadcbd69bdd9999baddbd96aaaabbc9b8acd9aa9adea7c695
col29:   bbc798ca8ce9d7a979aa6bacb7ca7da9dddc89cc99cdaaa9a9cbdbda8ceaa99baab8d9d8aa9cb5b8
col30:   98adb9ca99aabed99cbecbbba7bbcabb9c9ab9bcadcdfcdacebfb8fd9cce8fb88b9a8a6cab5a5a96
col31:   6abd8cca8cebdac8cb89dcbd8feebbbfababdbcbccbfdf9cdd9bdccac76aeca9bec9fcc99d9a9bcd
col32:   8b998b9cb9799b8adcaaba56dbbcaedabbacbd9cddbbadcbac89ecd8ab7ccabeade889997a7799a8
col33:   86668aebcc9d9e8b8bed977d9abc99e9de9adefccfb8dfc9cbbbcaadbbdcbfbea768cdcbc9d89689
col34:   d99aec9a9b6bb8c79daababcbb9babc8eddedad9abbedcd7dfdccbc7cad7afabccaaebb6596d7cb7
col35:   cb9bc6bcdc9db9ab98cfcc8b9ebfbdb8eaea9facfe8aadcaabcbc9ebaecdcedbc8baacccba9abea9
col36:   a87ada98cbc97cc9accca997bb9b9cb9feacc99b9adcdedbbbbcbcbdcdfbedaaeda98b78aaacaa9b
col37:   bad99ddbbae8b9fabdc8aeaadcbc7b5e8adbcfbfbfcbecffcabc6dcbcbdcdacbbcda9bd8987cdaa7
col38:   abbbbac7ae8d8ae99cbbfcfca9cdecfdcafccffe9bdbc9ccaffdccdbedcc9eb7dafd8bd9cb99aa7a
col39:   bb8bb98bd9b9add9feabffbdfcbf8aadf9cccfcbfcc9adcb8ccc9abdbddeccb9b7aebb78ba8aa9a9
col40:   dccf99bbd9cada9bacbacabcecebedabfdabbdfbfdea6fddec9fa7ebdb9dcb7aac9ba7ebaaaaacb9
col41:   daebbbb8cdaafbbccfee8fbcddfcbefecddadad9ff9fceccfbebfeccccceb9cdaddaebfabb9adbb8
col42:   b8acadbbbc79ddcba8dbd8daebbecabdb9acdddbccaa98cdec8adbadbbfbacabaf9b863bbec9cba5
col43:   bcabcbbcbdddadbebdbfdfbbbeeaaccccfefcf9cccdfdfefccfdcde9fefbfdeebffcdb9fceccbc99
col44:   8c8acdbfcede6d9bd97dbeef8ddebbedcfefcdcdbfedfbbabe8ffe8dabbdfafebc8babb8ddc99db6
col45:   caa8bcd8fa8ab8b8cb9aafdeddeedccaccbdcabcedaaaeeccdcaf9dbbc8cacafaecb9eb896c98bd8
col46:   dbbceacafcb7fc7b6baeaddada8e6daf78ae6dbafcfbc9dde8b9aabc9cbbbbefbabccbcc7b9bd9aa
col47:   ab9cfad8dbecadcaecfdbdd9caeffadbfcbdbbdededaddc9dbebcadeaecacebdffedae5cef9bc9a8
col48:   9bcc9bcede89ecbaaddcabbbfcddb8dce9f9ccca9bde7dcdabd8faabdcaecbc9dc8cddcdcabbb77e
col49:   d88caffb8bdce99dcaedfdaeacdb9ffbadcbbcaddabcceeeefacbd9dcbdd9ccbab5fdba5efedbbd7
col50:   aaa9bbdbecaedcfcaacd86aaecfbbbdeac9bf9cfddeafca59cbaacd8fbbaccdadb7be7cbcb9bb965
col51:   796ba57c99997bd9ed8da89abb9aeba8ccbbea8dbbab7b99aaacc99fb9c6ab7bcc47ab6d8a6ac9c6
