ROC:	 BPix_BpO_SEC3_LYR3_LDR6F_MOD3_ROC0
col00:   9776792752969c878869a8b8a677999a6a7b67aa554c88b77864357b66762d669589644647785844
col01:   a589b54878a39bbbc9666d79a69588793c7ad8a78a6ecab4a4ab989987d5a696596a878898a9475c
col02:   7539677b97a3a9a778ab785998b866a688489f9997755ad869ab39bd8e85278bb686b6c8676a6592
col03:   b87788589a5c668dbdda76ab9a77faca887d2888b7a3aabaea8b9c75588a8679b7ada78a9768a784
col04:   3899ba965647a9ab9a89a8a8beb9d779db8987ba75a7c8d8c999e6c89b9ba67b6a7ab687bb496b61
col05:   a3c83d8988b5988776aac9a56865d665ba6677b8b866994f9a87b878aa8a7977b97858a99987a959
col06:   aaac95b56488847e799a99aa9e68a73798b97aa796c7c88ba957bd676adb28cb5a3b766577569984
col07:   7778a736c77374d775989c5a979684ba8a7ea9bad78ac9aa85976c82997bbb68b779cb89c9764422
col08:   a75859b666b8b6898739688b59b7c88e68ab79af7b5c8a8abbbddca7aa5bc84ca897a97649835595
col09:   484a9c436b69b8ed99c8b6aea3bbba88da78d9bb6dc7a997847d9b8ccac9d99c87cbb8697a8986d6
col10:   b589c78a96a7898899fb7a7ca3a7c969d7dbd386badabb9976baaa55c844858ba929369c75496556
col11:   7877727446994757a567ab79d86b899a97e94445a3d56647897bc534a77b7a987587a77587669626
col12:   5b7da4bba69b99aab864b77868aba9d6b7876ce56ba989a77988b788a78777aaa478682a36354958
col13:   35966745367b6668bc67568ab9a7d4bb957b587bd48a5b8acb5998c9e788957c64c8bc6826896577
col14:   77778998b74d279a56a979999aaec78eac6cabcad4999cab898dab4b77a655679c999777b5339b42
col15:   676b4a9689a783b58c8b88bc4c6a9bb6a8fa9bbbccb4bb8e8676cc5aacb88c36b977545899934256
col16:   7a6c1597795ec5ab6a8d4c787bea8999b899b9d7acb399f95b8baa97a9bb97b67a678679547aa976
col17:   67952955c666623777b89db8876c8953487adeaa7496888b73b8879ab9696a747698955767546741
col18:   9749b665578b5778b8898777b667b7ab98966bab78aa4684d39ea897896bb68678958a7113585555
col19:   7544a54895aaa438a98a7c588bc9a9387b8e9bb8aacd987999c3b68c8a1a9758b9b87ab66432a776
col20:   46159869769844976ca775a98d89aebb75688969cbbd7db869847826c9688ac79695776955a53454
col21:   8526547a777b99a4c6795acbad7899a889aca7afa7d559988be8cc778a98acb8a8468679687a7867
col22:   917557a8a53796b98b7d5886b6cd779b995879575aa7ade8766a885b794994b544679146b459a574
col23:   546727c7845a6997795a6937998869be8795a87cf977a58288f78c4c88b519c835679867775556a1
col24:   34969648c9789a896873868ac9d9d97349aa924b9c99a9887968d686887a9b8976a7c45947a66633
col25:   9782a9689ba9e6a556a7c9aa9899976cab69cb5a9a4e588fb6a5d8455a9679b8a978994687874863
col26:   89eea98cc8959a9f9a8a7ecbbaea98db97aaccbbc98c2edb6aabca7afbb99cc8b987bc8995ab7977
col27:   688ac9b9a98887ccd78579cecda89ac99da639bcafcfafdb98cc68d9a6a9ab7a77bc879767685872
col28:   a3ab5634ac8c9d9baea99aabdb798e68f8aabd9e6c99abbc7d8caaab89ba8b68e7e794b9877689a5
col29:   69ba9fcd8986bb95acbcc7b9bbde9ddb9b98baebabc5d9bdfa89b9cab769788757ab7baabb884758
col30:   89ca897c3598876689d6ebdbc7a2cee9b9bf8a9bde9ddabaea8cb999d99a997bcbbb8a5947879287
col31:   9baa7988abb9fbcbb99aa887ddfdaba699baa7ccadcabbe99fa9f5bb8adbc5e9d8c7a6e7a9a5a4aa
col32:   877a6baa86ba89cbaaabad9d8b6bbd9f8cbcac8ccbccaa89fccad9e87dbca9895cdb9acd94ad9561
col33:   aa9a8a3d3cc9c8abd99b6a9aa9ccddaba6b6b99bbbaaeef8f66ad9ac6ccdd7fac789cb99bc8b7a88
col34:   65abbaa577de97cba9bebfd6ebe99ccccefc69ed9dc9ad4df9a9a9dcc777faa9bc99bea5d97ca7b7
col35:   97ba4c8a9bbbfb9b6b88ddcc75caeefccfac8be87ce887ccace9dabc8e8a9768c9ab6db96b999988
col36:   6eac69ecbcc67a86aad8ad8bd9d8cda76aac9b6dd98bd8f9dfbf89daa3da8d8cbb99d88c8b4929bb
col37:   7bab977bae8addfa9dae8cd9beaace9f9fdc6afbdbccffebdbadbeba6baecaea88a6c7bafbc7d983
col38:   9bbc9699daaaa9aba8ccaf69adc9a9fccbe6adbfadcea7bdabc9c5d4afdb7d9babfee7a89c785b47
col39:   bac89dc9988bcbaaf9af9bb7dab99d8f9bbacbabbedb99ccafc9e9ade9f9facbf9aac7f2c9b8ec74
col40:   c87c7fa988a9c8eb9cb9ec9bccddba7bccddbd988ccfc9abfc9cf8fb78e9a98d7d9cddada9679cab
col41:   ed579ccabb969a5a9ccdeef8dd99bdcdedafbd7f7aabfcddbfa8bb9ef8acddbc8bc7fd9d6b77ba65
col42:   da8cc99aeca589b9bdaadbfcc3dae79bb9ca9fbaccebf7ffaedfdeba98a9a688bc94c8936ca7b6a5
col43:   d8b979789ca97fa98be86d99e9b74badfadfe979efcccfad6c9ccdafdbadd9c69998cacb6adbb67a
col44:   5a6c39d6faa9dbca8bc8bdbdf8b897bcccb7b6c9df9ccfcafbaceb89acaae7a897bbda9a87acbb9d
col45:   bbca8eaf8a788bbfcbf8f99ecbcccbdcbdebcbdfffacef99ccb879cc7fb87ec8c8acbbc89a879aab
col46:   469b6a9edbc8b9d7c9decad9ca96dee89ddbdd8acffcdd79d98bbcaceab795c9865d9a7b38c89558
col47:   8caaa7b9c6d89acaad8aa9cd9aca8abac7cbbbb65eba9aaccb8bbacbf8adaaebaab57d9ad9cabc87
col48:   99b88c8bb8b98fa9cb9dacaafafbd95dce7acacaa8bbcb77abc9ebc7afdd46798a996a7997699989
col49:   78ba789b8a8aa7cbe7acbcf7da7dbbcba9db8a9aaedbccab7eccdadef7e5baf9a57aab999ca7a768
col50:   e9558a9ab7cbaaddbbbcf9fb98bc9eccbaf8eddcaccccab88bfa9aaa88dda74ca6bac667cd8799cc
col51:   6998b7259a668797ba59984bd6d8aa9dab98a5d987ad79479898b7bb734657995797b7c6692c7651
ROC:	 BPix_BpO_SEC3_LYR3_LDR6F_MOD3_ROC1
col00:   883c872576a7a627585c98aab799a9f9a88b8987a77b6baf9bad7b4bccd8aa37b99b78bbc9ac7575
col01:   85996887694788b788779dbc79857abd99bde8deb87b95998989b978bf9d7dbc9edbd98cbf6e946d
col02:   669674977c57c6848758e7aa6a7a99babc88cd84a9ab8acb7b99788b9ca79d8cbcb1cdb9ac4a9a58
col03:   668688a6a9b8b88c4a595b98cac98d7c85b877f8b98888bfd8ab98ab896cbd7a6eda29b88aa4b6ba
col04:   8878b77b7a7a6abba999489787879c93bc899899c9ac9c8a6c6adbccc6d8cca99e96a5a97be79695
col05:   4c887967488b97969b6ab9a88bba8ca969a9bb8a8a9977cc95e679a8e88b7bbbd99b399beb377838
col06:   97567a8887898775348a7ca88dcb898ad7ac8a887d9d8c8cccb8dcbccad989bcfc9b8aacfa9638ab
col07:   6b76594bbd696887988dbd5eba7dabbbb9cd7c9a6aebdeafb9cd8bcbd8cb597b6aabfb8d62789b86
col08:   96787385587776aa763cbc4a9967c796c3fea9aa7afadba6a9a788a5d4acd696caa9c8e56cb96949
col09:   85ca85976c85a7757d589cbc97cee68b9dc8ab8b8a8ebcdddcb88b9bbe9b6f5b698dcdbcba7d7ab9
col10:   685548245656186b9487ab7ba97b9578a98ad98769c96bdcb9caf9cde7aac2b6cb758c8867ab7b77
col11:   935382678a46a66966a75778b5cc6e969b8ceaeac7d8a89a879a69f69989aab799b8ad685987d671
col12:   4858587a8465c8a8269a77898bed865699cd988a7db78bb8caad5cd58cbaba8979d9c7f75ac77996
col13:   6c4789a867597a388eba686b78ab8c8e9a8b779c88aa8abb9ab978db8d8bb8c6bbca55adbbb6c887
col14:   76776748795d6637797999b98bb6b8aacedba9a95cbca6a88ab89b8bfba898c9b9aae585a8986a48
col15:   487569777456b668878765ba6c5adb9dcb69baaaad699c7baad9dbebd6da87b9a887b8ccb5a8ab96
col16:   6a725466785899ac4d9679988ad75abc9a897aaaa7babbd96cb8e7ea85b8a6ae66aacbc8ba68799b
col17:   5788856577799b5a46786ba969c6967b595d8a69e897aa9688db9cc6db58c795b37878cca9a66685
col18:   6286587897776869b7d9878bc7b89ba6b9bcc88c85d9ac99a8bb9c8aa898c5e9b776988c58c5456b
col19:   646c54d5996ab989cb67a56cca798b68bcb969c7ae9d968bb888facdba9abeaaca69b78ab8a8d6c7
col20:   5655875aa8867698767a8a3a7a79f6ca8da9a797d65cbaaa98769a77ca88ccbc8b9d858b867aa763
col21:   5649b665978a9e8579979bc7aacab8cbd69cbaa988d89d979bcbac4d9d8ab99d7aaf979b8cdb7dd4
col22:   4788639587897a4a9985969ba8cc658ba8a85a7b6689e7969978aa97fa8abc8b987c8998a8688c96
col23:   1493695a2ca5696688aca889998aa79ca9b9ac6af6eb9ab85a797966c9fcb969cbd8c88458da8789
col24:   72a38887658a6b6a7a8b9779b7b87aab9b8abba879e7ca779a6879878a88dbb978c9868a6798478b
col25:   8616378cb65967af987a8ab79c9b59ca88c7accaabad86abb9bed9b7aecba8ac86e69dbeb8c796d8
col26:   555878379645b77c9499babaa6cebdf9beab8d97acb96cbcedd6cccbb99bcdc9ccb99b7ccceeba84
col27:   991877674a8597cb7a6b9a96eba9e8a9b5bc8df9ddaaded98bbbbdbdf9cfbaacbbcebdcdaa6baba7
col28:   8c35756a3a677ca98d8bd9986b9dac6fbdbcd8ccdf9c899c6dbbad8ddbbc5b77cb99b99bdbba7b89
col29:   a84379ca77a8ab29878bc6aca69b9bbb89fd8dd88acda98dbd9fde6cffdb79c78aebabaa9bab667e
col30:   96c7788854a7d87aa86ab889bcabceaacbded9cdeaab7bdae8abeddf8fcaadaa8fbbfbdfbba97998
col31:   64b6a389b76966aaaace79fbbaeaabbdfafebbaedbfcbeabbaeefcbc8ddd7ebad89f8db87ac9c798
col32:   a69a97c99c98778997b5879b9dbfdc8baddfbac6ecdfd79cffce39dc9bbadd9d9b86cffad88b98bb
col33:   7956989a5bbcbbdac8ac73cc7da9bc9ccae99aebdeb8aacfbdab99cfebededfa9bbbaafabbbc8ea9
col34:   8969589a7a7d786985b4f97e87abcbdcaf8caf8abb8abb9db899cbbaa99ba9ddcbd9aa78cadb9998
col35:   b467568cbaa8a7ced8896889ebbccbdbcbe8abbdacfdecdbbf9acdfacefdd9aa9bfcc8887cc9a7b5
col36:   7399799e8b7ddc997afadca9dbcaabbb9dbec9ecd9bc9ace8eb9fecdac6acabdadbeca7c99daf789
col37:   998ba7cb99ab7b69bdccb79dcfc9bdaecab9ffa9ebbfcc8dbbcbadbd8fd9be8ffbcecaab7c9c7b79
col38:   a88575b879c778ada887a5b889c9a8fcbbebdceeb9bdac9d9edccfcda8bdfd9b9abaafe859be9bd8
col39:   4966b7998acbc579dda9d6addccca7bcbcdca8cbfffdd5defbccbb9adddcbabeac9acce79fcc98e9
col40:   6885976c798a7adea7dbb7b9ae9ebbcdbcfccca8ba8cbabbeaddabaccbcae6ab797adac8b9bcb9d8
col41:   79959bb86bb5cb9c7d766bb5a9ebb9a9aebbfbeb9bfefaccceecddfbecd8acf9dbbbae9b9bc7dbb9
col42:   9bac9c9598baea958b899ba8b9ba88cf9ccbcbceafabbca9b7c7facbfccbcc69b9aaab9bbc99787d
col43:   84d869ab8b788bc9877dcccfddaaf9cc9bb9cefcefbeabcb99f9addfcfc9aacaabd9ea79aadcc98b
col44:   7695aab9a95d9db9dcb25bbb9ababfbbd6c79cbedaadcdb8dcbb6efecac86b6d8aaab899c8ce76ef
col45:   ba8997a57798987db67b8b79acd9ac9ecdebfd7cabdda8eeededdbacddfedc989dfaecc9b9bdbd99
col46:   ab6965836bc4b7a799bbc6a99bb6a9a76babb9caeca8eab9dbbcbacdcbfdd97bc9bcabbee9a9bdca
col47:   9a97a99867a74b6bb9aca9bae976acccbbcc9faf9ca7edfaffdbcde7cfaf7cacbabaa9cbac9979bb
col48:   797687b645c59877ba7b96ba8bf667afc9b9cab99cbc99b97bee7ac9cbd9bcabcc8edbb9cc89bdc7
col49:   da3e8bbcd8885989aad5b6ca9ac7c7bdafbbc8cccccbfbfcaecbdc9b89ebbea87e98aaedc899ba87
col50:   894ba7a77b957a68a4ab9cad997eb9ccfac9ecaded9dac99bad99d9fcdacdbcb8cbdac7bbb96afa5
col51:   64549875795836a889d894749874778b9598869adc8dadaa9b7a59a8cbddbb89a6778a7bc93778d6
ROC:	 BPix_BpO_SEC3_LYR3_LDR6F_MOD3_ROC2
col00:   9864866734572b964785a644a6b37797aa7955a84577758598aaa96a97769a9465a4585447758247
col01:   992578846aa6b85a8787959b89b5a967ccd689a9c948996a9ca969c78acb9c97b8b7a8a89aa96a89
col02:   a746695737a598a77966746767885c8858c777995a8cb87c9a8a6b7abc6777cabaaa85c697c79a54
col03:   a6399796948ab6ab578bb8885797aacba99a75a9bcaa7ad4b9b8b7a79bbdabb8c888577a88a79774
col04:   6896aaa986c99a8b8b3985998a78db67abba8b5b8b7896aac76ba9ca59d86768b5a88959a6878a99
col05:   75988675738988738aba87687a64b8a9eb7b7cac886b8a4a968874a78a59b8a6c6b65a9a8ae8aa79
col06:   baa76799752b548a99479a9a794998cc7b66bb7aa6a77a9ca89d9aac988a5577cab97a99aa3999a2
col07:   b87a8b7b95c9a896aa76cc895bc8b5aba7ed7b79ca6d8f9ca998b7d8c8ad98c9cba649a67cb84d66
col08:   49aa6887857976b779b75bb79daa5a78986e99aaac888ca97b6ba797a99949658f9b6c6894a97b58
col09:   88946c767a5989965159749bb96a772afe7a8979b76c969b679edb78a9cb79abc9789ac69db79669
col10:   8586867a6478869666866799b887a99865975cac89997a76cd89697476477b6897d99a997a8a698a
col11:   46479466366a87cabca796aa767876a796569d877878cbbb6b9b5a9a7bb69aa55e79a67665d68961
col12:   195749767db8c28953789bccacb69968b96a97b7895d888a8547b8b999bda9ab9a78679a89896933
col13:   b7667488779548897878b6d8b86356c958886a6da8caaa8b89c7a9b9778868a99889bcb6a989b987
col14:   79566b677aa88668537b8b798676a88bdba826786cc789b7a78b7898a779b7998f67a6bdb76b9d45
col15:   83b1a985664a8c675969786697179987768b3b8968867ba59ba4887a9c696b7c9aaa78874a289987
col16:   256587592a4b948a9674669a58989879ccbbb477787be8aa7ab87768cb9b8885bb856a4587887739
col17:   36ba686387576c86a4b9abc74848699898d8a8839b585aa9b95c6b98b97b96985b898898b7979b22
col18:   2777c9478276ab9e5948898479848c8778798948aa9a99c385a2b7aace99b859a596979746569958
col19:   8b886996b89889aa876aa855e748a7684a5b998bb87cb7ca96aa69b7dd26bcabc989aa79a9b65276
col20:   579b688777a36976789a9b77ab489b8943a87888a7b87496a79777879b7db5abd8a99b698a8979ab
col21:   368541327a3997876a9a7a777b7b6b7a876bb9884a9a7c5a995b99978a979a97a56d5879676868a8
col22:   7ab6a966b777662497766a5b31856789aa79be9b5ba86846bac95a68a8d6a787586a69d576589a5a
col23:   7b5849ab6635db667587e887f58a747869846964454994ba78b889b789c7654894677a8b67a6a657
col24:   c35656b85b49578477d67a84687aa39a897ad4985654978acb668c73c8bc8c857898867ac8ad9ba5
col25:   6886a669898674a97ca85a89899aa9ab67aa9798ca8548ab68cba787ba8a7ca8d7ab8776a89adc55
col26:   98c5aa589b997b9d799887994bccaa9ce9c9788cc6888dd9cbaabb9bdbbc769977a9cab88a6ab6b4
col27:   567b9b49bca89aa687e757c7b89865b8a56bba6aaa67d79a68b7e9aabbb9998be7ea7ca87b7c9967
col28:   89b9ab889eab95b9949d6bccaab7a7a97c79bca5d9acb87ebdccabd6dcba8da96a8769abdd6adb8a
col29:   7aaa8a999a89aa9b7b88bd8c77b87a6d88acd688b4abb7bdaadaaaee89b8c88cbdcaebcb996ab883
col30:   986c969ba8aa647799a876cb7ab9c9cece7c9ca9979c789aa6eac979ab8b8eba7bba7cd9cdcb6679
col31:   cdb9b8da28ba7aabc8cc8bc99ab9aac7dc884fd99ddadbbbdc8d8edbad9caec9aa9a99dab5aba769
col32:   9c9b88789a7aaa8888abbb79b8b7a9ab99bb9b7fdcc999bba7cedabbbccdf6bb5baab9c88aa79b89
col33:   ac8aa7bab789b6aaa79b868bd1899cabaa96a7acbce98999bda9b8aadc9baa877dbcaebc6a5aa4b7
col34:   cdc9b9ccaef9aabca96887789b9dbeb8dc9a98a88cab8cbe9bba6bc9baadf79d5adccb88ba9587b9
col35:   99ea9ebab77f8c899ab77beabcaaaadb7a9cdd9cab9bcaeb99dabbbabced9a7b9d88f9ad9cd9baa9
col36:   aab5db969b957baaa78c9cbacad978b9c9bcaaeadbdb993e9c9dac7bccdbd98abcdafb77a9998d69
col37:   9a98abb9ebba7cdc8b8ccbadabfd9898baa8bbab8d8cd9edcabd9acbaddbb6dbedeab9ab968c5689
col38:   77bba8f9bbb9f9c9a8ffcc9dbcbcc7dddebe9996c8dac8bd9899cdb6ab9adda9bdeaabdc89a958c6
col39:   8c989ca8ad7daaa8d7a7c8cb86b8ac9abe7bbebace9c6da9b8d968cbc9f9dcd7ece9ababbaac66b9
col40:   9abd97668b7ccc99ca9c99bb97ad6cab8adcd7b9c8bcacddfba99acbfecadd88a6999adaccd96488
col41:   caccb7bafaabd6bc67aaafbdcdcaa8ca9c8cdcbd95ba7f8ede9deebbdadbd9aeca99bb757bbdbaca
col42:   b74ab9aeabba9a9eaabb7b8c8eb9a9deeb99caafaddfabeaa8baddbfce6cc98ecbfcacdadc8abcc6
col43:   89cebccecdecd98c8befb8abdbb9d9afecebfdabdcf9dceeadeea9efdbec7bbfaccdaf7aeeabb88b
col44:   ba6c9ed9cbdcbb7aacafaefdb5cd7abddde9af8f9ccfabb8abcdabbd78ecdbf8cfa7aa6a8c6aa5bb
col45:   9caadcd96cdcdccbc89bdb58ecbf9decbfbebd9ebacdebdbdefeeed9cbddbdb8efa7da8796cec9aa
col46:   a9a8cabcbebe7aabacbdb7d7db8cebbdcabcc8dc8aacacab6c8ea6cbbabffebeabafe9b9e888dccc
col47:   99c97aa8cb99aaebabcdabbefab9bfb9cdb8a489dabfe69fabfba7dcf9d9affdafddda65e96cd7c9
col48:   87afd8a7bbc9ab979bb9b9bdcebbbcbe8a6ede9d99dddc9daadefd8fccdeefbcaa78bbfae7bbb7b8
col49:   b8aec9cf8ba999a7babc8e988a89ddddabcccfebeecbbaddebab8eaadeabde9ccdaac77abcc7cac9
col50:   7aa9be7d9b677bc8cba979befdbfbbc9c8cdd879abacecbadfbdcbadcfcccb98faf98b9bc88ccc9b
col51:   4955697674a5bb77cb788a7daa9798f989aacad96cb99a9ae697bb69b6baaacebeb8b6b857785c94
ROC:	 BPix_BpO_SEC3_LYR3_LDR6F_MOD3_ROC3
col00:   441456a438516293664c576625759378368893896948434247717378768916454589b2185c669b54
col01:   a7b69489557aa86766c89a789883645875a965866835a88759a9a899b6398865768a898889675b46
col02:   43975557643b4a86566759a88a979787a56a7599877786757b976a86a66c788589787458b8925a74
col03:   484aa9795796486a956678a9688c687798b87aa664a4a96c76896885a7a5c848843979788466a766
col04:   69517449866569b369587597693aa787798a6776698565b585a878b7796795a2a267739759758a81
col05:   9479667766734c585969954964b759689a6a66539a5976a7497b757878a9969a6476788655886534
col06:   a768ba28667697755966895568a58676b569998688769874a7cb73777697876aa66435b433a68729
col07:   b4b9847769978993cba889878aaa8a6ab59b98a9967b9568ba978b756b867427992ab598698d97b2
col08:   696185879a74887569678886d8a758b896946988799976aa97868a4579a6c696a779979538a757a9
col09:   67c5377654b696978866887b9b85689a7aba689d68869386a58b7d88a8aa59b88b66927585367634
col10:   67a6936559664aaa8cbc89a866d768b78aa6aca8ab78aa856767665667958a669796899565a69636
col11:   a5749697445a8444877aa869a7c89a6a8786aaaa6a79b8749c7a65a5d695cada6871c693b9578776
col12:   4589658a785a68748753a7b97664a6a6698aa89ab999858a37789689399b7ac66954868b76c79397
col13:   75788969b7ba5477b89a87a5b698688578888b787a9928896b87698b7b6bba7ac666ba96966b5464
col14:   88958bb967b85a5666aa786478756cb9977878677d59c8c95a6898858c76957cb8969aa2b677748d
col15:   4369ca76583b59a9889677bad7967d9a79c19966b4799cb86a5967897a76a6389867675725785686
col16:   95876986aa964a5966b797aa579694b8979a97856c685d79798978868ba3975a68748baa487a6656
col17:   78769ba6689894679bb7d89aaad3899989889bb879bb69ba9d92a839696889838776ba55a95375aa
col18:   67939667c77774a6b6b95bb69a9b9977c9ca88799a96a9bab54a96a67b6567865b56668695687675
col19:   79a986a5689a94a9a4677a88ca77885baa7a7ca79c9b8887ab9aa879a78898d6ab987a9688784867
col20:   4a88868a4b967da756a96a98b7b99ab77a6cad7a667769949a9a9a49a577a9947699a6855568a4aa
col21:   c776a669aba9a3b969c9ac7aa949a778886a678e7b89867a98a8aa9aca789695a758967a7b554571
col22:   9785a8969678667679b8588a9c6598a995689b6997a6ac9a89b8b977679889599c77869e6687b979
col23:   6589977b5a997697c8c657bb9939796798cb789e9387a77ab78974986a96488867b7676aa7a65666
col24:   b86766864886a588ca69c8ac59998ca9abc9b949579978b987b9dc97ba8878799967a785787c84b4
col25:   7657ad7bb8b95b9a79bcdb96a69a989aca8887a998ab9baba5b8f7bbb9697878ca54b7b877b78b67
col26:   97a6cc879bb7a7aa9959f777bd7ce6bbba8bc9baa9adc8ca789aacc89baa7a5d8b99c9bd67b68da8
col27:   74bac9a86c976a9c8dabaacdbc95a9898ca6dabc61a6d9d86aab9da8ac9bbacf8a85a8a98a8ae758
col28:   ac9cc6d88bcbb79ccc8adb96facadccbccb9b9d7ca9cb9db9bbbbcbdcbd788cb9acbb9adbcf95abb
col29:   bbcabaab8a786cacbea9d78b8ccccccddd998c9fbba8bc88dbd9bc7a3baaa989aa879c977abac659
col30:   ba9c9c8ab77b6ebdb99aa9bcbbdcc8bcdb9a9c98cbcc9aa8c8dc7c89dac78e9dc8a8cf9b89bc7c98
col31:   aab9aabaa7c7bb7dadca8abdccc9aabaee7bbbddcdebbc87ba8dadb9c898a8a79caffc9adbab99ac
col32:   aa9a9bc6ebcfcbe8bd68cb9aaef9bdaadccdda7b8ad9dcaaabe9eadbecdadbcbd5d9cb88cd9bc8cb
col33:   abdbabaac9b9a5ba8bcaaaddbecbbacbfbcebf8bc9caecacaf7bdfb5cc8d98f979caacb8d7b9b88a
col34:   96899bbaeabf9cebebaccacc9dcdbc9cbb98ebb8bd99bad9dabdec8eddcbc9b9b9acbea9abda8bfa
col35:   89ba9bb8dcbccbbbcc7a9bbbbabdbcdbadeabbde8fdcbbbacbc9b8b9bacbdabacbdcdaace9bcb886
col36:   9c9ceb6b9bcab7c9beacadfb9bcbcb7dc9cc9bebcf8ccdfbacba8d69daad9ababaa85ab7abcbc8b9
col37:   c99eaadadcb7eafcddbafddff7bdbbebebefedacab7dabecbbbdbc8df6cdb9ebdaeaede97e8beada
col38:   de6b8accecda8ae9cceddcaaddabdedefb9eca9fecdbe7ecbdbbfad9bbe8dba89a9dad8daca8cb9d
col39:   9b9879b88a89dee8ccadc9b9afccccf8beafbb8bba9bfbffcbbbdbcd9dee89b9b8ea7fbbad9f9ccb
col40:   c79b9cce8cea8db9a8cccbddbbceaadcabbe8cddcaaebe9a9c9bcbceccaaccccadda8aadda98fdae
col41:   ae7ee99ebecc7ccbebacefdcdaedafcfbbbefe8ddfbc8bcebfecbbd9abc99cebcb8baaa9c899bcac
col42:   aebeeaccdcebb8cabcab9be8bcdcdebdbbcbb8d9cbcccbd8baeeedb9cacbe9fc8caa89ca88aceada
col43:   febadbecbfdddba9f8cdbfdbcebcbcecffeeaaccdddbdabe8ed9badcacbcebdcdfccdbcbcddbaaaa
col44:   d6e76dcafffcbbddccfdcccddffdcbcdecfbdd989bbddbeeca98ddda8fcdbabcbb7abcacdebadaae
col45:   9b99bacab9bc9aefcabcacbb9afbcc99aa98cccdcdbcbcbabc8acbe6ba98eacaf8bfd9bc9dcdb9a9
col46:   879c9bbafeb99aeddeddeabc8dcee8bdcff9bdcaae9dd7dcfd9dcaacbfab6cf8ccda98dbcabbbba9
col47:   fca9a8deabc8ddd9bef9faa7faefeadebedcecebdfcafdcfaabcca9cbabcbbdaffebefadfdadca9b
col48:   d988bc7ffcddb9ecdfbdbbccbbcafdbfdddaefbfdfceeaad8badcb9bc9caaa8cdbbedcccfbaadacd
col49:   bebddcebbea8ddaddadbebafca4ccbbdbcdbe99edafcbcb7eaafdeddcd7cafa4ac9bda8b9497ccdf
col50:   b6acfb9fcaddcbed9cbddcc8fbadecead6ffd8decdcacfdfbcabcedccde9ebafdebbccbedccdffcc
col51:   fbbccc87baa89cd89ebb9aacb9fcdd9a9ccbb9cec6abbccabdd6dac7798fc88fc8ababc599b9a4c9
ROC:	 BPix_BpO_SEC3_LYR3_LDR6F_MOD3_ROC4
col00:   7336485785a8a69766799a54b1852652b537848876a9995675534a546a6561556185535634495551
col01:   5763796a4668579875b64956824b983145968a88a6a5597a7b49a7657455935b9385612a97498787
col02:   15599968388a469649476a97ab469a799a49957b659799748736a768496a6676c861ab6664765827
col03:   132768666347a6756979798855465b68786b9878599866435845993897675a7a7686655a8665a593
col04:   7453877859b4556a249777689a7796768764a6689c5b9c8688845896743679956796755734945987
col05:   6a33686698765967258a5855399b686194975259357a35927755958867854a437278a68675385786
col06:   4466ca636644b369586647829657aab8666a2766868a189782677b5b775887666146a34688765672
col07:   5633858679387587559438a6b57d88789677489d4ba926a5d97983a546d54988586695662c892556
col08:   566757566255599853994745c79787a96979a1668888457774a98a7a75b8755994765488347a5686
col09:   5175a7786878448265776665876a46566459374ab69a89b8568365956852b85878774547564a8525
col10:   3335936a7888a6c9ac58858991a74986d3366d8b7bd6788598487b47837878276757a6d49486488a
col11:   786656597354863877499764677542669a56a49aa69878759698c676a63164786338557881946575
col12:   83242639b554544536645746668888683439588834aa696976b53857998994644864456656956524
col13:   85454528926956664746a84ba986c876579ac6c9786479baa4758b868364a478b976656874756936
col14:   536ba468924978499a764766a985b58cc878a86c85a6274967a788777776ac6967788a8755735365
col15:   a6324562b62634535877aa816795b6b8aaa73998794596768456989576b9ab96866c854989568724
col16:   2379532775779b6524a7648b5a978aa796689ba78a5696588796764885b666879746654c38627875
col17:   66886653775794227656964b9837ba797ac65789749ac7376bb97869495456b77667778939917614
col18:   2675a76966495528766873789a75d785924673596d79897997873968796978696375431c76482597
col19:   63147952654775478695958866cb967897a75aac9ccbc847798678953676539667a875b885754674
col20:   36369447767446ab56677697a5954a97788679c76885759595ad85a88466a7559b73886934866a79
col21:   63357565835375777a967a5a7579745789888ad7567a87777865ab58577556579646488717c56873
col22:   95964463658579d38a756a8495ac6947c77a49468a87896a76a95398746aa7aa98c6616488666764
col23:   761488757388776286753755565a786699597569a73661ac8a787b8457785699a6c76926587793a4
col24:   763a66496b26a418a868487a5bb97488944577b99a796d88868744a7b4b28768758b7938a7537462
col25:   48169968b677894789586b9a478a8b9a67a838877abda99872b6875897c56a85754c754d9e9ca2c4
col26:   77b38aa5ac8875387a77896aab5a8a8c9999895d8b7a7b899469969679a78b57b8ba979858769635
col27:   a698955b97868656beb968b68aab7a88cc8ab987b69c85d9a7847a8737ab9a84589a649b988b4994
col28:   889789d59474465b5a968bbab7bb98bb578d6a9b997de9b39b78b96a67997a9453ab84a687698986
col29:   78aab6b6566a988b9a8b97679a6a79eb677b89ac88987caaa6bba659cb97a3d768cb7bb16a2b77a7
col30:   b96a9da6937d5a9b87d7abbec7899ab98bb4e89a98dd6a9c4a9ab8b7e68ac7c1b7cb685697875584
col31:   bd7b497a98a7ba7978aafcba6b7cccbdbbd9edeba88a86cccd9879ba99aaa8778836c7b986a59b6c
col32:   66c448ab66a8b795a598997b6b89d67b9ae8b9eaa9ad8b9bab66a786acaa8dd68889974bab58c693
col33:   a95976d6a65878a7878c9898ba86ca9598a6c9b7a9a856f97a8ca98678bbb78ba7b446681a8d6ad6
col34:   94c996882676c7bc67a8b9d7ba9af7bab7c775ab8bbbbb97a8e6b7abc9aa79c899a89db98bbc8a85
col35:   8d4775b98bc6c7bb7899cab6c8ebbabb97cbabf877978999d956baacdc76a798b28a8699a8998977
col36:   85b6aa7a76c868a7466cc6dc9c8d99eab9bb8a79ccfa9b899986b9a797a98ab9dc787a77ac8a456b
col37:   9a77c7c4a5a876ba477a8994889a77aaaab7afdaa948dbafca789bcabc8cbbf878d997a868c98c88
col38:   9c88c599a699f879ca9a96b6ca55dbe9dcb976497facb799ba9cbb997969cec9b99c7d8b92895798
col39:   98966969a54ba8ab8a697e9aa5997c9a85ecabbbb6be8a9cb897abaaa6a99978d8556aa76796596b
col40:   969aa857a98aab879afca9c3679daa95e879cc79a99caaaeb8caa8dcc7769ebc6867c7abc6667eb5
col41:   688bd7bc69b7cdb49987899c98daa97edcb888e86b56aa99aa9c77a96aab879b69caa7838ce89dd8
col42:   7a7384b88697988e9859a9ebbb8ca99ceebdb99889778579aab5a9897fd77cbbb7a97a5acdaa8a43
col43:   99bbc9879aaed78cadd98aba7bb6bbc9d8beab9fab9e7ec7dca8c998adbdabb86a8cbabc89bac994
col44:   6464b98ba98b78ac8efa98b886bbcba97a8bac96dcabbbbcc7ccaea98ccaacaafbaba8898b9abbb5
col45:   a89649948ca6778b6caa29b5daa78ad6aede89bba8acdac59c899d9d8abae574b7487a77c6e9a885
col46:   a49ba7679aac7ba7c99bd99887ac7baeeebcb89ab9998c79ab5bc8989acb6aae9a8c5c8a886768d8
col47:   8ab7bb9ab8a8c7a9c9baabd778d7a9988ddfc8daa9a9ebca7e97b8985bbebc79cca979b9779979b6
col48:   a697cb5a9ab87ba7b799b998dab89da8a8dabb8cfab6daa8994da88a9ca86cbc3bba5b8699ba69b4
col49:   a6997c87999b999b9a9879acd5efc9ebadacacdb8bdbebdaa8ecdbcac8badead759a58c7bd9a7997
col50:   9aa698ebcb8b946ab8b9e6abec9dc777aac59b9abcbc8a9b8c9ac9bc8e77ca6b9aa7ad9aa99ab8a6
col51:   57858b8299569576a7a7467d6767766996a876b875bdd5ae8babab977878aa7cb189849577a35783
ROC:	 BPix_BpO_SEC3_LYR3_LDR6F_MOD3_ROC5
col00:   64966556648225775145855654a117668736854473662443677a5627786824474871757522577174
col01:   537679787a4648547744497899566789699878669877858387674557779688888695778649387797
col02:   5844827565675a4657858444597754645ba57699557768835365836bb58666a9954697698686c676
col03:   57427c54a5739843857567588787963928178a797566b87869574366845a7cb87b9886997c878685
col04:   56576975648796465ab59577887a44575978995874598a9a55493c7a23769aa428766765565b8655
col05:   a86617956658677b578668849763697734876678763894a9837c866475688785888879745b988795
col06:   7672469a8a8b7846599565a65764794455a78845a378b9779655779b667b7b54b88585c8c8477974
col07:   9b78778669a69a897a5668738576649999a6788758aa779b87966665798ad597687ba86678574774
col08:   247784885899989555b7646688629557589885969775c47b6a9533777a77896768a2685b376857a8
col09:   5a59667a99874948797a9981a858797a29a8478597a93786688579986788a9878a769a89755974a8
col10:   94877735774763c946a778bc6996587996a7876677b7a57759868a587899598a68779477a4758237
col11:   3a5758b767744a646896abb7686677976a96898965b887846a9995b68a79b987859a776699b73774
col12:   98485a6857ab8c3788683bd676a3498564b878a57769787487a5b6899bc6787469786597847798a5
col13:   76b576896a6879566956d6786a8787787a89bab7718a65aa8a87a89887a8398497ba488789796a98
col14:   6778a6a588998678749a8a678698667a6757a7778736968baaa85a7646c989867495c3ba6968a948
col15:   969859747578568779687959d9a876886a787b57896979966a986878986a8987a48b8a4a6475b696
col16:   458747789a774484483497a88a5889a6b9959aaa8a67766996b98779a4786ba89b8a88988589655b
col17:   576654887799845488a6495958b69a66781897969488888754587aa7aa49886777486962ab6898b8
col18:   3788baa95795a655b659968b9679a597b689696b95a3a8978a66b6972c8559788588ea7697988858
col19:   67768484a897a9c698bce94a959997769769a9ab96ac599796898ab96977797c86968878abb8c87a
col20:   793936395a7844987b987c595727a5667a76c9786969999a989664b844b5ba6ba979d9679a598a45
col21:   47995782886676889669b88a4db5aa687976b7a69847aa77c8a9a885a7996999ad77b8d987987365
col22:   65586968688876aa8a89a966bc87a798877ab8b8c6988669a799a9ca979bb69997a5796588579987
col23:   685645747a8889857847aca78687977798858cb9757689778ca968c59b9787bbaa754a768c6c6979
col24:   a98796aaa76666994a48a5569d869ba99aca96a9c991ad975776cc876bd8e9b98ca96995949b4485
col25:   6578896b9a9a84a9b758898a9aa89c5679979b88a3678478a89c5a69a96b6a9fb78989ba99a8ba5b
col26:   5a598aa77788847ac8a8a8ba9abb8c9ca7dc9cab9a588a6abdc9898c8b887ac9975aa68bbbb8a9c8
col27:   86a8789b7ac9987b699a9b7b4aad7aaaadbab85ba979b47baac7aaa37be7aab9c8bcc6babac6b888
col28:   9977aa7babada5d8b9b8cbcec78aa9a98e7c7c98b8ba9b9c979ebac8bdac9c687daa9bbcba87b7a9
col29:   ab9c9899a8399abc8cb8c5c9beaababbbbba7b8bb8a9cb779dca8897ccac8bcbaab9d7be8a88c9b9
col30:   76ab9777a698cb8bea998da4a98b797cbb9abaaab9aaabef98bba8bacda9a9f9978deab98c98a586
col31:   baaaba87c5abbce77aa88cabcaeea9fba8b9c9adaecea9ecaad88cdb6eb8cddcbcbac7aacea9ddbc
col32:   aabadb69aaa7aadaaabfb949bce8cb7ddcbeafe9c6fd989dcaaaacccbb7d9c8ac9e9b9edbcdbdbca
col33:   8b8c9a7ab8d897bcbbeadb9ba8aaabdd8bb99867bbbfb98de9b7bdcdabcccb9bc9bba8ab9dc7898a
col34:   eacc9bbb9cdda88abacde97bac96e9ebc6ca9998cdaccbfb8c8dcdc9ccc6a9baaafebbce8b879aaa
col35:   9d8a98bbdcbccaa8a9abbc9adbac9c7a8cade9dbeacc7cebfddaedede8dedd9cdaebbaaebae8bdba
col36:   88a9bb7bcbda8abcba9c788ccbcdbcb9acbb99b6a9da99aebcbbcd9eccc9dc9bb7bc6dcada9dbbc9
col37:   eca8abbad7cdbdb8babcefb8bc9ddde9caceccecbadcd6dabdfbd8deafecdcccab98aebfabebdafd
col38:   9bcdfba89e8ac9a9bbcbc8e9abbbab9dbfafd6bacbbddca9bcaccacacfaebceebfcdabab6cb9abda
col39:   b9b9bb9bfabb8dc8badb87bdcccdadb9aecadccdbbcdaa899b8dbbaaacf9eeb9c9c8abfdad8cbde8
col40:   cd99d87c7aacabdb9cacedacf6aeb899bc8bbfa8acaceddadbabccfbccbbddac9ba79bdeecec7bcb
col41:   abbeed9ecdf6dbf9dad9cea9daefb9d98bcdb9ccaecf6bbdbddedbbccdacbdecbbdeccbebcabcdbb
col42:   ac9aabbedabbbdececc8cbeaddaccadb99defccabcabd8cbb6dbecccf7d9c9adccdbaccb9bdabfdb
col43:   dcbeebbbcccefbbdecdcbcdccdb9bcbcecebe9fdefbfebcabfbbdbceccccedcaedcdfdcedacfc8bc
col44:   89bdcaaa7daedd8cbaddcbbebbccbbbdbdeecbcdabcfafcedfeafeebcebbdbbdafdcbbdb8bbdecba
col45:   bfadc9abcacddf7c9c9adcacddccbad9bebcdbabadbdeccedbdfdcbfc96bcfedcdbdde9f8dd9ccca
col46:   bcc8d9c89cdcbd9eacefdbcdcadb8cd9deeecbbbabcdcbacedaace8fcc99abefecbcb7cecbcccabb
col47:   899899cfc977cdbcbcfdb9e9fdadeddbceeabecdcbcccabcd9cfcdce9bdbebbfbda8dcddcecdffab
col48:   aebcdccaebefe8bbbdbafdea7deeacdba7cbbabcebcbbcfbde9fca9fcdeaed8bdcebd9baadcdc7e8
col49:   aecafbdedcbbcddfd95bcadccbbbdedbfdec9aa8becccedb9aedefcff9cdebdcdedceede8ecd8bde
col50:   c7bcaddccbabec8cbbbadcdbfeae6bdbbfc8d7aef99defcc9dbcfdcabcceecbbaddcbbda8dc8bdbb
col51:   a9a9cb7dcc9cabaec9b9bdaccdccdabebbaa8aa86acfb8e8dadccbcab7eda7a8c9e7ddc789cbdbc9
ROC:	 BPix_BpO_SEC3_LYR3_LDR6F_MOD3_ROC6
col00:   556532545579427a26284a4769576644564387258565482637a3364764865478c9464a3648b56856
col01:   64894979855776a548bd88987b464ab99757854a659568a6a56776a7768466a5958ab97c67994899
col02:   732485b4567685763787967893a5699a75555b96b979938597a7768978879ab78476969377365b66
col03:   856a885898b759817bb65a85a55663a8878ba986d7394546c74777789b76cb67689a897889a7879a
col04:   55466766877b9a95769776969a6a4897579b7899648966648456a6c6a8789a58899798c599886897
col05:   6589596874a6679559989967a86876b999777776585778556a6955b9967848646989476bb852aa46
col06:   5466b57367549788759596a5777983aa8a7a8a58549a78859b565a648a6769d975745a88786754a5
col07:   966546b7655397898859899b788668b67b68cba9a7aad9bbab88c7a58b8f9866a999a7b679964785
col08:   6968776755528a556742598b8a68788879775554296cb647a6588aa8569887c7669874876a997cc8
col09:   79747a376558a498999c8478555689947755557887868a759a58a784bca6b97aa897a6867a986a87
col10:   4467827889665758857b9869456969798a93a897568a7989867a76a79dad6c68586689887a588aa8
col11:   323856779b57956a847aa8bba8675957476a9865786698879d9a958555687b3689789a968a398a56
col12:   85666445638737833a87a9b55899cc79889869a697a78974aac8ba669c8689c67b9a988589786765
col13:   8657658a656466ca587668677989cbbb7966ba867759758ba48898a89a9c69888776b77a7789c86a
col14:   56a47967ab745556a87868ab7a967a68878a95a76b9c664a6b78776694aab86666789a87b7779b65
col15:   95959569665869868888a676a99a87977b8a895b9ba8aaa8778a97b77a878b7975387a5887966747
col16:   785674589648845668977765a362a59c793bebb58ac887a7a76667a85556748b7976887968c87884
col17:   52554a2837897a68637776b68a8975c778a984676a4a7a798997a97b988685889988655537966695
col18:   735145875915a99542757aa78689aab6876578797a896a8c59b55b6a77ba9587488786857474b896
col19:   962855967594b87697a998a877956b69d8b97b9a89b88a777bac99d64bb68b8aa875a689a8899554
col20:   8898957284445568683676958685758cc77895868596cb97bb889c899a7cb5aca88b8a78aab79a4b
col21:   229868786a86a6868a687a6769788868aab5787a9a98abaa9777998a96766a6969b699a86968a989
col22:   5887553c193946878a9547a6ab68a647658867a68795965788a7d98bb69a6abc9e9778776b696768
col23:   9667476757886694968846b8888699a8869b9a7759b9b787b799b88a58aaad87a88886b99a777898
col24:   475565567c48a47c8775677779797968c786848688487767898788167979d9888b96988cab699d64
col25:   639567578a79578747666a75a458d9a6ab98bcb7c76988b7899cad88c78bcd9cb8d5a695ae5688b5
col26:   66a8a8a97856c479896a9a58ba7b5788b897c8c49aaec7cacdd6db8ecada777c76c9c9cbc6d7a979
col27:   45394995a99866aa98687aaab8bdb8b9baaebbcc7898b7babdcaa99bb8a9e9a9c98cbbbb7d9898a9
col28:   b9684778b8868a78bd859d78cc77dc9a6abccbab7cbcb89baa899b8cdb69aeaa7abdbe9ab898ac9c
col29:   7798a46496c84a67ba8daa9ba7c899b9d9d9bba9bda969a87ada8b9abaa99ac99fcd9acbbabcca97
col30:   88754887688875d69a676f797789a89bea88c8b8cc7ca96aa97778eab885ab89996cbb9b899a878b
col31:   68794b799e9975ea9b9a6bbcdb9abbbadcb8ba7ad9c985aada9a9cce7a78bdca7abb9cbbbcb9bdd7
col32:   6877a956787b69997867a89cc8da489ab7b89acaaabbbbd8abbaaaeadcaa6bdcf7ebbbb8cacc9bc7
col33:   67b78b68678686a8cbda999ca898b899cebcbbcacbe8b8bc979ccda989aeaca6bc8ba9b96aaac9ba
col34:   4b8667749c8889a998bab97798b9589979b9cffebaa9b89cbbb9bbecc8bbb8b8ddbfabd8bf9aacda
col35:   77aa975aa59987b9859bbbf7acdccd9db99daab7859aaba9cc76ebabdbda9aecbcccf778dceabab9
col36:   6898778678a9ca88a9bcc9bcb9d9aecb6a9999aab7bc7ada98eb989979c8ba7d4c76cdaa9fcafaaa
col37:   88877884b794bb7ba9b998caa8cd9dddadccbb8cfc988c79aae9acc8dda8abedbbaafbafd8b9ecc8
col38:   59c69499a888d5badd69b7c9dbd9b9bbaad9aaafaac9b98acabecbccfdbab7b9d89cdeeacdccfdcd
col39:   9795b6585695a98cb699ad8cd9bcccceb86cbbbaba9fabcaa8dbbbaac9d9d9be9e9ec9b8ebc8a8c9
col40:   cba83759b88888879956aacacab89bc9b5bed9bcd9b96cdaadd9afcefb8bcca9edbb9c7fc99cae9c
col41:   9aca9abc7aa4bc7adbad9ca8a79aba8bdcadbcac8ebc899fdbc9cebdadefc79aacccaccaadbaaead
col42:   39958e49aba9868bb6a8aa8abc9ccc9b8bdcaac96ac9daa8cdca9cab8ad99d9cdeadb9bbdbbadfba
col43:   8898aa9bcbab79bd7ca6c9ccdca97cfbcacacdcdbcdb8fcbc8cbaadebeceededb8febd9edbdcbdbb
col44:   b89678a6a98a99aabcac99c89ccbafcac8c9ed8bdbdca9fbb9b9acce99da8bed9debb99cbedbccfd
col45:   7997a9c9b6a7b8baac8baabebdbaa8be87cbdddda8dbdaabc6c89badcedbcabbb9d7b9caee9bbeac
col46:   89776a88d5a88879b984ab97cab8bccbb9c9d9dd89aaea7ab979ead8baced8eaccafbbfadbfecab9
col47:   b9789b679b8ca7bab87bcd9b989acbcadeacb9dadc9becbcabbddfe9aadcaadcafabacbccdc89dae
col48:   8794786ba995999898959c767abaabdcf79c8ca9ad9cbab5ed9aebed7eabcbebfced9a8bddefde8d
col49:   a99577aa899be897bd8baaccc78c99bea9ca98acc8babbc9dabca9ccd9f9acbebcccea8debfedbcc
col50:   7aacbeb9b8c779a98abccc9bdbdab9ecabdbbdbcdcd8cbfcd8ba99aac9dbbdcda7b8b8fd7ecacbca
col51:   996aa86558b988ab98aac67ba8997ab998898bb8c9bbdc99797c689caa7acb88bbd9a8bcaccdc7c8
ROC:	 BPix_BpO_SEC3_LYR3_LDR6F_MOD3_ROC7
col00:   4827574371c5594a774c87b85675588659898ba64b954c9976668b9a79657b77b739775494575664
col01:   7865898a7796a8958265598bb48a788a988c9c74c7c887b4b66999769a53a5b4557b49376a5336a2
col02:   655775898b7496668999a7978a679984875b676c9a4a6a8b9a85799b68b7c79887e9b38755a97445
col03:   4a869664595259b674c858a5896798aca87879888beb788eba9967a8ba9c9778985d9888878b96ac
col04:   4a85988758bab867476aa36aa499c7999bbbb867666c8abab7798b5ac687a95b44a5494896667747
col05:   7888ba3966677a759aa87ea89ab6b87cb66dab8a7b97a6ca9755a57a69775489588b49977a428472
col06:   57838a778439896881ba85c5c8566769b896967a6769ab99c879973b887b97aaa968aa6558777983
col07:   887547aa49796aa738a76a78ac8b9bab7e8a8b9c948a789999da9a8b987d9728748747ba55754365
col08:   76888a68b9aa77a37a755b8a8a8b67bc78a6898a9ab7b9a95899a9a7789bd9995783699628735516
col09:   988565794a624b786848989bb6a5aa9ca9bb687c68898586a5bba969ab8aa79778778a887b575964
col10:   8286766cc8853ba56caca5b8b977998c486a8b86686edb67959a97a964c76b76887955a75a447675
col11:   575871576276a979675983aa859a89786a57acc798ca797b9bab57a89999b7a878ac96699897886a
col12:   7a8a78687677654877688868376775baaea1aba8adc99587aa984a65abc5a9c97359676468865972
col13:   955858864537658538756885caa6b8a8c9bb8bab9b9abc746e58955bf69994aa8be6a98897a53777
col14:   5aa545758a9698588459587772799bb7da29ca9989865a9a8a9bd78a67c788a989689a4456638a61
col15:   6575993b969c988a8d9588b675aab9a75a956dd99776ab47b7a59b68c896c7b996a6b87359b68757
col16:   7967b8c7687a438b8a87b959ab8a987a8588969957c87c9abe9b886cc9d865679a8688689a848545
col17:   318774598885969369697d6a7b375677aaa698b7b7c7dab47da76b87a897cb6ba769a49767285551
col18:   8c48568bb727a6787689985a6c8a99b7987a76bbb97c8ccb56899a8ab7b99678a5769636aab56724
col19:   999366b9889758668c89ab78b7c7979ab76787adc96676ba5bad688bcccbbb4999bba96578a57975
col20:   563657ca5966937b835497a3bb96bc79baa87d999aaa895597dba4965a9c5a956498444779679878
col21:   675778c6a977688993775da777a886c8b68982ca767787ba9aaa68babcc78b69b8da78888b767847
col22:   778783865b56a777678597c7888a99c96c64bb96566a9b4aba787796bcb877bb77c64b989a949864
col23:   8a79746a8774897897b877579b369a6897ab88659ac7b86aac5b856a9a5b9976c889b76b75849893
col24:   6768675a56446799598696aca998a799aaaa797b58b9b6b9a8a78a8e87ba98b6e89e9ba857a7aa27
col25:   984379985ab6798d98999a58aa868c94bdd7cca897bc9aa758aca85a687b7a9898a8797498676668
col26:   f8657a7779cb489aa9cc7bceb79abac97dedfe98db7cdca8bca7b88a8bd89ca9aa8778b5b9cb6586
col27:   a95c9a8787ba697da88b565a6c7d9ccede99a89bdcab8b9bbaba987aacb9acb69ab9ac8e489c7a79
col28:   49b757867a9a9aaaa9a9b8e998dadabc79b9bb79b98eccfbb79ff8afdc9a98bcd9a7699ab8661964
col29:   66e9787a986679bb9b66da4baea98a6a69c8aab9d99ddabad989db69db996adadb64dbd9ca7a685b
col30:   866aa66ab49dc9aaa969a5bca89daadc9b9b97bddcfbca85aafeab895cdabbab8aa7b5cc5b64a877
col31:   819fa7b9bd9ad8aba77ef9d9daa7cca8ead7eccccb9aa6bc9f8ccdabcf8dcbf99a7d8abbe8879aa4
col32:   76ba498d9ab8bbccbc9a8c9c7ebdf98888cd7aaf6bb899b9e6987daeddbb99d7e7bcabe7c968588a
col33:   88bbc98a66e8da9c9da8aa8cec9dbd9caaca9baa9c9cf7aac9eadc8edef9bb9c6ac98b9acd7bc794
col34:   9b879b96bacacbc8eab9bbe7abcacb8ecab3b9cb9eacdfab8c9ccdbbc9fece75a6a9cebc6da696c9
col35:   97a787a8cac5a8f979bbfa7cabcbb97cebbb88bce9ebd78a9cfa7ad9ab8b8aa9db96fa6bcac87d7a
col36:   4a9d677aee9c6ad79ddc868ed9adc86aaffbcddb9d799b8e9c99bdc9fcb7add99aa99bba7a9fbab5
col37:   48a8b9c86a9bbb79dbfba8c8a689afbaccacbecfca9ace8edfccab9debbcfc8e9b98cc8cbcd8db6a
col38:   8acd9ebceafacbcbcbca9fdeac6cbfdce7ccbebdbcffbae8b887abcbcbbaadf8fbebab9d9b8dcb75
col39:   c7cdaaacad64db9bc5eaaadbbb9fcaa7bccf9dbbceba9ceb8acb7cccba9b6accb89cbb9c96c89aaa
col40:   785c8bc7a8857796ee9fbddabb9db8eacdabdf9fdedfbbbafd9dca9d8fde9bbb9dbbba9bcaaad899
col41:   a9caabd78b8ab9babbc789cbaabbdddfacacce99adcd9fbbfdc99ccdbebadb9dcdcbcab7aba9c566
col42:   aa6c6a68b877a9eaaa9b7cbabbaab9cfdab8bdacb9bcb9fbcdc8cddeed7b9fdcceaed9e8ac8becb6
col43:   969a8887aea98b9abcaeabdb9dbcaabdabbb9eac9acbb98f9feeaa99cdacfabeddb8ab798996a98a
col44:   985cc888bba8dab7ca7bacb8bdcaaecbcfbcbbab9acdbd6ef8fd99feaadffde8d8aabdadc8ceb788
col45:   c996c9a7aabbacaddecdddafab8c8ca98acbcadb8bebafd9f8fee9b9c9e7bdd9ceed6a8a8a79c6bb
col46:   65cbb688cb9d98bc69abbad9cbdcccebe9ae8edd9bbbbfdbfcacdc9c88eafda9ddfdaa886b7a99a6
col47:   cab8bc9d59acda9ed8cb9bee78cacefbd8feccc9bdab9bcfdfe9afec9dbce98ecdeb86cbcd9bbb78
col48:   d9df9f9b9aadb7aac8a68a5d9eb8ad9beade9c9addeaebacbbebacebffbdaa9ec9cffad8b9c7da75
col49:   a7aa8a4ebc8c69d9dab9dc9cbfeacbbafacacfdeb9cedacc8e9bcab9bcabacabc9dabc979b688979
col50:   bcaa9c64ebb9ea8acacd8acc7cdabadabecbbedafbbbdbbd9cabbd8cacaebf9c8abcb9b7797d9a9b
col51:   87a878876a699c68bbaaae96bb588da99bbab8c298ab77a9dc99a99c6ad9c9a8a7ebaba958a995a9
ROC:	 BPix_BpO_SEC3_LYR3_LDR6F_MOD3_ROC8
col00:   558a4b77378887763674967b769799545b96989777ab79b7a766a676988c98a799a6264743a74545
col01:   56d8668877d8a85a959a6975b8998a95a87ba8baaccc3a9b9b5a8698c69b5a9a95581795d8b54893
col02:   58654676795a598557aba7b9a78c89b954daa8bba9ac8895a56a78999b75ac989a88645474861677
col03:   8a778898995866669879a8957ab87a78b889ba99d79e7875d4d7c79a8587b96cc858497483486384
col04:   8a8d958a6c88896ba79ba7987779b76ba8ccba69af8f88b879b6b7ba767657875867566a9686c373
col05:   75b968687849778879567887799c97d856b88b7d6385e8698b9b78579c8379c8a9859b84579c4457
col06:   b5845bc66a777a5585649e66e7a977697d5b789958a99dbddc9b64b7bc9ae4888678657866989584
col07:   b89a7696868a8d878b9a89788ac5caa9bbaea8a7ccac759a9b768bb56c977c6968b5a789657878a1
col08:   8865566955b776589879895a9a81884b8966b96aa878a898785a7aa8798ac5877778587788782963
col09:   49987947558aa8879ccbba7766986c8ca8e66e8cabc7a979bb499a97978cb7875a95a84968597b79
col10:   538379b76ba7d3dcd844aeaca988cc8aa88cdd85bb79a9b4a6ab6b3a898c68898787ca8657977727
col11:   58a89399855a6798a8a66876d9a8bca4ab898b8a798988887b749868a67b87598b86c981946b4265
col12:   88388578977b6945958b99b85689aa6ba9b6c987ac8a268a788a9c9a877a57965899645975a167c6
col13:   636a6728197739ae96d685ad6778a68c8976e7939dc98c9b8b96ba7b8b878698a7789478897768b7
col14:   5766a63779ab687a45a9a986458b5a7cf6479a898797a8b5c96b97a99a89782a799c878589973545
col15:   a578955784a996dc973c96b49a87a49aacc93998bf89978898a7786d67c58657a456ab988b58ab54
col16:   7383886b86979989c6a9b9c958a89aab96a8eb7bab9697ad7abe47769867b9899653a638a5ab8952
col17:   39774d5877699a99ab67ba67a799c8d9abb6a6bb9b9b3a5545bd46886b8588569a766978566a7523
col18:   5857665969678997b4a569b8668ba79c587697ca884a79984a9997a6b9699789b988d63963893527
col19:   5a96a8a8a5684c7798a866b8c6d996996baabb86a955789c8aa5799898a68a9378777755a4646876
col20:   9728775a5775e7ab76598c879b85999784b986b5844cc8966c7bba4887868a55567398a783655817
col21:   2a66d6ac799976d77978c98ad85599b87e8acc9a7b7aaaaa89d769a8c8b8c9b37699877387657596
col22:   5b675746468587a966579a9779a577c96b4caa9da38aac45bc6889a86c7988a69a778c6d88967161
col23:   766797775355a77bcc8a88999878a9c99a8a6b6a73bb97aab79b98a3c6575868846485972782c595
col24:   a85c9b6778a489518688bca9b6689cc89b95aa89567aa777585679879c98797689ac27498a483666
col25:   b855875776b67a666868b896c386bb8b9bcb9abb9c5cd5e99aa499946998c9b769b6398ca78a8765
col26:   ba78bba79938aaa78bab99beebbd99a7ec9abecd8b6acebbc99c886abbd7b8bb8d86a597aba74688
col27:   789558876b578bae89ab69a9c6bbbc99bec59acbbca9fedaba9ddb8baba6ba98cc9688a9569da369
col28:   927d7cc6bb68b78bb7cd6babbb77cf8daecaaad9bb8bcdecb7c76eca8bbcccbbb68c9c98b94c7885
col29:   977444c7a65ad68786ccc79b8cebbbdceac9b99aa8a868b8daeaa7b9ab8c9699beb73b878876aa65
col30:   79b769a6b8756c4da6aca86ad7adbaa99dcbb6997aafd899c9c7a9daa9e9d9ba568a889ad9ba76a6
col31:   b376a7a98aa898c8a4cac9c9c8aed6c9fda8abcdcfaddc779998ad8babe8bc57a9a79a58a6bf69c8
col32:   66948b4657ac799b999ca77aaabfd9bcdb7b7adcd9ac7ebcbae889b8aa7999dba8bafb9da96bbc66
col33:   8ba8d599b69999d9ccda8cbab9b9aba9dccafccfcb9f8ccf88b9fa7e8bcece8ba88f7b9c68b8ba7a
col34:   89a9c957a9887b93aa8aaaac88ae5b88fafaea8acbcabaf9b6cbbfbfaad9ab597daeb894ac5a3a65
col35:   958b58b9a89cb79cbccb88e9bbcbfbc9bab88fceac8bbdcdcaadb8a7acbfcb9bb9bfaa788b9ca8ca
col36:   d6acacde79896a9abb8e8ba4a7db6cf9dcc9d2bdb9baebc7bdfbadaebdbab8aebe6b49cbb7758a98
col37:   a7aa97998dba6cbbbdcbbabbcc9c47aebcc9a6ecd9aebbb8cea8acac7c9f7a9cabdc9a7c7e767aa4
col38:   796cabaa699caa7a9b98bbfbacb97fbca9ba8dcafdcbce8aa8ef9beabbbcbd9c66ab87cacc5cab77
col39:   8a79aa7c7798c99baabcea8eb9cabcccfcc8bcada6dad998bdddab6e8ed8cba96b598aaa999b8845
col40:   88aa89c5abbbaad8cabeaacacde9bead9cc9bbaaad8bab8cafdda9a6ab7dbb69a9caaba789b899b3
col41:   a9eaa7777a6ad8989987dd4c8c9cedd8efec9faee98bafbcaa9aabea8be9acbba89ea99ad9aaa778
col42:   ac99a6c9bea9badfcbbccbcc9ea9bbdcdecacfbc9987d79b9bd8acddbfaeaa8cb7cb3eb7ca4b8978
col43:   aa885e58abbbaeeadac9b98a6d9becbce8dab6a8c8abbcebbabb8cbbcccdba9eb8a8caad88ccc559
col44:   8c696af7cdb9ab9aabc9ddd8bccacbddcdaf8caafcbc99afb57ea7bdcecd6cdcaab8cc9fb8bc7bca
col45:   9cccabada9899eb9bbc97dc8dfcb95ca9a8cccbbdacaabe7dded99aaacb9bdadca8aaf96e9ccc98a
col46:   8c8586b7aa8998dacda7fbb8db7bbfacebefc7bdcccfae8bc6dabbbcc9bbcfb8ed9cade9aa69d8cb
col47:   bca877a8d77e7c78a99b8abacafacdcbd7bb9baabbe9b8c77ccdbfcbbdecba8bb889bdb97fbba6cb
col48:   bc5b6897aa7c98bc9b99fadaaacba9ddc97b88ef9c99d9d6db9aaa9d9bbdd68adccadb9ba9af895a
col49:   8aa7889e4d6baaaabb97adafad99aa9ac98eaec99dca8bdebacdbc9bbddaacb9bb88c9c9d6a98ca8
col50:   8a589bdb9d79b7e9b6ababaeabc9a8aa99eba6c9ebff8aaddec8dbccecebbffa9cb58af9a7d7be59
col51:   7985455766383997aa9bb6c78e998bc59abccca66887e54999a89b667a8cab8b667dabad75754254
ROC:	 BPix_BpO_SEC3_LYR3_LDR6F_MOD3_ROC9
col00:   96577678a276546388477b678aa5c4b775a88aa6cb9899a677b86cc9b99774aa7873659778437555
col01:   963875995b9758a88f9789a7dac6d873988b89cbba7baab98a876bb5a7c78959776979b7a78aaa17
col02:   59969b296bc9abb7697a567cbd888a7cbeaba7a9a5a9c7aa97879a69aa9d48e98a77b89558962455
col03:   84b86b88698887985998a9968ab6815f6a7db99a7caa9dabdaaa7bab868a8d8e88c8789c669caa85
col04:   7b99957b7d8ad989a9a98da984fa5cb98776bcaab79b7ba9ab6bab9849f99a7a19899a6986a7ca89
col05:   886a9996747b49757ac768b966c5a8a76db885aa7cbaa7ca87496b9cebab996986679b886468a95a
col06:   a869c5756ba87a784b988f99baa98a8caaabbb7d8bbba2a789686778999a95aa88b59aab57db47a9
col07:   899a59c67ad9bd998e784798f98ab8a88b9abb6878cc7b575ae95ab486e4ba8aa78a658a97486765
col08:   773aa5786929785556998b3f759778ba9aa67c798778b89a59b99ac7d989796b375597aa6a68688a
col09:   7a69899abb899c8acca9f7a7e7a886898a9779aaeab5acb8aab8c9db6ba68a6778688992c6a989b7
col10:   88557472a9b9499ad9597877ba676698cb98974588899a8baf8c878aba8d7877966a5a98b7946859
col11:   5397738997c57abc997ab56559dba99a99876cdb885779bd89a8c7888b687c689587ca769667574a
col12:   968777bbaa9a7a7cc8aa5b66799a7889a9d877b9a5996bac65e68a7b976a9bc958aac59b8ca678c5
col13:   77955977c97486dc9897399abc8abc79ad88a897cb9a79ab89ba56a7a8799eb8776ba988b5678666
col14:   5497494ab9a888374c9ab687966c57ae8a5aabb847a83b7a8a5ab79a68798ac669786b9558864a49
col15:   97956525b77b978aa767f79a85d89c88989ab68b964b4bbd7c8a9ba9bc99d588a7669ab9aba87ba4
col16:   6764859b988a67a7ba9689b8995c8495987accb59486a5aa8dc76b976b8ca8387896ba87798e5b55
col17:   6643366695985b98b447657956993abb8bbc9a66a9e66966c498686778a867896967aab657895976
col18:   766397664bba89a888b89be4989a3c78a88af7ba9aa9996599a6887bac7459bb589589a478157872
col19:   3737846788859799e88879b9cd86a6a89a9aecc89c7aadab7b968a9c999c6ac9999846774a3838a6
col20:   8864467a554a8766a52c978a978c9ceabaaca8666a8988aa8a9978acb59699531a85736578675995
col21:   686799a8a957baa99987ba6469b59a77cbdbb8cbaeca9986b885c6b958d9a9d988499b575a86c895
col22:   7a55b78778793b6a57a8c5a7a989729aba3b5ba98ca8986abbad997ba8a87b99a7ca694886876578
col23:   25d548948a46d9c5194949788a879b857a79697985b9767787a8d64d699b69796c65449198666269
col24:   7683a779c97935894a967a769a74857a7c99a387896779d49fab5ad5663879aeaaca97ab7747a566
col25:   55a8635a7c9896969768b6aa699ab99a69b547be69b997db9b78b96b776aa4779957999849684874
col26:   9778a9878abbcbd89bea8afad9c79c9b9cd98b9ab6adc97ab857ba9bbdc87dd98b8597b7ab667968
col27:   8798ab69aa99ccac798ab777a79aac589a9f5ad7dd9feac8aaad8cc9aa8cd6a6a99778b846987688
col28:   8d9bb8997398c9badaacaaabfe8c9c98d79ab88d89aeabcb9dcf89bba9d97adba8d6d774aec88785
col29:   a988ab9acb9adaa7dc9b9998bb79ba938a6ec9cc89ac8adbcdb98cb67ccebaadbad9c98bc87899bb
col30:   b888ba9a967aacfa9cb988b89a7bc9679ebaf8c8ccd99cead97babb8deccacb89a9bd789ac957aa6
col31:   87c6accb7abcbaaed8b88add9ccffd8caacb9dd88ad6ababc9d7b8a9fbebb897bb7b76c899aacbbb
col32:   bb8aa9aabbb8cdbdcaaa9adca89bca7b8ec89a7adccaeaacad7ccad988d96999bc6a98c9868968c7
col33:   c6c8c9aeca89796bbbbcedcb7acea99c9abcaa9ab9adebba7cccebeac8b875c9bbb959b99ab999c4
col34:   8c988aad577a9c8ec7b9dcfcbdbbdb8cd98bfabf9ca9dfbeda9ccabddbf4d5be7b95aba5bcad99b6
col35:   c79789b7f5999acacccfac86ca8cf6b8dd79ce7ba7cafccbeedfcacbceb8afabd9ccaada8a78b9a8
col36:   9bbba8ac49cbab6acadab9eacbdbed4fbacbc9a9bc77dbcb9bbb7b9ed7baafacbcb97aa9b8a7ccb8
col37:   bb979bd9baa8a97cabccbab6df8bbbdedcafba8cbbbdbc9daca9ccbebbcbdbcbfe9cccacb8aa9c98
col38:   7779a88b9acdaeedcdd8cbdcbbad9a9dfdacadbbcd89da5ab9bcdbcbb9fbda9bda9db9ca8baa8ea9
col39:   8d9a89aa8bba9dcacadbcd8bb9b98a9aacecdddec8bbd49dadccbb889addbbd9699ac877ae8bbb79
col40:   7879aab9bac98aea9a8dcd9b95ddabee9dbafdbdecca9baccc7c8adade9a7ac8cfcbc9bcccb9ca98
col41:   cbba7cce88be8bbac897dccbbfcbdadadbaccda9cdbedb98ecbceecbaca9ffdb97cc7a8a9b9a7c79
col42:   8988bbb97ffadbd99afbedaddbcbff8af9cbdbabb99dac9ffbdaaecdc8eeb8d7a98bcecd8a7c9ed6
col43:   9978ca9bbcccbd6bb99db8d8ddebaadbceccd8eadebdc9cccd8fec5bdcc99bd97daecc96b9caac54
col44:   cdbe768aa89eabae8adf89cacbdcfdbeddd9bdcbeccccb9bca8ddb9aecccbaad6becbfb67b8cd8c6
col45:   cacea6b986cccafbefbcbbcccdac7cdebcdeaf969dbd8bbd986ed6eeabacfcbc9cdac9a9b9aaa7dc
col46:   d8cc755abddbba987bfc979ad979bbcfceba8abefabd9dcaeab97cd98ba8999ddafeb89ceabaab88
col47:   eadfab9dd9c9ac9caabb8a9cdcb7acdaabfbedba9edcbbdbeaccef9aec99eefd8ba8aa9c8cdab895
col48:   7aabaa9bc67bac9aadebccdabf9b9fcbbc89bdcbadb79cafcdbc9ad89bbf9dafbaa87f76c6aaab97
col49:   da7baa87bdbed9aedccea8eec998ba7d9ccccabcbddd89aa9fbaddcccdb9db9abcbba8dcfeac8999
col50:   89c69a96789cc779bdbc8cfccbdfddffcfbbefcbd6fadfd9cacadaaedfdd8e7ddedab9ad78bdb7a7
col51:   aaa79468985a8b694b9a89db68869ac9b7765cab8b895aba5cac997c9ab899a48856a7999b5b3688
ROC:	 BPix_BpO_SEC3_LYR3_LDR6F_MOD3_ROC10
col00:   886a488a88c797998c85796b5b988bd77758caabab768b6a9699cb8cc876aea67564cab7c3d6c686
col01:   7a76597876dc8c9b67d687f8bbb98b49b8597cade7699ca8abac88ec6baed86b9c88bb6bc9888bb4
col02:   c789b8898c77acc95c28abb9adb7b99bb99fca9c99a6b998cb8898bba79aa9b89b4a7a8cd9bd877a
col03:   bb9959ae89afccb99bb9bebd9ccb9aa58ba8ab9bbd9c987a69aaabbb8c8ecfbb9a78cc8565dcabd9
col04:   9b97de98d987faa66cc998aabd99db9dada9a6ebb8ca7cbaea99d9499ebbcb996bbbc85cb9b4c9b9
col05:   778a97dab6daa8e89d9c9bad7ce5cc666ec9885bbaabaaa8ac6ac9979bacbe79db8bd98d97dac968
col06:   55a88c7a9a98baa8967e98a9d7999a97cbbbaad69ca559c98cbacaba9739bc9aac7cb896b7b9cab7
col07:   8b7c78bd9a7c88b995ca77bbdb9bcef99e7eec9ebd978bccd9b3f7cda6cfdafc95b87ab5d79b98b8
col08:   4a9bb7cabc57899eaba978b6c7ca5aadb8cad9d6766cc2dd7abbb9ad9cb79b8aaa9bda86ab863894
col09:   8cca6a98ac769c86d897b8db7c8cc89ad9ea8d99fb8acec9a96bba7fc97b8afc67caa9d96c8894c9
col10:   4abc396a68e5b6798b6e69cb89ac9888ad8c88b79cbb9a57b86bb99ab9eaab6b678ba99bab8877c5
col11:   6a8aac866998a58d79bb87a7acac9ce9cd8cdafea997b8bebbd514bdac9dacab8c99aae9979ba8ba
col12:   8898a5987abb5a96d9b9ac7a6e97abadabccddd9edaad7edcbd98bb8bc8bcb8557a48b89ac7ab535
col13:   9996a7bc7a896c5e869b9b99aaca9ac8cabbf9c95a9abaa9eb7b6589d9bbe8d4bd8accb6bbac688b
col14:   88759b47367a9979b7c8798ccb9abb894b9c7ccaacb9778e87ba6c59c95d598985ab9773c6aacb98
col15:   7ac7ab38b99687a679acb869e67bbb99aa6c9b9adbbb5af47b6cdc7cb9baaedc8b9cbc84dc8b8ea4
col16:   8487747d97b8858da89aa9787bda93bb9befc98fb89adba77cbccae7cbc8e3a9eb599867aab99656
col17:   787659b8aaa88b8aa36bba689baab9abd8bbd8abdd9ea6d89b799aaba965aa896c78b6763a7d78d8
col18:   857769a78c89b72999a9faa9aaf6e7bbbb87a99cd6dc98a257bba7986b8cc98a987a9d57879b7ce9
col19:   c78be8748999877a899c9aa9a6e999b7afbb8a9a8ce99a86abccbab9996a78bbb9497cac7475975a
col20:   76577c796ad89a87abb76887ce774b6ab59ad7a7a8aaf88aabbea7ab7b8c5998d596a8bab2568695
col21:   a6879697788446a9877aa3c9ca7cabaabcbabbbbdcbb88ba88c6fabc9b58d969c8a89a7c6588c99a
col22:   88a8c8889947958478df99c997776b56b669bdcbd9a9888bdad9695987b5b877a8acbdca4899c664
col23:   4a69a967964bc6a69c76aa9b7bcaabaef79cbb8aebb7a89dbdbd78abbdb89a9776b98767b8b68778
col24:   63488a8a669b9a86a7a99676aa8aabda9a88ea8ab9db488baba88869b978879a63ab58597875ac88
col25:   c7b8996b9a88b6b999e8d8cbe78dbcaa99afbcebf886899ccf79ae79b8aacf9979e6fbac86b99662
col26:   586b9ca9899a8bdbc7a6a7cbbcba8eaecfbdac9bdbdf7a999e8cbbc9bf7ba589a88c9b8d99bb6993
col27:   6ab99ac98886a9dabdd985ca9cbbedcddcebeaccfa8adebcdabcbcacc89d9ff9bc8ba9cd978b9db7
col28:   998889bb6ba7bc99b7caa89c9bdbdedaebccfebfb9a9cfabed899c878bbe7beba87ba9cb8cc68c86
col29:   8a997aa5b7b5ce6c9acaacdb78bcade9dedde9cbdededaaccf79c9fbcc98c7f9cbcec9cc4abbaaa7
col30:   587dea9a8947cba8dbdebf8a9c9ee8998fb9badbebf9acacebcdbea599acabaeb996aea99aa69376
col31:   da8f8bedd9bf8b9bcbcda9eb9adc9dc7abecbfcdfcebebcd9ccbeddcccceb7d7f9ababcd9a6aaaaa
col32:   69c9b8d9ea99bb849aacbcf989afecaa9baaedcc9fe7cdcdeadaca6accadb8e88a9a78e89876a97a
col33:   dca859ae87d488cbc9aaaadcfcbd6baadeecd9d96bfcbdfb8bbaacbb7fed8eaacb8daa87caa8a779
col34:   88ba7aaca9a7b57aa4597ff9fcacbae8eacffdaecddbacdcb9bbaa8bdf9ade9ddb7f88bebf8d7787
col35:   79ecbfd7be98ddba9dda7ccbb99fbcddfdd97ceca7ecddfcb8fd9bdddab98eed9adeb99bacaaa6a8
col36:   58c9ba896a99797ac48ab9e9cced7cb9bdeefaebbf88dbcbbbfccb7dcbcababceb8cac97b8b8c7c9
col37:   8bbd9de9b67bd789dfacc9bceecfcdfbdb8becadcbdbefd7cbc9ccdbdbb7edadbcacc78afaada679
col38:   8897ebb9cf6b7a8ceadcdcbdcacafeaea6fa8fdfcbacdaccbcdddd8e8a99cb7cad69a9d8bbdbcecb
col39:   89a9bbbac9bc8ec9acecb9cbcaadc9bbeccfd9c9cf97dadd9d9afecccbcbcda9acd9daaa8dacad98
col40:   9b7d9abebcddecfbccbcedbb8abafca9befbabdcdedbddd7febbbbccadce99da89a89a888e8a6aa8
col41:   b8bbaaac99e7adbbffcbdeabebcddbca9eae7dbfaedfafadeded89edeacce8aacebaebc999af9b8a
col42:   ead9bac9cba7d89c9ac879b78bbceab89cc99feddbacaad8adaf6bcabafcbaeeaaacbbbbaa7788a8
col43:   d6cfcabbd6fb9dee9ccaadddeecfe8dbffbf9cbadcacbfdd8dccbbbbbafbdedf8beb9c9ff6cfcbc9
col44:   9dbdae9bccba9aacdeccbab86fdbafadffbadbddafffadbbdee8f99afcce7c9cbddbc8e8eccbad96
col45:   c5bbbf6e7aaca7baba9fdcdbebbafbecefb98cccfdcaf9db8cc9acb9dbb89eecc988ddcbab9cb97a
col46:   97889b8acba79ecbcccc89a987f9eeccfbbfaacefaadbbdc6bb9d8d9eccfc9cadaaaa7f896aa8b8a
col47:   78cad9969bfebabdcb89cddc798bd8cccbbd5fdbbbaeafddbf9c9dacacafcaefecdf6fcafd9ead9d
col48:   da8cf9ba8ba7b7ceb9ddedc6dbcaddd8eafadefbcca7cf99ceca9bdcddac6ddbaecbebceca9cbf9b
col49:   bbd6eb9db9bbc9d99dd97cbea7ebbddc99befddebcdbfbfcbbbbcdeddda97bbc9da898999d5ccb6a
col50:   b99addb9cbdd7faf7bdaa7cbbbaba9dddbcd9ddebbfcfbcadcaaecdad8d9d9aaadac5eb9bd8ca9aa
col51:   59585f696aaf5879cb889afb7a9fc8cdc87ac9cba67aa998cb9c77af769e8b78ca978b98a7ab77b2
ROC:	 BPix_BpO_SEC3_LYR3_LDR6F_MOD3_ROC11
col00:   55454488516454376579837761956a618261a346a5b3575699659a79637a66a475b9957648455586
col01:   67857874a87837a47975767489a6b89487579ca99a6985985b79f99dc9a78b88b8c9a776898a6897
col02:   18964695877764741776756ac795a679a9599aaa8497869598a9ab7966bb988a889986c689899878
col03:   a974887839b35a817887d4685885696579d86caadaa976ac78ba679ab95b8789968657ca96a7a586
col04:   3476976654a66476772586979bab79967a79ba878b589aa9c779bf987a49acca5b7964ba685a9988
col05:   347b87775877646545c383678567bbb778cc8998787ab5bb76b888c86797689bc98797969bc69996
col06:   267866768977745784a2a768858a1876a6aa7d89bab8c69aaa7aaa98dbb998a77c8c7e7ba8687659
col07:   7498677666877c46b7eb68ab7b578898a7ac88da7b9c979b9aa79bb8ac69c968a8dbbab875ca6978
col08:   6b995a671756897724b9575a87ba9a79a66876978ca9c8a88a576a7dbab98998aa878b8987889a16
col09:   357a87577d99ba88b4789a9b598595aaad969c687798c89997bb87a98779b985abc9788877788b85
col10:   46664916c568766659b5775588857976baa79b8a987b8b85b7a78ab85ca988adcd79c387978a79d7
col11:   839a56648598493758c958788b86497ab8a899a989c86aa87b875998a699bb89aa86a898887b7591
col12:   4837854493a7639766c7583a679b7d74a5a7a758da8d999a9c8b98abc8cc369b957e65ba9aaa68a8
col13:   77557767898468689686bc7879856bbc8557aba6999bebaba7968a3a9bc788aba9996958b88a4769
col14:   55455c436469866b584788a583986746c87a8b9b7aba8cc694a9ba998ba87eaa8ca77b5698995874
col15:   467758866625756649974789769556a586756b857c989baaa9b8d99ac7c6b7ca98997757a669b479
col16:   58859a4846577759a9a6b6967568989acb6a6a9c889aac6a7a77b79ccb8a89a886546d8b87997798
col17:   784935a4579969b8b86d6a759a86977998969959a886aa96b776b8b8e987789c5a589b5a9ad757b4
col18:   84546669177585574867894777999765a9c6a6d96b96989ed6ca39a79da9cc79a7a845776b899a67
col19:   9a45653978495566c7d6abc6798587777a8ab7b9abaa788aaebb7cbb92ab87888a896a992c7a6b8a
col20:   5a44822758459889686567cb58aa79599679ba997b8c9a9b8ccb7e99bcab998b5b87a78a75999b8a
col21:   785a5326357d6598969849a684bc965eb7cb999b9ca7b9b838ab9999bb88a885bd88a8799996b2a7
col22:   77633435a47a6a66c8c78198799a49b78a9889abb59c5789aaaacdbdd79b987a6a8a89989ba39776
col23:   976776562a26a7867aad896769a9aa887ea6c87a8ca6b9a7caca86999df885db9be5795d42387a76
col24:   645786c763546a858a58c757865ba89798698d9b8db8b58bca686978f7ac79678a97445d8ba87cc9
col25:   3a4886a898aa88a87fb59aa8b8db9d69d986baa89a7acc996ba7c89c9eba877bdcba77a7bb8a887a
col26:   bbc896888789b79b789b999edd98bcd8aaebebba9a896a9bbe9bdfadadbc6bb8aa9d8c7ba89ac846
col27:   9b7a35653969859b76b6e7c97aa9cadae7caca8bda6b889acb98ac8e8b9eaecaa969a6778aca999a
col28:   9acd69baa87a9b6d9a9b9fb5cbdbaa77d8b6bae7addacd6b998beadbceb9b8cf8a7bbe8cbc97c9ba
col29:   88b7bbd9767a99b7978ab8b9dd8b98a8adbd99b9d9cd9eabecccecac9edbabbaabccbaabb79aab86
col30:   82588c66978bace8c5bbb9acbad7b9bbc99cdbacbd8b9ca9b8deb88cacac8cacc9b9daeb888cad77
col31:   ab9b7b58968d9c9abccb8999b78a9babcc8fccbacbbdaecaad99cbadfa8a9bba9edea7997eaba8a4
col32:   aaa68abcb9b787db78aaa9bce99cccd9a9bbebac6bab5dc9bbdbabf9cb8dfb9b9d79998eac98dcaa
col33:   7a997c856c88ca7dca7cabcb8dcbad9daab7addddcea9ccc9fdcbd9cbc8c99bcbacaaaca99aaa757
col34:   8b99aca9895c5bac6fd89dc996cd8dabdab8df9c7aceb7dbcbfcabbeddbefba8eceadab999c68cbb
col35:   aa9b5aa8b9cc778e9cb8c8c8bca89cc9bcd9bdfcdb99da9cacadd976befd9aacccc6caccbf9c89d8
col36:   d8aa98e98c8bd79acb9bbd9fcc8ba9bb6fdddfcadcbd9cecdf9d9bcfcbdfbc7cbbb8bd9a8a9ceea9
col37:   786a779b8cab9ba7c8bcbcaedddbcabdd9e9bbebcbcb9fbbfa7bfbccfba8daabc9a8cdac86aba8fa
col38:   b89aca49ba9babe89ae9bb8aeabcbca99aad8bcfacabab5fdacfecf8fdcadabc8db8c899cabccaab
col39:   ca38ad98daabebc99bc88d89bbd7dfacc975dc8c9bbbb9ddabbfcecbcbebaadddccdc8eadc69c8d8
col40:   78ba9be9ab99ab9dcc8fa95b8d87df9c9daccdcbdbec9e9ec999ccbd9bcabcccfdd7ddaaed6e9a98
col41:   aaa98aaaaa98c86afaaac8bcdcccc9aaceeaafbc9cadf9edfebbabbbce9decbeddbcccdf9cb8cddc
col42:   7eabc99e94cde8a8edac9bd78adcadcabedceafdbcacabd8eacc9ecde9b9dfbcedb8afa9cbbcccbb
col43:   9b89c9dccfeebaadcb8f899a7efddcbbcdadfbeacccdbcb9efbcfffeddfccdbaaefaddcecfc8bda7
col44:   ababaaab8d89bdaaa8cbceb9aafac9adef9fccbbcaacbddec99ddabbbbdcfebbaccbce8cdbcca987
col45:   8897a697b9ecbe66ac68abeba7adbbf6eabcdddd9c8cbecaacadedcdbebdabad7c9dba9aaccda9ab
col46:   beca8a9dba7c89c77ceaefa9db8b79db9a9bcdbaecdaeeddda8ccdf7dededdcfbfdbacdcbda9daba
col47:   ababe9a7cad8a999abacdccec8eabcdaaefe9ccdafabdbeabcfddfeccefbeacdcd9ddcc9c89fbbbc
col48:   aeeba89a5a7e8cbbf99adcaadcbbccdbdc8aeabdedffbdddfefcdecfbf8eb8f9eaeda9b9bccbaab6
col49:   bbc9cecc8acbdadaeb8bfafddcfddee9bcfcdfedacafcade9dc8fcdcfbeddd9bcebcaeafbeb77dba
col50:   cd9bda88ecc98debaadd8cbcbbdddfdbcddee8cc9ecbddcedae7cfbdffb9ceaf9ccaedddbfddc9c8
col51:   88ba9866c9ac869a789999c8aace6ab7b99b9b88cfcfdb9afa8a7c9ecb9a9c889a897b4baa9bd88b
ROC:	 BPix_BpO_SEC3_LYR3_LDR6F_MOD3_ROC12
col00:   5527437488165326485331944644576395a5786446357b58b7956865673959687635773568446562
col01:   645766677845497556b4486545568945764a7c585ca99696ab6c23b665676aa55a42834b66746566
col02:   3b28616467713744667c57646488963b6676a77859856c985595b7ba8758d6a5a587767b98478794
col03:   588869737858569a267b688886957a6a3387676883989387685bb6b789588c7a8576996795778a95
col04:   6a4125639485726573459aa56828568ab59799695aa6585a87e8878a4996a77887767739636d9753
col05:   59686649689a8256253a815544868886a7794868627898693e989985999677776689963879355883
col06:   3961569575264647a7b3322987879858698656aa5bc6768536a7786789897976856a877766559a44
col07:   49a4a9784777659788966b77aaa798a973894996b89a9ba799778687998b79859a869a988a3c5965
col08:   58367785643673798648978ba599aac6548a98c67b8a779d9aa88c28879676669d79a97893b77733
col09:   6b69799858744695775c97591997699894759b56349a99c776878c87b56ab9d67799777769676996
col10:   746444a59d41591a855767438aa632a459458977686758589c7b8879a6968999b56a58a877a8a876
col11:   686874425999468476689284d8b845a7a865889ca9885879888784697967837b7777ba8477387278
col12:   9674633685624339486769568a9457a97557a9478947c491a76a59599ca7a79a9cc477648b668d63
col13:   552488649827595874246295ab8d68c48786988988668b77884684c98b8b8abac7697a48a9675786
col14:   8656682799a5356878766957a7a78678a65579687488aa58b7c9b8aa9a5968998657598ba4894383
col15:   52628599119658686865738d8c8387abb8aab6664bab7878a9cbb8978b7c8b99b857567475a17977
col16:   488842976648793379498775875b9b89d4a98889abc7ca7586996a698958a75a7887729896768784
col17:   427876835b62545668458a884888b789796ab5b846b786a66aa66956bb9896599596b4557778787a
col18:   6466547655238665a78779c786789658796698688996b66733b86a5877aa79aa45c4587a48984696
col19:   a428378553757667895a49975996bba7b9ca69979ca6b86a9a6c56c767aaa944a78e985b99576928
col20:   466754738647794b857a9a8778858697a82799b8379bb99679ababc7999a797a8687b61d87896669
col21:   76747454575666776978969a8a995b4beb8c79cb998978bb98aaa8b9c9ca697b66d666958989a822
col22:   2542396465678587a699654896979aa19bc849758c697899668b9aaa967b878c8a95d86777799a76
col23:   381548786856577568677acaab497777755468777758b96545ca79e6aaa66854746765a6e78758c1
col24:   87598557746996896c74877687bba799a68a88c79878a94baeadc5aa7979556995d567b5776c1666
col25:   95843768a89587458c29b69798aac8998a6a79b698cdb6bca9adacdcaab9a97999aa657728a5a997
col26:   5a978a7c9959b7969b68c967b76968a7cad9ca99bb97798d8ccbb8bcbb87aa89687a99767ab57678
col27:   7a78a979a9798c8ea94847a9b89759db97db9acaa8bcda7bbabc88abcad8bdb969a6a8a79a89a738
col28:   695cab87787798675cbb78daaba99b987b69dab97dc78b9eb8aad7bdbbacde896aa878bb9a89a58c
col29:   6948b5886868a95ed68596de98dbdcdc89b9bdcaa897becfda9db8789a7bb9cbcbb869abaa99ab4b
col30:   45a6aabc89368c67a6b9a8abc797aaaa9a925bbb67bcc9c9ddccab68da66ab7ab88579d8a9afcb94
col31:   8c9d8a59c9aabaa9cab9b76a88dcabca86ebcdfacba9aacbaddcebb8dfb78ad88abb98868ac8a9db
col32:   86a689a5b485ce499b9ae67895acab8a9cccca6ca9aed88dcccbbdcaaba8ddacabd896b9bd9a4a86
col33:   a68757b897747a7a777988ccca759aa8a7facccbacaafacfcccac9b7bcfcabaa7dbccc7cb979b8c7
col34:   8886caa997aa7c99c9ccaabc99abbaccb79a8d8bbcbca8cbbbd9bcbabccdbaa8aa99e8ebdcc89e87
col35:   7a3997789b49bb89ae77465dc8bdb7bd997dbcadcccddebe9c79bccda99cdac98ce7d6bb5a6e9b59
col36:   b988a85797cdb79a9cbdaa7a869cca8dcadc8cbfcc7d9eb9cebabbcb4cacab9bd878bc78c99daada
col37:   b996ac58799b76959ea997a8decabaeab9ccdc7b8f8ad9dbcbbc8dc9beace9ddbda7a98a8967a897
col38:   ac758b59779a8b98dcbaabada8abacf7abbf9d89addcec9bcb85bdcb9cddcddfbfcabcb7aba9b978
col39:   96a676d79dbb69c9b9bb59cdcc8b7bccbd5ce9dddcfbc9fcca8e989ef89e8d7cba9bcc896badc9b8
col40:   cd69a98cbcae95cb8dd9ddbdeedcacea8fba8decdbac7cadbd9adcbab9bbbb88cdbbeacdb78ccbca
col41:   7a988aaebad97dab9b9bedada87e98bcddcbfeebccafdaadcdcedcdc6a99d8a8bdbabcb9cb8fcc8a
col42:   8b875c8ced9b9ab79bbc89aab8c7ab9cb8bcab9dadcdebdcc7fcc9ac89bcfccfacc89eb9fa9cc6aa
col43:   c888ae94b9d8e87acd8cbc7fbbdfbadccabffbedafdddddcded9efbdbccce7abeeddcaccfe7aab78
col44:   ba9a998ccba88bcdec99bbdda98a9c8bcce7ddcfbcbd9ed9ecbaccd7cadcceeaaa9d9cca8899a9a6
col45:   968cdaeafce8eb9a76acb99bbaab99aa9bcbbbcfccddcedde9dc9bdb8adcdefacabbb9dac8babbce
col46:   49989af8688bbaccc88bbb9c8ebbcdbbdbbbdadcddb9dbcfac89e98fdce9aa9cfdf8eeebe7bee9cb
col47:   9cbca9ddb96978a99abe5abcb88ac7b7defdead99acf7b9dfecdecfb8cccab7a8b98eaaaaa8acbbc
col48:   27aecaa7689addbada7bd8cd9bb9eccb7dccdcfa9aa8dbd9aaaeaeabcddeb6cbccd9adacdbcd9a8b
col49:   b9bb7b95aa7899aab7bda99cdcdb7b9ab6ccf8ecdaeacafffecbfdb9acbbbabaecbfdcb8acb8bfa9
col50:   6bafa979799bb7bd9eabb89cecdcc9dc8cbdcdcdcccecfbfaccd98acdceccce9bf8bca9dcbccc8ec
col51:   6a78d8985469a8668c58fbafa9cb9bba77daa7ccade7ad9c8bb89bbb5b7aabb89bbb996aa7a8b98a
ROC:	 BPix_BpO_SEC3_LYR3_LDR6F_MOD3_ROC13
col00:   66655aa88a525674628a6b875267a687788649a765b5da8599589b46698589795578525777746475
col01:   884aca9789aa668468b8897798569b7b949ba89aa69eca3b7877aa89dbac8c895b667a76a91867a5
col02:   5c9b9a5aad9e66876947687886789498a8977b97ac89778b97c78789aa79a7b38578cb5879897637
col03:   797a558b6daa5a79997d987ecc4b9987b86baca6a9f8b9aba976ab8aab9568a9965137a766965ba7
col04:   875a7cd49888a8685a76aaad98dc6b8aba8898c9866cb8bbea897978d9a8b999cc97677644677458
col05:   97879bb46b698b8a58a98aa87968aa8b58ab9999cabb98a5b99767acab8c5c3589c9b9cb8785aca2
col06:   5949887d87859a678ac77ab6d76abeb5aac9bad87dc6aafbab9b7ba985c9b98ca888696967a5b56a
col07:   b74594a97929577847abaa6b9dd9b3b8c8968baa988fdae858487a59ba5d779baa89a6abb8865e67
col08:   978a89aa9677767a75c5db8d87896b5ca7b6b6989aa9abaa997892aa89988a7688667a6177b65688
col09:   9986597495c787888c6bc7899a65b58a9a79baca9bd9cccc8bddaadd4766898b948ca766778847b5
col10:   687b779b9b95888b7b9875a9baa7bb87ba48cabd7ad8f9ba8678a69b9c8aaa8d997759785a76625c
col11:   499ac97a789a87a675b47bc948ae989a8b7ba9b7968c6b89bf898ab8ab985b6484787975a7784473
col12:   7aa9986ba68777a96d899797ad896679b98c8db75fbb679cb4a9c7798e59a9c939986c496b682595
col13:   8c969776687a699599bba88b99a89ea97b9aa8cbad9cb99c8b88b98889b9b88687aa97666b57a415
col14:   8779868658659776ae66a9b779ad688a99ba8b695a7d98984a96676a8aab478aaaa75be3657a6646
col15:   778a57d78997a96a869aac88979a57c9a695897a99a6d997dd6a59e988a7b9d93aba6739a995b5a4
col16:   5aaa48b7b8a8496784abbd879ab769acf9caba99aa99cab867aab8a8fa7a9a9b9c8999aab98ab274
col17:   3a57c78a4977ad698a987b5a9a99856accabc79968b7997a9c9cbd6795b8a7689c37798a69956a41
col18:   88a99bb8559897968ba68588c978a98a967c89c9b8876bb7796ecb84bb788b78c8898a8978a66658
col19:   7776b8668587b47c99ca8c978d6c4abc9b8bb88a984786bd7d778b8bd78ae39b6b695a649462e86a
col20:   97a66a3b87d9aa8687947b7b9abab79b9a87a9799a69d7a75b8c4b9a9688b59a697898a789389884
col21:   9e9b8586629a75b9c8aab89abbaa7b9bba7ada8baabc4c669a9e839a659857899c99b98727669742
col22:   5ab9969c88777798e879bb5b998769c9789b77999c79a8a7c97ba6799acaad6766769a968ab6c557
col23:   855887659937a54799a9a77c9ca77a8a59caa6698c6c9a9abc478767b777459398a829a8a55a9678
col24:   a455789879886799b8a5ac859797dbab5b48967595aabaaa89758c8a9acaa869a6d9654767866536
col25:   688775a9945967a8a66be99e99c6c8878a689bc978668897cb89a9a8989a978c8a93586b67689697
col26:   8a886899ca68a6caaa699c8aeeb8ae89bdbb9fbd88a59a888ccfaca8a98ec8c8b7a9ba77a8ab8664
col27:   a98bba7597b899ac978ba99a98ba999caecca799c99eabccea7a7cb7c9c8aa87a869978b7a888787
col28:   7eb787c8699aba9b9acd9b88aca6bb9e8accdb9ca5bdd8e9c97c98eeb9ba9d9bbb6cb9cab88b66d4
col29:   d988895c8fa748acc7babacb999bde6bbf88cc9ab9bdb99b89abbcb98e9cb887598cb8b97ca9b466
col30:   89aa67c99c99bcabba8a7ce9b8adba7fcd9caaa7dabdabcdbbba9fcc9cde7eba8b79ba849a98acb8
col31:   a699a8a89cb9a8aa89cbab89975cadd99bc8fb9b8abb7be89a8ba6d7aefba7c9b78aa9a95587b594
col32:   885ba9acb787bec998adcab8cc9cb9dcc77dbefbdaebceafdb8bbabb6ca9abad8b7a89767bbb999b
col33:   8ba8a7fb9babaa89cbdda9eaccecdc9a9dcacebaeaa9bb98accbcc7abcfa9cefba6bad6cbbc578a6
col34:   bbcd9a76aa9ab9c9acad8ba99baedbbffe9cbdfdbb8dddb9d9adb9f5acaca9889cc8a88756986a65
col35:   b6a979879c8ac8996b9d68cbdaece7f99feda69c7ccdfbfb9cfbbb9cabdcaab7a68a8ac87b6977a8
col36:   d947bb7a7f8c9c8ba88b7c9cccbcec6ce4adfa9ceb9eecdd9c8dcaacccc9b789aa89976a8b96a788
col37:   b89cbbb967a8abb97d7bb7cdabdcbbeebb9bdb899bcacdcf6cdabb9fdadc6a6cc8cdb7a9a89b6a96
col38:   59da8dbd9b9abbbdac87cdc9e9cbcaccdebdccdbc97c8dcbbc7ba9cdacaacfe5bc9aba9bca98bdb8
col39:   9b99abae9a9aaac88bc98b9778bdbb7bec9aacbd88d6bdcbfcccc7cf9c997acaab99c8a698a67bac
col40:   8b98e5a9b9ccdab8ab58aac7ba9dadcbebbdcb8db9cbf7babbbdfadaabb8eb9daaadcab8b99c77a9
col41:   99b97afb986bbcadada98daedadb8cb9bbcd9dfcc68fcf9ce97f5bbddcda8baaa8bc9a9bc9ba85b6
col42:   6997797b9a5e89dcacaebcabafcbddacdadcdccac99bfad8bdb9bbcb9fb86cd9eaa8899976ab4a7a
col43:   7778aeeca9a7ced969c8d9abcb88edbbceccbdbccabc7eeacea9add9ab9cabe8ca8feaaabb9ba589
col44:   aa489aa98dacac99acb9eabdeccdefbfbe9cd97ecebadad9dddba9e7c7d9fdbabcabc9c99aaac997
col45:   8aa88c7b69a7b99da6bdc9cddaab8feb9bcccdaabdeaa9cbeddb9ccb9c78ba99798d75c7caa4897a
col46:   b9996bccebdbd968abcbcdacedb7e9cbbdcab6afccbcbb6bcbcccce8bcaca9aac5ca6daa77b6b747
col47:   78e98caca7fb88788abd59dbafcb9ef9faea8cf89bdb9b998adab88fe9dae956bccb7ab89d6a7b98
col48:   8a598baaccc876e8abcaad8c8cd8de6cab9aebeabcbfca8baaabcebd8cab7d89d8cadd78db46867a
col49:   876b7867aaa7c9a9fdc9bfb9bbbcf8bfbcbb8baafcc9ccceabaaa7a9dcec9db559a4a9ad8b4aebab
col50:   9ba97ab7769cbd9aada9cc9d9bbbb89fdadcecbacde8eab999c9967dbbda8cdaeb768ce7c996b969
col51:   66a988598aa5496a9a86b8a57c9b9bbaa5ad9bacb6889875b9899bc7898b66a49848487698aa6864
ROC:	 BPix_BpO_SEC3_LYR3_LDR6F_MOD3_ROC14
col00:   4693265586638987686a653b749669995853958664957475686674594864956776466834c6855594
col01:   7467785648d8568959884586878a9aa7a78a799879967a86c778b9889b9789788578cb8869865776
col02:   a86196956575976a85788aa4698868786589c68c6768b7795868689777b7847658b7787a6a587546
col03:   8663795757b8749a65ba8869d96956888969ab8766987878b7a3879858947698b59a356841869675
col04:   63758855a49698b7a879aa567a996b68a98a78aa5ab6867457a879b5988858b69a76895a5a6888a4
col05:   7445b47695986695787785987b96d9978999b7b97b989aa698a8a9937989a756a9b59b788a78b745
col06:   567a959886897459888b7998499598bcb8b884a977a6797948886c64846779985758ba6978888597
col07:   a8b67795b54757999ba978c8ab8b8876a7877eba959cc888a9bd9a6b6b87b677a8c96a988db45767
col08:   96578b8839b65896a9a896db79b7977b988a949776a7969ab97857b74a888d877875655a88c698a6
col09:   99775778777767abba8a8bb9c987b97bb4daaa949aba7a6797b9a966a789975a757c718788597971
col10:   7577568d7789888b7baa83986b6756a5abaa77d778aa85aba78a57357953676b9c8b88799c6776a6
col11:   768c588687879988789a93c969b8c798cbab9ca9dbaa496978779a9757b79c85c95667988a688a64
col12:   93a6b5a77a4789678c97b7c6864c966bcc97659678c9b7673a9649aab866b6567f6ab77989667897
col13:   748aaa988b9b894a89aa98cca89ba6aaab99cb8da799696cbc83989a95476589b9745ab8598978a9
col14:   9a769a6885a8879297aa8a7aaba9a9dc9a7ba896a5bc4a889bad948997788973778a646768da8774
col15:   28985898d778aa67c889b8b7c997a958a99886aada98a9a9a9a6b8887689abb697c7987998657a98
col16:   857b39a8c9998b7b95ab9bcb978a9a9a98bba97699999a998b7a9c7b7aa856869968ab6ba78769a7
col17:   5825679b6889ba8bd7b9a28a5b699ab77cc9aac85a98865998d958886b6b8b677b7a45a6a79887a5
col18:   47287776a746857999bb9a79ba57b9b9aab87c578c9c7796b675c8b9a89ab68ca8b6b6a779b5a6a3
col19:   aab598a8a96ba6a89979daba8d9ca9da6cb79ba8b7bba96a7bb888679b97a996a738888796ba98b9
col20:   553c97997b87a5c9a779587895cd8b986739bc98949785ba6a85da6a858b6b88a76a9ab758799697
col21:   67764a5989b6967a84799aca6b8b75a9ab9859c7aabbcaba7a87a8877a869b69989a97bc798979b2
col22:   987668869976757a789b8c997798aaca8dacd8b4abb78b97987a9da8768aa9a4a886998982b78676
col23:   39555c767a889788769b7c997c9899979978da9978947aa886889a8b788969b6a4979a988aa96775
col24:   588697566c8a7975a6a59986ca988b87c8a759779aa98969a867ba7be7866698694676757a56769b
col25:   89a69b6993a98ab87bbb88ad7d97aaa6abc7baac9ba8da9b7ec987a9aad7da98bb7875877b87b664
col26:   88edb9a9be88c8aa98c9a7aec59d8999acb78cebbb9bc9766979b6bbc7bac9ababa8ba89b58cec89
col27:   ab89b868ab9aacb9958cb9cddaa9b7c98dbadbbdabbbbca8998aaac698a79d8b7c8987dac847cba7
col28:   8769a79aa8bc98bcbccbbccfbadbbcbcbcdadaba7ab9d9bbbadd9797b7db8cacb98abb8bb78cc899
col29:   7bd9bbdaac89ab679b8dba9adbccdaaeb9d8799babfbaabac9bcba989aa6fab7bdbcb9bacbc978b9
col30:   babaa888efab9ba9bb9bcbba9ad99a6cbbc9b8bd79ba6bdaa9c6ccbbd9bdce86b9ad9cb7c8ab97b6
col31:   b88ca67bd9aabb88bbbabcebd9ddd9b9dd89bccacdccaab7addab8e9cd7ebcddc9c97bbdaa99ab7d
col32:   dcb88d9dcaa8adbacabcbaa6faadceaabccaaaedc7bbdddaabcb98bdb89bdb7accfbc7b9788c84e9
col33:   9cbcc9bb9a8bbbb98aa7dfdadbfdbaabed8c9eccccabcbeaaa8999abbd9a99bfcc59afbacb677c96
col34:   9acddbbbfbacabdeae9aaadecc9e6ccccaace6cbcaec997bbbc9aacb7c9ccabe7bdabcadab9aa69a
col35:   ec8a9cab9ae99c9de8dcacbb9b9cdbbeab68bdbaebe7af89ac9c7afbacecdadcc9b97bb6bcb888d5
col36:   dbb9aab8bdbaa9cbbacbcaccbccfcbf9accce8cd97ccbdddddca8cacbdbca989baebbdc8a9b8aa9b
col37:   ceacdcbbc9d9aeaa8caccda9cfbbcbffbcfbacfccfcdcbaad99ce9da9cbacabdabdbbae8f7cb8df6
col38:   9a8d9cd8cdbb86cd9ccbbaabcbc8beddacddfdbbe9abeccfbddcbeb8acbecebdaeadcc9addfad899
col39:   b7bbb8cbb9faa9dec6bcccaeafabddc9b8cbe99bb9dfef9aaac7cfe99abadea8bbebbade87cad998
col40:   a9cdf98ae9cc77a88ae98dd9c8fbcbedbdc9b8dababaedbd9bbbddacccb89ebb89cbadbbb9aac8c9
col41:   ceedcaebbd9ecc88bcacfccecddadccbdcfcc9ebdd9b9cdcbbebe9bcdceeccb988ddc9dbcaa8aff8
col42:   ba7db8b9cbd8dbcbbabdcac9a6f9ceacc9badfbdaebbcc9dedc9b7fb9aab8bdcbcba9a99999bdabb
col43:   bc8bcacebbdaaeaaafcbbaed9bebddccdcfaafafefbefcddbacbddbdc9fbdaec9db7ecdceddcbe8b
col44:   b9eccd8aadeacbfabed9bfcbb9eccccddbbafcdbdbcbfffdde9bdbfb8cfbbcbbddadc9cbab7afabb
col45:   ba9bdbe89aacebe9aaa8ddc9ae9df9d9edeafdddddfbedbcddbecacddbbdda8dbb7fe9e8cbac9aca
col46:   8bbddcdd9cac98ecdabd8e9ddbeeeaebcecdfcbffadbfda8fafcbccbbbcacfbcabf7ebcd7cf88dd7
col47:   accbcfbeceeacccebdbdfdcbbcaeae9adcdecefbdbaebabeeddceddcccceacaba9fabc8c9fadccaa
col48:   ebccd7c8daa7e9dd8baaccbbd9bebecfefcfeebdf7ccaedcbbbcebbb9fac7bbdb9bdcbcdab9efab9
col49:   abd8ecdeacbbcbd9cd9b8b7bfdadccbcfbbcdcecdeadcebdccafecabcddbecabeebdafbb9bc9bfbb
col50:   ba98bc9cab8bcb9bbaabeccebbcbfb9cdd9cddabedc8acbb9bccfacaacbc9abab8ecdc9caebbcddc
col51:   abc9aaf5bab89a9acbdceac88cae86cd9c7ab898abae98c9c5c8c9ba9bc9cbbbcb9d7bc87eccc9e9
ROC:	 BPix_BpO_SEC3_LYR3_LDR6F_MOD3_ROC15
col00:   744458675a38469535591784546a8877637443499487793697a698745697695a5266867446967a53
col01:   5899b99d428797ba9785749887baa8688a5ab5a88ea4a87c68a9b687a5477a6979a85ad885775995
col02:   8a475ba87a7c89998875974557869885c9bb3966ca8766989988ad97965a9b7ab579897989796644
col03:   48881785976979bcc7888aa889a7d9965a99898a868766477687887ba49c79aba46a9968559cc856
col04:   56949776898389e645a588897987798abd878a737b6a9979acb76479a996887a96787a5a6a46678a
col05:   9789816a868a89bba9a9a8954897a6a979c8b9975a967183997c7b9875b87598a6ca82a489959968
col06:   778876986659469759b6c68986b967ab8877b486a7585aa76979a6b988b7aa7ba8a47baa467a73aa
col07:   87887a98b8858c7b6ab9665899797b59bb9d7da98c7585a9b99ab6b68aa699b85a9da45b667b667a
col08:   788897b979659aa3867a766695a89bb76699978488a99679756b7d8c99b788bba538785aba487987
col09:   778769ca988879bcabc9777697c8c7cc6765aa6d8f889bada65979b55996b958574a98799769c677
col10:   9a79a76785a9ab7bc76a6889a6886ac697b8d9aa82db5966b5a4a8966a7688a78959a7789c874989
col11:   9568648969999b9b86d7d75a5cbc6859d98ba9b9c679bb7d899cad9899c7aabba9c9a78654678947
col12:   777369a68b867898788779a779ab9b65aa8a7baac7698a8b48767867797a6ab876b9999876b89434
col13:   86798a8bac7bcc968b6c9ad8747ac79aca9ad795bc896ae99989aa7b8889aa896776ba74689a64c9
col14:   a6878889972795888a7b9c89baabab956c7b576e99a97687b788879bbbb5d9a98a698cc996967878
col15:   8a7b4877a9998bb76988ca66a998bad8bca9a6aa8ba49dab489a79b8dba6aca79a76a8884a4979a9
col16:   848b978696c88aa769c7ac879a68abdba965a9da8c6a6a399aaac67aa6888a8a7ab68497a9885968
col17:   5576a888b793896998c678a8a7889ddd8bb7dc868aba989bc58cd98abcaaa729699ba8a99b486b95
col18:   35977b873689978a56865b8a886a83b889a68acb9986b7d587b99db99d6c5bb68657aa8478b457e5
col19:   b88794b979b87b98ba9889a8b77abba7a987caaba7aa9abb9acab89a996c98c89767799da9a8999b
col20:   4a87976658878997a5a877a9a77b78dba7a89b88b5aa877cd97a789bb87b69aeaa4a96ab7777a9a9
col21:   7915989779b88b99ca97b8dadc9969a1b7acd6c8ab8899499ba87ba9988989976667ab979998aeb8
col22:   258657b6849667a897789a8a98989938a799b7a9b98a9ca6c6aa987998c6c7b88b894688ab889c75
col23:   7a4796a639988997b89977689c6b9ab9ab9dea997bed798c9a96699899a99895a8588b69a57c57a7
col24:   a689689a64167a857abb6889865a69aa7889c6899ac9b88ca789bdb9a899dca766a878ab4a697889
col25:   6399599a7784b9acb9c4d77baaabbcbcbbe68999a8b8779bcba9b6acb8aab99a8bcaa4be8d7aacc8
col26:   85899b6b8788898b9b89c7cb99babacc99ea9cecabbbc9d88cdaba9dab7b9ca85acd9dccabeb77a9
col27:   95d88a97899b878899bddcdb9aa9bb8ab7bcad6dbba9acabdbbbdaa97a9ec9bad99b99899aab7bb6
col28:   7a78a9bc88a9bb9ad19a99cabab99bda7dcc6bbe77dbbbdabf8dce99c7bbbb8adc9c97b86a98b9ab
col29:   97898aaabaaa9ddadcbaad7fbac9cdbcabcdc98b8ccecafceeacabedb79ddba8ac9d9a8cc77aacb8
col30:   ac9b8a99aafcbb9ab98c7bb8eeace7dabacbd8a6b9cbbcecd9fa89d7bdc9afdbcbcb9adacca7a998
col31:   adac9ac6efa7b9bd98dd8abcbccbbac9debd9ccacba9acbafada8cfdbdf7ccfaede8a59aeeaabaab
col32:   adac779a9ab9cd688de8bceb9d9bd8bc7cdb8cbb86aadcfbeeacde9dbaedccabaadd88daa8c8cab5
col33:   8bab98d9d888a9aa8c9b9dcbcbbaa9fdcaecbcbaaaf8aacaeceabedfbedcdcda89cbb8fcba7f87eb
col34:   7986b96a888ad6bc7cd8cba99ca99cbdae8fcc8dddb9ddbccefbcbfcc9ecdb9ad8bf78ccccd9bbfa
col35:   967bbb9a7dcabc84cbdfad9adbcf9c6ab7dfbdbbdbbd99cdccecdecddfead9eed98bb7acbce8eb8c
col36:   799c7d99c9abbbb9c7bbbdadbbed7aaccafddbbfcfcdaacbacc9cedd8cbbc6e88cedc97a98d79a95
col37:   c9a7bb9ac67989cbeacafcaaffdeaddbddececcbf9bcf8cbbcdfacfcfbfc86bdadccbcdccfabbac9
col38:   88a9bc9abadddceaacbecbbaab9bf9c7f8cfbcdddeaebacffacbea9fcebdda9cceca9e9ebbcabbd7
col39:   87ba9cbe87ddfe97cababb9b7b9ac7bccadaebc9cba99beebbcab9ab9efd6acdbade9cbaaec7caaa
col40:   b7cb7c7cccbb78bee9acbdbcbbc8abcbbccabfbeebbdfddadcdededbcadedbbfebaefbbbdbadde9a
col41:   bcad9ebfcdc78bebba8eccf9ddcacdaefdbdeccaaefddfecfdecfdfbfaddbdffadcddbbabbebedcc
col42:   ac98d98aceb9b9877bfcdafb9beceddfedc7eadc89fbfb9aaafb9ffcdcbdbecadccafacaeabbacb9
col43:   db7d9b79c9bdbdeeddebbc7fcbeeeeedfecbfcbdceecdfedfbcbbdddaabbbdfdff9edbfefddecdce
col44:   ba6bcb9ababddbcaccdcbbcbebe8aafddbedfac9dddcd7ddbbbbaeebbfbce5bba8adb9febaefeedc
col45:   a7afaccabbdadcabaaccbffeabcc9cfbbbdcbcdcadbdcbd8ac9aebdda7bec9dedeadbba8ace9ddfb
col46:   dbccbaeaa8cbf98bbbdfbbabd99ceef9adfedddcc9aecfeffedde6affceaeafcb9aefdbbddbebcc7
col47:   fabecec9b89bbbbdedd8edd9bdbfacfdbbeeeeaaa9afdedbbddfcddecfbdfdfdc9fa8badbc6fdcbb
col48:   9b7b6bfba9afaccbfbbbbebf9ccc6bdfb7fffeff9ecaefe9dfd9dcbbb8dd9dbababedcdfdbcbdccb
col49:   a9eccccdacfbbccfcb8bdcbdceddeb9bdcf8accbdead9ff9ddfcdeef9ffcfefef9eccddcdafadfdc
col50:   bbccde6eabfaadbbace9deabefbbebfffebdddbacfdefcdcdbfbdfaabeeee6ddbdfd98bbfda99cdb
col51:   9b6a6bbaaad9dbcdba8caadc9a8aacedad9eb9edb9dabbb9c8abbdebc7cfbbfbb8ebbaddbbc9baac
