ROC:           BPix_BmO_SEC4_LYR4_LDR16F_MOD1_ROC0
Vdd:           6
Vana:          68
Vsh:           30
Vcomp:         12
VwllPr:        150
VwllSh:        150
VHldDel:       250
Vtrim:         100
VcThr:         100
VIbias_bus:    30
PHOffset:      172
Vcomp_ADC:     50
PHScale:       78
VIColOr:       100
Vcal:          200
CalDel:        142
TempRange:     0
WBC:           164
ChipContReg:   0
Readback:      1
ROC:           BPix_BmO_SEC4_LYR4_LDR16F_MOD1_ROC1
Vdd:           6
Vana:          81
Vsh:           30
Vcomp:         12
VwllPr:        150
VwllSh:        150
VHldDel:       250
Vtrim:         106
VcThr:         102
VIbias_bus:    30
PHOffset:      188
Vcomp_ADC:     50
PHScale:       71
VIColOr:       100
Vcal:          200
CalDel:        159
TempRange:     0
WBC:           164
ChipContReg:   0
Readback:      1
ROC:           BPix_BmO_SEC4_LYR4_LDR16F_MOD1_ROC2
Vdd:           6
Vana:          78
Vsh:           30
Vcomp:         12
VwllPr:        150
VwllSh:        150
VHldDel:       250
Vtrim:         116
VcThr:         104
VIbias_bus:    30
PHOffset:      178
Vcomp_ADC:     50
PHScale:       78
VIColOr:       100
Vcal:          200
CalDel:        157
TempRange:     0
WBC:           164
ChipContReg:   0
Readback:      1
ROC:           BPix_BmO_SEC4_LYR4_LDR16F_MOD1_ROC3
Vdd:           6
Vana:          82
Vsh:           30
Vcomp:         12
VwllPr:        150
VwllSh:        150
VHldDel:       250
Vtrim:         102
VcThr:         94
VIbias_bus:    30
PHOffset:      163
Vcomp_ADC:     50
PHScale:       78
VIColOr:       100
Vcal:          200
CalDel:        144
TempRange:     0
WBC:           164
ChipContReg:   0
Readback:      1
ROC:           BPix_BmO_SEC4_LYR4_LDR16F_MOD1_ROC4
Vdd:           6
Vana:          78
Vsh:           30
Vcomp:         12
VwllPr:        150
VwllSh:        150
VHldDel:       250
Vtrim:         109
VcThr:         88
VIbias_bus:    30
PHOffset:      185
Vcomp_ADC:     50
PHScale:       80
VIColOr:       100
Vcal:          200
CalDel:        156
TempRange:     0
WBC:           164
ChipContReg:   0
Readback:      1
ROC:           BPix_BmO_SEC4_LYR4_LDR16F_MOD1_ROC5
Vdd:           6
Vana:          80
Vsh:           30
Vcomp:         12
VwllPr:        150
VwllSh:        150
VHldDel:       250
Vtrim:         98
VcThr:         92
VIbias_bus:    30
PHOffset:      166
Vcomp_ADC:     50
PHScale:       79
VIColOr:       100
Vcal:          200
CalDel:        165
TempRange:     0
WBC:           164
ChipContReg:   0
Readback:      1
ROC:           BPix_BmO_SEC4_LYR4_LDR16F_MOD1_ROC6
Vdd:           6
Vana:          78
Vsh:           30
Vcomp:         12
VwllPr:        150
VwllSh:        150
VHldDel:       250
Vtrim:         114
VcThr:         103
VIbias_bus:    30
PHOffset:      172
Vcomp_ADC:     50
PHScale:       79
VIColOr:       100
Vcal:          200
CalDel:        163
TempRange:     0
WBC:           164
ChipContReg:   0
Readback:      1
ROC:           BPix_BmO_SEC4_LYR4_LDR16F_MOD1_ROC7
Vdd:           6
Vana:          81
Vsh:           30
Vcomp:         12
VwllPr:        150
VwllSh:        150
VHldDel:       250
Vtrim:         100
VcThr:         94
VIbias_bus:    30
PHOffset:      176
Vcomp_ADC:     50
PHScale:       80
VIColOr:       100
Vcal:          200
CalDel:        145
TempRange:     0
WBC:           164
ChipContReg:   0
Readback:      1
ROC:           BPix_BmO_SEC4_LYR4_LDR16F_MOD1_ROC8
Vdd:           6
Vana:          86
Vsh:           30
Vcomp:         12
VwllPr:        150
VwllSh:        150
VHldDel:       250
Vtrim:         100
VcThr:         84
VIbias_bus:    30
PHOffset:      152
Vcomp_ADC:     50
PHScale:       91
VIColOr:       100
Vcal:          200
CalDel:        149
TempRange:     0
WBC:           164
ChipContReg:   0
Readback:      1
ROC:           BPix_BmO_SEC4_LYR4_LDR16F_MOD1_ROC9
Vdd:           6
Vana:          91
Vsh:           30
Vcomp:         12
VwllPr:        150
VwllSh:        150
VHldDel:       250
Vtrim:         115
VcThr:         92
VIbias_bus:    30
PHOffset:      181
Vcomp_ADC:     50
PHScale:       82
VIColOr:       100
Vcal:          200
CalDel:        143
TempRange:     0
WBC:           164
ChipContReg:   0
Readback:      1
ROC:           BPix_BmO_SEC4_LYR4_LDR16F_MOD1_ROC10
Vdd:           6
Vana:          72
Vsh:           30
Vcomp:         12
VwllPr:        150
VwllSh:        150
VHldDel:       250
Vtrim:         93
VcThr:         104
VIbias_bus:    30
PHOffset:      166
Vcomp_ADC:     50
PHScale:       79
VIColOr:       100
Vcal:          200
CalDel:        140
TempRange:     0
WBC:           164
ChipContReg:   0
Readback:      1
ROC:           BPix_BmO_SEC4_LYR4_LDR16F_MOD1_ROC11
Vdd:           6
Vana:          82
Vsh:           30
Vcomp:         12
VwllPr:        150
VwllSh:        150
VHldDel:       250
Vtrim:         103
VcThr:         99
VIbias_bus:    30
PHOffset:      169
Vcomp_ADC:     50
PHScale:       80
VIColOr:       100
Vcal:          200
CalDel:        147
TempRange:     0
WBC:           164
ChipContReg:   0
Readback:      1
ROC:           BPix_BmO_SEC4_LYR4_LDR16F_MOD1_ROC12
Vdd:           6
Vana:          78
Vsh:           30
Vcomp:         12
VwllPr:        150
VwllSh:        150
VHldDel:       250
Vtrim:         96
VcThr:         101
VIbias_bus:    30
PHOffset:      190
Vcomp_ADC:     50
PHScale:       83
VIColOr:       100
Vcal:          200
CalDel:        135
TempRange:     0
WBC:           164
ChipContReg:   0
Readback:      1
ROC:           BPix_BmO_SEC4_LYR4_LDR16F_MOD1_ROC13
Vdd:           6
Vana:          81
Vsh:           30
Vcomp:         12
VwllPr:        150
VwllSh:        150
VHldDel:       250
Vtrim:         113
VcThr:         90
VIbias_bus:    30
PHOffset:      156
Vcomp_ADC:     50
PHScale:       81
VIColOr:       100
Vcal:          200
CalDel:        142
TempRange:     0
WBC:           164
ChipContReg:   0
Readback:      1
ROC:           BPix_BmO_SEC4_LYR4_LDR16F_MOD1_ROC14
Vdd:           6
Vana:          72
Vsh:           30
Vcomp:         12
VwllPr:        150
VwllSh:        150
VHldDel:       250
Vtrim:         116
VcThr:         97
VIbias_bus:    30
PHOffset:      160
Vcomp_ADC:     50
PHScale:       77
VIColOr:       100
Vcal:          200
CalDel:        146
TempRange:     0
WBC:           164
ChipContReg:   0
Readback:      1
ROC:           BPix_BmO_SEC4_LYR4_LDR16F_MOD1_ROC15
Vdd:           6
Vana:          78
Vsh:           30
Vcomp:         12
VwllPr:        150
VwllSh:        150
VHldDel:       250
Vtrim:         134
VcThr:         105
VIbias_bus:    30
PHOffset:      178
Vcomp_ADC:     50
PHScale:       78
VIColOr:       100
Vcal:          200
CalDel:        138
TempRange:     0
WBC:           164
ChipContReg:   0
Readback:      1
