BPix_BmI_SEC1_LYR4_LDR4F_MOD4_ROC0
TBMABase0: 0
TBMBBase0: 0
TBMAAutoReset: 0
TBMBAutoReset: 0
TBMANoTokenPass: 0
TBMBNoTokenPass: 0
TBMADisablePKAMCounter: 1
TBMBDisablePKAMCounter: 1
TBMAPKAMCount: 5
TBMBPKAMCount: 5
TBMPLLDelay: 248
TBMADelay: 228
TBMBDelay: 228
