BPix_BpI_SEC8_LYR3_LDR22F_MOD4_ROC0
TBMABase0: 0
TBMBBase0: 0
TBMAAutoReset: 0
TBMAAutoResetCount: 5
TBMBAutoReset: 0
TBMBAutoResetCount: 5
TBMANoTokenPass: 0
TBMBNoTokenPass: 0
TBMADisablePKAMCounter: 0
TBMBDisablePKAMCounter: 0
TBMAPKAMCount: 10
TBMBPKAMCount: 10
TBMPLLDelay: 252
TBMADelay: 219
TBMBDelay: 219
