ROC:           BPix_BmI_SEC2_LYR1_LDR2F_MOD3_ROC0
Vdd:           6
Vana:          81
Vsh:           30
Vcomp:         12
VwllPr:        150
VwllSh:        150
VHldDel:       250
Vtrim:         151
VcThr:         128
VIbias_bus:    30
PHOffset:      121
Vcomp_ADC:     50
PHScale:       48
VIColOr:       100
Vcal:          200
CalDel:        107
TempRange:     0
WBC:           98
ChipContReg:   0
Readback:      1
ROC:           BPix_BmI_SEC2_LYR1_LDR2F_MOD3_ROC1
Vdd:           6
Vana:          82
Vsh:           30
Vcomp:         12
VwllPr:        150
VwllSh:        150
VHldDel:       250
Vtrim:         140
VcThr:         126
VIbias_bus:    30
PHOffset:      123
Vcomp_ADC:     50
PHScale:       51
VIColOr:       100
Vcal:          200
CalDel:        109
TempRange:     0
WBC:           98
ChipContReg:   0
Readback:      1
ROC:           BPix_BmI_SEC2_LYR1_LDR2F_MOD3_ROC2
Vdd:           6
Vana:          81
Vsh:           30
Vcomp:         12
VwllPr:        150
VwllSh:        150
VHldDel:       250
Vtrim:         155
VcThr:         131
VIbias_bus:    30
PHOffset:      121
Vcomp_ADC:     50
PHScale:       51
VIColOr:       100
Vcal:          200
CalDel:        90
TempRange:     0
WBC:           98
ChipContReg:   0
Readback:      1
ROC:           BPix_BmI_SEC2_LYR1_LDR2F_MOD3_ROC3
Vdd:           6
Vana:          83
Vsh:           30
Vcomp:         12
VwllPr:        150
VwllSh:        150
VHldDel:       250
Vtrim:         131
VcThr:         132
VIbias_bus:    30
PHOffset:      88
Vcomp_ADC:     50
PHScale:       42
VIColOr:       100
Vcal:          200
CalDel:        79
TempRange:     0
WBC:           98
ChipContReg:   0
Readback:      1
ROC:           BPix_BmI_SEC2_LYR1_LDR2F_MOD3_ROC12
Vdd:           6
Vana:          67
Vsh:           30
Vcomp:         12
VwllPr:        150
VwllSh:        150
VHldDel:       250
Vtrim:         134
VcThr:         130
VIbias_bus:    30
PHOffset:      103
Vcomp_ADC:     50
PHScale:       51
VIColOr:       100
Vcal:          200
CalDel:        87
TempRange:     0
WBC:           98
ChipContReg:   0
Readback:      1
ROC:           BPix_BmI_SEC2_LYR1_LDR2F_MOD3_ROC13
Vdd:           6
Vana:          73
Vsh:           30
Vcomp:         12
VwllPr:        150
VwllSh:        150
VHldDel:       250
Vtrim:         140
VcThr:         118
VIbias_bus:    30
PHOffset:      95
Vcomp_ADC:     50
PHScale:       36
VIColOr:       100
Vcal:          200
CalDel:        90
TempRange:     0
WBC:           98
ChipContReg:   0
Readback:      1
ROC:           BPix_BmI_SEC2_LYR1_LDR2F_MOD3_ROC14
Vdd:           6
Vana:          81
Vsh:           30
Vcomp:         12
VwllPr:        150
VwllSh:        150
VHldDel:       250
Vtrim:         138
VcThr:         129
VIbias_bus:    30
PHOffset:      111
Vcomp_ADC:     50
PHScale:       38
VIColOr:       100
Vcal:          200
CalDel:        105
TempRange:     0
WBC:           98
ChipContReg:   0
Readback:      1
ROC:           BPix_BmI_SEC2_LYR1_LDR2F_MOD3_ROC15
Vdd:           6
Vana:          72
Vsh:           30
Vcomp:         12
VwllPr:        150
VwllSh:        150
VHldDel:       250
Vtrim:         139
VcThr:         132
VIbias_bus:    30
PHOffset:      105
Vcomp_ADC:     50
PHScale:       36
VIColOr:       100
Vcal:          200
CalDel:        100
TempRange:     0
WBC:           98
ChipContReg:   0
Readback:      1
