ROC:           BPix_BpO_SEC4_LYR1_LDR3F_MOD3_ROC0
Vdd:           6
Vana:          78
Vsh:           30
Vcomp:         12
VwllPr:        150
VwllSh:        150
VHldDel:       250
Vtrim:         122
VcThr:         124
VIbias_bus:    30
PHOffset:      126
Vcomp_ADC:     50
PHScale:       48
VIColOr:       100
Vcal:          200
CalDel:        94
TempRange:     0
WBC:           98
ChipContReg:   0
Readback:      1
ROC:           BPix_BpO_SEC4_LYR1_LDR3F_MOD3_ROC1
Vdd:           6
Vana:          78
Vsh:           30
Vcomp:         12
VwllPr:        150
VwllSh:        150
VHldDel:       250
Vtrim:         122
VcThr:         119
VIbias_bus:    30
PHOffset:      100
Vcomp_ADC:     50
PHScale:       30
VIColOr:       100
Vcal:          200
CalDel:        81
TempRange:     0
WBC:           98
ChipContReg:   0
Readback:      1
ROC:           BPix_BpO_SEC4_LYR1_LDR3F_MOD3_ROC2
Vdd:           6
Vana:          79
Vsh:           30
Vcomp:         12
VwllPr:        150
VwllSh:        150
VHldDel:       250
Vtrim:         135
VcThr:         109
VIbias_bus:    30
PHOffset:      107
Vcomp_ADC:     50
PHScale:       40
VIColOr:       100
Vcal:          200
CalDel:        105
TempRange:     0
WBC:           98
ChipContReg:   0
Readback:      1
ROC:           BPix_BpO_SEC4_LYR1_LDR3F_MOD3_ROC3
Vdd:           6
Vana:          74
Vsh:           30
Vcomp:         12
VwllPr:        150
VwllSh:        150
VHldDel:       250
Vtrim:         121
VcThr:         127
VIbias_bus:    30
PHOffset:      101
Vcomp_ADC:     50
PHScale:       43
VIColOr:       100
Vcal:          200
CalDel:        93
TempRange:     0
WBC:           98
ChipContReg:   0
Readback:      1
ROC:           BPix_BpO_SEC4_LYR1_LDR3F_MOD3_ROC12
Vdd:           6
Vana:          76
Vsh:           30
Vcomp:         12
VwllPr:        150
VwllSh:        150
VHldDel:       250
Vtrim:         116
VcThr:         128
VIbias_bus:    30
PHOffset:      96
Vcomp_ADC:     50
PHScale:       50
VIColOr:       100
Vcal:          200
CalDel:        97
TempRange:     0
WBC:           98
ChipContReg:   0
Readback:      1
ROC:           BPix_BpO_SEC4_LYR1_LDR3F_MOD3_ROC13
Vdd:           6
Vana:          68
Vsh:           30
Vcomp:         12
VwllPr:        150
VwllSh:        150
VHldDel:       250
Vtrim:         119
VcThr:         128
VIbias_bus:    30
PHOffset:      125
Vcomp_ADC:     50
PHScale:       52
VIColOr:       100
Vcal:          200
CalDel:        85
TempRange:     0
WBC:           98
ChipContReg:   0
Readback:      1
ROC:           BPix_BpO_SEC4_LYR1_LDR3F_MOD3_ROC14
Vdd:           6
Vana:          71
Vsh:           30
Vcomp:         12
VwllPr:        150
VwllSh:        150
VHldDel:       250
Vtrim:         129
VcThr:         113
VIbias_bus:    30
PHOffset:      106
Vcomp_ADC:     50
PHScale:       30
VIColOr:       100
Vcal:          200
CalDel:        89
TempRange:     0
WBC:           98
ChipContReg:   0
Readback:      1
ROC:           BPix_BpO_SEC4_LYR1_LDR3F_MOD3_ROC15
Vdd:           6
Vana:          76
Vsh:           30
Vcomp:         12
VwllPr:        150
VwllSh:        150
VHldDel:       250
Vtrim:         119
VcThr:         130
VIbias_bus:    30
PHOffset:      123
Vcomp_ADC:     50
PHScale:       47
VIColOr:       100
Vcal:          200
CalDel:        97
TempRange:     0
WBC:           98
ChipContReg:   0
Readback:      1
