ROC:           BPix_BmO_SEC1_LYR2_LDR1F_MOD4_ROC0
Vdd:           6
Vana:          78
Vsh:           30
Vcomp:         12
VwllPr:        150
VwllSh:        150
VHldDel:       250
Vtrim:         102
VcThr:         99
VIbias_bus:    30
PHOffset:      165
Vcomp_ADC:     50
PHScale:       86
VIColOr:       100
Vcal:          200
CalDel:        130
TempRange:     0
WBC:           98
ChipContReg:   0
Readback:      1
ROC:           BPix_BmO_SEC1_LYR2_LDR1F_MOD4_ROC1
Vdd:           6
Vana:          88
Vsh:           30
Vcomp:         12
VwllPr:        150
VwllSh:        150
VHldDel:       250
Vtrim:         101
VcThr:         91
VIbias_bus:    30
PHOffset:      165
Vcomp_ADC:     50
PHScale:       72
VIColOr:       100
Vcal:          200
CalDel:        145
TempRange:     0
WBC:           98
ChipContReg:   0
Readback:      1
ROC:           BPix_BmO_SEC1_LYR2_LDR1F_MOD4_ROC2
Vdd:           6
Vana:          78
Vsh:           30
Vcomp:         12
VwllPr:        150
VwllSh:        150
VHldDel:       250
Vtrim:         94
VcThr:         92
VIbias_bus:    30
PHOffset:      190
Vcomp_ADC:     50
PHScale:       78
VIColOr:       100
Vcal:          200
CalDel:        143
TempRange:     0
WBC:           98
ChipContReg:   0
Readback:      1
ROC:           BPix_BmO_SEC1_LYR2_LDR1F_MOD4_ROC3
Vdd:           6
Vana:          80
Vsh:           30
Vcomp:         12
VwllPr:        150
VwllSh:        150
VHldDel:       250
Vtrim:         114
VcThr:         102
VIbias_bus:    30
PHOffset:      167
Vcomp_ADC:     50
PHScale:       75
VIColOr:       100
Vcal:          200
CalDel:        141
TempRange:     0
WBC:           98
ChipContReg:   0
Readback:      1
ROC:           BPix_BmO_SEC1_LYR2_LDR1F_MOD4_ROC4
Vdd:           6
Vana:          88
Vsh:           30
Vcomp:         12
VwllPr:        150
VwllSh:        150
VHldDel:       250
Vtrim:         107
VcThr:         93
VIbias_bus:    30
PHOffset:      186
Vcomp_ADC:     50
PHScale:       80
VIColOr:       100
Vcal:          200
CalDel:        136
TempRange:     0
WBC:           98
ChipContReg:   0
Readback:      1
ROC:           BPix_BmO_SEC1_LYR2_LDR1F_MOD4_ROC5
Vdd:           6
Vana:          78
Vsh:           30
Vcomp:         12
VwllPr:        150
VwllSh:        150
VHldDel:       250
Vtrim:         109
VcThr:         96
VIbias_bus:    30
PHOffset:      186
Vcomp_ADC:     50
PHScale:       76
VIColOr:       100
Vcal:          200
CalDel:        145
TempRange:     0
WBC:           98
ChipContReg:   0
Readback:      1
ROC:           BPix_BmO_SEC1_LYR2_LDR1F_MOD4_ROC6
Vdd:           6
Vana:          84
Vsh:           30
Vcomp:         12
VwllPr:        150
VwllSh:        150
VHldDel:       250
Vtrim:         119
VcThr:         101
VIbias_bus:    30
PHOffset:      173
Vcomp_ADC:     50
PHScale:       74
VIColOr:       100
Vcal:          200
CalDel:        139
TempRange:     0
WBC:           98
ChipContReg:   0
Readback:      1
ROC:           BPix_BmO_SEC1_LYR2_LDR1F_MOD4_ROC7
Vdd:           6
Vana:          89
Vsh:           30
Vcomp:         12
VwllPr:        150
VwllSh:        150
VHldDel:       250
Vtrim:         99
VcThr:         91
VIbias_bus:    30
PHOffset:      174
Vcomp_ADC:     50
PHScale:       74
VIColOr:       100
Vcal:          200
CalDel:        131
TempRange:     0
WBC:           98
ChipContReg:   0
Readback:      1
ROC:           BPix_BmO_SEC1_LYR2_LDR1F_MOD4_ROC8
Vdd:           6
Vana:          80
Vsh:           30
Vcomp:         12
VwllPr:        150
VwllSh:        150
VHldDel:       250
Vtrim:         98
VcThr:         98
VIbias_bus:    30
PHOffset:      177
Vcomp_ADC:     50
PHScale:       73
VIColOr:       100
Vcal:          200
CalDel:        153
TempRange:     0
WBC:           98
ChipContReg:   0
Readback:      1
ROC:           BPix_BmO_SEC1_LYR2_LDR1F_MOD4_ROC9
Vdd:           6
Vana:          78
Vsh:           30
Vcomp:         12
VwllPr:        150
VwllSh:        150
VHldDel:       250
Vtrim:         126
VcThr:         95
VIbias_bus:    30
PHOffset:      176
Vcomp_ADC:     50
PHScale:       75
VIColOr:       100
Vcal:          200
CalDel:        150
TempRange:     0
WBC:           98
ChipContReg:   0
Readback:      1
ROC:           BPix_BmO_SEC1_LYR2_LDR1F_MOD4_ROC10
Vdd:           6
Vana:          80
Vsh:           30
Vcomp:         12
VwllPr:        150
VwllSh:        150
VHldDel:       250
Vtrim:         94
VcThr:         92
VIbias_bus:    30
PHOffset:      172
Vcomp_ADC:     50
PHScale:       69
VIColOr:       100
Vcal:          200
CalDel:        146
TempRange:     0
WBC:           98
ChipContReg:   0
Readback:      1
ROC:           BPix_BmO_SEC1_LYR2_LDR1F_MOD4_ROC11
Vdd:           6
Vana:          89
Vsh:           30
Vcomp:         12
VwllPr:        150
VwllSh:        150
VHldDel:       250
Vtrim:         89
VcThr:         98
VIbias_bus:    30
PHOffset:      173
Vcomp_ADC:     50
PHScale:       75
VIColOr:       100
Vcal:          200
CalDel:        148
TempRange:     0
WBC:           98
ChipContReg:   0
Readback:      1
ROC:           BPix_BmO_SEC1_LYR2_LDR1F_MOD4_ROC12
Vdd:           6
Vana:          79
Vsh:           30
Vcomp:         12
VwllPr:        150
VwllSh:        150
VHldDel:       250
Vtrim:         103
VcThr:         103
VIbias_bus:    30
PHOffset:      173
Vcomp_ADC:     50
PHScale:       77
VIColOr:       100
Vcal:          200
CalDel:        139
TempRange:     0
WBC:           98
ChipContReg:   0
Readback:      1
ROC:           BPix_BmO_SEC1_LYR2_LDR1F_MOD4_ROC13
Vdd:           6
Vana:          78
Vsh:           30
Vcomp:         12
VwllPr:        150
VwllSh:        150
VHldDel:       250
Vtrim:         97
VcThr:         101
VIbias_bus:    30
PHOffset:      162
Vcomp_ADC:     50
PHScale:       82
VIColOr:       100
Vcal:          200
CalDel:        132
TempRange:     0
WBC:           98
ChipContReg:   0
Readback:      1
ROC:           BPix_BmO_SEC1_LYR2_LDR1F_MOD4_ROC14
Vdd:           6
Vana:          89
Vsh:           30
Vcomp:         12
VwllPr:        150
VwllSh:        150
VHldDel:       250
Vtrim:         94
VcThr:         95
VIbias_bus:    30
PHOffset:      180
Vcomp_ADC:     50
PHScale:       77
VIColOr:       100
Vcal:          200
CalDel:        131
TempRange:     0
WBC:           98
ChipContReg:   0
Readback:      1
ROC:           BPix_BmO_SEC1_LYR2_LDR1F_MOD4_ROC15
Vdd:           6
Vana:          85
Vsh:           30
Vcomp:         12
VwllPr:        150
VwllSh:        150
VHldDel:       250
Vtrim:         95
VcThr:         88
VIbias_bus:    30
PHOffset:      176
Vcomp_ADC:     50
PHScale:       86
VIColOr:       100
Vcal:          200
CalDel:        132
TempRange:     0
WBC:           98
ChipContReg:   0
Readback:      1
