ROC:           BPix_BmI_SEC4_LYR3_LDR10F_MOD3_ROC0
Vdd:           6
Vana:          85
Vsh:           30
Vcomp:         12
VwllPr:        150
VwllSh:        150
VHldDel:       250
Vtrim:         128
VcThr:         100
VIbias_bus:    30
PHOffset:      186
Vcomp_ADC:     50
PHScale:       65
VIColOr:       10
Vcal:          200
CalDel:        127
TempRange:     0
WBC:           98
ChipContReg:   0
Readback:      1
ROC:           BPix_BmI_SEC4_LYR3_LDR10F_MOD3_ROC1
Vdd:           6
Vana:          78
Vsh:           30
Vcomp:         12
VwllPr:        150
VwllSh:        150
VHldDel:       250
Vtrim:         119
VcThr:         97
VIbias_bus:    30
PHOffset:      176
Vcomp_ADC:     50
PHScale:       75
VIColOr:       10
Vcal:          200
CalDel:        123
TempRange:     0
WBC:           98
ChipContReg:   0
Readback:      1
ROC:           BPix_BmI_SEC4_LYR3_LDR10F_MOD3_ROC2
Vdd:           6
Vana:          81
Vsh:           30
Vcomp:         12
VwllPr:        150
VwllSh:        150
VHldDel:       250
Vtrim:         133
VcThr:         103
VIbias_bus:    30
PHOffset:      174
Vcomp_ADC:     50
PHScale:       73
VIColOr:       10
Vcal:          200
CalDel:        119
TempRange:     0
WBC:           98
ChipContReg:   0
Readback:      1
ROC:           BPix_BmI_SEC4_LYR3_LDR10F_MOD3_ROC3
Vdd:           6
Vana:          90
Vsh:           30
Vcomp:         12
VwllPr:        150
VwllSh:        150
VHldDel:       250
Vtrim:         114
VcThr:         82
VIbias_bus:    30
PHOffset:      167
Vcomp_ADC:     50
PHScale:       72
VIColOr:       10
Vcal:          200
CalDel:        119
TempRange:     0
WBC:           98
ChipContReg:   0
Readback:      1
ROC:           BPix_BmI_SEC4_LYR3_LDR10F_MOD3_ROC4
Vdd:           6
Vana:          90
Vsh:           30
Vcomp:         12
VwllPr:        150
VwllSh:        150
VHldDel:       250
Vtrim:         117
VcThr:         107
VIbias_bus:    30
PHOffset:      165
Vcomp_ADC:     50
PHScale:       75
VIColOr:       10
Vcal:          200
CalDel:        122
TempRange:     0
WBC:           98
ChipContReg:   0
Readback:      1
ROC:           BPix_BmI_SEC4_LYR3_LDR10F_MOD3_ROC5
Vdd:           6
Vana:          81
Vsh:           30
Vcomp:         12
VwllPr:        150
VwllSh:        150
VHldDel:       250
Vtrim:         108
VcThr:         100
VIbias_bus:    30
PHOffset:      180
Vcomp_ADC:     50
PHScale:       64
VIColOr:       10
Vcal:          200
CalDel:        137
TempRange:     0
WBC:           98
ChipContReg:   0
Readback:      1
ROC:           BPix_BmI_SEC4_LYR3_LDR10F_MOD3_ROC6
Vdd:           6
Vana:          75
Vsh:           30
Vcomp:         12
VwllPr:        150
VwllSh:        150
VHldDel:       250
Vtrim:         108
VcThr:         100
VIbias_bus:    30
PHOffset:      182
Vcomp_ADC:     50
PHScale:       70
VIColOr:       10
Vcal:          200
CalDel:        122
TempRange:     0
WBC:           98
ChipContReg:   0
Readback:      1
ROC:           BPix_BmI_SEC4_LYR3_LDR10F_MOD3_ROC7
Vdd:           6
Vana:          81
Vsh:           30
Vcomp:         12
VwllPr:        150
VwllSh:        150
VHldDel:       250
Vtrim:         121
VcThr:         99
VIbias_bus:    30
PHOffset:      188
Vcomp_ADC:     50
PHScale:       65
VIColOr:       10
Vcal:          200
CalDel:        126
TempRange:     0
WBC:           98
ChipContReg:   0
Readback:      1
ROC:           BPix_BmI_SEC4_LYR3_LDR10F_MOD3_ROC8
Vdd:           6
Vana:          79
Vsh:           30
Vcomp:         12
VwllPr:        150
VwllSh:        150
VHldDel:       250
Vtrim:         109
VcThr:         99
VIbias_bus:    30
PHOffset:      188
Vcomp_ADC:     50
PHScale:       67
VIColOr:       10
Vcal:          200
CalDel:        113
TempRange:     0
WBC:           98
ChipContReg:   0
Readback:      1
ROC:           BPix_BmI_SEC4_LYR3_LDR10F_MOD3_ROC9
Vdd:           6
Vana:          75
Vsh:           30
Vcomp:         12
VwllPr:        150
VwllSh:        150
VHldDel:       250
Vtrim:         116
VcThr:         104
VIbias_bus:    30
PHOffset:      193
Vcomp_ADC:     50
PHScale:       63
VIColOr:       10
Vcal:          200
CalDel:        110
TempRange:     0
WBC:           98
ChipContReg:   0
Readback:      1
ROC:           BPix_BmI_SEC4_LYR3_LDR10F_MOD3_ROC10
Vdd:           6
Vana:          81
Vsh:           30
Vcomp:         12
VwllPr:        150
VwllSh:        150
VHldDel:       250
Vtrim:         141
VcThr:         96
VIbias_bus:    30
PHOffset:      194
Vcomp_ADC:     50
PHScale:       60
VIColOr:       10
Vcal:          200
CalDel:        133
TempRange:     0
WBC:           98
ChipContReg:   0
Readback:      1
ROC:           BPix_BmI_SEC4_LYR3_LDR10F_MOD3_ROC11
Vdd:           6
Vana:          82
Vsh:           30
Vcomp:         12
VwllPr:        150
VwllSh:        150
VHldDel:       250
Vtrim:         106
VcThr:         100
VIbias_bus:    30
PHOffset:      181
Vcomp_ADC:     50
PHScale:       57
VIColOr:       10
Vcal:          200
CalDel:        148
TempRange:     0
WBC:           98
ChipContReg:   0
Readback:      1
ROC:           BPix_BmI_SEC4_LYR3_LDR10F_MOD3_ROC12
Vdd:           6
Vana:          81
Vsh:           30
Vcomp:         12
VwllPr:        150
VwllSh:        150
VHldDel:       250
Vtrim:         93
VcThr:         102
VIbias_bus:    30
PHOffset:      189
Vcomp_ADC:     50
PHScale:       70
VIColOr:       10
Vcal:          200
CalDel:        120
TempRange:     0
WBC:           98
ChipContReg:   0
Readback:      1
ROC:           BPix_BmI_SEC4_LYR3_LDR10F_MOD3_ROC13
Vdd:           6
Vana:          81
Vsh:           30
Vcomp:         12
VwllPr:        150
VwllSh:        150
VHldDel:       250
Vtrim:         113
VcThr:         99
VIbias_bus:    30
PHOffset:      164
Vcomp_ADC:     50
PHScale:       74
VIColOr:       10
Vcal:          200
CalDel:        133
TempRange:     0
WBC:           98
ChipContReg:   0
Readback:      1
ROC:           BPix_BmI_SEC4_LYR3_LDR10F_MOD3_ROC14
Vdd:           6
Vana:          81
Vsh:           30
Vcomp:         12
VwllPr:        150
VwllSh:        150
VHldDel:       250
Vtrim:         110
VcThr:         102
VIbias_bus:    30
PHOffset:      176
Vcomp_ADC:     50
PHScale:       79
VIColOr:       10
Vcal:          200
CalDel:        132
TempRange:     0
WBC:           98
ChipContReg:   0
Readback:      1
ROC:           BPix_BmI_SEC4_LYR3_LDR10F_MOD3_ROC15
Vdd:           6
Vana:          98
Vsh:           30
Vcomp:         12
VwllPr:        150
VwllSh:        150
VHldDel:       250
Vtrim:         107
VcThr:         94
VIbias_bus:    30
PHOffset:      180
Vcomp_ADC:     50
PHScale:       64
VIColOr:       10
Vcal:          200
CalDel:        114
TempRange:     0
WBC:           98
ChipContReg:   0
Readback:      1
