ROC:           BPix_BpI_SEC2_LYR4_LDR8F_MOD3_ROC0
Vdd:           6
Vana:          107
Vsh:           30
Vcomp:         12
VwllPr:        150
VwllSh:        150
VHldDel:       250
Vtrim:         159
VcThr:         106
VIbias_bus:    30
PHOffset:      192
Vcomp_ADC:     50
PHScale:       74
VIColOr:       100
Vcal:          200
CalDel:        113
TempRange:     0
WBC:           98
ChipContReg:   0
Readback:      1
ROC:           BPix_BpI_SEC2_LYR4_LDR8F_MOD3_ROC1
Vdd:           6
Vana:          93
Vsh:           30
Vcomp:         12
VwllPr:        150
VwllSh:        150
VHldDel:       250
Vtrim:         115
VcThr:         104
VIbias_bus:    30
PHOffset:      173
Vcomp_ADC:     50
PHScale:       57
VIColOr:       100
Vcal:          200
CalDel:        122
TempRange:     0
WBC:           98
ChipContReg:   0
Readback:      1
ROC:           BPix_BpI_SEC2_LYR4_LDR8F_MOD3_ROC2
Vdd:           6
Vana:          82
Vsh:           30
Vcomp:         12
VwllPr:        150
VwllSh:        150
VHldDel:       250
Vtrim:         132
VcThr:         110
VIbias_bus:    30
PHOffset:      187
Vcomp_ADC:     50
PHScale:       69
VIColOr:       100
Vcal:          200
CalDel:        126
TempRange:     0
WBC:           98
ChipContReg:   0
Readback:      1
ROC:           BPix_BpI_SEC2_LYR4_LDR8F_MOD3_ROC3
Vdd:           6
Vana:          93
Vsh:           30
Vcomp:         12
VwllPr:        150
VwllSh:        150
VHldDel:       250
Vtrim:         126
VcThr:         109
VIbias_bus:    30
PHOffset:      182
Vcomp_ADC:     50
PHScale:       59
VIColOr:       100
Vcal:          200
CalDel:        125
TempRange:     0
WBC:           98
ChipContReg:   0
Readback:      1
ROC:           BPix_BpI_SEC2_LYR4_LDR8F_MOD3_ROC4
Vdd:           6
Vana:          98
Vsh:           30
Vcomp:         12
VwllPr:        150
VwllSh:        150
VHldDel:       250
Vtrim:         105
VcThr:         100
VIbias_bus:    30
PHOffset:      177
Vcomp_ADC:     50
PHScale:       69
VIColOr:       100
Vcal:          200
CalDel:        141
TempRange:     0
WBC:           98
ChipContReg:   0
Readback:      1
ROC:           BPix_BpI_SEC2_LYR4_LDR8F_MOD3_ROC5
Vdd:           6
Vana:          87
Vsh:           30
Vcomp:         12
VwllPr:        150
VwllSh:        150
VHldDel:       250
Vtrim:         125
VcThr:         107
VIbias_bus:    30
PHOffset:      181
Vcomp_ADC:     50
PHScale:       64
VIColOr:       100
Vcal:          200
CalDel:        127
TempRange:     0
WBC:           98
ChipContReg:   0
Readback:      1
ROC:           BPix_BpI_SEC2_LYR4_LDR8F_MOD3_ROC6
Vdd:           6
Vana:          92
Vsh:           30
Vcomp:         12
VwllPr:        150
VwllSh:        150
VHldDel:       250
Vtrim:         99
VcThr:         101
VIbias_bus:    30
PHOffset:      204
Vcomp_ADC:     50
PHScale:       65
VIColOr:       100
Vcal:          200
CalDel:        128
TempRange:     0
WBC:           98
ChipContReg:   0
Readback:      1
ROC:           BPix_BpI_SEC2_LYR4_LDR8F_MOD3_ROC7
Vdd:           6
Vana:          91
Vsh:           30
Vcomp:         12
VwllPr:        150
VwllSh:        150
VHldDel:       250
Vtrim:         106
VcThr:         105
VIbias_bus:    30
PHOffset:      184
Vcomp_ADC:     50
PHScale:       68
VIColOr:       100
Vcal:          200
CalDel:        129
TempRange:     0
WBC:           98
ChipContReg:   0
Readback:      1
ROC:           BPix_BpI_SEC2_LYR4_LDR8F_MOD3_ROC8
Vdd:           6
Vana:          82
Vsh:           30
Vcomp:         12
VwllPr:        150
VwllSh:        150
VHldDel:       250
Vtrim:         104
VcThr:         105
VIbias_bus:    30
PHOffset:      173
Vcomp_ADC:     50
PHScale:       65
VIColOr:       100
Vcal:          200
CalDel:        153
TempRange:     0
WBC:           98
ChipContReg:   0
Readback:      1
ROC:           BPix_BpI_SEC2_LYR4_LDR8F_MOD3_ROC9
Vdd:           6
Vana:          91
Vsh:           30
Vcomp:         12
VwllPr:        150
VwllSh:        150
VHldDel:       250
Vtrim:         116
VcThr:         106
VIbias_bus:    30
PHOffset:      206
Vcomp_ADC:     50
PHScale:       63
VIColOr:       100
Vcal:          200
CalDel:        124
TempRange:     0
WBC:           98
ChipContReg:   0
Readback:      1
ROC:           BPix_BpI_SEC2_LYR4_LDR8F_MOD3_ROC10
Vdd:           6
Vana:          93
Vsh:           30
Vcomp:         12
VwllPr:        150
VwllSh:        150
VHldDel:       250
Vtrim:         118
VcThr:         111
VIbias_bus:    30
PHOffset:      184
Vcomp_ADC:     50
PHScale:       72
VIColOr:       100
Vcal:          200
CalDel:        120
TempRange:     0
WBC:           98
ChipContReg:   0
Readback:      1
ROC:           BPix_BpI_SEC2_LYR4_LDR8F_MOD3_ROC11
Vdd:           6
Vana:          87
Vsh:           30
Vcomp:         12
VwllPr:        150
VwllSh:        150
VHldDel:       250
Vtrim:         132
VcThr:         113
VIbias_bus:    30
PHOffset:      186
Vcomp_ADC:     50
PHScale:       63
VIColOr:       100
Vcal:          200
CalDel:        117
TempRange:     0
WBC:           98
ChipContReg:   0
Readback:      1
ROC:           BPix_BpI_SEC2_LYR4_LDR8F_MOD3_ROC12
Vdd:           6
Vana:          96
Vsh:           30
Vcomp:         12
VwllPr:        150
VwllSh:        150
VHldDel:       250
Vtrim:         120
VcThr:         107
VIbias_bus:    30
PHOffset:      184
Vcomp_ADC:     50
PHScale:       56
VIColOr:       100
Vcal:          200
CalDel:        110
TempRange:     0
WBC:           98
ChipContReg:   0
Readback:      1
ROC:           BPix_BpI_SEC2_LYR4_LDR8F_MOD3_ROC13
Vdd:           6
Vana:          91
Vsh:           30
Vcomp:         12
VwllPr:        150
VwllSh:        150
VHldDel:       250
Vtrim:         106
VcThr:         101
VIbias_bus:    30
PHOffset:      173
Vcomp_ADC:     50
PHScale:       65
VIColOr:       100
Vcal:          200
CalDel:        127
TempRange:     0
WBC:           98
ChipContReg:   0
Readback:      1
ROC:           BPix_BpI_SEC2_LYR4_LDR8F_MOD3_ROC14
Vdd:           6
Vana:          77
Vsh:           30
Vcomp:         12
VwllPr:        150
VwllSh:        150
VHldDel:       250
Vtrim:         130
VcThr:         94
VIbias_bus:    30
PHOffset:      178
Vcomp_ADC:     50
PHScale:       70
VIColOr:       100
Vcal:          200
CalDel:        124
TempRange:     0
WBC:           98
ChipContReg:   0
Readback:      1
ROC:           BPix_BpI_SEC2_LYR4_LDR8F_MOD3_ROC15
Vdd:           6
Vana:          87
Vsh:           30
Vcomp:         12
VwllPr:        150
VwllSh:        150
VHldDel:       250
Vtrim:         120
VcThr:         105
VIbias_bus:    30
PHOffset:      194
Vcomp_ADC:     50
PHScale:       63
VIColOr:       100
Vcal:          200
CalDel:        124
TempRange:     0
WBC:           98
ChipContReg:   0
Readback:      1
